M48
;DRILL file {KiCad 5.0.0+dfsg1-2~bpo9+1} date Mon Dec  3 09:47:17 2018
;FORMAT={-:-/ absolute / inch / decimal}
FMAT,2
INCH,TZ
T1C0.0157
T2C0.0197
T3C0.0276
T4C0.0295
T5C0.0315
T6C0.0354
T7C0.0390
T8C0.0394
T9C0.0433
T10C0.0512
T11C0.0591
T12C0.1260
%
G90
G05
M72
T1
X0.73Y8.37
X0.73Y8.05
X0.75Y8.45
X1.58Y7.15
X1.945Y7.13
T2
X2.5055Y6.8
X2.5332Y6.8668
X2.5332Y6.7332
X2.6Y6.8945
X2.6Y6.7055
X2.6668Y6.8668
X2.6668Y6.7332
X2.6945Y6.8
X-0.0945Y6.8
X-0.0668Y6.8668
X-0.0668Y6.7332
X0.Y6.8945
X0.Y6.7055
X0.0668Y6.8668
X0.0668Y6.7332
X0.0945Y6.8
X2.5055Y8.8
X2.5332Y8.8668
X2.5332Y8.7332
X2.6Y8.8945
X2.6Y8.7055
X2.6668Y8.8668
X2.6668Y8.7332
X2.6945Y8.8
X-0.0945Y8.8
X-0.0668Y8.8668
X-0.0668Y8.7332
X0.Y8.8945
X0.Y8.7055
X0.0668Y8.8668
X0.0668Y8.7332
X0.0945Y8.8
T3
X1.15Y7.15
X1.45Y7.15
X1.15Y7.25
X1.45Y7.25
T4
X2.6Y8.45
X2.6Y8.3713
X2.6Y8.2925
X2.6Y8.2138
X-0.05Y8.45
X-0.05Y8.3713
X-0.05Y8.2925
X-0.05Y8.2138
T5
X0.5516Y8.15
X0.65Y8.15
X0.35Y8.15
X0.4484Y8.15
X2.1516Y8.15
X2.25Y8.15
X1.95Y8.15
X2.0484Y8.15
T6
X2.175Y7.075
X2.275Y7.075
X1.675Y7.075
X1.775Y7.075
T7
X1.2Y6.75
X1.3772Y6.75
T8
X2.Y8.8709
X2.Y8.3
X2.0984Y8.3
X2.1969Y8.8709
X2.1969Y8.3
X0.4Y8.8709
X0.4Y8.3
X0.4984Y8.3
X0.5969Y8.8709
X0.5969Y8.3
T9
X2.45Y7.95
X2.45Y7.7728
X2.7059Y7.95
X2.7059Y7.7728
X-0.1Y7.95
X-0.1Y7.7728
X0.1559Y7.95
X0.1559Y7.7728
X2.45Y7.5
X2.45Y7.3228
X2.7059Y7.5
X2.7059Y7.3228
X0.25Y6.9
X0.25Y6.7228
X0.5059Y6.9
X0.5059Y6.7228
X0.75Y6.9
X0.75Y6.7228
X1.0059Y6.9
X1.0059Y6.7228
X1.Y8.9
X1.Y8.8
X1.Y8.7
X1.Y8.6
X1.Y8.5
X1.Y8.4
X1.Y8.3
X1.Y8.2
X1.Y8.1
X1.Y8.
X1.Y7.9
X1.Y7.8
X1.Y7.7
X1.Y7.6
X1.1Y8.8
X1.1Y7.6
X1.2Y7.6
X1.3Y7.6
X1.4Y7.6
X1.5Y7.6
X1.6Y8.9
X1.6Y8.8
X1.6Y8.7
X1.6Y8.6
X1.6Y8.5
X1.6Y8.4
X1.6Y8.3
X1.6Y8.2
X1.6Y8.1
X1.6Y8.
X1.6Y7.9
X1.6Y7.8
X1.6Y7.7
X1.6Y7.6
X0.4Y7.5
X0.4Y7.3228
X0.6559Y7.5
X0.6559Y7.3228
X0.4Y7.95
X0.4Y7.7728
X0.6559Y7.95
X0.6559Y7.7728
X1.6Y6.9
X1.6Y6.7228
X1.8559Y6.9
X1.8559Y6.7228
X1.95Y7.5
X1.95Y7.3228
X2.2059Y7.5
X2.2059Y7.3228
X1.95Y7.95
X1.95Y7.7728
X2.2059Y7.95
X2.2059Y7.7728
X2.1Y6.9
X2.1Y6.7228
X2.3559Y6.9
X2.3559Y6.7228
X-0.1Y7.5
X-0.1Y7.3228
X0.1559Y7.5
X0.1559Y7.3228
T10
X1.1508Y6.848
X1.4268Y6.848
T12
X2.6Y6.8
X0.Y6.8
X2.6Y8.8
X0.Y8.8
T11
X1.878Y8.5697G85X1.878Y8.6209
G05
X2.3189Y8.5697G85X2.3189Y8.6209
G05
X0.278Y8.5697G85X0.278Y8.6209
G05
X0.7189Y8.5697G85X0.7189Y8.6209
G05
T0
M30
