G04 #@! TF.GenerationSoftware,KiCad,Pcbnew,5.0.0+dfsg1-2~bpo9+1*
G04 #@! TF.CreationDate,2018-12-03T09:47:14+00:00*
G04 #@! TF.ProjectId,chordboard,63686F7264626F6172642E6B69636164,rev?*
G04 #@! TF.SameCoordinates,Original*
G04 #@! TF.FileFunction,Profile,NP*
%FSLAX46Y46*%
G04 Gerber Fmt 4.6, Leading zero omitted, Abs format (unit mm)*
G04 Created by KiCad (PCBNEW 5.0.0+dfsg1-2~bpo9+1) date Mon Dec  3 09:47:14 2018*
%MOMM*%
%LPD*%
G01*
G04 APERTURE LIST*
%ADD10C,0.150000*%
G04 APERTURE END LIST*
D10*
X68580000Y228600000D02*
G75*
G02X71120000Y226060000I0J-2540000D01*
G01*
X71120000Y170180000D02*
G75*
G02X68580000Y167640000I-2540000J0D01*
G01*
X-2540000Y167640000D02*
G75*
G02X-5080000Y170180000I0J2540000D01*
G01*
X-5080000Y226060000D02*
G75*
G02X-2540000Y228600000I2540000J0D01*
G01*
X-5080000Y170180000D02*
X-5080000Y226060000D01*
X68580000Y167640000D02*
X-2540000Y167640000D01*
X71120000Y226060000D02*
X71120000Y170180000D01*
X-2540000Y228600000D02*
X68580000Y228600000D01*
M02*
