G04 #@! TF.GenerationSoftware,KiCad,Pcbnew,5.0.0+dfsg1-2~bpo9+1*
G04 #@! TF.CreationDate,2018-12-03T09:47:14+00:00*
G04 #@! TF.ProjectId,chordboard,63686F7264626F6172642E6B69636164,rev?*
G04 #@! TF.SameCoordinates,Original*
G04 #@! TF.FileFunction,Copper,L1,Top,Signal*
G04 #@! TF.FilePolarity,Positive*
%FSLAX46Y46*%
G04 Gerber Fmt 4.6, Leading zero omitted, Abs format (unit mm)*
G04 Created by KiCad (PCBNEW 5.0.0+dfsg1-2~bpo9+1) date Mon Dec  3 09:47:14 2018*
%MOMM*%
%LPD*%
G01*
G04 APERTURE LIST*
G04 #@! TA.AperFunction,ComponentPad*
%ADD10C,1.600000*%
G04 #@! TD*
G04 #@! TA.AperFunction,ComponentPad*
%ADD11C,0.800000*%
G04 #@! TD*
G04 #@! TA.AperFunction,ComponentPad*
%ADD12C,6.400000*%
G04 #@! TD*
G04 #@! TA.AperFunction,ComponentPad*
%ADD13O,1.400000X1.400000*%
G04 #@! TD*
G04 #@! TA.AperFunction,ComponentPad*
%ADD14C,1.400000*%
G04 #@! TD*
G04 #@! TA.AperFunction,ComponentPad*
%ADD15C,1.500000*%
G04 #@! TD*
G04 #@! TA.AperFunction,ComponentPad*
%ADD16R,2.000000X3.200000*%
G04 #@! TD*
G04 #@! TA.AperFunction,ComponentPad*
%ADD17C,2.000000*%
G04 #@! TD*
G04 #@! TA.AperFunction,ComponentPad*
%ADD18R,2.000000X2.000000*%
G04 #@! TD*
G04 #@! TA.AperFunction,Conductor*
%ADD19C,0.100000*%
G04 #@! TD*
G04 #@! TA.AperFunction,ComponentPad*
%ADD20C,1.200000*%
G04 #@! TD*
G04 #@! TA.AperFunction,ComponentPad*
%ADD21O,1.750000X1.200000*%
G04 #@! TD*
G04 #@! TA.AperFunction,ComponentPad*
%ADD22R,1.800000X1.800000*%
G04 #@! TD*
G04 #@! TA.AperFunction,ComponentPad*
%ADD23C,1.800000*%
G04 #@! TD*
G04 #@! TA.AperFunction,ComponentPad*
%ADD24C,2.100000*%
G04 #@! TD*
G04 #@! TA.AperFunction,ComponentPad*
%ADD25C,1.750000*%
G04 #@! TD*
G04 #@! TA.AperFunction,ComponentPad*
%ADD26R,1.600000X1.600000*%
G04 #@! TD*
G04 #@! TA.AperFunction,ViaPad*
%ADD27C,0.800000*%
G04 #@! TD*
G04 #@! TA.AperFunction,Conductor*
%ADD28C,0.400000*%
G04 #@! TD*
G04 APERTURE END LIST*
D10*
G04 #@! TO.P,C1,1*
G04 #@! TO.N,/RE1A*
X49530000Y207010000D03*
G04 #@! TO.P,C1,2*
G04 #@! TO.N,/LC_GND*
X52030000Y207010000D03*
G04 #@! TD*
G04 #@! TO.P,C2,2*
G04 #@! TO.N,/LC_GND*
X54650000Y207010000D03*
G04 #@! TO.P,C2,1*
G04 #@! TO.N,/RE1B*
X57150000Y207010000D03*
G04 #@! TD*
G04 #@! TO.P,C3,1*
G04 #@! TO.N,/RE2A*
X8890000Y207010000D03*
G04 #@! TO.P,C3,2*
G04 #@! TO.N,/LC_GND*
X11390000Y207010000D03*
G04 #@! TD*
G04 #@! TO.P,C4,2*
G04 #@! TO.N,/LC_GND*
X14010000Y207010000D03*
G04 #@! TO.P,C4,1*
G04 #@! TO.N,/RE2B*
X16510000Y207010000D03*
G04 #@! TD*
D11*
G04 #@! TO.P,H1,1*
G04 #@! TO.N,N/C*
X67737056Y174417056D03*
X66040000Y175120000D03*
X64342944Y174417056D03*
X63640000Y172720000D03*
X64342944Y171022944D03*
X66040000Y170320000D03*
X67737056Y171022944D03*
X68440000Y172720000D03*
D12*
X66040000Y172720000D03*
G04 #@! TD*
G04 #@! TO.P,H2,1*
G04 #@! TO.N,N/C*
X0Y223520000D03*
D11*
X2400000Y223520000D03*
X1697056Y221822944D03*
X0Y221120000D03*
X-1697056Y221822944D03*
X-2400000Y223520000D03*
X-1697056Y225217056D03*
X0Y225920000D03*
X1697056Y225217056D03*
G04 #@! TD*
G04 #@! TO.P,H3,1*
G04 #@! TO.N,N/C*
X67737056Y225217056D03*
X66040000Y225920000D03*
X64342944Y225217056D03*
X63640000Y223520000D03*
X64342944Y221822944D03*
X66040000Y221120000D03*
X67737056Y221822944D03*
X68440000Y223520000D03*
D12*
X66040000Y223520000D03*
G04 #@! TD*
G04 #@! TO.P,H4,1*
G04 #@! TO.N,N/C*
X0Y172720000D03*
D11*
X2400000Y172720000D03*
X1697056Y171022944D03*
X0Y170320000D03*
X-1697056Y171022944D03*
X-2400000Y172720000D03*
X-1697056Y174417056D03*
X0Y175120000D03*
X1697056Y174417056D03*
G04 #@! TD*
D13*
G04 #@! TO.P,R4,2*
G04 #@! TO.N,Net-(R4-Pad2)*
X29210000Y181610000D03*
D14*
G04 #@! TO.P,R4,1*
G04 #@! TO.N,Net-(LED1-Pad2)*
X36830000Y181610000D03*
G04 #@! TD*
G04 #@! TO.P,R5,1*
G04 #@! TO.N,Net-(LED2-Pad2)*
X36830000Y184150000D03*
D13*
G04 #@! TO.P,R5,2*
G04 #@! TO.N,Net-(R5-Pad2)*
X29210000Y184150000D03*
G04 #@! TD*
D15*
G04 #@! TO.P,RE1,*
G04 #@! TO.N,*
X55800000Y225320000D03*
X50800000Y225320000D03*
D16*
G04 #@! TO.P,RE1,MP*
G04 #@! TO.N,N/C*
X58900000Y218320000D03*
X47700000Y218320000D03*
D17*
G04 #@! TO.P,RE1,B*
G04 #@! TO.N,/RE1B*
X55800000Y210820000D03*
G04 #@! TO.P,RE1,C*
G04 #@! TO.N,/LC_GND*
X53300000Y210820000D03*
D18*
G04 #@! TO.P,RE1,A*
G04 #@! TO.N,/RE1A*
X50800000Y210820000D03*
G04 #@! TD*
G04 #@! TO.P,RE2,A*
G04 #@! TO.N,/RE2A*
X10160000Y210820000D03*
D17*
G04 #@! TO.P,RE2,C*
G04 #@! TO.N,/LC_GND*
X12660000Y210820000D03*
G04 #@! TO.P,RE2,B*
G04 #@! TO.N,/RE2B*
X15160000Y210820000D03*
D16*
G04 #@! TO.P,RE2,MP*
G04 #@! TO.N,N/C*
X7060000Y218320000D03*
X18260000Y218320000D03*
D15*
G04 #@! TO.P,RE2,*
G04 #@! TO.N,*
X10160000Y225320000D03*
X15160000Y225320000D03*
G04 #@! TD*
D17*
G04 #@! TO.P,CSW1,2*
G04 #@! TO.N,Net-(CSW1-Pad2)*
X62230000Y197430000D03*
G04 #@! TO.P,CSW1,1*
G04 #@! TO.N,/LC_GND*
X62230000Y201930000D03*
G04 #@! TO.P,CSW1,2*
G04 #@! TO.N,Net-(CSW1-Pad2)*
X68730000Y197430000D03*
G04 #@! TO.P,CSW1,1*
G04 #@! TO.N,/LC_GND*
X68730000Y201930000D03*
G04 #@! TD*
G04 #@! TO.P,CSW2,1*
G04 #@! TO.N,/LC_GND*
X56030000Y201930000D03*
G04 #@! TO.P,CSW2,2*
G04 #@! TO.N,Net-(CSW2-Pad2)*
X56030000Y197430000D03*
G04 #@! TO.P,CSW2,1*
G04 #@! TO.N,/LC_GND*
X49530000Y201930000D03*
G04 #@! TO.P,CSW2,2*
G04 #@! TO.N,Net-(CSW2-Pad2)*
X49530000Y197430000D03*
G04 #@! TD*
G04 #@! TO.P,CSW3,2*
G04 #@! TO.N,Net-(CSW3-Pad2)*
X62230000Y186000000D03*
G04 #@! TO.P,CSW3,1*
G04 #@! TO.N,/LC_GND*
X62230000Y190500000D03*
G04 #@! TO.P,CSW3,2*
G04 #@! TO.N,Net-(CSW3-Pad2)*
X68730000Y186000000D03*
G04 #@! TO.P,CSW3,1*
G04 #@! TO.N,/LC_GND*
X68730000Y190500000D03*
G04 #@! TD*
G04 #@! TO.P,CSW4,1*
G04 #@! TO.N,/LC_GND*
X56030000Y190500000D03*
G04 #@! TO.P,CSW4,2*
G04 #@! TO.N,Net-(CSW4-Pad2)*
X56030000Y186000000D03*
G04 #@! TO.P,CSW4,1*
G04 #@! TO.N,/LC_GND*
X49530000Y190500000D03*
G04 #@! TO.P,CSW4,2*
G04 #@! TO.N,Net-(CSW4-Pad2)*
X49530000Y186000000D03*
G04 #@! TD*
G04 #@! TO.P,CSW5,2*
G04 #@! TO.N,Net-(CSW5-Pad2)*
X53340000Y170760000D03*
G04 #@! TO.P,CSW5,1*
G04 #@! TO.N,/LC_GND*
X53340000Y175260000D03*
G04 #@! TO.P,CSW5,2*
G04 #@! TO.N,Net-(CSW5-Pad2)*
X59840000Y170760000D03*
G04 #@! TO.P,CSW5,1*
G04 #@! TO.N,/LC_GND*
X59840000Y175260000D03*
G04 #@! TD*
G04 #@! TO.P,CSW6,1*
G04 #@! TO.N,/LC_GND*
X47140000Y175260000D03*
G04 #@! TO.P,CSW6,2*
G04 #@! TO.N,Net-(CSW6-Pad2)*
X47140000Y170760000D03*
G04 #@! TO.P,CSW6,1*
G04 #@! TO.N,/LC_GND*
X40640000Y175260000D03*
G04 #@! TO.P,CSW6,2*
G04 #@! TO.N,Net-(CSW6-Pad2)*
X40640000Y170760000D03*
G04 #@! TD*
G04 #@! TO.P,CSW7,1*
G04 #@! TO.N,/LC_GND*
X3960000Y201930000D03*
G04 #@! TO.P,CSW7,2*
G04 #@! TO.N,Net-(CSW7-Pad2)*
X3960000Y197430000D03*
G04 #@! TO.P,CSW7,1*
G04 #@! TO.N,/LC_GND*
X-2540000Y201930000D03*
G04 #@! TO.P,CSW7,2*
G04 #@! TO.N,Net-(CSW7-Pad2)*
X-2540000Y197430000D03*
G04 #@! TD*
G04 #@! TO.P,CSW8,2*
G04 #@! TO.N,Net-(CSW8-Pad2)*
X10160000Y197430000D03*
G04 #@! TO.P,CSW8,1*
G04 #@! TO.N,/LC_GND*
X10160000Y201930000D03*
G04 #@! TO.P,CSW8,2*
G04 #@! TO.N,Net-(CSW8-Pad2)*
X16660000Y197430000D03*
G04 #@! TO.P,CSW8,1*
G04 #@! TO.N,/LC_GND*
X16660000Y201930000D03*
G04 #@! TD*
G04 #@! TO.P,CSW9,1*
G04 #@! TO.N,/LC_GND*
X3960000Y190500000D03*
G04 #@! TO.P,CSW9,2*
G04 #@! TO.N,Net-(CSW9-Pad2)*
X3960000Y186000000D03*
G04 #@! TO.P,CSW9,1*
G04 #@! TO.N,/LC_GND*
X-2540000Y190500000D03*
G04 #@! TO.P,CSW9,2*
G04 #@! TO.N,Net-(CSW9-Pad2)*
X-2540000Y186000000D03*
G04 #@! TD*
G04 #@! TO.P,CSW10,2*
G04 #@! TO.N,Net-(CSW10-Pad2)*
X10160000Y186000000D03*
G04 #@! TO.P,CSW10,1*
G04 #@! TO.N,/LC_GND*
X10160000Y190500000D03*
G04 #@! TO.P,CSW10,2*
G04 #@! TO.N,Net-(CSW10-Pad2)*
X16660000Y186000000D03*
G04 #@! TO.P,CSW10,1*
G04 #@! TO.N,/LC_GND*
X16660000Y190500000D03*
G04 #@! TD*
G04 #@! TO.P,CSW12,2*
G04 #@! TO.N,Net-(CSW12-Pad2)*
X6350000Y170760000D03*
G04 #@! TO.P,CSW12,1*
G04 #@! TO.N,/LC_GND*
X6350000Y175260000D03*
G04 #@! TO.P,CSW12,2*
G04 #@! TO.N,Net-(CSW12-Pad2)*
X12850000Y170760000D03*
G04 #@! TO.P,CSW12,1*
G04 #@! TO.N,/LC_GND*
X12850000Y175260000D03*
G04 #@! TD*
G04 #@! TO.P,CSW13,1*
G04 #@! TO.N,/LC_GND*
X25550000Y175260000D03*
G04 #@! TO.P,CSW13,2*
G04 #@! TO.N,Net-(CSW13-Pad2)*
X25550000Y170760000D03*
G04 #@! TO.P,CSW13,1*
G04 #@! TO.N,/LC_GND*
X19050000Y175260000D03*
G04 #@! TO.P,CSW13,2*
G04 #@! TO.N,Net-(CSW13-Pad2)*
X19050000Y170760000D03*
G04 #@! TD*
D19*
G04 #@! TO.N,/LC_SCL*
G04 #@! TO.C,J7*
G36*
X-620495Y215228796D02*
X-596227Y215225196D01*
X-572428Y215219235D01*
X-549329Y215210970D01*
X-527150Y215200480D01*
X-506107Y215187868D01*
X-486401Y215173253D01*
X-468223Y215156777D01*
X-451747Y215138599D01*
X-437132Y215118893D01*
X-424520Y215097850D01*
X-414030Y215075671D01*
X-405765Y215052572D01*
X-399804Y215028773D01*
X-396204Y215004505D01*
X-395000Y214980001D01*
X-395000Y214279999D01*
X-396204Y214255495D01*
X-399804Y214231227D01*
X-405765Y214207428D01*
X-414030Y214184329D01*
X-424520Y214162150D01*
X-437132Y214141107D01*
X-451747Y214121401D01*
X-468223Y214103223D01*
X-486401Y214086747D01*
X-506107Y214072132D01*
X-527150Y214059520D01*
X-549329Y214049030D01*
X-572428Y214040765D01*
X-596227Y214034804D01*
X-620495Y214031204D01*
X-644999Y214030000D01*
X-1895001Y214030000D01*
X-1919505Y214031204D01*
X-1943773Y214034804D01*
X-1967572Y214040765D01*
X-1990671Y214049030D01*
X-2012850Y214059520D01*
X-2033893Y214072132D01*
X-2053599Y214086747D01*
X-2071777Y214103223D01*
X-2088253Y214121401D01*
X-2102868Y214141107D01*
X-2115480Y214162150D01*
X-2125970Y214184329D01*
X-2134235Y214207428D01*
X-2140196Y214231227D01*
X-2143796Y214255495D01*
X-2145000Y214279999D01*
X-2145000Y214980001D01*
X-2143796Y215004505D01*
X-2140196Y215028773D01*
X-2134235Y215052572D01*
X-2125970Y215075671D01*
X-2115480Y215097850D01*
X-2102868Y215118893D01*
X-2088253Y215138599D01*
X-2071777Y215156777D01*
X-2053599Y215173253D01*
X-2033893Y215187868D01*
X-2012850Y215200480D01*
X-1990671Y215210970D01*
X-1967572Y215219235D01*
X-1943773Y215225196D01*
X-1919505Y215228796D01*
X-1895001Y215230000D01*
X-644999Y215230000D01*
X-620495Y215228796D01*
X-620495Y215228796D01*
G37*
D20*
G04 #@! TD*
G04 #@! TO.P,J7,1*
G04 #@! TO.N,/LC_SCL*
X-1270000Y214630000D03*
D21*
G04 #@! TO.P,J7,2*
G04 #@! TO.N,/LC_SDA*
X-1270000Y212630000D03*
G04 #@! TO.P,J7,3*
G04 #@! TO.N,/LC_5V*
X-1270000Y210630000D03*
G04 #@! TO.P,J7,4*
G04 #@! TO.N,/LC_GND*
X-1270000Y208630000D03*
G04 #@! TD*
D22*
G04 #@! TO.P,LED1,1*
G04 #@! TO.N,/LC_GND*
X42545000Y179705000D03*
D23*
G04 #@! TO.P,LED1,2*
G04 #@! TO.N,Net-(LED1-Pad2)*
X45085000Y179705000D03*
G04 #@! TD*
G04 #@! TO.P,LED2,2*
G04 #@! TO.N,Net-(LED2-Pad2)*
X57785000Y179705000D03*
D22*
G04 #@! TO.P,LED2,1*
G04 #@! TO.N,/LC_GND*
X55245000Y179705000D03*
G04 #@! TD*
D24*
G04 #@! TO.P,SW3,*
G04 #@! TO.N,*
X36240000Y173940000D03*
D25*
G04 #@! TO.P,SW3,2*
G04 #@! TO.N,Net-(SW3-Pad2)*
X34980000Y171450000D03*
G04 #@! TO.P,SW3,1*
G04 #@! TO.N,/LC_GND*
X30480000Y171450000D03*
D24*
G04 #@! TO.P,SW3,*
G04 #@! TO.N,*
X29230000Y173940000D03*
G04 #@! TD*
D10*
G04 #@! TO.P,U3,17*
G04 #@! TO.N,N/C*
X33020000Y193040000D03*
G04 #@! TO.P,U3,18*
G04 #@! TO.N,Net-(SW3-Pad2)*
X30480000Y193040000D03*
G04 #@! TO.P,U3,19*
G04 #@! TO.N,N/C*
X27940000Y193040000D03*
G04 #@! TO.P,U3,20*
X25400000Y193040000D03*
G04 #@! TO.P,U3,16*
X35560000Y193040000D03*
G04 #@! TO.P,U3,15*
X38100000Y193040000D03*
G04 #@! TO.P,U3,14*
G04 #@! TO.N,/RE2B*
X40640000Y193040000D03*
G04 #@! TO.P,U3,21*
G04 #@! TO.N,Net-(CSW13-Pad2)*
X25400000Y195580000D03*
G04 #@! TO.P,U3,22*
G04 #@! TO.N,Net-(CSW12-Pad2)*
X25400000Y198120000D03*
G04 #@! TO.P,U3,23*
G04 #@! TO.N,Net-(R5-Pad2)*
X25400000Y200660000D03*
G04 #@! TO.P,U3,24*
G04 #@! TO.N,Net-(R4-Pad2)*
X25400000Y203200000D03*
G04 #@! TO.P,U3,25*
G04 #@! TO.N,/LC_SDA*
X25400000Y205740000D03*
G04 #@! TO.P,U3,26*
G04 #@! TO.N,/LC_SCL*
X25400000Y208280000D03*
G04 #@! TO.P,U3,27*
G04 #@! TO.N,Net-(CSW10-Pad2)*
X25400000Y210820000D03*
G04 #@! TO.P,U3,28*
G04 #@! TO.N,Net-(CSW9-Pad2)*
X25400000Y213360000D03*
G04 #@! TO.P,U3,29*
G04 #@! TO.N,Net-(CSW8-Pad2)*
X25400000Y215900000D03*
G04 #@! TO.P,U3,30*
G04 #@! TO.N,Net-(CSW7-Pad2)*
X25400000Y218440000D03*
G04 #@! TO.P,U3,31*
G04 #@! TO.N,N/C*
X25400000Y220980000D03*
G04 #@! TO.P,U3,32*
G04 #@! TO.N,/LC_GND*
X25400000Y223520000D03*
G04 #@! TO.P,U3,33*
G04 #@! TO.N,/LC_5V*
X25400000Y226060000D03*
G04 #@! TO.P,U3,34*
G04 #@! TO.N,N/C*
X27940000Y223520000D03*
G04 #@! TO.P,U3,13*
G04 #@! TO.N,/RE2A*
X40640000Y195580000D03*
G04 #@! TO.P,U3,12*
G04 #@! TO.N,/RE1B*
X40640000Y198120000D03*
G04 #@! TO.P,U3,11*
G04 #@! TO.N,/RE1A*
X40640000Y200660000D03*
G04 #@! TO.P,U3,10*
G04 #@! TO.N,N/C*
X40640000Y203200000D03*
G04 #@! TO.P,U3,9*
G04 #@! TO.N,Net-(CSW6-Pad2)*
X40640000Y205740000D03*
G04 #@! TO.P,U3,8*
G04 #@! TO.N,Net-(CSW5-Pad2)*
X40640000Y208280000D03*
G04 #@! TO.P,U3,7*
G04 #@! TO.N,Net-(CSW4-Pad2)*
X40640000Y210820000D03*
G04 #@! TO.P,U3,6*
G04 #@! TO.N,Net-(CSW3-Pad2)*
X40640000Y213360000D03*
G04 #@! TO.P,U3,5*
G04 #@! TO.N,Net-(CSW2-Pad2)*
X40640000Y215900000D03*
G04 #@! TO.P,U3,4*
G04 #@! TO.N,Net-(CSW1-Pad2)*
X40640000Y218440000D03*
G04 #@! TO.P,U3,3*
G04 #@! TO.N,/LC_TX*
X40640000Y220980000D03*
G04 #@! TO.P,U3,2*
G04 #@! TO.N,/LC_RX*
X40640000Y223520000D03*
D26*
G04 #@! TO.P,U3,1*
G04 #@! TO.N,/LC_GND*
X40640000Y226060000D03*
G04 #@! TD*
D19*
G04 #@! TO.N,/LC_RX*
G04 #@! TO.C,J8*
G36*
X66689505Y215228796D02*
X66713773Y215225196D01*
X66737572Y215219235D01*
X66760671Y215210970D01*
X66782850Y215200480D01*
X66803893Y215187868D01*
X66823599Y215173253D01*
X66841777Y215156777D01*
X66858253Y215138599D01*
X66872868Y215118893D01*
X66885480Y215097850D01*
X66895970Y215075671D01*
X66904235Y215052572D01*
X66910196Y215028773D01*
X66913796Y215004505D01*
X66915000Y214980001D01*
X66915000Y214279999D01*
X66913796Y214255495D01*
X66910196Y214231227D01*
X66904235Y214207428D01*
X66895970Y214184329D01*
X66885480Y214162150D01*
X66872868Y214141107D01*
X66858253Y214121401D01*
X66841777Y214103223D01*
X66823599Y214086747D01*
X66803893Y214072132D01*
X66782850Y214059520D01*
X66760671Y214049030D01*
X66737572Y214040765D01*
X66713773Y214034804D01*
X66689505Y214031204D01*
X66665001Y214030000D01*
X65414999Y214030000D01*
X65390495Y214031204D01*
X65366227Y214034804D01*
X65342428Y214040765D01*
X65319329Y214049030D01*
X65297150Y214059520D01*
X65276107Y214072132D01*
X65256401Y214086747D01*
X65238223Y214103223D01*
X65221747Y214121401D01*
X65207132Y214141107D01*
X65194520Y214162150D01*
X65184030Y214184329D01*
X65175765Y214207428D01*
X65169804Y214231227D01*
X65166204Y214255495D01*
X65165000Y214279999D01*
X65165000Y214980001D01*
X65166204Y215004505D01*
X65169804Y215028773D01*
X65175765Y215052572D01*
X65184030Y215075671D01*
X65194520Y215097850D01*
X65207132Y215118893D01*
X65221747Y215138599D01*
X65238223Y215156777D01*
X65256401Y215173253D01*
X65276107Y215187868D01*
X65297150Y215200480D01*
X65319329Y215210970D01*
X65342428Y215219235D01*
X65366227Y215225196D01*
X65390495Y215228796D01*
X65414999Y215230000D01*
X66665001Y215230000D01*
X66689505Y215228796D01*
X66689505Y215228796D01*
G37*
D20*
G04 #@! TD*
G04 #@! TO.P,J8,1*
G04 #@! TO.N,/LC_RX*
X66040000Y214630000D03*
D21*
G04 #@! TO.P,J8,2*
G04 #@! TO.N,/LC_TX*
X66040000Y212630000D03*
G04 #@! TO.P,J8,3*
G04 #@! TO.N,/LC_5V*
X66040000Y210630000D03*
G04 #@! TO.P,J8,4*
G04 #@! TO.N,/LC_GND*
X66040000Y208630000D03*
G04 #@! TD*
D27*
G04 #@! TO.N,/RE2A*
X18542000Y204470000D03*
G04 #@! TO.N,/LC_SCL*
X19050000Y214630000D03*
G04 #@! TO.N,/LC_SDA*
X18542000Y212598000D03*
G04 #@! TO.N,Net-(LED1-Pad2)*
X40132000Y181610000D03*
G04 #@! TO.N,Net-(LED2-Pad2)*
X49403000Y181102000D03*
G04 #@! TD*
D28*
G04 #@! TO.N,/RE1A*
X50800000Y208280000D02*
X50800000Y210820000D01*
X49530000Y207010000D02*
X50800000Y208280000D01*
G04 #@! TO.N,/RE1B*
X55800000Y208360000D02*
X55800000Y210820000D01*
X57150000Y207010000D02*
X55800000Y208360000D01*
G04 #@! TO.N,/RE2A*
X10160000Y208280000D02*
X8890000Y207010000D01*
X10160000Y210820000D02*
X10160000Y208280000D01*
X11430000Y204470000D02*
X8890000Y207010000D01*
X18542000Y204470000D02*
X11430000Y204470000D01*
G04 #@! TO.N,/RE2B*
X15160000Y208360000D02*
X16510000Y207010000D01*
X15160000Y210820000D02*
X15160000Y208360000D01*
G04 #@! TO.N,Net-(R4-Pad2)*
X26199999Y202400001D02*
X25400000Y203200000D01*
X29140001Y199459999D02*
X26199999Y202400001D01*
X29140001Y192603997D02*
X29140001Y199459999D01*
X30310001Y191433997D02*
X29140001Y192603997D01*
X30310001Y182710001D02*
X30310001Y191433997D01*
X29210000Y181610000D02*
X30310001Y182710001D01*
G04 #@! TO.N,Net-(R5-Pad2)*
X26199999Y199860001D02*
X25400000Y200660000D01*
X26600001Y199459999D02*
X26199999Y199860001D01*
X26600001Y186759999D02*
X26600001Y199459999D01*
X29210000Y184150000D02*
X26600001Y186759999D01*
G04 #@! TO.N,Net-(CSW1-Pad2)*
X67315787Y197430000D02*
X62230000Y197430000D01*
X68730000Y197430000D02*
X67315787Y197430000D01*
X62230000Y197430000D02*
X58102002Y197430000D01*
X58102002Y197430000D02*
X55888002Y199644000D01*
X55888002Y199644000D02*
X49743998Y199644000D01*
X41439999Y217640001D02*
X40640000Y218440000D01*
X49743998Y199644000D02*
X46920020Y202467978D01*
X46920020Y202467978D02*
X46920020Y212159980D01*
X46920020Y212159980D02*
X41439999Y217640001D01*
G04 #@! TO.N,/LC_GND*
X53300000Y208280000D02*
X52030000Y207010000D01*
X53300000Y210820000D02*
X53300000Y208280000D01*
X53300000Y208360000D02*
X54650000Y207010000D01*
X53300000Y210820000D02*
X53300000Y208360000D01*
X12660000Y208280000D02*
X11390000Y207010000D01*
X12660000Y210820000D02*
X12660000Y208280000D01*
X12660000Y208360000D02*
X14010000Y207010000D01*
X12660000Y210820000D02*
X12660000Y208360000D01*
G04 #@! TO.N,Net-(CSW2-Pad2)*
X56030000Y197430000D02*
X49530000Y197430000D01*
X41439999Y215100001D02*
X40640000Y215900000D01*
X46320010Y210219990D02*
X41439999Y215100001D01*
X46320010Y200639990D02*
X46320010Y210219990D01*
X49530000Y197430000D02*
X46320010Y200639990D01*
G04 #@! TO.N,Net-(CSW3-Pad2)*
X67315787Y186000000D02*
X62230000Y186000000D01*
X68730000Y186000000D02*
X67315787Y186000000D01*
X58221000Y186000000D02*
X62230000Y186000000D01*
X45720000Y198501000D02*
X58221000Y186000000D01*
X40640000Y213360000D02*
X45720000Y208280000D01*
X45720000Y208280000D02*
X45720000Y198501000D01*
G04 #@! TO.N,Net-(CSW4-Pad2)*
X54615787Y186000000D02*
X49530000Y186000000D01*
X56030000Y186000000D02*
X54615787Y186000000D01*
X45119989Y206340011D02*
X41439999Y210020001D01*
X49530000Y186000000D02*
X45119989Y190410011D01*
X45119989Y190410011D02*
X45119989Y206340011D01*
X41439999Y210020001D02*
X40640000Y210820000D01*
G04 #@! TO.N,Net-(CSW5-Pad2)*
X58425787Y170760000D02*
X53340000Y170760000D01*
X59840000Y170760000D02*
X58425787Y170760000D01*
X53340000Y172174213D02*
X48129999Y177384214D01*
X48129999Y177384214D02*
X48129999Y186551459D01*
X44519978Y204400022D02*
X41439999Y207480001D01*
X44519978Y190161480D02*
X44519978Y204400022D01*
X48129999Y186551459D02*
X44519978Y190161480D01*
X41439999Y207480001D02*
X40640000Y208280000D01*
X53340000Y170760000D02*
X53340000Y172174213D01*
G04 #@! TO.N,Net-(CSW6-Pad2)*
X45725787Y170760000D02*
X40640000Y170760000D01*
X47140000Y170760000D02*
X45725787Y170760000D01*
X43919967Y188699967D02*
X43919967Y202460033D01*
X40640000Y170760000D02*
X39239999Y172160001D01*
X41439999Y204940001D02*
X40640000Y205740000D01*
X43919967Y202460033D02*
X41439999Y204940001D01*
X39239999Y172160001D02*
X39239999Y184019999D01*
X39239999Y184019999D02*
X43919967Y188699967D01*
G04 #@! TO.N,Net-(CSW7-Pad2)*
X-2540000Y197430000D02*
X3960000Y197430000D01*
X5360001Y198830001D02*
X16585001Y198830001D01*
X3960000Y197430000D02*
X5360001Y198830001D01*
X19478950Y212518950D02*
X24600001Y217640001D01*
X19478950Y201723950D02*
X19478950Y212518950D01*
X24600001Y217640001D02*
X25400000Y218440000D01*
X16585001Y198830001D02*
X19478950Y201723950D01*
G04 #@! TO.N,Net-(CSW8-Pad2)*
X17659999Y198429999D02*
X16660000Y197430000D01*
X20078960Y210578960D02*
X20078960Y200848960D01*
X20078960Y200848960D02*
X17659999Y198429999D01*
X25400000Y215900000D02*
X20078960Y210578960D01*
X11574213Y197430000D02*
X16660000Y197430000D01*
X10160000Y197430000D02*
X11574213Y197430000D01*
G04 #@! TO.N,Net-(CSW9-Pad2)*
X24600001Y212560001D02*
X25400000Y213360000D01*
X4015000Y186055000D02*
X7787002Y186055000D01*
X20678970Y198946968D02*
X20678970Y208638970D01*
X20678970Y208638970D02*
X24600001Y212560001D01*
X7787002Y186055000D02*
X20678970Y198946968D01*
X-2540000Y186000000D02*
X-2485000Y186055000D01*
X-2485000Y186055000D02*
X3905000Y186055000D01*
G04 #@! TO.N,Net-(CSW10-Pad2)*
X10160000Y186000000D02*
X16660000Y186000000D01*
X24600001Y210020001D02*
X25400000Y210820000D01*
X21278980Y206698980D02*
X24600001Y210020001D01*
X21278980Y190618980D02*
X21278980Y206698980D01*
X16660000Y186000000D02*
X21278980Y190618980D01*
G04 #@! TO.N,Net-(CSW12-Pad2)*
X6350000Y170760000D02*
X12850000Y170760000D01*
X24600001Y197320001D02*
X25400000Y198120000D01*
X21878990Y194598990D02*
X24600001Y197320001D01*
X12850000Y172174213D02*
X21878990Y181203203D01*
X21878990Y181203203D02*
X21878990Y194598990D01*
X12850000Y170760000D02*
X12850000Y172174213D01*
G04 #@! TO.N,Net-(CSW13-Pad2)*
X20464213Y170760000D02*
X25550000Y170760000D01*
X19050000Y170760000D02*
X20464213Y170760000D01*
X24600001Y194780001D02*
X25400000Y195580000D01*
X22479000Y192659000D02*
X24600001Y194780001D01*
X22479000Y173831000D02*
X22479000Y192659000D01*
X25550000Y170760000D02*
X22479000Y173831000D01*
G04 #@! TO.N,/LC_SCL*
X19050000Y214630000D02*
X-1270000Y214630000D01*
G04 #@! TO.N,/LC_SDA*
X-1270000Y212630000D02*
X18510000Y212630000D01*
X18510000Y212630000D02*
X18542000Y212598000D01*
G04 #@! TO.N,/LC_5V*
X24600001Y225260001D02*
X25400000Y226060000D01*
X23509999Y224169999D02*
X24600001Y225260001D01*
X-2545010Y215249246D02*
X6375743Y224169999D01*
X6375743Y224169999D02*
X23509999Y224169999D01*
X-2545010Y211630010D02*
X-2545010Y215249246D01*
X-1545000Y210630000D02*
X-2545010Y211630010D01*
X-1270000Y210630000D02*
X-1545000Y210630000D01*
X66315000Y210630000D02*
X66040000Y210630000D01*
X67315010Y211630010D02*
X66315000Y210630000D01*
X67315010Y216916988D02*
X67315010Y211630010D01*
X56971997Y227260001D02*
X67315010Y216916988D01*
X26600001Y227260001D02*
X56971997Y227260001D01*
X25400000Y226060000D02*
X26600001Y227260001D01*
G04 #@! TO.N,Net-(LED1-Pad2)*
X43180000Y181610000D02*
X45085000Y179705000D01*
X40132000Y181610000D02*
X43180000Y181610000D01*
G04 #@! TO.N,Net-(LED2-Pad2)*
X56388000Y181102000D02*
X57785000Y179705000D01*
X49403000Y181102000D02*
X56388000Y181102000D01*
G04 #@! TO.N,Net-(SW3-Pad2)*
X31877000Y191643000D02*
X30480000Y193040000D01*
X34980000Y171450000D02*
X31877000Y174553000D01*
X31877000Y174553000D02*
X31877000Y191643000D01*
G04 #@! TO.N,/LC_RX*
X40640000Y223520000D02*
X49149000Y223520000D01*
X58039000Y214630000D02*
X66040000Y214630000D01*
X49149000Y223520000D02*
X58039000Y214630000D01*
G04 #@! TO.N,/LC_TX*
X59023000Y212630000D02*
X66040000Y212630000D01*
X40640000Y220980000D02*
X50673000Y220980000D01*
X50673000Y220980000D02*
X59023000Y212630000D01*
G04 #@! TD*
M02*
