EESchema Schematic File Version 2
LIBS:chordboard-rescue
LIBS:chordboard-components
LIBS:ac-dc
LIBS:adc-dac
LIBS:Altera
LIBS:analog_devices
LIBS:analog_switches
LIBS:atmel
LIBS:audio
LIBS:Battery_Management
LIBS:bbd
LIBS:Bosch
LIBS:brooktre
LIBS:Connector
LIBS:contrib
LIBS:cypress
LIBS:dc-dc
LIBS:Decawave
LIBS:device
LIBS:digital-audio
LIBS:Diode
LIBS:Display
LIBS:driver_gate
LIBS:dsp
LIBS:DSP_Microchip_DSPIC33
LIBS:elec-unifil
LIBS:ESD_Protection
LIBS:Espressif
LIBS:FPGA_Actel
LIBS:ftdi
LIBS:gennum
LIBS:Graphic
LIBS:hc11
LIBS:infineon
LIBS:intel
LIBS:interface
LIBS:intersil
LIBS:ir
LIBS:Lattice
LIBS:LED
LIBS:LEM
LIBS:linear
LIBS:Logic_74xgxx
LIBS:Logic_74xx
LIBS:Logic_CMOS_4000
LIBS:Logic_CMOS_IEEE
LIBS:logic_programmable
LIBS:Logic_TTL_IEEE
LIBS:maxim
LIBS:MCU_Microchip_PIC10
LIBS:MCU_Microchip_PIC12
LIBS:MCU_Microchip_PIC16
LIBS:MCU_Microchip_PIC18
LIBS:MCU_Microchip_PIC24
LIBS:MCU_Microchip_PIC32
LIBS:MCU_NXP_Kinetis
LIBS:MCU_NXP_LPC
LIBS:MCU_NXP_S08
LIBS:MCU_Parallax
LIBS:MCU_ST_STM8
LIBS:MCU_ST_STM32
LIBS:MCU_Texas_MSP430
LIBS:Mechanical
LIBS:memory
LIBS:microchip
LIBS:microcontrollers
LIBS:modules
LIBS:Motor
LIBS:motor_drivers
LIBS:motorola
LIBS:nordicsemi
LIBS:nxp
LIBS:onsemi
LIBS:opto
LIBS:Oscillators
LIBS:philips
LIBS:power
LIBS:powerint
LIBS:Power_Management
LIBS:pspice
LIBS:references
LIBS:regul
LIBS:Relay
LIBS:RF_Bluetooth
LIBS:rfcom
LIBS:RFSolutions
LIBS:Sensor_Current
LIBS:Sensor_Humidity
LIBS:sensors
LIBS:silabs
LIBS:siliconi
LIBS:supertex
LIBS:Switch
LIBS:texas
LIBS:Transformer
LIBS:Transistor
LIBS:triac_thyristor
LIBS:Valve
LIBS:video
LIBS:wiznet
LIBS:Worldsemi
LIBS:Xicor
LIBS:xilinx
LIBS:xilinx-artix7
LIBS:xilinx-kintex7
LIBS:xilinx-spartan6
LIBS:xilinx-virtex5
LIBS:xilinx-virtex6
LIBS:xilinx-virtex7
LIBS:zetex
LIBS:Zilog
LIBS:chordboard-cache
LIBS:leftpad-cache
EELAYER 25 0
EELAYER END
$Descr A1 23386 33110 portrait
encoding utf-8
Sheet 1 1
Title ""
Date ""
Rev ""
Comp ""
Comment1 ""
Comment2 ""
Comment3 ""
Comment4 ""
$EndDescr
$Comp
L Mounting_Hole MK1
U 1 1 5A6D2DB1
P 18950 -850
F 0 "MK1" H 18950 -650 50  0000 C CNN
F 1 "Mounting_Hole" H 18950 -725 50  0000 C CNN
F 2 "chordboard-footprints:Mounting_Hole" H 18950 -850 50  0001 C CNN
F 3 "" H 18950 -850 50  0001 C CNN
	1    18950 -850
	1    0    0    -1  
$EndComp
$Comp
L Mounting_Hole MK3
U 1 1 5A6D2DE4
P 19150 -850
F 0 "MK3" H 19150 -650 50  0000 C CNN
F 1 "Mounting_Hole" H 19150 -725 50  0000 C CNN
F 2 "chordboard-footprints:Mounting_Hole" H 19150 -850 50  0001 C CNN
F 3 "" H 19150 -850 50  0001 C CNN
	1    19150 -850
	1    0    0    -1  
$EndComp
$Comp
L Mounting_Hole MK5
U 1 1 5A6D2E0D
P 19350 -850
F 0 "MK5" H 19350 -650 50  0000 C CNN
F 1 "Mounting_Hole" H 19350 -725 50  0000 C CNN
F 2 "chordboard-footprints:Mounting_Hole" H 19350 -850 50  0001 C CNN
F 3 "" H 19350 -850 50  0001 C CNN
	1    19350 -850
	1    0    0    -1  
$EndComp
$Comp
L Mounting_Hole MK7
U 1 1 5A6D2E39
P 19550 -850
F 0 "MK7" H 19550 -650 50  0000 C CNN
F 1 "Mounting_Hole" H 19550 -725 50  0000 C CNN
F 2 "chordboard-footprints:Mounting_Hole" H 19550 -850 50  0001 C CNN
F 3 "" H 19550 -850 50  0001 C CNN
	1    19550 -850
	1    0    0    -1  
$EndComp
$Comp
L Mounting_Hole MK2
U 1 1 5A6D2EC5
P 18950 -650
F 0 "MK2" H 18950 -450 50  0000 C CNN
F 1 "Mounting_Hole" H 18950 -525 50  0000 C CNN
F 2 "chordboard-footprints:Mounting_Hole" H 18950 -650 50  0001 C CNN
F 3 "" H 18950 -650 50  0001 C CNN
	1    18950 -650
	1    0    0    -1  
$EndComp
$Comp
L Mounting_Hole MK4
U 1 1 5A6D2ECB
P 19150 -650
F 0 "MK4" H 19150 -450 50  0000 C CNN
F 1 "Mounting_Hole" H 19150 -525 50  0000 C CNN
F 2 "chordboard-footprints:Mounting_Hole" H 19150 -650 50  0001 C CNN
F 3 "" H 19150 -650 50  0001 C CNN
	1    19150 -650
	1    0    0    -1  
$EndComp
$Comp
L Mounting_Hole MK6
U 1 1 5A6D2ED1
P 19350 -650
F 0 "MK6" H 19350 -450 50  0000 C CNN
F 1 "Mounting_Hole" H 19350 -525 50  0000 C CNN
F 2 "chordboard-footprints:Mounting_Hole" H 19350 -650 50  0001 C CNN
F 3 "" H 19350 -650 50  0001 C CNN
	1    19350 -650
	1    0    0    -1  
$EndComp
$Comp
L Mounting_Hole MK8
U 1 1 5A6D2ED7
P 19550 -650
F 0 "MK8" H 19550 -450 50  0000 C CNN
F 1 "Mounting_Hole" H 19550 -525 50  0000 C CNN
F 2 "chordboard-footprints:Mounting_Hole" H 19550 -650 50  0001 C CNN
F 3 "" H 19550 -650 50  0001 C CNN
	1    19550 -650
	1    0    0    -1  
$EndComp
$Comp
L R R2
U 1 1 5A87D710
P 18750 4450
F 0 "R2" V 18650 4400 50  0000 C CNN
F 1 "4.7K" V 18750 4450 50  0000 C CNN
F 2 "Resistors_SMD:R_1206_HandSoldering" V 18680 4450 50  0001 C CNN
F 3 "" H 18750 4450 50  0000 C CNN
	1    18750 4450
	1    0    0    -1  
$EndComp
$Comp
L R R3
U 1 1 5A87D711
P 18850 4450
F 0 "R3" V 18950 4400 50  0000 C CNN
F 1 "4.7K" V 18850 4450 50  0000 C CNN
F 2 "Resistors_SMD:R_1206_HandSoldering" V 18780 4450 50  0001 C CNN
F 3 "" H 18850 4450 50  0000 C CNN
	1    18850 4450
	1    0    0    -1  
$EndComp
$Comp
L +3.3V #PWR20
U 1 1 5A87D712
P 18800 3300
F 0 "#PWR20" H 18800 3150 50  0001 C CNN
F 1 "+3.3V" H 18800 3440 50  0000 C CNN
F 2 "" H 18800 3300 50  0000 C CNN
F 3 "" H 18800 3300 50  0000 C CNN
	1    18800 3300
	1    0    0    -1  
$EndComp
$Comp
L GND #PWR15
U 1 1 5A87D713
P 14950 600
F 0 "#PWR15" H 14950 350 50  0001 C CNN
F 1 "GND" H 14950 450 50  0000 C CNN
F 2 "" H 14950 600 50  0000 C CNN
F 3 "" H 14950 600 50  0000 C CNN
	1    14950 600 
	-1   0    0    1   
$EndComp
NoConn ~ 14950 3400
NoConn ~ 16950 4500
NoConn ~ 16950 4100
NoConn ~ 16950 3300
NoConn ~ 16950 3200
NoConn ~ 16950 3100
NoConn ~ 16950 3000
NoConn ~ 16950 2200
NoConn ~ 16950 2100
Text Label 14950 2200 2    60   ~ 0
AU_MCLK
Text Label 14950 2000 2    60   ~ 0
AU_BCLK
$Comp
L SW_SPST CORE_SW1
U 1 1 5A87D715
P 14250 3700
F 0 "CORE_SW1" H 14100 3750 50  0000 C CNN
F 1 "PGM" H 14450 3750 50  0000 C CNN
F 2 "Buttons_Switches_THT:SW_Tactile_SPST_Angled_PTS645Vx58-2LFS" H 14250 3700 50  0001 C CNN
F 3 "" H 14250 3700 50  0001 C CNN
	1    14250 3700
	1    0    0    -1  
$EndComp
$Comp
L GND #PWR23
U 1 1 5A87D716
P 13750 5450
F 0 "#PWR23" H 13750 5200 50  0001 C CNN
F 1 "GND" H 13750 5300 50  0000 C CNN
F 2 "" H 13750 5450 50  0000 C CNN
F 3 "" H 13750 5450 50  0000 C CNN
	1    13750 5450
	1    0    0    -1  
$EndComp
NoConn ~ 14950 3500
Text Label 14950 4900 2    60   ~ 0
AU_RX
Text Label 16950 4600 0    60   ~ 0
AU_LRCLK
Text Label 16950 4700 0    60   ~ 0
AU_TX
$Comp
L Teensy_Audio_Board U4
U 1 1 5A87D719
P 20150 2400
F 0 "U4" H 19950 3550 60  0000 C CNN
F 1 "Teensy_Audio_Board" H 20150 1850 60  0000 C CNN
F 2 "afshar-kicad-lib:Teensy_Audio_Board" H 19950 1850 60  0001 C CNN
F 3 "" H 19950 1850 60  0000 C CNN
	1    20150 2400
	1    0    0    -1  
$EndComp
Text Label 19400 2700 2    60   ~ 0
AU_MCLK
Text Label 19400 2500 2    60   ~ 0
AU_BCLK
Text Label 20850 2800 0    60   ~ 0
AU_RX
Text Label 20850 2200 0    60   ~ 0
SCL
Text Label 20850 2300 0    60   ~ 0
SDA
$Comp
L GND #PWR18
U 1 1 5A87D71A
P 19050 1650
F 0 "#PWR18" H 19050 1400 50  0001 C CNN
F 1 "GND" H 19050 1500 50  0000 C CNN
F 2 "" H 19050 1650 50  0000 C CNN
F 3 "" H 19050 1650 50  0000 C CNN
	1    19050 1650
	1    0    0    -1  
$EndComp
Text Label 20850 1900 0    60   ~ 0
AU_TX
Text Label 20850 1800 0    60   ~ 0
AU_LRCLK
$Comp
L +3.3V #PWR16
U 1 1 5A87D71B
P 21350 1150
F 0 "#PWR16" H 21350 1000 50  0001 C CNN
F 1 "+3.3V" H 21350 1290 50  0000 C CNN
F 2 "" H 21350 1150 50  0001 C CNN
F 3 "" H 21350 1150 50  0001 C CNN
	1    21350 1150
	1    0    0    -1  
$EndComp
Text Label 19400 2800 2    60   ~ 0
MISO
Text Label 14950 5000 2    60   ~ 0
SCK
Text Label 20850 2700 0    60   ~ 0
SCK
Text Label 19400 2600 2    60   ~ 0
AUSD_CS
Text Label 19400 2300 2    60   ~ 0
MOSI
Text Label 19400 2200 2    60   ~ 0
AUMEM_CS
NoConn ~ 16950 3900
NoConn ~ 16950 4000
$Comp
L +5V #PWR21
U 1 1 5A87D71D
P 17800 4200
F 0 "#PWR21" H 17800 4050 50  0001 C CNN
F 1 "+5V" H 17800 4340 50  0000 C CNN
F 2 "" H 17800 4200 50  0001 C CNN
F 3 "" H 17800 4200 50  0001 C CNN
	1    17800 4200
	1    0    0    -1  
$EndComp
$Comp
L Teensy3.6 U2
U 1 1 5A87D71E
P 15950 3100
F 0 "U2" H 15950 5400 60  0000 C CNN
F 1 "Teensy3.6" H 15950 800 60  0000 C CNN
F 2 "chordboard-footprints:Teensy35_36_external_pins" H 15950 3100 60  0001 C CNN
F 3 "" H 15950 3100 60  0000 C CNN
	1    15950 3100
	1    0    0    -1  
$EndComp
Text Label 14950 5200 2    60   ~ 0
WIFI_RST
Text Label 16950 5200 0    60   ~ 0
WIFI_PGM
$Comp
L +3.3V #PWR19
U 1 1 5A87D71F
P 13750 2400
F 0 "#PWR19" H 13750 2250 50  0001 C CNN
F 1 "+3.3V" H 13750 2540 50  0000 C CNN
F 2 "" H 13750 2400 50  0001 C CNN
F 3 "" H 13750 2400 50  0001 C CNN
	1    13750 2400
	1    0    0    -1  
$EndComp
$Comp
L ROTARY_ENCODER_afshar ENC1
U 1 1 5A8858A7
P 21600 8200
F 0 "ENC1" H 21600 8600 60  0000 C CNN
F 1 "ROTARY_ENCODER" H 21650 7850 60  0000 C CNN
F 2 "chordboard-footprints:Rotary_Encoder_BI_EN12-HS22AF30" H 21600 7750 60  0000 C CNN
F 3 "" H 21600 8200 60  0000 C CNN
	1    21600 8200
	1    0    0    1   
$EndComp
$Comp
L C C2
U 1 1 5A8858A8
P 21350 8700
F 0 "C2" H 21360 8770 50  0000 L CNN
F 1 "0.1uF" H 21360 8620 50  0000 L CNN
F 2 "chordboard-footprints:C_0805_HandSoldering" H 21350 8700 50  0001 C CNN
F 3 "" H 21350 8700 50  0001 C CNN
	1    21350 8700
	1    0    0    -1  
$EndComp
$Comp
L C C1
U 1 1 5A8858A9
P 20850 8700
F 0 "C1" H 20860 8770 50  0000 L CNN
F 1 "0.1uF" H 20860 8620 50  0000 L CNN
F 2 "chordboard-footprints:C_0805_HandSoldering" H 20850 8700 50  0001 C CNN
F 3 "" H 20850 8700 50  0001 C CNN
	1    20850 8700
	1    0    0    -1  
$EndComp
$Comp
L GND #PWR24
U 1 1 5A8858AA
P 22100 8350
F 0 "#PWR24" H 22100 8100 50  0001 C CNN
F 1 "GND" H 22100 8200 50  0000 C CNN
F 2 "" H 22100 8350 50  0001 C CNN
F 3 "" H 22100 8350 50  0001 C CNN
	1    22100 8350
	1    0    0    -1  
$EndComp
$Comp
L GND #PWR27
U 1 1 5A8858AB
P 21100 8900
F 0 "#PWR27" H 21100 8650 50  0001 C CNN
F 1 "GND" H 21100 8750 50  0000 C CNN
F 2 "" H 21100 8900 50  0001 C CNN
F 3 "" H 21100 8900 50  0001 C CNN
	1    21100 8900
	1    0    0    -1  
$EndComp
Text Label 21350 8100 2    60   ~ 0
RE1_SW
$Comp
L ROTARY_ENCODER_afshar ENC2
U 1 1 5A8858B1
P 23800 8200
F 0 "ENC2" H 23800 8600 60  0000 C CNN
F 1 "ROTARY_ENCODER" H 23850 7850 60  0000 C CNN
F 2 "chordboard-footprints:Rotary_Encoder_BI_EN12-HS22AF30" H 23800 7750 60  0000 C CNN
F 3 "" H 23800 8200 60  0000 C CNN
	1    23800 8200
	1    0    0    1   
$EndComp
$Comp
L C C4
U 1 1 5A8858B2
P 23550 8700
F 0 "C4" H 23560 8770 50  0000 L CNN
F 1 "0.1uF" H 23560 8620 50  0000 L CNN
F 2 "chordboard-footprints:C_0805_HandSoldering" H 23550 8700 50  0001 C CNN
F 3 "" H 23550 8700 50  0001 C CNN
	1    23550 8700
	1    0    0    -1  
$EndComp
$Comp
L C C3
U 1 1 5A8858B3
P 23050 8700
F 0 "C3" H 23060 8770 50  0000 L CNN
F 1 "0.1uF" H 23060 8620 50  0000 L CNN
F 2 "chordboard-footprints:C_0805_HandSoldering" H 23050 8700 50  0001 C CNN
F 3 "" H 23050 8700 50  0001 C CNN
	1    23050 8700
	1    0    0    -1  
$EndComp
$Comp
L GND #PWR25
U 1 1 5A8858B4
P 24300 8350
F 0 "#PWR25" H 24300 8100 50  0001 C CNN
F 1 "GND" H 24300 8200 50  0000 C CNN
F 2 "" H 24300 8350 50  0001 C CNN
F 3 "" H 24300 8350 50  0001 C CNN
	1    24300 8350
	1    0    0    -1  
$EndComp
$Comp
L GND #PWR28
U 1 1 5A8858B5
P 23300 8900
F 0 "#PWR28" H 23300 8650 50  0001 C CNN
F 1 "GND" H 23300 8750 50  0000 C CNN
F 2 "" H 23300 8900 50  0001 C CNN
F 3 "" H 23300 8900 50  0001 C CNN
	1    23300 8900
	1    0    0    -1  
$EndComp
Text Label 23550 8100 2    60   ~ 0
RE2_SW
$Comp
L ROTARY_ENCODER_afshar ENC3
U 1 1 5A8858BB
P 25800 8200
F 0 "ENC3" H 25800 8600 60  0000 C CNN
F 1 "ROTARY_ENCODER" H 25850 7850 60  0000 C CNN
F 2 "chordboard-footprints:Rotary_Encoder_BI_EN12-HS22AF30" H 25800 7750 60  0000 C CNN
F 3 "" H 25800 8200 60  0000 C CNN
	1    25800 8200
	1    0    0    1   
$EndComp
$Comp
L C C6
U 1 1 5A8858BC
P 25550 8700
F 0 "C6" H 25560 8770 50  0000 L CNN
F 1 "0.1uF" H 25560 8620 50  0000 L CNN
F 2 "chordboard-footprints:C_0805_HandSoldering" H 25550 8700 50  0001 C CNN
F 3 "" H 25550 8700 50  0001 C CNN
	1    25550 8700
	1    0    0    -1  
$EndComp
$Comp
L C C5
U 1 1 5A8858BD
P 25050 8700
F 0 "C5" H 25060 8770 50  0000 L CNN
F 1 "0.1uF" H 25060 8620 50  0000 L CNN
F 2 "chordboard-footprints:C_0805_HandSoldering" H 25050 8700 50  0001 C CNN
F 3 "" H 25050 8700 50  0001 C CNN
	1    25050 8700
	1    0    0    -1  
$EndComp
$Comp
L GND #PWR26
U 1 1 5A8858BE
P 26300 8350
F 0 "#PWR26" H 26300 8100 50  0001 C CNN
F 1 "GND" H 26300 8200 50  0000 C CNN
F 2 "" H 26300 8350 50  0001 C CNN
F 3 "" H 26300 8350 50  0001 C CNN
	1    26300 8350
	1    0    0    -1  
$EndComp
$Comp
L GND #PWR29
U 1 1 5A8858BF
P 25300 8900
F 0 "#PWR29" H 25300 8650 50  0001 C CNN
F 1 "GND" H 25300 8750 50  0000 C CNN
F 2 "" H 25300 8900 50  0001 C CNN
F 3 "" H 25300 8900 50  0001 C CNN
	1    25300 8900
	1    0    0    -1  
$EndComp
Text Label 25550 8100 2    60   ~ 0
RE3_SW
Text Notes 21300 7450 0    60   ~ 0
Config: Key; Mode\nShift: Change Main mode
Text Notes 22950 7450 0    60   ~ 0
Config: Octave; spread; channel; etc.\nShift Config: change bank
Text Notes 25450 7500 0    60   ~ 0
Config: tempo\nPlay: tempo\nShift: change looper
Text Label 20850 8250 2    60   ~ 0
RE1_B
Text Label 21350 8450 2    60   ~ 0
RE1_A
Text Label 23050 8250 2    60   ~ 0
RE2_B
Text Label 23550 8450 2    60   ~ 0
RE2_A
Text Label 25550 8450 2    60   ~ 0
RE3_A
Text Label 25050 8250 2    60   ~ 0
RE3_B
Text Label 14950 3100 2    60   ~ 0
RE1_A
Text Label 14950 3200 2    60   ~ 0
RE1_B
Text Label 14950 2700 2    60   ~ 0
RE2_A
Text Label 14950 2800 2    60   ~ 0
RE2_B
Text Label 14950 4000 2    60   ~ 0
RE2_SW
Text Label 14950 2900 2    60   ~ 0
RE3_A
Text Label 14950 3000 2    60   ~ 0
RE3_B
Text Label 14950 3900 2    60   ~ 0
RE1_SW
Text Label 14950 4100 2    60   ~ 0
RE3_SW
Text Label 19050 5000 0    60   ~ 0
SCL
Text Label 19050 5100 0    60   ~ 0
SDA
$Comp
L GNDA #PWR22
U 1 1 5A89E752
P 17800 4500
F 0 "#PWR22" H 17800 4250 50  0001 C CNN
F 1 "GNDA" H 17800 4350 50  0000 C CNN
F 2 "" H 17800 4500 50  0001 C CNN
F 3 "" H 17800 4500 50  0001 C CNN
	1    17800 4500
	1    0    0    -1  
$EndComp
$Comp
L GNDA #PWR17
U 1 1 5A89EB7E
P 20850 1600
F 0 "#PWR17" H 20850 1350 50  0001 C CNN
F 1 "GNDA" H 20850 1450 50  0000 C CNN
F 2 "" H 20850 1600 50  0001 C CNN
F 3 "" H 20850 1600 50  0001 C CNN
	1    20850 1600
	0    -1   -1   0   
$EndComp
Text Label 14950 1900 2    60   ~ 0
U3_TX
Text Label 11700 -2050 2    60   ~ 0
U3_TX
Text Label 14950 3800 2    60   ~ 0
CORE_RST
Text Label 14950 3700 2    60   ~ 0
CORE_PGM
Text Label 14950 5100 2    60   ~ 0
AU_VOL
Text Label 20850 2600 0    60   ~ 0
AU_VOL
Text Label 16950 3600 0    60   ~ 0
USBH_DP
Text Label 16950 3700 0    60   ~ 0
USBH_DM
$Comp
L USB_A J2
U 1 1 5A81EE8D
P 18250 3600
F 0 "J2" H 18050 4050 50  0000 L CNN
F 1 "USB_A" H 18050 3950 50  0000 L CNN
F 2 "Connectors:USB_A" H 18400 3550 50  0001 C CNN
F 3 "" H 18400 3550 50  0001 C CNN
	1    18250 3600
	-1   0    0    -1  
$EndComp
$Comp
L GND #PWR12
U 1 1 5A84B35E
P 11200 -2250
F 0 "#PWR12" H 11200 -2500 50  0001 C CNN
F 1 "GND" H 11200 -2400 50  0000 C CNN
F 2 "" H 11200 -2250 50  0001 C CNN
F 3 "" H 11200 -2250 50  0001 C CNN
	1    11200 -2250
	1    0    0    -1  
$EndComp
$Comp
L GROVE_I2C J4
U 1 1 5A84DEDC
P 11850 -4150
F 0 "J4" H 11850 -3900 50  0000 C CNN
F 1 "I2C" V 12100 -4150 50  0000 C CNN
F 2 "Connectors_JST:JST_PH_S4B-PH-K_04x2.00mm_Angled" H 11850 -4150 50  0001 C CNN
F 3 "" H 11850 -4150 50  0001 C CNN
	1    11850 -4150
	1    0    0    -1  
$EndComp
$Comp
L GROVE_I2C J5
U 1 1 5A84DFEA
P 11850 -3600
F 0 "J5" H 11850 -3350 50  0000 C CNN
F 1 "I2C" V 12100 -3600 50  0000 C CNN
F 2 "Connectors_JST:JST_PH_S4B-PH-K_04x2.00mm_Angled" H 11850 -3600 50  0001 C CNN
F 3 "" H 11850 -3600 50  0001 C CNN
	1    11850 -3600
	1    0    0    -1  
$EndComp
$Comp
L +3.3V #PWR7
U 1 1 5A84EEBA
P 11100 -4700
F 0 "#PWR7" H 11100 -4850 50  0001 C CNN
F 1 "+3.3V" H 11100 -4560 50  0000 C CNN
F 2 "" H 11100 -4700 50  0001 C CNN
F 3 "" H 11100 -4700 50  0001 C CNN
	1    11100 -4700
	1    0    0    -1  
$EndComp
Text Label 11650 -4300 2    60   ~ 0
SCL
Text Label 11650 -4200 2    60   ~ 0
SDA
Text Label 11650 -3750 2    60   ~ 0
SCL
Text Label 11650 -3650 2    60   ~ 0
SDA
$Comp
L Mounting_Hole MK9
U 1 1 5A853441
P 19750 -850
F 0 "MK9" H 19750 -650 50  0000 C CNN
F 1 "Mounting_Hole" H 19750 -725 50  0000 C CNN
F 2 "chordboard-footprints:Mounting_Hole" H 19750 -850 50  0001 C CNN
F 3 "" H 19750 -850 50  0001 C CNN
	1    19750 -850
	1    0    0    -1  
$EndComp
$Comp
L Mounting_Hole MK10
U 1 1 5A853447
P 19750 -650
F 0 "MK10" H 19750 -450 50  0000 C CNN
F 1 "Mounting_Hole" H 19750 -525 50  0000 C CNN
F 2 "chordboard-footprints:Mounting_Hole" H 19750 -650 50  0001 C CNN
F 3 "" H 19750 -650 50  0001 C CNN
	1    19750 -650
	1    0    0    -1  
$EndComp
Text Label 14950 2300 2    60   ~ 0
MISO
Text Label 14950 1800 2    60   ~ 0
MOSI
Text Label 17000 4900 0    60   ~ 0
TFT_DC
Text Label 17000 4800 0    60   ~ 0
TFT_CS
Text Label 14950 1700 2    60   ~ 0
AUMEM_CS
NoConn ~ 16950 2900
NoConn ~ 16950 2800
NoConn ~ 16950 2700
NoConn ~ 16950 2600
NoConn ~ 16950 2500
NoConn ~ 16950 2400
NoConn ~ 16950 2300
NoConn ~ 16950 2000
NoConn ~ 16950 1900
NoConn ~ 16950 1800
NoConn ~ 16950 1700
NoConn ~ 16950 1600
NoConn ~ 16950 1500
NoConn ~ 16950 1400
NoConn ~ 16950 1300
NoConn ~ 16950 1200
NoConn ~ 16950 1100
NoConn ~ 16950 1000
Text Label 14950 2100 2    60   ~ 0
AUSD_CS
$Comp
L +5V #PWR10
U 1 1 5A983608
P 11600 -2850
F 0 "#PWR10" H 11600 -3000 50  0001 C CNN
F 1 "+5V" H 11600 -2710 50  0000 C CNN
F 2 "" H 11600 -2850 50  0001 C CNN
F 3 "" H 11600 -2850 50  0001 C CNN
	1    11600 -2850
	1    0    0    -1  
$EndComp
$Comp
L +3.3VA #PWR9
U 1 1 5A9851E8
P 11350 -2850
F 0 "#PWR9" H 11350 -3000 50  0001 C CNN
F 1 "+3.3VA" H 11350 -2710 50  0000 C CNN
F 2 "" H 11350 -2850 50  0001 C CNN
F 3 "" H 11350 -2850 50  0001 C CNN
	1    11350 -2850
	1    0    0    -1  
$EndComp
Text Label 14950 4600 2    60   ~ 0
DAC0
Text Label 14950 4700 2    60   ~ 0
DAC1
Text Label 14950 1100 2    60   ~ 0
U1_RX
Text Label 14950 1200 2    60   ~ 0
U1_TX
Text Label 15200 -3300 2    60   ~ 0
WIFI_RST
Text Label 15200 -3400 2    60   ~ 0
WIFI_PGM
Text Label 15200 -2950 2    60   ~ 0
U1_RX
Text Label 15200 -2850 2    60   ~ 0
U1_TX
$Comp
L GND #PWR14
U 1 1 5AA410B2
P 11600 -1300
F 0 "#PWR14" H 11600 -1550 50  0001 C CNN
F 1 "GND" H 11600 -1450 50  0000 C CNN
F 2 "" H 11600 -1300 50  0001 C CNN
F 3 "" H 11600 -1300 50  0001 C CNN
	1    11600 -1300
	1    0    0    -1  
$EndComp
$Comp
L CONN_01X06 J1
U 1 1 5AA410BA
P 11900 -1900
F 0 "J1" H 11900 -1550 50  0000 C CNN
F 1 "CONN_01X06" V 12000 -1900 50  0000 C CNN
F 2 "Pin_Headers:Pin_Header_Straight_1x06_Pitch2.54mm" H 11900 -1900 50  0001 C CNN
F 3 "" H 11900 -1900 50  0001 C CNN
	1    11900 -1900
	1    0    0    -1  
$EndComp
$Comp
L CONN_01X02 J3
U 1 1 5AA961D4
P 15400 -3350
F 0 "J3" H 15400 -3200 50  0000 C CNN
F 1 "CONN_01X02" V 15500 -3350 50  0000 C CNN
F 2 "Pin_Headers:Pin_Header_Straight_1x02_Pitch2.54mm" H 15400 -3350 50  0001 C CNN
F 3 "" H 15400 -3350 50  0001 C CNN
	1    15400 -3350
	1    0    0    -1  
$EndComp
$Comp
L CONN_01X06 J7
U 1 1 5AA9737A
P 15400 -2800
F 0 "J7" H 15400 -2450 50  0000 C CNN
F 1 "CONN_01X06" V 15500 -2800 50  0000 C CNN
F 2 "Pin_Headers:Pin_Header_Straight_1x06_Pitch2.54mm" H 15400 -2800 50  0001 C CNN
F 3 "" H 15400 -2800 50  0001 C CNN
	1    15400 -2800
	1    0    0    -1  
$EndComp
$Comp
L GND #PWR13
U 1 1 5AA977BC
P 15100 -2200
F 0 "#PWR13" H 15100 -2450 50  0001 C CNN
F 1 "GND" H 15100 -2350 50  0000 C CNN
F 2 "" H 15100 -2200 50  0001 C CNN
F 3 "" H 15100 -2200 50  0001 C CNN
	1    15100 -2200
	1    0    0    -1  
$EndComp
$Comp
L +5V #PWR11
U 1 1 5AA98E08
P 15100 -2750
F 0 "#PWR11" H 15100 -2900 50  0001 C CNN
F 1 "+5V" H 15100 -2610 50  0000 C CNN
F 2 "" H 15100 -2750 50  0001 C CNN
F 3 "" H 15100 -2750 50  0001 C CNN
	1    15100 -2750
	0    -1   -1   0   
$EndComp
$Comp
L SYM_Arrow45_Large SYM1
U 1 1 5AB574DD
P 7100 500
F 0 "SYM1" H 7100 660 50  0001 C CNN
F 1 "SYM_Arrow45_Large" H 7100 360 50  0001 C CNN
F 2 "chordboard-footprints:CHORDBOARD_LOGO" H 7100 500 50  0001 C CNN
F 3 "" H 7100 500 50  0001 C CNN
	1    7100 500 
	1    0    0    -1  
$EndComp
$Comp
L LED_ARGB LED1
U 1 1 5ABF0DBE
P -3850 -6050
F 0 "LED1" H -3850 -5680 50  0000 C CNN
F 1 "LED_ARGB" H -3850 -6400 50  0000 C CNN
F 2 "chordboard-footprints:LED_D3.0mm-4" H -3850 -6100 50  0001 C CNN
F 3 "" H -3850 -6100 50  0001 C CNN
	1    -3850 -6050
	-1   0    0    1   
$EndComp
$Comp
L HT16K33 J6
U 1 1 5ABF0DBF
P -7200 -5150
F 0 "J6" H -7200 -6500 60  0000 C CNN
F 1 "HT16K33" H -7200 -3900 60  0000 C CNN
F 2 "chordboard-footprints:SOIC-28W_7.5x17.9mm_Pitch1.27mm_HANDSOLDER" H -7200 -4000 60  0001 C CNN
F 3 "" H -7200 -4000 60  0000 C CNN
	1    -7200 -5150
	1    0    0    -1  
$EndComp
$Comp
L BSS138 Q2
U 1 1 5ABF0DC0
P -7350 -7550
F 0 "Q2" H -7150 -7475 50  0000 L CNN
F 1 "BSS138" H -7150 -7550 50  0000 L CNN
F 2 "TO_SOT_Packages_SMD:SOT-23" H -7150 -7625 50  0001 L CIN
F 3 "" H -7350 -7550 50  0001 L CNN
	1    -7350 -7550
	0    1    1    0   
$EndComp
Text Label -7750 -7450 2    60   ~ 0
SCL
Text Label -6950 -7450 0    60   ~ 0
SCL5
$Comp
L +3.3V #PWR3
U 1 1 5ABF0DC1
P -7350 -7850
F 0 "#PWR3" H -7350 -8000 50  0001 C CNN
F 1 "+3.3V" H -7350 -7710 50  0000 C CNN
F 2 "" H -7350 -7850 50  0001 C CNN
F 3 "" H -7350 -7850 50  0001 C CNN
	1    -7350 -7850
	1    0    0    -1  
$EndComp
$Comp
L R R6
U 1 1 5ABF0DC3
P -7100 -7650
F 0 "R6" V -7050 -7550 50  0000 L CNN
F 1 "R" V -7100 -7700 50  0000 L CNN
F 2 "Resistors_SMD:R_1206_HandSoldering" H -7100 -7650 50  0001 C CNN
F 3 "" H -7100 -7650 50  0001 C CNN
	1    -7100 -7650
	1    0    0    -1  
$EndComp
$Comp
L +5V #PWR4
U 1 1 5ABF0DC4
P -7100 -7850
F 0 "#PWR4" H -7100 -8000 50  0001 C CNN
F 1 "+5V" H -7100 -7710 50  0000 C CNN
F 2 "" H -7100 -7850 50  0001 C CNN
F 3 "" H -7100 -7850 50  0001 C CNN
	1    -7100 -7850
	1    0    0    -1  
$EndComp
$Comp
L BSS138 Q1
U 1 1 5ABF0DC5
P -7350 -8600
F 0 "Q1" H -7150 -8525 50  0000 L CNN
F 1 "BSS138" H -7150 -8600 50  0000 L CNN
F 2 "TO_SOT_Packages_SMD:SOT-23" H -7150 -8675 50  0001 L CIN
F 3 "" H -7350 -8600 50  0001 L CNN
	1    -7350 -8600
	0    1    1    0   
$EndComp
Text Label -7750 -8500 2    60   ~ 0
SDA
Text Label -6950 -8500 0    60   ~ 0
SDA5
$Comp
L +3.3V #PWR1
U 1 1 5ABF0DC6
P -7350 -8900
F 0 "#PWR1" H -7350 -9050 50  0001 C CNN
F 1 "+3.3V" H -7350 -8760 50  0000 C CNN
F 2 "" H -7350 -8900 50  0001 C CNN
F 3 "" H -7350 -8900 50  0001 C CNN
	1    -7350 -8900
	1    0    0    -1  
$EndComp
$Comp
L R R4
U 1 1 5ABF0DC8
P -7100 -8700
F 0 "R4" V -7050 -8600 50  0000 L CNN
F 1 "R" V -7100 -8750 50  0000 L CNN
F 2 "Resistors_SMD:R_1206_HandSoldering" H -7100 -8700 50  0001 C CNN
F 3 "" H -7100 -8700 50  0001 C CNN
	1    -7100 -8700
	1    0    0    -1  
$EndComp
$Comp
L +5V #PWR2
U 1 1 5ABF0DC9
P -7100 -8900
F 0 "#PWR2" H -7100 -9050 50  0001 C CNN
F 1 "+5V" H -7100 -8760 50  0000 C CNN
F 2 "" H -7100 -8900 50  0001 C CNN
F 3 "" H -7100 -8900 50  0001 C CNN
	1    -7100 -8900
	1    0    0    -1  
$EndComp
Text Label -7850 -6100 2    60   ~ 0
SCL5
Text Label -7850 -6000 2    60   ~ 0
SDA5
$Comp
L +5V #PWR5
U 1 1 5ABF0DCA
P -7850 -6400
F 0 "#PWR5" H -7850 -6550 50  0001 C CNN
F 1 "+5V" H -7850 -6260 50  0000 C CNN
F 2 "" H -7850 -6400 50  0001 C CNN
F 3 "" H -7850 -6400 50  0001 C CNN
	1    -7850 -6400
	1    0    0    -1  
$EndComp
$Comp
L GND #PWR8
U 1 1 5ABF0DCB
P -7850 -3800
F 0 "#PWR8" H -7850 -4050 50  0001 C CNN
F 1 "GND" H -7850 -3950 50  0000 C CNN
F 2 "" H -7850 -3800 50  0001 C CNN
F 3 "" H -7850 -3800 50  0001 C CNN
	1    -7850 -3800
	-1   0    0    -1  
$EndComp
$Comp
L LED_ARGB LED2
U 1 1 5ABF0DCC
P -2800 -6050
F 0 "LED2" H -2800 -5680 50  0000 C CNN
F 1 "LED_ARGB" H -2800 -6400 50  0000 C CNN
F 2 "chordboard-footprints:LED_D3.0mm-4" H -2800 -6100 50  0001 C CNN
F 3 "" H -2800 -6100 50  0001 C CNN
	1    -2800 -6050
	-1   0    0    1   
$EndComp
$Comp
L LED_ARGB LED3
U 1 1 5ABF0DCD
P -3850 -5250
F 0 "LED3" H -3850 -4880 50  0000 C CNN
F 1 "LED_ARGB" H -3850 -5600 50  0000 C CNN
F 2 "chordboard-footprints:LED_D3.0mm-4" H -3850 -5300 50  0001 C CNN
F 3 "" H -3850 -5300 50  0001 C CNN
	1    -3850 -5250
	-1   0    0    1   
$EndComp
$Comp
L LED_ARGB LED4
U 1 1 5ABF0DCE
P -2800 -5250
F 0 "LED4" H -2800 -4880 50  0000 C CNN
F 1 "LED_ARGB" H -2800 -5600 50  0000 C CNN
F 2 "chordboard-footprints:LED_D3.0mm-4" H -2800 -5300 50  0001 C CNN
F 3 "" H -2800 -5300 50  0001 C CNN
	1    -2800 -5250
	-1   0    0    1   
$EndComp
$Comp
L LED_ARGB LED5
U 1 1 5ABF0DCF
P -3850 -4450
F 0 "LED5" H -3850 -4080 50  0000 C CNN
F 1 "LED_ARGB" H -3850 -4800 50  0000 C CNN
F 2 "chordboard-footprints:LED_D3.0mm-4" H -3850 -4500 50  0001 C CNN
F 3 "" H -3850 -4500 50  0001 C CNN
	1    -3850 -4450
	-1   0    0    1   
$EndComp
$Comp
L LED_ARGB LED6
U 1 1 5ABF0DD0
P -2800 -4450
F 0 "LED6" H -2800 -4080 50  0000 C CNN
F 1 "LED_ARGB" H -2800 -4800 50  0000 C CNN
F 2 "chordboard-footprints:LED_D3.0mm-4" H -2800 -4500 50  0001 C CNN
F 3 "" H -2800 -4500 50  0001 C CNN
	1    -2800 -4450
	-1   0    0    1   
$EndComp
$Comp
L LED_ARGB LED7
U 1 1 5ABF0DD1
P -3850 -3650
F 0 "LED7" H -3850 -3280 50  0000 C CNN
F 1 "LED_ARGB" H -3850 -4000 50  0000 C CNN
F 2 "chordboard-footprints:LED_D3.0mm-4" H -3850 -3700 50  0001 C CNN
F 3 "" H -3850 -3700 50  0001 C CNN
	1    -3850 -3650
	-1   0    0    1   
$EndComp
$Comp
L LED_ARGB LED8
U 1 1 5ABF0DD2
P -2800 -3650
F 0 "LED8" H -2800 -3280 50  0000 C CNN
F 1 "LED_ARGB" H -2800 -4000 50  0000 C CNN
F 2 "chordboard-footprints:LED_D3.0mm-4" H -2800 -3700 50  0001 C CNN
F 3 "" H -2800 -3700 50  0001 C CNN
	1    -2800 -3650
	-1   0    0    1   
$EndComp
$Comp
L LED_ARGB LED9
U 1 1 5ABF0DD3
P -3850 -2850
F 0 "LED9" H -3850 -2480 50  0000 C CNN
F 1 "LED_ARGB" H -3850 -3200 50  0000 C CNN
F 2 "chordboard-footprints:LED_D3.0mm-4" H -3850 -2900 50  0001 C CNN
F 3 "" H -3850 -2900 50  0001 C CNN
	1    -3850 -2850
	-1   0    0    1   
$EndComp
$Comp
L LED_ARGB LED10
U 1 1 5ABF0DD4
P -2800 -2850
F 0 "LED10" H -2800 -2480 50  0000 C CNN
F 1 "LED_ARGB" H -2800 -3200 50  0000 C CNN
F 2 "chordboard-footprints:LED_D3.0mm-4" H -2800 -2900 50  0001 C CNN
F 3 "" H -2800 -2900 50  0001 C CNN
	1    -2800 -2850
	-1   0    0    1   
$EndComp
$Comp
L LED_ARGB LED11
U 1 1 5ABF0DD5
P -3850 -2050
F 0 "LED11" H -3850 -1680 50  0000 C CNN
F 1 "LED_ARGB" H -3850 -2400 50  0000 C CNN
F 2 "chordboard-footprints:LED_D3.0mm-4" H -3850 -2100 50  0001 C CNN
F 3 "" H -3850 -2100 50  0001 C CNN
	1    -3850 -2050
	-1   0    0    1   
$EndComp
$Comp
L LED_ARGB LED12
U 1 1 5ABF0DD6
P -2800 -2050
F 0 "LED12" H -2800 -1680 50  0000 C CNN
F 1 "LED_ARGB" H -2800 -2400 50  0000 C CNN
F 2 "chordboard-footprints:LED_D3.0mm-4" H -2800 -2100 50  0001 C CNN
F 3 "" H -2800 -2100 50  0001 C CNN
	1    -2800 -2050
	-1   0    0    1   
$EndComp
$Comp
L LED_ARGB LED13
U 1 1 5ABF0DD7
P -3850 -1250
F 0 "LED13" H -3850 -880 50  0000 C CNN
F 1 "LED_ARGB" H -3850 -1600 50  0000 C CNN
F 2 "chordboard-footprints:LED_D3.0mm-4" H -3850 -1300 50  0001 C CNN
F 3 "" H -3850 -1300 50  0001 C CNN
	1    -3850 -1250
	-1   0    0    1   
$EndComp
$Comp
L LED_ARGB LED14
U 1 1 5ABF0DD8
P -2800 -1250
F 0 "LED14" H -2800 -880 50  0000 C CNN
F 1 "LED_ARGB" H -2800 -1600 50  0000 C CNN
F 2 "chordboard-footprints:LED_D3.0mm-4" H -2800 -1300 50  0001 C CNN
F 3 "" H -2800 -1300 50  0001 C CNN
	1    -2800 -1250
	-1   0    0    1   
$EndComp
$Comp
L LED_ARGB LED15
U 1 1 5ABF0DD9
P -3850 -450
F 0 "LED15" H -3850 -80 50  0000 C CNN
F 1 "LED_ARGB" H -3850 -800 50  0000 C CNN
F 2 "chordboard-footprints:LED_D3.0mm-4" H -3850 -500 50  0001 C CNN
F 3 "" H -3850 -500 50  0001 C CNN
	1    -3850 -450
	-1   0    0    1   
$EndComp
$Comp
L LED_ARGB LED16
U 1 1 5ABF0DDA
P -2800 -450
F 0 "LED16" H -2800 -80 50  0000 C CNN
F 1 "LED_ARGB" H -2800 -800 50  0000 C CNN
F 2 "chordboard-footprints:LED_D3.0mm-4" H -2800 -500 50  0001 C CNN
F 3 "" H -2800 -500 50  0001 C CNN
	1    -2800 -450
	-1   0    0    1   
$EndComp
$Comp
L LED_ARGB LED17
U 1 1 5ABF0DDB
P -3850 350
F 0 "LED17" H -3850 720 50  0000 C CNN
F 1 "LED_ARGB" H -3850 0   50  0000 C CNN
F 2 "chordboard-footprints:LED_D3.0mm-4" H -3850 300 50  0001 C CNN
F 3 "" H -3850 300 50  0001 C CNN
	1    -3850 350 
	-1   0    0    1   
$EndComp
$Comp
L LED_ARGB LED18
U 1 1 5ABF0DDC
P -2800 350
F 0 "LED18" H -2800 720 50  0000 C CNN
F 1 "LED_ARGB" H -2800 0   50  0000 C CNN
F 2 "chordboard-footprints:LED_D3.0mm-4" H -2800 300 50  0001 C CNN
F 3 "" H -2800 300 50  0001 C CNN
	1    -2800 350 
	-1   0    0    1   
$EndComp
$Comp
L LED_ARGB LED19
U 1 1 5ABF0DDD
P -3850 1150
F 0 "LED19" H -3850 1520 50  0000 C CNN
F 1 "LED_ARGB" H -3850 800 50  0000 C CNN
F 2 "chordboard-footprints:LED_D3.0mm-4" H -3850 1100 50  0001 C CNN
F 3 "" H -3850 1100 50  0001 C CNN
	1    -3850 1150
	-1   0    0    1   
$EndComp
$Comp
L LED_ARGB LED20
U 1 1 5ABF0DDE
P -2800 1150
F 0 "LED20" H -2800 1520 50  0000 C CNN
F 1 "LED_ARGB" H -2800 800 50  0000 C CNN
F 2 "chordboard-footprints:LED_D3.0mm-4" H -2800 1100 50  0001 C CNN
F 3 "" H -2800 1100 50  0001 C CNN
	1    -2800 1150
	-1   0    0    1   
$EndComp
$Comp
L LED_ARGB LED21
U 1 1 5ABF0DDF
P -3850 1950
F 0 "LED21" H -3850 2320 50  0000 C CNN
F 1 "LED_ARGB" H -3850 1600 50  0000 C CNN
F 2 "chordboard-footprints:LED_D3.0mm-4" H -3850 1900 50  0001 C CNN
F 3 "" H -3850 1900 50  0001 C CNN
	1    -3850 1950
	-1   0    0    1   
$EndComp
$Comp
L LED_ARGB LED22
U 1 1 5ABF0DE0
P -2800 1950
F 0 "LED22" H -2800 2320 50  0000 C CNN
F 1 "LED_ARGB" H -2800 1600 50  0000 C CNN
F 2 "chordboard-footprints:LED_D3.0mm-4" H -2800 1900 50  0001 C CNN
F 3 "" H -2800 1900 50  0001 C CNN
	1    -2800 1950
	-1   0    0    1   
$EndComp
$Comp
L LED_ARGB LED23
U 1 1 5ABF0DE1
P -3850 2750
F 0 "LED23" H -3850 3120 50  0000 C CNN
F 1 "LED_ARGB" H -3850 2400 50  0000 C CNN
F 2 "chordboard-footprints:LED_D3.0mm-4" H -3850 2700 50  0001 C CNN
F 3 "" H -3850 2700 50  0001 C CNN
	1    -3850 2750
	-1   0    0    1   
$EndComp
$Comp
L LED_ARGB LED24
U 1 1 5ABF0DE2
P -2800 2750
F 0 "LED24" H -2800 3120 50  0000 C CNN
F 1 "LED_ARGB" H -2800 2400 50  0000 C CNN
F 2 "chordboard-footprints:LED_D3.0mm-4" H -2800 2700 50  0001 C CNN
F 3 "" H -2800 2700 50  0001 C CNN
	1    -2800 2750
	-1   0    0    1   
$EndComp
$Comp
L LED_ARGB LED25
U 1 1 5ABF0DE3
P -3850 3550
F 0 "LED25" H -3850 3920 50  0000 C CNN
F 1 "LED_ARGB" H -3850 3200 50  0000 C CNN
F 2 "chordboard-footprints:LED_D3.0mm-4" H -3850 3500 50  0001 C CNN
F 3 "" H -3850 3500 50  0001 C CNN
	1    -3850 3550
	-1   0    0    1   
$EndComp
$Comp
L LED_ARGB LED26
U 1 1 5ABF0DE4
P -2800 3550
F 0 "LED26" H -2800 3920 50  0000 C CNN
F 1 "LED_ARGB" H -2800 3200 50  0000 C CNN
F 2 "chordboard-footprints:LED_D3.0mm-4" H -2800 3500 50  0001 C CNN
F 3 "" H -2800 3500 50  0001 C CNN
	1    -2800 3550
	-1   0    0    1   
$EndComp
$Comp
L LED_ARGB LED27
U 1 1 5ABF0DE5
P -3850 4350
F 0 "LED27" H -3850 4720 50  0000 C CNN
F 1 "LED_ARGB" H -3850 4000 50  0000 C CNN
F 2 "chordboard-footprints:LED_D3.0mm-4" H -3850 4300 50  0001 C CNN
F 3 "" H -3850 4300 50  0001 C CNN
	1    -3850 4350
	-1   0    0    1   
$EndComp
$Comp
L LED_ARGB LED28
U 1 1 5ABF0DE6
P -2800 4350
F 0 "LED28" H -2800 4720 50  0000 C CNN
F 1 "LED_ARGB" H -2800 4000 50  0000 C CNN
F 2 "chordboard-footprints:LED_D3.0mm-4" H -2800 4300 50  0001 C CNN
F 3 "" H -2800 4300 50  0001 C CNN
	1    -2800 4350
	-1   0    0    1   
$EndComp
$Comp
L LED_ARGB LED29
U 1 1 5ABF0DE7
P -3850 5150
F 0 "LED29" H -3850 5520 50  0000 C CNN
F 1 "LED_ARGB" H -3850 4800 50  0000 C CNN
F 2 "chordboard-footprints:LED_D3.0mm-4" H -3850 5100 50  0001 C CNN
F 3 "" H -3850 5100 50  0001 C CNN
	1    -3850 5150
	-1   0    0    1   
$EndComp
$Comp
L LED_ARGB LED30
U 1 1 5ABF0DE8
P -2800 5150
F 0 "LED30" H -2800 5520 50  0000 C CNN
F 1 "LED_ARGB" H -2800 4800 50  0000 C CNN
F 2 "chordboard-footprints:LED_D3.0mm-4" H -2800 5100 50  0001 C CNN
F 3 "" H -2800 5100 50  0001 C CNN
	1    -2800 5150
	-1   0    0    1   
$EndComp
$Comp
L LED_ARGB LED31
U 1 1 5ABF0DE9
P -3850 5950
F 0 "LED31" H -3850 6320 50  0000 C CNN
F 1 "LED_ARGB" H -3850 5600 50  0000 C CNN
F 2 "chordboard-footprints:LED_D3.0mm-4" H -3850 5900 50  0001 C CNN
F 3 "" H -3850 5900 50  0001 C CNN
	1    -3850 5950
	-1   0    0    1   
$EndComp
$Comp
L LED_ARGB LED32
U 1 1 5ABF0DEA
P -2800 5950
F 0 "LED32" H -2800 6320 50  0000 C CNN
F 1 "LED_ARGB" H -2800 5600 50  0000 C CNN
F 2 "chordboard-footprints:LED_D3.0mm-4" H -2800 5900 50  0001 C CNN
F 3 "" H -2800 5900 50  0001 C CNN
	1    -2800 5950
	-1   0    0    1   
$EndComp
Text Label -6550 -6300 0    60   ~ 0
R0
Text Label -6550 -6200 0    60   ~ 0
R1
Text Label -6550 -6100 0    60   ~ 0
R2
Text Label -6550 -6000 0    60   ~ 0
R3
Text Label -6550 -5900 0    60   ~ 0
R4
Text Label -6550 -5800 0    60   ~ 0
R5
Text Label -6550 -5700 0    60   ~ 0
R6
Text Label -6550 -5600 0    60   ~ 0
R7
Text Label -6550 -5500 0    60   ~ 0
R8
Text Label -6550 -5400 0    60   ~ 0
R9
Text Label -6550 -5300 0    60   ~ 0
R10
Text Label -6550 -5200 0    60   ~ 0
R11
Text Label -6550 -5100 0    60   ~ 0
R12
Text Label -6550 -5000 0    60   ~ 0
R13
Text Label -6550 -4900 0    60   ~ 0
R14
Text Label -6550 -4800 0    60   ~ 0
R15
Text Label -6550 -4600 0    60   ~ 0
C0
Text Label -6550 -4500 0    60   ~ 0
C1
Text Label -6550 -4400 0    60   ~ 0
C2
Text Label -6550 -4300 0    60   ~ 0
C3
Text Label -6550 -4200 0    60   ~ 0
C4
Text Label -6550 -4100 0    60   ~ 0
C5
Text Label -4550 -5700 2    60   ~ 0
R0
Text Label -4550 -4900 2    60   ~ 0
R1
Text Label -4550 -4100 2    60   ~ 0
R2
Text Label -4550 -3300 2    60   ~ 0
R3
Text Label -4550 -2500 2    60   ~ 0
R4
Text Label -4550 -1700 2    60   ~ 0
R5
Text Label -4550 -900 2    60   ~ 0
R6
Text Label -4550 -100 2    60   ~ 0
R7
Text Label -4550 700  2    60   ~ 0
R8
Text Label -4550 1500 2    60   ~ 0
R9
Text Label -4550 2300 2    60   ~ 0
R10
Text Label -4550 3100 2    60   ~ 0
R11
Text Label -4550 3900 2    60   ~ 0
R12
Text Label -4550 4700 2    60   ~ 0
R13
Text Label -4550 5500 2    60   ~ 0
R14
Text Label -4550 6300 2    60   ~ 0
R15
Text Label -3350 -6900 1    60   ~ 0
C0
Text Label -3250 -6900 1    60   ~ 0
C1
Text Label -3150 -6900 1    60   ~ 0
C2
Text Label -2300 -6900 1    60   ~ 0
C3
Text Label -2200 -6900 1    60   ~ 0
C4
Text Label -2100 -6900 1    60   ~ 0
C5
Text Label -6250 -4600 0    60   ~ 0
AD
Text Label -6250 -6300 0    60   ~ 0
A2
Text Label -6250 -6200 0    60   ~ 0
A1
Text Label -6250 -6100 0    60   ~ 0
A0
Text Label -6250 -6000 0    60   ~ 0
K1
Text Label -6250 -5900 0    60   ~ 0
K2
Text Label -6250 -5800 0    60   ~ 0
K3
Text Label -6250 -5700 0    60   ~ 0
K4
Text Label -6250 -5600 0    60   ~ 0
K5
Text Label -6250 -5500 0    60   ~ 0
K6
Text Label -6250 -5400 0    60   ~ 0
K7
Text Label -6250 -5300 0    60   ~ 0
K8
Text Label -6250 -5200 0    60   ~ 0
K9
Text Label -6250 -5100 0    60   ~ 0
K10
Text Label -6250 -5000 0    60   ~ 0
K11
Text Label -6250 -4900 0    60   ~ 0
K12
Text Label -6250 -4500 0    60   ~ 0
KS0
Text Label -6250 -4400 0    60   ~ 0
KS1
Text Label -6250 -4300 0    60   ~ 0
KS2
Text Label 1250 -3950 2    60   ~ 0
KS0
Text Label 1250 -3650 2    60   ~ 0
KS1
Text Label 1250 -3350 2    60   ~ 0
KS2
$Comp
L KSW K1
U 1 1 5ABF0DEF
P 2100 -4050
F 0 "K1" H 2000 -4000 60  0000 C CNN
F 1 "KSW" H 2250 -4000 60  0000 C CNN
F 2 "chordboard-footprints:CHERRY_PCB_100H" H 3050 -4000 60  0001 C CNN
F 3 "" H 2100 -4050 60  0001 C CNN
	1    2100 -4050
	-1   0    0    -1  
$EndComp
$Comp
L KSW K2
U 1 1 5ABF0DF0
P 2500 -4050
F 0 "K2" H 2400 -4000 60  0000 C CNN
F 1 "KSW" H 2650 -4000 60  0000 C CNN
F 2 "chordboard-footprints:CHERRY_PCB_100H" H 3450 -4000 60  0001 C CNN
F 3 "" H 2500 -4050 60  0001 C CNN
	1    2500 -4050
	-1   0    0    -1  
$EndComp
$Comp
L KSW K3
U 1 1 5ABF0DF1
P 2900 -4050
F 0 "K3" H 2800 -4000 60  0000 C CNN
F 1 "KSW" H 3050 -4000 60  0000 C CNN
F 2 "chordboard-footprints:CHERRY_PCB_100H" H 3850 -4000 60  0001 C CNN
F 3 "" H 2900 -4050 60  0001 C CNN
	1    2900 -4050
	-1   0    0    -1  
$EndComp
$Comp
L KSW K4
U 1 1 5ABF0DF2
P 3300 -4050
F 0 "K4" H 3200 -4000 60  0000 C CNN
F 1 "KSW" H 3450 -4000 60  0000 C CNN
F 2 "chordboard-footprints:CHERRY_PCB_100H" H 4250 -4000 60  0001 C CNN
F 3 "" H 3300 -4050 60  0001 C CNN
	1    3300 -4050
	-1   0    0    -1  
$EndComp
$Comp
L KSW K5
U 1 1 5ABF0DF3
P 3700 -4050
F 0 "K5" H 3600 -4000 60  0000 C CNN
F 1 "KSW" H 3850 -4000 60  0000 C CNN
F 2 "chordboard-footprints:CHERRY_PCB_100H" H 4650 -4000 60  0001 C CNN
F 3 "" H 3700 -4050 60  0001 C CNN
	1    3700 -4050
	-1   0    0    -1  
$EndComp
$Comp
L KSW K6
U 1 1 5ABF0DF4
P 4100 -4050
F 0 "K6" H 4000 -4000 60  0000 C CNN
F 1 "KSW" H 4250 -4000 60  0000 C CNN
F 2 "chordboard-footprints:CHERRY_PCB_100H" H 5050 -4000 60  0001 C CNN
F 3 "" H 4100 -4050 60  0001 C CNN
	1    4100 -4050
	-1   0    0    -1  
$EndComp
$Comp
L KSW K7
U 1 1 5ABF0DF5
P 4500 -4050
F 0 "K7" H 4400 -4000 60  0000 C CNN
F 1 "KSW" H 4650 -4000 60  0000 C CNN
F 2 "chordboard-footprints:CHERRY_PCB_100H" H 5450 -4000 60  0001 C CNN
F 3 "" H 4500 -4050 60  0001 C CNN
	1    4500 -4050
	-1   0    0    -1  
$EndComp
$Comp
L KSW K8
U 1 1 5ABF0DF6
P 4900 -4050
F 0 "K8" H 4800 -4000 60  0000 C CNN
F 1 "KSW" H 5050 -4000 60  0000 C CNN
F 2 "chordboard-footprints:CHERRY_PCB_100H" H 5850 -4000 60  0001 C CNN
F 3 "" H 4900 -4050 60  0001 C CNN
	1    4900 -4050
	-1   0    0    -1  
$EndComp
$Comp
L KSW K9
U 1 1 5ABF0DF7
P 5300 -4050
F 0 "K9" H 5200 -4000 60  0000 C CNN
F 1 "KSW" H 5450 -4000 60  0000 C CNN
F 2 "chordboard-footprints:CHERRY_PCB_100H" H 6250 -4000 60  0001 C CNN
F 3 "" H 5300 -4050 60  0001 C CNN
	1    5300 -4050
	-1   0    0    -1  
$EndComp
$Comp
L KSW K10
U 1 1 5ABF0DF8
P 5700 -4050
F 0 "K10" H 5600 -4000 60  0000 C CNN
F 1 "KSW" H 5850 -4000 60  0000 C CNN
F 2 "chordboard-footprints:CHERRY_PCB_100H" H 6650 -4000 60  0001 C CNN
F 3 "" H 5700 -4050 60  0001 C CNN
	1    5700 -4050
	-1   0    0    -1  
$EndComp
$Comp
L KSW K11
U 1 1 5ABF0DF9
P 6100 -4050
F 0 "K11" H 6000 -4000 60  0000 C CNN
F 1 "KSW" H 6250 -4000 60  0000 C CNN
F 2 "chordboard-footprints:CHERRY_PCB_100H" H 7050 -4000 60  0001 C CNN
F 3 "" H 6100 -4050 60  0001 C CNN
	1    6100 -4050
	-1   0    0    -1  
$EndComp
$Comp
L KSW K12
U 1 1 5ABF0DFA
P 6500 -4050
F 0 "K12" H 6400 -4000 60  0000 C CNN
F 1 "KSW" H 6650 -4000 60  0000 C CNN
F 2 "chordboard-footprints:CHERRY_PCB_100H" H 7450 -4000 60  0001 C CNN
F 3 "" H 6500 -4050 60  0001 C CNN
	1    6500 -4050
	-1   0    0    -1  
$EndComp
$Comp
L 1N4148 D2
U 1 1 5ABF0DFB
P 1550 -3950
F 0 "D2" H 1550 -3850 50  0000 C CNN
F 1 "1N4148" H 1550 -4050 50  0000 C CNN
F 2 "chordboard-footprints:D_SOD-123_HANDSOLDER" H 1550 -4125 50  0001 C CNN
F 3 "" H 1550 -3950 50  0001 C CNN
	1    1550 -3950
	-1   0    0    1   
$EndComp
$Comp
L KSW K13
U 1 1 5ABF0DFC
P 2100 -3750
F 0 "K13" H 2000 -3700 60  0000 C CNN
F 1 "KSW" H 2250 -3700 60  0000 C CNN
F 2 "chordboard-footprints:CHERRY_PCB_100H" H 3050 -3700 60  0001 C CNN
F 3 "" H 2100 -3750 60  0001 C CNN
	1    2100 -3750
	-1   0    0    -1  
$EndComp
$Comp
L KSW K14
U 1 1 5ABF0DFD
P 2500 -3750
F 0 "K14" H 2400 -3700 60  0000 C CNN
F 1 "KSW" H 2650 -3700 60  0000 C CNN
F 2 "chordboard-footprints:CHERRY_PCB_100H" H 3450 -3700 60  0001 C CNN
F 3 "" H 2500 -3750 60  0001 C CNN
	1    2500 -3750
	-1   0    0    -1  
$EndComp
$Comp
L KSW K15
U 1 1 5ABF0DFE
P 2900 -3750
F 0 "K15" H 2800 -3700 60  0000 C CNN
F 1 "KSW" H 3050 -3700 60  0000 C CNN
F 2 "chordboard-footprints:CHERRY_PCB_100H" H 3850 -3700 60  0001 C CNN
F 3 "" H 2900 -3750 60  0001 C CNN
	1    2900 -3750
	-1   0    0    -1  
$EndComp
$Comp
L KSW K16
U 1 1 5ABF0DFF
P 3300 -3750
F 0 "K16" H 3200 -3700 60  0000 C CNN
F 1 "KSW" H 3450 -3700 60  0000 C CNN
F 2 "chordboard-footprints:CHERRY_PCB_100H" H 4250 -3700 60  0001 C CNN
F 3 "" H 3300 -3750 60  0001 C CNN
	1    3300 -3750
	-1   0    0    -1  
$EndComp
$Comp
L KSW K17
U 1 1 5ABF0E00
P 3700 -3750
F 0 "K17" H 3600 -3700 60  0000 C CNN
F 1 "KSW" H 3850 -3700 60  0000 C CNN
F 2 "chordboard-footprints:CHERRY_PCB_100H" H 4650 -3700 60  0001 C CNN
F 3 "" H 3700 -3750 60  0001 C CNN
	1    3700 -3750
	-1   0    0    -1  
$EndComp
$Comp
L KSW K18
U 1 1 5ABF0E01
P 4100 -3750
F 0 "K18" H 4000 -3700 60  0000 C CNN
F 1 "KSW" H 4250 -3700 60  0000 C CNN
F 2 "chordboard-footprints:CHERRY_PCB_100H" H 5050 -3700 60  0001 C CNN
F 3 "" H 4100 -3750 60  0001 C CNN
	1    4100 -3750
	-1   0    0    -1  
$EndComp
$Comp
L KSW K19
U 1 1 5ABF0E02
P 4500 -3750
F 0 "K19" H 4400 -3700 60  0000 C CNN
F 1 "KSW" H 4650 -3700 60  0000 C CNN
F 2 "chordboard-footprints:CHERRY_PCB_100H" H 5450 -3700 60  0001 C CNN
F 3 "" H 4500 -3750 60  0001 C CNN
	1    4500 -3750
	-1   0    0    -1  
$EndComp
$Comp
L KSW K20
U 1 1 5ABF0E03
P 4900 -3750
F 0 "K20" H 4800 -3700 60  0000 C CNN
F 1 "KSW" H 5050 -3700 60  0000 C CNN
F 2 "chordboard-footprints:CHERRY_PCB_100H" H 5850 -3700 60  0001 C CNN
F 3 "" H 4900 -3750 60  0001 C CNN
	1    4900 -3750
	-1   0    0    -1  
$EndComp
$Comp
L KSW K21
U 1 1 5ABF0E04
P 5300 -3750
F 0 "K21" H 5200 -3700 60  0000 C CNN
F 1 "KSW" H 5450 -3700 60  0000 C CNN
F 2 "chordboard-footprints:CHERRY_PCB_100H" H 6250 -3700 60  0001 C CNN
F 3 "" H 5300 -3750 60  0001 C CNN
	1    5300 -3750
	-1   0    0    -1  
$EndComp
$Comp
L KSW K22
U 1 1 5ABF0E05
P 5700 -3750
F 0 "K22" H 5600 -3700 60  0000 C CNN
F 1 "KSW" H 5850 -3700 60  0000 C CNN
F 2 "chordboard-footprints:CHERRY_PCB_100H" H 6650 -3700 60  0001 C CNN
F 3 "" H 5700 -3750 60  0001 C CNN
	1    5700 -3750
	-1   0    0    -1  
$EndComp
$Comp
L KSW K23
U 1 1 5ABF0E06
P 6100 -3750
F 0 "K23" H 6000 -3700 60  0000 C CNN
F 1 "KSW" H 6250 -3700 60  0000 C CNN
F 2 "chordboard-footprints:CHERRY_PCB_100H" H 7050 -3700 60  0001 C CNN
F 3 "" H 6100 -3750 60  0001 C CNN
	1    6100 -3750
	-1   0    0    -1  
$EndComp
$Comp
L KSW K24
U 1 1 5ABF0E07
P 6500 -3750
F 0 "K24" H 6400 -3700 60  0000 C CNN
F 1 "KSW" H 6650 -3700 60  0000 C CNN
F 2 "chordboard-footprints:CHERRY_PCB_100H" H 7450 -3700 60  0001 C CNN
F 3 "" H 6500 -3750 60  0001 C CNN
	1    6500 -3750
	-1   0    0    -1  
$EndComp
$Comp
L 1N4148 D3
U 1 1 5ABF0E08
P 1550 -3650
F 0 "D3" H 1550 -3550 50  0000 C CNN
F 1 "1N4148" H 1550 -3750 50  0000 C CNN
F 2 "chordboard-footprints:D_SOD-123_HANDSOLDER" H 1550 -3825 50  0001 C CNN
F 3 "" H 1550 -3650 50  0001 C CNN
	1    1550 -3650
	-1   0    0    1   
$EndComp
$Comp
L KSW K25
U 1 1 5ABF0E09
P 2100 -3450
F 0 "K25" H 2000 -3400 60  0000 C CNN
F 1 "KSW" H 2250 -3400 60  0000 C CNN
F 2 "chordboard-footprints:CHERRY_PCB_100H" H 3050 -3400 60  0001 C CNN
F 3 "" H 2100 -3450 60  0001 C CNN
	1    2100 -3450
	-1   0    0    -1  
$EndComp
$Comp
L KSW K26
U 1 1 5ABF0E0A
P 2500 -3450
F 0 "K26" H 2400 -3400 60  0000 C CNN
F 1 "KSW" H 2650 -3400 60  0000 C CNN
F 2 "chordboard-footprints:CHERRY_PCB_100H" H 3450 -3400 60  0001 C CNN
F 3 "" H 2500 -3450 60  0001 C CNN
	1    2500 -3450
	-1   0    0    -1  
$EndComp
$Comp
L KSW K27
U 1 1 5ABF0E0B
P 2900 -3450
F 0 "K27" H 2800 -3400 60  0000 C CNN
F 1 "KSW" H 3050 -3400 60  0000 C CNN
F 2 "chordboard-footprints:CHERRY_PCB_100H" H 3850 -3400 60  0001 C CNN
F 3 "" H 2900 -3450 60  0001 C CNN
	1    2900 -3450
	-1   0    0    -1  
$EndComp
$Comp
L KSW K28
U 1 1 5ABF0E0C
P 3300 -3450
F 0 "K28" H 3200 -3400 60  0000 C CNN
F 1 "KSW" H 3450 -3400 60  0000 C CNN
F 2 "chordboard-footprints:CHERRY_PCB_100H" H 4250 -3400 60  0001 C CNN
F 3 "" H 3300 -3450 60  0001 C CNN
	1    3300 -3450
	-1   0    0    -1  
$EndComp
$Comp
L KSW K29
U 1 1 5ABF0E0D
P 3700 -3450
F 0 "K29" H 3600 -3400 60  0000 C CNN
F 1 "KSW" H 3850 -3400 60  0000 C CNN
F 2 "chordboard-footprints:CHERRY_PCB_100H" H 4650 -3400 60  0001 C CNN
F 3 "" H 3700 -3450 60  0001 C CNN
	1    3700 -3450
	-1   0    0    -1  
$EndComp
$Comp
L KSW K30
U 1 1 5ABF0E0E
P 4100 -3450
F 0 "K30" H 4000 -3400 60  0000 C CNN
F 1 "KSW" H 4250 -3400 60  0000 C CNN
F 2 "chordboard-footprints:CHERRY_PCB_100H" H 5050 -3400 60  0001 C CNN
F 3 "" H 4100 -3450 60  0001 C CNN
	1    4100 -3450
	-1   0    0    -1  
$EndComp
$Comp
L KSW K31
U 1 1 5ABF0E0F
P 4500 -3450
F 0 "K31" H 4400 -3400 60  0000 C CNN
F 1 "KSW" H 4650 -3400 60  0000 C CNN
F 2 "chordboard-footprints:CHERRY_PCB_100H" H 5450 -3400 60  0001 C CNN
F 3 "" H 4500 -3450 60  0001 C CNN
	1    4500 -3450
	-1   0    0    -1  
$EndComp
$Comp
L KSW K32
U 1 1 5ABF0E10
P 4900 -3450
F 0 "K32" H 4800 -3400 60  0000 C CNN
F 1 "KSW" H 5050 -3400 60  0000 C CNN
F 2 "chordboard-footprints:CHERRY_PCB_100H" H 5850 -3400 60  0001 C CNN
F 3 "" H 4900 -3450 60  0001 C CNN
	1    4900 -3450
	-1   0    0    -1  
$EndComp
$Comp
L KSW K33
U 1 1 5ABF0E11
P 5300 -3450
F 0 "K33" H 5200 -3400 60  0000 C CNN
F 1 "KSW" H 5450 -3400 60  0000 C CNN
F 2 "chordboard-footprints:SW_PUSH_6mm" H 6250 -3400 60  0001 C CNN
F 3 "" H 5300 -3450 60  0001 C CNN
	1    5300 -3450
	-1   0    0    -1  
$EndComp
$Comp
L KSW K34
U 1 1 5ABF0E12
P 5700 -3450
F 0 "K34" H 5600 -3400 60  0000 C CNN
F 1 "KSW" H 5850 -3400 60  0000 C CNN
F 2 "chordboard-footprints:SW_PUSH_6mm" H 6650 -3400 60  0001 C CNN
F 3 "" H 5700 -3450 60  0001 C CNN
	1    5700 -3450
	-1   0    0    -1  
$EndComp
$Comp
L KSW K35
U 1 1 5ABF0E13
P 6100 -3450
F 0 "K35" H 6000 -3400 60  0000 C CNN
F 1 "KSW" H 6250 -3400 60  0000 C CNN
F 2 "chordboard-footprints:SW_PUSH_6mm" H 7050 -3400 60  0001 C CNN
F 3 "" H 6100 -3450 60  0001 C CNN
	1    6100 -3450
	-1   0    0    -1  
$EndComp
$Comp
L KSW K36
U 1 1 5ABF0E14
P 6500 -3450
F 0 "K36" H 6400 -3400 60  0000 C CNN
F 1 "KSW" H 6650 -3400 60  0000 C CNN
F 2 "chordboard-footprints:SW_PUSH_6mm" H 7450 -3400 60  0001 C CNN
F 3 "" H 6500 -3450 60  0001 C CNN
	1    6500 -3450
	-1   0    0    -1  
$EndComp
$Comp
L 1N4148 D4
U 1 1 5ABF0E15
P 1550 -3350
F 0 "D4" H 1550 -3250 50  0000 C CNN
F 1 "1N4148" H 1550 -3450 50  0000 C CNN
F 2 "chordboard-footprints:D_SOD-123_HANDSOLDER" H 1550 -3525 50  0001 C CNN
F 3 "" H 1550 -3350 50  0001 C CNN
	1    1550 -3350
	-1   0    0    1   
$EndComp
Text Label 2250 -4350 1    60   ~ 0
K1
Text Label 2650 -4350 1    60   ~ 0
K2
Text Label 3050 -4350 1    60   ~ 0
K3
Text Label 3450 -4350 1    60   ~ 0
K4
Text Label 3850 -4350 1    60   ~ 0
K5
Text Label 4250 -4350 1    60   ~ 0
K6
Text Label 4650 -4350 1    60   ~ 0
K7
Text Label 5050 -4350 1    60   ~ 0
K8
Text Label 5450 -4350 1    60   ~ 0
K9
Text Label 5850 -4350 1    60   ~ 0
K10
Text Label 6250 -4350 1    60   ~ 0
K11
Text Label 6650 -4350 1    60   ~ 0
K12
Text Label -6250 -4800 0    60   ~ 0
INT
Text Label -6550 -4000 0    60   ~ 0
C6
$Comp
L LED LED33
U 1 1 5AC120CD
P -1750 -5700
F 0 "LED33" H -1800 -5650 60  0000 R CNN
F 1 "LED" H -1700 -5650 60  0000 L CNN
F 2 "chordboard-footprints:LED_1.8mm" H -1750 -5700 60  0001 C CNN
F 3 "" H -1750 -5700 60  0001 C CNN
	1    -1750 -5700
	1    0    0    -1  
$EndComp
$Comp
L LED LED34
U 1 1 5AC12D9D
P -1750 -4900
F 0 "LED34" H -1800 -4850 60  0000 R CNN
F 1 "LED" H -1700 -4850 60  0000 L CNN
F 2 "chordboard-footprints:LED_1.8mm" H -1750 -4900 60  0001 C CNN
F 3 "" H -1750 -4900 60  0001 C CNN
	1    -1750 -4900
	1    0    0    -1  
$EndComp
Wire Wire Line
	17800 4400 17800 4500
Wire Wire Line
	17800 4300 17800 4200
Connection ~ 11200 -3050
Connection ~ 11200 -3450
Wire Wire Line
	11200 -3450 11650 -3450
Wire Wire Line
	11200 -4000 11650 -4000
Wire Wire Line
	11200 -4000 11200 -2250
Connection ~ 11100 -4100
Wire Wire Line
	11100 -3550 11650 -3550
Wire Wire Line
	11100 -4100 11650 -4100
Wire Wire Line
	16950 3600 17950 3600
Wire Wire Line
	16950 3800 17950 3800
Wire Wire Line
	16950 3700 17950 3700
Wire Wire Line
	17950 3500 16950 3500
Wire Wire Line
	16950 3400 17950 3400
Wire Wire Line
	13750 3600 14950 3600
Wire Wire Line
	13750 3600 13750 5450
Wire Wire Line
	14450 3700 14950 3700
Wire Wire Line
	13750 2400 14950 2400
Wire Wire Line
	14950 1000 14950 600 
Wire Wire Line
	16950 5100 19050 5100
Wire Wire Line
	16950 5000 19050 5000
Connection ~ 18800 4300
Wire Wire Line
	18800 4300 18800 3300
Wire Wire Line
	18750 4300 18850 4300
Connection ~ 18850 5000
Wire Wire Line
	18850 5000 18850 4550
Connection ~ 18750 5100
Wire Wire Line
	18750 5100 18750 4550
Wire Wire Line
	13750 4800 14950 4800
Wire Wire Line
	19050 1500 19400 1500
Wire Wire Line
	19050 1500 19050 1650
Wire Wire Line
	21350 1700 21350 1150
Wire Wire Line
	16950 4900 17000 4900
Wire Wire Line
	16950 4800 17000 4800
Wire Wire Line
	20850 1700 21350 1700
Connection ~ 21900 8200
Wire Wire Line
	22100 8200 21900 8200
Wire Wire Line
	21900 8000 21900 8350
Wire Wire Line
	21350 8450 21350 8600
Wire Wire Line
	21350 8250 20850 8250
Wire Wire Line
	20850 8250 20850 8600
Wire Wire Line
	20850 8800 21350 8800
Wire Wire Line
	21100 8800 21100 8900
Connection ~ 21100 8800
Wire Wire Line
	22100 8200 22100 8350
Connection ~ 24100 8200
Wire Wire Line
	24300 8200 24100 8200
Wire Wire Line
	24100 8000 24100 8350
Wire Wire Line
	23550 8450 23550 8600
Wire Wire Line
	23550 8250 23050 8250
Wire Wire Line
	23050 8250 23050 8600
Wire Wire Line
	23050 8800 23550 8800
Wire Wire Line
	23300 8800 23300 8900
Connection ~ 23300 8800
Wire Wire Line
	24300 8200 24300 8350
Connection ~ 26100 8200
Wire Wire Line
	26300 8200 26100 8200
Wire Wire Line
	26100 8000 26100 8350
Wire Wire Line
	25550 8450 25550 8600
Wire Wire Line
	25550 8250 25050 8250
Wire Wire Line
	25050 8250 25050 8600
Wire Wire Line
	25050 8800 25550 8800
Wire Wire Line
	25300 8800 25300 8900
Connection ~ 25300 8800
Wire Wire Line
	26300 8200 26300 8350
Wire Wire Line
	14050 3700 13750 3700
Connection ~ 13750 3700
Wire Wire Line
	18750 4300 18750 4350
Wire Wire Line
	18850 4300 18850 4350
Wire Wire Line
	16950 4300 17800 4300
Wire Wire Line
	16950 4400 17800 4400
Wire Wire Line
	11100 -4700 11100 -2800
Wire Wire Line
	11100 -2800 11700 -2800
Connection ~ 11100 -3550
Wire Wire Line
	11700 -2500 11200 -2500
Connection ~ 11200 -2500
Wire Wire Line
	11600 -2700 11700 -2700
Wire Wire Line
	11600 -2850 11600 -2700
Wire Wire Line
	11350 -2850 11350 -2600
Wire Wire Line
	11350 -2600 11700 -2600
Connection ~ 13750 4400
Connection ~ 13750 4300
Connection ~ 13750 4200
Connection ~ 13750 4800
Wire Wire Line
	11700 -1650 11600 -1650
Wire Wire Line
	11600 -1650 11600 -1300
Connection ~ 13750 4500
Wire Wire Line
	15100 -2550 15100 -2200
Wire Wire Line
	15100 -2550 15200 -2550
Wire Wire Line
	15200 -2750 15100 -2750
Wire Wire Line
	-3650 -6250 -3350 -6250
Wire Wire Line
	-3650 -6050 -3250 -6050
Wire Wire Line
	-3650 -5850 -3150 -5850
Wire Wire Line
	-4050 -6050 -4150 -6050
Wire Wire Line
	-4150 -6050 -4150 -5700
Connection ~ -3350 -6250
Connection ~ -3250 -6050
Wire Wire Line
	-7750 -7450 -7550 -7450
Wire Wire Line
	-7150 -7450 -6950 -7450
Wire Wire Line
	-7350 -7850 -7350 -7750
Wire Wire Line
	-7100 -7550 -7100 -7450
Connection ~ -7100 -7450
Wire Wire Line
	-7600 -7550 -7600 -7450
Connection ~ -7600 -7450
Wire Wire Line
	-7100 -7850 -7100 -7750
Wire Wire Line
	-7600 -7750 -7600 -7800
Wire Wire Line
	-7600 -7800 -7350 -7800
Connection ~ -7350 -7800
Wire Wire Line
	-7750 -8500 -7550 -8500
Wire Wire Line
	-7150 -8500 -6950 -8500
Wire Wire Line
	-7350 -8900 -7350 -8800
Wire Wire Line
	-7100 -8600 -7100 -8500
Connection ~ -7100 -8500
Wire Wire Line
	-7600 -8600 -7600 -8500
Connection ~ -7600 -8500
Wire Wire Line
	-7100 -8900 -7100 -8800
Wire Wire Line
	-7600 -8800 -7600 -8850
Wire Wire Line
	-7600 -8850 -7350 -8850
Connection ~ -7350 -8850
Wire Wire Line
	-7850 -6400 -7850 -6300
Wire Wire Line
	-7850 -3900 -7850 -3800
Connection ~ -3150 -5850
Wire Wire Line
	-4550 -5700 -1900 -5700
Wire Wire Line
	-3000 -5700 -3000 -6050
Connection ~ -4150 -5700
Wire Wire Line
	-2600 -6250 -2300 -6250
Wire Wire Line
	-2600 -6050 -2200 -6050
Wire Wire Line
	-2600 -5850 -2100 -5850
Connection ~ -2300 -6250
Connection ~ -2200 -6050
Connection ~ -2100 -5850
Wire Wire Line
	-3350 -5450 -3650 -5450
Wire Wire Line
	-3250 -5250 -3650 -5250
Wire Wire Line
	-3150 -5050 -3650 -5050
Wire Wire Line
	-4050 -5250 -4150 -5250
Wire Wire Line
	-4150 -5250 -4150 -4900
Connection ~ -3350 -5450
Connection ~ -3250 -5250
Connection ~ -3150 -5050
Wire Wire Line
	-4550 -4900 -1900 -4900
Wire Wire Line
	-3000 -4900 -3000 -5250
Connection ~ -4150 -4900
Wire Wire Line
	-2300 -5450 -2600 -5450
Wire Wire Line
	-2200 -5250 -2600 -5250
Wire Wire Line
	-2100 -5050 -2600 -5050
Connection ~ -2300 -5450
Connection ~ -2200 -5250
Connection ~ -2100 -5050
Wire Wire Line
	-3350 -4650 -3650 -4650
Wire Wire Line
	-3250 -4450 -3650 -4450
Wire Wire Line
	-3150 -4250 -3650 -4250
Wire Wire Line
	-4050 -4450 -4150 -4450
Wire Wire Line
	-4150 -4450 -4150 -4100
Connection ~ -3350 -4650
Connection ~ -3250 -4450
Connection ~ -3150 -4250
Wire Wire Line
	-4550 -4100 -1900 -4100
Wire Wire Line
	-3000 -4100 -3000 -4450
Connection ~ -4150 -4100
Wire Wire Line
	-2300 -4650 -2600 -4650
Wire Wire Line
	-2200 -4450 -2600 -4450
Wire Wire Line
	-2100 -4250 -2600 -4250
Connection ~ -2300 -4650
Connection ~ -2200 -4450
Connection ~ -2100 -4250
Wire Wire Line
	-3350 -3850 -3650 -3850
Wire Wire Line
	-3250 -3650 -3650 -3650
Wire Wire Line
	-3150 -3450 -3650 -3450
Wire Wire Line
	-4050 -3650 -4150 -3650
Wire Wire Line
	-4150 -3650 -4150 -3300
Connection ~ -3350 -3850
Connection ~ -3250 -3650
Connection ~ -3150 -3450
Wire Wire Line
	-4550 -3300 -1900 -3300
Wire Wire Line
	-3000 -3300 -3000 -3650
Connection ~ -4150 -3300
Wire Wire Line
	-2300 -3850 -2600 -3850
Wire Wire Line
	-2200 -3650 -2600 -3650
Wire Wire Line
	-2100 -3450 -2600 -3450
Connection ~ -2300 -3850
Connection ~ -2200 -3650
Connection ~ -2100 -3450
Wire Wire Line
	-3350 -3050 -3650 -3050
Wire Wire Line
	-3250 -2850 -3650 -2850
Wire Wire Line
	-3150 -2650 -3650 -2650
Wire Wire Line
	-4050 -2850 -4150 -2850
Wire Wire Line
	-4150 -2850 -4150 -2500
Connection ~ -3350 -3050
Connection ~ -3250 -2850
Connection ~ -3150 -2650
Wire Wire Line
	-4550 -2500 -1900 -2500
Wire Wire Line
	-3000 -2500 -3000 -2850
Connection ~ -4150 -2500
Wire Wire Line
	-2300 -3050 -2600 -3050
Wire Wire Line
	-2200 -2850 -2600 -2850
Wire Wire Line
	-2100 -2650 -2600 -2650
Connection ~ -2300 -3050
Connection ~ -2200 -2850
Connection ~ -2100 -2650
Wire Wire Line
	-3350 -2250 -3650 -2250
Wire Wire Line
	-3250 -2050 -3650 -2050
Wire Wire Line
	-3150 -1850 -3650 -1850
Wire Wire Line
	-4050 -2050 -4150 -2050
Wire Wire Line
	-4150 -2050 -4150 -1700
Connection ~ -3350 -2250
Connection ~ -3250 -2050
Connection ~ -3150 -1850
Wire Wire Line
	-4550 -1700 -1900 -1700
Wire Wire Line
	-3000 -1700 -3000 -2050
Connection ~ -4150 -1700
Wire Wire Line
	-2300 -2250 -2600 -2250
Wire Wire Line
	-2200 -2050 -2600 -2050
Wire Wire Line
	-2100 -1850 -2600 -1850
Connection ~ -2300 -2250
Connection ~ -2200 -2050
Connection ~ -2100 -1850
Wire Wire Line
	-3350 -1450 -3650 -1450
Wire Wire Line
	-3250 -1250 -3650 -1250
Wire Wire Line
	-3150 -1050 -3650 -1050
Wire Wire Line
	-4050 -1250 -4150 -1250
Wire Wire Line
	-4150 -1250 -4150 -900
Connection ~ -3350 -1450
Connection ~ -3250 -1250
Connection ~ -3150 -1050
Wire Wire Line
	-4550 -900 -1900 -900
Wire Wire Line
	-3000 -900 -3000 -1250
Connection ~ -4150 -900
Wire Wire Line
	-2300 -1450 -2600 -1450
Wire Wire Line
	-2200 -1250 -2600 -1250
Wire Wire Line
	-2100 -1050 -2600 -1050
Connection ~ -2300 -1450
Connection ~ -2200 -1250
Connection ~ -2100 -1050
Wire Wire Line
	-3350 -650 -3650 -650
Wire Wire Line
	-3250 -450 -3650 -450
Wire Wire Line
	-3150 -250 -3650 -250
Wire Wire Line
	-4050 -450 -4150 -450
Wire Wire Line
	-4150 -450 -4150 -100
Connection ~ -3350 -650
Connection ~ -3250 -450
Connection ~ -3150 -250
Wire Wire Line
	-4550 -100 -1900 -100
Wire Wire Line
	-3000 -100 -3000 -450
Connection ~ -4150 -100
Wire Wire Line
	-2300 -650 -2600 -650
Wire Wire Line
	-2200 -450 -2600 -450
Wire Wire Line
	-2100 -250 -2600 -250
Connection ~ -2300 -650
Connection ~ -2200 -450
Connection ~ -2100 -250
Wire Wire Line
	-3350 150  -3650 150 
Wire Wire Line
	-3250 350  -3650 350 
Wire Wire Line
	-3150 550  -3650 550 
Wire Wire Line
	-4050 350  -4150 350 
Wire Wire Line
	-4150 350  -4150 700 
Connection ~ -3350 150 
Connection ~ -3250 350 
Connection ~ -3150 550 
Wire Wire Line
	-4550 700  -1900 700 
Wire Wire Line
	-3000 700  -3000 350 
Connection ~ -4150 700 
Wire Wire Line
	-2300 150  -2600 150 
Wire Wire Line
	-2200 350  -2600 350 
Wire Wire Line
	-2100 550  -2600 550 
Connection ~ -2300 150 
Connection ~ -2200 350 
Connection ~ -2100 550 
Wire Wire Line
	-3350 950  -3650 950 
Wire Wire Line
	-3250 1150 -3650 1150
Wire Wire Line
	-3150 1350 -3650 1350
Wire Wire Line
	-4050 1150 -4150 1150
Wire Wire Line
	-4150 1150 -4150 1500
Connection ~ -3350 950 
Connection ~ -3250 1150
Connection ~ -3150 1350
Wire Wire Line
	-4550 1500 -1900 1500
Wire Wire Line
	-3000 1500 -3000 1150
Connection ~ -4150 1500
Wire Wire Line
	-2300 950  -2600 950 
Wire Wire Line
	-2200 1150 -2600 1150
Wire Wire Line
	-2100 1350 -2600 1350
Connection ~ -2300 950 
Connection ~ -2200 1150
Connection ~ -2100 1350
Wire Wire Line
	-3350 1750 -3650 1750
Wire Wire Line
	-3250 1950 -3650 1950
Wire Wire Line
	-3150 2150 -3650 2150
Wire Wire Line
	-4050 1950 -4150 1950
Wire Wire Line
	-4150 1950 -4150 2300
Connection ~ -3350 1750
Connection ~ -3250 1950
Connection ~ -3150 2150
Wire Wire Line
	-4550 2300 -1900 2300
Wire Wire Line
	-3000 2300 -3000 1950
Connection ~ -4150 2300
Wire Wire Line
	-2300 1750 -2600 1750
Wire Wire Line
	-2200 1950 -2600 1950
Wire Wire Line
	-2100 2150 -2600 2150
Connection ~ -2300 1750
Connection ~ -2200 1950
Connection ~ -2100 2150
Wire Wire Line
	-3350 2550 -3650 2550
Wire Wire Line
	-3250 2750 -3650 2750
Wire Wire Line
	-3150 2950 -3650 2950
Wire Wire Line
	-4050 2750 -4150 2750
Wire Wire Line
	-4150 2750 -4150 3100
Connection ~ -3350 2550
Connection ~ -3250 2750
Connection ~ -3150 2950
Wire Wire Line
	-4550 3100 -1900 3100
Wire Wire Line
	-3000 3100 -3000 2750
Connection ~ -4150 3100
Wire Wire Line
	-2300 2550 -2600 2550
Wire Wire Line
	-2200 2750 -2600 2750
Wire Wire Line
	-2100 2950 -2600 2950
Connection ~ -2300 2550
Connection ~ -2200 2750
Connection ~ -2100 2950
Wire Wire Line
	-3350 3350 -3650 3350
Wire Wire Line
	-3250 3550 -3650 3550
Wire Wire Line
	-3150 3750 -3650 3750
Wire Wire Line
	-4050 3550 -4150 3550
Wire Wire Line
	-4150 3550 -4150 3900
Connection ~ -3350 3350
Connection ~ -3250 3550
Connection ~ -3150 3750
Wire Wire Line
	-4550 3900 -1900 3900
Wire Wire Line
	-3000 3900 -3000 3550
Connection ~ -4150 3900
Wire Wire Line
	-2300 3350 -2600 3350
Wire Wire Line
	-2200 3550 -2600 3550
Wire Wire Line
	-2100 3750 -2600 3750
Connection ~ -2300 3350
Connection ~ -2200 3550
Connection ~ -2100 3750
Wire Wire Line
	-3350 4150 -3650 4150
Wire Wire Line
	-3250 4350 -3650 4350
Wire Wire Line
	-3150 4550 -3650 4550
Wire Wire Line
	-4050 4350 -4150 4350
Wire Wire Line
	-4150 4350 -4150 4700
Connection ~ -3350 4150
Connection ~ -3250 4350
Connection ~ -3150 4550
Wire Wire Line
	-4550 4700 -1900 4700
Wire Wire Line
	-3000 4700 -3000 4350
Connection ~ -4150 4700
Wire Wire Line
	-2300 4150 -2600 4150
Wire Wire Line
	-2200 4350 -2600 4350
Wire Wire Line
	-2100 4550 -2600 4550
Connection ~ -2300 4150
Connection ~ -2200 4350
Connection ~ -2100 4550
Wire Wire Line
	-3350 4950 -3650 4950
Wire Wire Line
	-3250 5150 -3650 5150
Wire Wire Line
	-3150 5350 -3650 5350
Wire Wire Line
	-4050 5150 -4150 5150
Wire Wire Line
	-4150 5150 -4150 5500
Connection ~ -3350 4950
Connection ~ -3250 5150
Connection ~ -3150 5350
Wire Wire Line
	-4550 5500 -1900 5500
Wire Wire Line
	-3000 5500 -3000 5150
Connection ~ -4150 5500
Wire Wire Line
	-2300 4950 -2600 4950
Wire Wire Line
	-2200 5150 -2600 5150
Wire Wire Line
	-2100 5350 -2600 5350
Connection ~ -2300 4950
Connection ~ -2200 5150
Connection ~ -2100 5350
Wire Wire Line
	-3350 5750 -3650 5750
Wire Wire Line
	-3250 5950 -3650 5950
Wire Wire Line
	-3150 6150 -3650 6150
Wire Wire Line
	-4050 5950 -4150 5950
Wire Wire Line
	-4150 5950 -4150 6300
Connection ~ -3350 5750
Connection ~ -3250 5950
Connection ~ -3150 6150
Wire Wire Line
	-4550 6300 -1900 6300
Wire Wire Line
	-3000 6300 -3000 5950
Connection ~ -4150 6300
Wire Wire Line
	-2300 5750 -2600 5750
Wire Wire Line
	-2200 5950 -2600 5950
Wire Wire Line
	-2100 6150 -2600 6150
Connection ~ -2300 5750
Connection ~ -2200 5950
Connection ~ -2100 6150
Wire Wire Line
	-3350 -6900 -3350 5750
Wire Wire Line
	-3250 -6900 -3250 5950
Wire Wire Line
	-3150 -6900 -3150 6150
Wire Wire Line
	-2300 -6900 -2300 5750
Wire Wire Line
	-2200 -6900 -2200 5950
Wire Wire Line
	-2100 -6900 -2100 6150
Wire Wire Line
	-6550 -6300 -6250 -6300
Wire Wire Line
	-6550 -6200 -6250 -6200
Wire Wire Line
	-6550 -6100 -6250 -6100
Wire Wire Line
	-6550 -6000 -6250 -6000
Wire Wire Line
	-6550 -5900 -6250 -5900
Wire Wire Line
	-6550 -5800 -6250 -5800
Wire Wire Line
	-6550 -5700 -6250 -5700
Wire Wire Line
	-6550 -5600 -6250 -5600
Wire Wire Line
	-6550 -5500 -6250 -5500
Wire Wire Line
	-6550 -5400 -6250 -5400
Wire Wire Line
	-6550 -5300 -6250 -5300
Wire Wire Line
	-6550 -5200 -6250 -5200
Wire Wire Line
	-6550 -5100 -6250 -5100
Wire Wire Line
	-6550 -5000 -6250 -5000
Wire Wire Line
	-6550 -4900 -6250 -4900
Wire Wire Line
	-6550 -4800 -6250 -4800
Wire Wire Line
	-6550 -4600 -6250 -4600
Wire Wire Line
	-6550 -4500 -6250 -4500
Wire Wire Line
	-6550 -4400 -6250 -4400
Wire Wire Line
	-6550 -4300 -6250 -4300
Wire Wire Line
	1950 -4050 1950 -3950
Wire Wire Line
	1700 -3950 6350 -3950
Wire Wire Line
	2350 -3950 2350 -4050
Connection ~ 1950 -3950
Wire Wire Line
	2750 -3950 2750 -4050
Connection ~ 2350 -3950
Wire Wire Line
	3150 -3950 3150 -4050
Connection ~ 2750 -3950
Wire Wire Line
	3550 -3950 3550 -4050
Connection ~ 3150 -3950
Wire Wire Line
	3950 -3950 3950 -4050
Connection ~ 3550 -3950
Wire Wire Line
	4350 -3950 4350 -4050
Connection ~ 3950 -3950
Wire Wire Line
	4750 -3950 4750 -4050
Connection ~ 4350 -3950
Wire Wire Line
	5150 -3950 5150 -4050
Connection ~ 4750 -3950
Wire Wire Line
	5550 -3950 5550 -4050
Connection ~ 5150 -3950
Wire Wire Line
	5950 -3950 5950 -4050
Connection ~ 5550 -3950
Wire Wire Line
	6350 -3950 6350 -4050
Connection ~ 5950 -3950
Wire Wire Line
	1400 -3950 1250 -3950
Wire Wire Line
	1950 -3750 1950 -3650
Wire Wire Line
	1700 -3650 6350 -3650
Wire Wire Line
	2350 -3650 2350 -3750
Connection ~ 1950 -3650
Wire Wire Line
	2750 -3650 2750 -3750
Connection ~ 2350 -3650
Wire Wire Line
	3150 -3650 3150 -3750
Connection ~ 2750 -3650
Wire Wire Line
	3550 -3650 3550 -3750
Connection ~ 3150 -3650
Wire Wire Line
	3950 -3650 3950 -3750
Connection ~ 3550 -3650
Wire Wire Line
	4350 -3650 4350 -3750
Connection ~ 3950 -3650
Wire Wire Line
	4750 -3650 4750 -3750
Connection ~ 4350 -3650
Wire Wire Line
	5150 -3650 5150 -3750
Connection ~ 4750 -3650
Wire Wire Line
	5550 -3650 5550 -3750
Connection ~ 5150 -3650
Wire Wire Line
	5950 -3650 5950 -3750
Connection ~ 5550 -3650
Wire Wire Line
	6350 -3650 6350 -3750
Connection ~ 5950 -3650
Wire Wire Line
	1400 -3650 1250 -3650
Wire Wire Line
	1950 -3450 1950 -3350
Wire Wire Line
	1700 -3350 6350 -3350
Wire Wire Line
	2350 -3350 2350 -3450
Connection ~ 1950 -3350
Wire Wire Line
	2750 -3350 2750 -3450
Connection ~ 2350 -3350
Wire Wire Line
	3150 -3350 3150 -3450
Connection ~ 2750 -3350
Wire Wire Line
	3550 -3350 3550 -3450
Connection ~ 3150 -3350
Wire Wire Line
	3950 -3350 3950 -3450
Connection ~ 3550 -3350
Wire Wire Line
	4350 -3350 4350 -3450
Connection ~ 3950 -3350
Wire Wire Line
	4750 -3350 4750 -3450
Connection ~ 4350 -3350
Wire Wire Line
	5150 -3350 5150 -3450
Connection ~ 4750 -3350
Wire Wire Line
	5550 -3350 5550 -3450
Connection ~ 5150 -3350
Wire Wire Line
	5950 -3350 5950 -3450
Connection ~ 5550 -3350
Wire Wire Line
	6350 -3350 6350 -3450
Connection ~ 5950 -3350
Wire Wire Line
	1400 -3350 1250 -3350
Wire Wire Line
	2250 -4350 2250 -3450
Connection ~ 2250 -3750
Connection ~ 2250 -4050
Wire Wire Line
	2650 -4350 2650 -3450
Connection ~ 2650 -4050
Connection ~ 2650 -3750
Wire Wire Line
	3050 -4350 3050 -3450
Connection ~ 3050 -4050
Connection ~ 3050 -3750
Wire Wire Line
	3450 -4350 3450 -3450
Connection ~ 3450 -3750
Connection ~ 3450 -4050
Wire Wire Line
	3850 -4350 3850 -3450
Connection ~ 3850 -4050
Connection ~ 3850 -3750
Wire Wire Line
	4250 -4350 4250 -3450
Connection ~ 4250 -4050
Connection ~ 4250 -3750
Wire Wire Line
	4650 -4350 4650 -3450
Connection ~ 4650 -4050
Connection ~ 4650 -3750
Wire Wire Line
	5050 -4350 5050 -3450
Connection ~ 5050 -4050
Connection ~ 5050 -3750
Wire Wire Line
	5450 -4350 5450 -3450
Connection ~ 5450 -4050
Connection ~ 5450 -3750
Wire Wire Line
	5850 -4350 5850 -3450
Connection ~ 5850 -4050
Connection ~ 5850 -3750
Wire Wire Line
	6250 -4350 6250 -3450
Connection ~ 6250 -4050
Connection ~ 6250 -3750
Wire Wire Line
	6650 -4350 6650 -3450
Connection ~ 6650 -3750
Connection ~ 6650 -4050
Connection ~ -3000 -5700
Connection ~ -3000 -4900
Connection ~ -3000 -4100
Connection ~ -3000 -3300
Connection ~ -3000 -2500
Connection ~ -3000 -1700
Connection ~ -3000 -900
Connection ~ -3000 -100
Connection ~ -3000 700 
Connection ~ -3000 1500
Connection ~ -3000 2300
Connection ~ -3000 3100
Connection ~ -3000 3900
Connection ~ -3000 4700
Connection ~ -3000 5500
Connection ~ -3000 6300
$Comp
L LED LED35
U 1 1 5AC16A5E
P -1750 -4100
F 0 "LED35" H -1800 -4050 60  0000 R CNN
F 1 "LED" H -1700 -4050 60  0000 L CNN
F 2 "chordboard-footprints:LED_1.8mm" H -1750 -4100 60  0001 C CNN
F 3 "" H -1750 -4100 60  0001 C CNN
	1    -1750 -4100
	1    0    0    -1  
$EndComp
$Comp
L LED LED36
U 1 1 5AC16A65
P -1750 -3300
F 0 "LED36" H -1800 -3250 60  0000 R CNN
F 1 "LED" H -1700 -3250 60  0000 L CNN
F 2 "chordboard-footprints:LED_1.8mm" H -1750 -3300 60  0001 C CNN
F 3 "" H -1750 -3300 60  0001 C CNN
	1    -1750 -3300
	1    0    0    -1  
$EndComp
$Comp
L LED LED37
U 1 1 5AC16E65
P -1750 -2500
F 0 "LED37" H -1800 -2450 60  0000 R CNN
F 1 "LED" H -1700 -2450 60  0000 L CNN
F 2 "chordboard-footprints:LED_1.8mm" H -1750 -2500 60  0001 C CNN
F 3 "" H -1750 -2500 60  0001 C CNN
	1    -1750 -2500
	1    0    0    -1  
$EndComp
$Comp
L LED LED38
U 1 1 5AC16E6C
P -1750 -1700
F 0 "LED38" H -1800 -1650 60  0000 R CNN
F 1 "LED" H -1700 -1650 60  0000 L CNN
F 2 "chordboard-footprints:LED_1.8mm" H -1750 -1700 60  0001 C CNN
F 3 "" H -1750 -1700 60  0001 C CNN
	1    -1750 -1700
	1    0    0    -1  
$EndComp
$Comp
L LED LED39
U 1 1 5AC16E73
P -1750 -900
F 0 "LED39" H -1800 -850 60  0000 R CNN
F 1 "LED" H -1700 -850 60  0000 L CNN
F 2 "chordboard-footprints:LED_1.8mm" H -1750 -900 60  0001 C CNN
F 3 "" H -1750 -900 60  0001 C CNN
	1    -1750 -900
	1    0    0    -1  
$EndComp
$Comp
L LED LED40
U 1 1 5AC16E7A
P -1750 -100
F 0 "LED40" H -1800 -50 60  0000 R CNN
F 1 "LED" H -1700 -50 60  0000 L CNN
F 2 "chordboard-footprints:LED_1.8mm" H -1750 -100 60  0001 C CNN
F 3 "" H -1750 -100 60  0001 C CNN
	1    -1750 -100
	1    0    0    -1  
$EndComp
$Comp
L LED LED41
U 1 1 5AC179DA
P -1750 700
F 0 "LED41" H -1800 750 60  0000 R CNN
F 1 "LED" H -1700 750 60  0000 L CNN
F 2 "chordboard-footprints:LED_1.8mm" H -1750 700 60  0001 C CNN
F 3 "" H -1750 700 60  0001 C CNN
	1    -1750 700 
	1    0    0    -1  
$EndComp
$Comp
L LED LED42
U 1 1 5AC179E0
P -1750 1500
F 0 "LED42" H -1800 1550 60  0000 R CNN
F 1 "LED" H -1700 1550 60  0000 L CNN
F 2 "chordboard-footprints:LED_1.8mm" H -1750 1500 60  0001 C CNN
F 3 "" H -1750 1500 60  0001 C CNN
	1    -1750 1500
	1    0    0    -1  
$EndComp
$Comp
L LED LED43
U 1 1 5AC179E6
P -1750 2300
F 0 "LED43" H -1800 2350 60  0000 R CNN
F 1 "LED" H -1700 2350 60  0000 L CNN
F 2 "chordboard-footprints:LED_1.8mm" H -1750 2300 60  0001 C CNN
F 3 "" H -1750 2300 60  0001 C CNN
	1    -1750 2300
	1    0    0    -1  
$EndComp
$Comp
L LED LED44
U 1 1 5AC179EC
P -1750 3100
F 0 "LED44" H -1800 3150 60  0000 R CNN
F 1 "LED" H -1700 3150 60  0000 L CNN
F 2 "chordboard-footprints:LED_1.8mm" H -1750 3100 60  0001 C CNN
F 3 "" H -1750 3100 60  0001 C CNN
	1    -1750 3100
	1    0    0    -1  
$EndComp
$Comp
L LED LED45
U 1 1 5AC179F2
P -1750 3900
F 0 "LED45" H -1800 3950 60  0000 R CNN
F 1 "LED" H -1700 3950 60  0000 L CNN
F 2 "chordboard-footprints:LED_1.8mm" H -1750 3900 60  0001 C CNN
F 3 "" H -1750 3900 60  0001 C CNN
	1    -1750 3900
	1    0    0    -1  
$EndComp
$Comp
L LED LED46
U 1 1 5AC179F8
P -1750 4700
F 0 "LED46" H -1800 4750 60  0000 R CNN
F 1 "LED" H -1700 4750 60  0000 L CNN
F 2 "chordboard-footprints:LED_1.8mm" H -1750 4700 60  0001 C CNN
F 3 "" H -1750 4700 60  0001 C CNN
	1    -1750 4700
	1    0    0    -1  
$EndComp
$Comp
L LED LED47
U 1 1 5AC179FE
P -1750 5500
F 0 "LED47" H -1800 5550 60  0000 R CNN
F 1 "LED" H -1700 5550 60  0000 L CNN
F 2 "chordboard-footprints:LED_1.8mm" H -1750 5500 60  0001 C CNN
F 3 "" H -1750 5500 60  0001 C CNN
	1    -1750 5500
	1    0    0    -1  
$EndComp
$Comp
L LED LED48
U 1 1 5AC17A04
P -1750 6300
F 0 "LED48" H -1800 6350 60  0000 R CNN
F 1 "LED" H -1700 6350 60  0000 L CNN
F 2 "chordboard-footprints:LED_1.8mm" H -1750 6300 60  0001 C CNN
F 3 "" H -1750 6300 60  0001 C CNN
	1    -1750 6300
	1    0    0    -1  
$EndComp
Wire Wire Line
	-1600 -6900 -1600 6300
Text Label -1600 -6900 1    60   ~ 0
C6
Connection ~ -1600 -5700
Connection ~ -1600 -4900
Connection ~ -1600 -4100
Connection ~ -1600 -3300
Connection ~ -1600 -2500
Connection ~ -1600 -1700
Connection ~ -1600 -900
Connection ~ -1600 -100
Connection ~ -1600 700 
Connection ~ -1600 1500
Connection ~ -1600 2300
Connection ~ -1600 3100
Connection ~ -1600 3900
Connection ~ -1600 4700
Connection ~ -1600 5500
$Comp
L C C7
U 1 1 5AC2899F
P -8500 -6250
F 0 "C7" H -8490 -6180 50  0000 L CNN
F 1 "0.1uF" H -8490 -6330 50  0000 L CNN
F 2 "chordboard-footprints:C_0805_HandSoldering" H -8500 -6250 50  0001 C CNN
F 3 "" H -8500 -6250 50  0001 C CNN
	1    -8500 -6250
	1    0    0    -1  
$EndComp
Wire Wire Line
	-7850 -6350 -8500 -6350
Connection ~ -7850 -6350
Wire Wire Line
	-8500 -6150 -8500 -6050
$Comp
L GND #PWR6
U 1 1 5AC2A211
P -8500 -6050
F 0 "#PWR6" H -8500 -6300 50  0001 C CNN
F 1 "GND" H -8500 -6200 50  0000 C CNN
F 2 "" H -8500 -6050 50  0001 C CNN
F 3 "" H -8500 -6050 50  0001 C CNN
	1    -8500 -6050
	-1   0    0    -1  
$EndComp
$EndSCHEMATC
