EESchema Schematic File Version 2
LIBS:chordboard-rescue
LIBS:maxim
LIBS:chordboard-components
LIBS:power
LIBS:device
LIBS:transistors
LIBS:conn
LIBS:linear
LIBS:regul
LIBS:74xx
LIBS:cmos4000
LIBS:adc-dac
LIBS:memory
LIBS:xilinx
LIBS:microcontrollers
LIBS:dsp
LIBS:microchip
LIBS:analog_switches
LIBS:motorola
LIBS:texas
LIBS:intel
LIBS:audio
LIBS:interface
LIBS:digital-audio
LIBS:philips
LIBS:display
LIBS:cypress
LIBS:siliconi
LIBS:opto
LIBS:atmel
LIBS:contrib
LIBS:valves
LIBS:switches
LIBS:mechanical
LIBS:chordboard-cache
EELAYER 25 0
EELAYER END
$Descr A4 11693 8268
encoding utf-8
Sheet 2 2
Title ""
Date ""
Rev ""
Comp ""
Comment1 ""
Comment2 ""
Comment3 ""
Comment4 ""
$EndDescr
$Comp
L LED_ARGB LED1
U 1 1 5AA832F3
P 2800 -5100
F 0 "LED1" H 2800 -4730 50  0000 C CNN
F 1 "LED_ARGB" H 2800 -5450 50  0000 C CNN
F 2 "chordboard-footprints:LED_D3.0mm-4" H 2800 -5150 50  0001 C CNN
F 3 "" H 2800 -5150 50  0001 C CNN
	1    2800 -5100
	-1   0    0    1   
$EndComp
Wire Wire Line
	3000 -5300 3050 -5300
Wire Wire Line
	3000 -5100 3050 -5100
Wire Wire Line
	3000 -4900 3050 -4900
$Comp
L R R1
U 1 1 5AA832FD
P 3150 -5300
F 0 "R1" V 3200 -5200 50  0000 L CNN
F 1 "R" V 3150 -5350 50  0000 L CNN
F 2 "Resistors_SMD:R_0805_HandSoldering" H 3150 -5300 50  0001 C CNN
F 3 "" H 3150 -5300 50  0001 C CNN
	1    3150 -5300
	0    1    1    0   
$EndComp
$Comp
L R R3
U 1 1 5AA83304
P 3150 -5100
F 0 "R3" V 3200 -5000 50  0000 L CNN
F 1 "R" V 3150 -5150 50  0000 L CNN
F 2 "Resistors_SMD:R_0805_HandSoldering" H 3150 -5100 50  0001 C CNN
F 3 "" H 3150 -5100 50  0001 C CNN
	1    3150 -5100
	0    1    1    0   
$EndComp
$Comp
L R R5
U 1 1 5AA8330B
P 3150 -4900
F 0 "R5" V 3200 -4800 50  0000 L CNN
F 1 "R" V 3150 -4950 50  0000 L CNN
F 2 "Resistors_SMD:R_0805_HandSoldering" H 3150 -4900 50  0001 C CNN
F 3 "" H 3150 -4900 50  0001 C CNN
	1    3150 -4900
	0    1    1    0   
$EndComp
Wire Wire Line
	3250 -5300 3300 -5300
Wire Wire Line
	3300 -5950 3300 -750
Wire Wire Line
	3250 -5100 3400 -5100
Wire Wire Line
	3400 -5750 3400 -550
Wire Wire Line
	3250 -4900 3500 -4900
Wire Wire Line
	3500 -5550 3500 -350
Wire Wire Line
	2600 -5100 2500 -5100
Wire Wire Line
	2500 -5100 2500 -4750
Connection ~ 3300 -5950
Connection ~ 3400 -5750
Connection ~ 3500 -5550
$Comp
L LED_ARGB LED2
U 1 1 5AA8331D
P 3850 -5100
F 0 "LED2" H 3850 -4730 50  0000 C CNN
F 1 "LED_ARGB" H 3850 -5450 50  0000 C CNN
F 2 "chordboard-footprints:LED_D3.0mm-4" H 3850 -5150 50  0001 C CNN
F 3 "" H 3850 -5150 50  0001 C CNN
	1    3850 -5100
	-1   0    0    1   
$EndComp
Wire Wire Line
	4050 -5300 4100 -5300
Wire Wire Line
	4050 -5100 4100 -5100
Wire Wire Line
	4050 -4900 4100 -4900
$Comp
L R R2
U 1 1 5AA83327
P 4200 -5300
F 0 "R2" V 4250 -5200 50  0000 L CNN
F 1 "R" V 4200 -5350 50  0000 L CNN
F 2 "Resistors_SMD:R_0805_HandSoldering" H 4200 -5300 50  0001 C CNN
F 3 "" H 4200 -5300 50  0001 C CNN
	1    4200 -5300
	0    1    1    0   
$EndComp
$Comp
L R R4
U 1 1 5AA8332E
P 4200 -5100
F 0 "R4" V 4250 -5000 50  0000 L CNN
F 1 "R" V 4200 -5150 50  0000 L CNN
F 2 "Resistors_SMD:R_0805_HandSoldering" H 4200 -5100 50  0001 C CNN
F 3 "" H 4200 -5100 50  0001 C CNN
	1    4200 -5100
	0    1    1    0   
$EndComp
$Comp
L R R6
U 1 1 5AA83335
P 4200 -4900
F 0 "R6" V 4250 -4800 50  0000 L CNN
F 1 "R" V 4200 -4950 50  0000 L CNN
F 2 "Resistors_SMD:R_0805_HandSoldering" H 4200 -4900 50  0001 C CNN
F 3 "" H 4200 -4900 50  0001 C CNN
	1    4200 -4900
	0    1    1    0   
$EndComp
Wire Wire Line
	4300 -5300 4350 -5300
Wire Wire Line
	4350 -5950 4350 -750
Wire Wire Line
	4300 -5100 4450 -5100
Wire Wire Line
	4450 -5750 4450 -550
Wire Wire Line
	4300 -4900 4550 -4900
Wire Wire Line
	4550 -5550 4550 -350
Wire Wire Line
	3650 -5100 3550 -5100
Wire Wire Line
	3550 -5100 3550 -4750
Connection ~ 4350 -5950
Connection ~ 4450 -5750
Connection ~ 4550 -5550
Wire Wire Line
	3550 -4750 2350 -4750
Connection ~ 2500 -4750
$Comp
L LED_ARGB LED3
U 1 1 5AA83349
P 2800 -4450
F 0 "LED3" H 2800 -4080 50  0000 C CNN
F 1 "LED_ARGB" H 2800 -4800 50  0000 C CNN
F 2 "chordboard-footprints:LED_D3.0mm-4" H 2800 -4500 50  0001 C CNN
F 3 "" H 2800 -4500 50  0001 C CNN
	1    2800 -4450
	-1   0    0    1   
$EndComp
Wire Wire Line
	3000 -4650 3050 -4650
Wire Wire Line
	3000 -4450 3050 -4450
Wire Wire Line
	3000 -4250 3050 -4250
$Comp
L R R7
U 1 1 5AA83353
P 3150 -4650
F 0 "R7" V 3200 -4550 50  0000 L CNN
F 1 "R" V 3150 -4700 50  0000 L CNN
F 2 "Resistors_SMD:R_0805_HandSoldering" H 3150 -4650 50  0001 C CNN
F 3 "" H 3150 -4650 50  0001 C CNN
	1    3150 -4650
	0    1    1    0   
$EndComp
$Comp
L R R9
U 1 1 5AA8335A
P 3150 -4450
F 0 "R9" V 3200 -4350 50  0000 L CNN
F 1 "R" V 3150 -4500 50  0000 L CNN
F 2 "Resistors_SMD:R_0805_HandSoldering" H 3150 -4450 50  0001 C CNN
F 3 "" H 3150 -4450 50  0001 C CNN
	1    3150 -4450
	0    1    1    0   
$EndComp
$Comp
L R R11
U 1 1 5AA83361
P 3150 -4250
F 0 "R11" V 3200 -4150 50  0000 L CNN
F 1 "R" V 3150 -4300 50  0000 L CNN
F 2 "Resistors_SMD:R_0805_HandSoldering" H 3150 -4250 50  0001 C CNN
F 3 "" H 3150 -4250 50  0001 C CNN
	1    3150 -4250
	0    1    1    0   
$EndComp
Wire Wire Line
	3300 -4650 3250 -4650
Wire Wire Line
	3400 -4450 3250 -4450
Wire Wire Line
	3500 -4250 3250 -4250
Wire Wire Line
	2600 -4450 2500 -4450
Wire Wire Line
	2500 -4450 2500 -4100
Connection ~ 3300 -5300
Connection ~ 3400 -5100
Connection ~ 3500 -4900
$Comp
L LED_ARGB LED4
U 1 1 5AA83370
P 3850 -4450
F 0 "LED4" H 3850 -4080 50  0000 C CNN
F 1 "LED_ARGB" H 3850 -4800 50  0000 C CNN
F 2 "chordboard-footprints:LED_D3.0mm-4" H 3850 -4500 50  0001 C CNN
F 3 "" H 3850 -4500 50  0001 C CNN
	1    3850 -4450
	-1   0    0    1   
$EndComp
Wire Wire Line
	4050 -4650 4100 -4650
Wire Wire Line
	4050 -4450 4100 -4450
Wire Wire Line
	4050 -4250 4100 -4250
$Comp
L R R8
U 1 1 5AA8337A
P 4200 -4650
F 0 "R8" V 4250 -4550 50  0000 L CNN
F 1 "R" V 4200 -4700 50  0000 L CNN
F 2 "Resistors_SMD:R_0805_HandSoldering" H 4200 -4650 50  0001 C CNN
F 3 "" H 4200 -4650 50  0001 C CNN
	1    4200 -4650
	0    1    1    0   
$EndComp
$Comp
L R R10
U 1 1 5AA83381
P 4200 -4450
F 0 "R10" V 4250 -4350 50  0000 L CNN
F 1 "R" V 4200 -4500 50  0000 L CNN
F 2 "Resistors_SMD:R_0805_HandSoldering" H 4200 -4450 50  0001 C CNN
F 3 "" H 4200 -4450 50  0001 C CNN
	1    4200 -4450
	0    1    1    0   
$EndComp
$Comp
L R R12
U 1 1 5AA83388
P 4200 -4250
F 0 "R12" V 4250 -4150 50  0000 L CNN
F 1 "R" V 4200 -4300 50  0000 L CNN
F 2 "Resistors_SMD:R_0805_HandSoldering" H 4200 -4250 50  0001 C CNN
F 3 "" H 4200 -4250 50  0001 C CNN
	1    4200 -4250
	0    1    1    0   
$EndComp
Wire Wire Line
	4350 -4650 4300 -4650
Wire Wire Line
	4450 -4450 4300 -4450
Wire Wire Line
	4550 -4250 4300 -4250
Wire Wire Line
	3650 -4450 3550 -4450
Wire Wire Line
	3550 -4450 3550 -4100
Connection ~ 4350 -5300
Connection ~ 4450 -5100
Connection ~ 4550 -4900
Wire Wire Line
	3550 -4100 2350 -4100
Connection ~ 2500 -4100
$Comp
L LED_ARGB LED5
U 1 1 5AA83399
P 2800 -3800
F 0 "LED5" H 2800 -3430 50  0000 C CNN
F 1 "LED_ARGB" H 2800 -4150 50  0000 C CNN
F 2 "chordboard-footprints:LED_D3.0mm-4" H 2800 -3850 50  0001 C CNN
F 3 "" H 2800 -3850 50  0001 C CNN
	1    2800 -3800
	-1   0    0    1   
$EndComp
Wire Wire Line
	3000 -4000 3050 -4000
Wire Wire Line
	3000 -3800 3050 -3800
Wire Wire Line
	3000 -3600 3050 -3600
$Comp
L R R13
U 1 1 5AA833A3
P 3150 -4000
F 0 "R13" V 3200 -3900 50  0000 L CNN
F 1 "R" V 3150 -4050 50  0000 L CNN
F 2 "Resistors_SMD:R_0805_HandSoldering" H 3150 -4000 50  0001 C CNN
F 3 "" H 3150 -4000 50  0001 C CNN
	1    3150 -4000
	0    1    1    0   
$EndComp
$Comp
L R R15
U 1 1 5AA833AA
P 3150 -3800
F 0 "R15" V 3200 -3700 50  0000 L CNN
F 1 "R" V 3150 -3850 50  0000 L CNN
F 2 "Resistors_SMD:R_0805_HandSoldering" H 3150 -3800 50  0001 C CNN
F 3 "" H 3150 -3800 50  0001 C CNN
	1    3150 -3800
	0    1    1    0   
$EndComp
$Comp
L R R17
U 1 1 5AA833B1
P 3150 -3600
F 0 "R17" V 3200 -3500 50  0000 L CNN
F 1 "R" V 3150 -3650 50  0000 L CNN
F 2 "Resistors_SMD:R_0805_HandSoldering" H 3150 -3600 50  0001 C CNN
F 3 "" H 3150 -3600 50  0001 C CNN
	1    3150 -3600
	0    1    1    0   
$EndComp
Wire Wire Line
	3300 -4000 3250 -4000
Wire Wire Line
	3400 -3800 3250 -3800
Wire Wire Line
	3500 -3600 3250 -3600
Wire Wire Line
	2600 -3800 2500 -3800
Wire Wire Line
	2500 -3800 2500 -3450
Connection ~ 3300 -4650
Connection ~ 3400 -4450
Connection ~ 3500 -4250
$Comp
L LED_ARGB LED6
U 1 1 5AA833C0
P 3850 -3800
F 0 "LED6" H 3850 -3430 50  0000 C CNN
F 1 "LED_ARGB" H 3850 -4150 50  0000 C CNN
F 2 "chordboard-footprints:LED_D3.0mm-4" H 3850 -3850 50  0001 C CNN
F 3 "" H 3850 -3850 50  0001 C CNN
	1    3850 -3800
	-1   0    0    1   
$EndComp
Wire Wire Line
	4050 -4000 4100 -4000
Wire Wire Line
	4050 -3800 4100 -3800
Wire Wire Line
	4050 -3600 4100 -3600
$Comp
L R R14
U 1 1 5AA833CA
P 4200 -4000
F 0 "R14" V 4250 -3900 50  0000 L CNN
F 1 "R" V 4200 -4050 50  0000 L CNN
F 2 "Resistors_SMD:R_0805_HandSoldering" H 4200 -4000 50  0001 C CNN
F 3 "" H 4200 -4000 50  0001 C CNN
	1    4200 -4000
	0    1    1    0   
$EndComp
$Comp
L R R16
U 1 1 5AA833D1
P 4200 -3800
F 0 "R16" V 4250 -3700 50  0000 L CNN
F 1 "R" V 4200 -3850 50  0000 L CNN
F 2 "Resistors_SMD:R_0805_HandSoldering" H 4200 -3800 50  0001 C CNN
F 3 "" H 4200 -3800 50  0001 C CNN
	1    4200 -3800
	0    1    1    0   
$EndComp
$Comp
L R R18
U 1 1 5AA833D8
P 4200 -3600
F 0 "R18" V 4250 -3500 50  0000 L CNN
F 1 "R" V 4200 -3650 50  0000 L CNN
F 2 "Resistors_SMD:R_0805_HandSoldering" H 4200 -3600 50  0001 C CNN
F 3 "" H 4200 -3600 50  0001 C CNN
	1    4200 -3600
	0    1    1    0   
$EndComp
Wire Wire Line
	4350 -4000 4300 -4000
Wire Wire Line
	4450 -3800 4300 -3800
Wire Wire Line
	4550 -3600 4300 -3600
Wire Wire Line
	3650 -3800 3550 -3800
Wire Wire Line
	3550 -3800 3550 -3450
Connection ~ 4350 -4650
Connection ~ 4450 -4450
Connection ~ 4550 -4250
Wire Wire Line
	3550 -3450 2350 -3450
Connection ~ 2500 -3450
$Comp
L LED_ARGB LED7
U 1 1 5AA833E9
P 2800 -3150
F 0 "LED7" H 2800 -2780 50  0000 C CNN
F 1 "LED_ARGB" H 2800 -3500 50  0000 C CNN
F 2 "chordboard-footprints:LED_D3.0mm-4" H 2800 -3200 50  0001 C CNN
F 3 "" H 2800 -3200 50  0001 C CNN
	1    2800 -3150
	-1   0    0    1   
$EndComp
Wire Wire Line
	3000 -3350 3050 -3350
Wire Wire Line
	3000 -3150 3050 -3150
Wire Wire Line
	3000 -2950 3050 -2950
$Comp
L R R19
U 1 1 5AA833F3
P 3150 -3350
F 0 "R19" V 3200 -3250 50  0000 L CNN
F 1 "R" V 3150 -3400 50  0000 L CNN
F 2 "Resistors_SMD:R_0805_HandSoldering" H 3150 -3350 50  0001 C CNN
F 3 "" H 3150 -3350 50  0001 C CNN
	1    3150 -3350
	0    1    1    0   
$EndComp
$Comp
L R R21
U 1 1 5AA833FA
P 3150 -3150
F 0 "R21" V 3200 -3050 50  0000 L CNN
F 1 "R" V 3150 -3200 50  0000 L CNN
F 2 "Resistors_SMD:R_0805_HandSoldering" H 3150 -3150 50  0001 C CNN
F 3 "" H 3150 -3150 50  0001 C CNN
	1    3150 -3150
	0    1    1    0   
$EndComp
$Comp
L R R23
U 1 1 5AA83401
P 3150 -2950
F 0 "R23" V 3200 -2850 50  0000 L CNN
F 1 "R" V 3150 -3000 50  0000 L CNN
F 2 "Resistors_SMD:R_0805_HandSoldering" H 3150 -2950 50  0001 C CNN
F 3 "" H 3150 -2950 50  0001 C CNN
	1    3150 -2950
	0    1    1    0   
$EndComp
Wire Wire Line
	3300 -3350 3250 -3350
Wire Wire Line
	3400 -3150 3250 -3150
Wire Wire Line
	3500 -2950 3250 -2950
Wire Wire Line
	2600 -3150 2500 -3150
Wire Wire Line
	2500 -3150 2500 -2800
Connection ~ 3300 -4000
Connection ~ 3400 -3800
Connection ~ 3500 -3600
$Comp
L LED_ARGB LED8
U 1 1 5AA83410
P 3850 -3150
F 0 "LED8" H 3850 -2780 50  0000 C CNN
F 1 "LED_ARGB" H 3850 -3500 50  0000 C CNN
F 2 "chordboard-footprints:LED_D3.0mm-4" H 3850 -3200 50  0001 C CNN
F 3 "" H 3850 -3200 50  0001 C CNN
	1    3850 -3150
	-1   0    0    1   
$EndComp
Wire Wire Line
	4050 -3350 4100 -3350
Wire Wire Line
	4050 -3150 4100 -3150
Wire Wire Line
	4050 -2950 4100 -2950
$Comp
L R R20
U 1 1 5AA8341A
P 4200 -3350
F 0 "R20" V 4250 -3250 50  0000 L CNN
F 1 "R" V 4200 -3400 50  0000 L CNN
F 2 "Resistors_SMD:R_0805_HandSoldering" H 4200 -3350 50  0001 C CNN
F 3 "" H 4200 -3350 50  0001 C CNN
	1    4200 -3350
	0    1    1    0   
$EndComp
$Comp
L R R22
U 1 1 5AA83421
P 4200 -3150
F 0 "R22" V 4250 -3050 50  0000 L CNN
F 1 "R" V 4200 -3200 50  0000 L CNN
F 2 "Resistors_SMD:R_0805_HandSoldering" H 4200 -3150 50  0001 C CNN
F 3 "" H 4200 -3150 50  0001 C CNN
	1    4200 -3150
	0    1    1    0   
$EndComp
$Comp
L R R24
U 1 1 5AA83428
P 4200 -2950
F 0 "R24" V 4250 -2850 50  0000 L CNN
F 1 "R" V 4200 -3000 50  0000 L CNN
F 2 "Resistors_SMD:R_0805_HandSoldering" H 4200 -2950 50  0001 C CNN
F 3 "" H 4200 -2950 50  0001 C CNN
	1    4200 -2950
	0    1    1    0   
$EndComp
Wire Wire Line
	4350 -3350 4300 -3350
Wire Wire Line
	4450 -3150 4300 -3150
Wire Wire Line
	4550 -2950 4300 -2950
Wire Wire Line
	3650 -3150 3550 -3150
Wire Wire Line
	3550 -3150 3550 -2800
Connection ~ 4350 -4000
Connection ~ 4450 -3800
Connection ~ 4550 -3600
Wire Wire Line
	3550 -2800 2350 -2800
Connection ~ 2500 -2800
$Comp
L LED_ARGB LED9
U 1 1 5AA83439
P 2800 -2500
F 0 "LED9" H 2800 -2130 50  0000 C CNN
F 1 "LED_ARGB" H 2800 -2850 50  0000 C CNN
F 2 "chordboard-footprints:LED_D3.0mm-4" H 2800 -2550 50  0001 C CNN
F 3 "" H 2800 -2550 50  0001 C CNN
	1    2800 -2500
	-1   0    0    1   
$EndComp
Wire Wire Line
	3000 -2700 3050 -2700
Wire Wire Line
	3000 -2500 3050 -2500
Wire Wire Line
	3000 -2300 3050 -2300
$Comp
L R R25
U 1 1 5AA83443
P 3150 -2700
F 0 "R25" V 3200 -2600 50  0000 L CNN
F 1 "R" V 3150 -2750 50  0000 L CNN
F 2 "Resistors_SMD:R_0805_HandSoldering" H 3150 -2700 50  0001 C CNN
F 3 "" H 3150 -2700 50  0001 C CNN
	1    3150 -2700
	0    1    1    0   
$EndComp
$Comp
L R R27
U 1 1 5AA8344A
P 3150 -2500
F 0 "R27" V 3200 -2400 50  0000 L CNN
F 1 "R" V 3150 -2550 50  0000 L CNN
F 2 "Resistors_SMD:R_0805_HandSoldering" H 3150 -2500 50  0001 C CNN
F 3 "" H 3150 -2500 50  0001 C CNN
	1    3150 -2500
	0    1    1    0   
$EndComp
$Comp
L R R29
U 1 1 5AA83451
P 3150 -2300
F 0 "R29" V 3200 -2200 50  0000 L CNN
F 1 "R" V 3150 -2350 50  0000 L CNN
F 2 "Resistors_SMD:R_0805_HandSoldering" H 3150 -2300 50  0001 C CNN
F 3 "" H 3150 -2300 50  0001 C CNN
	1    3150 -2300
	0    1    1    0   
$EndComp
Wire Wire Line
	3300 -2700 3250 -2700
Wire Wire Line
	3400 -2500 3250 -2500
Wire Wire Line
	3500 -2300 3250 -2300
Wire Wire Line
	2600 -2500 2500 -2500
Wire Wire Line
	2500 -2500 2500 -2150
Connection ~ 3300 -3350
Connection ~ 3400 -3150
Connection ~ 3500 -2950
$Comp
L LED_ARGB LED10
U 1 1 5AA83460
P 3850 -2500
F 0 "LED10" H 3850 -2130 50  0000 C CNN
F 1 "LED_ARGB" H 3850 -2850 50  0000 C CNN
F 2 "chordboard-footprints:LED_D3.0mm-4" H 3850 -2550 50  0001 C CNN
F 3 "" H 3850 -2550 50  0001 C CNN
	1    3850 -2500
	-1   0    0    1   
$EndComp
Wire Wire Line
	4050 -2700 4100 -2700
Wire Wire Line
	4050 -2500 4100 -2500
Wire Wire Line
	4050 -2300 4100 -2300
$Comp
L R R26
U 1 1 5AA8346A
P 4200 -2700
F 0 "R26" V 4250 -2600 50  0000 L CNN
F 1 "R" V 4200 -2750 50  0000 L CNN
F 2 "Resistors_SMD:R_0805_HandSoldering" H 4200 -2700 50  0001 C CNN
F 3 "" H 4200 -2700 50  0001 C CNN
	1    4200 -2700
	0    1    1    0   
$EndComp
$Comp
L R R28
U 1 1 5AA83471
P 4200 -2500
F 0 "R28" V 4250 -2400 50  0000 L CNN
F 1 "R" V 4200 -2550 50  0000 L CNN
F 2 "Resistors_SMD:R_0805_HandSoldering" H 4200 -2500 50  0001 C CNN
F 3 "" H 4200 -2500 50  0001 C CNN
	1    4200 -2500
	0    1    1    0   
$EndComp
$Comp
L R R30
U 1 1 5AA83478
P 4200 -2300
F 0 "R30" V 4250 -2200 50  0000 L CNN
F 1 "R" V 4200 -2350 50  0000 L CNN
F 2 "Resistors_SMD:R_0805_HandSoldering" H 4200 -2300 50  0001 C CNN
F 3 "" H 4200 -2300 50  0001 C CNN
	1    4200 -2300
	0    1    1    0   
$EndComp
Wire Wire Line
	4350 -2700 4300 -2700
Wire Wire Line
	4450 -2500 4300 -2500
Wire Wire Line
	4550 -2300 4300 -2300
Wire Wire Line
	3650 -2500 3550 -2500
Wire Wire Line
	3550 -2500 3550 -2150
Connection ~ 4350 -3350
Connection ~ 4450 -3150
Connection ~ 4550 -2950
Wire Wire Line
	3550 -2150 2350 -2150
Connection ~ 2500 -2150
$Comp
L LED_ARGB LED11
U 1 1 5AA83489
P 2800 -1850
F 0 "LED11" H 2800 -1480 50  0000 C CNN
F 1 "LED_ARGB" H 2800 -2200 50  0000 C CNN
F 2 "chordboard-footprints:LED_D3.0mm-4" H 2800 -1900 50  0001 C CNN
F 3 "" H 2800 -1900 50  0001 C CNN
	1    2800 -1850
	-1   0    0    1   
$EndComp
Wire Wire Line
	3000 -2050 3050 -2050
Wire Wire Line
	3000 -1850 3050 -1850
Wire Wire Line
	3000 -1650 3050 -1650
$Comp
L R R31
U 1 1 5AA83493
P 3150 -2050
F 0 "R31" V 3200 -1950 50  0000 L CNN
F 1 "R" V 3150 -2100 50  0000 L CNN
F 2 "Resistors_SMD:R_0805_HandSoldering" H 3150 -2050 50  0001 C CNN
F 3 "" H 3150 -2050 50  0001 C CNN
	1    3150 -2050
	0    1    1    0   
$EndComp
$Comp
L R R33
U 1 1 5AA8349A
P 3150 -1850
F 0 "R33" V 3200 -1750 50  0000 L CNN
F 1 "R" V 3150 -1900 50  0000 L CNN
F 2 "Resistors_SMD:R_0805_HandSoldering" H 3150 -1850 50  0001 C CNN
F 3 "" H 3150 -1850 50  0001 C CNN
	1    3150 -1850
	0    1    1    0   
$EndComp
$Comp
L R R35
U 1 1 5AA834A1
P 3150 -1650
F 0 "R35" V 3200 -1550 50  0000 L CNN
F 1 "R" V 3150 -1700 50  0000 L CNN
F 2 "Resistors_SMD:R_0805_HandSoldering" H 3150 -1650 50  0001 C CNN
F 3 "" H 3150 -1650 50  0001 C CNN
	1    3150 -1650
	0    1    1    0   
$EndComp
Wire Wire Line
	3300 -2050 3250 -2050
Wire Wire Line
	3400 -1850 3250 -1850
Wire Wire Line
	3500 -1650 3250 -1650
Wire Wire Line
	2600 -1850 2500 -1850
Wire Wire Line
	2500 -1850 2500 -1500
Connection ~ 3300 -2700
Connection ~ 3400 -2500
Connection ~ 3500 -2300
$Comp
L LED_ARGB LED12
U 1 1 5AA834B0
P 3850 -1850
F 0 "LED12" H 3850 -1480 50  0000 C CNN
F 1 "LED_ARGB" H 3850 -2200 50  0000 C CNN
F 2 "chordboard-footprints:LED_D3.0mm-4" H 3850 -1900 50  0001 C CNN
F 3 "" H 3850 -1900 50  0001 C CNN
	1    3850 -1850
	-1   0    0    1   
$EndComp
Wire Wire Line
	4050 -2050 4100 -2050
Wire Wire Line
	4050 -1850 4100 -1850
Wire Wire Line
	4050 -1650 4100 -1650
$Comp
L R R32
U 1 1 5AA834BA
P 4200 -2050
F 0 "R32" V 4250 -1950 50  0000 L CNN
F 1 "R" V 4200 -2100 50  0000 L CNN
F 2 "Resistors_SMD:R_0805_HandSoldering" H 4200 -2050 50  0001 C CNN
F 3 "" H 4200 -2050 50  0001 C CNN
	1    4200 -2050
	0    1    1    0   
$EndComp
$Comp
L R R34
U 1 1 5AA834C1
P 4200 -1850
F 0 "R34" V 4250 -1750 50  0000 L CNN
F 1 "R" V 4200 -1900 50  0000 L CNN
F 2 "Resistors_SMD:R_0805_HandSoldering" H 4200 -1850 50  0001 C CNN
F 3 "" H 4200 -1850 50  0001 C CNN
	1    4200 -1850
	0    1    1    0   
$EndComp
$Comp
L R R36
U 1 1 5AA834C8
P 4200 -1650
F 0 "R36" V 4250 -1550 50  0000 L CNN
F 1 "R" V 4200 -1700 50  0000 L CNN
F 2 "Resistors_SMD:R_0805_HandSoldering" H 4200 -1650 50  0001 C CNN
F 3 "" H 4200 -1650 50  0001 C CNN
	1    4200 -1650
	0    1    1    0   
$EndComp
Wire Wire Line
	4350 -2050 4300 -2050
Wire Wire Line
	4450 -1850 4300 -1850
Wire Wire Line
	4550 -1650 4300 -1650
Wire Wire Line
	3650 -1850 3550 -1850
Wire Wire Line
	3550 -1850 3550 -1500
Connection ~ 4350 -2700
Connection ~ 4450 -2500
Connection ~ 4550 -2300
Wire Wire Line
	3550 -1500 2350 -1500
Connection ~ 2500 -1500
$Comp
L LED_ARGB LED13
U 1 1 5AA834D9
P 2800 -1200
F 0 "LED13" H 2800 -830 50  0000 C CNN
F 1 "LED_ARGB" H 2800 -1550 50  0000 C CNN
F 2 "chordboard-footprints:LED_D3.0mm-4" H 2800 -1250 50  0001 C CNN
F 3 "" H 2800 -1250 50  0001 C CNN
	1    2800 -1200
	-1   0    0    1   
$EndComp
Wire Wire Line
	3000 -1400 3050 -1400
Wire Wire Line
	3000 -1200 3050 -1200
Wire Wire Line
	3000 -1000 3050 -1000
$Comp
L R R37
U 1 1 5AA834E3
P 3150 -1400
F 0 "R37" V 3200 -1300 50  0000 L CNN
F 1 "R" V 3150 -1450 50  0000 L CNN
F 2 "Resistors_SMD:R_0805_HandSoldering" H 3150 -1400 50  0001 C CNN
F 3 "" H 3150 -1400 50  0001 C CNN
	1    3150 -1400
	0    1    1    0   
$EndComp
$Comp
L R R39
U 1 1 5AA834EA
P 3150 -1200
F 0 "R39" V 3200 -1100 50  0000 L CNN
F 1 "R" V 3150 -1250 50  0000 L CNN
F 2 "Resistors_SMD:R_0805_HandSoldering" H 3150 -1200 50  0001 C CNN
F 3 "" H 3150 -1200 50  0001 C CNN
	1    3150 -1200
	0    1    1    0   
$EndComp
$Comp
L R R41
U 1 1 5AA834F1
P 3150 -1000
F 0 "R41" V 3200 -900 50  0000 L CNN
F 1 "R" V 3150 -1050 50  0000 L CNN
F 2 "Resistors_SMD:R_0805_HandSoldering" H 3150 -1000 50  0001 C CNN
F 3 "" H 3150 -1000 50  0001 C CNN
	1    3150 -1000
	0    1    1    0   
$EndComp
Wire Wire Line
	3300 -1400 3250 -1400
Wire Wire Line
	3400 -1200 3250 -1200
Wire Wire Line
	3500 -1000 3250 -1000
Wire Wire Line
	2600 -1200 2500 -1200
Wire Wire Line
	2500 -1200 2500 -850
Connection ~ 3300 -2050
Connection ~ 3400 -1850
Connection ~ 3500 -1650
$Comp
L LED_ARGB LED14
U 1 1 5AA83500
P 3850 -1200
F 0 "LED14" H 3850 -830 50  0000 C CNN
F 1 "LED_ARGB" H 3850 -1550 50  0000 C CNN
F 2 "chordboard-footprints:LED_D3.0mm-4" H 3850 -1250 50  0001 C CNN
F 3 "" H 3850 -1250 50  0001 C CNN
	1    3850 -1200
	-1   0    0    1   
$EndComp
Wire Wire Line
	4050 -1400 4100 -1400
Wire Wire Line
	4050 -1200 4100 -1200
Wire Wire Line
	4050 -1000 4100 -1000
$Comp
L R R38
U 1 1 5AA8350A
P 4200 -1400
F 0 "R38" V 4250 -1300 50  0000 L CNN
F 1 "R" V 4200 -1450 50  0000 L CNN
F 2 "Resistors_SMD:R_0805_HandSoldering" H 4200 -1400 50  0001 C CNN
F 3 "" H 4200 -1400 50  0001 C CNN
	1    4200 -1400
	0    1    1    0   
$EndComp
$Comp
L R R40
U 1 1 5AA83511
P 4200 -1200
F 0 "R40" V 4250 -1100 50  0000 L CNN
F 1 "R" V 4200 -1250 50  0000 L CNN
F 2 "Resistors_SMD:R_0805_HandSoldering" H 4200 -1200 50  0001 C CNN
F 3 "" H 4200 -1200 50  0001 C CNN
	1    4200 -1200
	0    1    1    0   
$EndComp
$Comp
L R R42
U 1 1 5AA83518
P 4200 -1000
F 0 "R42" V 4250 -900 50  0000 L CNN
F 1 "R" V 4200 -1050 50  0000 L CNN
F 2 "Resistors_SMD:R_0805_HandSoldering" H 4200 -1000 50  0001 C CNN
F 3 "" H 4200 -1000 50  0001 C CNN
	1    4200 -1000
	0    1    1    0   
$EndComp
Wire Wire Line
	4350 -1400 4300 -1400
Wire Wire Line
	4450 -1200 4300 -1200
Wire Wire Line
	4550 -1000 4300 -1000
Wire Wire Line
	3650 -1200 3550 -1200
Wire Wire Line
	3550 -1200 3550 -850
Connection ~ 4350 -2050
Connection ~ 4450 -1850
Connection ~ 4550 -1650
Wire Wire Line
	3550 -850 2350 -850
Connection ~ 2500 -850
$Comp
L LED_ARGB LED15
U 1 1 5AA83529
P 2800 -550
F 0 "LED15" H 2800 -180 50  0000 C CNN
F 1 "LED_ARGB" H 2800 -900 50  0000 C CNN
F 2 "chordboard-footprints:LED_D3.0mm-4" H 2800 -600 50  0001 C CNN
F 3 "" H 2800 -600 50  0001 C CNN
	1    2800 -550
	-1   0    0    1   
$EndComp
Wire Wire Line
	3000 -750 3050 -750
Wire Wire Line
	3000 -550 3050 -550
Wire Wire Line
	3000 -350 3050 -350
$Comp
L R R43
U 1 1 5AA83533
P 3150 -750
F 0 "R43" V 3200 -650 50  0000 L CNN
F 1 "R" V 3150 -800 50  0000 L CNN
F 2 "Resistors_SMD:R_0805_HandSoldering" H 3150 -750 50  0001 C CNN
F 3 "" H 3150 -750 50  0001 C CNN
	1    3150 -750
	0    1    1    0   
$EndComp
$Comp
L R R45
U 1 1 5AA8353A
P 3150 -550
F 0 "R45" V 3200 -450 50  0000 L CNN
F 1 "R" V 3150 -600 50  0000 L CNN
F 2 "Resistors_SMD:R_0805_HandSoldering" H 3150 -550 50  0001 C CNN
F 3 "" H 3150 -550 50  0001 C CNN
	1    3150 -550
	0    1    1    0   
$EndComp
$Comp
L R R47
U 1 1 5AA83541
P 3150 -350
F 0 "R47" V 3200 -250 50  0000 L CNN
F 1 "R" V 3150 -400 50  0000 L CNN
F 2 "Resistors_SMD:R_0805_HandSoldering" H 3150 -350 50  0001 C CNN
F 3 "" H 3150 -350 50  0001 C CNN
	1    3150 -350
	0    1    1    0   
$EndComp
Wire Wire Line
	3300 -750 3250 -750
Wire Wire Line
	3400 -550 3250 -550
Wire Wire Line
	3500 -350 3250 -350
Wire Wire Line
	2600 -550 2500 -550
Wire Wire Line
	2500 -550 2500 -200
Connection ~ 3300 -1400
Connection ~ 3400 -1200
Connection ~ 3500 -1000
$Comp
L LED_ARGB LED16
U 1 1 5AA83550
P 3850 -550
F 0 "LED16" H 3850 -180 50  0000 C CNN
F 1 "LED_ARGB" H 3850 -900 50  0000 C CNN
F 2 "chordboard-footprints:LED_D3.0mm-4" H 3850 -600 50  0001 C CNN
F 3 "" H 3850 -600 50  0001 C CNN
	1    3850 -550
	-1   0    0    1   
$EndComp
Wire Wire Line
	4050 -750 4100 -750
Wire Wire Line
	4050 -550 4100 -550
Wire Wire Line
	4050 -350 4100 -350
$Comp
L R R44
U 1 1 5AA8355A
P 4200 -750
F 0 "R44" V 4250 -650 50  0000 L CNN
F 1 "R" V 4200 -800 50  0000 L CNN
F 2 "Resistors_SMD:R_0805_HandSoldering" H 4200 -750 50  0001 C CNN
F 3 "" H 4200 -750 50  0001 C CNN
	1    4200 -750
	0    1    1    0   
$EndComp
$Comp
L R R46
U 1 1 5AA83561
P 4200 -550
F 0 "R46" V 4250 -450 50  0000 L CNN
F 1 "R" V 4200 -600 50  0000 L CNN
F 2 "Resistors_SMD:R_0805_HandSoldering" H 4200 -550 50  0001 C CNN
F 3 "" H 4200 -550 50  0001 C CNN
	1    4200 -550
	0    1    1    0   
$EndComp
$Comp
L R R48
U 1 1 5AA83568
P 4200 -350
F 0 "R48" V 4250 -250 50  0000 L CNN
F 1 "R" V 4200 -400 50  0000 L CNN
F 2 "Resistors_SMD:R_0805_HandSoldering" H 4200 -350 50  0001 C CNN
F 3 "" H 4200 -350 50  0001 C CNN
	1    4200 -350
	0    1    1    0   
$EndComp
Wire Wire Line
	4350 -750 4300 -750
Wire Wire Line
	4450 -550 4300 -550
Wire Wire Line
	4550 -350 4300 -350
Wire Wire Line
	3650 -550 3550 -550
Wire Wire Line
	3550 -550 3550 -200
Connection ~ 4350 -1400
Connection ~ 4450 -1200
Connection ~ 4550 -1000
Wire Wire Line
	3550 -200 2350 -200
Connection ~ 2500 -200
$Comp
L LED_ARGB LED17
U 1 1 5AA83579
P 5450 1000
F 0 "LED17" H 5450 1370 50  0000 C CNN
F 1 "LED_ARGB" H 5450 650 50  0000 C CNN
F 2 "chordboard-footprints:LED_D3.0mm-4" H 5450 950 50  0001 C CNN
F 3 "" H 5450 950 50  0001 C CNN
	1    5450 1000
	-1   0    0    1   
$EndComp
Wire Wire Line
	5650 800  5700 800 
Wire Wire Line
	5650 1000 5700 1000
Wire Wire Line
	5650 1200 5700 1200
$Comp
L R R49
U 1 1 5AA83583
P 5800 800
F 0 "R49" V 5850 900 50  0000 L CNN
F 1 "R" V 5800 750 50  0000 L CNN
F 2 "Resistors_SMD:R_0805_HandSoldering" H 5800 800 50  0001 C CNN
F 3 "" H 5800 800 50  0001 C CNN
	1    5800 800 
	0    1    1    0   
$EndComp
$Comp
L R R51
U 1 1 5AA8358A
P 5800 1000
F 0 "R51" V 5850 1100 50  0000 L CNN
F 1 "R" V 5800 950 50  0000 L CNN
F 2 "Resistors_SMD:R_0805_HandSoldering" H 5800 1000 50  0001 C CNN
F 3 "" H 5800 1000 50  0001 C CNN
	1    5800 1000
	0    1    1    0   
$EndComp
$Comp
L R R53
U 1 1 5AA83591
P 5800 1200
F 0 "R53" V 5850 1300 50  0000 L CNN
F 1 "R" V 5800 1150 50  0000 L CNN
F 2 "Resistors_SMD:R_0805_HandSoldering" H 5800 1200 50  0001 C CNN
F 3 "" H 5800 1200 50  0001 C CNN
	1    5800 1200
	0    1    1    0   
$EndComp
Wire Wire Line
	5900 800  5950 800 
Wire Wire Line
	5950 150  5950 5350
Wire Wire Line
	5900 1000 6050 1000
Wire Wire Line
	6050 350  6050 5550
Wire Wire Line
	5900 1200 6150 1200
Wire Wire Line
	6150 550  6150 5750
Wire Wire Line
	5250 1000 5150 1000
Wire Wire Line
	5150 1000 5150 1350
Connection ~ 5950 150 
Connection ~ 6050 350 
Connection ~ 6150 550 
$Comp
L LED_ARGB LED18
U 1 1 5AA835A3
P 6500 1000
F 0 "LED18" H 6500 1370 50  0000 C CNN
F 1 "LED_ARGB" H 6500 650 50  0000 C CNN
F 2 "chordboard-footprints:LED_D3.0mm-4" H 6500 950 50  0001 C CNN
F 3 "" H 6500 950 50  0001 C CNN
	1    6500 1000
	-1   0    0    1   
$EndComp
Wire Wire Line
	6700 800  6750 800 
Wire Wire Line
	6700 1000 6750 1000
Wire Wire Line
	6700 1200 6750 1200
$Comp
L R R50
U 1 1 5AA835AD
P 6850 800
F 0 "R50" V 6900 900 50  0000 L CNN
F 1 "R" V 6850 750 50  0000 L CNN
F 2 "Resistors_SMD:R_0805_HandSoldering" H 6850 800 50  0001 C CNN
F 3 "" H 6850 800 50  0001 C CNN
	1    6850 800 
	0    1    1    0   
$EndComp
$Comp
L R R52
U 1 1 5AA835B4
P 6850 1000
F 0 "R52" V 6900 1100 50  0000 L CNN
F 1 "R" V 6850 950 50  0000 L CNN
F 2 "Resistors_SMD:R_0805_HandSoldering" H 6850 1000 50  0001 C CNN
F 3 "" H 6850 1000 50  0001 C CNN
	1    6850 1000
	0    1    1    0   
$EndComp
$Comp
L R R54
U 1 1 5AA835BB
P 6850 1200
F 0 "R54" V 6900 1300 50  0000 L CNN
F 1 "R" V 6850 1150 50  0000 L CNN
F 2 "Resistors_SMD:R_0805_HandSoldering" H 6850 1200 50  0001 C CNN
F 3 "" H 6850 1200 50  0001 C CNN
	1    6850 1200
	0    1    1    0   
$EndComp
Wire Wire Line
	6950 800  7000 800 
Wire Wire Line
	7000 150  7000 5350
Wire Wire Line
	6950 1000 7100 1000
Wire Wire Line
	7100 350  7100 5550
Wire Wire Line
	6950 1200 7200 1200
Wire Wire Line
	7200 550  7200 5750
Wire Wire Line
	6300 1000 6200 1000
Wire Wire Line
	6200 1000 6200 1350
Connection ~ 7000 150 
Connection ~ 7100 350 
Connection ~ 7200 550 
Wire Wire Line
	6200 1350 5000 1350
Connection ~ 5150 1350
$Comp
L LED_ARGB LED19
U 1 1 5AA835CF
P 5450 1650
F 0 "LED19" H 5450 2020 50  0000 C CNN
F 1 "LED_ARGB" H 5450 1300 50  0000 C CNN
F 2 "chordboard-footprints:LED_D3.0mm-4" H 5450 1600 50  0001 C CNN
F 3 "" H 5450 1600 50  0001 C CNN
	1    5450 1650
	-1   0    0    1   
$EndComp
Wire Wire Line
	5650 1450 5700 1450
Wire Wire Line
	5650 1650 5700 1650
Wire Wire Line
	5650 1850 5700 1850
$Comp
L R R55
U 1 1 5AA835D9
P 5800 1450
F 0 "R55" V 5850 1550 50  0000 L CNN
F 1 "R" V 5800 1400 50  0000 L CNN
F 2 "Resistors_SMD:R_0805_HandSoldering" H 5800 1450 50  0001 C CNN
F 3 "" H 5800 1450 50  0001 C CNN
	1    5800 1450
	0    1    1    0   
$EndComp
$Comp
L R R57
U 1 1 5AA835E0
P 5800 1650
F 0 "R57" V 5850 1750 50  0000 L CNN
F 1 "R" V 5800 1600 50  0000 L CNN
F 2 "Resistors_SMD:R_0805_HandSoldering" H 5800 1650 50  0001 C CNN
F 3 "" H 5800 1650 50  0001 C CNN
	1    5800 1650
	0    1    1    0   
$EndComp
$Comp
L R R59
U 1 1 5AA835E7
P 5800 1850
F 0 "R59" V 5850 1950 50  0000 L CNN
F 1 "R" V 5800 1800 50  0000 L CNN
F 2 "Resistors_SMD:R_0805_HandSoldering" H 5800 1850 50  0001 C CNN
F 3 "" H 5800 1850 50  0001 C CNN
	1    5800 1850
	0    1    1    0   
$EndComp
Wire Wire Line
	5950 1450 5900 1450
Wire Wire Line
	6050 1650 5900 1650
Wire Wire Line
	6150 1850 5900 1850
Wire Wire Line
	5250 1650 5150 1650
Wire Wire Line
	5150 1650 5150 2000
Connection ~ 5950 800 
Connection ~ 6050 1000
Connection ~ 6150 1200
$Comp
L LED_ARGB LED20
U 1 1 5AA835F6
P 6500 1650
F 0 "LED20" H 6500 2020 50  0000 C CNN
F 1 "LED_ARGB" H 6500 1300 50  0000 C CNN
F 2 "chordboard-footprints:LED_D3.0mm-4" H 6500 1600 50  0001 C CNN
F 3 "" H 6500 1600 50  0001 C CNN
	1    6500 1650
	-1   0    0    1   
$EndComp
Wire Wire Line
	6700 1450 6750 1450
Wire Wire Line
	6700 1650 6750 1650
Wire Wire Line
	6700 1850 6750 1850
$Comp
L R R56
U 1 1 5AA83600
P 6850 1450
F 0 "R56" V 6900 1550 50  0000 L CNN
F 1 "R" V 6850 1400 50  0000 L CNN
F 2 "Resistors_SMD:R_0805_HandSoldering" H 6850 1450 50  0001 C CNN
F 3 "" H 6850 1450 50  0001 C CNN
	1    6850 1450
	0    1    1    0   
$EndComp
$Comp
L R R58
U 1 1 5AA83607
P 6850 1650
F 0 "R58" V 6900 1750 50  0000 L CNN
F 1 "R" V 6850 1600 50  0000 L CNN
F 2 "Resistors_SMD:R_0805_HandSoldering" H 6850 1650 50  0001 C CNN
F 3 "" H 6850 1650 50  0001 C CNN
	1    6850 1650
	0    1    1    0   
$EndComp
$Comp
L R R60
U 1 1 5AA8360E
P 6850 1850
F 0 "R60" V 6900 1950 50  0000 L CNN
F 1 "R" V 6850 1800 50  0000 L CNN
F 2 "Resistors_SMD:R_0805_HandSoldering" H 6850 1850 50  0001 C CNN
F 3 "" H 6850 1850 50  0001 C CNN
	1    6850 1850
	0    1    1    0   
$EndComp
Wire Wire Line
	7000 1450 6950 1450
Wire Wire Line
	7100 1650 6950 1650
Wire Wire Line
	7200 1850 6950 1850
Wire Wire Line
	6300 1650 6200 1650
Wire Wire Line
	6200 1650 6200 2000
Connection ~ 7000 800 
Connection ~ 7100 1000
Connection ~ 7200 1200
Wire Wire Line
	6200 2000 5000 2000
Connection ~ 5150 2000
$Comp
L LED_ARGB LED21
U 1 1 5AA8361F
P 5450 2300
F 0 "LED21" H 5450 2670 50  0000 C CNN
F 1 "LED_ARGB" H 5450 1950 50  0000 C CNN
F 2 "chordboard-footprints:LED_D3.0mm-4" H 5450 2250 50  0001 C CNN
F 3 "" H 5450 2250 50  0001 C CNN
	1    5450 2300
	-1   0    0    1   
$EndComp
Wire Wire Line
	5650 2100 5700 2100
Wire Wire Line
	5650 2300 5700 2300
Wire Wire Line
	5650 2500 5700 2500
$Comp
L R R61
U 1 1 5AA83629
P 5800 2100
F 0 "R61" V 5850 2200 50  0000 L CNN
F 1 "R" V 5800 2050 50  0000 L CNN
F 2 "Resistors_SMD:R_0805_HandSoldering" H 5800 2100 50  0001 C CNN
F 3 "" H 5800 2100 50  0001 C CNN
	1    5800 2100
	0    1    1    0   
$EndComp
$Comp
L R R63
U 1 1 5AA83630
P 5800 2300
F 0 "R63" V 5850 2400 50  0000 L CNN
F 1 "R" V 5800 2250 50  0000 L CNN
F 2 "Resistors_SMD:R_0805_HandSoldering" H 5800 2300 50  0001 C CNN
F 3 "" H 5800 2300 50  0001 C CNN
	1    5800 2300
	0    1    1    0   
$EndComp
$Comp
L R R65
U 1 1 5AA83637
P 5800 2500
F 0 "R65" V 5850 2600 50  0000 L CNN
F 1 "R" V 5800 2450 50  0000 L CNN
F 2 "Resistors_SMD:R_0805_HandSoldering" H 5800 2500 50  0001 C CNN
F 3 "" H 5800 2500 50  0001 C CNN
	1    5800 2500
	0    1    1    0   
$EndComp
Wire Wire Line
	5950 2100 5900 2100
Wire Wire Line
	6050 2300 5900 2300
Wire Wire Line
	6150 2500 5900 2500
Wire Wire Line
	5250 2300 5150 2300
Wire Wire Line
	5150 2300 5150 2650
Connection ~ 5950 1450
Connection ~ 6050 1650
Connection ~ 6150 1850
$Comp
L LED_ARGB LED22
U 1 1 5AA83646
P 6500 2300
F 0 "LED22" H 6500 2670 50  0000 C CNN
F 1 "LED_ARGB" H 6500 1950 50  0000 C CNN
F 2 "chordboard-footprints:LED_D3.0mm-4" H 6500 2250 50  0001 C CNN
F 3 "" H 6500 2250 50  0001 C CNN
	1    6500 2300
	-1   0    0    1   
$EndComp
Wire Wire Line
	6700 2100 6750 2100
Wire Wire Line
	6700 2300 6750 2300
Wire Wire Line
	6700 2500 6750 2500
$Comp
L R R62
U 1 1 5AA83650
P 6850 2100
F 0 "R62" V 6900 2200 50  0000 L CNN
F 1 "R" V 6850 2050 50  0000 L CNN
F 2 "Resistors_SMD:R_0805_HandSoldering" H 6850 2100 50  0001 C CNN
F 3 "" H 6850 2100 50  0001 C CNN
	1    6850 2100
	0    1    1    0   
$EndComp
$Comp
L R R64
U 1 1 5AA83657
P 6850 2300
F 0 "R64" V 6900 2400 50  0000 L CNN
F 1 "R" V 6850 2250 50  0000 L CNN
F 2 "Resistors_SMD:R_0805_HandSoldering" H 6850 2300 50  0001 C CNN
F 3 "" H 6850 2300 50  0001 C CNN
	1    6850 2300
	0    1    1    0   
$EndComp
$Comp
L R R66
U 1 1 5AA8365E
P 6850 2500
F 0 "R66" V 6900 2600 50  0000 L CNN
F 1 "R" V 6850 2450 50  0000 L CNN
F 2 "Resistors_SMD:R_0805_HandSoldering" H 6850 2500 50  0001 C CNN
F 3 "" H 6850 2500 50  0001 C CNN
	1    6850 2500
	0    1    1    0   
$EndComp
Wire Wire Line
	7000 2100 6950 2100
Wire Wire Line
	7100 2300 6950 2300
Wire Wire Line
	7200 2500 6950 2500
Wire Wire Line
	6300 2300 6200 2300
Wire Wire Line
	6200 2300 6200 2650
Connection ~ 7000 1450
Connection ~ 7100 1650
Connection ~ 7200 1850
Wire Wire Line
	6200 2650 5000 2650
Connection ~ 5150 2650
$Comp
L LED_ARGB LED23
U 1 1 5AA8366F
P 5450 2950
F 0 "LED23" H 5450 3320 50  0000 C CNN
F 1 "LED_ARGB" H 5450 2600 50  0000 C CNN
F 2 "chordboard-footprints:LED_D3.0mm-4" H 5450 2900 50  0001 C CNN
F 3 "" H 5450 2900 50  0001 C CNN
	1    5450 2950
	-1   0    0    1   
$EndComp
Wire Wire Line
	5650 2750 5700 2750
Wire Wire Line
	5650 2950 5700 2950
Wire Wire Line
	5650 3150 5700 3150
$Comp
L R R67
U 1 1 5AA83679
P 5800 2750
F 0 "R67" V 5850 2850 50  0000 L CNN
F 1 "R" V 5800 2700 50  0000 L CNN
F 2 "Resistors_SMD:R_0805_HandSoldering" H 5800 2750 50  0001 C CNN
F 3 "" H 5800 2750 50  0001 C CNN
	1    5800 2750
	0    1    1    0   
$EndComp
$Comp
L R R69
U 1 1 5AA83680
P 5800 2950
F 0 "R69" V 5850 3050 50  0000 L CNN
F 1 "R" V 5800 2900 50  0000 L CNN
F 2 "Resistors_SMD:R_0805_HandSoldering" H 5800 2950 50  0001 C CNN
F 3 "" H 5800 2950 50  0001 C CNN
	1    5800 2950
	0    1    1    0   
$EndComp
$Comp
L R R71
U 1 1 5AA83687
P 5800 3150
F 0 "R71" V 5850 3250 50  0000 L CNN
F 1 "R" V 5800 3100 50  0000 L CNN
F 2 "Resistors_SMD:R_0805_HandSoldering" H 5800 3150 50  0001 C CNN
F 3 "" H 5800 3150 50  0001 C CNN
	1    5800 3150
	0    1    1    0   
$EndComp
Wire Wire Line
	5950 2750 5900 2750
Wire Wire Line
	6050 2950 5900 2950
Wire Wire Line
	6150 3150 5900 3150
Wire Wire Line
	5250 2950 5150 2950
Wire Wire Line
	5150 2950 5150 3300
Connection ~ 5950 2100
Connection ~ 6050 2300
Connection ~ 6150 2500
$Comp
L LED_ARGB LED24
U 1 1 5AA83696
P 6500 2950
F 0 "LED24" H 6500 3320 50  0000 C CNN
F 1 "LED_ARGB" H 6500 2600 50  0000 C CNN
F 2 "chordboard-footprints:LED_D3.0mm-4" H 6500 2900 50  0001 C CNN
F 3 "" H 6500 2900 50  0001 C CNN
	1    6500 2950
	-1   0    0    1   
$EndComp
Wire Wire Line
	6700 2750 6750 2750
Wire Wire Line
	6700 2950 6750 2950
Wire Wire Line
	6700 3150 6750 3150
$Comp
L R R68
U 1 1 5AA836A0
P 6850 2750
F 0 "R68" V 6900 2850 50  0000 L CNN
F 1 "R" V 6850 2700 50  0000 L CNN
F 2 "Resistors_SMD:R_0805_HandSoldering" H 6850 2750 50  0001 C CNN
F 3 "" H 6850 2750 50  0001 C CNN
	1    6850 2750
	0    1    1    0   
$EndComp
$Comp
L R R70
U 1 1 5AA836A7
P 6850 2950
F 0 "R70" V 6900 3050 50  0000 L CNN
F 1 "R" V 6850 2900 50  0000 L CNN
F 2 "Resistors_SMD:R_0805_HandSoldering" H 6850 2950 50  0001 C CNN
F 3 "" H 6850 2950 50  0001 C CNN
	1    6850 2950
	0    1    1    0   
$EndComp
$Comp
L R R72
U 1 1 5AA836AE
P 6850 3150
F 0 "R72" V 6900 3250 50  0000 L CNN
F 1 "R" V 6850 3100 50  0000 L CNN
F 2 "Resistors_SMD:R_0805_HandSoldering" H 6850 3150 50  0001 C CNN
F 3 "" H 6850 3150 50  0001 C CNN
	1    6850 3150
	0    1    1    0   
$EndComp
Wire Wire Line
	7000 2750 6950 2750
Wire Wire Line
	7100 2950 6950 2950
Wire Wire Line
	7200 3150 6950 3150
Wire Wire Line
	6300 2950 6200 2950
Wire Wire Line
	6200 2950 6200 3300
Connection ~ 7000 2100
Connection ~ 7100 2300
Connection ~ 7200 2500
Wire Wire Line
	6200 3300 5000 3300
Connection ~ 5150 3300
$Comp
L LED_ARGB LED25
U 1 1 5AA836BF
P 5450 3600
F 0 "LED25" H 5450 3970 50  0000 C CNN
F 1 "LED_ARGB" H 5450 3250 50  0000 C CNN
F 2 "chordboard-footprints:LED_D3.0mm-4" H 5450 3550 50  0001 C CNN
F 3 "" H 5450 3550 50  0001 C CNN
	1    5450 3600
	-1   0    0    1   
$EndComp
Wire Wire Line
	5650 3400 5700 3400
Wire Wire Line
	5650 3600 5700 3600
Wire Wire Line
	5650 3800 5700 3800
$Comp
L R R73
U 1 1 5AA836C9
P 5800 3400
F 0 "R73" V 5850 3500 50  0000 L CNN
F 1 "R" V 5800 3350 50  0000 L CNN
F 2 "Resistors_SMD:R_0805_HandSoldering" H 5800 3400 50  0001 C CNN
F 3 "" H 5800 3400 50  0001 C CNN
	1    5800 3400
	0    1    1    0   
$EndComp
$Comp
L R R75
U 1 1 5AA836D0
P 5800 3600
F 0 "R75" V 5850 3700 50  0000 L CNN
F 1 "R" V 5800 3550 50  0000 L CNN
F 2 "Resistors_SMD:R_0805_HandSoldering" H 5800 3600 50  0001 C CNN
F 3 "" H 5800 3600 50  0001 C CNN
	1    5800 3600
	0    1    1    0   
$EndComp
$Comp
L R R77
U 1 1 5AA836D7
P 5800 3800
F 0 "R77" V 5850 3900 50  0000 L CNN
F 1 "R" V 5800 3750 50  0000 L CNN
F 2 "Resistors_SMD:R_0805_HandSoldering" H 5800 3800 50  0001 C CNN
F 3 "" H 5800 3800 50  0001 C CNN
	1    5800 3800
	0    1    1    0   
$EndComp
Wire Wire Line
	5950 3400 5900 3400
Wire Wire Line
	6050 3600 5900 3600
Wire Wire Line
	6150 3800 5900 3800
Wire Wire Line
	5250 3600 5150 3600
Wire Wire Line
	5150 3600 5150 3950
Connection ~ 5950 2750
Connection ~ 6050 2950
Connection ~ 6150 3150
$Comp
L LED_ARGB LED26
U 1 1 5AA836E6
P 6500 3600
F 0 "LED26" H 6500 3970 50  0000 C CNN
F 1 "LED_ARGB" H 6500 3250 50  0000 C CNN
F 2 "chordboard-footprints:LED_D3.0mm-4" H 6500 3550 50  0001 C CNN
F 3 "" H 6500 3550 50  0001 C CNN
	1    6500 3600
	-1   0    0    1   
$EndComp
Wire Wire Line
	6700 3400 6750 3400
Wire Wire Line
	6700 3600 6750 3600
Wire Wire Line
	6700 3800 6750 3800
$Comp
L R R74
U 1 1 5AA836F0
P 6850 3400
F 0 "R74" V 6900 3500 50  0000 L CNN
F 1 "R" V 6850 3350 50  0000 L CNN
F 2 "Resistors_SMD:R_0805_HandSoldering" H 6850 3400 50  0001 C CNN
F 3 "" H 6850 3400 50  0001 C CNN
	1    6850 3400
	0    1    1    0   
$EndComp
$Comp
L R R76
U 1 1 5AA836F7
P 6850 3600
F 0 "R76" V 6900 3700 50  0000 L CNN
F 1 "R" V 6850 3550 50  0000 L CNN
F 2 "Resistors_SMD:R_0805_HandSoldering" H 6850 3600 50  0001 C CNN
F 3 "" H 6850 3600 50  0001 C CNN
	1    6850 3600
	0    1    1    0   
$EndComp
$Comp
L R R78
U 1 1 5AA836FE
P 6850 3800
F 0 "R78" V 6900 3900 50  0000 L CNN
F 1 "R" V 6850 3750 50  0000 L CNN
F 2 "Resistors_SMD:R_0805_HandSoldering" H 6850 3800 50  0001 C CNN
F 3 "" H 6850 3800 50  0001 C CNN
	1    6850 3800
	0    1    1    0   
$EndComp
Wire Wire Line
	7000 3400 6950 3400
Wire Wire Line
	7100 3600 6950 3600
Wire Wire Line
	7200 3800 6950 3800
Wire Wire Line
	6300 3600 6200 3600
Wire Wire Line
	6200 3600 6200 3950
Connection ~ 7000 2750
Connection ~ 7100 2950
Connection ~ 7200 3150
Wire Wire Line
	6200 3950 5000 3950
Connection ~ 5150 3950
$Comp
L LED_ARGB LED27
U 1 1 5AA8370F
P 5450 4250
F 0 "LED27" H 5450 4620 50  0000 C CNN
F 1 "LED_ARGB" H 5450 3900 50  0000 C CNN
F 2 "chordboard-footprints:LED_D3.0mm-4" H 5450 4200 50  0001 C CNN
F 3 "" H 5450 4200 50  0001 C CNN
	1    5450 4250
	-1   0    0    1   
$EndComp
Wire Wire Line
	5650 4050 5700 4050
Wire Wire Line
	5650 4250 5700 4250
Wire Wire Line
	5650 4450 5700 4450
$Comp
L R R79
U 1 1 5AA83719
P 5800 4050
F 0 "R79" V 5850 4150 50  0000 L CNN
F 1 "R" V 5800 4000 50  0000 L CNN
F 2 "Resistors_SMD:R_0805_HandSoldering" H 5800 4050 50  0001 C CNN
F 3 "" H 5800 4050 50  0001 C CNN
	1    5800 4050
	0    1    1    0   
$EndComp
$Comp
L R R81
U 1 1 5AA83720
P 5800 4250
F 0 "R81" V 5850 4350 50  0000 L CNN
F 1 "R" V 5800 4200 50  0000 L CNN
F 2 "Resistors_SMD:R_0805_HandSoldering" H 5800 4250 50  0001 C CNN
F 3 "" H 5800 4250 50  0001 C CNN
	1    5800 4250
	0    1    1    0   
$EndComp
$Comp
L R R83
U 1 1 5AA83727
P 5800 4450
F 0 "R83" V 5850 4550 50  0000 L CNN
F 1 "R" V 5800 4400 50  0000 L CNN
F 2 "Resistors_SMD:R_0805_HandSoldering" H 5800 4450 50  0001 C CNN
F 3 "" H 5800 4450 50  0001 C CNN
	1    5800 4450
	0    1    1    0   
$EndComp
Wire Wire Line
	5950 4050 5900 4050
Wire Wire Line
	6050 4250 5900 4250
Wire Wire Line
	6150 4450 5900 4450
Wire Wire Line
	5250 4250 5150 4250
Wire Wire Line
	5150 4250 5150 4600
Connection ~ 5950 3400
Connection ~ 6050 3600
Connection ~ 6150 3800
$Comp
L LED_ARGB LED28
U 1 1 5AA83736
P 6500 4250
F 0 "LED28" H 6500 4620 50  0000 C CNN
F 1 "LED_ARGB" H 6500 3900 50  0000 C CNN
F 2 "chordboard-footprints:LED_D3.0mm-4" H 6500 4200 50  0001 C CNN
F 3 "" H 6500 4200 50  0001 C CNN
	1    6500 4250
	-1   0    0    1   
$EndComp
Wire Wire Line
	6700 4050 6750 4050
Wire Wire Line
	6700 4250 6750 4250
Wire Wire Line
	6700 4450 6750 4450
$Comp
L R R80
U 1 1 5AA83740
P 6850 4050
F 0 "R80" V 6900 4150 50  0000 L CNN
F 1 "R" V 6850 4000 50  0000 L CNN
F 2 "Resistors_SMD:R_0805_HandSoldering" H 6850 4050 50  0001 C CNN
F 3 "" H 6850 4050 50  0001 C CNN
	1    6850 4050
	0    1    1    0   
$EndComp
$Comp
L R R82
U 1 1 5AA83747
P 6850 4250
F 0 "R82" V 6900 4350 50  0000 L CNN
F 1 "R" V 6850 4200 50  0000 L CNN
F 2 "Resistors_SMD:R_0805_HandSoldering" H 6850 4250 50  0001 C CNN
F 3 "" H 6850 4250 50  0001 C CNN
	1    6850 4250
	0    1    1    0   
$EndComp
$Comp
L R R84
U 1 1 5AA8374E
P 6850 4450
F 0 "R84" V 6900 4550 50  0000 L CNN
F 1 "R" V 6850 4400 50  0000 L CNN
F 2 "Resistors_SMD:R_0805_HandSoldering" H 6850 4450 50  0001 C CNN
F 3 "" H 6850 4450 50  0001 C CNN
	1    6850 4450
	0    1    1    0   
$EndComp
Wire Wire Line
	7000 4050 6950 4050
Wire Wire Line
	7100 4250 6950 4250
Wire Wire Line
	7200 4450 6950 4450
Wire Wire Line
	6300 4250 6200 4250
Wire Wire Line
	6200 4250 6200 4600
Connection ~ 7000 3400
Connection ~ 7100 3600
Connection ~ 7200 3800
Wire Wire Line
	6200 4600 5000 4600
Connection ~ 5150 4600
$Comp
L LED_ARGB LED29
U 1 1 5AA8375F
P 5450 4900
F 0 "LED29" H 5450 5270 50  0000 C CNN
F 1 "LED_ARGB" H 5450 4550 50  0000 C CNN
F 2 "chordboard-footprints:LED_D3.0mm-4" H 5450 4850 50  0001 C CNN
F 3 "" H 5450 4850 50  0001 C CNN
	1    5450 4900
	-1   0    0    1   
$EndComp
Wire Wire Line
	5650 4700 5700 4700
Wire Wire Line
	5650 4900 5700 4900
Wire Wire Line
	5650 5100 5700 5100
$Comp
L R R85
U 1 1 5AA83769
P 5800 4700
F 0 "R85" V 5850 4800 50  0000 L CNN
F 1 "R" V 5800 4650 50  0000 L CNN
F 2 "Resistors_SMD:R_0805_HandSoldering" H 5800 4700 50  0001 C CNN
F 3 "" H 5800 4700 50  0001 C CNN
	1    5800 4700
	0    1    1    0   
$EndComp
$Comp
L R R87
U 1 1 5AA83770
P 5800 4900
F 0 "R87" V 5850 5000 50  0000 L CNN
F 1 "R" V 5800 4850 50  0000 L CNN
F 2 "Resistors_SMD:R_0805_HandSoldering" H 5800 4900 50  0001 C CNN
F 3 "" H 5800 4900 50  0001 C CNN
	1    5800 4900
	0    1    1    0   
$EndComp
$Comp
L R R89
U 1 1 5AA83777
P 5800 5100
F 0 "R89" V 5850 5200 50  0000 L CNN
F 1 "R" V 5800 5050 50  0000 L CNN
F 2 "Resistors_SMD:R_0805_HandSoldering" H 5800 5100 50  0001 C CNN
F 3 "" H 5800 5100 50  0001 C CNN
	1    5800 5100
	0    1    1    0   
$EndComp
Wire Wire Line
	5950 4700 5900 4700
Wire Wire Line
	6050 4900 5900 4900
Wire Wire Line
	6150 5100 5900 5100
Wire Wire Line
	5250 4900 5150 4900
Wire Wire Line
	5150 4900 5150 5250
Connection ~ 5950 4050
Connection ~ 6050 4250
Connection ~ 6150 4450
$Comp
L LED_ARGB LED30
U 1 1 5AA83786
P 6500 4900
F 0 "LED30" H 6500 5270 50  0000 C CNN
F 1 "LED_ARGB" H 6500 4550 50  0000 C CNN
F 2 "chordboard-footprints:LED_D3.0mm-4" H 6500 4850 50  0001 C CNN
F 3 "" H 6500 4850 50  0001 C CNN
	1    6500 4900
	-1   0    0    1   
$EndComp
Wire Wire Line
	6700 4700 6750 4700
Wire Wire Line
	6700 4900 6750 4900
Wire Wire Line
	6700 5100 6750 5100
$Comp
L R R86
U 1 1 5AA83790
P 6850 4700
F 0 "R86" V 6900 4800 50  0000 L CNN
F 1 "R" V 6850 4650 50  0000 L CNN
F 2 "Resistors_SMD:R_0805_HandSoldering" H 6850 4700 50  0001 C CNN
F 3 "" H 6850 4700 50  0001 C CNN
	1    6850 4700
	0    1    1    0   
$EndComp
$Comp
L R R88
U 1 1 5AA83797
P 6850 4900
F 0 "R88" V 6900 5000 50  0000 L CNN
F 1 "R" V 6850 4850 50  0000 L CNN
F 2 "Resistors_SMD:R_0805_HandSoldering" H 6850 4900 50  0001 C CNN
F 3 "" H 6850 4900 50  0001 C CNN
	1    6850 4900
	0    1    1    0   
$EndComp
$Comp
L R R90
U 1 1 5AA8379E
P 6850 5100
F 0 "R90" V 6900 5200 50  0000 L CNN
F 1 "R" V 6850 5050 50  0000 L CNN
F 2 "Resistors_SMD:R_0805_HandSoldering" H 6850 5100 50  0001 C CNN
F 3 "" H 6850 5100 50  0001 C CNN
	1    6850 5100
	0    1    1    0   
$EndComp
Wire Wire Line
	7000 4700 6950 4700
Wire Wire Line
	7100 4900 6950 4900
Wire Wire Line
	7200 5100 6950 5100
Wire Wire Line
	6300 4900 6200 4900
Wire Wire Line
	6200 4900 6200 5250
Connection ~ 7000 4050
Connection ~ 7100 4250
Connection ~ 7200 4450
Wire Wire Line
	6200 5250 5000 5250
Connection ~ 5150 5250
$Comp
L LED_ARGB LED31
U 1 1 5AA837AF
P 5450 5550
F 0 "LED31" H 5450 5920 50  0000 C CNN
F 1 "LED_ARGB" H 5450 5200 50  0000 C CNN
F 2 "chordboard-footprints:LED_D3.0mm-4" H 5450 5500 50  0001 C CNN
F 3 "" H 5450 5500 50  0001 C CNN
	1    5450 5550
	-1   0    0    1   
$EndComp
Wire Wire Line
	5650 5350 5700 5350
Wire Wire Line
	5650 5550 5700 5550
Wire Wire Line
	5650 5750 5700 5750
$Comp
L R R91
U 1 1 5AA837B9
P 5800 5350
F 0 "R91" V 5850 5450 50  0000 L CNN
F 1 "R" V 5800 5300 50  0000 L CNN
F 2 "Resistors_SMD:R_0805_HandSoldering" H 5800 5350 50  0001 C CNN
F 3 "" H 5800 5350 50  0001 C CNN
	1    5800 5350
	0    1    1    0   
$EndComp
$Comp
L R R93
U 1 1 5AA837C0
P 5800 5550
F 0 "R93" V 5850 5650 50  0000 L CNN
F 1 "R" V 5800 5500 50  0000 L CNN
F 2 "Resistors_SMD:R_0805_HandSoldering" H 5800 5550 50  0001 C CNN
F 3 "" H 5800 5550 50  0001 C CNN
	1    5800 5550
	0    1    1    0   
$EndComp
$Comp
L R R95
U 1 1 5AA837C7
P 5800 5750
F 0 "R95" V 5850 5850 50  0000 L CNN
F 1 "R" V 5800 5700 50  0000 L CNN
F 2 "Resistors_SMD:R_0805_HandSoldering" H 5800 5750 50  0001 C CNN
F 3 "" H 5800 5750 50  0001 C CNN
	1    5800 5750
	0    1    1    0   
$EndComp
Wire Wire Line
	5950 5350 5900 5350
Wire Wire Line
	6050 5550 5900 5550
Wire Wire Line
	6150 5750 5900 5750
Wire Wire Line
	5250 5550 5150 5550
Wire Wire Line
	5150 5550 5150 5900
Connection ~ 5950 4700
Connection ~ 6050 4900
Connection ~ 6150 5100
$Comp
L LED_ARGB LED32
U 1 1 5AA837D6
P 6500 5550
F 0 "LED32" H 6500 5920 50  0000 C CNN
F 1 "LED_ARGB" H 6500 5200 50  0000 C CNN
F 2 "chordboard-footprints:LED_D3.0mm-4" H 6500 5500 50  0001 C CNN
F 3 "" H 6500 5500 50  0001 C CNN
	1    6500 5550
	-1   0    0    1   
$EndComp
Wire Wire Line
	6700 5350 6750 5350
Wire Wire Line
	6700 5550 6750 5550
Wire Wire Line
	6700 5750 6750 5750
$Comp
L R R92
U 1 1 5AA837E0
P 6850 5350
F 0 "R92" V 6900 5450 50  0000 L CNN
F 1 "R" V 6850 5300 50  0000 L CNN
F 2 "Resistors_SMD:R_0805_HandSoldering" H 6850 5350 50  0001 C CNN
F 3 "" H 6850 5350 50  0001 C CNN
	1    6850 5350
	0    1    1    0   
$EndComp
$Comp
L R R94
U 1 1 5AA837E7
P 6850 5550
F 0 "R94" V 6900 5650 50  0000 L CNN
F 1 "R" V 6850 5500 50  0000 L CNN
F 2 "Resistors_SMD:R_0805_HandSoldering" H 6850 5550 50  0001 C CNN
F 3 "" H 6850 5550 50  0001 C CNN
	1    6850 5550
	0    1    1    0   
$EndComp
$Comp
L R R96
U 1 1 5AA837EE
P 6850 5750
F 0 "R96" V 6900 5850 50  0000 L CNN
F 1 "R" V 6850 5700 50  0000 L CNN
F 2 "Resistors_SMD:R_0805_HandSoldering" H 6850 5750 50  0001 C CNN
F 3 "" H 6850 5750 50  0001 C CNN
	1    6850 5750
	0    1    1    0   
$EndComp
Wire Wire Line
	7000 5350 6950 5350
Wire Wire Line
	7100 5550 6950 5550
Wire Wire Line
	7200 5750 6950 5750
Wire Wire Line
	6300 5550 6200 5550
Wire Wire Line
	6200 5550 6200 5900
Connection ~ 7000 4700
Connection ~ 7100 4900
Connection ~ 7200 5100
Wire Wire Line
	6200 5900 5000 5900
Connection ~ 5150 5900
Text Label 3300 -5950 0    60   ~ 0
Y0
Text Label 3400 -5750 0    60   ~ 0
Y1
Text Label 3500 -5550 0    60   ~ 0
Y2
Text Label 4350 -5950 0    60   ~ 0
Y3
Text Label 4450 -5750 0    60   ~ 0
Y4
Text Label 4550 -5550 0    60   ~ 0
Y5
Text Label 5950 150  0    60   ~ 0
Y20
Text Label 6050 350  0    60   ~ 0
Y21
Text Label 6150 550  0    60   ~ 0
Y22
Text Label 7000 150  0    60   ~ 0
Y23
Text Label 7100 350  0    60   ~ 0
Y24
Text Label 7200 550  0    60   ~ 0
Y25
Text Label 2350 -4750 2    60   ~ 0
X0
Text Label 2350 -4100 2    60   ~ 0
X1
Text Label 2350 -3450 2    60   ~ 0
X2
Text Label 2350 -2800 2    60   ~ 0
X3
Text Label 2350 -2150 2    60   ~ 0
X4
Text Label 2350 -1500 2    60   ~ 0
X5
Text Label 2350 -850 2    60   ~ 0
X6
Text Label 2350 -200 2    60   ~ 0
X7
Text Label 5000 1350 2    60   ~ 0
X20
Text Label 5000 2000 2    60   ~ 0
X21
Text Label 5000 2650 2    60   ~ 0
X22
Text Label 5000 3300 2    60   ~ 0
X23
Text Label 5000 3950 2    60   ~ 0
X24
Text Label 5000 4600 2    60   ~ 0
X25
Text Label 5000 5250 2    60   ~ 0
X26
Text Label 5000 5900 2    60   ~ 0
X27
$EndSCHEMATC
