EESchema Schematic File Version 2
LIBS:chordboard-rescue
LIBS:maxim
LIBS:chordboard-components
LIBS:power
LIBS:device
LIBS:transistors
LIBS:conn
LIBS:linear
LIBS:regul
LIBS:74xx
LIBS:cmos4000
LIBS:adc-dac
LIBS:memory
LIBS:xilinx
LIBS:microcontrollers
LIBS:dsp
LIBS:microchip
LIBS:analog_switches
LIBS:motorola
LIBS:texas
LIBS:intel
LIBS:audio
LIBS:interface
LIBS:digital-audio
LIBS:philips
LIBS:display
LIBS:cypress
LIBS:siliconi
LIBS:opto
LIBS:atmel
LIBS:contrib
LIBS:valves
LIBS:switches
LIBS:mechanical
LIBS:chordboard-cache
EELAYER 25 0
EELAYER END
$Descr A4 11693 8268
encoding utf-8
Sheet 2 2
Title ""
Date ""
Rev ""
Comp ""
Comment1 ""
Comment2 ""
Comment3 ""
Comment4 ""
$EndDescr
$Comp
L LED LED?
U 1 1 5A9F427C
P 2350 2800
F 0 "LED?" H 2600 2750 60  0000 R CNN
F 1 "LED" H 2400 2850 60  0000 L CNN
F 2 "chordboard-footprints:LED_1.8mm" H 2350 2800 60  0001 C CNN
F 3 "" H 2350 2800 60  0001 C CNN
	1    2350 2800
	1    0    0    -1  
$EndComp
Text Label 2100 2900 2    60   ~ 0
X0
Text Label 2100 4300 2    60   ~ 0
X7
Text Label 2100 4100 2    60   ~ 0
X6
Text Label 2100 3900 2    60   ~ 0
X5
Text Label 2100 3700 2    60   ~ 0
X4
Text Label 2100 3500 2    60   ~ 0
X3
Text Label 2100 3300 2    60   ~ 0
X2
Text Label 2100 3100 2    60   ~ 0
X1
$Comp
L LED LED?
U 1 1 5A9F428B
P 2850 2800
F 0 "LED?" H 3100 2750 60  0000 R CNN
F 1 "LED" H 2900 2850 60  0000 L CNN
F 2 "chordboard-footprints:LED_1.8mm" H 2850 2800 60  0001 C CNN
F 3 "" H 2850 2800 60  0001 C CNN
	1    2850 2800
	1    0    0    -1  
$EndComp
$Comp
L LED LED?
U 1 1 5A9F4292
P 3350 2800
F 0 "LED?" H 3600 2750 60  0000 R CNN
F 1 "LED" H 3400 2850 60  0000 L CNN
F 2 "chordboard-footprints:LED_1.8mm" H 3350 2800 60  0001 C CNN
F 3 "" H 3350 2800 60  0001 C CNN
	1    3350 2800
	1    0    0    -1  
$EndComp
$Comp
L LED LED?
U 1 1 5A9F4299
P 3850 2800
F 0 "LED?" H 4100 2750 60  0000 R CNN
F 1 "LED" H 3900 2850 60  0000 L CNN
F 2 "chordboard-footprints:LED_1.8mm" H 3850 2800 60  0001 C CNN
F 3 "" H 3850 2800 60  0001 C CNN
	1    3850 2800
	1    0    0    -1  
$EndComp
$Comp
L LED LED?
U 1 1 5A9F42A0
P 4350 2800
F 0 "LED?" H 4600 2750 60  0000 R CNN
F 1 "LED" H 4400 2850 60  0000 L CNN
F 2 "chordboard-footprints:LED_1.8mm" H 4350 2800 60  0001 C CNN
F 3 "" H 4350 2800 60  0001 C CNN
	1    4350 2800
	1    0    0    -1  
$EndComp
$Comp
L LED LED?
U 1 1 5A9F42A7
P 4850 2800
F 0 "LED?" H 5100 2750 60  0000 R CNN
F 1 "LED" H 4900 2850 60  0000 L CNN
F 2 "chordboard-footprints:LED_1.8mm" H 4850 2800 60  0001 C CNN
F 3 "" H 4850 2800 60  0001 C CNN
	1    4850 2800
	1    0    0    -1  
$EndComp
$Comp
L LED LED?
U 1 1 5A9F42AE
P 5350 2800
F 0 "LED?" H 5600 2750 60  0000 R CNN
F 1 "LED" H 5400 2850 60  0000 L CNN
F 2 "chordboard-footprints:LED_1.8mm" H 5350 2800 60  0001 C CNN
F 3 "" H 5350 2800 60  0001 C CNN
	1    5350 2800
	1    0    0    -1  
$EndComp
$Comp
L LED LED?
U 1 1 5A9F42B5
P 5850 2800
F 0 "LED?" H 6100 2750 60  0000 R CNN
F 1 "LED" H 5900 2850 60  0000 L CNN
F 2 "chordboard-footprints:LED_1.8mm" H 5850 2800 60  0001 C CNN
F 3 "" H 5850 2800 60  0001 C CNN
	1    5850 2800
	1    0    0    -1  
$EndComp
$Comp
L LED LED?
U 1 1 5A9F42BC
P 2350 3000
F 0 "LED?" H 2600 2950 60  0000 R CNN
F 1 "LED" H 2400 3050 60  0000 L CNN
F 2 "chordboard-footprints:LED_1.8mm" H 2350 3000 60  0001 C CNN
F 3 "" H 2350 3000 60  0001 C CNN
	1    2350 3000
	1    0    0    -1  
$EndComp
$Comp
L LED LED?
U 1 1 5A9F42C3
P 2850 3000
F 0 "LED?" H 3100 2950 60  0000 R CNN
F 1 "LED" H 2900 3050 60  0000 L CNN
F 2 "chordboard-footprints:LED_1.8mm" H 2850 3000 60  0001 C CNN
F 3 "" H 2850 3000 60  0001 C CNN
	1    2850 3000
	1    0    0    -1  
$EndComp
$Comp
L LED LED?
U 1 1 5A9F42CA
P 3350 3000
F 0 "LED?" H 3600 2950 60  0000 R CNN
F 1 "LED" H 3400 3050 60  0000 L CNN
F 2 "chordboard-footprints:LED_1.8mm" H 3350 3000 60  0001 C CNN
F 3 "" H 3350 3000 60  0001 C CNN
	1    3350 3000
	1    0    0    -1  
$EndComp
$Comp
L LED LED?
U 1 1 5A9F42D1
P 3850 3000
F 0 "LED?" H 4100 2950 60  0000 R CNN
F 1 "LED" H 3900 3050 60  0000 L CNN
F 2 "chordboard-footprints:LED_1.8mm" H 3850 3000 60  0001 C CNN
F 3 "" H 3850 3000 60  0001 C CNN
	1    3850 3000
	1    0    0    -1  
$EndComp
$Comp
L LED LED?
U 1 1 5A9F42D8
P 4350 3000
F 0 "LED?" H 4600 2950 60  0000 R CNN
F 1 "LED" H 4400 3050 60  0000 L CNN
F 2 "chordboard-footprints:LED_1.8mm" H 4350 3000 60  0001 C CNN
F 3 "" H 4350 3000 60  0001 C CNN
	1    4350 3000
	1    0    0    -1  
$EndComp
$Comp
L LED LED?
U 1 1 5A9F42DF
P 4850 3000
F 0 "LED?" H 5100 2950 60  0000 R CNN
F 1 "LED" H 4900 3050 60  0000 L CNN
F 2 "chordboard-footprints:LED_1.8mm" H 4850 3000 60  0001 C CNN
F 3 "" H 4850 3000 60  0001 C CNN
	1    4850 3000
	1    0    0    -1  
$EndComp
$Comp
L LED LED?
U 1 1 5A9F42E6
P 5350 3000
F 0 "LED?" H 5600 2950 60  0000 R CNN
F 1 "LED" H 5400 3050 60  0000 L CNN
F 2 "chordboard-footprints:LED_1.8mm" H 5350 3000 60  0001 C CNN
F 3 "" H 5350 3000 60  0001 C CNN
	1    5350 3000
	1    0    0    -1  
$EndComp
$Comp
L LED LED?
U 1 1 5A9F42ED
P 5850 3000
F 0 "LED?" H 6100 2950 60  0000 R CNN
F 1 "LED" H 5900 3050 60  0000 L CNN
F 2 "chordboard-footprints:LED_1.8mm" H 5850 3000 60  0001 C CNN
F 3 "" H 5850 3000 60  0001 C CNN
	1    5850 3000
	1    0    0    -1  
$EndComp
$Comp
L LED LED?
U 1 1 5A9F42F4
P 2350 3200
F 0 "LED?" H 2600 3150 60  0000 R CNN
F 1 "LED" H 2400 3250 60  0000 L CNN
F 2 "chordboard-footprints:LED_1.8mm" H 2350 3200 60  0001 C CNN
F 3 "" H 2350 3200 60  0001 C CNN
	1    2350 3200
	1    0    0    -1  
$EndComp
$Comp
L LED LED?
U 1 1 5A9F42FB
P 2850 3200
F 0 "LED?" H 3100 3150 60  0000 R CNN
F 1 "LED" H 2900 3250 60  0000 L CNN
F 2 "chordboard-footprints:LED_1.8mm" H 2850 3200 60  0001 C CNN
F 3 "" H 2850 3200 60  0001 C CNN
	1    2850 3200
	1    0    0    -1  
$EndComp
$Comp
L LED LED?
U 1 1 5A9F4302
P 3350 3200
F 0 "LED?" H 3600 3150 60  0000 R CNN
F 1 "LED" H 3400 3250 60  0000 L CNN
F 2 "chordboard-footprints:LED_1.8mm" H 3350 3200 60  0001 C CNN
F 3 "" H 3350 3200 60  0001 C CNN
	1    3350 3200
	1    0    0    -1  
$EndComp
$Comp
L LED LED?
U 1 1 5A9F4309
P 3850 3200
F 0 "LED?" H 4100 3150 60  0000 R CNN
F 1 "LED" H 3900 3250 60  0000 L CNN
F 2 "chordboard-footprints:LED_1.8mm" H 3850 3200 60  0001 C CNN
F 3 "" H 3850 3200 60  0001 C CNN
	1    3850 3200
	1    0    0    -1  
$EndComp
$Comp
L LED LED?
U 1 1 5A9F4310
P 4350 3200
F 0 "LED?" H 4600 3150 60  0000 R CNN
F 1 "LED" H 4400 3250 60  0000 L CNN
F 2 "chordboard-footprints:LED_1.8mm" H 4350 3200 60  0001 C CNN
F 3 "" H 4350 3200 60  0001 C CNN
	1    4350 3200
	1    0    0    -1  
$EndComp
$Comp
L LED LED?
U 1 1 5A9F4317
P 4850 3200
F 0 "LED?" H 5100 3150 60  0000 R CNN
F 1 "LED" H 4900 3250 60  0000 L CNN
F 2 "chordboard-footprints:LED_1.8mm" H 4850 3200 60  0001 C CNN
F 3 "" H 4850 3200 60  0001 C CNN
	1    4850 3200
	1    0    0    -1  
$EndComp
$Comp
L LED LED?
U 1 1 5A9F431E
P 5350 3200
F 0 "LED?" H 5600 3150 60  0000 R CNN
F 1 "LED" H 5400 3250 60  0000 L CNN
F 2 "chordboard-footprints:LED_1.8mm" H 5350 3200 60  0001 C CNN
F 3 "" H 5350 3200 60  0001 C CNN
	1    5350 3200
	1    0    0    -1  
$EndComp
$Comp
L LED LED?
U 1 1 5A9F4325
P 5850 3200
F 0 "LED?" H 6100 3150 60  0000 R CNN
F 1 "LED" H 5900 3250 60  0000 L CNN
F 2 "chordboard-footprints:LED_1.8mm" H 5850 3200 60  0001 C CNN
F 3 "" H 5850 3200 60  0001 C CNN
	1    5850 3200
	1    0    0    -1  
$EndComp
$Comp
L LED LED?
U 1 1 5A9F432C
P 2350 3400
F 0 "LED?" H 2600 3350 60  0000 R CNN
F 1 "LED" H 2400 3450 60  0000 L CNN
F 2 "chordboard-footprints:LED_1.8mm" H 2350 3400 60  0001 C CNN
F 3 "" H 2350 3400 60  0001 C CNN
	1    2350 3400
	1    0    0    -1  
$EndComp
$Comp
L LED LED?
U 1 1 5A9F4333
P 2850 3400
F 0 "LED?" H 3100 3350 60  0000 R CNN
F 1 "LED" H 2900 3450 60  0000 L CNN
F 2 "chordboard-footprints:LED_1.8mm" H 2850 3400 60  0001 C CNN
F 3 "" H 2850 3400 60  0001 C CNN
	1    2850 3400
	1    0    0    -1  
$EndComp
$Comp
L LED LED?
U 1 1 5A9F433A
P 3350 3400
F 0 "LED?" H 3600 3350 60  0000 R CNN
F 1 "LED" H 3400 3450 60  0000 L CNN
F 2 "chordboard-footprints:LED_1.8mm" H 3350 3400 60  0001 C CNN
F 3 "" H 3350 3400 60  0001 C CNN
	1    3350 3400
	1    0    0    -1  
$EndComp
$Comp
L LED LED?
U 1 1 5A9F4341
P 3850 3400
F 0 "LED?" H 4100 3350 60  0000 R CNN
F 1 "LED" H 3900 3450 60  0000 L CNN
F 2 "chordboard-footprints:LED_1.8mm" H 3850 3400 60  0001 C CNN
F 3 "" H 3850 3400 60  0001 C CNN
	1    3850 3400
	1    0    0    -1  
$EndComp
$Comp
L LED LED?
U 1 1 5A9F4348
P 4350 3400
F 0 "LED?" H 4600 3350 60  0000 R CNN
F 1 "LED" H 4400 3450 60  0000 L CNN
F 2 "chordboard-footprints:LED_1.8mm" H 4350 3400 60  0001 C CNN
F 3 "" H 4350 3400 60  0001 C CNN
	1    4350 3400
	1    0    0    -1  
$EndComp
$Comp
L LED LED?
U 1 1 5A9F434F
P 4850 3400
F 0 "LED?" H 5100 3350 60  0000 R CNN
F 1 "LED" H 4900 3450 60  0000 L CNN
F 2 "chordboard-footprints:LED_1.8mm" H 4850 3400 60  0001 C CNN
F 3 "" H 4850 3400 60  0001 C CNN
	1    4850 3400
	1    0    0    -1  
$EndComp
$Comp
L LED LED?
U 1 1 5A9F4356
P 5350 3400
F 0 "LED?" H 5600 3350 60  0000 R CNN
F 1 "LED" H 5400 3450 60  0000 L CNN
F 2 "chordboard-footprints:LED_1.8mm" H 5350 3400 60  0001 C CNN
F 3 "" H 5350 3400 60  0001 C CNN
	1    5350 3400
	1    0    0    -1  
$EndComp
$Comp
L LED LED?
U 1 1 5A9F435D
P 5850 3400
F 0 "LED?" H 6100 3350 60  0000 R CNN
F 1 "LED" H 5900 3450 60  0000 L CNN
F 2 "chordboard-footprints:LED_1.8mm" H 5850 3400 60  0001 C CNN
F 3 "" H 5850 3400 60  0001 C CNN
	1    5850 3400
	1    0    0    -1  
$EndComp
$Comp
L LED LED?
U 1 1 5A9F4364
P 2350 3600
F 0 "LED?" H 2600 3550 60  0000 R CNN
F 1 "LED" H 2400 3650 60  0000 L CNN
F 2 "chordboard-footprints:LED_1.8mm" H 2350 3600 60  0001 C CNN
F 3 "" H 2350 3600 60  0001 C CNN
	1    2350 3600
	1    0    0    -1  
$EndComp
$Comp
L LED LED?
U 1 1 5A9F436B
P 2850 3600
F 0 "LED?" H 3100 3550 60  0000 R CNN
F 1 "LED" H 2900 3650 60  0000 L CNN
F 2 "chordboard-footprints:LED_1.8mm" H 2850 3600 60  0001 C CNN
F 3 "" H 2850 3600 60  0001 C CNN
	1    2850 3600
	1    0    0    -1  
$EndComp
$Comp
L LED LED?
U 1 1 5A9F4372
P 3350 3600
F 0 "LED?" H 3600 3550 60  0000 R CNN
F 1 "LED" H 3400 3650 60  0000 L CNN
F 2 "chordboard-footprints:LED_1.8mm" H 3350 3600 60  0001 C CNN
F 3 "" H 3350 3600 60  0001 C CNN
	1    3350 3600
	1    0    0    -1  
$EndComp
$Comp
L LED LED?
U 1 1 5A9F4379
P 3850 3600
F 0 "LED?" H 4100 3550 60  0000 R CNN
F 1 "LED" H 3900 3650 60  0000 L CNN
F 2 "chordboard-footprints:LED_1.8mm" H 3850 3600 60  0001 C CNN
F 3 "" H 3850 3600 60  0001 C CNN
	1    3850 3600
	1    0    0    -1  
$EndComp
$Comp
L LED LED?
U 1 1 5A9F4380
P 4350 3600
F 0 "LED?" H 4600 3550 60  0000 R CNN
F 1 "LED" H 4400 3650 60  0000 L CNN
F 2 "chordboard-footprints:LED_1.8mm" H 4350 3600 60  0001 C CNN
F 3 "" H 4350 3600 60  0001 C CNN
	1    4350 3600
	1    0    0    -1  
$EndComp
$Comp
L LED LED?
U 1 1 5A9F4387
P 4850 3600
F 0 "LED?" H 5100 3550 60  0000 R CNN
F 1 "LED" H 4900 3650 60  0000 L CNN
F 2 "chordboard-footprints:LED_1.8mm" H 4850 3600 60  0001 C CNN
F 3 "" H 4850 3600 60  0001 C CNN
	1    4850 3600
	1    0    0    -1  
$EndComp
$Comp
L LED LED?
U 1 1 5A9F438E
P 5350 3600
F 0 "LED?" H 5600 3550 60  0000 R CNN
F 1 "LED" H 5400 3650 60  0000 L CNN
F 2 "chordboard-footprints:LED_1.8mm" H 5350 3600 60  0001 C CNN
F 3 "" H 5350 3600 60  0001 C CNN
	1    5350 3600
	1    0    0    -1  
$EndComp
$Comp
L LED LED?
U 1 1 5A9F4395
P 5850 3600
F 0 "LED?" H 6100 3550 60  0000 R CNN
F 1 "LED" H 5900 3650 60  0000 L CNN
F 2 "chordboard-footprints:LED_1.8mm" H 5850 3600 60  0001 C CNN
F 3 "" H 5850 3600 60  0001 C CNN
	1    5850 3600
	1    0    0    -1  
$EndComp
$Comp
L LED LED?
U 1 1 5A9F439C
P 2350 3800
F 0 "LED?" H 2600 3750 60  0000 R CNN
F 1 "LED" H 2400 3850 60  0000 L CNN
F 2 "chordboard-footprints:LED_1.8mm" H 2350 3800 60  0001 C CNN
F 3 "" H 2350 3800 60  0001 C CNN
	1    2350 3800
	1    0    0    -1  
$EndComp
$Comp
L LED LED?
U 1 1 5A9F43A3
P 2850 3800
F 0 "LED?" H 3100 3750 60  0000 R CNN
F 1 "LED" H 2900 3850 60  0000 L CNN
F 2 "chordboard-footprints:LED_1.8mm" H 2850 3800 60  0001 C CNN
F 3 "" H 2850 3800 60  0001 C CNN
	1    2850 3800
	1    0    0    -1  
$EndComp
$Comp
L LED LED?
U 1 1 5A9F43AA
P 3350 3800
F 0 "LED?" H 3600 3750 60  0000 R CNN
F 1 "LED" H 3400 3850 60  0000 L CNN
F 2 "chordboard-footprints:LED_1.8mm" H 3350 3800 60  0001 C CNN
F 3 "" H 3350 3800 60  0001 C CNN
	1    3350 3800
	1    0    0    -1  
$EndComp
$Comp
L LED LED?
U 1 1 5A9F43B1
P 3850 3800
F 0 "LED?" H 4100 3750 60  0000 R CNN
F 1 "LED" H 3900 3850 60  0000 L CNN
F 2 "chordboard-footprints:LED_1.8mm" H 3850 3800 60  0001 C CNN
F 3 "" H 3850 3800 60  0001 C CNN
	1    3850 3800
	1    0    0    -1  
$EndComp
$Comp
L LED LED?
U 1 1 5A9F43B8
P 4350 3800
F 0 "LED?" H 4600 3750 60  0000 R CNN
F 1 "LED" H 4400 3850 60  0000 L CNN
F 2 "chordboard-footprints:LED_1.8mm" H 4350 3800 60  0001 C CNN
F 3 "" H 4350 3800 60  0001 C CNN
	1    4350 3800
	1    0    0    -1  
$EndComp
$Comp
L LED LED?
U 1 1 5A9F43BF
P 4850 3800
F 0 "LED?" H 5100 3750 60  0000 R CNN
F 1 "LED" H 4900 3850 60  0000 L CNN
F 2 "chordboard-footprints:LED_1.8mm" H 4850 3800 60  0001 C CNN
F 3 "" H 4850 3800 60  0001 C CNN
	1    4850 3800
	1    0    0    -1  
$EndComp
$Comp
L LED LED?
U 1 1 5A9F43C6
P 5350 3800
F 0 "LED?" H 5600 3750 60  0000 R CNN
F 1 "LED" H 5400 3850 60  0000 L CNN
F 2 "chordboard-footprints:LED_1.8mm" H 5350 3800 60  0001 C CNN
F 3 "" H 5350 3800 60  0001 C CNN
	1    5350 3800
	1    0    0    -1  
$EndComp
$Comp
L LED LED?
U 1 1 5A9F43CD
P 5850 3800
F 0 "LED?" H 6100 3750 60  0000 R CNN
F 1 "LED" H 5900 3850 60  0000 L CNN
F 2 "chordboard-footprints:LED_1.8mm" H 5850 3800 60  0001 C CNN
F 3 "" H 5850 3800 60  0001 C CNN
	1    5850 3800
	1    0    0    -1  
$EndComp
$Comp
L LED LED?
U 1 1 5A9F43D4
P 2350 4000
F 0 "LED?" H 2600 3950 60  0000 R CNN
F 1 "LED" H 2400 4050 60  0000 L CNN
F 2 "chordboard-footprints:LED_1.8mm" H 2350 4000 60  0001 C CNN
F 3 "" H 2350 4000 60  0001 C CNN
	1    2350 4000
	1    0    0    -1  
$EndComp
$Comp
L LED LED?
U 1 1 5A9F43DB
P 2850 4000
F 0 "LED?" H 3100 3950 60  0000 R CNN
F 1 "LED" H 2900 4050 60  0000 L CNN
F 2 "chordboard-footprints:LED_1.8mm" H 2850 4000 60  0001 C CNN
F 3 "" H 2850 4000 60  0001 C CNN
	1    2850 4000
	1    0    0    -1  
$EndComp
$Comp
L LED LED?
U 1 1 5A9F43E2
P 3350 4000
F 0 "LED?" H 3600 3950 60  0000 R CNN
F 1 "LED" H 3400 4050 60  0000 L CNN
F 2 "chordboard-footprints:LED_1.8mm" H 3350 4000 60  0001 C CNN
F 3 "" H 3350 4000 60  0001 C CNN
	1    3350 4000
	1    0    0    -1  
$EndComp
$Comp
L LED LED?
U 1 1 5A9F43E9
P 3850 4000
F 0 "LED?" H 4100 3950 60  0000 R CNN
F 1 "LED" H 3900 4050 60  0000 L CNN
F 2 "chordboard-footprints:LED_1.8mm" H 3850 4000 60  0001 C CNN
F 3 "" H 3850 4000 60  0001 C CNN
	1    3850 4000
	1    0    0    -1  
$EndComp
$Comp
L LED LED?
U 1 1 5A9F43F0
P 4350 4000
F 0 "LED?" H 4600 3950 60  0000 R CNN
F 1 "LED" H 4400 4050 60  0000 L CNN
F 2 "chordboard-footprints:LED_1.8mm" H 4350 4000 60  0001 C CNN
F 3 "" H 4350 4000 60  0001 C CNN
	1    4350 4000
	1    0    0    -1  
$EndComp
$Comp
L LED LED?
U 1 1 5A9F43F7
P 4850 4000
F 0 "LED?" H 5100 3950 60  0000 R CNN
F 1 "LED" H 4900 4050 60  0000 L CNN
F 2 "chordboard-footprints:LED_1.8mm" H 4850 4000 60  0001 C CNN
F 3 "" H 4850 4000 60  0001 C CNN
	1    4850 4000
	1    0    0    -1  
$EndComp
$Comp
L LED LED?
U 1 1 5A9F43FE
P 5350 4000
F 0 "LED?" H 5600 3950 60  0000 R CNN
F 1 "LED" H 5400 4050 60  0000 L CNN
F 2 "chordboard-footprints:LED_1.8mm" H 5350 4000 60  0001 C CNN
F 3 "" H 5350 4000 60  0001 C CNN
	1    5350 4000
	1    0    0    -1  
$EndComp
$Comp
L LED LED?
U 1 1 5A9F4405
P 5850 4000
F 0 "LED?" H 6100 3950 60  0000 R CNN
F 1 "LED" H 5900 4050 60  0000 L CNN
F 2 "chordboard-footprints:LED_1.8mm" H 5850 4000 60  0001 C CNN
F 3 "" H 5850 4000 60  0001 C CNN
	1    5850 4000
	1    0    0    -1  
$EndComp
$Comp
L LED LED?
U 1 1 5A9F440C
P 2350 4200
F 0 "LED?" H 2600 4150 60  0000 R CNN
F 1 "LED" H 2400 4250 60  0000 L CNN
F 2 "chordboard-footprints:LED_1.8mm" H 2350 4200 60  0001 C CNN
F 3 "" H 2350 4200 60  0001 C CNN
	1    2350 4200
	1    0    0    -1  
$EndComp
$Comp
L LED LED?
U 1 1 5A9F4413
P 2850 4200
F 0 "LED?" H 3100 4150 60  0000 R CNN
F 1 "LED" H 2900 4250 60  0000 L CNN
F 2 "chordboard-footprints:LED_1.8mm" H 2850 4200 60  0001 C CNN
F 3 "" H 2850 4200 60  0001 C CNN
	1    2850 4200
	1    0    0    -1  
$EndComp
$Comp
L LED LED?
U 1 1 5A9F441A
P 3350 4200
F 0 "LED?" H 3600 4150 60  0000 R CNN
F 1 "LED" H 3400 4250 60  0000 L CNN
F 2 "chordboard-footprints:LED_1.8mm" H 3350 4200 60  0001 C CNN
F 3 "" H 3350 4200 60  0001 C CNN
	1    3350 4200
	1    0    0    -1  
$EndComp
$Comp
L LED LED?
U 1 1 5A9F4421
P 3850 4200
F 0 "LED?" H 4100 4150 60  0000 R CNN
F 1 "LED" H 3900 4250 60  0000 L CNN
F 2 "chordboard-footprints:LED_1.8mm" H 3850 4200 60  0001 C CNN
F 3 "" H 3850 4200 60  0001 C CNN
	1    3850 4200
	1    0    0    -1  
$EndComp
$Comp
L LED LED?
U 1 1 5A9F4428
P 4350 4200
F 0 "LED?" H 4600 4150 60  0000 R CNN
F 1 "LED" H 4400 4250 60  0000 L CNN
F 2 "chordboard-footprints:LED_1.8mm" H 4350 4200 60  0001 C CNN
F 3 "" H 4350 4200 60  0001 C CNN
	1    4350 4200
	1    0    0    -1  
$EndComp
$Comp
L LED LED?
U 1 1 5A9F442F
P 4850 4200
F 0 "LED?" H 5100 4150 60  0000 R CNN
F 1 "LED" H 4900 4250 60  0000 L CNN
F 2 "chordboard-footprints:LED_1.8mm" H 4850 4200 60  0001 C CNN
F 3 "" H 4850 4200 60  0001 C CNN
	1    4850 4200
	1    0    0    -1  
$EndComp
$Comp
L LED LED?
U 1 1 5A9F4436
P 5350 4200
F 0 "LED?" H 5600 4150 60  0000 R CNN
F 1 "LED" H 5400 4250 60  0000 L CNN
F 2 "chordboard-footprints:LED_1.8mm" H 5350 4200 60  0001 C CNN
F 3 "" H 5350 4200 60  0001 C CNN
	1    5350 4200
	1    0    0    -1  
$EndComp
$Comp
L LED LED?
U 1 1 5A9F443D
P 5850 4200
F 0 "LED?" H 6100 4150 60  0000 R CNN
F 1 "LED" H 5900 4250 60  0000 L CNN
F 2 "chordboard-footprints:LED_1.8mm" H 5850 4200 60  0001 C CNN
F 3 "" H 5850 4200 60  0001 C CNN
	1    5850 4200
	1    0    0    -1  
$EndComp
Text Label 2600 2600 1    60   ~ 0
Y0
Text Label 3100 2600 1    60   ~ 0
Y1
Text Label 3600 2600 1    60   ~ 0
Y2
Text Label 4100 2600 1    60   ~ 0
Y3
Text Label 4600 2600 1    60   ~ 0
Y4
Text Label 5100 2600 1    60   ~ 0
Y5
Text Label 5600 2600 1    60   ~ 0
Y6
Text Label 6100 2600 1    60   ~ 0
Y7
Connection ~ 6100 3000
Connection ~ 5600 3000
Connection ~ 5100 3000
Connection ~ 4600 3000
Connection ~ 4100 3000
Connection ~ 3600 3000
Connection ~ 3100 3000
Connection ~ 2600 3000
Connection ~ 6100 2800
Connection ~ 5600 2800
Connection ~ 5100 2800
Connection ~ 4600 2800
Connection ~ 4100 2800
Connection ~ 3600 2800
Connection ~ 3100 2800
Connection ~ 2600 2800
Connection ~ 5200 3100
Connection ~ 4700 3100
Wire Wire Line
	6100 3000 6000 3000
Wire Wire Line
	5700 3100 5700 3000
Wire Wire Line
	5600 3000 5500 3000
Wire Wire Line
	5200 3100 5200 3000
Wire Wire Line
	5100 3000 5000 3000
Wire Wire Line
	4700 3100 4700 3000
Connection ~ 4200 3100
Connection ~ 3700 3100
Wire Wire Line
	4200 3100 4200 3000
Wire Wire Line
	4600 3000 4500 3000
Wire Wire Line
	4100 3000 4000 3000
Connection ~ 3200 3100
Wire Wire Line
	3700 3100 3700 3000
Wire Wire Line
	3600 3000 3500 3000
Connection ~ 2700 3100
Wire Wire Line
	3200 3100 3200 3000
Wire Wire Line
	3100 3000 3000 3000
Connection ~ 2200 3100
Wire Wire Line
	2700 3100 2700 3000
Wire Wire Line
	2600 3000 2500 3000
Wire Wire Line
	2200 3100 2200 3000
Wire Wire Line
	2100 3100 5700 3100
Connection ~ 5200 2900
Connection ~ 4700 2900
Wire Wire Line
	6100 2600 6100 4200
Wire Wire Line
	6000 2800 6100 2800
Wire Wire Line
	5700 2900 5700 2800
Wire Wire Line
	5600 2600 5600 4200
Wire Wire Line
	5500 2800 5600 2800
Wire Wire Line
	5200 2900 5200 2800
Wire Wire Line
	5100 2600 5100 4200
Wire Wire Line
	5000 2800 5100 2800
Wire Wire Line
	4700 2900 4700 2800
Connection ~ 4200 2900
Connection ~ 3700 2900
Wire Wire Line
	4200 2900 4200 2800
Wire Wire Line
	4600 2600 4600 4200
Wire Wire Line
	4500 2800 4600 2800
Wire Wire Line
	4100 2600 4100 4200
Wire Wire Line
	4000 2800 4100 2800
Connection ~ 3200 2900
Wire Wire Line
	3700 2900 3700 2800
Wire Wire Line
	3600 2600 3600 4200
Wire Wire Line
	3500 2800 3600 2800
Connection ~ 2700 2900
Wire Wire Line
	3200 2900 3200 2800
Wire Wire Line
	3100 2600 3100 4200
Wire Wire Line
	3000 2800 3100 2800
Connection ~ 2200 2900
Wire Wire Line
	2700 2900 2700 2800
Wire Wire Line
	2600 2600 2600 4200
Wire Wire Line
	2500 2800 2600 2800
Wire Wire Line
	2200 2900 2200 2800
Wire Wire Line
	2100 2900 5700 2900
Connection ~ 6100 3400
Connection ~ 5600 3400
Connection ~ 5100 3400
Connection ~ 4600 3400
Connection ~ 4100 3400
Connection ~ 3600 3400
Connection ~ 3100 3400
Connection ~ 2600 3400
Connection ~ 6100 3200
Connection ~ 5600 3200
Connection ~ 5100 3200
Connection ~ 4600 3200
Connection ~ 4100 3200
Connection ~ 3600 3200
Connection ~ 3100 3200
Connection ~ 2600 3200
Connection ~ 5200 3500
Connection ~ 4700 3500
Wire Wire Line
	6100 3400 6000 3400
Wire Wire Line
	5700 3500 5700 3400
Wire Wire Line
	5600 3400 5500 3400
Wire Wire Line
	5200 3500 5200 3400
Wire Wire Line
	5100 3400 5000 3400
Wire Wire Line
	4700 3500 4700 3400
Connection ~ 4200 3500
Connection ~ 3700 3500
Wire Wire Line
	4200 3500 4200 3400
Wire Wire Line
	4600 3400 4500 3400
Wire Wire Line
	4100 3400 4000 3400
Connection ~ 3200 3500
Wire Wire Line
	3700 3500 3700 3400
Wire Wire Line
	3600 3400 3500 3400
Connection ~ 2700 3500
Wire Wire Line
	3200 3500 3200 3400
Wire Wire Line
	3100 3400 3000 3400
Connection ~ 2200 3500
Wire Wire Line
	2700 3500 2700 3400
Wire Wire Line
	2600 3400 2500 3400
Wire Wire Line
	2200 3500 2200 3400
Wire Wire Line
	2100 3500 5700 3500
Connection ~ 5200 3300
Connection ~ 4700 3300
Wire Wire Line
	6100 3200 6000 3200
Wire Wire Line
	5700 3300 5700 3200
Wire Wire Line
	5600 3200 5500 3200
Wire Wire Line
	5200 3300 5200 3200
Wire Wire Line
	5100 3200 5000 3200
Wire Wire Line
	4700 3300 4700 3200
Connection ~ 4200 3300
Connection ~ 3700 3300
Wire Wire Line
	4200 3300 4200 3200
Wire Wire Line
	4600 3200 4500 3200
Wire Wire Line
	4100 3200 4000 3200
Connection ~ 3200 3300
Wire Wire Line
	3700 3300 3700 3200
Wire Wire Line
	3600 3200 3500 3200
Connection ~ 2700 3300
Wire Wire Line
	3200 3300 3200 3200
Wire Wire Line
	3100 3200 3000 3200
Connection ~ 2200 3300
Wire Wire Line
	2700 3300 2700 3200
Wire Wire Line
	2600 3200 2500 3200
Wire Wire Line
	2200 3300 2200 3200
Wire Wire Line
	2100 3300 5700 3300
Connection ~ 2600 3600
Wire Wire Line
	2600 3600 2500 3600
Wire Wire Line
	2200 3700 2200 3600
Connection ~ 3100 3600
Wire Wire Line
	3100 3600 3000 3600
Wire Wire Line
	2700 3700 2700 3600
Connection ~ 3600 3600
Wire Wire Line
	3600 3600 3500 3600
Wire Wire Line
	3200 3700 3200 3600
Connection ~ 4100 3600
Wire Wire Line
	4100 3600 4000 3600
Wire Wire Line
	3700 3700 3700 3600
Connection ~ 4600 3600
Wire Wire Line
	4600 3600 4500 3600
Wire Wire Line
	4200 3700 4200 3600
Connection ~ 5100 3600
Wire Wire Line
	5100 3600 5000 3600
Wire Wire Line
	4700 3700 4700 3600
Connection ~ 5600 3600
Wire Wire Line
	5600 3600 5500 3600
Wire Wire Line
	5200 3700 5200 3600
Connection ~ 6100 3600
Wire Wire Line
	6100 3600 6000 3600
Wire Wire Line
	5700 3700 5700 3600
Wire Wire Line
	2100 3700 5700 3700
Connection ~ 2200 3700
Connection ~ 2700 3700
Connection ~ 3200 3700
Connection ~ 3700 3700
Connection ~ 4200 3700
Connection ~ 4700 3700
Connection ~ 5200 3700
Wire Wire Line
	6100 2800 6100 3800
Wire Wire Line
	5600 2800 5600 3800
Wire Wire Line
	5100 2800 5100 3800
Wire Wire Line
	4600 2800 4600 3800
Wire Wire Line
	4100 2800 4100 3800
Wire Wire Line
	3600 2800 3600 3800
Wire Wire Line
	3100 2800 3100 3800
Wire Wire Line
	2600 2800 2600 3800
Connection ~ 2600 3800
Wire Wire Line
	2600 3800 2500 3800
Wire Wire Line
	2200 3900 2200 3800
Connection ~ 3100 3800
Wire Wire Line
	3100 3800 3000 3800
Wire Wire Line
	2700 3900 2700 3800
Connection ~ 3600 3800
Wire Wire Line
	3600 3800 3500 3800
Wire Wire Line
	3200 3900 3200 3800
Connection ~ 4100 3800
Wire Wire Line
	4100 3800 4000 3800
Wire Wire Line
	3700 3900 3700 3800
Connection ~ 4600 3800
Wire Wire Line
	4600 3800 4500 3800
Wire Wire Line
	4200 3900 4200 3800
Connection ~ 5100 3800
Wire Wire Line
	5100 3800 5000 3800
Wire Wire Line
	4700 3900 4700 3800
Connection ~ 5600 3800
Wire Wire Line
	5600 3800 5500 3800
Wire Wire Line
	5200 3900 5200 3800
Connection ~ 6100 3800
Wire Wire Line
	6100 3800 6000 3800
Wire Wire Line
	5700 3900 5700 3800
Wire Wire Line
	2100 3900 5700 3900
Connection ~ 2200 3900
Connection ~ 2700 3900
Connection ~ 3200 3900
Connection ~ 3700 3900
Connection ~ 4200 3900
Connection ~ 4700 3900
Connection ~ 5200 3900
Wire Wire Line
	6100 3000 6100 3400
Wire Wire Line
	5600 3000 5600 3400
Wire Wire Line
	5100 3000 5100 3400
Wire Wire Line
	4600 3000 4600 3400
Wire Wire Line
	4100 3000 4100 3400
Wire Wire Line
	3600 3000 3600 3400
Wire Wire Line
	3100 3000 3100 3400
Wire Wire Line
	2600 3000 2600 3400
Connection ~ 2600 4000
Wire Wire Line
	2600 4000 2500 4000
Wire Wire Line
	2200 4100 2200 4000
Connection ~ 3100 4000
Wire Wire Line
	3100 4000 3000 4000
Wire Wire Line
	2700 4100 2700 4000
Connection ~ 3600 4000
Wire Wire Line
	3600 4000 3500 4000
Wire Wire Line
	3200 4100 3200 4000
Connection ~ 4100 4000
Wire Wire Line
	4100 4000 4000 4000
Wire Wire Line
	3700 4100 3700 4000
Connection ~ 4600 4000
Wire Wire Line
	4600 4000 4500 4000
Wire Wire Line
	4200 4100 4200 4000
Connection ~ 5100 4000
Wire Wire Line
	5100 4000 5000 4000
Wire Wire Line
	4700 4100 4700 4000
Connection ~ 5600 4000
Wire Wire Line
	5600 4000 5500 4000
Wire Wire Line
	5200 4100 5200 4000
Connection ~ 6100 4000
Wire Wire Line
	6100 4000 6000 4000
Wire Wire Line
	5700 4100 5700 4000
Wire Wire Line
	2100 4100 5700 4100
Connection ~ 2200 4100
Connection ~ 2700 4100
Connection ~ 3200 4100
Connection ~ 3700 4100
Connection ~ 4200 4100
Connection ~ 4700 4100
Connection ~ 5200 4100
Connection ~ 2600 4200
Wire Wire Line
	2600 4200 2500 4200
Wire Wire Line
	2200 4300 2200 4200
Connection ~ 3100 4200
Wire Wire Line
	3100 4200 3000 4200
Wire Wire Line
	2700 4300 2700 4200
Connection ~ 3600 4200
Wire Wire Line
	3600 4200 3500 4200
Wire Wire Line
	3200 4300 3200 4200
Connection ~ 4100 4200
Wire Wire Line
	4100 4200 4000 4200
Wire Wire Line
	3700 4300 3700 4200
Connection ~ 4600 4200
Wire Wire Line
	4600 4200 4500 4200
Wire Wire Line
	4200 4300 4200 4200
Connection ~ 5100 4200
Wire Wire Line
	5100 4200 5000 4200
Wire Wire Line
	4700 4300 4700 4200
Connection ~ 5600 4200
Wire Wire Line
	5600 4200 5500 4200
Wire Wire Line
	5200 4300 5200 4200
Connection ~ 6100 4200
Wire Wire Line
	6100 4200 6000 4200
Wire Wire Line
	5700 4300 5700 4200
Wire Wire Line
	2100 4300 5700 4300
Connection ~ 2200 4300
Connection ~ 2700 4300
Connection ~ 3200 4300
Connection ~ 3700 4300
Connection ~ 4200 4300
Connection ~ 4700 4300
Connection ~ 5200 4300
$EndSCHEMATC
