EESchema Schematic File Version 2
LIBS:chordboard-rescue
LIBS:maxim
LIBS:chordboard-components
LIBS:power
LIBS:device
LIBS:transistors
LIBS:conn
LIBS:linear
LIBS:regul
LIBS:74xx
LIBS:cmos4000
LIBS:adc-dac
LIBS:memory
LIBS:xilinx
LIBS:microcontrollers
LIBS:dsp
LIBS:microchip
LIBS:analog_switches
LIBS:motorola
LIBS:texas
LIBS:intel
LIBS:audio
LIBS:interface
LIBS:digital-audio
LIBS:philips
LIBS:display
LIBS:cypress
LIBS:siliconi
LIBS:opto
LIBS:atmel
LIBS:contrib
LIBS:valves
LIBS:switches
LIBS:mechanical
LIBS:chordboard-cache
EELAYER 25 0
EELAYER END
$Descr A1 23386 33110 portrait
encoding utf-8
Sheet 2 2
Title ""
Date ""
Rev ""
Comp ""
Comment1 ""
Comment2 ""
Comment3 ""
Comment4 ""
$EndDescr
$Comp
L LED_ARGB D?
U 1 1 5AA702E7
P 2850 3700
F 0 "D?" H 2850 4070 50  0000 C CNN
F 1 "LED_ARGB" H 2850 3350 50  0000 C CNN
F 2 "chordboard-footprints:LED_D3.0mm-4" H 2850 3650 50  0001 C CNN
F 3 "" H 2850 3650 50  0001 C CNN
	1    2850 3700
	0    1    1    0   
$EndComp
$Comp
L LED_ARGB D?
U 1 1 5AA702EE
P 3500 3700
F 0 "D?" H 3500 4070 50  0000 C CNN
F 1 "LED_ARGB" H 3500 3350 50  0000 C CNN
F 2 "chordboard-footprints:LED_D3.0mm-4" H 3500 3650 50  0001 C CNN
F 3 "" H 3500 3650 50  0001 C CNN
	1    3500 3700
	0    1    1    0   
$EndComp
$Comp
L LED_ARGB D?
U 1 1 5AA702F5
P 4150 3700
F 0 "D?" H 4150 4070 50  0000 C CNN
F 1 "LED_ARGB" H 4150 3350 50  0000 C CNN
F 2 "chordboard-footprints:LED_D3.0mm-4" H 4150 3650 50  0001 C CNN
F 3 "" H 4150 3650 50  0001 C CNN
	1    4150 3700
	0    1    1    0   
$EndComp
$Comp
L LED_ARGB D?
U 1 1 5AA702FC
P 4800 3700
F 0 "D?" H 4800 4070 50  0000 C CNN
F 1 "LED_ARGB" H 4800 3350 50  0000 C CNN
F 2 "chordboard-footprints:LED_D3.0mm-4" H 4800 3650 50  0001 C CNN
F 3 "" H 4800 3650 50  0001 C CNN
	1    4800 3700
	0    1    1    0   
$EndComp
$Comp
L LED_ARGB D?
U 1 1 5AA70303
P 5450 3700
F 0 "D?" H 5450 4070 50  0000 C CNN
F 1 "LED_ARGB" H 5450 3350 50  0000 C CNN
F 2 "chordboard-footprints:LED_D3.0mm-4" H 5450 3650 50  0001 C CNN
F 3 "" H 5450 3650 50  0001 C CNN
	1    5450 3700
	0    1    1    0   
$EndComp
$Comp
L LED_ARGB D?
U 1 1 5AA7030A
P 6100 3700
F 0 "D?" H 6100 4070 50  0000 C CNN
F 1 "LED_ARGB" H 6100 3350 50  0000 C CNN
F 2 "chordboard-footprints:LED_D3.0mm-4" H 6100 3650 50  0001 C CNN
F 3 "" H 6100 3650 50  0001 C CNN
	1    6100 3700
	0    1    1    0   
$EndComp
$Comp
L LED_ARGB D?
U 1 1 5AA70311
P 6750 3700
F 0 "D?" H 6750 4070 50  0000 C CNN
F 1 "LED_ARGB" H 6750 3350 50  0000 C CNN
F 2 "chordboard-footprints:LED_D3.0mm-4" H 6750 3650 50  0001 C CNN
F 3 "" H 6750 3650 50  0001 C CNN
	1    6750 3700
	0    1    1    0   
$EndComp
$Comp
L LED_ARGB D?
U 1 1 5AA70318
P 7400 3700
F 0 "D?" H 7400 4070 50  0000 C CNN
F 1 "LED_ARGB" H 7400 3350 50  0000 C CNN
F 2 "chordboard-footprints:LED_D3.0mm-4" H 7400 3650 50  0001 C CNN
F 3 "" H 7400 3650 50  0001 C CNN
	1    7400 3700
	0    1    1    0   
$EndComp
$Comp
L LED_ARGB D?
U 1 1 5AA7031F
P 8050 3700
F 0 "D?" H 8050 4070 50  0000 C CNN
F 1 "LED_ARGB" H 8050 3350 50  0000 C CNN
F 2 "chordboard-footprints:LED_D3.0mm-4" H 8050 3650 50  0001 C CNN
F 3 "" H 8050 3650 50  0001 C CNN
	1    8050 3700
	0    1    1    0   
$EndComp
$Comp
L LED_ARGB D?
U 1 1 5AA70326
P 8700 3700
F 0 "D?" H 8700 4070 50  0000 C CNN
F 1 "LED_ARGB" H 8700 3350 50  0000 C CNN
F 2 "chordboard-footprints:LED_D3.0mm-4" H 8700 3650 50  0001 C CNN
F 3 "" H 8700 3650 50  0001 C CNN
	1    8700 3700
	0    1    1    0   
$EndComp
$Comp
L LED_ARGB D?
U 1 1 5AA7032D
P 9350 3700
F 0 "D?" H 9350 4070 50  0000 C CNN
F 1 "LED_ARGB" H 9350 3350 50  0000 C CNN
F 2 "chordboard-footprints:LED_D3.0mm-4" H 9350 3650 50  0001 C CNN
F 3 "" H 9350 3650 50  0001 C CNN
	1    9350 3700
	0    1    1    0   
$EndComp
$Comp
L LED_ARGB D?
U 1 1 5AA70334
P 10000 3700
F 0 "D?" H 10000 4070 50  0000 C CNN
F 1 "LED_ARGB" H 10000 3350 50  0000 C CNN
F 2 "chordboard-footprints:LED_D3.0mm-4" H 10000 3650 50  0001 C CNN
F 3 "" H 10000 3650 50  0001 C CNN
	1    10000 3700
	0    1    1    0   
$EndComp
$Comp
L LED_ARGB D?
U 1 1 5AA7033B
P 10650 3700
F 0 "D?" H 10650 4070 50  0000 C CNN
F 1 "LED_ARGB" H 10650 3350 50  0000 C CNN
F 2 "chordboard-footprints:LED_D3.0mm-4" H 10650 3650 50  0001 C CNN
F 3 "" H 10650 3650 50  0001 C CNN
	1    10650 3700
	0    1    1    0   
$EndComp
$Comp
L LED_ARGB D?
U 1 1 5AA70342
P 11300 3700
F 0 "D?" H 11300 4070 50  0000 C CNN
F 1 "LED_ARGB" H 11300 3350 50  0000 C CNN
F 2 "chordboard-footprints:LED_D3.0mm-4" H 11300 3650 50  0001 C CNN
F 3 "" H 11300 3650 50  0001 C CNN
	1    11300 3700
	0    1    1    0   
$EndComp
$Comp
L LED_ARGB D?
U 1 1 5AA70349
P 11950 3700
F 0 "D?" H 11950 4070 50  0000 C CNN
F 1 "LED_ARGB" H 11950 3350 50  0000 C CNN
F 2 "chordboard-footprints:LED_D3.0mm-4" H 11950 3650 50  0001 C CNN
F 3 "" H 11950 3650 50  0001 C CNN
	1    11950 3700
	0    1    1    0   
$EndComp
$Comp
L LED_ARGB D?
U 1 1 5AA70350
P 12600 3700
F 0 "D?" H 12600 4070 50  0000 C CNN
F 1 "LED_ARGB" H 12600 3350 50  0000 C CNN
F 2 "chordboard-footprints:LED_D3.0mm-4" H 12600 3650 50  0001 C CNN
F 3 "" H 12600 3650 50  0001 C CNN
	1    12600 3700
	0    1    1    0   
$EndComp
$Comp
L R R?
U 1 1 5AA70387
P 2650 3300
F 0 "R?" V 2700 3400 50  0000 L CNN
F 1 "R" V 2650 3250 50  0000 L CNN
F 2 "Resistors_SMD:R_0805_HandSoldering" H 2650 3300 50  0001 C CNN
F 3 "" H 2650 3300 50  0001 C CNN
	1    2650 3300
	1    0    0    -1  
$EndComp
$Comp
L R R?
U 1 1 5AA7038E
P 2850 3300
F 0 "R?" V 2900 3400 50  0000 L CNN
F 1 "R" V 2850 3250 50  0000 L CNN
F 2 "Resistors_SMD:R_0805_HandSoldering" H 2850 3300 50  0001 C CNN
F 3 "" H 2850 3300 50  0001 C CNN
	1    2850 3300
	1    0    0    -1  
$EndComp
$Comp
L R R?
U 1 1 5AA70395
P 3050 3300
F 0 "R?" V 3100 3400 50  0000 L CNN
F 1 "R" V 3050 3250 50  0000 L CNN
F 2 "Resistors_SMD:R_0805_HandSoldering" H 3050 3300 50  0001 C CNN
F 3 "" H 3050 3300 50  0001 C CNN
	1    3050 3300
	1    0    0    -1  
$EndComp
$Comp
L R R?
U 1 1 5AA703A2
P 3300 3300
F 0 "R?" V 3350 3400 50  0000 L CNN
F 1 "R" V 3300 3250 50  0000 L CNN
F 2 "Resistors_SMD:R_0805_HandSoldering" H 3300 3300 50  0001 C CNN
F 3 "" H 3300 3300 50  0001 C CNN
	1    3300 3300
	1    0    0    -1  
$EndComp
$Comp
L R R?
U 1 1 5AA703A9
P 3500 3300
F 0 "R?" V 3550 3400 50  0000 L CNN
F 1 "R" V 3500 3250 50  0000 L CNN
F 2 "Resistors_SMD:R_0805_HandSoldering" H 3500 3300 50  0001 C CNN
F 3 "" H 3500 3300 50  0001 C CNN
	1    3500 3300
	1    0    0    -1  
$EndComp
$Comp
L R R?
U 1 1 5AA703B0
P 3700 3300
F 0 "R?" V 3750 3400 50  0000 L CNN
F 1 "R" V 3700 3250 50  0000 L CNN
F 2 "Resistors_SMD:R_0805_HandSoldering" H 3700 3300 50  0001 C CNN
F 3 "" H 3700 3300 50  0001 C CNN
	1    3700 3300
	1    0    0    -1  
$EndComp
$Comp
L R R?
U 1 1 5AA703BD
P 3950 3300
F 0 "R?" V 4000 3400 50  0000 L CNN
F 1 "R" V 3950 3250 50  0000 L CNN
F 2 "Resistors_SMD:R_0805_HandSoldering" H 3950 3300 50  0001 C CNN
F 3 "" H 3950 3300 50  0001 C CNN
	1    3950 3300
	1    0    0    -1  
$EndComp
$Comp
L R R?
U 1 1 5AA703C4
P 4150 3300
F 0 "R?" V 4200 3400 50  0000 L CNN
F 1 "R" V 4150 3250 50  0000 L CNN
F 2 "Resistors_SMD:R_0805_HandSoldering" H 4150 3300 50  0001 C CNN
F 3 "" H 4150 3300 50  0001 C CNN
	1    4150 3300
	1    0    0    -1  
$EndComp
$Comp
L R R?
U 1 1 5AA703CB
P 4350 3300
F 0 "R?" V 4400 3400 50  0000 L CNN
F 1 "R" V 4350 3250 50  0000 L CNN
F 2 "Resistors_SMD:R_0805_HandSoldering" H 4350 3300 50  0001 C CNN
F 3 "" H 4350 3300 50  0001 C CNN
	1    4350 3300
	1    0    0    -1  
$EndComp
$Comp
L R R?
U 1 1 5AA703D8
P 4600 3300
F 0 "R?" V 4650 3400 50  0000 L CNN
F 1 "R" V 4600 3250 50  0000 L CNN
F 2 "Resistors_SMD:R_0805_HandSoldering" H 4600 3300 50  0001 C CNN
F 3 "" H 4600 3300 50  0001 C CNN
	1    4600 3300
	1    0    0    -1  
$EndComp
$Comp
L R R?
U 1 1 5AA703DF
P 4800 3300
F 0 "R?" V 4850 3400 50  0000 L CNN
F 1 "R" V 4800 3250 50  0000 L CNN
F 2 "Resistors_SMD:R_0805_HandSoldering" H 4800 3300 50  0001 C CNN
F 3 "" H 4800 3300 50  0001 C CNN
	1    4800 3300
	1    0    0    -1  
$EndComp
$Comp
L R R?
U 1 1 5AA703E6
P 5000 3300
F 0 "R?" V 5050 3400 50  0000 L CNN
F 1 "R" V 5000 3250 50  0000 L CNN
F 2 "Resistors_SMD:R_0805_HandSoldering" H 5000 3300 50  0001 C CNN
F 3 "" H 5000 3300 50  0001 C CNN
	1    5000 3300
	1    0    0    -1  
$EndComp
$Comp
L R R?
U 1 1 5AA703F3
P 5250 3300
F 0 "R?" V 5300 3400 50  0000 L CNN
F 1 "R" V 5250 3250 50  0000 L CNN
F 2 "Resistors_SMD:R_0805_HandSoldering" H 5250 3300 50  0001 C CNN
F 3 "" H 5250 3300 50  0001 C CNN
	1    5250 3300
	1    0    0    -1  
$EndComp
$Comp
L R R?
U 1 1 5AA703FA
P 5450 3300
F 0 "R?" V 5500 3400 50  0000 L CNN
F 1 "R" V 5450 3250 50  0000 L CNN
F 2 "Resistors_SMD:R_0805_HandSoldering" H 5450 3300 50  0001 C CNN
F 3 "" H 5450 3300 50  0001 C CNN
	1    5450 3300
	1    0    0    -1  
$EndComp
$Comp
L R R?
U 1 1 5AA70401
P 5650 3300
F 0 "R?" V 5700 3400 50  0000 L CNN
F 1 "R" V 5650 3250 50  0000 L CNN
F 2 "Resistors_SMD:R_0805_HandSoldering" H 5650 3300 50  0001 C CNN
F 3 "" H 5650 3300 50  0001 C CNN
	1    5650 3300
	1    0    0    -1  
$EndComp
$Comp
L R R?
U 1 1 5AA7040E
P 5900 3300
F 0 "R?" V 5950 3400 50  0000 L CNN
F 1 "R" V 5900 3250 50  0000 L CNN
F 2 "Resistors_SMD:R_0805_HandSoldering" H 5900 3300 50  0001 C CNN
F 3 "" H 5900 3300 50  0001 C CNN
	1    5900 3300
	1    0    0    -1  
$EndComp
$Comp
L R R?
U 1 1 5AA70415
P 6100 3300
F 0 "R?" V 6150 3400 50  0000 L CNN
F 1 "R" V 6100 3250 50  0000 L CNN
F 2 "Resistors_SMD:R_0805_HandSoldering" H 6100 3300 50  0001 C CNN
F 3 "" H 6100 3300 50  0001 C CNN
	1    6100 3300
	1    0    0    -1  
$EndComp
$Comp
L R R?
U 1 1 5AA7041C
P 6300 3300
F 0 "R?" V 6350 3400 50  0000 L CNN
F 1 "R" V 6300 3250 50  0000 L CNN
F 2 "Resistors_SMD:R_0805_HandSoldering" H 6300 3300 50  0001 C CNN
F 3 "" H 6300 3300 50  0001 C CNN
	1    6300 3300
	1    0    0    -1  
$EndComp
$Comp
L R R?
U 1 1 5AA70429
P 6550 3300
F 0 "R?" V 6600 3400 50  0000 L CNN
F 1 "R" V 6550 3250 50  0000 L CNN
F 2 "Resistors_SMD:R_0805_HandSoldering" H 6550 3300 50  0001 C CNN
F 3 "" H 6550 3300 50  0001 C CNN
	1    6550 3300
	1    0    0    -1  
$EndComp
$Comp
L R R?
U 1 1 5AA70430
P 6750 3300
F 0 "R?" V 6800 3400 50  0000 L CNN
F 1 "R" V 6750 3250 50  0000 L CNN
F 2 "Resistors_SMD:R_0805_HandSoldering" H 6750 3300 50  0001 C CNN
F 3 "" H 6750 3300 50  0001 C CNN
	1    6750 3300
	1    0    0    -1  
$EndComp
$Comp
L R R?
U 1 1 5AA70437
P 6950 3300
F 0 "R?" V 7000 3400 50  0000 L CNN
F 1 "R" V 6950 3250 50  0000 L CNN
F 2 "Resistors_SMD:R_0805_HandSoldering" H 6950 3300 50  0001 C CNN
F 3 "" H 6950 3300 50  0001 C CNN
	1    6950 3300
	1    0    0    -1  
$EndComp
$Comp
L R R?
U 1 1 5AA70444
P 7200 3300
F 0 "R?" V 7250 3400 50  0000 L CNN
F 1 "R" V 7200 3250 50  0000 L CNN
F 2 "Resistors_SMD:R_0805_HandSoldering" H 7200 3300 50  0001 C CNN
F 3 "" H 7200 3300 50  0001 C CNN
	1    7200 3300
	1    0    0    -1  
$EndComp
$Comp
L R R?
U 1 1 5AA7044B
P 7400 3300
F 0 "R?" V 7450 3400 50  0000 L CNN
F 1 "R" V 7400 3250 50  0000 L CNN
F 2 "Resistors_SMD:R_0805_HandSoldering" H 7400 3300 50  0001 C CNN
F 3 "" H 7400 3300 50  0001 C CNN
	1    7400 3300
	1    0    0    -1  
$EndComp
$Comp
L R R?
U 1 1 5AA70452
P 7600 3300
F 0 "R?" V 7650 3400 50  0000 L CNN
F 1 "R" V 7600 3250 50  0000 L CNN
F 2 "Resistors_SMD:R_0805_HandSoldering" H 7600 3300 50  0001 C CNN
F 3 "" H 7600 3300 50  0001 C CNN
	1    7600 3300
	1    0    0    -1  
$EndComp
$Comp
L R R?
U 1 1 5AA7045F
P 7850 3300
F 0 "R?" V 7900 3400 50  0000 L CNN
F 1 "R" V 7850 3250 50  0000 L CNN
F 2 "Resistors_SMD:R_0805_HandSoldering" H 7850 3300 50  0001 C CNN
F 3 "" H 7850 3300 50  0001 C CNN
	1    7850 3300
	1    0    0    -1  
$EndComp
$Comp
L R R?
U 1 1 5AA70466
P 8050 3300
F 0 "R?" V 8100 3400 50  0000 L CNN
F 1 "R" V 8050 3250 50  0000 L CNN
F 2 "Resistors_SMD:R_0805_HandSoldering" H 8050 3300 50  0001 C CNN
F 3 "" H 8050 3300 50  0001 C CNN
	1    8050 3300
	1    0    0    -1  
$EndComp
$Comp
L R R?
U 1 1 5AA7046D
P 8250 3300
F 0 "R?" V 8300 3400 50  0000 L CNN
F 1 "R" V 8250 3250 50  0000 L CNN
F 2 "Resistors_SMD:R_0805_HandSoldering" H 8250 3300 50  0001 C CNN
F 3 "" H 8250 3300 50  0001 C CNN
	1    8250 3300
	1    0    0    -1  
$EndComp
$Comp
L R R?
U 1 1 5AA7047A
P 8500 3300
F 0 "R?" V 8550 3400 50  0000 L CNN
F 1 "R" V 8500 3250 50  0000 L CNN
F 2 "Resistors_SMD:R_0805_HandSoldering" H 8500 3300 50  0001 C CNN
F 3 "" H 8500 3300 50  0001 C CNN
	1    8500 3300
	1    0    0    -1  
$EndComp
$Comp
L R R?
U 1 1 5AA70481
P 8700 3300
F 0 "R?" V 8750 3400 50  0000 L CNN
F 1 "R" V 8700 3250 50  0000 L CNN
F 2 "Resistors_SMD:R_0805_HandSoldering" H 8700 3300 50  0001 C CNN
F 3 "" H 8700 3300 50  0001 C CNN
	1    8700 3300
	1    0    0    -1  
$EndComp
$Comp
L R R?
U 1 1 5AA70488
P 8900 3300
F 0 "R?" V 8950 3400 50  0000 L CNN
F 1 "R" V 8900 3250 50  0000 L CNN
F 2 "Resistors_SMD:R_0805_HandSoldering" H 8900 3300 50  0001 C CNN
F 3 "" H 8900 3300 50  0001 C CNN
	1    8900 3300
	1    0    0    -1  
$EndComp
$Comp
L R R?
U 1 1 5AA70495
P 9150 3300
F 0 "R?" V 9200 3400 50  0000 L CNN
F 1 "R" V 9150 3250 50  0000 L CNN
F 2 "Resistors_SMD:R_0805_HandSoldering" H 9150 3300 50  0001 C CNN
F 3 "" H 9150 3300 50  0001 C CNN
	1    9150 3300
	1    0    0    -1  
$EndComp
$Comp
L R R?
U 1 1 5AA7049C
P 9350 3300
F 0 "R?" V 9400 3400 50  0000 L CNN
F 1 "R" V 9350 3250 50  0000 L CNN
F 2 "Resistors_SMD:R_0805_HandSoldering" H 9350 3300 50  0001 C CNN
F 3 "" H 9350 3300 50  0001 C CNN
	1    9350 3300
	1    0    0    -1  
$EndComp
$Comp
L R R?
U 1 1 5AA704A3
P 9550 3300
F 0 "R?" V 9600 3400 50  0000 L CNN
F 1 "R" V 9550 3250 50  0000 L CNN
F 2 "Resistors_SMD:R_0805_HandSoldering" H 9550 3300 50  0001 C CNN
F 3 "" H 9550 3300 50  0001 C CNN
	1    9550 3300
	1    0    0    -1  
$EndComp
$Comp
L R R?
U 1 1 5AA704B0
P 9800 3300
F 0 "R?" V 9850 3400 50  0000 L CNN
F 1 "R" V 9800 3250 50  0000 L CNN
F 2 "Resistors_SMD:R_0805_HandSoldering" H 9800 3300 50  0001 C CNN
F 3 "" H 9800 3300 50  0001 C CNN
	1    9800 3300
	1    0    0    -1  
$EndComp
$Comp
L R R?
U 1 1 5AA704B7
P 10000 3300
F 0 "R?" V 10050 3400 50  0000 L CNN
F 1 "R" V 10000 3250 50  0000 L CNN
F 2 "Resistors_SMD:R_0805_HandSoldering" H 10000 3300 50  0001 C CNN
F 3 "" H 10000 3300 50  0001 C CNN
	1    10000 3300
	1    0    0    -1  
$EndComp
$Comp
L R R?
U 1 1 5AA704BE
P 10200 3300
F 0 "R?" V 10250 3400 50  0000 L CNN
F 1 "R" V 10200 3250 50  0000 L CNN
F 2 "Resistors_SMD:R_0805_HandSoldering" H 10200 3300 50  0001 C CNN
F 3 "" H 10200 3300 50  0001 C CNN
	1    10200 3300
	1    0    0    -1  
$EndComp
$Comp
L R R?
U 1 1 5AA704CB
P 10450 3300
F 0 "R?" V 10500 3400 50  0000 L CNN
F 1 "R" V 10450 3250 50  0000 L CNN
F 2 "Resistors_SMD:R_0805_HandSoldering" H 10450 3300 50  0001 C CNN
F 3 "" H 10450 3300 50  0001 C CNN
	1    10450 3300
	1    0    0    -1  
$EndComp
$Comp
L R R?
U 1 1 5AA704D2
P 10650 3300
F 0 "R?" V 10700 3400 50  0000 L CNN
F 1 "R" V 10650 3250 50  0000 L CNN
F 2 "Resistors_SMD:R_0805_HandSoldering" H 10650 3300 50  0001 C CNN
F 3 "" H 10650 3300 50  0001 C CNN
	1    10650 3300
	1    0    0    -1  
$EndComp
$Comp
L R R?
U 1 1 5AA704D9
P 10850 3300
F 0 "R?" V 10900 3400 50  0000 L CNN
F 1 "R" V 10850 3250 50  0000 L CNN
F 2 "Resistors_SMD:R_0805_HandSoldering" H 10850 3300 50  0001 C CNN
F 3 "" H 10850 3300 50  0001 C CNN
	1    10850 3300
	1    0    0    -1  
$EndComp
$Comp
L R R?
U 1 1 5AA704E6
P 11100 3300
F 0 "R?" V 11150 3400 50  0000 L CNN
F 1 "R" V 11100 3250 50  0000 L CNN
F 2 "Resistors_SMD:R_0805_HandSoldering" H 11100 3300 50  0001 C CNN
F 3 "" H 11100 3300 50  0001 C CNN
	1    11100 3300
	1    0    0    -1  
$EndComp
$Comp
L R R?
U 1 1 5AA704ED
P 11300 3300
F 0 "R?" V 11350 3400 50  0000 L CNN
F 1 "R" V 11300 3250 50  0000 L CNN
F 2 "Resistors_SMD:R_0805_HandSoldering" H 11300 3300 50  0001 C CNN
F 3 "" H 11300 3300 50  0001 C CNN
	1    11300 3300
	1    0    0    -1  
$EndComp
$Comp
L R R?
U 1 1 5AA704F4
P 11500 3300
F 0 "R?" V 11550 3400 50  0000 L CNN
F 1 "R" V 11500 3250 50  0000 L CNN
F 2 "Resistors_SMD:R_0805_HandSoldering" H 11500 3300 50  0001 C CNN
F 3 "" H 11500 3300 50  0001 C CNN
	1    11500 3300
	1    0    0    -1  
$EndComp
$Comp
L R R?
U 1 1 5AA70501
P 11750 3300
F 0 "R?" V 11800 3400 50  0000 L CNN
F 1 "R" V 11750 3250 50  0000 L CNN
F 2 "Resistors_SMD:R_0805_HandSoldering" H 11750 3300 50  0001 C CNN
F 3 "" H 11750 3300 50  0001 C CNN
	1    11750 3300
	1    0    0    -1  
$EndComp
$Comp
L R R?
U 1 1 5AA70508
P 11950 3300
F 0 "R?" V 12000 3400 50  0000 L CNN
F 1 "R" V 11950 3250 50  0000 L CNN
F 2 "Resistors_SMD:R_0805_HandSoldering" H 11950 3300 50  0001 C CNN
F 3 "" H 11950 3300 50  0001 C CNN
	1    11950 3300
	1    0    0    -1  
$EndComp
$Comp
L R R?
U 1 1 5AA7050F
P 12150 3300
F 0 "R?" V 12200 3400 50  0000 L CNN
F 1 "R" V 12150 3250 50  0000 L CNN
F 2 "Resistors_SMD:R_0805_HandSoldering" H 12150 3300 50  0001 C CNN
F 3 "" H 12150 3300 50  0001 C CNN
	1    12150 3300
	1    0    0    -1  
$EndComp
$Comp
L R R?
U 1 1 5AA7051C
P 12400 3300
F 0 "R?" V 12450 3400 50  0000 L CNN
F 1 "R" V 12400 3250 50  0000 L CNN
F 2 "Resistors_SMD:R_0805_HandSoldering" H 12400 3300 50  0001 C CNN
F 3 "" H 12400 3300 50  0001 C CNN
	1    12400 3300
	1    0    0    -1  
$EndComp
$Comp
L R R?
U 1 1 5AA70523
P 12600 3300
F 0 "R?" V 12650 3400 50  0000 L CNN
F 1 "R" V 12600 3250 50  0000 L CNN
F 2 "Resistors_SMD:R_0805_HandSoldering" H 12600 3300 50  0001 C CNN
F 3 "" H 12600 3300 50  0001 C CNN
	1    12600 3300
	1    0    0    -1  
$EndComp
$Comp
L R R?
U 1 1 5AA7052A
P 12800 3300
F 0 "R?" V 12850 3400 50  0000 L CNN
F 1 "R" V 12800 3250 50  0000 L CNN
F 2 "Resistors_SMD:R_0805_HandSoldering" H 12800 3300 50  0001 C CNN
F 3 "" H 12800 3300 50  0001 C CNN
	1    12800 3300
	1    0    0    -1  
$EndComp
Wire Wire Line
	2850 3900 2850 4000
Wire Wire Line
	2650 3500 2650 3400
Wire Wire Line
	2850 3500 2850 3400
Wire Wire Line
	3050 3500 3050 3400
Wire Wire Line
	3050 3200 3050 2750
Wire Wire Line
	2850 3200 2850 2850
Wire Wire Line
	2650 3200 2650 2950
Wire Wire Line
	3300 3500 3300 3400
Wire Wire Line
	3500 3500 3500 3400
Wire Wire Line
	3700 3500 3700 3400
Wire Wire Line
	3700 3200 3700 2750
Wire Wire Line
	3500 3200 3500 2850
Wire Wire Line
	3300 3200 3300 2950
Wire Wire Line
	3950 3500 3950 3400
Wire Wire Line
	4150 3500 4150 3400
Wire Wire Line
	4350 3500 4350 3400
Wire Wire Line
	4350 2750 4350 3200
Wire Wire Line
	4150 2850 4150 3200
Wire Wire Line
	3950 2950 3950 3200
Wire Wire Line
	4600 3500 4600 3400
Wire Wire Line
	4800 3500 4800 3400
Wire Wire Line
	5000 3500 5000 3400
Wire Wire Line
	5000 2750 5000 3200
Wire Wire Line
	4800 2850 4800 3200
Wire Wire Line
	4600 2950 4600 3200
Wire Wire Line
	5250 3500 5250 3400
Wire Wire Line
	5450 3500 5450 3400
Wire Wire Line
	5650 3500 5650 3400
Wire Wire Line
	5650 2750 5650 3200
Wire Wire Line
	5450 2850 5450 3200
Wire Wire Line
	5250 2950 5250 3200
Wire Wire Line
	5900 3500 5900 3400
Wire Wire Line
	6100 3500 6100 3400
Wire Wire Line
	6300 3500 6300 3400
Wire Wire Line
	6300 2750 6300 3200
Wire Wire Line
	6100 2850 6100 3200
Wire Wire Line
	5900 2950 5900 3200
Wire Wire Line
	6550 3500 6550 3400
Wire Wire Line
	6750 3500 6750 3400
Wire Wire Line
	6950 3500 6950 3400
Wire Wire Line
	6950 2750 6950 3200
Wire Wire Line
	6750 2850 6750 3200
Wire Wire Line
	6550 2950 6550 3200
Wire Wire Line
	7200 3500 7200 3400
Wire Wire Line
	7400 3500 7400 3400
Wire Wire Line
	7600 3500 7600 3400
Wire Wire Line
	7600 2750 7600 3200
Wire Wire Line
	7400 2850 7400 3200
Wire Wire Line
	7200 2950 7200 3200
Wire Wire Line
	7850 3500 7850 3400
Wire Wire Line
	8050 3500 8050 3400
Wire Wire Line
	8250 3500 8250 3400
Wire Wire Line
	8250 2750 8250 3200
Wire Wire Line
	8050 2850 8050 3200
Wire Wire Line
	7850 2950 7850 3200
Wire Wire Line
	8500 3500 8500 3400
Wire Wire Line
	8700 3500 8700 3400
Wire Wire Line
	8900 3500 8900 3400
Wire Wire Line
	8900 2750 8900 3200
Wire Wire Line
	8700 2850 8700 3200
Wire Wire Line
	8500 2950 8500 3200
Wire Wire Line
	9150 3500 9150 3400
Wire Wire Line
	9350 3500 9350 3400
Wire Wire Line
	9550 3500 9550 3400
Wire Wire Line
	9550 2750 9550 3200
Wire Wire Line
	9350 2850 9350 3200
Wire Wire Line
	9150 2950 9150 3200
Wire Wire Line
	9800 3500 9800 3400
Wire Wire Line
	10000 3500 10000 3400
Wire Wire Line
	10200 3500 10200 3400
Wire Wire Line
	10200 2750 10200 3200
Wire Wire Line
	10000 2850 10000 3200
Wire Wire Line
	9800 2950 9800 3200
Wire Wire Line
	10450 3500 10450 3400
Wire Wire Line
	10650 3500 10650 3400
Wire Wire Line
	10850 3500 10850 3400
Wire Wire Line
	10850 2750 10850 3200
Wire Wire Line
	10650 2850 10650 3200
Wire Wire Line
	10450 2950 10450 3200
Wire Wire Line
	11100 3500 11100 3400
Wire Wire Line
	11300 3500 11300 3400
Wire Wire Line
	11500 3500 11500 3400
Wire Wire Line
	11500 2750 11500 3200
Wire Wire Line
	11300 2850 11300 3200
Wire Wire Line
	11100 2950 11100 3200
Wire Wire Line
	11750 3500 11750 3400
Wire Wire Line
	11950 3500 11950 3400
Wire Wire Line
	12150 3500 12150 3400
Wire Wire Line
	12150 2750 12150 3200
Wire Wire Line
	11950 2850 11950 3200
Wire Wire Line
	11750 2950 11750 3200
Wire Wire Line
	12400 3500 12400 3400
Wire Wire Line
	12600 3500 12600 3400
Wire Wire Line
	12800 3500 12800 3400
Wire Wire Line
	12800 2750 12800 3200
Wire Wire Line
	12600 2850 12600 3200
Wire Wire Line
	12400 2950 12400 3200
Wire Wire Line
	2650 2950 13250 2950
Connection ~ 3300 2950
Connection ~ 3950 2950
Connection ~ 4600 2950
Connection ~ 5250 2950
Connection ~ 5900 2950
Connection ~ 6550 2950
Connection ~ 7200 2950
Connection ~ 7850 2950
Connection ~ 8500 2950
Connection ~ 9150 2950
Connection ~ 9800 2950
Connection ~ 10450 2950
Connection ~ 11100 2950
Connection ~ 11750 2950
Wire Wire Line
	2850 2850 13900 2850
Connection ~ 11950 2850
Connection ~ 11300 2850
Connection ~ 10650 2850
Connection ~ 10000 2850
Connection ~ 9350 2850
Connection ~ 8700 2850
Connection ~ 8050 2850
Connection ~ 7400 2850
Connection ~ 6750 2850
Connection ~ 6100 2850
Connection ~ 5450 2850
Connection ~ 4800 2850
Connection ~ 4150 2850
Connection ~ 3500 2850
Wire Wire Line
	3050 2750 14550 2750
Connection ~ 3700 2750
Connection ~ 4350 2750
Connection ~ 5000 2750
Connection ~ 5650 2750
Connection ~ 6300 2750
Connection ~ 6950 2750
Connection ~ 7600 2750
Connection ~ 8250 2750
Connection ~ 8900 2750
Connection ~ 9550 2750
Connection ~ 10200 2750
Connection ~ 10850 2750
Connection ~ 11500 2750
Connection ~ 12150 2750
Connection ~ 12400 2950
Connection ~ 12600 2850
Connection ~ 12800 2750
Wire Wire Line
	3500 3900 3500 4000
Wire Wire Line
	4150 3900 4150 4000
Wire Wire Line
	4800 3900 4800 4000
Wire Wire Line
	5450 3900 5450 4000
Wire Wire Line
	6100 3900 6100 4000
Wire Wire Line
	6750 3900 6750 4000
Wire Wire Line
	7400 3900 7400 4000
Wire Wire Line
	8050 3900 8050 4000
Wire Wire Line
	8700 3900 8700 4000
Wire Wire Line
	9350 3900 9350 4000
Wire Wire Line
	10000 3900 10000 4000
Wire Wire Line
	10650 3900 10650 4000
Wire Wire Line
	11300 3900 11300 4000
Wire Wire Line
	11950 3900 11950 4000
Wire Wire Line
	12600 3900 12600 4000
Wire Wire Line
	13250 2950 13250 4000
Wire Wire Line
	13900 2850 13900 4000
Wire Wire Line
	14550 4000 14550 2750
Text Label 2850 4000 0    60   ~ 0
R0
Text Label 3500 4000 0    60   ~ 0
R1
Text Label 4150 4000 0    60   ~ 0
R2
Text Label 4800 4000 0    60   ~ 0
R3
Text Label 5450 4000 0    60   ~ 0
R4
Text Label 6100 4000 0    60   ~ 0
R5
Text Label 6750 4000 0    60   ~ 0
R6
Text Label 7400 4000 0    60   ~ 0
R7
Text Label 8050 4000 0    60   ~ 0
R8
Text Label 8700 4000 0    60   ~ 0
R9
Text Label 9350 4000 0    60   ~ 0
R10
Text Label 10000 4000 0    60   ~ 0
R11
Text Label 10650 4000 0    60   ~ 0
R12
Text Label 11300 4000 0    60   ~ 0
R13
Text Label 11950 4000 0    60   ~ 0
R14
Text Label 12600 4000 0    60   ~ 0
R15
Text Label 13250 4000 0    60   ~ 0
C0
Text Label 13900 4000 0    60   ~ 0
C1
Text Label 14550 4000 0    60   ~ 0
C2
Text Label 17600 4600 0    60   ~ 0
SCL
Text Label 17600 4700 0    60   ~ 0
SDA
$Comp
L +3.3V #PWR?
U 1 1 5AA8C69F
P 16900 2600
F 0 "#PWR?" H 16900 2450 50  0001 C CNN
F 1 "+3.3V" H 16900 2740 50  0000 C CNN
F 2 "" H 16900 2600 50  0000 C CNN
F 3 "" H 16900 2600 50  0000 C CNN
	1    16900 2600
	1    0    0    -1  
$EndComp
$Comp
L GND #PWR?
U 1 1 5AA8C6A5
P 17850 3150
F 0 "#PWR?" H 17850 2900 50  0001 C CNN
F 1 "GND" H 17850 3000 50  0000 C CNN
F 2 "" H 17850 3150 50  0001 C CNN
F 3 "" H 17850 3150 50  0001 C CNN
	1    17850 3150
	-1   0    0    -1  
$EndComp
$Comp
L GND #PWR?
U 1 1 5AA8C6AB
P 16900 6000
F 0 "#PWR?" H 16900 5750 50  0001 C CNN
F 1 "GND" H 16900 5850 50  0000 C CNN
F 2 "" H 16900 6000 50  0001 C CNN
F 3 "" H 16900 6000 50  0001 C CNN
	1    16900 6000
	-1   0    0    -1  
$EndComp
$Comp
L MCP23017 U?
U 1 1 5AA8C6B1
P 16900 4300
F 0 "U?" H 16800 5325 50  0000 R CNN
F 1 "MCP23017" H 16800 5250 50  0000 R CNN
F 2 "Housings_DIP:DIP-28_W7.62mm" H 16950 3350 50  0001 L CNN
F 3 "" H 17150 5300 50  0001 C CNN
	1    16900 4300
	1    0    0    -1  
$EndComp
$Comp
L KSW K?
U 1 1 5AA8C6B8
P 16200 3500
F 0 "K?" H 16100 3550 60  0000 C CNN
F 1 "KSW" H 16350 3550 60  0000 C CNN
F 2 "chordboard-footprints:CHERRY_PCB_100H" H 16200 3500 60  0001 C CNN
F 3 "" H 16200 3500 60  0001 C CNN
	1    16200 3500
	-1   0    0    -1  
$EndComp
$Comp
L KSW K?
U 1 1 5AA8C6BF
P 16200 3600
F 0 "K?" H 16100 3650 60  0000 C CNN
F 1 "KSW" H 16350 3650 60  0000 C CNN
F 2 "chordboard-footprints:CHERRY_PCB_100H" H 17150 3650 60  0001 C CNN
F 3 "" H 16200 3600 60  0001 C CNN
	1    16200 3600
	-1   0    0    -1  
$EndComp
$Comp
L KSW K?
U 1 1 5AA8C6C6
P 16200 3700
F 0 "K?" H 16100 3750 60  0000 C CNN
F 1 "KSW" H 16350 3750 60  0000 C CNN
F 2 "chordboard-footprints:CHERRY_PCB_100H" H 17150 3750 60  0001 C CNN
F 3 "" H 16200 3700 60  0001 C CNN
	1    16200 3700
	-1   0    0    -1  
$EndComp
$Comp
L KSW K?
U 1 1 5AA8C6CD
P 16200 3800
F 0 "K?" H 16100 3850 60  0000 C CNN
F 1 "KSW" H 16350 3850 60  0000 C CNN
F 2 "chordboard-footprints:CHERRY_PCB_100H" H 17150 3850 60  0001 C CNN
F 3 "" H 16200 3800 60  0001 C CNN
	1    16200 3800
	-1   0    0    -1  
$EndComp
$Comp
L C C?
U 1 1 5AA8C6D4
P 17850 2950
F 0 "C?" H 17860 3020 50  0000 L CNN
F 1 "0.1uF" H 17860 2870 50  0000 L CNN
F 2 "chordboard-footprints:C_0805_HandSoldering" H 17850 2950 50  0001 C CNN
F 3 "" H 17850 2950 50  0001 C CNN
	1    17850 2950
	-1   0    0    -1  
$EndComp
$Comp
L KSW K?
U 1 1 5AA8C6DB
P 16200 3900
F 0 "K?" H 16100 3950 60  0000 C CNN
F 1 "KSW" H 16350 3950 60  0000 C CNN
F 2 "chordboard-footprints:CHERRY_PCB_100H" H 17150 3950 60  0001 C CNN
F 3 "" H 16200 3900 60  0001 C CNN
	1    16200 3900
	-1   0    0    -1  
$EndComp
$Comp
L KSW K?
U 1 1 5AA8C6E2
P 16200 4000
F 0 "K?" H 16100 4050 60  0000 C CNN
F 1 "KSW" H 16350 4050 60  0000 C CNN
F 2 "chordboard-footprints:CHERRY_PCB_100H" H 17150 4050 60  0001 C CNN
F 3 "" H 16200 4000 60  0001 C CNN
	1    16200 4000
	-1   0    0    -1  
$EndComp
$Comp
L KSW K?
U 1 1 5AA8C6E9
P 16200 4100
F 0 "K?" H 16100 4150 60  0000 C CNN
F 1 "KSW" H 16350 4150 60  0000 C CNN
F 2 "chordboard-footprints:CHERRY_PCB_100H" H 17150 4150 60  0001 C CNN
F 3 "" H 16200 4100 60  0001 C CNN
	1    16200 4100
	-1   0    0    -1  
$EndComp
$Comp
L KSW K?
U 1 1 5AA8C6F0
P 16200 4400
F 0 "K?" H 16100 4450 60  0000 C CNN
F 1 "KSW" H 16350 4450 60  0000 C CNN
F 2 "chordboard-footprints:CHERRY_PCB_100H" H 17150 4450 60  0001 C CNN
F 3 "" H 16200 4400 60  0001 C CNN
	1    16200 4400
	-1   0    0    -1  
$EndComp
$Comp
L KSW K?
U 1 1 5AA8C6F7
P 16200 4500
F 0 "K?" H 16100 4550 60  0000 C CNN
F 1 "KSW" H 16350 4550 60  0000 C CNN
F 2 "chordboard-footprints:CHERRY_PCB_100H" H 17150 4550 60  0001 C CNN
F 3 "" H 16200 4500 60  0001 C CNN
	1    16200 4500
	-1   0    0    -1  
$EndComp
$Comp
L KSW K?
U 1 1 5AA8C6FE
P 16200 4600
F 0 "K?" H 16100 4650 60  0000 C CNN
F 1 "KSW" H 16350 4650 60  0000 C CNN
F 2 "chordboard-footprints:CHERRY_PCB_100H" H 17150 4650 60  0001 C CNN
F 3 "" H 16200 4600 60  0001 C CNN
	1    16200 4600
	-1   0    0    -1  
$EndComp
$Comp
L KSW K?
U 1 1 5AA8C705
P 16200 4700
F 0 "K?" H 16100 4750 60  0000 C CNN
F 1 "KSW" H 16350 4750 60  0000 C CNN
F 2 "chordboard-footprints:CHERRY_PCB_100H" H 17150 4750 60  0001 C CNN
F 3 "" H 16200 4700 60  0001 C CNN
	1    16200 4700
	-1   0    0    -1  
$EndComp
$Comp
L KSW K?
U 1 1 5AA8C70C
P 16200 4800
F 0 "K?" H 16100 4850 60  0000 C CNN
F 1 "KSW" H 16350 4850 60  0000 C CNN
F 2 "chordboard-footprints:CHERRY_PCB_100H" H 17150 4850 60  0001 C CNN
F 3 "" H 16200 4800 60  0001 C CNN
	1    16200 4800
	-1   0    0    -1  
$EndComp
$Comp
L KSW K?
U 1 1 5AA8C713
P 16200 4900
F 0 "K?" H 16100 4950 60  0000 C CNN
F 1 "KSW" H 16350 4950 60  0000 C CNN
F 2 "chordboard-footprints:CHERRY_PCB_100H" H 17150 4950 60  0001 C CNN
F 3 "" H 16200 4900 60  0001 C CNN
	1    16200 4900
	-1   0    0    -1  
$EndComp
$Comp
L KSW K?
U 1 1 5AA8C71A
P 16200 4200
F 0 "K?" H 16100 4250 60  0000 C CNN
F 1 "KSW" H 16350 4250 60  0000 C CNN
F 2 "chordboard-footprints:CHERRY_PCB_100H" H 17150 4250 60  0001 C CNN
F 3 "" H 16200 4200 60  0001 C CNN
	1    16200 4200
	-1   0    0    -1  
$EndComp
$Comp
L KSW K?
U 1 1 5AA8C721
P 16200 5000
F 0 "K?" H 16100 5050 60  0000 C CNN
F 1 "KSW" H 16350 5050 60  0000 C CNN
F 2 "chordboard-footprints:CHERRY_PCB_100H" H 17150 5050 60  0001 C CNN
F 3 "" H 16200 5000 60  0001 C CNN
	1    16200 5000
	-1   0    0    -1  
$EndComp
$Comp
L KSW K?
U 1 1 5AA8C728
P 16200 5100
F 0 "K?" H 16100 5150 60  0000 C CNN
F 1 "KSW" H 16350 5150 60  0000 C CNN
F 2 "chordboard-footprints:CHERRY_PCB_100H" H 17150 5150 60  0001 C CNN
F 3 "" H 16200 5100 60  0001 C CNN
	1    16200 5100
	-1   0    0    -1  
$EndComp
$Comp
L GND #PWR?
U 1 1 5AA8C72F
P 17600 5350
F 0 "#PWR?" H 17600 5100 50  0001 C CNN
F 1 "GND" H 17600 5200 50  0000 C CNN
F 2 "" H 17600 5350 50  0001 C CNN
F 3 "" H 17600 5350 50  0001 C CNN
	1    17600 5350
	-1   0    0    -1  
$EndComp
Wire Wire Line
	17400 4700 17600 4700
Wire Wire Line
	17400 4600 17600 4600
Wire Wire Line
	16900 5300 16900 6000
Wire Wire Line
	17500 2700 17500 3500
Wire Wire Line
	17500 3500 17400 3500
Wire Wire Line
	16900 2600 16900 3300
Connection ~ 16000 4900
Connection ~ 16000 4800
Connection ~ 16000 4700
Connection ~ 16000 4600
Connection ~ 16000 4500
Connection ~ 16000 4400
Connection ~ 16000 4200
Connection ~ 16000 4100
Connection ~ 16000 4000
Connection ~ 16000 3900
Connection ~ 16000 3800
Connection ~ 16000 3700
Connection ~ 16000 3600
Wire Wire Line
	16000 3500 16000 5350
Connection ~ 16900 2700
Wire Wire Line
	16000 5350 16900 5350
Connection ~ 16900 5350
Wire Wire Line
	17850 2700 17850 2850
Wire Wire Line
	17850 3050 17850 3150
Wire Wire Line
	16400 3500 16350 3500
Wire Wire Line
	16050 3500 16000 3500
Wire Wire Line
	16400 3600 16350 3600
Wire Wire Line
	16050 3600 16000 3600
Wire Wire Line
	16400 3700 16350 3700
Wire Wire Line
	16400 3800 16350 3800
Wire Wire Line
	16050 3700 16000 3700
Wire Wire Line
	16050 3800 16000 3800
Wire Wire Line
	16400 3900 16350 3900
Wire Wire Line
	16050 3900 16000 3900
Wire Wire Line
	16400 4000 16350 4000
Wire Wire Line
	16050 4000 16000 4000
Wire Wire Line
	16400 4100 16350 4100
Wire Wire Line
	16400 4200 16350 4200
Wire Wire Line
	16050 4100 16000 4100
Wire Wire Line
	16050 4200 16000 4200
Wire Wire Line
	16400 4400 16350 4400
Wire Wire Line
	16050 4400 16000 4400
Wire Wire Line
	16400 4500 16350 4500
Wire Wire Line
	16050 4500 16000 4500
Wire Wire Line
	16400 4600 16350 4600
Wire Wire Line
	16400 4700 16350 4700
Wire Wire Line
	16050 4600 16000 4600
Wire Wire Line
	16050 4700 16000 4700
Wire Wire Line
	16400 4800 16350 4800
Wire Wire Line
	16050 4800 16000 4800
Wire Wire Line
	16400 4900 16350 4900
Wire Wire Line
	16050 4900 16000 4900
Wire Wire Line
	16400 5000 16350 5000
Wire Wire Line
	16400 5100 16350 5100
Connection ~ 17500 2700
Wire Wire Line
	17400 5000 17600 5000
Wire Wire Line
	17600 5100 17400 5100
Wire Wire Line
	16900 2700 17850 2700
Wire Wire Line
	16050 5000 16000 5000
Connection ~ 16000 5000
Wire Wire Line
	16050 5100 16000 5100
Connection ~ 16000 5100
Connection ~ 17600 5100
Wire Wire Line
	17400 4900 17600 4900
Wire Wire Line
	17600 4900 17600 5350
Connection ~ 17600 5000
$EndSCHEMATC
