(export (version D)
  (design
    (source /home/afshar/src/chordboard/hard/v10/wifi.sch)
    (date "Sat 24 Mar 2018 01:25:37 AM GMT")
    (tool "Eeschema 4.0.7")
    (sheet (number 1) (name /) (tstamps /)
      (title_block
        (title)
        (company)
        (rev)
        (date)
        (source wifi.sch)
        (comment (number 1) (value ""))
        (comment (number 2) (value ""))
        (comment (number 3) (value ""))
        (comment (number 4) (value "")))))
  (components
    (comp (ref C2)
      (value 0.1uF)
      (footprint chordboard-footprints:C_0805_HandSoldering)
      (libsource (lib chordboard-components) (part C))
      (sheetpath (names /) (tstamps /))
      (tstamp 5AA7149C))
    (comp (ref C3)
      (value 10uF)
      (footprint Capacitors_SMD:C_1206_HandSoldering)
      (libsource (lib chordboard-components) (part C))
      (sheetpath (names /) (tstamps /))
      (tstamp 5AA714A3))
    (comp (ref U2)
      (value LD1117S33TR)
      (footprint TO_SOT_Packages_SMD:SOT-223)
      (libsource (lib wifi-cache) (part LD1117S33TR))
      (sheetpath (names /) (tstamps /))
      (tstamp 5AA714AA))
    (comp (ref C1)
      (value 10uF)
      (footprint Capacitors_SMD:C_1206_HandSoldering)
      (libsource (lib chordboard-components) (part C))
      (sheetpath (names /) (tstamps /))
      (tstamp 5AA714B7))
    (comp (ref RW4)
      (value 10K)
      (footprint Resistors_SMD:R_0805_HandSoldering)
      (libsource (lib chordboard-components) (part R))
      (sheetpath (names /) (tstamps /))
      (tstamp 5AA714DB))
    (comp (ref RW3)
      (value 10K)
      (footprint Resistors_SMD:R_0805_HandSoldering)
      (libsource (lib chordboard-components) (part R))
      (sheetpath (names /) (tstamps /))
      (tstamp 5AA714E2))
    (comp (ref RW2)
      (value 10K)
      (footprint Resistors_SMD:R_0805_HandSoldering)
      (libsource (lib chordboard-components) (part R))
      (sheetpath (names /) (tstamps /))
      (tstamp 5AA714E9))
    (comp (ref J1)
      (value CONN_01X06)
      (footprint Pin_Headers:Pin_Header_Straight_1x06_Pitch2.54mm)
      (libsource (lib wifi-cache) (part CONN_01X06))
      (sheetpath (names /) (tstamps /))
      (tstamp 5AA714FF))
    (comp (ref S2)
      (value WRST)
      (footprint chordboard-footprints:SW_PUSH_6mm)
      (libsource (lib chordboard-components) (part SPST))
      (sheetpath (names /) (tstamps /))
      (tstamp 5AA71506))
    (comp (ref S1)
      (value WPGM)
      (footprint chordboard-footprints:SW_PUSH_6mm)
      (libsource (lib chordboard-components) (part SPST))
      (sheetpath (names /) (tstamps /))
      (tstamp 5AA7150D))
    (comp (ref J2)
      (value CONN_01X02)
      (footprint Pin_Headers:Pin_Header_Straight_1x02_Pitch2.54mm)
      (libsource (lib wifi-cache) (part CONN_01X02))
      (sheetpath (names /) (tstamps /))
      (tstamp 5AA47B60))
    (comp (ref U1)
      (value ESP32-WROOM)
      (footprint ESP32-footprints-Lib:ESP32-WROOM)
      (libsource (lib ESP32-footprints-Shem-Lib) (part ESP32-WROOM))
      (sheetpath (names /) (tstamps /))
      (tstamp 5AB57E9D))
    (comp (ref RW1)
      (value 470)
      (footprint Resistors_SMD:R_0805_HandSoldering)
      (libsource (lib chordboard-components) (part R))
      (sheetpath (names /) (tstamps /))
      (tstamp 5AB58ED5))
    (comp (ref RW5)
      (value 470)
      (footprint Resistors_SMD:R_0805_HandSoldering)
      (libsource (lib chordboard-components) (part R))
      (sheetpath (names /) (tstamps /))
      (tstamp 5AB58FD7))
    (comp (ref C5)
      (value 0.1uF)
      (footprint Capacitors_SMD:C_0805_HandSoldering)
      (libsource (lib chordboard-components) (part C))
      (sheetpath (names /) (tstamps /))
      (tstamp 5AB592E8))
    (comp (ref C6)
      (value 0.1uF)
      (footprint Capacitors_SMD:C_0805_HandSoldering)
      (libsource (lib chordboard-components) (part C))
      (sheetpath (names /) (tstamps /))
      (tstamp 5AB594A2))
    (comp (ref LED1)
      (value LED)
      (footprint LEDs:LED_1206_HandSoldering)
      (libsource (lib chordboard-components) (part LED))
      (sheetpath (names /) (tstamps /))
      (tstamp 5AB5ABDB))
    (comp (ref RW6)
      (value 200)
      (footprint Resistors_SMD:R_0805_HandSoldering)
      (libsource (lib chordboard-components) (part R))
      (sheetpath (names /) (tstamps /))
      (tstamp 5AB5ACC7)))
  (libparts
    (libpart (lib chordboard-components) (part C)
      (description "Unpolarized capacitor")
      (footprints
        (fp C_*))
      (fields
        (field (name Reference) C)
        (field (name Value) C))
      (pins
        (pin (num 1) (name ~) (type passive))
        (pin (num 2) (name ~) (type passive))))
    (libpart (lib wifi-cache) (part CONN_01X02)
      (footprints
        (fp Pin_Header_Straight_1X*)
        (fp Pin_Header_Angled_1X*)
        (fp Socket_Strip_Straight_1X*)
        (fp Socket_Strip_Angled_1X*))
      (fields
        (field (name Reference) J)
        (field (name Value) CONN_01X02))
      (pins
        (pin (num 1) (name P1) (type passive))
        (pin (num 2) (name P2) (type passive))))
    (libpart (lib wifi-cache) (part CONN_01X06)
      (footprints
        (fp Pin_Header_Straight_1X*)
        (fp Pin_Header_Angled_1X*)
        (fp Socket_Strip_Straight_1X*)
        (fp Socket_Strip_Angled_1X*))
      (fields
        (field (name Reference) J)
        (field (name Value) CONN_01X06))
      (pins
        (pin (num 1) (name P1) (type passive))
        (pin (num 2) (name P2) (type passive))
        (pin (num 3) (name P3) (type passive))
        (pin (num 4) (name P4) (type passive))
        (pin (num 5) (name P5) (type passive))
        (pin (num 6) (name P6) (type passive))))
    (libpart (lib ESP32-footprints-Shem-Lib) (part ESP32-WROOM)
      (fields
        (field (name Reference) U)
        (field (name Value) ESP32-WROOM)
        (field (name Footprint) ESP32-footprints-Lib:ESP32-WROOM))
      (pins
        (pin (num 1) (name GND) (type power_out))
        (pin (num 2) (name 3V3) (type power_in))
        (pin (num 3) (name EN) (type input))
        (pin (num 4) (name SENSOR_VP) (type input))
        (pin (num 5) (name SENSOR_VN) (type input))
        (pin (num 6) (name IO34) (type BiDi))
        (pin (num 7) (name IO35) (type BiDi))
        (pin (num 8) (name IO32) (type BiDi))
        (pin (num 9) (name IO33) (type BiDi))
        (pin (num 10) (name IO25) (type BiDi))
        (pin (num 11) (name IO26) (type BiDi))
        (pin (num 12) (name IO27) (type BiDi))
        (pin (num 13) (name IO14) (type BiDi))
        (pin (num 14) (name IO12) (type BiDi))
        (pin (num 15) (name GND) (type power_in))
        (pin (num 16) (name IO13) (type BiDi))
        (pin (num 17) (name SD2) (type BiDi))
        (pin (num 18) (name SD3) (type BiDi))
        (pin (num 19) (name CMD) (type BiDi))
        (pin (num 20) (name CLK) (type input))
        (pin (num 21) (name SDO) (type BiDi))
        (pin (num 22) (name SD1) (type BiDi))
        (pin (num 23) (name IO15) (type BiDi))
        (pin (num 24) (name IO2) (type BiDi))
        (pin (num 25) (name IO0) (type BiDi))
        (pin (num 26) (name IO4) (type input))
        (pin (num 27) (name IO16) (type BiDi))
        (pin (num 28) (name IO17) (type BiDi))
        (pin (num 29) (name IO5) (type BiDi))
        (pin (num 30) (name IO18) (type input))
        (pin (num 31) (name IO19) (type BiDi))
        (pin (num 32) (name NC) (type NotConnected))
        (pin (num 33) (name IO21) (type BiDi))
        (pin (num 34) (name RXD0) (type BiDi))
        (pin (num 35) (name TXD0) (type BiDi))
        (pin (num 36) (name IO22) (type BiDi))
        (pin (num 37) (name IO23) (type BiDi))
        (pin (num 38) (name GND) (type power_in))
        (pin (num 39) (name GND-PAD) (type power_in))))
    (libpart (lib wifi-cache) (part LD1117S33TR)
      (aliases
        (alias LD1117S33CTR)
        (alias LD1117S12TR)
        (alias LD1117S12CTR)
        (alias LD1117S18TR)
        (alias LD1117S18CTR)
        (alias LD1117S25TR)
        (alias LD1117S25CTR)
        (alias LD1117S50TR)
        (alias LD1117S50CTR))
      (footprints
        (fp SOT223))
      (fields
        (field (name Reference) U)
        (field (name Value) LD1117S33TR)
        (field (name Footprint) TO_SOT_Packages_SMD:SOT-223))
      (pins
        (pin (num 1) (name GND) (type power_in))
        (pin (num 2) (name VO) (type power_out))
        (pin (num 3) (name VI) (type power_in))))
    (libpart (lib chordboard-components) (part LED)
      (footprints
        (fp "0603(1608m)_led")
        (fp "0402(1005m)_led"))
      (fields
        (field (name Reference) LED)
        (field (name Value) LED))
      (pins
        (pin (num 1) (name C) (type passive))
        (pin (num 2) (name A) (type passive))))
    (libpart (lib chordboard-components) (part R)
      (description "Resistor, small symbol")
      (footprints
        (fp R_*))
      (fields
        (field (name Reference) R)
        (field (name Value) R))
      (pins
        (pin (num 1) (name ~) (type passive))
        (pin (num 2) (name ~) (type passive))))
    (libpart (lib chordboard-components) (part SPST)
      (footprints
        (fp SPST_*))
      (fields
        (field (name Reference) S)
        (field (name Value) SPST))
      (pins
        (pin (num 1) (name ~) (type passive))
        (pin (num 2) (name ~) (type passive)))))
  (libraries
    (library (logical chordboard-components)
      (uri /home/afshar/src/chordboard/hard/chordboard-kicad-libs/chordboard-components.lib))
    (library (logical wifi-cache)
      (uri /home/afshar/src/chordboard/hard/v10/wifi-cache.lib))
    (library (logical ESP32-footprints-Shem-Lib)
      (uri /home/afshar/src/kicad-libraries/ESP32-kiCAD-Footprints/ESP32-Footprints/ESP32-footprints-Shem-Lib.lib)))
  (nets
    (net (code 1) (name "Net-(U1-Pad15)")
      (node (ref U1) (pin 15)))
    (net (code 2) (name "Net-(U1-Pad31)")
      (node (ref U1) (pin 31)))
    (net (code 3) (name "Net-(U1-Pad12)")
      (node (ref U1) (pin 12)))
    (net (code 4) (name "Net-(U1-Pad22)")
      (node (ref U1) (pin 22)))
    (net (code 5) (name "Net-(U1-Pad32)")
      (node (ref U1) (pin 32)))
    (net (code 6) (name "Net-(U1-Pad13)")
      (node (ref U1) (pin 13)))
    (net (code 7) (name /WIFI_15)
      (node (ref U1) (pin 23)))
    (net (code 8) (name "Net-(U1-Pad33)")
      (node (ref U1) (pin 33)))
    (net (code 9) (name "Net-(U1-Pad14)")
      (node (ref U1) (pin 14)))
    (net (code 10) (name "Net-(U1-Pad21)")
      (node (ref U1) (pin 21)))
    (net (code 11) (name "Net-(U1-Pad16)")
      (node (ref U1) (pin 16)))
    (net (code 12) (name "Net-(U1-Pad26)")
      (node (ref U1) (pin 26)))
    (net (code 13) (name "Net-(U1-Pad36)")
      (node (ref U1) (pin 36)))
    (net (code 14) (name "Net-(U1-Pad17)")
      (node (ref U1) (pin 17)))
    (net (code 15) (name "Net-(U1-Pad27)")
      (node (ref U1) (pin 27)))
    (net (code 16) (name "Net-(U1-Pad37)")
      (node (ref U1) (pin 37)))
    (net (code 17) (name "Net-(U1-Pad18)")
      (node (ref U1) (pin 18)))
    (net (code 18) (name "Net-(U1-Pad4)")
      (node (ref U1) (pin 4)))
    (net (code 19) (name +5V)
      (node (ref J1) (pin 4))
      (node (ref U2) (pin 3))
      (node (ref C2) (pin 1)))
    (net (code 20) (name /WIFI_PGM)
      (node (ref RW3) (pin 2))
      (node (ref U1) (pin 25))
      (node (ref RW1) (pin 2))
      (node (ref J2) (pin 1)))
    (net (code 21) (name /WIFI_RST)
      (node (ref RW2) (pin 2))
      (node (ref J2) (pin 2))
      (node (ref U1) (pin 3))
      (node (ref RW5) (pin 2)))
    (net (code 22) (name "Net-(U1-Pad28)")
      (node (ref U1) (pin 28)))
    (net (code 23) (name "Net-(U1-Pad5)")
      (node (ref U1) (pin 5)))
    (net (code 24) (name "Net-(U1-Pad7)")
      (node (ref U1) (pin 7)))
    (net (code 25) (name "Net-(U1-Pad8)")
      (node (ref U1) (pin 8)))
    (net (code 26) (name "Net-(U1-Pad9)")
      (node (ref U1) (pin 9)))
    (net (code 27) (name "Net-(U1-Pad10)")
      (node (ref U1) (pin 10)))
    (net (code 28) (name "Net-(U1-Pad20)")
      (node (ref U1) (pin 20)))
    (net (code 29) (name "Net-(U1-Pad30)")
      (node (ref U1) (pin 30)))
    (net (code 30) (name "Net-(U1-Pad11)")
      (node (ref U1) (pin 11)))
    (net (code 31) (name "Net-(RW6-Pad1)")
      (node (ref RW6) (pin 1))
      (node (ref U1) (pin 6)))
    (net (code 32) (name "Net-(LED1-Pad2)")
      (node (ref RW6) (pin 2))
      (node (ref LED1) (pin 2)))
    (net (code 33) (name "Net-(U1-Pad38)")
      (node (ref U1) (pin 38)))
    (net (code 34) (name "Net-(U1-Pad19)")
      (node (ref U1) (pin 19)))
    (net (code 35) (name "Net-(U1-Pad29)")
      (node (ref U1) (pin 29)))
    (net (code 36) (name "Net-(U1-Pad39)")
      (node (ref U1) (pin 39)))
    (net (code 37) (name "Net-(C5-Pad2)")
      (node (ref C5) (pin 2))
      (node (ref S1) (pin 2))
      (node (ref RW1) (pin 1)))
    (net (code 38) (name "Net-(C6-Pad2)")
      (node (ref C6) (pin 2))
      (node (ref S2) (pin 2))
      (node (ref RW5) (pin 1)))
    (net (code 39) (name /WIFI_02)
      (node (ref U1) (pin 24))
      (node (ref RW4) (pin 2)))
    (net (code 40) (name "Net-(J1-Pad1)")
      (node (ref J1) (pin 1)))
    (net (code 41) (name /WIFI_TXD)
      (node (ref U1) (pin 35))
      (node (ref J1) (pin 2)))
    (net (code 42) (name /WIFI_RXD)
      (node (ref J1) (pin 3))
      (node (ref U1) (pin 34)))
    (net (code 43) (name GND)
      (node (ref C1) (pin 2))
      (node (ref U1) (pin 1))
      (node (ref J1) (pin 6))
      (node (ref S2) (pin 1))
      (node (ref S1) (pin 1))
      (node (ref LED1) (pin 1))
      (node (ref C5) (pin 1))
      (node (ref RW4) (pin 1))
      (node (ref C2) (pin 2))
      (node (ref U2) (pin 1))
      (node (ref C3) (pin 2))
      (node (ref C6) (pin 1)))
    (net (code 44) (name +3.3VA)
      (node (ref U1) (pin 2))
      (node (ref RW3) (pin 1))
      (node (ref RW2) (pin 1))
      (node (ref C3) (pin 1))
      (node (ref U2) (pin 2))
      (node (ref C1) (pin 1)))
    (net (code 45) (name "Net-(J1-Pad5)")
      (node (ref J1) (pin 5)))))