EESchema Schematic File Version 4
LIBS:chordboard-cache
EELAYER 26 0
EELAYER END
$Descr A4 11693 8268
encoding utf-8
Sheet 3 3
Title ""
Date ""
Rev ""
Comp ""
Comment1 ""
Comment2 ""
Comment3 ""
Comment4 ""
$EndDescr
$Comp
L Interface_Expansion:MCP23017_SP MCP?
U 1 1 5C7FDD06
P 2850 10200
F 0 "MCP?" H 2850 11478 50  0000 C CNN
F 1 "MCP23017_SP" H 2850 11387 50  0000 C CNN
F 2 "Package_DIP:DIP-28_W7.62mm" H 3050 9200 50  0001 L CNN
F 3 "http://ww1.microchip.com/downloads/en/DeviceDoc/20001952C.pdf" H 3050 9100 50  0001 L CNN
	1    2850 10200
	1    0    0    -1  
$EndComp
$Comp
L chordboard-components:MAX7219 MAX?
U 1 1 5C7FDD0D
P 9250 11400
F 0 "MAX?" H 9250 11300 60  0000 C CNN
F 1 "MAX7219" H 9800 12050 60  0000 C CNN
F 2 "Package_DIP:DIP-24_W7.62mm" H 9250 11200 40  0001 L CIN
F 3 "https://datasheets.maximintegrated.com/en/ds/MAX7219-MAX7221.pdf" H 9250 11100 40  0001 L CIN
	1    9250 11400
	-1   0    0    -1  
$EndComp
Text Label 2150 9500 2    50   ~ 0
T_SCL
Text Label 2150 9400 2    50   ~ 0
T_SDA
Text Label 2850 8850 0    50   ~ 0
T_3V3
Text Label 2850 11300 0    50   ~ 0
T_GND
Text Label 8550 9800 2    50   ~ 0
T_5V
Wire Wire Line
	8950 10000 8950 9900
$Comp
L chordboard-components:R R?
U 1 1 5C7FDD1A
P 8750 9900
F 0 "R?" V 8554 9900 50  0000 C CNN
F 1 "R" V 8645 9900 50  0000 C CNN
F 2 "Resistor_THT:R_Axial_DIN0204_L3.6mm_D1.6mm_P5.08mm_Horizontal" H 8750 9900 50  0001 C CNN
F 3 "" H 8750 9900 50  0001 C CNN
	1    8750 9900
	0    -1   1    0   
$EndComp
Wire Wire Line
	8550 11500 8550 11550
Wire Wire Line
	8450 11550 8450 11500
Text Label 8650 11550 0    50   ~ 0
T_GND
Wire Wire Line
	8550 11550 8450 11550
Wire Wire Line
	8550 11550 8650 11550
Connection ~ 8550 11550
Wire Wire Line
	8550 9800 8550 9900
Wire Wire Line
	9350 10300 9400 10300
Wire Wire Line
	9400 10300 9400 9600
Wire Wire Line
	9400 9600 7050 9600
Wire Wire Line
	9350 10400 9450 10400
Wire Wire Line
	9450 10400 9450 9550
Wire Wire Line
	9450 9550 7000 9550
Wire Wire Line
	9350 10500 9500 10500
Wire Wire Line
	9500 10500 9500 9500
Wire Wire Line
	9500 9500 6950 9500
Wire Wire Line
	9350 10600 9550 10600
Wire Wire Line
	9550 10600 9550 9450
Wire Wire Line
	9600 9400 9600 10700
Wire Wire Line
	9600 10700 9350 10700
Wire Wire Line
	9350 10800 9650 10800
Wire Wire Line
	9650 10800 9650 9350
Wire Wire Line
	8950 9900 8850 9900
Wire Wire Line
	8650 9900 8550 9900
Connection ~ 8550 9900
Wire Wire Line
	8550 9900 8550 10000
Text Label 9350 11150 0    50   ~ 0
LED_DAT
Text Label 9350 11250 0    50   ~ 0
LED_CLK
$Comp
L chordboard-components:MAX7219 MAX?
U 1 1 5C7FDD3D
P 9400 8450
F 0 "MAX?" H 9400 8350 60  0000 C CNN
F 1 "MAX7219" H 9950 9100 60  0000 C CNN
F 2 "Package_DIP:DIP-24_W7.62mm" H 9400 8250 40  0001 L CIN
F 3 "https://datasheets.maximintegrated.com/en/ds/MAX7219-MAX7221.pdf" H 9400 8150 40  0001 L CIN
	1    9400 8450
	-1   0    0    -1  
$EndComp
Text Label 8700 6850 2    50   ~ 0
T_5V
Wire Wire Line
	9100 7050 9100 6950
$Comp
L chordboard-components:R R?
U 1 1 5C7FDD46
P 8900 6950
F 0 "R?" V 8704 6950 50  0000 C CNN
F 1 "R" V 8795 6950 50  0000 C CNN
F 2 "Resistor_THT:R_Axial_DIN0204_L3.6mm_D1.6mm_P5.08mm_Horizontal" H 8900 6950 50  0001 C CNN
F 3 "" H 8900 6950 50  0001 C CNN
	1    8900 6950
	0    -1   1    0   
$EndComp
Wire Wire Line
	8700 8550 8700 8600
Wire Wire Line
	8600 8600 8600 8550
Text Label 8800 8600 0    50   ~ 0
T_GND
Wire Wire Line
	8700 8600 8600 8600
Wire Wire Line
	8700 8600 8800 8600
Connection ~ 8700 8600
Wire Wire Line
	8700 6850 8700 6950
Wire Wire Line
	9500 7350 9550 7350
Wire Wire Line
	9550 7350 9550 6650
Wire Wire Line
	9550 6650 7150 6650
Wire Wire Line
	9500 7450 9600 7450
Wire Wire Line
	9600 7450 9600 6600
Wire Wire Line
	9600 6600 7100 6600
Wire Wire Line
	9500 7550 9650 7550
Wire Wire Line
	9650 7550 9650 6550
Wire Wire Line
	9650 6550 7050 6550
Wire Wire Line
	9500 7650 9700 7650
Wire Wire Line
	9700 7650 9700 6500
Wire Wire Line
	9700 6500 7000 6500
Wire Wire Line
	9750 6450 9750 7750
Wire Wire Line
	9750 7750 9500 7750
Wire Wire Line
	9500 7850 9800 7850
Wire Wire Line
	9800 7850 9800 6400
Wire Wire Line
	9800 6400 6900 6400
Wire Wire Line
	9100 6950 9000 6950
Wire Wire Line
	8800 6950 8700 6950
Connection ~ 8700 6950
Wire Wire Line
	8700 6950 8700 7050
Text Label 9500 8300 0    50   ~ 0
LED_CLK
$Comp
L Interface_Expansion:MCP23017_SP MCP?
U 1 1 5C7FDD6A
P 2800 4550
F 0 "MCP?" H 2800 5828 50  0000 C CNN
F 1 "MCP23017_SP" H 2800 5737 50  0000 C CNN
F 2 "Package_DIP:DIP-28_W7.62mm" H 3000 3550 50  0001 L CNN
F 3 "http://ww1.microchip.com/downloads/en/DeviceDoc/20001952C.pdf" H 3000 3450 50  0001 L CNN
	1    2800 4550
	1    0    0    -1  
$EndComp
Text Label 2100 3850 2    50   ~ 0
T_SCL
Text Label 2100 3750 2    50   ~ 0
T_SDA
Text Label 2800 3450 0    50   ~ 0
T_3V3
Text Label 2800 5650 0    50   ~ 0
T_GND
$Comp
L Interface_Expansion:MCP23017_SP MCP?
U 1 1 5C7FDD75
P 2800 7250
F 0 "MCP?" H 2800 8528 50  0000 C CNN
F 1 "MCP23017_SP" H 2800 8437 50  0000 C CNN
F 2 "Package_DIP:DIP-28_W7.62mm" H 3000 6250 50  0001 L CNN
F 3 "http://ww1.microchip.com/downloads/en/DeviceDoc/20001952C.pdf" H 3000 6150 50  0001 L CNN
	1    2800 7250
	1    0    0    -1  
$EndComp
Text Label 2100 6550 2    50   ~ 0
T_SCL
Text Label 2100 6450 2    50   ~ 0
T_SDA
Text Label 2800 6150 0    50   ~ 0
T_3V3
Text Label 2800 8350 0    50   ~ 0
T_GND
Text Label 2150 10300 2    50   ~ 0
T_3V3
Text Label 2100 4650 2    50   ~ 0
T_3V3
Text Label 2100 7350 2    50   ~ 0
T_3V3
Text Label 9450 5750 0    50   ~ 0
LED_CLK
Wire Wire Line
	8650 4400 8650 4500
Wire Wire Line
	8750 4400 8650 4400
Wire Wire Line
	9050 4400 8950 4400
Wire Wire Line
	9750 5300 9750 3850
Wire Wire Line
	9450 5300 9750 5300
Wire Wire Line
	9700 5200 9450 5200
Wire Wire Line
	9700 3900 9700 5200
Wire Wire Line
	9650 5100 9650 3950
Wire Wire Line
	9450 5100 9650 5100
Wire Wire Line
	9600 5000 9600 4000
Wire Wire Line
	9450 5000 9600 5000
Wire Wire Line
	9550 4900 9550 4050
Wire Wire Line
	9450 4900 9550 4900
Wire Wire Line
	9500 4800 9500 4100
Wire Wire Line
	9450 4800 9500 4800
Connection ~ 8650 4400
Wire Wire Line
	8650 4300 8650 4400
Text Label 8750 6050 0    50   ~ 0
T_GND
Wire Wire Line
	8550 6050 8550 6000
Wire Wire Line
	8650 6050 8750 6050
Wire Wire Line
	8650 6050 8550 6050
Connection ~ 8650 6050
Wire Wire Line
	8650 6000 8650 6050
$Comp
L chordboard-components:R R?
U 1 1 5C7FDD9B
P 8850 4400
F 0 "R?" V 8654 4400 50  0000 C CNN
F 1 "R" V 8745 4400 50  0000 C CNN
F 2 "Resistor_THT:R_Axial_DIN0204_L3.6mm_D1.6mm_P5.08mm_Horizontal" H 8850 4400 50  0001 C CNN
F 3 "" H 8850 4400 50  0001 C CNN
	1    8850 4400
	0    -1   1    0   
$EndComp
Wire Wire Line
	9050 4500 9050 4400
Text Label 8650 4300 2    50   ~ 0
T_5V
$Comp
L chordboard-components:MAX7219 MAX?
U 1 1 5C7FDDA4
P 9350 5900
F 0 "MAX?" H 9350 5800 60  0000 C CNN
F 1 "MAX7219" H 9900 6550 60  0000 C CNN
F 2 "Package_DIP:DIP-24_W7.62mm" H 9350 5700 40  0001 L CIN
F 3 "https://datasheets.maximintegrated.com/en/ds/MAX7219-MAX7221.pdf" H 9350 5600 40  0001 L CIN
	1    9350 5900
	-1   0    0    -1  
$EndComp
Wire Wire Line
	8650 4400 8050 4400
$Comp
L Device:C_Small C?
U 1 1 5C7FDDAC
P 8050 4550
F 0 "C?" H 8142 4596 50  0000 L CNN
F 1 "C_Small" H 8142 4505 50  0000 L CNN
F 2 "Capacitor_THT:C_Disc_D3.0mm_W2.0mm_P2.50mm" H 8050 4550 50  0001 C CNN
F 3 "~" H 8050 4550 50  0001 C CNN
	1    8050 4550
	-1   0    0    -1  
$EndComp
$Comp
L Device:CP_Small C?
U 1 1 5C7FDDB3
P 7850 4550
F 0 "C?" H 7938 4596 50  0000 L CNN
F 1 "CP_Small" H 7938 4505 50  0000 L CNN
F 2 "Capacitor_THT:CP_Radial_D5.0mm_P2.00mm" H 7850 4550 50  0001 C CNN
F 3 "~" H 7850 4550 50  0001 C CNN
	1    7850 4550
	-1   0    0    -1  
$EndComp
Wire Wire Line
	8050 4450 8050 4400
Wire Wire Line
	8050 4400 7850 4400
Wire Wire Line
	7850 4400 7850 4450
Connection ~ 8050 4400
Wire Wire Line
	8050 4650 8050 4700
Wire Wire Line
	8050 4700 7850 4700
Wire Wire Line
	7850 4700 7850 4650
Text Label 7800 4700 2    50   ~ 0
T_GND
Wire Wire Line
	7800 4700 7850 4700
Connection ~ 7850 4700
Wire Wire Line
	8700 6950 8100 6950
$Comp
L Device:C_Small C?
U 1 1 5C7FDDC5
P 8100 7100
F 0 "C?" H 8192 7146 50  0000 L CNN
F 1 "C_Small" H 8192 7055 50  0000 L CNN
F 2 "Capacitor_THT:C_Disc_D3.0mm_W2.0mm_P2.50mm" H 8100 7100 50  0001 C CNN
F 3 "~" H 8100 7100 50  0001 C CNN
	1    8100 7100
	-1   0    0    -1  
$EndComp
$Comp
L Device:CP_Small C?
U 1 1 5C7FDDCC
P 7900 7100
F 0 "C?" H 7988 7146 50  0000 L CNN
F 1 "CP_Small" H 7988 7055 50  0000 L CNN
F 2 "Capacitor_THT:CP_Radial_D5.0mm_P2.00mm" H 7900 7100 50  0001 C CNN
F 3 "~" H 7900 7100 50  0001 C CNN
	1    7900 7100
	-1   0    0    -1  
$EndComp
Wire Wire Line
	8100 7000 8100 6950
Wire Wire Line
	8100 6950 7900 6950
Wire Wire Line
	7900 6950 7900 7000
Connection ~ 8100 6950
Wire Wire Line
	8100 7200 8100 7250
Wire Wire Line
	8100 7250 7900 7250
Wire Wire Line
	7900 7250 7900 7200
Text Label 7850 7250 2    50   ~ 0
T_GND
Wire Wire Line
	7850 7250 7900 7250
Connection ~ 7900 7250
Wire Wire Line
	8550 9900 7950 9900
$Comp
L Device:C_Small C?
U 1 1 5C7FDDDE
P 7950 10050
F 0 "C?" H 8042 10096 50  0000 L CNN
F 1 "C_Small" H 8042 10005 50  0000 L CNN
F 2 "Capacitor_THT:C_Disc_D3.0mm_W2.0mm_P2.50mm" H 7950 10050 50  0001 C CNN
F 3 "~" H 7950 10050 50  0001 C CNN
	1    7950 10050
	-1   0    0    -1  
$EndComp
$Comp
L Device:CP_Small C?
U 1 1 5C7FDDE5
P 7750 10050
F 0 "C?" H 7838 10096 50  0000 L CNN
F 1 "CP_Small" H 7838 10005 50  0000 L CNN
F 2 "Capacitor_THT:CP_Radial_D5.0mm_P2.00mm" H 7750 10050 50  0001 C CNN
F 3 "~" H 7750 10050 50  0001 C CNN
	1    7750 10050
	-1   0    0    -1  
$EndComp
Wire Wire Line
	7950 9950 7950 9900
Wire Wire Line
	7950 9900 7750 9900
Wire Wire Line
	7750 9900 7750 9950
Connection ~ 7950 9900
Wire Wire Line
	7950 10150 7950 10200
Wire Wire Line
	7950 10200 7750 10200
Wire Wire Line
	7750 10200 7750 10150
Text Label 7700 10200 2    50   ~ 0
T_GND
Wire Wire Line
	7700 10200 7750 10200
Connection ~ 7750 10200
Wire Wire Line
	2850 8850 2850 8900
Text Label 2800 3200 0    50   ~ 0
T_3V3
Text Label 2800 5900 0    50   ~ 0
T_3V3
Wire Wire Line
	2800 5900 2800 5950
Wire Wire Line
	2850 8900 3450 8900
$Comp
L Device:C_Small C?
U 1 1 5C7FDDFB
P 3450 9050
F 0 "C?" H 3542 9096 50  0000 L CNN
F 1 "C_Small" H 3542 9005 50  0000 L CNN
F 2 "Capacitor_THT:C_Disc_D3.0mm_W2.0mm_P2.50mm" H 3450 9050 50  0001 C CNN
F 3 "~" H 3450 9050 50  0001 C CNN
	1    3450 9050
	1    0    0    -1  
$EndComp
$Comp
L Device:CP_Small C?
U 1 1 5C7FDE02
P 3650 9050
F 0 "C?" H 3738 9096 50  0000 L CNN
F 1 "CP_Small" H 3738 9005 50  0000 L CNN
F 2 "Capacitor_THT:CP_Radial_D5.0mm_P2.00mm" H 3650 9050 50  0001 C CNN
F 3 "~" H 3650 9050 50  0001 C CNN
	1    3650 9050
	1    0    0    -1  
$EndComp
Wire Wire Line
	3450 8950 3450 8900
Wire Wire Line
	3450 8900 3650 8900
Wire Wire Line
	3650 8900 3650 8950
Connection ~ 3450 8900
Wire Wire Line
	3450 9150 3450 9200
Wire Wire Line
	3450 9200 3650 9200
Wire Wire Line
	3650 9200 3650 9150
Text Label 3700 9200 0    50   ~ 0
T_GND
Wire Wire Line
	3700 9200 3650 9200
Connection ~ 3650 9200
Connection ~ 2850 8900
Wire Wire Line
	2850 8900 2850 9100
Wire Wire Line
	2800 3200 2800 3250
Wire Wire Line
	2800 3250 3400 3250
$Comp
L Device:C_Small C?
U 1 1 5C7FDE17
P 3400 3400
F 0 "C?" H 3492 3446 50  0000 L CNN
F 1 "C_Small" H 3492 3355 50  0000 L CNN
F 2 "Capacitor_THT:C_Disc_D3.0mm_W2.0mm_P2.50mm" H 3400 3400 50  0001 C CNN
F 3 "~" H 3400 3400 50  0001 C CNN
	1    3400 3400
	1    0    0    -1  
$EndComp
$Comp
L Device:CP_Small C?
U 1 1 5C7FDE1E
P 3600 3400
F 0 "C?" H 3688 3446 50  0000 L CNN
F 1 "CP_Small" H 3688 3355 50  0000 L CNN
F 2 "Capacitor_THT:CP_Radial_D5.0mm_P2.00mm" H 3600 3400 50  0001 C CNN
F 3 "~" H 3600 3400 50  0001 C CNN
	1    3600 3400
	1    0    0    -1  
$EndComp
Wire Wire Line
	3400 3300 3400 3250
Wire Wire Line
	3400 3250 3600 3250
Wire Wire Line
	3600 3250 3600 3300
Connection ~ 3400 3250
Wire Wire Line
	3400 3500 3400 3550
Wire Wire Line
	3400 3550 3600 3550
Wire Wire Line
	3600 3550 3600 3500
Text Label 3650 3550 0    50   ~ 0
T_GND
Wire Wire Line
	3650 3550 3600 3550
Connection ~ 3600 3550
Connection ~ 2800 3250
Wire Wire Line
	2800 3250 2800 3450
Wire Wire Line
	2800 5950 3400 5950
$Comp
L Device:C_Small C?
U 1 1 5C7FDE32
P 3400 6100
F 0 "C?" H 3492 6146 50  0000 L CNN
F 1 "C_Small" H 3492 6055 50  0000 L CNN
F 2 "Capacitor_THT:C_Disc_D3.0mm_W2.0mm_P2.50mm" H 3400 6100 50  0001 C CNN
F 3 "~" H 3400 6100 50  0001 C CNN
	1    3400 6100
	1    0    0    -1  
$EndComp
$Comp
L Device:CP_Small C?
U 1 1 5C7FDE39
P 3600 6100
F 0 "C?" H 3688 6146 50  0000 L CNN
F 1 "CP_Small" H 3688 6055 50  0000 L CNN
F 2 "Capacitor_THT:CP_Radial_D5.0mm_P2.00mm" H 3600 6100 50  0001 C CNN
F 3 "~" H 3600 6100 50  0001 C CNN
	1    3600 6100
	1    0    0    -1  
$EndComp
Wire Wire Line
	3400 6000 3400 5950
Wire Wire Line
	3400 5950 3600 5950
Wire Wire Line
	3600 5950 3600 6000
Connection ~ 3400 5950
Wire Wire Line
	3400 6200 3400 6250
Wire Wire Line
	3400 6250 3600 6250
Wire Wire Line
	3600 6250 3600 6200
Text Label 3650 6250 0    50   ~ 0
T_GND
Wire Wire Line
	3650 6250 3600 6250
Connection ~ 3600 6250
Connection ~ 2800 5950
Wire Wire Line
	2800 5950 2800 6150
Text Label 8050 11150 2    50   ~ 0
LED1_OUT
Text Label 9350 11350 0    50   ~ 0
LED_CS
Text Label 9500 8400 0    50   ~ 0
LED_CS
Text Label 9450 5850 0    50   ~ 0
LED_CS
Text Label 9450 5650 0    50   ~ 0
LED1_OUT
Text Label 8150 5650 2    50   ~ 0
LED3_OUT
Text Label 9500 8200 0    50   ~ 0
LED3_OUT
Text Label 8200 8200 2    50   ~ 0
LED2_OUT
Wire Wire Line
	6850 6350 9850 6350
Wire Wire Line
	9850 6350 9850 7950
Wire Wire Line
	9850 7950 9500 7950
Wire Wire Line
	9500 8050 9900 8050
Wire Wire Line
	9900 8050 9900 6300
Wire Wire Line
	9900 6300 6800 6300
Wire Wire Line
	9450 5400 9800 5400
Wire Wire Line
	9800 5400 9800 3800
Wire Wire Line
	9800 3800 6050 3800
Wire Wire Line
	6000 3750 9850 3750
Wire Wire Line
	9850 3750 9850 5500
Wire Wire Line
	9850 5500 9450 5500
Wire Wire Line
	9700 9300 9700 10900
Wire Wire Line
	9700 10900 9350 10900
Wire Wire Line
	9750 9250 9750 11000
Wire Wire Line
	9750 11000 9350 11000
$Comp
L Connector_Generic:Conn_02x32_Odd_Even J?
U 1 1 5C7FDE64
P 5450 6450
F 0 "J?" H 5500 8167 50  0000 C CNN
F 1 "Conn_02x32_Odd_Even" H 5500 8076 50  0000 C CNN
F 2 "Connector_PinHeader_2.54mm:PinHeader_2x32_P2.54mm_Vertical" H 5450 6450 50  0001 C CNN
F 3 "~" H 5450 6450 50  0001 C CNN
	1    5450 6450
	1    0    0    -1  
$EndComp
$Comp
L Connector_Generic:Conn_02x32_Odd_Even J?
U 1 1 5C7FDE6B
P 5450 11000
F 0 "J?" H 5500 12717 50  0000 C CNN
F 1 "Conn_02x32_Odd_Even" H 5500 12626 50  0000 C CNN
F 2 "Connector_PinHeader_2.54mm:PinHeader_2x32_P2.54mm_Vertical" H 5450 11000 50  0001 C CNN
F 3 "~" H 5450 11000 50  0001 C CNN
	1    5450 11000
	1    0    0    -1  
$EndComp
Wire Wire Line
	8200 8050 5750 8050
Wire Wire Line
	5750 7950 8200 7950
Wire Wire Line
	8200 7850 5750 7850
Wire Wire Line
	5750 7750 8200 7750
Wire Wire Line
	8200 7650 5750 7650
Wire Wire Line
	5750 7550 8200 7550
Wire Wire Line
	8200 7450 5750 7450
Wire Wire Line
	5750 7350 8200 7350
Wire Wire Line
	7150 6650 7150 7250
Wire Wire Line
	7150 7250 5750 7250
Wire Wire Line
	7100 6600 7100 7150
Wire Wire Line
	7100 7150 5750 7150
Wire Wire Line
	5750 7050 7050 7050
Wire Wire Line
	7050 7050 7050 6550
Wire Wire Line
	7000 6500 7000 6950
Wire Wire Line
	7000 6950 5750 6950
Wire Wire Line
	6950 6450 9750 6450
Wire Wire Line
	6950 6450 6950 6850
Wire Wire Line
	6950 6850 5750 6850
Wire Wire Line
	6900 6400 6900 6750
Wire Wire Line
	6900 6750 5750 6750
Wire Wire Line
	6850 6350 6850 6650
Wire Wire Line
	6850 6650 5750 6650
Wire Wire Line
	6800 6300 6800 6550
Wire Wire Line
	6800 6550 5750 6550
Wire Wire Line
	5750 6450 6750 6450
Wire Wire Line
	6750 6450 6750 5500
Wire Wire Line
	6750 5500 8150 5500
Wire Wire Line
	8150 5400 6700 5400
Wire Wire Line
	6700 5400 6700 6350
Wire Wire Line
	6700 6350 5750 6350
Wire Wire Line
	5750 6250 6650 6250
Wire Wire Line
	6650 6250 6650 5300
Wire Wire Line
	6650 5300 8150 5300
Wire Wire Line
	8150 5200 6600 5200
Wire Wire Line
	6600 5200 6600 6150
Wire Wire Line
	6600 6150 5750 6150
Wire Wire Line
	5750 6050 6550 6050
Wire Wire Line
	6550 6050 6550 5100
Wire Wire Line
	6550 5100 8150 5100
Wire Wire Line
	8150 5000 6500 5000
Wire Wire Line
	6500 5000 6500 5950
Wire Wire Line
	6500 5950 5750 5950
Wire Wire Line
	5750 5850 6450 5850
Wire Wire Line
	6450 5850 6450 4900
Wire Wire Line
	6450 4900 8150 4900
Wire Wire Line
	8150 4800 6400 4800
Wire Wire Line
	6400 4800 6400 5750
Wire Wire Line
	6400 5750 5750 5750
Wire Wire Line
	6350 4100 6350 5650
Wire Wire Line
	6350 5650 5750 5650
Wire Wire Line
	6350 4100 9500 4100
Wire Wire Line
	6300 4050 6300 5550
Wire Wire Line
	6300 5550 5750 5550
Wire Wire Line
	6300 4050 9550 4050
Wire Wire Line
	5750 5450 6250 5450
Wire Wire Line
	6250 5450 6250 4000
Wire Wire Line
	6250 4000 9600 4000
Wire Wire Line
	6200 3950 6200 5350
Wire Wire Line
	6200 5350 5750 5350
Wire Wire Line
	6200 3950 9650 3950
Wire Wire Line
	5750 5250 6150 5250
Wire Wire Line
	6150 5250 6150 3900
Wire Wire Line
	6150 3900 9700 3900
Wire Wire Line
	6100 3850 6100 5150
Wire Wire Line
	6100 5150 5750 5150
Wire Wire Line
	6100 3850 9750 3850
Wire Wire Line
	6050 3800 6050 5050
Wire Wire Line
	6050 5050 5750 5050
Wire Wire Line
	5750 4950 6000 4950
Wire Wire Line
	6000 4950 6000 3750
Wire Wire Line
	8050 11000 5750 11000
Wire Wire Line
	5750 10900 8050 10900
Wire Wire Line
	8050 10800 5750 10800
Wire Wire Line
	5750 10700 8050 10700
Wire Wire Line
	8050 10600 5750 10600
Wire Wire Line
	5750 10500 8050 10500
Wire Wire Line
	8050 10400 5750 10400
Wire Wire Line
	5750 10300 8050 10300
Wire Wire Line
	7050 9600 7050 10200
Wire Wire Line
	7050 10200 5750 10200
Wire Wire Line
	5750 10100 7000 10100
Wire Wire Line
	7000 10100 7000 9550
Wire Wire Line
	6950 9500 6950 10000
Wire Wire Line
	6950 10000 5750 10000
Wire Wire Line
	5750 9900 6900 9900
Wire Wire Line
	6900 9900 6900 9450
Wire Wire Line
	6900 9450 9550 9450
Wire Wire Line
	5750 9800 6850 9800
Wire Wire Line
	6850 9800 6850 9400
Wire Wire Line
	6850 9400 9600 9400
Wire Wire Line
	6800 9350 6800 9700
Wire Wire Line
	6800 9700 5750 9700
Wire Wire Line
	6800 9350 9650 9350
Wire Wire Line
	5750 9600 6750 9600
Wire Wire Line
	6750 9600 6750 9300
Wire Wire Line
	6750 9300 9700 9300
Wire Wire Line
	6700 9250 6700 9500
Wire Wire Line
	6700 9500 5750 9500
Wire Wire Line
	6700 9250 9750 9250
Wire Wire Line
	3500 8050 5250 8050
Wire Wire Line
	5250 7950 3500 7950
Wire Wire Line
	3500 7850 5250 7850
Wire Wire Line
	5250 7750 3500 7750
Wire Wire Line
	3500 7650 5250 7650
Wire Wire Line
	3500 7550 5250 7550
Wire Wire Line
	5250 7450 3500 7450
Wire Wire Line
	3500 7350 5250 7350
Wire Wire Line
	5250 7250 3750 7250
Wire Wire Line
	3750 7250 3750 7150
Wire Wire Line
	3750 7150 3500 7150
Wire Wire Line
	3500 7050 3800 7050
Wire Wire Line
	3800 7050 3800 7150
Wire Wire Line
	3800 7150 5250 7150
Wire Wire Line
	3500 6950 3850 6950
Wire Wire Line
	3850 6950 3850 7050
Wire Wire Line
	3850 7050 5250 7050
Wire Wire Line
	5250 6950 3900 6950
Wire Wire Line
	3900 6950 3900 6850
Wire Wire Line
	3900 6850 3500 6850
Wire Wire Line
	3500 6750 3950 6750
Wire Wire Line
	3950 6750 3950 6850
Wire Wire Line
	3950 6850 5250 6850
Wire Wire Line
	5250 6750 4000 6750
Wire Wire Line
	4000 6750 4000 6650
Wire Wire Line
	4000 6650 3500 6650
Wire Wire Line
	3500 6550 4050 6550
Wire Wire Line
	4050 6550 4050 6650
Wire Wire Line
	4050 6650 5250 6650
Wire Wire Line
	5250 6550 4100 6550
Wire Wire Line
	4100 6550 4100 6450
Wire Wire Line
	4100 6450 3500 6450
Wire Wire Line
	3500 5350 4150 5350
Wire Wire Line
	4150 5350 4150 6450
Wire Wire Line
	4150 6450 5250 6450
Wire Wire Line
	5250 6350 4200 6350
Wire Wire Line
	4200 6350 4200 5250
Wire Wire Line
	4200 5250 3500 5250
Wire Wire Line
	3500 5150 4250 5150
Wire Wire Line
	4250 5150 4250 6250
Wire Wire Line
	4250 6250 5250 6250
Wire Wire Line
	5250 6150 4300 6150
Wire Wire Line
	4300 6150 4300 5050
Wire Wire Line
	4300 5050 3500 5050
Wire Wire Line
	3500 4950 4350 4950
Wire Wire Line
	4350 4950 4350 6050
Wire Wire Line
	4350 6050 5250 6050
Wire Wire Line
	5250 5950 4400 5950
Wire Wire Line
	4400 5950 4400 4850
Wire Wire Line
	4400 4850 3500 4850
Wire Wire Line
	3500 4750 4450 4750
Wire Wire Line
	4450 4750 4450 5850
Wire Wire Line
	4450 5850 5250 5850
Wire Wire Line
	5250 5750 4500 5750
Wire Wire Line
	4500 5750 4500 4650
Wire Wire Line
	4500 4650 3500 4650
Wire Wire Line
	3500 4450 4550 4450
Wire Wire Line
	4550 4450 4550 5650
Wire Wire Line
	4550 5650 5250 5650
Wire Wire Line
	5250 5550 4600 5550
Wire Wire Line
	4600 5550 4600 4350
Wire Wire Line
	4600 4350 3500 4350
Wire Wire Line
	3500 4250 4650 4250
Wire Wire Line
	4650 4250 4650 5450
Wire Wire Line
	4650 5450 5250 5450
Wire Wire Line
	5250 5350 4700 5350
Wire Wire Line
	4700 5350 4700 4150
Wire Wire Line
	4700 4150 3500 4150
Wire Wire Line
	3500 4050 4750 4050
Wire Wire Line
	4750 4050 4750 5250
Wire Wire Line
	4750 5250 5250 5250
Wire Wire Line
	5250 5150 4800 5150
Wire Wire Line
	4800 5150 4800 3950
Wire Wire Line
	4800 3950 3500 3950
Wire Wire Line
	3500 3850 4850 3850
Wire Wire Line
	4850 3850 4850 5050
Wire Wire Line
	4850 5050 5250 5050
Wire Wire Line
	3500 3750 4900 3750
Wire Wire Line
	4900 3750 4900 4950
Wire Wire Line
	4900 4950 5250 4950
Wire Wire Line
	3550 11000 5250 11000
Wire Wire Line
	5250 10900 3550 10900
Wire Wire Line
	3550 10800 5250 10800
Wire Wire Line
	5250 10700 3550 10700
Wire Wire Line
	3550 10600 5250 10600
Wire Wire Line
	3550 10500 5250 10500
Wire Wire Line
	5250 10400 3550 10400
Wire Wire Line
	3550 10300 5250 10300
Wire Wire Line
	5250 10200 3900 10200
Wire Wire Line
	3900 10200 3900 10100
Wire Wire Line
	3900 10100 3550 10100
Wire Wire Line
	5250 10100 3950 10100
Wire Wire Line
	3950 10100 3950 10000
Wire Wire Line
	3950 10000 3550 10000
Wire Wire Line
	3550 9900 4000 9900
Wire Wire Line
	4000 9900 4000 10000
Wire Wire Line
	4000 10000 5250 10000
Wire Wire Line
	5250 9900 4050 9900
Wire Wire Line
	4050 9900 4050 9800
Wire Wire Line
	4050 9800 3550 9800
Wire Wire Line
	3550 9700 4100 9700
Wire Wire Line
	4100 9700 4100 9800
Wire Wire Line
	4100 9800 5250 9800
Wire Wire Line
	5250 9700 4150 9700
Wire Wire Line
	4150 9700 4150 9600
Wire Wire Line
	4150 9600 3550 9600
Wire Wire Line
	3550 9500 4200 9500
Wire Wire Line
	4200 9500 4200 9600
Wire Wire Line
	4200 9600 5250 9600
Wire Wire Line
	5250 9500 4250 9500
Wire Wire Line
	4250 9500 4250 9400
Wire Wire Line
	4250 9400 3550 9400
Text Label 5250 11100 2    50   ~ 0
RE1A
Text Label 5250 11200 2    50   ~ 0
RE1B
Text Label 5250 11300 2    50   ~ 0
RE2A
Text Label 5250 11400 2    50   ~ 0
RE2B
Text Label 5250 11500 2    50   ~ 0
RE3A
Text Label 5250 11600 2    50   ~ 0
RE3B
Text Label 5250 11700 2    50   ~ 0
RE4A
Text Label 5250 11800 2    50   ~ 0
RE4B
Text Label 5250 11900 2    50   ~ 0
RE5A
Text Label 5250 12000 2    50   ~ 0
RE5B
$EndSCHEMATC
