EESchema Schematic File Version 2
LIBS:chordboard-components
LIBS:ESP32-footprints-Shem-Lib
LIBS:wifi-cache
EELAYER 25 0
EELAYER END
$Descr A4 11693 8268
encoding utf-8
Sheet 1 1
Title ""
Date ""
Rev ""
Comp ""
Comment1 ""
Comment2 ""
Comment3 ""
Comment4 ""
$EndDescr
$Comp
L +3.3VA #PWR01
U 1 1 5AA7147E
P 2900 2200
F 0 "#PWR01" H 2900 2050 50  0001 C CNN
F 1 "+3.3VA" H 2900 2340 50  0000 C CNN
F 2 "" H 2900 2200 50  0001 C CNN
F 3 "" H 2900 2200 50  0001 C CNN
	1    2900 2200
	1    0    0    -1  
$EndComp
$Comp
L +3.3VA #PWR02
U 1 1 5AA71484
P 3750 2300
F 0 "#PWR02" H 3750 2150 50  0001 C CNN
F 1 "+3.3VA" H 3750 2440 50  0000 C CNN
F 2 "" H 3750 2300 50  0001 C CNN
F 3 "" H 3750 2300 50  0001 C CNN
	1    3750 2300
	1    0    0    -1  
$EndComp
$Comp
L +3.3VA #PWR03
U 1 1 5AA7148A
P 8750 2450
F 0 "#PWR03" H 8750 2300 50  0001 C CNN
F 1 "+3.3VA" H 8750 2590 50  0000 C CNN
F 2 "" H 8750 2450 50  0001 C CNN
F 3 "" H 8750 2450 50  0001 C CNN
	1    8750 2450
	1    0    0    -1  
$EndComp
$Comp
L GND #PWR04
U 1 1 5AA71490
P 8250 3300
F 0 "#PWR04" H 8250 3050 50  0001 C CNN
F 1 "GND" H 8250 3150 50  0000 C CNN
F 2 "" H 8250 3300 50  0001 C CNN
F 3 "" H 8250 3300 50  0001 C CNN
	1    8250 3300
	-1   0    0    -1  
$EndComp
$Comp
L +5V #PWR05
U 1 1 5AA71496
P 7750 2450
F 0 "#PWR05" H 7750 2300 50  0001 C CNN
F 1 "+5V" H 7750 2590 50  0000 C CNN
F 2 "" H 7750 2450 50  0001 C CNN
F 3 "" H 7750 2450 50  0001 C CNN
	1    7750 2450
	1    0    0    -1  
$EndComp
$Comp
L C C2
U 1 1 5AA7149C
P 7750 2950
F 0 "C2" H 7760 3020 50  0000 L CNN
F 1 "0.1uF" H 7760 2870 50  0000 L CNN
F 2 "chordboard-footprints:C_0805_HandSoldering" H 7750 2950 50  0001 C CNN
F 3 "" H 7750 2950 50  0001 C CNN
	1    7750 2950
	1    0    0    -1  
$EndComp
$Comp
L C C3
U 1 1 5AA714A3
P 8750 2950
F 0 "C3" H 8760 3020 50  0000 L CNN
F 1 "10uF" H 8760 2870 50  0000 L CNN
F 2 "Capacitors_SMD:C_1206_HandSoldering" H 8750 2950 50  0001 C CNN
F 3 "" H 8750 2950 50  0001 C CNN
	1    8750 2950
	1    0    0    -1  
$EndComp
$Comp
L LD1117S33TR U2
U 1 1 5AA714AA
P 8250 2800
F 0 "U2" H 8250 3050 50  0000 C CNN
F 1 "LD1117S33TR" H 8250 3000 50  0000 C CNN
F 2 "TO_SOT_Packages_SMD:SOT-223" H 8250 2900 50  0001 C CNN
F 3 "" H 8250 2800 50  0001 C CNN
	1    8250 2800
	1    0    0    -1  
$EndComp
$Comp
L C C1
U 1 1 5AA714B7
P 3050 2550
F 0 "C1" H 3060 2620 50  0000 L CNN
F 1 "10uF" H 3060 2470 50  0000 L CNN
F 2 "Capacitors_SMD:C_1206_HandSoldering" H 3050 2550 50  0001 C CNN
F 3 "" H 3050 2550 50  0001 C CNN
	1    3050 2550
	1    0    0    -1  
$EndComp
$Comp
L GND #PWR06
U 1 1 5AA714BE
P 9700 4900
F 0 "#PWR06" H 9700 4650 50  0001 C CNN
F 1 "GND" H 9700 4750 50  0000 C CNN
F 2 "" H 9700 4900 50  0001 C CNN
F 3 "" H 9700 4900 50  0001 C CNN
	1    9700 4900
	1    0    0    -1  
$EndComp
Text Label 9800 4250 2    60   ~ 0
WIFI_RXD
Text Label 9800 4150 2    60   ~ 0
WIFI_TXD
Text Label 6700 4550 2    60   ~ 0
WIFI_RST
Text Label 6700 4200 2    60   ~ 0
WIFI_PGM
$Comp
L GND #PWR07
U 1 1 5AA714C8
P 7500 4900
F 0 "#PWR07" H 7500 4650 50  0001 C CNN
F 1 "GND" H 7500 4750 50  0000 C CNN
F 2 "" H 7500 4900 50  0001 C CNN
F 3 "" H 7500 4900 50  0001 C CNN
	1    7500 4900
	1    0    0    -1  
$EndComp
$Comp
L GND #PWR08
U 1 1 5AA714CE
P 2900 3400
F 0 "#PWR08" H 2900 3150 50  0001 C CNN
F 1 "GND" H 2900 3250 50  0000 C CNN
F 2 "" H 2900 3400 50  0001 C CNN
F 3 "" H 2900 3400 50  0001 C CNN
	1    2900 3400
	1    0    0    -1  
$EndComp
$Comp
L R RW4
U 1 1 5AA714DB
P 2700 2950
F 0 "RW4" V 2750 3050 50  0000 L CNN
F 1 "10K" V 2700 2900 50  0000 L CNN
F 2 "Resistors_SMD:R_0805_HandSoldering" H 2700 2950 50  0001 C CNN
F 3 "" H 2700 2950 50  0001 C CNN
	1    2700 2950
	0    1    1    0   
$EndComp
$Comp
L R RW3
U 1 1 5AA714E2
P 2700 2800
F 0 "RW3" V 2750 2900 50  0000 L CNN
F 1 "10K" V 2700 2750 50  0000 L CNN
F 2 "Resistors_SMD:R_0805_HandSoldering" H 2700 2800 50  0001 C CNN
F 3 "" H 2700 2800 50  0001 C CNN
	1    2700 2800
	0    1    1    0   
$EndComp
$Comp
L R RW2
U 1 1 5AA714E9
P 2700 2650
F 0 "RW2" V 2750 2750 50  0000 L CNN
F 1 "10K" V 2700 2600 50  0000 L CNN
F 2 "Resistors_SMD:R_0805_HandSoldering" H 2700 2650 50  0001 C CNN
F 3 "" H 2700 2650 50  0001 C CNN
	1    2700 2650
	0    1    1    0   
$EndComp
Text Label 2450 2950 2    60   ~ 0
WIFI_02
Text Label 2450 2800 2    60   ~ 0
WIFI_PGM
Text Label 5050 4500 3    60   ~ 0
WIFI_15
Text Label 5150 4500 3    60   ~ 0
WIFI_02
Text Label 2450 2650 2    60   ~ 0
WIFI_RST
$Comp
L CONN_01X06 J1
U 1 1 5AA714FF
P 10000 4300
F 0 "J1" H 10000 4650 50  0000 C CNN
F 1 "CONN_01X06" V 10100 4300 50  0000 C CNN
F 2 "Pin_Headers:Pin_Header_Straight_1x06_Pitch2.54mm" H 10000 4300 50  0001 C CNN
F 3 "" H 10000 4300 50  0001 C CNN
	1    10000 4300
	1    0    0    -1  
$EndComp
$Comp
L SPST S2
U 1 1 5AA71506
P 7200 4550
F 0 "S2" H 7190 4635 60  0000 C CNN
F 1 "WRST" H 7200 4455 60  0000 C CNN
F 2 "chordboard-footprints:SW_PUSH_6mm" H 7200 4550 60  0001 C CNN
F 3 "" H 7200 4550 60  0001 C CNN
	1    7200 4550
	-1   0    0    1   
$EndComp
$Comp
L SPST S1
U 1 1 5AA7150D
P 7200 4200
F 0 "S1" H 7190 4285 60  0000 C CNN
F 1 "WPGM" H 7200 4105 60  0000 C CNN
F 2 "chordboard-footprints:SW_PUSH_6mm" H 7200 4200 60  0001 C CNN
F 3 "" H 7200 4200 60  0001 C CNN
	1    7200 4200
	-1   0    0    1   
$EndComp
Text Label 5600 3900 0    60   ~ 0
WIFI_PGM
Text Label 5600 3000 0    60   ~ 0
WIFI_RXD
Text Label 5600 2900 0    60   ~ 0
WIFI_TXD
Text Label 3750 2950 2    60   ~ 0
WIFI_RST
$Comp
L GND #PWR09
U 1 1 5AA7151A
P 3750 4300
F 0 "#PWR09" H 3750 4050 50  0001 C CNN
F 1 "GND" H 3750 4150 50  0000 C CNN
F 2 "" H 3750 4300 50  0001 C CNN
F 3 "" H 3750 4300 50  0001 C CNN
	1    3750 4300
	1    0    0    -1  
$EndComp
Wire Wire Line
	2900 2950 2900 3400
Wire Wire Line
	2900 2950 2800 2950
Wire Wire Line
	2900 2200 2900 2800
Wire Wire Line
	2900 2800 2800 2800
Wire Wire Line
	2900 2650 2800 2650
Connection ~ 2900 2800
Connection ~ 2900 2650
Wire Wire Line
	2450 2650 2600 2650
Wire Wire Line
	2450 2800 2600 2800
Wire Wire Line
	2450 2950 2600 2950
Wire Wire Line
	7350 4200 7500 4200
Wire Wire Line
	7500 4200 7500 4900
Wire Wire Line
	7500 4550 7350 4550
Connection ~ 7500 4550
Wire Wire Line
	6950 4200 7050 4200
Wire Wire Line
	6950 4550 7050 4550
Wire Wire Line
	9800 4550 9700 4550
Wire Wire Line
	9700 4550 9700 4900
Wire Wire Line
	8750 2750 8650 2750
Wire Wire Line
	8750 2450 8750 2850
Wire Wire Line
	7750 2750 7850 2750
Wire Wire Line
	8250 3050 8250 3300
Wire Wire Line
	7750 3150 8750 3150
Wire Wire Line
	7750 3150 7750 3050
Wire Wire Line
	8750 3150 8750 3050
Connection ~ 8250 3150
Connection ~ 7750 2750
Connection ~ 8750 2750
Wire Wire Line
	7750 2450 7750 2850
$Comp
L +5V #PWR010
U 1 1 5AA47B1F
P 9800 4350
F 0 "#PWR010" H 9800 4200 50  0001 C CNN
F 1 "+5V" H 9800 4490 50  0000 C CNN
F 2 "" H 9800 4350 50  0001 C CNN
F 3 "" H 9800 4350 50  0001 C CNN
	1    9800 4350
	0    -1   -1   0   
$EndComp
$Comp
L CONN_01X02 J2
U 1 1 5AA47B60
P 10000 3650
F 0 "J2" H 10000 3800 50  0000 C CNN
F 1 "CONN_01X02" V 10100 3650 50  0000 C CNN
F 2 "Pin_Headers:Pin_Header_Straight_1x02_Pitch2.54mm" H 10000 3650 50  0001 C CNN
F 3 "" H 10000 3650 50  0001 C CNN
	1    10000 3650
	1    0    0    -1  
$EndComp
Text Label 9800 3700 2    60   ~ 0
WIFI_RST
Text Label 9800 3600 2    60   ~ 0
WIFI_PGM
$Comp
L ESP32-WROOM U1
U 1 1 5AB57E9D
P 4700 3450
F 0 "U1" H 4000 4700 60  0000 C CNN
F 1 "ESP32-WROOM" H 5200 4700 60  0000 C CNN
F 2 "ESP32-footprints-Lib:ESP32-WROOM" H 5050 4800 60  0001 C CNN
F 3 "" H 4250 3900 60  0001 C CNN
	1    4700 3450
	1    0    0    -1  
$EndComp
Wire Wire Line
	3750 4300 3750 4150
Wire Wire Line
	3750 2300 3750 2850
Wire Wire Line
	3050 2350 3750 2350
Connection ~ 3750 2350
Connection ~ 3750 2750
Wire Wire Line
	3050 2650 3050 3250
Wire Wire Line
	3050 2450 3050 2350
Connection ~ 3500 2350
$Comp
L R RW1
U 1 1 5AB58ED5
P 6850 4200
F 0 "RW1" V 6900 4300 50  0000 L CNN
F 1 "470" V 6850 4150 50  0000 L CNN
F 2 "Resistors_SMD:R_0805_HandSoldering" H 6850 4200 50  0001 C CNN
F 3 "" H 6850 4200 50  0001 C CNN
	1    6850 4200
	0    1    1    0   
$EndComp
$Comp
L R RW5
U 1 1 5AB58FD7
P 6850 4550
F 0 "RW5" V 6900 4650 50  0000 L CNN
F 1 "470" V 6850 4500 50  0000 L CNN
F 2 "Resistors_SMD:R_0805_HandSoldering" H 6850 4550 50  0001 C CNN
F 3 "" H 6850 4550 50  0001 C CNN
	1    6850 4550
	0    1    1    0   
$EndComp
Wire Wire Line
	6700 4550 6750 4550
Wire Wire Line
	6700 4200 6750 4200
$Comp
L C C5
U 1 1 5AB592E8
P 7150 4350
F 0 "C5" H 7160 4420 50  0000 L CNN
F 1 "0.1uF" H 7160 4270 50  0000 L CNN
F 2 "Capacitors_SMD:C_0805_HandSoldering" H 7150 4350 50  0001 C CNN
F 3 "" H 7150 4350 50  0001 C CNN
	1    7150 4350
	0    1    1    0   
$EndComp
Wire Wire Line
	7000 4200 7000 4350
Wire Wire Line
	7000 4350 7050 4350
Connection ~ 7000 4200
Wire Wire Line
	7250 4350 7500 4350
Connection ~ 7500 4350
$Comp
L C C6
U 1 1 5AB594A2
P 7150 4700
F 0 "C6" H 7160 4770 50  0000 L CNN
F 1 "0.1uF" H 7160 4620 50  0000 L CNN
F 2 "Capacitors_SMD:C_0805_HandSoldering" H 7150 4700 50  0001 C CNN
F 3 "" H 7150 4700 50  0001 C CNN
	1    7150 4700
	0    1    1    0   
$EndComp
Wire Wire Line
	7000 4550 7000 4700
Wire Wire Line
	7000 4700 7050 4700
Wire Wire Line
	7250 4700 7500 4700
Connection ~ 7000 4550
Connection ~ 7500 4700
Connection ~ 3050 3250
$Comp
L LED LED1
U 1 1 5AB5ABDB
P 3300 3250
F 0 "LED1" H 3250 3300 60  0000 R CNN
F 1 "LED" H 3350 3300 60  0000 L CNN
F 2 "LEDs:LED_1206_HandSoldering" H 3300 3250 60  0001 C CNN
F 3 "" H 3300 3250 60  0001 C CNN
	1    3300 3250
	-1   0    0    1   
$EndComp
$Comp
L R RW6
U 1 1 5AB5ACC7
P 3600 3250
F 0 "RW6" V 3650 3350 50  0000 L CNN
F 1 "200" V 3600 3200 50  0000 L CNN
F 2 "Resistors_SMD:R_0805_HandSoldering" H 3600 3250 50  0001 C CNN
F 3 "" H 3600 3250 50  0001 C CNN
	1    3600 3250
	0    1    1    0   
$EndComp
Wire Wire Line
	3700 3250 3750 3250
Wire Wire Line
	3500 3250 3450 3250
Wire Wire Line
	3150 3250 2900 3250
Connection ~ 2900 3250
$EndSCHEMATC
