G04 #@! TF.FileFunction,Copper,L2,Bot,Signal*
%FSLAX46Y46*%
G04 Gerber Fmt 4.6, Leading zero omitted, Abs format (unit mm)*
G04 Created by KiCad (PCBNEW 4.0.7) date Fri Mar 30 21:08:28 2018*
%MOMM*%
%LPD*%
G01*
G04 APERTURE LIST*
%ADD10C,0.100000*%
%ADD11C,1.600000*%
%ADD12R,1.600000X1.600000*%
%ADD13C,2.286000*%
%ADD14C,2.100000*%
%ADD15C,1.750000*%
%ADD16C,1.500000*%
%ADD17C,3.000000*%
%ADD18R,1.700000X2.000000*%
%ADD19R,1.250000X1.500000*%
%ADD20R,1.700000X1.700000*%
%ADD21O,1.700000X1.700000*%
%ADD22O,4.000000X4.000000*%
%ADD23R,1.700000X1.200000*%
%ADD24O,1.700000X1.200000*%
%ADD25C,5.400000*%
%ADD26C,0.600000*%
%ADD27C,1.800000*%
%ADD28R,1.800000X1.800000*%
%ADD29R,2.400000X0.600000*%
%ADD30C,2.000000*%
%ADD31R,0.900000X0.800000*%
%ADD32R,1.200000X1.200000*%
%ADD33R,1.500000X1.250000*%
%ADD34C,0.500000*%
%ADD35C,0.250000*%
G04 APERTURE END LIST*
D10*
D11*
X230505000Y-98425000D03*
X230505000Y-100965000D03*
X230505000Y-103505000D03*
X230505000Y-106045000D03*
X230505000Y-95885000D03*
X230505000Y-93345000D03*
X230505000Y-90805000D03*
X230505000Y-108585000D03*
X230505000Y-111125000D03*
X230505000Y-113665000D03*
X230505000Y-116205000D03*
X227965000Y-103505000D03*
X225425000Y-103505000D03*
X222885000Y-103505000D03*
X220345000Y-103505000D03*
X217805000Y-103505000D03*
X215265000Y-116205000D03*
X215265000Y-113665000D03*
X215265000Y-111125000D03*
X215265000Y-108585000D03*
X215265000Y-106045000D03*
X215265000Y-103505000D03*
X215265000Y-100965000D03*
X215265000Y-98425000D03*
X230505000Y-88265000D03*
X230505000Y-85725000D03*
X230505000Y-83185000D03*
X230505000Y-80645000D03*
X230505000Y-78105000D03*
X230505000Y-75565000D03*
X230505000Y-73025000D03*
X230505000Y-70485000D03*
X230505000Y-67945000D03*
X230505000Y-65405000D03*
X230505000Y-62865000D03*
X230505000Y-60325000D03*
D12*
X230505000Y-57785000D03*
D11*
X215265000Y-95885000D03*
X215265000Y-93345000D03*
X215265000Y-90805000D03*
X215265000Y-88265000D03*
X215265000Y-85725000D03*
X215265000Y-83185000D03*
X215265000Y-80645000D03*
X215265000Y-78105000D03*
X215265000Y-75565000D03*
X215265000Y-73025000D03*
X215265000Y-70485000D03*
X215265000Y-67945000D03*
X215265000Y-65405000D03*
X215265000Y-62865000D03*
X215265000Y-60325000D03*
X215265000Y-57785000D03*
X217805000Y-60325000D03*
X227505000Y-64135000D03*
X227505000Y-66675000D03*
X227505000Y-69215000D03*
X227505000Y-71755000D03*
X227505000Y-74295000D03*
D13*
X294640000Y-107950000D03*
X300990000Y-105410000D03*
X88900000Y-127000000D03*
X95250000Y-124460000D03*
X203200000Y-107950000D03*
X209550000Y-105410000D03*
X184150000Y-107950000D03*
X190500000Y-105410000D03*
X165100000Y-107950000D03*
X171450000Y-105410000D03*
X146050000Y-107950000D03*
X152400000Y-105410000D03*
X127000000Y-107950000D03*
X133350000Y-105410000D03*
X203200000Y-69850000D03*
X209550000Y-67310000D03*
X184150000Y-69850000D03*
X190500000Y-67310000D03*
X237490000Y-127000000D03*
X243840000Y-124460000D03*
X256540000Y-127000000D03*
X262890000Y-124460000D03*
X237490000Y-88900000D03*
X243840000Y-86360000D03*
X275590000Y-127000000D03*
X281940000Y-124460000D03*
X256540000Y-88900000D03*
X262890000Y-86360000D03*
X294640000Y-127000000D03*
X300990000Y-124460000D03*
X275590000Y-88900000D03*
X281940000Y-86360000D03*
X294640000Y-88900000D03*
X300990000Y-86360000D03*
X256540000Y-107950000D03*
X262890000Y-105410000D03*
X237490000Y-69850000D03*
X243840000Y-67310000D03*
X275590000Y-107950000D03*
X281940000Y-105410000D03*
X256540000Y-69850000D03*
X262890000Y-67310000D03*
X294640000Y-69850000D03*
X300990000Y-67310000D03*
X203200000Y-127000000D03*
X209550000Y-124460000D03*
X184150000Y-127000000D03*
X190500000Y-124460000D03*
X165100000Y-127000000D03*
X171450000Y-124460000D03*
X146050000Y-127000000D03*
X152400000Y-124460000D03*
X127000000Y-127000000D03*
X133350000Y-124460000D03*
X107950000Y-127000000D03*
X114300000Y-124460000D03*
X275590000Y-69850000D03*
X281940000Y-67310000D03*
X237490000Y-107950000D03*
X243840000Y-105410000D03*
X107950000Y-107950000D03*
X114300000Y-105410000D03*
X88900000Y-107950000D03*
X95250000Y-105410000D03*
D14*
X78055000Y-99105000D03*
D15*
X75565000Y-97845000D03*
X75565000Y-93345000D03*
D14*
X78055000Y-92095000D03*
D11*
X175260000Y-96520000D03*
X160020000Y-96520000D03*
X175260000Y-99060000D03*
X175260000Y-101600000D03*
X175260000Y-104140000D03*
X175260000Y-106680000D03*
X175260000Y-109220000D03*
X175260000Y-111760000D03*
X175260000Y-114300000D03*
X175260000Y-116840000D03*
X175260000Y-119380000D03*
X175260000Y-121920000D03*
X175260000Y-124460000D03*
X175260000Y-127000000D03*
X175260000Y-129540000D03*
X160020000Y-99060000D03*
X160020000Y-101600000D03*
X160020000Y-104140000D03*
X160020000Y-106680000D03*
X160020000Y-109220000D03*
X160020000Y-111760000D03*
X160020000Y-114300000D03*
X160020000Y-116840000D03*
X160020000Y-119380000D03*
X160020000Y-121920000D03*
X160020000Y-124460000D03*
X160020000Y-127000000D03*
D12*
X160020000Y-129540000D03*
D16*
X83950000Y-77345000D03*
X83950000Y-79885000D03*
X83950000Y-81915000D03*
X83950000Y-84455000D03*
D17*
X81280000Y-74295000D03*
X81280000Y-88015000D03*
D18*
X207645000Y-86900000D03*
X207645000Y-90900000D03*
X207645000Y-78010000D03*
X207645000Y-82010000D03*
D19*
X89535000Y-60345000D03*
X89535000Y-62845000D03*
X93345000Y-60345000D03*
X93345000Y-62845000D03*
X108585000Y-60345000D03*
X108585000Y-62845000D03*
X112395000Y-60345000D03*
X112395000Y-62845000D03*
X165735000Y-60345000D03*
X165735000Y-62845000D03*
X169545000Y-60345000D03*
X169545000Y-62845000D03*
D20*
X135255000Y-90805000D03*
D21*
X132715000Y-90805000D03*
X130175000Y-90805000D03*
X127635000Y-90805000D03*
X125095000Y-90805000D03*
X122555000Y-90805000D03*
D15*
X93940000Y-57270000D03*
X88940000Y-57270000D03*
X91440000Y-57270000D03*
X88940000Y-71770000D03*
X93940000Y-71770000D03*
D22*
X85240000Y-64770000D03*
X97640000Y-64770000D03*
D15*
X112990000Y-57270000D03*
X107990000Y-57270000D03*
X110490000Y-57270000D03*
X107990000Y-71770000D03*
X112990000Y-71770000D03*
D22*
X104290000Y-64770000D03*
X116690000Y-64770000D03*
D15*
X170140000Y-57270000D03*
X165140000Y-57270000D03*
X167640000Y-57270000D03*
X165140000Y-71770000D03*
X170140000Y-71770000D03*
D22*
X161440000Y-64770000D03*
X173840000Y-64770000D03*
D20*
X229235000Y-128905000D03*
D21*
X226695000Y-128905000D03*
X224155000Y-128905000D03*
X221615000Y-128905000D03*
X219075000Y-128905000D03*
X216535000Y-128905000D03*
D23*
X78740000Y-121285000D03*
D24*
X78740000Y-119285000D03*
X78740000Y-117285000D03*
X78740000Y-115285000D03*
D23*
X78740000Y-109855000D03*
D24*
X78740000Y-107855000D03*
X78740000Y-105855000D03*
X78740000Y-103855000D03*
D25*
X100965000Y-76835000D03*
D26*
X102990000Y-76835000D03*
X102396891Y-78266891D03*
X100965000Y-78860000D03*
X99533109Y-78266891D03*
X98940000Y-76835000D03*
X99533109Y-75403109D03*
X100965000Y-74810000D03*
X102396891Y-75403109D03*
D25*
X167640000Y-76835000D03*
D26*
X169665000Y-76835000D03*
X169071891Y-78266891D03*
X167640000Y-78860000D03*
X166208109Y-78266891D03*
X165615000Y-76835000D03*
X166208109Y-75403109D03*
X167640000Y-74810000D03*
X169071891Y-75403109D03*
D25*
X76200000Y-127000000D03*
D26*
X78225000Y-127000000D03*
X77631891Y-128431891D03*
X76200000Y-129025000D03*
X74768109Y-128431891D03*
X74175000Y-127000000D03*
X74768109Y-125568109D03*
X76200000Y-124975000D03*
X77631891Y-125568109D03*
D25*
X196215000Y-112395000D03*
D26*
X198240000Y-112395000D03*
X197646891Y-113826891D03*
X196215000Y-114420000D03*
X194783109Y-113826891D03*
X194190000Y-112395000D03*
X194783109Y-110963109D03*
X196215000Y-110370000D03*
X197646891Y-110963109D03*
D25*
X287655000Y-112395000D03*
D26*
X289680000Y-112395000D03*
X289086891Y-113826891D03*
X287655000Y-114420000D03*
X286223109Y-113826891D03*
X285630000Y-112395000D03*
X286223109Y-110963109D03*
X287655000Y-110370000D03*
X289086891Y-110963109D03*
D25*
X249555000Y-74295000D03*
D26*
X251580000Y-74295000D03*
X250986891Y-75726891D03*
X249555000Y-76320000D03*
X248123109Y-75726891D03*
X247530000Y-74295000D03*
X248123109Y-72863109D03*
X249555000Y-72270000D03*
X250986891Y-72863109D03*
D25*
X249555000Y-112395000D03*
D26*
X251580000Y-112395000D03*
X250986891Y-113826891D03*
X249555000Y-114420000D03*
X248123109Y-113826891D03*
X247530000Y-112395000D03*
X248123109Y-110963109D03*
X249555000Y-110370000D03*
X250986891Y-110963109D03*
D25*
X100965000Y-112395000D03*
D26*
X102990000Y-112395000D03*
X102396891Y-113826891D03*
X100965000Y-114420000D03*
X99533109Y-113826891D03*
X98940000Y-112395000D03*
X99533109Y-110963109D03*
X100965000Y-110370000D03*
X102396891Y-110963109D03*
D25*
X139065000Y-112395000D03*
D26*
X141090000Y-112395000D03*
X140496891Y-113826891D03*
X139065000Y-114420000D03*
X137633109Y-113826891D03*
X137040000Y-112395000D03*
X137633109Y-110963109D03*
X139065000Y-110370000D03*
X140496891Y-110963109D03*
D25*
X287655000Y-74295000D03*
D26*
X289680000Y-74295000D03*
X289086891Y-75726891D03*
X287655000Y-76320000D03*
X286223109Y-75726891D03*
X285630000Y-74295000D03*
X286223109Y-72863109D03*
X287655000Y-72270000D03*
X289086891Y-72863109D03*
D27*
X92710000Y-116205000D03*
X87630000Y-116205000D03*
D28*
X90170000Y-116205000D03*
D27*
X95250000Y-116205000D03*
X111760000Y-116205000D03*
X106680000Y-116205000D03*
D28*
X109220000Y-116205000D03*
D27*
X114300000Y-116205000D03*
X130810000Y-116205000D03*
X125730000Y-116205000D03*
D28*
X128270000Y-116205000D03*
D27*
X133350000Y-116205000D03*
X149860000Y-116205000D03*
X144780000Y-116205000D03*
D28*
X147320000Y-116205000D03*
D27*
X152400000Y-116205000D03*
X168910000Y-116205000D03*
X163830000Y-116205000D03*
D28*
X166370000Y-116205000D03*
D27*
X171450000Y-116205000D03*
X187960000Y-116205000D03*
X182880000Y-116205000D03*
D28*
X185420000Y-116205000D03*
D27*
X190500000Y-116205000D03*
X207010000Y-116205000D03*
X201930000Y-116205000D03*
D28*
X204470000Y-116205000D03*
D27*
X209550000Y-116205000D03*
X92710000Y-97155000D03*
X87630000Y-97155000D03*
D28*
X90170000Y-97155000D03*
D27*
X95250000Y-97155000D03*
X111760000Y-97155000D03*
X106680000Y-97155000D03*
D28*
X109220000Y-97155000D03*
D27*
X114300000Y-97155000D03*
X130810000Y-97155000D03*
X125730000Y-97155000D03*
D28*
X128270000Y-97155000D03*
D27*
X133350000Y-97155000D03*
X149860000Y-97155000D03*
X144780000Y-97155000D03*
D28*
X147320000Y-97155000D03*
D27*
X152400000Y-97155000D03*
X168910000Y-97155000D03*
X163830000Y-97155000D03*
D28*
X166370000Y-97155000D03*
D27*
X171450000Y-97155000D03*
X187960000Y-97155000D03*
X182880000Y-97155000D03*
D28*
X185420000Y-97155000D03*
D27*
X190500000Y-97155000D03*
X207010000Y-97155000D03*
X201930000Y-97155000D03*
D28*
X204470000Y-97155000D03*
D27*
X209550000Y-97155000D03*
X187960000Y-59055000D03*
X182880000Y-59055000D03*
D28*
X185420000Y-59055000D03*
D27*
X190500000Y-59055000D03*
X207010000Y-59055000D03*
X201930000Y-59055000D03*
D28*
X204470000Y-59055000D03*
D27*
X209550000Y-59055000D03*
X241300000Y-116205000D03*
X236220000Y-116205000D03*
D28*
X238760000Y-116205000D03*
D27*
X243840000Y-116205000D03*
X260350000Y-116205000D03*
X255270000Y-116205000D03*
D28*
X257810000Y-116205000D03*
D27*
X262890000Y-116205000D03*
X279400000Y-116840000D03*
X274320000Y-116840000D03*
D28*
X276860000Y-116840000D03*
D27*
X281940000Y-116840000D03*
X298450000Y-116205000D03*
X293370000Y-116205000D03*
D28*
X295910000Y-116205000D03*
D27*
X300990000Y-116205000D03*
X241300000Y-97155000D03*
X236220000Y-97155000D03*
D28*
X238760000Y-97155000D03*
D27*
X243840000Y-97155000D03*
X260350000Y-97155000D03*
X255270000Y-97155000D03*
D28*
X257810000Y-97155000D03*
D27*
X262890000Y-97155000D03*
X279400000Y-97155000D03*
X274320000Y-97155000D03*
D28*
X276860000Y-97155000D03*
D27*
X281940000Y-97155000D03*
X298450000Y-97155000D03*
X293370000Y-97155000D03*
D28*
X295910000Y-97155000D03*
D27*
X300990000Y-97155000D03*
X241300000Y-78105000D03*
X236220000Y-78105000D03*
D28*
X238760000Y-78105000D03*
D27*
X243840000Y-78105000D03*
X260350000Y-78105000D03*
X255270000Y-78105000D03*
D28*
X257810000Y-78105000D03*
D27*
X262890000Y-78105000D03*
X279400000Y-78105000D03*
X274320000Y-78105000D03*
D28*
X276860000Y-78105000D03*
D27*
X281940000Y-78105000D03*
X298450000Y-78105000D03*
X293370000Y-78105000D03*
D28*
X295910000Y-78105000D03*
D27*
X300990000Y-78105000D03*
X241300000Y-59055000D03*
X236220000Y-59055000D03*
D28*
X238760000Y-59055000D03*
D27*
X243840000Y-59055000D03*
X260350000Y-59055000D03*
X255270000Y-59055000D03*
D28*
X257810000Y-59055000D03*
D27*
X262890000Y-59055000D03*
X279400000Y-59055000D03*
X274320000Y-59055000D03*
D28*
X276860000Y-59055000D03*
D27*
X281940000Y-59055000D03*
X298450000Y-59055000D03*
X293370000Y-59055000D03*
D28*
X295910000Y-59055000D03*
D27*
X300990000Y-59055000D03*
D20*
X117475000Y-88265000D03*
D21*
X117475000Y-90805000D03*
D29*
X179250000Y-90805000D03*
X179250000Y-89535000D03*
X179250000Y-88265000D03*
X179250000Y-86995000D03*
X179250000Y-85725000D03*
X179250000Y-84455000D03*
X179250000Y-83185000D03*
X179250000Y-81915000D03*
X179250000Y-80645000D03*
X179250000Y-79375000D03*
X179250000Y-78105000D03*
X179250000Y-76835000D03*
X179250000Y-75565000D03*
X179250000Y-74295000D03*
X189050000Y-74295000D03*
X189050000Y-75565000D03*
X189050000Y-76835000D03*
X189050000Y-78105000D03*
X189050000Y-79375000D03*
X189050000Y-80645000D03*
X189050000Y-81915000D03*
X189050000Y-83185000D03*
X189050000Y-84455000D03*
X189050000Y-85725000D03*
X189050000Y-86995000D03*
X189050000Y-88265000D03*
X189050000Y-89535000D03*
X189050000Y-90805000D03*
D30*
X88265000Y-86415000D03*
X88265000Y-81915000D03*
X94765000Y-86415000D03*
X94765000Y-81915000D03*
X107315000Y-86415000D03*
X107315000Y-81915000D03*
X113815000Y-86415000D03*
X113815000Y-81915000D03*
X126365000Y-86415000D03*
X126365000Y-81915000D03*
X132865000Y-86415000D03*
X132865000Y-81915000D03*
X219710000Y-124515000D03*
X219710000Y-120015000D03*
X226210000Y-124515000D03*
X226210000Y-120015000D03*
D31*
X203565000Y-87950000D03*
X203565000Y-89850000D03*
X201565000Y-88900000D03*
X203565000Y-79060000D03*
X203565000Y-80960000D03*
X201565000Y-80010000D03*
D18*
X197485000Y-86900000D03*
X197485000Y-90900000D03*
X197485000Y-78010000D03*
X197485000Y-82010000D03*
D32*
X164570000Y-83185000D03*
X168170000Y-83185000D03*
X164570000Y-86360000D03*
X168170000Y-86360000D03*
X164570000Y-89535000D03*
X168170000Y-89535000D03*
D28*
X127635000Y-68580000D03*
D27*
X127635000Y-66040000D03*
D28*
X129540000Y-62230000D03*
D27*
X129540000Y-59690000D03*
D28*
X131445000Y-68580000D03*
D27*
X131445000Y-66040000D03*
D28*
X133350000Y-62230000D03*
D27*
X133350000Y-59690000D03*
D28*
X135255000Y-68580000D03*
D27*
X135255000Y-66040000D03*
D28*
X139065000Y-68580000D03*
D27*
X139065000Y-66040000D03*
D28*
X140970000Y-62230000D03*
D27*
X140970000Y-59690000D03*
D28*
X142875000Y-68580000D03*
D27*
X142875000Y-66040000D03*
D28*
X144780000Y-62230000D03*
D27*
X144780000Y-59690000D03*
D28*
X146685000Y-68580000D03*
D27*
X146685000Y-66040000D03*
D28*
X148590000Y-62230000D03*
D27*
X148590000Y-59690000D03*
D28*
X150495000Y-68580000D03*
D27*
X150495000Y-66040000D03*
D28*
X75565000Y-60325000D03*
D27*
X78105000Y-60325000D03*
D28*
X90170000Y-77470000D03*
D27*
X92710000Y-77470000D03*
D28*
X109220000Y-77470000D03*
D27*
X111760000Y-77470000D03*
D28*
X128270000Y-77470000D03*
D27*
X130810000Y-77470000D03*
D33*
X189210000Y-93345000D03*
X186710000Y-93345000D03*
D26*
X202941400Y-88892500D03*
X186710000Y-94475800D03*
X216632600Y-127507100D03*
X84709000Y-71770000D03*
X217185500Y-59003700D03*
X76678400Y-107855000D03*
X188918600Y-109760900D03*
X81722600Y-109855000D03*
X189225000Y-111871600D03*
X116474300Y-100539000D03*
X223856700Y-109259900D03*
X215244600Y-130048300D03*
X86183500Y-130665400D03*
X228462600Y-102065400D03*
X200719800Y-56287000D03*
X228436600Y-100965000D03*
X156647100Y-60368600D03*
X202111500Y-56815100D03*
X216580600Y-112403000D03*
X97486600Y-72999200D03*
X144027800Y-74681000D03*
X145070600Y-106035100D03*
X121776500Y-84792400D03*
X164069100Y-84792400D03*
X160042400Y-93227600D03*
X177247200Y-93652900D03*
X180814700Y-98882000D03*
X212701900Y-99606200D03*
X176166300Y-74649800D03*
X177648400Y-76185700D03*
X212089700Y-79093900D03*
X208870800Y-89304400D03*
X213801400Y-93418700D03*
X189123500Y-91716500D03*
X198883300Y-86781600D03*
X192173800Y-86538400D03*
X252430800Y-55759000D03*
X228435800Y-88265000D03*
X161832200Y-96750800D03*
X194133300Y-92897000D03*
X195354700Y-96126700D03*
X225609400Y-96495600D03*
X164173600Y-88215000D03*
X164603900Y-99001500D03*
X173877100Y-99353400D03*
X177917400Y-103052500D03*
X184330400Y-104076800D03*
X194452400Y-94858000D03*
X212477700Y-94858000D03*
X217192100Y-81560300D03*
X233662200Y-75565000D03*
X233667200Y-91977700D03*
X217374700Y-91977700D03*
X193177100Y-110631200D03*
X189372100Y-118074700D03*
X217499400Y-100337400D03*
X220686300Y-100258600D03*
X218913700Y-67898900D03*
X218544900Y-66006900D03*
X221347100Y-121178100D03*
X221580000Y-125784900D03*
X219026500Y-61296800D03*
X173565900Y-109797000D03*
X181324800Y-106109600D03*
X213864700Y-110981000D03*
X218578100Y-101333100D03*
X221840800Y-101333100D03*
X219881200Y-77735400D03*
X209653300Y-99906400D03*
X193232500Y-79817500D03*
X203481800Y-72448000D03*
X163934300Y-73377800D03*
X174079200Y-69482800D03*
X207848700Y-68327900D03*
X217138200Y-68558300D03*
X100708000Y-99870100D03*
X177036800Y-99823200D03*
X198625900Y-100305000D03*
X86422100Y-75438300D03*
X206667500Y-73161500D03*
X216624500Y-69261400D03*
X225172700Y-69261400D03*
X87047400Y-73768600D03*
X129990900Y-87080000D03*
X221415500Y-63116400D03*
X208965000Y-79780000D03*
X217673600Y-71883100D03*
X222480300Y-72327500D03*
X142475700Y-61591600D03*
X227048800Y-56868800D03*
X180972400Y-89514200D03*
X178131700Y-92768500D03*
X134479700Y-95026400D03*
X183363800Y-89514200D03*
X176799500Y-65295900D03*
X181068200Y-86017200D03*
X170029600Y-86111200D03*
X100429100Y-117209500D03*
X108704200Y-112292600D03*
X105745000Y-111862200D03*
X183031000Y-85970900D03*
X179221800Y-70960200D03*
X191429100Y-69834200D03*
X180952700Y-86817600D03*
X169507300Y-86720800D03*
X168257600Y-112892700D03*
X181889700Y-60045300D03*
X157123000Y-73606500D03*
X159101300Y-72801800D03*
X124125300Y-101267800D03*
X257973800Y-118620900D03*
X171798600Y-95596200D03*
X155300900Y-120514400D03*
X177383000Y-114751800D03*
X174230000Y-118336600D03*
X201002200Y-98585500D03*
X168902100Y-98577300D03*
X213904400Y-96656500D03*
X216617100Y-97252500D03*
X177014800Y-79360100D03*
X192143000Y-78544500D03*
X181008500Y-85216800D03*
X255270000Y-99839600D03*
X198222100Y-97960200D03*
X150241900Y-114775600D03*
X84376100Y-117848900D03*
X169566600Y-85216800D03*
X180953700Y-79196600D03*
X269507900Y-62088900D03*
X200682900Y-77456900D03*
X221930800Y-67533800D03*
X175283600Y-79576600D03*
X165012400Y-119121700D03*
X251709100Y-117995600D03*
X180967900Y-80720100D03*
X277717100Y-107221400D03*
X275883600Y-80643000D03*
X180958900Y-75291200D03*
X116110300Y-105973300D03*
X108635300Y-75792200D03*
X181459700Y-75925900D03*
X180964100Y-74295000D03*
X237081800Y-100526200D03*
X134846800Y-82977400D03*
X184074300Y-74456200D03*
X185534100Y-87528500D03*
X198723900Y-84350900D03*
X200121300Y-86901700D03*
X213418100Y-88982000D03*
X207706800Y-101211700D03*
X212185400Y-101211700D03*
X217008200Y-108630000D03*
X290921000Y-95568200D03*
X111992800Y-109582200D03*
X150442700Y-59017700D03*
X172238400Y-59263900D03*
X117154800Y-118165500D03*
X149531800Y-118187300D03*
X162295500Y-114390900D03*
X173699100Y-114500200D03*
X176893600Y-122301700D03*
X179082500Y-67321400D03*
X187336000Y-75315400D03*
X209595800Y-75315400D03*
X217701700Y-70480500D03*
X154410800Y-59643100D03*
X216424700Y-126059300D03*
X172953200Y-59719800D03*
X185608000Y-74918200D03*
X232383600Y-69215000D03*
X222436300Y-57433500D03*
X158743800Y-69595300D03*
X144220900Y-108797300D03*
X149084500Y-108937100D03*
X190761500Y-86093500D03*
X166250700Y-94125200D03*
X168523700Y-93736700D03*
X173069200Y-89191200D03*
X141962100Y-70658400D03*
X187317400Y-81834400D03*
X129192200Y-84167100D03*
X242184500Y-88900000D03*
X233865700Y-107459600D03*
X191935300Y-82770300D03*
X206041100Y-81593800D03*
X207885900Y-89361500D03*
X212942300Y-91392000D03*
X190752100Y-83407900D03*
X127984600Y-88364700D03*
X198848800Y-83004900D03*
X242024000Y-89860600D03*
X234969100Y-120430000D03*
X208960000Y-120205000D03*
X174528800Y-62119700D03*
X178831000Y-117976100D03*
X187826200Y-94862100D03*
X190054000Y-94862100D03*
X186411700Y-91209900D03*
X138115300Y-91209900D03*
X187065700Y-90533600D03*
X126299100Y-92375300D03*
X165489800Y-100212900D03*
X196464000Y-67776600D03*
X192195300Y-77646500D03*
X176768400Y-78529400D03*
X170401900Y-87812200D03*
X166842700Y-87537700D03*
X165680300Y-89366300D03*
X138162200Y-89898100D03*
X158312900Y-82290900D03*
X176262200Y-82471700D03*
D34*
X206595000Y-87950000D02*
X207645000Y-86900000D01*
X203565000Y-87950000D02*
X206595000Y-87950000D01*
X206595000Y-79060000D02*
X207645000Y-78010000D01*
X203565000Y-79060000D02*
X206595000Y-79060000D01*
X202664600Y-86199300D02*
X203565000Y-87099700D01*
X202664600Y-80279300D02*
X202664600Y-86199300D01*
X203033600Y-79910300D02*
X202664600Y-80279300D01*
X203565000Y-79910300D02*
X203033600Y-79910300D01*
X203565000Y-79060000D02*
X203565000Y-79910300D01*
X203565000Y-87950000D02*
X203565000Y-87099700D01*
X203565000Y-87950000D02*
X203565000Y-88800300D01*
X203033600Y-88800300D02*
X203565000Y-88800300D01*
X202941400Y-88892500D02*
X203033600Y-88800300D01*
X80080000Y-115945000D02*
X78740000Y-117285000D01*
X80080000Y-107195000D02*
X80080000Y-115945000D01*
X78740000Y-105855000D02*
X80080000Y-107195000D01*
X202465400Y-89368500D02*
X202941400Y-88892500D01*
X202465400Y-90275600D02*
X202465400Y-89368500D01*
X190038300Y-102702700D02*
X202465400Y-90275600D01*
X190038300Y-103109100D02*
X190038300Y-102702700D01*
X187077300Y-106070100D02*
X190038300Y-103109100D01*
X187077300Y-107276200D02*
X187077300Y-106070100D01*
X179772000Y-114581500D02*
X187077300Y-107276200D01*
X179772000Y-119948000D02*
X179772000Y-114581500D01*
X177643900Y-122076100D02*
X179772000Y-119948000D01*
X177643900Y-122612600D02*
X177643900Y-122076100D01*
X177204500Y-123052000D02*
X177643900Y-122612600D01*
X176668000Y-123052000D02*
X177204500Y-123052000D01*
X175260000Y-124460000D02*
X176668000Y-123052000D01*
X92220000Y-62845000D02*
X91440000Y-62065000D01*
X93345000Y-62845000D02*
X92220000Y-62845000D01*
X91440000Y-62065000D02*
X91440000Y-57270000D01*
X111270000Y-62845000D02*
X110490000Y-62065000D01*
X112395000Y-62845000D02*
X111270000Y-62845000D01*
X110490000Y-62065000D02*
X110490000Y-57270000D01*
X167640000Y-60815000D02*
X167640000Y-57270000D01*
X186710000Y-94475800D02*
X186710000Y-93345000D01*
X165735000Y-62720000D02*
X167640000Y-60815000D01*
X165735000Y-62845000D02*
X165735000Y-62720000D01*
X165735000Y-71175000D02*
X165140000Y-71770000D01*
X165735000Y-62845000D02*
X165735000Y-71175000D01*
X109710000Y-62845000D02*
X110490000Y-62065000D01*
X109447500Y-62845000D02*
X109710000Y-62845000D01*
X89535000Y-62845000D02*
X90397500Y-62845000D01*
X90660000Y-62845000D02*
X91440000Y-62065000D01*
X90397500Y-62845000D02*
X90660000Y-62845000D01*
X90397500Y-70312500D02*
X88940000Y-71770000D01*
X90397500Y-62845000D02*
X90397500Y-70312500D01*
X78740000Y-115285000D02*
X78740000Y-114234700D01*
X77439600Y-105155400D02*
X78740000Y-103855000D01*
X77439600Y-112934300D02*
X77439600Y-105155400D01*
X78740000Y-114234700D02*
X77439600Y-112934300D01*
X74167300Y-94742700D02*
X75565000Y-93345000D01*
X74167300Y-98363300D02*
X74167300Y-94742700D01*
X78608700Y-102804700D02*
X74167300Y-98363300D01*
X78740000Y-102804700D02*
X78608700Y-102804700D01*
X78740000Y-103855000D02*
X78740000Y-102804700D01*
X108585000Y-62845000D02*
X109447500Y-62845000D01*
X94988900Y-62276400D02*
X94420300Y-62845000D01*
X106941100Y-62276400D02*
X94988900Y-62276400D01*
X107509700Y-62845000D02*
X106941100Y-62276400D01*
X108585000Y-62845000D02*
X107509700Y-62845000D01*
X93345000Y-62845000D02*
X94420300Y-62845000D01*
X169545000Y-62720000D02*
X167640000Y-60815000D01*
X169545000Y-62845000D02*
X169545000Y-62720000D01*
X184045000Y-90805000D02*
X182403000Y-90805000D01*
X186585000Y-93345000D02*
X184045000Y-90805000D01*
X186710000Y-93345000D02*
X186585000Y-93345000D01*
X182403000Y-90805000D02*
X179250000Y-90805000D01*
X169545000Y-62845000D02*
X169545000Y-64045300D01*
X75565000Y-83400400D02*
X75565000Y-93345000D01*
X84709000Y-74256400D02*
X75565000Y-83400400D01*
X84709000Y-71770000D02*
X84709000Y-74256400D01*
X215265000Y-93345000D02*
X217474100Y-93345000D01*
X120319000Y-87268700D02*
X122555000Y-89504700D01*
X120319000Y-84099000D02*
X120319000Y-87268700D01*
X107990000Y-71770000D02*
X120319000Y-84099000D01*
X122555000Y-90805000D02*
X122555000Y-89504700D01*
X107990000Y-64302500D02*
X107990000Y-71770000D01*
X109447500Y-62845000D02*
X107990000Y-64302500D01*
X222871600Y-103505000D02*
X222885000Y-103505000D01*
X217474100Y-98107500D02*
X222871600Y-103505000D01*
X217474100Y-93345000D02*
X217474100Y-98107500D01*
X174232200Y-68732500D02*
X169545000Y-64045300D01*
X174390100Y-68732500D02*
X174232200Y-68732500D01*
X177903800Y-72246200D02*
X174390100Y-68732500D01*
X180001600Y-72246200D02*
X177903800Y-72246200D01*
X182280700Y-74525300D02*
X180001600Y-72246200D01*
X182280700Y-90682700D02*
X182280700Y-74525300D01*
X182403000Y-90805000D02*
X182280700Y-90682700D01*
X218231600Y-108158400D02*
X222885000Y-103505000D01*
X218231600Y-125908100D02*
X218231600Y-108158400D01*
X216632600Y-127507100D02*
X218231600Y-125908100D01*
X216554600Y-59634600D02*
X217185500Y-59003700D01*
X216554600Y-65663700D02*
X216554600Y-59634600D01*
X218082400Y-67191500D02*
X216554600Y-65663700D01*
X218082400Y-69800000D02*
X218082400Y-67191500D01*
X218453200Y-70170800D02*
X218082400Y-69800000D01*
X218453200Y-92365900D02*
X218453200Y-70170800D01*
X217474100Y-93345000D02*
X218453200Y-92365900D01*
D35*
X206595000Y-89850000D02*
X207645000Y-90900000D01*
X203565000Y-89850000D02*
X206595000Y-89850000D01*
X78740000Y-119285000D02*
X78740000Y-118359700D01*
X76678400Y-116804100D02*
X76678400Y-107855000D01*
X78234000Y-118359700D02*
X76678400Y-116804100D01*
X78740000Y-118359700D02*
X78234000Y-118359700D01*
X207645000Y-90900000D02*
X208820300Y-90900000D01*
X194460300Y-104219200D02*
X188918600Y-109760900D01*
X194460300Y-102681900D02*
X194460300Y-104219200D01*
X198861800Y-98280400D02*
X194460300Y-102681900D01*
X198861800Y-96379800D02*
X198861800Y-98280400D01*
X203565000Y-91676600D02*
X198861800Y-96379800D01*
X203565000Y-89850000D02*
X203565000Y-91676600D01*
X209720900Y-83649100D02*
X215265000Y-78105000D01*
X209720900Y-89999400D02*
X209720900Y-83649100D01*
X208820300Y-90900000D02*
X209720900Y-89999400D01*
X81722600Y-117883100D02*
X81722600Y-109855000D01*
X79246000Y-120359700D02*
X81722600Y-117883100D01*
X78740000Y-120359700D02*
X79246000Y-120359700D01*
X78740000Y-121285000D02*
X78740000Y-120359700D01*
X206595000Y-80960000D02*
X207645000Y-82010000D01*
X203565000Y-80960000D02*
X206595000Y-80960000D01*
X207645000Y-82010000D02*
X208820300Y-82010000D01*
X208820300Y-81479000D02*
X208820300Y-82010000D01*
X214734300Y-75565000D02*
X208820300Y-81479000D01*
X215265000Y-75565000D02*
X214734300Y-75565000D01*
X189225000Y-110590300D02*
X189225000Y-111871600D01*
X200127100Y-99688200D02*
X189225000Y-110590300D01*
X200127100Y-98371800D02*
X200127100Y-99688200D01*
X200704600Y-97794300D02*
X200127100Y-98371800D01*
X200704600Y-96642900D02*
X200704600Y-97794300D01*
X201444900Y-95902600D02*
X200704600Y-96642900D01*
X205613200Y-95902600D02*
X201444900Y-95902600D01*
X214665400Y-86850400D02*
X205613200Y-95902600D01*
X215745200Y-86850400D02*
X214665400Y-86850400D01*
X216391800Y-86203800D02*
X215745200Y-86850400D01*
X216391800Y-76691800D02*
X216391800Y-86203800D01*
X215265000Y-75565000D02*
X216391800Y-76691800D01*
X89535000Y-57865000D02*
X88940000Y-57270000D01*
X89535000Y-60345000D02*
X89535000Y-57865000D01*
X89535000Y-60345000D02*
X88584700Y-60345000D01*
X87692800Y-61236900D02*
X88584700Y-60345000D01*
X87692800Y-72224400D02*
X87692800Y-61236900D01*
X88745200Y-73276800D02*
X87692800Y-72224400D01*
X96650900Y-73276800D02*
X88745200Y-73276800D01*
X97009900Y-73635800D02*
X96650900Y-73276800D01*
X107649000Y-73635800D02*
X97009900Y-73635800D01*
X110534600Y-76521400D02*
X107649000Y-73635800D01*
X110534600Y-91611000D02*
X110534600Y-76521400D01*
X115590700Y-96667100D02*
X110534600Y-91611000D01*
X115590700Y-99655400D02*
X115590700Y-96667100D01*
X116474300Y-100539000D02*
X115590700Y-99655400D01*
X93345000Y-57865000D02*
X93659800Y-57550200D01*
X93345000Y-60345000D02*
X93345000Y-57865000D01*
X93659800Y-57550200D02*
X93940000Y-57270000D01*
X73573900Y-118055800D02*
X86183500Y-130665400D01*
X73573900Y-60016600D02*
X73573900Y-118055800D01*
X77542500Y-56048000D02*
X73573900Y-60016600D01*
X92157600Y-56048000D02*
X77542500Y-56048000D01*
X93659800Y-57550200D02*
X92157600Y-56048000D01*
X223856700Y-124415900D02*
X223856700Y-109259900D01*
X220439600Y-127833000D02*
X223856700Y-124415900D01*
X220439600Y-129237700D02*
X220439600Y-127833000D01*
X219596900Y-130080400D02*
X220439600Y-129237700D01*
X215276700Y-130080400D02*
X219596900Y-130080400D01*
X215244600Y-130048300D02*
X215276700Y-130080400D01*
X108585000Y-57865000D02*
X107990000Y-57270000D01*
X108585000Y-60345000D02*
X108585000Y-57865000D01*
X200719800Y-56383800D02*
X200719800Y-56287000D01*
X201776500Y-57440500D02*
X200719800Y-56383800D01*
X204516000Y-57440500D02*
X201776500Y-57440500D01*
X205306100Y-56650400D02*
X204516000Y-57440500D01*
X216366900Y-56650400D02*
X205306100Y-56650400D01*
X223262800Y-63546300D02*
X216366900Y-56650400D01*
X223262800Y-96865600D02*
X223262800Y-63546300D01*
X228462600Y-102065400D02*
X223262800Y-96865600D01*
X112395000Y-57865000D02*
X112931500Y-57328500D01*
X112395000Y-60345000D02*
X112395000Y-57865000D01*
X112931500Y-57328500D02*
X112990000Y-57270000D01*
X202782900Y-56143700D02*
X202111500Y-56815100D01*
X216497100Y-56143700D02*
X202782900Y-56143700D01*
X224533700Y-64180300D02*
X216497100Y-56143700D01*
X224533700Y-97062100D02*
X224533700Y-64180300D01*
X228436600Y-100965000D02*
X224533700Y-97062100D01*
X153607000Y-57328500D02*
X156647100Y-60368600D01*
X112931500Y-57328500D02*
X153607000Y-57328500D01*
X96257400Y-71770000D02*
X97486600Y-72999200D01*
X93940000Y-71770000D02*
X96257400Y-71770000D01*
X143554600Y-75154200D02*
X144027800Y-74681000D01*
X143554600Y-99183800D02*
X143554600Y-75154200D01*
X144710400Y-100339600D02*
X143554600Y-99183800D01*
X144710400Y-105674900D02*
X144710400Y-100339600D01*
X145070600Y-106035100D02*
X144710400Y-105674900D01*
X216580600Y-114889400D02*
X215265000Y-116205000D01*
X216580600Y-112403000D02*
X216580600Y-114889400D01*
X180814700Y-97220400D02*
X177247200Y-93652900D01*
X180814700Y-98882000D02*
X180814700Y-97220400D01*
X163797100Y-84792400D02*
X164069100Y-84792400D01*
X160042400Y-88547100D02*
X163797100Y-84792400D01*
X160042400Y-93227600D02*
X160042400Y-88547100D01*
X121776500Y-80556500D02*
X121776500Y-84792400D01*
X112990000Y-71770000D02*
X121776500Y-80556500D01*
X212839700Y-99744000D02*
X212701900Y-99606200D01*
X212839700Y-111239700D02*
X212839700Y-99744000D01*
X215265000Y-113665000D02*
X212839700Y-111239700D01*
X209270600Y-88904600D02*
X208870800Y-89304400D01*
X209270600Y-81913000D02*
X209270600Y-88904600D01*
X212089700Y-79093900D02*
X209270600Y-81913000D01*
X213801400Y-95782100D02*
X213801400Y-93418700D01*
X213238100Y-96345400D02*
X213801400Y-95782100D01*
X213238100Y-97019600D02*
X213238100Y-96345400D01*
X213602500Y-97384000D02*
X213238100Y-97019600D01*
X213602500Y-109462500D02*
X213602500Y-97384000D01*
X215265000Y-111125000D02*
X213602500Y-109462500D01*
X177648400Y-76131900D02*
X177648400Y-76185700D01*
X176166300Y-74649800D02*
X177648400Y-76131900D01*
D34*
X189210000Y-93345000D02*
X189210000Y-91911500D01*
X189210000Y-90965000D02*
X189050000Y-90805000D01*
X189210000Y-91911500D02*
X189210000Y-90965000D01*
X197485000Y-86900000D02*
X198785300Y-86900000D01*
X198785300Y-86879600D02*
X198785300Y-86900000D01*
X198883300Y-86781600D02*
X198785300Y-86879600D01*
X197485000Y-78010000D02*
X198135200Y-78010000D01*
X198135200Y-78010000D02*
X198785300Y-78010000D01*
X189123500Y-91825000D02*
X189123500Y-91716500D01*
X189210000Y-91911500D02*
X189123500Y-91825000D01*
X212644600Y-60405400D02*
X215265000Y-57785000D01*
X206636400Y-60405400D02*
X212644600Y-60405400D01*
X203294700Y-63747100D02*
X206636400Y-60405400D01*
X203294700Y-65866300D02*
X203294700Y-63747100D01*
X204811600Y-67383200D02*
X203294700Y-65866300D01*
X204811600Y-72236100D02*
X204811600Y-67383200D01*
X199037700Y-78010000D02*
X204811600Y-72236100D01*
X198785300Y-78010000D02*
X199037700Y-78010000D01*
X193135900Y-85576300D02*
X192173800Y-86538400D01*
X193135900Y-83009300D02*
X193135900Y-85576300D01*
X198135200Y-78010000D02*
X193135900Y-83009300D01*
D35*
X169545000Y-57865000D02*
X170140000Y-57270000D01*
X169545000Y-60345000D02*
X169545000Y-57865000D01*
X172989900Y-57270000D02*
X170140000Y-57270000D01*
X176415100Y-60695200D02*
X172989900Y-57270000D01*
X183047000Y-60695200D02*
X176415100Y-60695200D01*
X184194600Y-59547600D02*
X183047000Y-60695200D01*
X184194600Y-58006500D02*
X184194600Y-59547600D01*
X186539400Y-55661700D02*
X184194600Y-58006500D01*
X217229900Y-55661700D02*
X186539400Y-55661700D01*
X226973200Y-65405000D02*
X217229900Y-55661700D01*
X227862500Y-65405000D02*
X226973200Y-65405000D01*
X228676100Y-66218600D02*
X227862500Y-65405000D01*
X228676100Y-67757200D02*
X228676100Y-66218600D01*
X230133900Y-69215000D02*
X228676100Y-67757200D01*
X230888400Y-69215000D02*
X230133900Y-69215000D01*
X231665900Y-69992500D02*
X230888400Y-69215000D01*
X231665900Y-104884100D02*
X231665900Y-69992500D01*
X230505000Y-106045000D02*
X231665900Y-104884100D01*
X165735000Y-57865000D02*
X165140000Y-57270000D01*
X165735000Y-60345000D02*
X165735000Y-57865000D01*
X232664700Y-106425300D02*
X230505000Y-108585000D01*
X232664700Y-82621000D02*
X232664700Y-106425300D01*
X233016800Y-82268900D02*
X232664700Y-82621000D01*
X233016800Y-60484800D02*
X233016800Y-82268900D01*
X237742600Y-55759000D02*
X233016800Y-60484800D01*
X252430800Y-55759000D02*
X237742600Y-55759000D01*
X195354700Y-94118400D02*
X194133300Y-92897000D01*
X195354700Y-96126700D02*
X195354700Y-94118400D01*
X160020000Y-98563000D02*
X161832200Y-96750800D01*
X160020000Y-99060000D02*
X160020000Y-98563000D01*
X225609400Y-91091400D02*
X228435800Y-88265000D01*
X225609400Y-96495600D02*
X225609400Y-91091400D01*
X163173400Y-89215200D02*
X164173600Y-88215000D01*
X163173400Y-96078700D02*
X163173400Y-89215200D01*
X162483900Y-96768200D02*
X163173400Y-96078700D01*
X162483900Y-99136100D02*
X162483900Y-96768200D01*
X160020000Y-101600000D02*
X162483900Y-99136100D01*
X164603900Y-101352300D02*
X164603900Y-99001500D01*
X163814700Y-102141500D02*
X164603900Y-101352300D01*
X163814700Y-103415300D02*
X163814700Y-102141500D01*
X161207400Y-106022600D02*
X163814700Y-103415300D01*
X161207400Y-107177900D02*
X161207400Y-106022600D01*
X160531800Y-107853500D02*
X161207400Y-107177900D01*
X159566500Y-107853500D02*
X160531800Y-107853500D01*
X158866500Y-107153500D02*
X159566500Y-107853500D01*
X158866500Y-105293500D02*
X158866500Y-107153500D01*
X160020000Y-104140000D02*
X158866500Y-105293500D01*
X194452400Y-96242500D02*
X194452400Y-94858000D01*
X190484900Y-100210000D02*
X194452400Y-96242500D01*
X186059400Y-100210000D02*
X190484900Y-100210000D01*
X184330400Y-101939000D02*
X186059400Y-100210000D01*
X184330400Y-104076800D02*
X184330400Y-101939000D01*
X173877100Y-101866000D02*
X173877100Y-99353400D01*
X175021800Y-103010700D02*
X173877100Y-101866000D01*
X177875600Y-103010700D02*
X175021800Y-103010700D01*
X177917400Y-103052500D02*
X177875600Y-103010700D01*
X217192100Y-88020700D02*
X217192100Y-81560300D01*
X215677800Y-89535000D02*
X217192100Y-88020700D01*
X214941800Y-89535000D02*
X215677800Y-89535000D01*
X213729800Y-90747000D02*
X214941800Y-89535000D01*
X213729800Y-91505400D02*
X213729800Y-90747000D01*
X212477700Y-92757500D02*
X213729800Y-91505400D01*
X212477700Y-94858000D02*
X212477700Y-92757500D01*
X194438700Y-109369600D02*
X193177100Y-110631200D01*
X201731600Y-109369600D02*
X194438700Y-109369600D01*
X201793500Y-109431500D02*
X201731600Y-109369600D01*
X207611900Y-109431500D02*
X201793500Y-109431500D01*
X211063300Y-105980100D02*
X207611900Y-109431500D01*
X211063300Y-104776700D02*
X211063300Y-105980100D01*
X209643800Y-103357200D02*
X211063300Y-104776700D01*
X209643800Y-102382800D02*
X209643800Y-103357200D01*
X210332800Y-101693800D02*
X209643800Y-102382800D01*
X210332900Y-101693800D02*
X210332800Y-101693800D01*
X210332900Y-101090900D02*
X210332900Y-101693800D01*
X212787700Y-98636100D02*
X210332900Y-101090900D01*
X212787700Y-96133500D02*
X212787700Y-98636100D01*
X213176000Y-95745200D02*
X212787700Y-96133500D01*
X213176000Y-93128300D02*
X213176000Y-95745200D01*
X214326600Y-91977700D02*
X213176000Y-93128300D01*
X217374700Y-91977700D02*
X214326600Y-91977700D01*
X233667200Y-75570000D02*
X233667200Y-91977700D01*
X233662200Y-75565000D02*
X233667200Y-75570000D01*
X219251000Y-68236200D02*
X218913700Y-67898900D01*
X219251000Y-98823300D02*
X219251000Y-68236200D01*
X220686300Y-100258600D02*
X219251000Y-98823300D01*
X189372100Y-118518300D02*
X189372100Y-118074700D01*
X191399700Y-118518300D02*
X189372100Y-118518300D01*
X194207400Y-115710600D02*
X191399700Y-118518300D01*
X197178000Y-115710600D02*
X194207400Y-115710600D01*
X198404700Y-114483900D02*
X197178000Y-115710600D01*
X210844700Y-114483900D02*
X198404700Y-114483900D01*
X214189800Y-117829000D02*
X210844700Y-114483900D01*
X215924500Y-117829000D02*
X214189800Y-117829000D01*
X217656300Y-116097200D02*
X215924500Y-117829000D01*
X217656300Y-105156500D02*
X217656300Y-116097200D01*
X216671400Y-104171600D02*
X217656300Y-105156500D01*
X216671400Y-101165400D02*
X216671400Y-104171600D01*
X217499400Y-100337400D02*
X216671400Y-101165400D01*
X221347100Y-108030600D02*
X221347100Y-121178100D01*
X224038700Y-105339000D02*
X221347100Y-108030600D01*
X224038700Y-100116900D02*
X224038700Y-105339000D01*
X221247500Y-97325700D02*
X224038700Y-100116900D01*
X221247500Y-69157500D02*
X221247500Y-97325700D01*
X218544900Y-66454900D02*
X221247500Y-69157500D01*
X218544900Y-66006900D02*
X218544900Y-66454900D01*
X222114800Y-125250100D02*
X221580000Y-125784900D01*
X222114800Y-109868900D02*
X222114800Y-125250100D01*
X226569900Y-105413800D02*
X222114800Y-109868900D01*
X226569900Y-102011200D02*
X226569900Y-105413800D01*
X221697800Y-97139100D02*
X226569900Y-102011200D01*
X221697800Y-68793200D02*
X221697800Y-97139100D01*
X220093300Y-67188700D02*
X221697800Y-68793200D01*
X220093300Y-62363600D02*
X220093300Y-67188700D01*
X219026500Y-61296800D02*
X220093300Y-62363600D01*
X177031000Y-110403400D02*
X181324800Y-106109600D01*
X174172300Y-110403400D02*
X177031000Y-110403400D01*
X173565900Y-109797000D02*
X174172300Y-110403400D01*
X221840800Y-98821000D02*
X221840800Y-101333100D01*
X219881200Y-96861400D02*
X221840800Y-98821000D01*
X219881200Y-77735400D02*
X219881200Y-96861400D01*
X213864700Y-111379200D02*
X213864700Y-110981000D01*
X214739400Y-112253900D02*
X213864700Y-111379200D01*
X215782500Y-112253900D02*
X214739400Y-112253900D01*
X216436600Y-111599800D02*
X215782500Y-112253900D01*
X216436600Y-110700000D02*
X216436600Y-111599800D01*
X215591600Y-109855000D02*
X216436600Y-110700000D01*
X214871800Y-109855000D02*
X215591600Y-109855000D01*
X214088900Y-109072100D02*
X214871800Y-109855000D01*
X214088900Y-100502900D02*
X214088900Y-109072100D01*
X214894300Y-99697500D02*
X214088900Y-100502900D01*
X217772300Y-99697500D02*
X214894300Y-99697500D01*
X218578100Y-100503300D02*
X217772300Y-99697500D01*
X218578100Y-101333100D02*
X218578100Y-100503300D01*
X215185000Y-88265000D02*
X215265000Y-88265000D01*
X211374800Y-92075200D02*
X215185000Y-88265000D01*
X211374800Y-98184900D02*
X211374800Y-92075200D01*
X209653300Y-99906400D02*
X211374800Y-98184900D01*
X226695000Y-128905000D02*
X226695000Y-127729700D01*
X229092000Y-82058000D02*
X230505000Y-80645000D01*
X229092000Y-105112000D02*
X229092000Y-82058000D01*
X224402200Y-109801800D02*
X229092000Y-105112000D01*
X224402200Y-125436900D02*
X224402200Y-109801800D01*
X226695000Y-127729700D02*
X224402200Y-125436900D01*
X200602000Y-72448000D02*
X203481800Y-72448000D01*
X193232500Y-79817500D02*
X200602000Y-72448000D01*
X174079200Y-69557500D02*
X174079200Y-69482800D01*
X170441400Y-73195300D02*
X174079200Y-69557500D01*
X164116800Y-73195300D02*
X170441400Y-73195300D01*
X163934300Y-73377800D02*
X164116800Y-73195300D01*
X208302700Y-68781900D02*
X207848700Y-68327900D01*
X211255200Y-68781900D02*
X208302700Y-68781900D01*
X213217500Y-66819600D02*
X211255200Y-68781900D01*
X215738100Y-66819600D02*
X213217500Y-66819600D01*
X217138200Y-68219700D02*
X215738100Y-66819600D01*
X217138200Y-68558300D02*
X217138200Y-68219700D01*
X96746700Y-95908800D02*
X100708000Y-99870100D01*
X77501200Y-95908800D02*
X96746700Y-95908800D01*
X75565000Y-97845000D02*
X77501200Y-95908800D01*
X175260000Y-101600000D02*
X177036800Y-99823200D01*
X198625900Y-99236100D02*
X198625900Y-100305000D01*
X199887700Y-97974300D02*
X198625900Y-99236100D01*
X199887700Y-96822800D02*
X199887700Y-97974300D01*
X201417100Y-95293400D02*
X199887700Y-96822800D01*
X205585500Y-95293400D02*
X201417100Y-95293400D01*
X215153900Y-85725000D02*
X205585500Y-95293400D01*
X215265000Y-85725000D02*
X215153900Y-85725000D01*
X85334400Y-75438300D02*
X86422100Y-75438300D01*
X85334400Y-77531700D02*
X85334400Y-75438300D01*
X84251100Y-78615000D02*
X85334400Y-77531700D01*
X83689200Y-78615000D02*
X84251100Y-78615000D01*
X81280000Y-81024200D02*
X83689200Y-78615000D01*
X81280000Y-88015000D02*
X81280000Y-81024200D01*
X84432300Y-71142700D02*
X81280000Y-74295000D01*
X84988600Y-71142700D02*
X84432300Y-71142700D01*
X85334400Y-71488500D02*
X84988600Y-71142700D01*
X85334400Y-75438300D02*
X85334400Y-71488500D01*
X225172700Y-71962700D02*
X227505000Y-74295000D01*
X225172700Y-69261400D02*
X225172700Y-71962700D01*
X210567600Y-69261400D02*
X206667500Y-73161500D01*
X216624500Y-69261400D02*
X210567600Y-69261400D01*
X87047400Y-75697400D02*
X87047400Y-73768600D01*
X86732500Y-76012300D02*
X87047400Y-75697400D01*
X86732500Y-81672500D02*
X86732500Y-76012300D01*
X83950000Y-84455000D02*
X86732500Y-81672500D01*
X130175000Y-90805000D02*
X130175000Y-89629700D01*
X129990900Y-89445600D02*
X129990900Y-87080000D01*
X130175000Y-89629700D02*
X129990900Y-89445600D01*
X222563300Y-64264200D02*
X221415500Y-63116400D01*
X222563300Y-72244500D02*
X222563300Y-64264200D01*
X222480300Y-72327500D02*
X222563300Y-72244500D01*
X217673600Y-72257500D02*
X217673600Y-71883100D01*
X215660800Y-74270300D02*
X217673600Y-72257500D01*
X214474700Y-74270300D02*
X215660800Y-74270300D01*
X208965000Y-79780000D02*
X214474700Y-74270300D01*
X132715000Y-90805000D02*
X132715000Y-89629700D01*
X230505000Y-60325000D02*
X227048800Y-56868800D01*
X131080000Y-87994700D02*
X132715000Y-89629700D01*
X131080000Y-80380600D02*
X131080000Y-87994700D01*
X137348500Y-74112100D02*
X131080000Y-80380600D01*
X137348500Y-65346500D02*
X137348500Y-74112100D01*
X138575600Y-64119400D02*
X137348500Y-65346500D01*
X141361300Y-64119400D02*
X138575600Y-64119400D01*
X142475700Y-63005000D02*
X141361300Y-64119400D01*
X142475700Y-61591600D02*
X142475700Y-63005000D01*
X180012700Y-89535000D02*
X180775300Y-89535000D01*
X180012700Y-89535000D02*
X179250000Y-89535000D01*
X179250000Y-89535000D02*
X177724700Y-89535000D01*
X279400000Y-70595700D02*
X279400000Y-78105000D01*
X275807300Y-67003000D02*
X279400000Y-70595700D01*
X275807300Y-62647700D02*
X275807300Y-67003000D01*
X279400000Y-59055000D02*
X275807300Y-62647700D01*
X237707300Y-100747700D02*
X241300000Y-97155000D01*
X237707300Y-105103000D02*
X237707300Y-100747700D01*
X241300000Y-108695700D02*
X237707300Y-105103000D01*
X241300000Y-116205000D02*
X241300000Y-108695700D01*
X186719800Y-95914800D02*
X184143100Y-95914800D01*
X187960000Y-97155000D02*
X186719800Y-95914800D01*
X184143100Y-97714200D02*
X184143100Y-95914800D01*
X176353500Y-105503800D02*
X184143100Y-97714200D01*
X174817600Y-105503800D02*
X176353500Y-105503800D01*
X168910000Y-111411400D02*
X174817600Y-105503800D01*
X168910000Y-116205000D02*
X168910000Y-111411400D01*
X275773700Y-81731300D02*
X279400000Y-78105000D01*
X275773700Y-85382600D02*
X275773700Y-81731300D01*
X279400000Y-89008900D02*
X275773700Y-85382600D01*
X279400000Y-97155000D02*
X279400000Y-89008900D01*
X130810000Y-116690200D02*
X130810000Y-116205000D01*
X129580500Y-117919700D02*
X130810000Y-116690200D01*
X125706300Y-117919700D02*
X129580500Y-117919700D01*
X124497200Y-116710600D02*
X125706300Y-117919700D01*
X104985500Y-128480500D02*
X92710000Y-116205000D01*
X112727300Y-128480500D02*
X104985500Y-128480500D01*
X124497200Y-116710600D02*
X112727300Y-128480500D01*
X279400000Y-97791900D02*
X279400000Y-97155000D01*
X275789900Y-101402000D02*
X279400000Y-97791900D01*
X275789900Y-104332600D02*
X275789900Y-101402000D01*
X279400000Y-107942700D02*
X275789900Y-104332600D01*
X279400000Y-116840000D02*
X279400000Y-107942700D01*
X180796100Y-89514200D02*
X180972400Y-89514200D01*
X180775300Y-89535000D02*
X180796100Y-89514200D01*
X124497200Y-115414900D02*
X124497200Y-116710600D01*
X131091300Y-108820800D02*
X124497200Y-115414900D01*
X131091300Y-105561100D02*
X131091300Y-108820800D01*
X133443700Y-103208700D02*
X131091300Y-105561100D01*
X133443700Y-101414500D02*
X133443700Y-103208700D01*
X134635000Y-100223200D02*
X133443700Y-101414500D01*
X134635000Y-95181700D02*
X134635000Y-100223200D01*
X134479700Y-95026400D02*
X134635000Y-95181700D01*
X246356500Y-83161500D02*
X241300000Y-78105000D01*
X246356500Y-92098500D02*
X246356500Y-83161500D01*
X241300000Y-97155000D02*
X246356500Y-92098500D01*
X181278000Y-95914800D02*
X178131700Y-92768500D01*
X184143100Y-95914800D02*
X181278000Y-95914800D01*
X177274400Y-91911200D02*
X178131700Y-92768500D01*
X177274400Y-89985300D02*
X177274400Y-91911200D01*
X177724700Y-89535000D02*
X177274400Y-89985300D01*
X241300000Y-70595700D02*
X241300000Y-78105000D01*
X237707300Y-67003000D02*
X241300000Y-70595700D01*
X237707300Y-62647700D02*
X237707300Y-67003000D01*
X241300000Y-59055000D02*
X237707300Y-62647700D01*
X183656300Y-89221700D02*
X183363800Y-89514200D01*
X183656300Y-74922500D02*
X183656300Y-89221700D01*
X183449000Y-74715200D02*
X183656300Y-74922500D01*
X183449000Y-74147000D02*
X183449000Y-74715200D01*
X180030200Y-70728200D02*
X183449000Y-74147000D01*
X179874100Y-70728200D02*
X180030200Y-70728200D01*
X179874100Y-70728100D02*
X179874100Y-70728200D01*
X176799500Y-67653500D02*
X179874100Y-70728100D01*
X176799500Y-65295900D02*
X176799500Y-67653500D01*
X168170000Y-83185000D02*
X169095300Y-83185000D01*
X180012700Y-88265000D02*
X180775300Y-88265000D01*
X180012700Y-88265000D02*
X179250000Y-88265000D01*
X281658600Y-78105000D02*
X281940000Y-78105000D01*
X280441100Y-76887500D02*
X281658600Y-78105000D01*
X280441100Y-66290900D02*
X280441100Y-76887500D01*
X281940000Y-64792000D02*
X280441100Y-66290900D01*
X281940000Y-59055000D02*
X281940000Y-64792000D01*
X281658600Y-97155000D02*
X281940000Y-97155000D01*
X280441100Y-115341100D02*
X281940000Y-116840000D01*
X280441100Y-104390900D02*
X280441100Y-115341100D01*
X281658600Y-103173400D02*
X280441100Y-104390900D01*
X281658600Y-97155000D02*
X281658600Y-103173400D01*
X242341100Y-114706100D02*
X243840000Y-116205000D01*
X242341100Y-104390900D02*
X242341100Y-114706100D01*
X243840000Y-102892000D02*
X242341100Y-104390900D01*
X243840000Y-97155000D02*
X243840000Y-102892000D01*
X168170000Y-83185000D02*
X167244700Y-83185000D01*
X280441100Y-95937500D02*
X281658600Y-97155000D01*
X280441100Y-85340900D02*
X280441100Y-95937500D01*
X281208300Y-84573700D02*
X280441100Y-85340900D01*
X281208300Y-78555300D02*
X281208300Y-84573700D01*
X281658600Y-78105000D02*
X281208300Y-78555300D01*
X146260700Y-95906200D02*
X152400000Y-95906200D01*
X146005300Y-96161600D02*
X146260700Y-95906200D01*
X146005300Y-97929900D02*
X146005300Y-96161600D01*
X145772100Y-98163100D02*
X146005300Y-97929900D01*
X145772100Y-104620500D02*
X145772100Y-98163100D01*
X147989400Y-106837800D02*
X145772100Y-104620500D01*
X147989400Y-108731500D02*
X147989400Y-106837800D01*
X141000600Y-115720300D02*
X147989400Y-108731500D01*
X133834700Y-115720300D02*
X141000600Y-115720300D01*
X133350000Y-116205000D02*
X133834700Y-115720300D01*
X152400000Y-97155000D02*
X152400000Y-95906200D01*
X108704200Y-110432900D02*
X108704200Y-112292600D01*
X112831600Y-106305500D02*
X108704200Y-110432900D01*
X112831600Y-98623400D02*
X112831600Y-106305500D01*
X114300000Y-97155000D02*
X112831600Y-98623400D01*
X105745000Y-111893600D02*
X105745000Y-111862200D01*
X100429100Y-117209500D02*
X105745000Y-111893600D01*
X188832400Y-95487400D02*
X190500000Y-97155000D01*
X187432700Y-95487400D02*
X188832400Y-95487400D01*
X187068800Y-95123500D02*
X187432700Y-95487400D01*
X181608400Y-95123500D02*
X187068800Y-95123500D01*
X177724700Y-91239800D02*
X181608400Y-95123500D01*
X177724700Y-90299400D02*
X177724700Y-91239800D01*
X177854100Y-90170000D02*
X177724700Y-90299400D01*
X181201000Y-90170000D02*
X177854100Y-90170000D01*
X181624300Y-89746700D02*
X181201000Y-90170000D01*
X181624300Y-89114000D02*
X181624300Y-89746700D01*
X180775300Y-88265000D02*
X181624300Y-89114000D01*
X152400000Y-93641400D02*
X152400000Y-95906200D01*
X163802100Y-82239300D02*
X152400000Y-93641400D01*
X166299000Y-82239300D02*
X163802100Y-82239300D01*
X167244700Y-83185000D02*
X166299000Y-82239300D01*
X246850700Y-81115700D02*
X243840000Y-78105000D01*
X246850700Y-94144300D02*
X246850700Y-81115700D01*
X243840000Y-97155000D02*
X246850700Y-94144300D01*
X242341100Y-76606100D02*
X243840000Y-78105000D01*
X242341100Y-66290900D02*
X242341100Y-76606100D01*
X243840000Y-64792000D02*
X242341100Y-66290900D01*
X243840000Y-59055000D02*
X243840000Y-64792000D01*
X182998700Y-85938600D02*
X183031000Y-85970900D01*
X182998700Y-74333600D02*
X182998700Y-85938600D01*
X180002900Y-71337800D02*
X182998700Y-74333600D01*
X179599400Y-71337800D02*
X180002900Y-71337800D01*
X179221800Y-70960200D02*
X179599400Y-71337800D01*
X191983900Y-69279400D02*
X191429100Y-69834200D01*
X191983900Y-66647400D02*
X191983900Y-69279400D01*
X190500000Y-65163500D02*
X191983900Y-66647400D01*
X190500000Y-59055000D02*
X190500000Y-65163500D01*
X181640600Y-87399700D02*
X180775300Y-88265000D01*
X181640600Y-86589600D02*
X181640600Y-87399700D01*
X181068200Y-86017200D02*
X181640600Y-86589600D01*
X170191900Y-84281600D02*
X169095300Y-83185000D01*
X170191900Y-85948900D02*
X170191900Y-84281600D01*
X170029600Y-86111200D02*
X170191900Y-85948900D01*
X173073800Y-114581200D02*
X171450000Y-116205000D01*
X173073800Y-114241200D02*
X173073800Y-114581200D01*
X173440100Y-113874900D02*
X173073800Y-114241200D01*
X173780100Y-113874900D02*
X173440100Y-113874900D01*
X174625000Y-113030000D02*
X173780100Y-113874900D01*
X175655100Y-113030000D02*
X174625000Y-113030000D01*
X182799100Y-105886000D02*
X175655100Y-113030000D01*
X182799100Y-101559600D02*
X182799100Y-105886000D01*
X185499600Y-98859100D02*
X182799100Y-101559600D01*
X188795900Y-98859100D02*
X185499600Y-98859100D01*
X190500000Y-97155000D02*
X188795900Y-98859100D01*
X208279300Y-114934300D02*
X209550000Y-116205000D01*
X199192800Y-114934300D02*
X208279300Y-114934300D01*
X197966100Y-116161000D02*
X199192800Y-114934300D01*
X195755300Y-116161000D02*
X197966100Y-116161000D01*
X187664000Y-124252300D02*
X195755300Y-116161000D01*
X181077900Y-124252300D02*
X187664000Y-124252300D01*
X179719300Y-125610900D02*
X181077900Y-124252300D01*
X174763700Y-125610900D02*
X179719300Y-125610900D01*
X174026000Y-124873200D02*
X174763700Y-125610900D01*
X174026000Y-120917200D02*
X174026000Y-124873200D01*
X173575700Y-120466900D02*
X174026000Y-120917200D01*
X173575700Y-119203700D02*
X173575700Y-120466900D01*
X172732600Y-118360600D02*
X173575700Y-119203700D01*
X172732600Y-117987400D02*
X172732600Y-118360600D01*
X172864400Y-117855600D02*
X172732600Y-117987400D01*
X171450000Y-116441200D02*
X172864400Y-117855600D01*
X171450000Y-116205000D02*
X171450000Y-116441200D01*
X168170000Y-86360000D02*
X169095300Y-86360000D01*
X180012700Y-86995000D02*
X180775300Y-86995000D01*
X180012700Y-86995000D02*
X179250000Y-86995000D01*
X179250000Y-86995000D02*
X177724700Y-86995000D01*
X274085200Y-77870200D02*
X274202600Y-77987600D01*
X274085200Y-67135000D02*
X274085200Y-77870200D01*
X274320000Y-66900200D02*
X274085200Y-67135000D01*
X274320000Y-59055000D02*
X274320000Y-66900200D01*
X274202600Y-77987600D02*
X274320000Y-78105000D01*
X274320000Y-103720800D02*
X274320000Y-97155000D01*
X274074600Y-103966200D02*
X274320000Y-103720800D01*
X274074600Y-116594600D02*
X274074600Y-103966200D01*
X274320000Y-116840000D02*
X274074600Y-116594600D01*
X106680000Y-97155000D02*
X87630000Y-116205000D01*
X167562300Y-112472700D02*
X163830000Y-116205000D01*
X167837600Y-112472700D02*
X167562300Y-112472700D01*
X167837600Y-112472700D02*
X168257600Y-112892700D01*
X145243900Y-97155000D02*
X144780000Y-97155000D01*
X126955700Y-117430700D02*
X125730000Y-116205000D01*
X129389300Y-117430700D02*
X126955700Y-117430700D01*
X129495400Y-117324600D02*
X129389300Y-117430700D01*
X129495400Y-115738000D02*
X129495400Y-117324600D01*
X131585100Y-113648300D02*
X129495400Y-115738000D01*
X133533400Y-113648300D02*
X131585100Y-113648300D01*
X133533400Y-113648200D02*
X133533400Y-113648300D01*
X137811900Y-109369700D02*
X133533400Y-113648200D01*
X143170000Y-109369700D02*
X137811900Y-109369700D01*
X143225500Y-109425200D02*
X143170000Y-109369700D01*
X146658700Y-109425200D02*
X143225500Y-109425200D01*
X147539100Y-108544800D02*
X146658700Y-109425200D01*
X147539100Y-107024400D02*
X147539100Y-108544800D01*
X145243900Y-104729200D02*
X147539100Y-107024400D01*
X145243900Y-97155000D02*
X145243900Y-104729200D01*
X236008800Y-77893800D02*
X236220000Y-78105000D01*
X236008800Y-65849400D02*
X236008800Y-77893800D01*
X236220000Y-65638200D02*
X236008800Y-65849400D01*
X236220000Y-59055000D02*
X236220000Y-65638200D01*
X273632800Y-96467800D02*
X274320000Y-97155000D01*
X273632800Y-85363600D02*
X273632800Y-96467800D01*
X274252900Y-84743500D02*
X273632800Y-85363600D01*
X274252900Y-78037900D02*
X274252900Y-84743500D01*
X274202600Y-77987600D02*
X274252900Y-78037900D01*
X245350500Y-88024500D02*
X236220000Y-97155000D01*
X245350500Y-85793800D02*
X245350500Y-88024500D01*
X239850800Y-80294100D02*
X245350500Y-85793800D01*
X238409000Y-80294100D02*
X239850800Y-80294100D01*
X238409000Y-80294000D02*
X238409000Y-80294100D01*
X236220000Y-78105000D02*
X238409000Y-80294000D01*
X236220000Y-100786500D02*
X236220000Y-97155000D01*
X236614000Y-101180500D02*
X236220000Y-100786500D01*
X236614000Y-104167200D02*
X236614000Y-101180500D01*
X235966700Y-104814500D02*
X236614000Y-104167200D01*
X235966700Y-115951700D02*
X235966700Y-104814500D01*
X236220000Y-116205000D02*
X235966700Y-115951700D01*
X176824100Y-92863500D02*
X176988200Y-93027600D01*
X176824100Y-87895600D02*
X176824100Y-92863500D01*
X177724700Y-86995000D02*
X176824100Y-87895600D01*
X177506300Y-93027600D02*
X176988200Y-93027600D01*
X181633700Y-97155000D02*
X177506300Y-93027600D01*
X182880000Y-97155000D02*
X181633700Y-97155000D01*
X167837600Y-106589400D02*
X167837600Y-112472700D01*
X170630300Y-103796700D02*
X167837600Y-106589400D01*
X170630300Y-103159800D02*
X170630300Y-103796700D01*
X173251100Y-100539000D02*
X170630300Y-103159800D01*
X173251100Y-96764700D02*
X173251100Y-100539000D01*
X176988200Y-93027600D02*
X173251100Y-96764700D01*
X145243900Y-96244300D02*
X159740900Y-81747300D01*
X145243900Y-97155000D02*
X145243900Y-96244300D01*
X159740900Y-76224400D02*
X157123000Y-73606500D01*
X159740900Y-81747300D02*
X159740900Y-76224400D01*
X177865700Y-56021300D02*
X181889700Y-60045300D01*
X164687400Y-56021300D02*
X177865700Y-56021300D01*
X159101300Y-61607400D02*
X164687400Y-56021300D01*
X159101300Y-66801300D02*
X159101300Y-61607400D01*
X159369700Y-67069700D02*
X159101300Y-66801300D01*
X159369700Y-72533400D02*
X159369700Y-67069700D01*
X159101300Y-72801800D02*
X159369700Y-72533400D01*
X180775300Y-86995000D02*
X180952700Y-86817600D01*
X169146500Y-86360000D02*
X169507300Y-86720800D01*
X169095300Y-86360000D02*
X169146500Y-86360000D01*
X168441800Y-81747300D02*
X159740900Y-81747300D01*
X170654900Y-83960400D02*
X168441800Y-81747300D01*
X170654900Y-86370300D02*
X170654900Y-83960400D01*
X170288700Y-86736500D02*
X170654900Y-86370300D01*
X169523000Y-86736500D02*
X170288700Y-86736500D01*
X169507300Y-86720800D02*
X169523000Y-86736500D01*
X168170000Y-89535000D02*
X169095300Y-89535000D01*
X260350000Y-69864700D02*
X260350000Y-78105000D01*
X256734600Y-66249300D02*
X260350000Y-69864700D01*
X256734600Y-62670400D02*
X256734600Y-66249300D01*
X260350000Y-59055000D02*
X256734600Y-62670400D01*
X298450000Y-89645700D02*
X298450000Y-97155000D01*
X294845900Y-86041600D02*
X298450000Y-89645700D01*
X294845900Y-82850200D02*
X294845900Y-86041600D01*
X298450000Y-79246100D02*
X294845900Y-82850200D01*
X298450000Y-78105000D02*
X298450000Y-79246100D01*
X298450000Y-107964700D02*
X298450000Y-116205000D01*
X294834600Y-104349300D02*
X298450000Y-107964700D01*
X294834600Y-100770400D02*
X294834600Y-104349300D01*
X298450000Y-97155000D02*
X294834600Y-100770400D01*
X260350000Y-89645700D02*
X260350000Y-97155000D01*
X256745900Y-86041600D02*
X260350000Y-89645700D01*
X256745900Y-82850200D02*
X256745900Y-86041600D01*
X260350000Y-79246100D02*
X256745900Y-82850200D01*
X260350000Y-78105000D02*
X260350000Y-79246100D01*
X298450000Y-59055000D02*
X296007000Y-61498000D01*
X298450000Y-69864700D02*
X298450000Y-78105000D01*
X294834600Y-66249300D02*
X298450000Y-69864700D01*
X294834600Y-62670400D02*
X294834600Y-66249300D01*
X296007000Y-61498000D02*
X294834600Y-62670400D01*
X111760000Y-113633100D02*
X124125300Y-101267800D01*
X111760000Y-116205000D02*
X111760000Y-113633100D01*
X126697200Y-101267800D02*
X130810000Y-97155000D01*
X124125300Y-101267800D02*
X126697200Y-101267800D01*
X260350000Y-107964700D02*
X260350000Y-116205000D01*
X256734600Y-104349300D02*
X260350000Y-107964700D01*
X256734600Y-100770400D02*
X256734600Y-104349300D01*
X260350000Y-97155000D02*
X256734600Y-100770400D01*
X262060200Y-57344800D02*
X260350000Y-59055000D01*
X293406600Y-57344800D02*
X262060200Y-57344800D01*
X294684600Y-58622800D02*
X293406600Y-57344800D01*
X294684600Y-60175600D02*
X294684600Y-58622800D01*
X296007000Y-61498000D02*
X294684600Y-60175600D01*
X260350000Y-116244700D02*
X257973800Y-118620900D01*
X260350000Y-116205000D02*
X260350000Y-116244700D01*
X173705900Y-93688900D02*
X171798600Y-95596200D01*
X173705900Y-88558300D02*
X173705900Y-93688900D01*
X176539200Y-85725000D02*
X179250000Y-85725000D01*
X173705900Y-88558300D02*
X176539200Y-85725000D01*
X168910000Y-97683100D02*
X168910000Y-97155000D01*
X164424300Y-102168800D02*
X168910000Y-97683100D01*
X164424300Y-103442600D02*
X164424300Y-102168800D01*
X161657700Y-106209200D02*
X164424300Y-103442600D01*
X161657700Y-111741100D02*
X161657700Y-106209200D01*
X160473700Y-112925100D02*
X161657700Y-111741100D01*
X153942000Y-112925100D02*
X160473700Y-112925100D01*
X150649100Y-116218000D02*
X153942000Y-112925100D01*
X150636100Y-116205000D02*
X150649100Y-116218000D01*
X149860000Y-116205000D02*
X150636100Y-116205000D01*
X154945500Y-120514400D02*
X155300900Y-120514400D01*
X150649100Y-116218000D02*
X154945500Y-120514400D01*
X171177100Y-88558300D02*
X173705900Y-88558300D01*
X170200400Y-89535000D02*
X171177100Y-88558300D01*
X169095300Y-89535000D02*
X170200400Y-89535000D01*
X174229700Y-118336600D02*
X174230000Y-118336600D01*
X174324800Y-118241500D02*
X174229700Y-118336600D01*
X175481100Y-118241500D02*
X174324800Y-118241500D01*
X177383000Y-116339600D02*
X175481100Y-118241500D01*
X177383000Y-114751800D02*
X177383000Y-116339600D01*
X189204400Y-117449400D02*
X187960000Y-116205000D01*
X189631200Y-117449400D02*
X189204400Y-117449400D01*
X189632200Y-117450400D02*
X189631200Y-117449400D01*
X191045900Y-117450400D02*
X189632200Y-117450400D01*
X192551800Y-115944500D02*
X191045900Y-117450400D01*
X192551800Y-109310200D02*
X192551800Y-115944500D01*
X200241400Y-101620600D02*
X192551800Y-109310200D01*
X202911500Y-101620600D02*
X200241400Y-101620600D01*
X207010000Y-97522100D02*
X202911500Y-101620600D01*
X207010000Y-97155000D02*
X207010000Y-97522100D01*
X300708600Y-78105000D02*
X300990000Y-78105000D01*
X299491100Y-76887500D02*
X300708600Y-78105000D01*
X299491100Y-66290900D02*
X299491100Y-76887500D01*
X300990000Y-64792000D02*
X299491100Y-66290900D01*
X300990000Y-59055000D02*
X300990000Y-64792000D01*
X262608600Y-78105000D02*
X262890000Y-78105000D01*
X261391100Y-76887500D02*
X262608600Y-78105000D01*
X261391100Y-66290900D02*
X261391100Y-76887500D01*
X262890000Y-64792000D02*
X261391100Y-66290900D01*
X262890000Y-59055000D02*
X262890000Y-64792000D01*
X300708600Y-97155000D02*
X300990000Y-97155000D01*
X299491100Y-114706100D02*
X300990000Y-116205000D01*
X299491100Y-104390900D02*
X299491100Y-114706100D01*
X300708600Y-103173400D02*
X299491100Y-104390900D01*
X300708600Y-97155000D02*
X300708600Y-103173400D01*
X262608600Y-97155000D02*
X262890000Y-97155000D01*
X261391100Y-114706100D02*
X262890000Y-116205000D01*
X261391100Y-104390900D02*
X261391100Y-114706100D01*
X262608600Y-103173400D02*
X261391100Y-104390900D01*
X262608600Y-97155000D02*
X262608600Y-103173400D01*
X299491100Y-95937500D02*
X300708600Y-97155000D01*
X299491100Y-85340900D02*
X299491100Y-95937500D01*
X300258300Y-84573700D02*
X299491100Y-85340900D01*
X300258300Y-78555300D02*
X300258300Y-84573700D01*
X300708600Y-78105000D02*
X300258300Y-78555300D01*
X261391100Y-95937500D02*
X262608600Y-97155000D01*
X261391100Y-85340900D02*
X261391100Y-95937500D01*
X262158300Y-84573700D02*
X261391100Y-85340900D01*
X262158300Y-78555300D02*
X262158300Y-84573700D01*
X262608600Y-78105000D02*
X262158300Y-78555300D01*
X179250000Y-84455000D02*
X177724700Y-84455000D01*
X120904700Y-116205000D02*
X114300000Y-116205000D01*
X128516500Y-108593200D02*
X120904700Y-116205000D01*
X128516500Y-107499000D02*
X128516500Y-108593200D01*
X132899700Y-103115800D02*
X128516500Y-107499000D01*
X132899700Y-97605300D02*
X132899700Y-103115800D01*
X133350000Y-97155000D02*
X132899700Y-97605300D01*
X208275700Y-95880700D02*
X209550000Y-97155000D01*
X206543600Y-95880700D02*
X208275700Y-95880700D01*
X205695400Y-96728900D02*
X206543600Y-95880700D01*
X205695400Y-98199800D02*
X205695400Y-96728900D01*
X205309700Y-98585500D02*
X205695400Y-98199800D01*
X201002200Y-98585500D02*
X205309700Y-98585500D01*
X201002200Y-99450000D02*
X201002200Y-98585500D01*
X190500000Y-109952200D02*
X201002200Y-99450000D01*
X190500000Y-116205000D02*
X190500000Y-109952200D01*
X214500400Y-97252500D02*
X216617100Y-97252500D01*
X213904400Y-96656500D02*
X214500400Y-97252500D01*
X192214400Y-78544500D02*
X192143000Y-78544500D01*
X201890900Y-68868000D02*
X192214400Y-78544500D01*
X201890900Y-63894200D02*
X201890900Y-68868000D01*
X205695400Y-60089700D02*
X201890900Y-63894200D01*
X205695400Y-58604400D02*
X205695400Y-60089700D01*
X206507000Y-57792800D02*
X205695400Y-58604400D01*
X208287800Y-57792800D02*
X206507000Y-57792800D01*
X209550000Y-59055000D02*
X208287800Y-57792800D01*
X177014800Y-80026800D02*
X177014800Y-79360100D01*
X175569100Y-81472500D02*
X177014800Y-80026800D01*
X175569100Y-84455000D02*
X175569100Y-81472500D01*
X175569100Y-84455000D02*
X177724700Y-84455000D01*
X174643400Y-84455000D02*
X175569100Y-84455000D01*
X174643400Y-84455100D02*
X174643400Y-84455000D01*
X170661000Y-88437500D02*
X174643400Y-84455100D01*
X167605800Y-88437500D02*
X170661000Y-88437500D01*
X167244600Y-88798700D02*
X167605800Y-88437500D01*
X167244600Y-93449100D02*
X167244600Y-88798700D01*
X168211100Y-94415600D02*
X167244600Y-93449100D01*
X168710600Y-94415600D02*
X168211100Y-94415600D01*
X171450000Y-97155000D02*
X168710600Y-94415600D01*
X153035000Y-115570000D02*
X152400000Y-116205000D01*
X160341900Y-115570000D02*
X153035000Y-115570000D01*
X161670200Y-114241700D02*
X160341900Y-115570000D01*
X161670200Y-114131900D02*
X161670200Y-114241700D01*
X162036500Y-113765600D02*
X161670200Y-114131900D01*
X162138600Y-113765600D02*
X162036500Y-113765600D01*
X162138600Y-106365200D02*
X162138600Y-113765600D01*
X165271600Y-103232200D02*
X162138600Y-106365200D01*
X165271600Y-101958400D02*
X165271600Y-103232200D01*
X168652700Y-98577300D02*
X165271600Y-101958400D01*
X168902100Y-98577300D02*
X168652700Y-98577300D01*
X180012700Y-83185000D02*
X180775300Y-83185000D01*
X296109900Y-75365100D02*
X295792900Y-75682100D01*
X296109900Y-68892400D02*
X296109900Y-75365100D01*
X293370000Y-66152500D02*
X296109900Y-68892400D01*
X293370000Y-59055000D02*
X293370000Y-66152500D01*
X295792900Y-75682100D02*
X293370000Y-78105000D01*
X257692900Y-75682100D02*
X255270000Y-78105000D01*
X293135200Y-96920200D02*
X293370000Y-97155000D01*
X293135200Y-84448400D02*
X293135200Y-96920200D01*
X294167900Y-83415700D02*
X293135200Y-84448400D01*
X294167900Y-82778800D02*
X294167900Y-83415700D01*
X297135400Y-79811300D02*
X294167900Y-82778800D01*
X297135400Y-77024600D02*
X297135400Y-79811300D01*
X295792900Y-75682100D02*
X297135400Y-77024600D01*
X296109900Y-113465100D02*
X293370000Y-116205000D01*
X296109900Y-106992400D02*
X296109900Y-113465100D01*
X293370000Y-104252500D02*
X296109900Y-106992400D01*
X293370000Y-97155000D02*
X293370000Y-104252500D01*
X255035200Y-96920200D02*
X255270000Y-97155000D01*
X255035200Y-84448400D02*
X255035200Y-96920200D01*
X256067900Y-83415700D02*
X255035200Y-84448400D01*
X256067900Y-82778800D02*
X256067900Y-83415700D01*
X259035400Y-79811300D02*
X256067900Y-82778800D01*
X259035400Y-77024600D02*
X259035400Y-79811300D01*
X257692900Y-75682100D02*
X259035400Y-77024600D01*
X180012700Y-83185000D02*
X179250000Y-83185000D01*
X255270000Y-97155000D02*
X255270000Y-99839600D01*
X258009900Y-113465100D02*
X255270000Y-116205000D01*
X258009900Y-106355500D02*
X258009900Y-113465100D01*
X255270000Y-103615600D02*
X258009900Y-106355500D01*
X255270000Y-99839600D02*
X255270000Y-103615600D01*
X125730000Y-97874900D02*
X125730000Y-97155000D01*
X112841300Y-110763600D02*
X125730000Y-97874900D01*
X112121400Y-110763600D02*
X112841300Y-110763600D01*
X106680000Y-116205000D02*
X112121400Y-110763600D01*
X84376100Y-100408900D02*
X84376100Y-117848900D01*
X87630000Y-97155000D02*
X84376100Y-100408900D01*
X182880000Y-114859700D02*
X182880000Y-116205000D01*
X188670700Y-109069000D02*
X182880000Y-114859700D01*
X188973600Y-109069000D02*
X188670700Y-109069000D01*
X193572200Y-104470400D02*
X188973600Y-109069000D01*
X193572200Y-102610100D02*
X193572200Y-104470400D01*
X198222100Y-97960200D02*
X193572200Y-102610100D01*
X255720300Y-59505300D02*
X255270000Y-59055000D01*
X255720300Y-65965900D02*
X255720300Y-59505300D01*
X258460200Y-68705800D02*
X255720300Y-65965900D01*
X258460200Y-74914800D02*
X258460200Y-68705800D01*
X257692900Y-75682100D02*
X258460200Y-74914800D01*
X163830000Y-99407000D02*
X163830000Y-97155000D01*
X160367000Y-102870000D02*
X163830000Y-99407000D01*
X159682600Y-102870000D02*
X160367000Y-102870000D01*
X150241900Y-112310700D02*
X159682600Y-102870000D01*
X150241900Y-114775600D02*
X150241900Y-112310700D01*
X181008500Y-83418200D02*
X181008500Y-85216800D01*
X180775300Y-83185000D02*
X181008500Y-83418200D01*
X169360100Y-85423300D02*
X169566600Y-85216800D01*
X163831300Y-85423300D02*
X169360100Y-85423300D01*
X162668500Y-86586100D02*
X163831300Y-85423300D01*
X162668500Y-92044400D02*
X162668500Y-86586100D01*
X158862400Y-95850500D02*
X162668500Y-92044400D01*
X158862400Y-102049800D02*
X158862400Y-95850500D01*
X159682600Y-102870000D02*
X158862400Y-102049800D01*
X179250000Y-79375000D02*
X180775300Y-79375000D01*
X276860000Y-59055000D02*
X275634700Y-59055000D01*
X180775300Y-79375000D02*
X180953700Y-79196600D01*
X273801700Y-57795100D02*
X269507900Y-62088900D01*
X274824900Y-57795100D02*
X273801700Y-57795100D01*
X275634700Y-58604900D02*
X274824900Y-57795100D01*
X275634700Y-59055000D02*
X275634700Y-58604900D01*
X207124200Y-71015600D02*
X200682900Y-77456900D01*
X207124200Y-66776700D02*
X207124200Y-71015600D01*
X214990500Y-58910400D02*
X207124200Y-66776700D01*
X215939800Y-58910400D02*
X214990500Y-58910400D01*
X216501400Y-58348800D02*
X215939800Y-58910400D01*
X217428400Y-58348800D02*
X216501400Y-58348800D01*
X220598200Y-61518600D02*
X217428400Y-58348800D01*
X220598200Y-66201200D02*
X220598200Y-61518600D01*
X221930800Y-67533800D02*
X220598200Y-66201200D01*
X179250000Y-78105000D02*
X177724700Y-78105000D01*
X257810000Y-59055000D02*
X256584700Y-59055000D01*
X238760000Y-59055000D02*
X239985300Y-59055000D01*
X240751000Y-57829700D02*
X254018600Y-57829700D01*
X239985300Y-58595400D02*
X240751000Y-57829700D01*
X239985300Y-59055000D02*
X239985300Y-58595400D01*
X256584700Y-58595400D02*
X256584700Y-59055000D01*
X255819000Y-57829700D02*
X256584700Y-58595400D01*
X254018600Y-57829700D02*
X255819000Y-57829700D01*
X175283600Y-79129900D02*
X175283600Y-79576600D01*
X176509400Y-77904100D02*
X175283600Y-79129900D01*
X177523800Y-77904100D02*
X176509400Y-77904100D01*
X177724700Y-78105000D02*
X177523800Y-77904100D01*
X254018600Y-62205000D02*
X254018600Y-57829700D01*
X255270000Y-63456400D02*
X254018600Y-62205000D01*
X255270000Y-66152500D02*
X255270000Y-63456400D01*
X258009900Y-68892400D02*
X255270000Y-66152500D01*
X258009900Y-72217500D02*
X258009900Y-68892400D01*
X252339300Y-77888100D02*
X258009900Y-72217500D01*
X252339300Y-109024800D02*
X252339300Y-77888100D01*
X252629000Y-109314500D02*
X252339300Y-109024800D01*
X252629000Y-117075700D02*
X252629000Y-109314500D01*
X251709100Y-117995600D02*
X252629000Y-117075700D01*
X171105200Y-83755000D02*
X175283600Y-79576600D01*
X171105200Y-86556900D02*
X171105200Y-83755000D01*
X170475300Y-87186800D02*
X171105200Y-86556900D01*
X169925700Y-87186800D02*
X170475300Y-87186800D01*
X169766400Y-87346100D02*
X169925700Y-87186800D01*
X168010600Y-87346100D02*
X169766400Y-87346100D01*
X166776000Y-88580700D02*
X168010600Y-87346100D01*
X166776000Y-93617400D02*
X166776000Y-88580700D01*
X168024500Y-94865900D02*
X166776000Y-93617400D01*
X168399100Y-94865900D02*
X168024500Y-94865900D01*
X170180000Y-96646800D02*
X168399100Y-94865900D01*
X170180000Y-103610100D02*
X170180000Y-96646800D01*
X165840100Y-107950000D02*
X170180000Y-103610100D01*
X165100000Y-107950000D02*
X165840100Y-107950000D01*
X162589000Y-110461000D02*
X165100000Y-107950000D01*
X162589000Y-113800000D02*
X162589000Y-110461000D01*
X162920800Y-114131800D02*
X162589000Y-113800000D01*
X162920800Y-114650000D02*
X162920800Y-114131800D01*
X162589000Y-114981800D02*
X162920800Y-114650000D01*
X162589000Y-116698300D02*
X162589000Y-114981800D01*
X165012400Y-119121700D02*
X162589000Y-116698300D01*
X179250000Y-76835000D02*
X180775300Y-76835000D01*
X276860000Y-78105000D02*
X276860000Y-79330300D01*
X275883600Y-80306700D02*
X275883600Y-80643000D01*
X276860000Y-79330300D02*
X275883600Y-80306700D01*
X275320100Y-104824400D02*
X277717100Y-107221400D01*
X275320100Y-100996100D02*
X275320100Y-104824400D01*
X278085400Y-98230800D02*
X275320100Y-100996100D01*
X278085400Y-88599600D02*
X278085400Y-98230800D01*
X275320100Y-85834300D02*
X278085400Y-88599600D01*
X275320100Y-81206500D02*
X275320100Y-85834300D01*
X275883600Y-80643000D02*
X275320100Y-81206500D01*
X139515300Y-88565300D02*
X132865000Y-81915000D01*
X139515300Y-101415300D02*
X139515300Y-88565300D01*
X146050000Y-107950000D02*
X139515300Y-101415300D01*
X181610800Y-80077200D02*
X180967900Y-80720100D01*
X181610800Y-77670500D02*
X181610800Y-80077200D01*
X180775300Y-76835000D02*
X181610800Y-77670500D01*
X179250000Y-75565000D02*
X180775300Y-75565000D01*
X256814400Y-79330300D02*
X257810000Y-79330300D01*
X252797700Y-83347000D02*
X256814400Y-79330300D01*
X252797700Y-104207700D02*
X252797700Y-83347000D01*
X256540000Y-107950000D02*
X252797700Y-104207700D01*
X257810000Y-78105000D02*
X257810000Y-79330300D01*
X117099600Y-104984000D02*
X116110300Y-105973300D01*
X117099600Y-97584700D02*
X117099600Y-104984000D01*
X116266100Y-96751200D02*
X117099600Y-97584700D01*
X116266100Y-84366100D02*
X116266100Y-96751200D01*
X113815000Y-81915000D02*
X116266100Y-84366100D01*
X101130700Y-81915000D02*
X107315000Y-81915000D01*
X93101800Y-73886100D02*
X101130700Y-81915000D01*
X88717600Y-73886100D02*
X93101800Y-73886100D01*
X86235000Y-71403500D02*
X88717600Y-73886100D01*
X86235000Y-70766600D02*
X86235000Y-71403500D01*
X78105000Y-62636600D02*
X86235000Y-70766600D01*
X78105000Y-60325000D02*
X78105000Y-62636600D01*
X107315000Y-77112500D02*
X108635300Y-75792200D01*
X107315000Y-81915000D02*
X107315000Y-77112500D01*
X180958900Y-75381400D02*
X180958900Y-75291200D01*
X180775300Y-75565000D02*
X180958900Y-75381400D01*
X181136200Y-75925900D02*
X181459700Y-75925900D01*
X180775300Y-75565000D02*
X181136200Y-75925900D01*
X179250000Y-74295000D02*
X180775300Y-74295000D01*
X107631500Y-107631500D02*
X107950000Y-107950000D01*
X107631500Y-100457400D02*
X107631500Y-107631500D01*
X107950000Y-100138900D02*
X107631500Y-100457400D01*
X107950000Y-95100000D02*
X107950000Y-100138900D01*
X94765000Y-81915000D02*
X107950000Y-95100000D01*
X179250000Y-74295000D02*
X177724700Y-74295000D01*
X237081800Y-107541800D02*
X237081800Y-100526200D01*
X237490000Y-107950000D02*
X237081800Y-107541800D01*
X148811100Y-69013100D02*
X134846800Y-82977400D01*
X148811100Y-67723900D02*
X148811100Y-69013100D01*
X150495000Y-66040000D02*
X148811100Y-67723900D01*
X177234500Y-73804800D02*
X177724700Y-74295000D01*
X166134500Y-73804800D02*
X177234500Y-73804800D01*
X165936200Y-74003100D02*
X166134500Y-73804800D01*
X158458100Y-74003100D02*
X165936200Y-74003100D01*
X150495000Y-66040000D02*
X158458100Y-74003100D01*
X180775300Y-74295000D02*
X180964100Y-74295000D01*
X184106700Y-86101100D02*
X185534100Y-87528500D01*
X184106700Y-74488600D02*
X184106700Y-86101100D01*
X184074300Y-74456200D02*
X184106700Y-74488600D01*
X200121300Y-85748300D02*
X200121300Y-86901700D01*
X198723900Y-84350900D02*
X200121300Y-85748300D01*
X207706800Y-100767100D02*
X207706800Y-101211700D01*
X210924400Y-97549500D02*
X207706800Y-100767100D01*
X210924400Y-91475700D02*
X210924400Y-97549500D01*
X213418100Y-88982000D02*
X210924400Y-91475700D01*
X217206000Y-108827800D02*
X217008200Y-108630000D01*
X217206000Y-115910600D02*
X217206000Y-108827800D01*
X215737900Y-117378700D02*
X217206000Y-115910600D01*
X214806600Y-117378700D02*
X215737900Y-117378700D01*
X212185400Y-114757500D02*
X214806600Y-117378700D01*
X212185400Y-101211700D02*
X212185400Y-114757500D01*
X290921000Y-73569000D02*
X290921000Y-95568200D01*
X294640000Y-69850000D02*
X290921000Y-73569000D01*
X290921000Y-123281000D02*
X294640000Y-127000000D01*
X290921000Y-95568200D02*
X290921000Y-123281000D01*
X189050000Y-74295000D02*
X187524700Y-74295000D01*
X148590000Y-59690000D02*
X148590000Y-59430700D01*
X150029700Y-59430700D02*
X150442700Y-59017700D01*
X148590000Y-59430700D02*
X150029700Y-59430700D01*
X172423100Y-59079200D02*
X172238400Y-59263900D01*
X173249900Y-59079200D02*
X172423100Y-59079200D01*
X182520000Y-68349300D02*
X173249900Y-59079200D01*
X182520000Y-70370100D02*
X182520000Y-68349300D01*
X184629900Y-72480000D02*
X182520000Y-70370100D01*
X185709700Y-72480000D02*
X184629900Y-72480000D01*
X187524700Y-74295000D02*
X185709700Y-72480000D01*
X176893600Y-121894300D02*
X176893600Y-122301700D01*
X175504700Y-120505400D02*
X176893600Y-121894300D01*
X174717200Y-120505400D02*
X175504700Y-120505400D01*
X174026000Y-119814200D02*
X174717200Y-120505400D01*
X174026000Y-119017100D02*
X174026000Y-119814200D01*
X173570000Y-118561100D02*
X174026000Y-119017100D01*
X173570000Y-114629300D02*
X173570000Y-118561100D01*
X173699100Y-114500200D02*
X173570000Y-114629300D01*
X113385800Y-109582200D02*
X111992800Y-109582200D01*
X123825000Y-99143000D02*
X113385800Y-109582200D01*
X123825000Y-63609300D02*
X123825000Y-99143000D01*
X129455600Y-57978700D02*
X123825000Y-63609300D01*
X147138000Y-57978700D02*
X129455600Y-57978700D01*
X148590000Y-59430700D02*
X147138000Y-57978700D01*
X151601100Y-118187300D02*
X149531800Y-118187300D01*
X154584900Y-121171100D02*
X151601100Y-118187300D01*
X156428700Y-121171100D02*
X154584900Y-121171100D01*
X159489800Y-118110000D02*
X156428700Y-121171100D01*
X160421100Y-118110000D02*
X159489800Y-118110000D01*
X161145400Y-117385700D02*
X160421100Y-118110000D01*
X161145400Y-115541000D02*
X161145400Y-117385700D01*
X162295500Y-114390900D02*
X161145400Y-115541000D01*
X106819600Y-118165500D02*
X117154800Y-118165500D01*
X105449700Y-116795600D02*
X106819600Y-118165500D01*
X105449700Y-115669900D02*
X105449700Y-116795600D01*
X107892300Y-113227300D02*
X105449700Y-115669900D01*
X108715000Y-113227300D02*
X107892300Y-113227300D01*
X111992800Y-109949500D02*
X108715000Y-113227300D01*
X111992800Y-109582200D02*
X111992800Y-109949500D01*
X189050000Y-75565000D02*
X187524700Y-75565000D01*
X276860000Y-116840000D02*
X277472700Y-116840000D01*
X277472700Y-116840000D02*
X276531400Y-117781300D01*
X275590000Y-118722700D02*
X275590000Y-127000000D01*
X276531400Y-117781300D02*
X275590000Y-118722700D01*
X277073200Y-117239500D02*
X276531400Y-117781300D01*
X277073200Y-107265100D02*
X277073200Y-117239500D01*
X274869800Y-105061700D02*
X277073200Y-107265100D01*
X274869800Y-100055300D02*
X274869800Y-105061700D01*
X275556000Y-99369100D02*
X274869800Y-100055300D01*
X275556000Y-93249200D02*
X275556000Y-99369100D01*
X274097900Y-91791100D02*
X275556000Y-93249200D01*
X274097900Y-85853700D02*
X274097900Y-91791100D01*
X274869800Y-85081800D02*
X274097900Y-85853700D01*
X274869800Y-80211100D02*
X274869800Y-85081800D01*
X275590000Y-79490900D02*
X274869800Y-80211100D01*
X275590000Y-69850000D02*
X275590000Y-79490900D01*
X187305600Y-75345800D02*
X187524700Y-75565000D01*
X187305600Y-75345800D02*
X187336000Y-75315400D01*
X179082500Y-67591800D02*
X179082500Y-67321400D01*
X179082600Y-67591800D02*
X179082500Y-67591800D01*
X184421100Y-72930300D02*
X179082600Y-67591800D01*
X184706600Y-72930300D02*
X184421100Y-72930300D01*
X186703000Y-74926700D02*
X184706600Y-72930300D01*
X186886200Y-74926700D02*
X186703000Y-74926700D01*
X187305400Y-75345900D02*
X186886200Y-74926700D01*
X187305500Y-75345900D02*
X187305400Y-75345900D01*
X187305600Y-75345800D02*
X187305500Y-75345900D01*
X213012200Y-71899000D02*
X209595800Y-75315400D01*
X216283200Y-71899000D02*
X213012200Y-71899000D01*
X217701700Y-70480500D02*
X216283200Y-71899000D01*
X257810000Y-116205000D02*
X257810000Y-117430300D01*
X238760000Y-116205000D02*
X239985300Y-116205000D01*
X257810000Y-117430300D02*
X256540000Y-118700300D01*
X256540000Y-118700300D02*
X256540000Y-127000000D01*
X240760600Y-117439800D02*
X246509800Y-117439800D01*
X239985300Y-116664500D02*
X240760600Y-117439800D01*
X239985300Y-116205000D02*
X239985300Y-116664500D01*
X247770300Y-118700300D02*
X256540000Y-118700300D01*
X246509800Y-117439800D02*
X247770300Y-118700300D01*
X208663100Y-126059300D02*
X216424700Y-126059300D01*
X208131500Y-125527700D02*
X208663100Y-126059300D01*
X201058300Y-125527700D02*
X208131500Y-125527700D01*
X199586000Y-127000000D02*
X201058300Y-125527700D01*
X184150000Y-127000000D02*
X199586000Y-127000000D01*
X188500100Y-76835000D02*
X187524700Y-76835000D01*
X188500100Y-76835000D02*
X189050000Y-76835000D01*
X256540000Y-71635600D02*
X256540000Y-69850000D01*
X248227400Y-79948200D02*
X256540000Y-71635600D01*
X248227400Y-100811000D02*
X248227400Y-79948200D01*
X246509800Y-102528600D02*
X248227400Y-100811000D01*
X246509800Y-117439800D02*
X246509800Y-102528600D01*
X185608000Y-74918300D02*
X185608000Y-74918200D01*
X187524700Y-76835000D02*
X185608000Y-74918300D01*
X153100700Y-60953200D02*
X154410800Y-59643100D01*
X146680100Y-60953200D02*
X153100700Y-60953200D01*
X145416900Y-59690000D02*
X146680100Y-60953200D01*
X144780000Y-59690000D02*
X145416900Y-59690000D01*
X173017100Y-59719800D02*
X172953200Y-59719800D01*
X178431100Y-65133800D02*
X173017100Y-59719800D01*
X178431100Y-67608500D02*
X178431100Y-65133800D01*
X184203200Y-73380600D02*
X178431100Y-67608500D01*
X184520000Y-73380600D02*
X184203200Y-73380600D01*
X185608000Y-74468600D02*
X184520000Y-73380600D01*
X185608000Y-74918200D02*
X185608000Y-74468600D01*
X189050000Y-78105000D02*
X190575300Y-78105000D01*
X185420000Y-59055000D02*
X185420000Y-60280300D01*
X203857400Y-59055000D02*
X204120800Y-59055000D01*
X203857400Y-59055000D02*
X203244700Y-59055000D01*
X204470000Y-59055000D02*
X204120800Y-59055000D01*
X237150600Y-127339400D02*
X237490000Y-127000000D01*
X230450400Y-127339400D02*
X237150600Y-127339400D01*
X168789500Y-130689500D02*
X165100000Y-127000000D01*
X229612900Y-130689500D02*
X168789500Y-130689500D01*
X230450400Y-129852000D02*
X229612900Y-130689500D01*
X230450400Y-127339400D02*
X230450400Y-129852000D01*
X232383600Y-68179900D02*
X232383600Y-69215000D01*
X230878700Y-66675000D02*
X232383600Y-68179900D01*
X230122800Y-66675000D02*
X230878700Y-66675000D01*
X229271100Y-65823300D02*
X230122800Y-66675000D01*
X229271100Y-64268300D02*
X229271100Y-65823300D01*
X222436300Y-57433500D02*
X229271100Y-64268300D01*
X227140300Y-127339400D02*
X230450400Y-127339400D01*
X224852500Y-125051600D02*
X227140300Y-127339400D01*
X224852500Y-112600800D02*
X224852500Y-125051600D01*
X230138300Y-107315000D02*
X224852500Y-112600800D01*
X230880000Y-107315000D02*
X230138300Y-107315000D01*
X232116200Y-106078800D02*
X230880000Y-107315000D01*
X232116200Y-69482400D02*
X232116200Y-106078800D01*
X232383600Y-69215000D02*
X232116200Y-69482400D01*
X191626800Y-77053500D02*
X190575300Y-78105000D01*
X191626800Y-70925100D02*
X191626800Y-77053500D01*
X189020600Y-68318900D02*
X191626800Y-70925100D01*
X189020600Y-63804300D02*
X189020600Y-68318900D01*
X185496600Y-60280300D02*
X189020600Y-63804300D01*
X185420000Y-60280300D02*
X185496600Y-60280300D01*
X203244700Y-59540000D02*
X203244700Y-59055000D01*
X191859600Y-70925100D02*
X203244700Y-59540000D01*
X191626800Y-70925100D02*
X191859600Y-70925100D01*
X185420000Y-97155000D02*
X185420000Y-98380300D01*
X189050000Y-79375000D02*
X190575300Y-79375000D01*
X146050000Y-111971600D02*
X146050000Y-127000000D01*
X149084500Y-108937100D02*
X146050000Y-111971600D01*
X142233200Y-60953200D02*
X143108100Y-60953200D01*
X140970000Y-59690000D02*
X142233200Y-60953200D01*
X139065000Y-103641400D02*
X144220900Y-108797300D01*
X139065000Y-89851800D02*
X139065000Y-103641400D01*
X138044600Y-88831400D02*
X139065000Y-89851800D01*
X137898700Y-88831400D02*
X138044600Y-88831400D01*
X131530300Y-82463000D02*
X137898700Y-88831400D01*
X131530300Y-80567200D02*
X131530300Y-82463000D01*
X137798800Y-74298700D02*
X131530300Y-80567200D01*
X137798800Y-65533100D02*
X137798800Y-74298700D01*
X138762200Y-64569700D02*
X137798800Y-65533100D01*
X141551100Y-64569700D02*
X138762200Y-64569700D01*
X143108100Y-63012700D02*
X141551100Y-64569700D01*
X143108100Y-60953200D02*
X143108100Y-63012700D01*
X154957300Y-127000000D02*
X146050000Y-127000000D01*
X156227300Y-125730000D02*
X154957300Y-127000000D01*
X163978600Y-125730000D02*
X156227300Y-125730000D01*
X164189800Y-125518800D02*
X163978600Y-125730000D01*
X170432200Y-125518800D02*
X164189800Y-125518800D01*
X170888300Y-125974900D02*
X170432200Y-125518800D01*
X172012800Y-125974900D02*
X170888300Y-125974900D01*
X172941500Y-125046200D02*
X172012800Y-125974900D01*
X172941500Y-123805000D02*
X172941500Y-125046200D01*
X170180000Y-121043500D02*
X172941500Y-123805000D01*
X170180000Y-112298600D02*
X170180000Y-121043500D01*
X174637200Y-107841400D02*
X170180000Y-112298600D01*
X175735500Y-107841400D02*
X174637200Y-107841400D01*
X176494000Y-107082900D02*
X175735500Y-107841400D01*
X176494000Y-106315800D02*
X176494000Y-107082900D01*
X184429500Y-98380300D02*
X176494000Y-106315800D01*
X185420000Y-98380300D02*
X184429500Y-98380300D01*
X152796600Y-63648100D02*
X158743800Y-69595300D01*
X147699600Y-63648100D02*
X152796600Y-63648100D01*
X146972700Y-62921200D02*
X147699600Y-63648100D01*
X146972700Y-62120800D02*
X146972700Y-62921200D01*
X145805100Y-60953200D02*
X146972700Y-62120800D01*
X143108100Y-60953200D02*
X145805100Y-60953200D01*
X201935300Y-69850000D02*
X203200000Y-69850000D01*
X192410300Y-79375000D02*
X201935300Y-69850000D01*
X190575300Y-79375000D02*
X192410300Y-79375000D01*
X147320000Y-97155000D02*
X147320000Y-98380300D01*
X189812700Y-80645000D02*
X190575300Y-80645000D01*
X189812700Y-80645000D02*
X189050000Y-80645000D01*
X166250700Y-95810400D02*
X166250700Y-94125200D01*
X166370000Y-95929700D02*
X166250700Y-95810400D01*
X166370000Y-97155000D02*
X166370000Y-95929700D01*
X146251900Y-99448400D02*
X147320000Y-98380300D01*
X146251900Y-104167500D02*
X146251900Y-99448400D01*
X148439700Y-106355300D02*
X146251900Y-104167500D01*
X148439700Y-108918100D02*
X148439700Y-106355300D01*
X141028100Y-116329700D02*
X148439700Y-108918100D01*
X138437100Y-116329700D02*
X141028100Y-116329700D01*
X127766800Y-127000000D02*
X138437100Y-116329700D01*
X127000000Y-127000000D02*
X127766800Y-127000000D01*
X189050000Y-80645000D02*
X187524700Y-80645000D01*
X173069200Y-89191200D02*
X168523700Y-93736700D01*
X190694400Y-80645000D02*
X190575300Y-80645000D01*
X192560600Y-82511200D02*
X190694400Y-80645000D01*
X192560600Y-84294400D02*
X192560600Y-82511200D01*
X190761500Y-86093500D02*
X192560600Y-84294400D01*
X141361600Y-70057900D02*
X141962100Y-70658400D01*
X141361600Y-68336600D02*
X141361600Y-70057900D01*
X139065000Y-66040000D02*
X141361600Y-68336600D01*
X187443700Y-80645000D02*
X187524700Y-80645000D01*
X186699900Y-79901200D02*
X187443700Y-80645000D01*
X186699900Y-78492200D02*
X186699900Y-79901200D01*
X187722100Y-77470000D02*
X186699900Y-78492200D01*
X190445300Y-77470000D02*
X187722100Y-77470000D01*
X191136500Y-76778800D02*
X190445300Y-77470000D01*
X191136500Y-73217300D02*
X191136500Y-76778800D01*
X187769200Y-69850000D02*
X191136500Y-73217300D01*
X184150000Y-69850000D02*
X187769200Y-69850000D01*
X188400000Y-81915000D02*
X187524700Y-81915000D01*
X188400000Y-81915000D02*
X189050000Y-81915000D01*
X128270000Y-97155000D02*
X128270000Y-95929700D01*
X189050000Y-81915000D02*
X190575300Y-81915000D01*
X206041100Y-82716200D02*
X206041100Y-81593800D01*
X208820300Y-85495400D02*
X206041100Y-82716200D01*
X208820300Y-88427100D02*
X208820300Y-85495400D01*
X207885900Y-89361500D02*
X208820300Y-88427100D01*
X233748000Y-107341900D02*
X233865700Y-107459600D01*
X233748000Y-97217100D02*
X233748000Y-107341900D01*
X242065100Y-88900000D02*
X233748000Y-97217100D01*
X242184500Y-88900000D02*
X242065100Y-88900000D01*
X187444100Y-81834400D02*
X187317400Y-81834400D01*
X187524700Y-81915000D02*
X187444100Y-81834400D01*
X128905000Y-84454300D02*
X129192200Y-84167100D01*
X128905000Y-95294700D02*
X128905000Y-84454300D01*
X128270000Y-95929700D02*
X128905000Y-95294700D01*
X133901800Y-67393200D02*
X135255000Y-66040000D01*
X133901800Y-76173800D02*
X133901800Y-67393200D01*
X129192200Y-80883400D02*
X133901800Y-76173800D01*
X129192200Y-84167100D02*
X129192200Y-80883400D01*
X191080000Y-81915000D02*
X191935300Y-82770300D01*
X190575300Y-81915000D02*
X191080000Y-81915000D01*
X203940100Y-107950000D02*
X203200000Y-107950000D01*
X209193500Y-102696600D02*
X203940100Y-107950000D01*
X209193500Y-101593400D02*
X209193500Y-102696600D01*
X211825100Y-98961800D02*
X209193500Y-101593400D01*
X211825100Y-92509200D02*
X211825100Y-98961800D01*
X212942300Y-91392000D02*
X211825100Y-92509200D01*
X107950000Y-120569600D02*
X107950000Y-127000000D01*
X104999400Y-117619000D02*
X107950000Y-120569600D01*
X104999400Y-113500800D02*
X104999400Y-117619000D01*
X109458900Y-109041300D02*
X104999400Y-113500800D01*
X109458900Y-105749100D02*
X109458900Y-109041300D01*
X108118800Y-104409000D02*
X109458900Y-105749100D01*
X108118800Y-100832300D02*
X108118800Y-104409000D01*
X109220000Y-99731100D02*
X108118800Y-100832300D01*
X109220000Y-97155000D02*
X109220000Y-99731100D01*
X189050000Y-83185000D02*
X190575300Y-83185000D01*
X85168500Y-123268500D02*
X88900000Y-127000000D01*
X85168500Y-102386200D02*
X85168500Y-123268500D01*
X89174400Y-98380300D02*
X85168500Y-102386200D01*
X90170000Y-98380300D02*
X89174400Y-98380300D01*
X90170000Y-97155000D02*
X90170000Y-98380300D01*
X127984600Y-80206200D02*
X127984600Y-88364700D01*
X129495400Y-78695400D02*
X127984600Y-80206200D01*
X129495400Y-74898200D02*
X129495400Y-78695400D01*
X133001100Y-71392500D02*
X129495400Y-74898200D01*
X133001100Y-65456400D02*
X133001100Y-71392500D01*
X134575400Y-63882100D02*
X133001100Y-65456400D01*
X134575400Y-60915400D02*
X134575400Y-63882100D01*
X133350000Y-59690000D02*
X134575400Y-60915400D01*
X190752100Y-83361800D02*
X190752100Y-83407900D01*
X190575300Y-83185000D02*
X190752100Y-83361800D01*
X204470000Y-116205000D02*
X205695300Y-116205000D01*
X234969100Y-104949900D02*
X234969100Y-120430000D01*
X236163700Y-103755300D02*
X234969100Y-104949900D01*
X236163700Y-101592000D02*
X236163700Y-103755300D01*
X234942700Y-100371000D02*
X236163700Y-101592000D01*
X234942700Y-96659300D02*
X234942700Y-100371000D01*
X241741400Y-89860600D02*
X234942700Y-96659300D01*
X242024000Y-89860600D02*
X241741400Y-89860600D01*
X183699700Y-107499700D02*
X184150000Y-107950000D01*
X183699700Y-101932800D02*
X183699700Y-107499700D01*
X185872800Y-99759700D02*
X183699700Y-101932800D01*
X190276700Y-99759700D02*
X185872800Y-99759700D01*
X192210300Y-97826100D02*
X190276700Y-99759700D01*
X192210300Y-91950600D02*
X192210300Y-97826100D01*
X190439300Y-90179600D02*
X192210300Y-91950600D01*
X187676400Y-90179600D02*
X190439300Y-90179600D01*
X187524600Y-90027800D02*
X187676400Y-90179600D01*
X187524600Y-89049400D02*
X187524600Y-90027800D01*
X187673900Y-88900100D02*
X187524600Y-89049400D01*
X192953600Y-88900100D02*
X187673900Y-88900100D01*
X198848800Y-83004900D02*
X192953600Y-88900100D01*
X205695300Y-116940300D02*
X208960000Y-120205000D01*
X205695300Y-116205000D02*
X205695300Y-116940300D01*
X188400000Y-84455000D02*
X187524700Y-84455000D01*
X188400000Y-84455000D02*
X189050000Y-84455000D01*
X191760000Y-96568100D02*
X190054000Y-94862100D01*
X191760000Y-97639500D02*
X191760000Y-96568100D01*
X190090100Y-99309400D02*
X191760000Y-97639500D01*
X185686200Y-99309400D02*
X190090100Y-99309400D01*
X183249400Y-101746200D02*
X185686200Y-99309400D01*
X183249400Y-106540800D02*
X183249400Y-101746200D01*
X178831000Y-110959200D02*
X183249400Y-106540800D01*
X178831000Y-117976100D02*
X178831000Y-110959200D01*
X186159400Y-87787600D02*
X186159400Y-84455000D01*
X185782300Y-88164700D02*
X186159400Y-87787600D01*
X185782300Y-91506900D02*
X185782300Y-88164700D01*
X186549600Y-92274200D02*
X185782300Y-91506900D01*
X187514000Y-92274200D02*
X186549600Y-92274200D01*
X187826200Y-92586400D02*
X187514000Y-92274200D01*
X187826200Y-94862100D02*
X187826200Y-92586400D01*
X184699600Y-82995200D02*
X186159400Y-84455000D01*
X184699600Y-74197100D02*
X184699600Y-82995200D01*
X184333400Y-73830900D02*
X184699600Y-74197100D01*
X184016600Y-73830900D02*
X184333400Y-73830900D01*
X177618400Y-67432700D02*
X184016600Y-73830900D01*
X177618400Y-65209300D02*
X177618400Y-67432700D01*
X174528800Y-62119700D02*
X177618400Y-65209300D01*
X186159400Y-84455000D02*
X187524700Y-84455000D01*
X128270000Y-116205000D02*
X128270000Y-114979700D01*
X189050000Y-85725000D02*
X187524700Y-85725000D01*
X135817500Y-107432200D02*
X135817500Y-91988400D01*
X128270000Y-114979700D02*
X135817500Y-107432200D01*
X137336800Y-91988400D02*
X138115300Y-91209900D01*
X135817500Y-91988400D02*
X137336800Y-91988400D01*
X132233000Y-91988400D02*
X135817500Y-91988400D01*
X131445000Y-91200400D02*
X132233000Y-91988400D01*
X131445000Y-90165700D02*
X131445000Y-91200400D01*
X130629700Y-89350400D02*
X131445000Y-90165700D01*
X130629700Y-80194000D02*
X130629700Y-89350400D01*
X136512400Y-74311300D02*
X130629700Y-80194000D01*
X136512400Y-61101300D02*
X136512400Y-74311300D01*
X133840100Y-58429000D02*
X136512400Y-61101300D01*
X130801000Y-58429000D02*
X133840100Y-58429000D01*
X129540000Y-59690000D02*
X130801000Y-58429000D01*
X186609700Y-86640000D02*
X187524700Y-85725000D01*
X186609700Y-87974200D02*
X186609700Y-86640000D01*
X186411700Y-88172200D02*
X186609700Y-87974200D01*
X186411700Y-91209900D02*
X186411700Y-88172200D01*
X189050000Y-86995000D02*
X187524700Y-86995000D01*
X109220000Y-116205000D02*
X109220000Y-114979700D01*
X125033900Y-68641100D02*
X127635000Y-66040000D01*
X125033900Y-88521400D02*
X125033900Y-68641100D01*
X126299100Y-89786600D02*
X125033900Y-88521400D01*
X126299100Y-92375300D02*
X126299100Y-89786600D01*
X126987800Y-93064000D02*
X126299100Y-92375300D01*
X126987800Y-97707500D02*
X126987800Y-93064000D01*
X126314900Y-98380400D02*
X126987800Y-97707500D01*
X125861400Y-98380400D02*
X126314900Y-98380400D01*
X109262100Y-114979700D02*
X125861400Y-98380400D01*
X109220000Y-114979700D02*
X109262100Y-114979700D01*
X187065700Y-87454000D02*
X187065700Y-90533600D01*
X187524700Y-86995000D02*
X187065700Y-87454000D01*
X197485000Y-82160000D02*
X197485000Y-82010000D01*
X191380000Y-88265000D02*
X197485000Y-82160000D01*
X189050000Y-88265000D02*
X191380000Y-88265000D01*
X197485000Y-81860000D02*
X197485000Y-82010000D01*
X199335000Y-80010000D02*
X197485000Y-81860000D01*
X201565000Y-80010000D02*
X199335000Y-80010000D01*
X199335000Y-88900000D02*
X197485000Y-90750000D01*
X201565000Y-88900000D02*
X199335000Y-88900000D01*
X196270000Y-89535000D02*
X197485000Y-90750000D01*
X189050000Y-89535000D02*
X196270000Y-89535000D01*
X197485000Y-90750000D02*
X197485000Y-90900000D01*
X164570000Y-83185000D02*
X164570000Y-84110300D01*
X162243300Y-123266800D02*
X153300100Y-123266800D01*
X163436500Y-124460000D02*
X162243300Y-123266800D01*
X171450000Y-124460000D02*
X163436500Y-124460000D01*
X153300100Y-123559900D02*
X152400000Y-124460000D01*
X153300100Y-123266800D02*
X153300100Y-123559900D01*
X152400000Y-107389200D02*
X152400000Y-105410000D01*
X148608600Y-111180600D02*
X152400000Y-107389200D01*
X148608600Y-118575300D02*
X148608600Y-111180600D01*
X153300100Y-123266800D02*
X148608600Y-118575300D01*
X163842300Y-84110300D02*
X164570000Y-84110300D01*
X154249300Y-93703300D02*
X163842300Y-84110300D01*
X154249300Y-99965900D02*
X154249300Y-93703300D01*
X152400000Y-101815200D02*
X154249300Y-99965900D01*
X152400000Y-105410000D02*
X152400000Y-101815200D01*
X302283300Y-106703300D02*
X300990000Y-105410000D01*
X302283300Y-118352100D02*
X302283300Y-106703300D01*
X300990000Y-119645400D02*
X302283300Y-118352100D01*
X300990000Y-124460000D02*
X300990000Y-119645400D01*
X164570000Y-86360000D02*
X164570000Y-87285300D01*
X166307400Y-93140300D02*
X166307400Y-88073000D01*
X165144600Y-94303100D02*
X166307400Y-93140300D01*
X165144600Y-98657800D02*
X165144600Y-94303100D01*
X165489800Y-99003000D02*
X165144600Y-98657800D01*
X165489800Y-100212900D02*
X165489800Y-99003000D01*
X166307400Y-88073000D02*
X166842700Y-87537700D01*
X165357700Y-88073000D02*
X164570000Y-87285300D01*
X166307400Y-88073000D02*
X165357700Y-88073000D01*
X196464000Y-73377800D02*
X192195300Y-77646500D01*
X196464000Y-67776600D02*
X196464000Y-73377800D01*
X175931000Y-79366800D02*
X176768400Y-78529400D01*
X175931000Y-80089600D02*
X175931000Y-79366800D01*
X175039200Y-80981400D02*
X175931000Y-80089600D01*
X175039200Y-83259800D02*
X175039200Y-80981400D01*
X170486800Y-87812200D02*
X175039200Y-83259800D01*
X170401900Y-87812200D02*
X170486800Y-87812200D01*
X164570000Y-89535000D02*
X165495300Y-89535000D01*
X300990000Y-82381300D02*
X300990000Y-86360000D01*
X302260800Y-81110500D02*
X300990000Y-82381300D01*
X302260800Y-68580800D02*
X302260800Y-81110500D01*
X300990000Y-67310000D02*
X302260800Y-68580800D01*
X281940000Y-82381300D02*
X281940000Y-86360000D01*
X283187600Y-81133700D02*
X281940000Y-82381300D01*
X283187600Y-68557600D02*
X283187600Y-81133700D01*
X281940000Y-67310000D02*
X283187600Y-68557600D01*
X134679100Y-86415000D02*
X138162200Y-89898100D01*
X132865000Y-86415000D02*
X134679100Y-86415000D01*
X233213100Y-96986900D02*
X243840000Y-86360000D01*
X233213100Y-117511900D02*
X233213100Y-96986900D01*
X226210000Y-124515000D02*
X233213100Y-117511900D01*
X165664000Y-89366300D02*
X165680300Y-89366300D01*
X165495300Y-89535000D02*
X165664000Y-89366300D01*
X262890000Y-80393000D02*
X262890000Y-86360000D01*
X264136100Y-79146900D02*
X262890000Y-80393000D01*
X264136100Y-68556100D02*
X264136100Y-79146900D01*
X262890000Y-67310000D02*
X264136100Y-68556100D01*
X127635000Y-68580000D02*
X127635000Y-69805300D01*
X127635000Y-75609700D02*
X128270000Y-76244700D01*
X127635000Y-69805300D02*
X127635000Y-75609700D01*
X128270000Y-77470000D02*
X128270000Y-76244700D01*
X90170000Y-76969900D02*
X90170000Y-76244700D01*
X90170000Y-76969900D02*
X90170000Y-77470000D01*
X109220000Y-81940100D02*
X109220000Y-77470000D01*
X107906900Y-83253200D02*
X109220000Y-81940100D01*
X100226200Y-83253200D02*
X107906900Y-83253200D01*
X95668300Y-78695300D02*
X100226200Y-83253200D01*
X92161000Y-78695300D02*
X95668300Y-78695300D01*
X91395300Y-77929600D02*
X92161000Y-78695300D01*
X91395300Y-77470000D02*
X91395300Y-77929600D01*
X90170000Y-77470000D02*
X91395300Y-77470000D01*
X146685000Y-68580000D02*
X146685000Y-67354700D01*
X130985400Y-67354700D02*
X131445000Y-67354700D01*
X129540000Y-65909300D02*
X130985400Y-67354700D01*
X129540000Y-63455300D02*
X129540000Y-65909300D01*
X129540000Y-62230000D02*
X129540000Y-63455300D01*
X131445000Y-68580000D02*
X131445000Y-67354700D01*
X75565000Y-60325000D02*
X75565000Y-61550300D01*
X150495000Y-68580000D02*
X150495000Y-69805300D01*
X179250000Y-81915000D02*
X177724700Y-81915000D01*
X144780000Y-65909200D02*
X144780000Y-63455300D01*
X146225500Y-67354700D02*
X144780000Y-65909200D01*
X146685000Y-67354700D02*
X146225500Y-67354700D01*
X144780000Y-62230000D02*
X144780000Y-63455300D01*
X76112600Y-61550300D02*
X75565000Y-61550300D01*
X85784700Y-71222400D02*
X76112600Y-61550300D01*
X85784700Y-71620100D02*
X85784700Y-71222400D01*
X90170000Y-76005400D02*
X85784700Y-71620100D01*
X90170000Y-76244700D02*
X90170000Y-76005400D01*
X158312900Y-77623200D02*
X158312900Y-82290900D01*
X150495000Y-69805300D02*
X158312900Y-77623200D01*
X176818900Y-81915000D02*
X176262200Y-82471700D01*
X177724700Y-81915000D02*
X176818900Y-81915000D01*
M02*
