EESchema Schematic File Version 2
LIBS:chordboard-rescue
LIBS:power
LIBS:device
LIBS:transistors
LIBS:conn
LIBS:linear
LIBS:regul
LIBS:74xx
LIBS:cmos4000
LIBS:adc-dac
LIBS:memory
LIBS:xilinx
LIBS:microcontrollers
LIBS:dsp
LIBS:microchip
LIBS:analog_switches
LIBS:motorola
LIBS:texas
LIBS:intel
LIBS:audio
LIBS:interface
LIBS:digital-audio
LIBS:philips
LIBS:display
LIBS:cypress
LIBS:siliconi
LIBS:opto
LIBS:atmel
LIBS:contrib
LIBS:valves
LIBS:teensy
LIBS:switches
LIBS:Symbols_DCDC-ACDC-Converter_RevC_20Jul2012
LIBS:Symbols_EN60617_13Mar2013
LIBS:Symbols_EN60617-10_HF-Radio_DRAFT_12Sep2013
LIBS:Symbols_ICs-Diskrete_RevD10
LIBS:Symbols_ICs-Opto_RevB_16Sep2013
LIBS:Symbols_Microcontroller_Philips-NXP_RevA_06Oct2013
LIBS:SymbolsSimilarEN60617+oldDIN617-RevE8
LIBS:Symbols_Socket-DIN41612_RevA
LIBS:Symbols_Transformer-Diskrete_RevA
LIBS:74xgxx
LIBS:ac-dc
LIBS:actel
LIBS:allegro
LIBS:Altera
LIBS:analog_devices
LIBS:battery_management
LIBS:bbd
LIBS:brooktre
LIBS:cmos_ieee
LIBS:dc-dc
LIBS:diode
LIBS:elec-unifil
LIBS:ESD_Protection
LIBS:ftdi
LIBS:gennum
LIBS:graphic
LIBS:hc11
LIBS:ir
LIBS:Lattice
LIBS:logo
LIBS:maxim
LIBS:mechanical
LIBS:microchip_dspic33dsc
LIBS:microchip_pic10mcu
LIBS:microchip_pic12mcu
LIBS:microchip_pic16mcu
LIBS:microchip_pic18mcu
LIBS:microchip_pic32mcu
LIBS:motor_drivers
LIBS:motors
LIBS:msp430
LIBS:nordicsemi
LIBS:nxp_armmcu
LIBS:onsemi
LIBS:Oscillators
LIBS:powerint
LIBS:Power_Management
LIBS:pspice
LIBS:references
LIBS:relays
LIBS:rfcom
LIBS:sensors
LIBS:silabs
LIBS:stm8
LIBS:stm32
LIBS:supertex
LIBS:transf
LIBS:ttl_ieee
LIBS:video
LIBS:wiznet
LIBS:Worldsemi
LIBS:Xicor
LIBS:zetex
LIBS:Zilog
LIBS:Rotary-Encoders
LIBS:eurocad
LIBS:afshar
LIBS:74hct125d
LIBS:74hct245
LIBS:4000-ic
LIBS:7400-ic
LIBS:75176
LIBS:Abracon
LIBS:ABS07-32.768KHZ-T
LIBS:acorn_electron_expansion_connector
LIBS:ActiveSemi
LIBS:akn_holtek
LIBS:akn_maxim
LIBS:akn_misc
LIBS:akn_transformers
LIBS:altera
LIBS:Amplifiers
LIBS:AMS
LIBS:analog-devices
LIBS:AnalogDevices
LIBS:analog-ic
LIBS:AOS
LIBS:arm-swd-header
LIBS:Atmel
LIBS:avr-mcu
LIBS:bluegiga
LIBS:Bosch
LIBS:Chipkit_Shield_Max32-cache
LIBS:Chipkit_Shield_uC-cache
LIBS:conn-2mm
LIBS:conn-100mil
LIBS:conn-amphenol
LIBS:conn-assmann
LIBS:conn-cui
LIBS:connector
LIBS:Connectors
LIBS:conn-fci
LIBS:conn-jae
LIBS:conn-linx
LIBS:conn_mics
LIBS:conn-molex
LIBS:conn-special-headers
LIBS:conn-tagconnect
LIBS:conn-te
LIBS:conn-test
LIBS:CubeSatKit_StackBoard-cache
LIBS:DataStorage
LIBS:diode-inc-ic
LIBS:Diodes
LIBS:DiodesInc
LIBS:EKB
LIBS:electomech-misc
LIBS:_electromech
LIBS:esp8266-esp-01
LIBS:esp8266-esp-03
LIBS:esp8266-esp-12e
LIBS:ESP8266
LIBS:Fairchild
LIBS:freescale-ic
LIBS:FTDI
LIBS:ftdi-ic
LIBS:hm-11
LIBS:Infineon
LIBS:Intersil
LIBS:iso15
LIBS:kbox
LIBS:kbox-cache
LIBS:KCDA02-123
LIBS:led
LIBS:_linear
LIBS:LinearTech
LIBS:Littelfuse
LIBS:_logic
LIBS:logic-4000
LIBS:logic-7400
LIBS:logic-7400-new
LIBS:LogicDevices
LIBS:lpc11u14fbd48
LIBS:lt
LIBS:MACOM
LIBS:Macrofab
LIBS:max
LIBS:maxim-ic
LIBS:mcp1700t-3302e-tt
LIBS:mcp73831t-2aci-ot
LIBS:micrel-ic
LIBS:Microchip
LIBS:microchip-ic
LIBS:Micron
LIBS:Microprocessors
LIBS:micro_usb_socket
LIBS:MiscellaneousDevices
LIBS:mke02z64vld2
LIBS:mke04z8vtg4
LIBS:Murata
LIBS:nrf24l01p_smd
LIBS:nrf51822-04
LIBS:nRF24L01+
LIBS:NXP
LIBS:nxp-ic
LIBS:OceanOptics
LIBS:on-semi-ic
LIBS:opamps
LIBS:_passive
LIBS:Passives
LIBS:pasv-BelFuse
LIBS:pasv-BiTech
LIBS:pasv-Bourns
LIBS:pasv-cap
LIBS:pasv-ind
LIBS:pasv-Murata
LIBS:pasv-res
LIBS:pasv-TDK
LIBS:pasv-xtal
LIBS:pcb
LIBS:PMOD
LIBS:PowerComponents
LIBS:pp_ws2812b
LIBS:random-mics
LIBS:Recom
LIBS:recom-r1se
LIBS:regulator
LIBS:relays-a
LIBS:RepeaterParts
LIBS:RF_OEM_Parts
LIBS:Richtek
LIBS:rohm
LIBS:_semi
LIBS:semi-diode-DiodesInc
LIBS:semi-diode-generic
LIBS:semi-diode-MCC
LIBS:semi-diode-NXP
LIBS:semi-diode-OnSemi
LIBS:semi-diode-Semtech
LIBS:semi-diode-ST
LIBS:semi-diode-Toshiba
LIBS:semi-opto-generic
LIBS:semi-opto-liteon
LIBS:semi-thyristor-generic
LIBS:semi-trans-AOS
LIBS:semi-trans-DiodesInc
LIBS:semi-trans-EPC
LIBS:semi-trans-Fairchild
LIBS:semi-trans-generic
LIBS:semi-trans-Infineon
LIBS:semi-trans-IRF
LIBS:semi-trans-IXYS
LIBS:semi-trans-NXP
LIBS:semi-trans-OnSemi
LIBS:semi-trans-Panasonic
LIBS:semi-trans-ST
LIBS:semi-trans-TI
LIBS:semi-trans-Toshiba
LIBS:semi-trans-Vishay
LIBS:Sensors
LIBS:sharp-relay
LIBS:skyworks
LIBS:Snickerdoodle
LIBS:sparkfun
LIBS:ST
LIBS:standard
LIBS:st_ic
LIBS:stm32f37xxx_48pin
LIBS:stm32f102xx_48pin
LIBS:stm32f103c8t6-module-china
LIBS:stm32f302xx_48pin
LIBS:stmicro-mcu
LIBS:symbol
LIBS:TexasInstruments
LIBS:ti
LIBS:ti-ic
LIBS:tinkerforge
LIBS:transistor
LIBS:TransistorParts
LIBS:transistors-mics
LIBS:txs2sa-relay
LIBS:uart_pp
LIBS:u-blox
LIBS:uln-ic
LIBS:usb_plug
LIBS:Vishay
LIBS:Winbond
LIBS:ws2812b
LIBS:Xilinx
LIBS:chordboard-cache
EELAYER 25 0
EELAYER END
$Descr A3 16535 11693
encoding utf-8
Sheet 1 1
Title ""
Date ""
Rev ""
Comp ""
Comment1 ""
Comment2 ""
Comment3 ""
Comment4 ""
$EndDescr
$Comp
L MCP23017 U4
U 1 1 59FC3D10
P 11000 3600
F 0 "U4" H 11300 4100 50  0000 R CNN
F 1 "MCP23017" H 11300 4200 50  0000 R CNN
F 2 "Housings_DIP:DIP-28_W7.62mm" H 11050 2650 50  0001 L CNN
F 3 "" H 11250 4600 50  0001 C CNN
	1    11000 3600
	-1   0    0    -1  
$EndComp
$Comp
L R R1
U 1 1 59FC6FE8
P 7300 5400
F 0 "R1" V 7200 5350 50  0000 C CNN
F 1 "4.7K" V 7300 5400 50  0000 C CNN
F 2 "Resistors_THT:R_Axial_DIN0207_L6.3mm_D2.5mm_P7.62mm_Horizontal" V 7230 5400 50  0001 C CNN
F 3 "" H 7300 5400 50  0000 C CNN
	1    7300 5400
	1    0    0    -1  
$EndComp
$Comp
L R R2
U 1 1 59FC7069
P 7400 5400
F 0 "R2" V 7500 5350 50  0000 C CNN
F 1 "4.7K" V 7400 5400 50  0000 C CNN
F 2 "Resistors_THT:R_Axial_DIN0207_L6.3mm_D2.5mm_P7.62mm_Horizontal" V 7330 5400 50  0001 C CNN
F 3 "" H 7400 5400 50  0000 C CNN
	1    7400 5400
	1    0    0    -1  
$EndComp
$Comp
L +3.3V #PWR01
U 1 1 59FC7113
P 7350 5050
F 0 "#PWR01" H 7350 4900 50  0001 C CNN
F 1 "+3.3V" H 7350 5190 50  0000 C CNN
F 2 "" H 7350 5050 50  0000 C CNN
F 3 "" H 7350 5050 50  0000 C CNN
	1    7350 5050
	1    0    0    -1  
$EndComp
$Comp
L Mounting_Hole MK2
U 1 1 59FCE2DE
P 3000 7950
F 0 "MK2" H 3000 8150 50  0000 C CNN
F 1 "Mounting_Hole" H 3000 8075 50  0000 C CNN
F 2 "Mounting_Holes:MountingHole_2.7mm_Pad_Via" H 3000 7950 60  0001 C CNN
F 3 "" H 3000 7950 60  0001 C CNN
	1    3000 7950
	1    0    0    -1  
$EndComp
$Comp
L Mounting_Hole MK3
U 1 1 59FCE3A1
P 3000 8250
F 0 "MK3" H 3000 8450 50  0000 C CNN
F 1 "Mounting_Hole" H 3000 8375 50  0000 C CNN
F 2 "Mounting_Holes:MountingHole_2.7mm_Pad_Via" H 3000 8250 60  0001 C CNN
F 3 "" H 3000 8250 60  0001 C CNN
	1    3000 8250
	1    0    0    -1  
$EndComp
$Comp
L Mounting_Hole MK4
U 1 1 59FCE461
P 3000 8550
F 0 "MK4" H 3000 8750 50  0000 C CNN
F 1 "Mounting_Hole" H 3000 8675 50  0000 C CNN
F 2 "Mounting_Holes:MountingHole_2.7mm_Pad_Via" H 3000 8550 60  0001 C CNN
F 3 "" H 3000 8550 60  0001 C CNN
	1    3000 8550
	1    0    0    -1  
$EndComp
$Comp
L GND #PWR02
U 1 1 59FE1F2D
P 4400 1550
F 0 "#PWR02" H 4400 1300 50  0001 C CNN
F 1 "GND" H 4400 1400 50  0000 C CNN
F 2 "" H 4400 1550 50  0000 C CNN
F 3 "" H 4400 1550 50  0000 C CNN
	1    4400 1550
	-1   0    0    1   
$EndComp
$Comp
L Teensy3.6 U2
U 1 1 59FC6CA8
P 5400 4050
F 0 "U2" H 5400 6350 60  0000 C CNN
F 1 "Teensy3.6" H 5400 1750 60  0000 C CNN
F 2 "teensy:Teensy35_36" H 5400 4050 60  0001 C CNN
F 3 "" H 5400 4050 60  0000 C CNN
	1    5400 4050
	1    0    0    -1  
$EndComp
$Comp
L Mounting_Hole MK5
U 1 1 59FE38DF
P 3350 7700
F 0 "MK5" H 3350 7900 50  0000 C CNN
F 1 "Mounting_Hole" H 3350 7825 50  0000 C CNN
F 2 "Mounting_Holes:MountingHole_2.7mm_Pad_Via" H 3350 7700 60  0001 C CNN
F 3 "" H 3350 7700 60  0001 C CNN
	1    3350 7700
	1    0    0    -1  
$EndComp
$Comp
L Mounting_Hole MK7
U 1 1 59FE3A7E
P 3350 8250
F 0 "MK7" H 3350 8450 50  0000 C CNN
F 1 "Mounting_Hole" H 3350 8375 50  0000 C CNN
F 2 "Mounting_Holes:MountingHole_2.7mm_Pad_Via" H 3350 8250 60  0001 C CNN
F 3 "" H 3350 8250 60  0001 C CNN
	1    3350 8250
	1    0    0    -1  
$EndComp
$Comp
L Mounting_Hole MK8
U 1 1 59FE3B4D
P 3350 8550
F 0 "MK8" H 3350 8750 50  0000 C CNN
F 1 "Mounting_Hole" H 3350 8675 50  0000 C CNN
F 2 "Mounting_Holes:MountingHole_2.7mm_Pad_Via" H 3350 8550 60  0001 C CNN
F 3 "" H 3350 8550 60  0001 C CNN
	1    3350 8550
	1    0    0    -1  
$EndComp
Text Label 7600 5950 0    60   ~ 0
SCL
Text Label 7600 6050 0    60   ~ 0
SDA
$Comp
L SW_SPST K17
U 1 1 5A13C12E
P 11700 2800
F 0 "K17" H 11700 2925 50  0000 C CNN
F 1 "SW_SPST" H 11700 2700 50  0000 C CNN
F 2 "Keyboard:CHERRY_PCB_100H" H 11700 2800 50  0001 C CNN
F 3 "" H 11700 2800 50  0000 C CNN
	1    11700 2800
	1    0    0    -1  
$EndComp
$Comp
L SW_SPST K32
U 1 1 5A13C1FE
P 11700 4400
F 0 "K32" H 11700 4525 50  0000 C CNN
F 1 "SW_SPST" H 11700 4300 50  0000 C CNN
F 2 "Keyboard:CHERRY_PCB_100H" H 11700 4400 50  0001 C CNN
F 3 "" H 11700 4400 50  0000 C CNN
	1    11700 4400
	1    0    0    -1  
$EndComp
$Comp
L SW_SPST K31
U 1 1 5A13C29B
P 11700 4300
F 0 "K31" H 11700 4425 50  0000 C CNN
F 1 "SW_SPST" H 11700 4200 50  0000 C CNN
F 2 "Keyboard:CHERRY_PCB_100H" H 11700 4300 50  0001 C CNN
F 3 "" H 11700 4300 50  0000 C CNN
	1    11700 4300
	1    0    0    -1  
$EndComp
$Comp
L SW_SPST K18
U 1 1 5A13C353
P 11700 2900
F 0 "K18" H 11700 3025 50  0000 C CNN
F 1 "SW_SPST" H 11700 2800 50  0000 C CNN
F 2 "Keyboard:CHERRY_PCB_100H" H 11700 2900 50  0001 C CNN
F 3 "" H 11700 2900 50  0000 C CNN
	1    11700 2900
	1    0    0    -1  
$EndComp
$Comp
L SW_SPST K19
U 1 1 5A13C3B4
P 11700 3000
F 0 "K19" H 11700 3125 50  0000 C CNN
F 1 "SW_SPST" H 11700 2900 50  0000 C CNN
F 2 "Keyboard:CHERRY_PCB_100H" H 11700 3000 50  0001 C CNN
F 3 "" H 11700 3000 50  0000 C CNN
	1    11700 3000
	1    0    0    -1  
$EndComp
$Comp
L SW_SPST K20
U 1 1 5A13C418
P 11700 3100
F 0 "K20" H 11700 3225 50  0000 C CNN
F 1 "SW_SPST" H 11700 3000 50  0000 C CNN
F 2 "Keyboard:CHERRY_PCB_100H" H 11700 3100 50  0001 C CNN
F 3 "" H 11700 3100 50  0000 C CNN
	1    11700 3100
	1    0    0    -1  
$EndComp
$Comp
L SW_SPST K21
U 1 1 5A13C4DE
P 11700 3200
F 0 "K21" H 11700 3325 50  0000 C CNN
F 1 "SW_SPST" H 11700 3100 50  0000 C CNN
F 2 "Keyboard:CHERRY_PCB_100H" H 11700 3200 50  0001 C CNN
F 3 "" H 11700 3200 50  0000 C CNN
	1    11700 3200
	1    0    0    -1  
$EndComp
$Comp
L SW_SPST K22
U 1 1 5A13C54C
P 11700 3300
F 0 "K22" H 11700 3425 50  0000 C CNN
F 1 "SW_SPST" H 11700 3200 50  0000 C CNN
F 2 "Keyboard:CHERRY_PCB_100H" H 11700 3300 50  0001 C CNN
F 3 "" H 11700 3300 50  0000 C CNN
	1    11700 3300
	1    0    0    -1  
$EndComp
$Comp
L SW_SPST K23
U 1 1 5A13C5B9
P 11700 3400
F 0 "K23" H 11700 3525 50  0000 C CNN
F 1 "SW_SPST" H 11700 3300 50  0000 C CNN
F 2 "Keyboard:CHERRY_PCB_100H" H 11700 3400 50  0001 C CNN
F 3 "" H 11700 3400 50  0000 C CNN
	1    11700 3400
	1    0    0    -1  
$EndComp
$Comp
L SW_SPST K24
U 1 1 5A13C629
P 11700 3500
F 0 "K24" H 11700 3625 50  0000 C CNN
F 1 "SW_SPST" H 11700 3400 50  0000 C CNN
F 2 "Keyboard:CHERRY_PCB_100H" H 11700 3500 50  0001 C CNN
F 3 "" H 11700 3500 50  0000 C CNN
	1    11700 3500
	1    0    0    -1  
$EndComp
$Comp
L SW_SPST K25
U 1 1 5A13C73A
P 11700 3700
F 0 "K25" H 11700 3825 50  0000 C CNN
F 1 "SW_SPST" H 11700 3600 50  0000 C CNN
F 2 "Keyboard:CHERRY_PCB_100H" H 11700 3700 50  0001 C CNN
F 3 "" H 11700 3700 50  0000 C CNN
	1    11700 3700
	1    0    0    -1  
$EndComp
$Comp
L SW_SPST K26
U 1 1 5A13C7D9
P 11700 3800
F 0 "K26" H 11700 3925 50  0000 C CNN
F 1 "SW_SPST" H 11700 3700 50  0000 C CNN
F 2 "Keyboard:CHERRY_PCB_100H" H 11700 3800 50  0001 C CNN
F 3 "" H 11700 3800 50  0000 C CNN
	1    11700 3800
	1    0    0    -1  
$EndComp
$Comp
L SW_SPST K27
U 1 1 5A13C87F
P 11700 3900
F 0 "K27" H 11700 4025 50  0000 C CNN
F 1 "SW_SPST" H 11700 3800 50  0000 C CNN
F 2 "Keyboard:CHERRY_PCB_100H" H 11700 3900 50  0001 C CNN
F 3 "" H 11700 3900 50  0000 C CNN
	1    11700 3900
	1    0    0    -1  
$EndComp
$Comp
L SW_SPST K28
U 1 1 5A13C92E
P 11700 4000
F 0 "K28" H 11700 4125 50  0000 C CNN
F 1 "SW_SPST" H 11700 3900 50  0000 C CNN
F 2 "Keyboard:CHERRY_PCB_100H" H 11700 4000 50  0001 C CNN
F 3 "" H 11700 4000 50  0000 C CNN
	1    11700 4000
	1    0    0    -1  
$EndComp
$Comp
L SW_SPST K29
U 1 1 5A13C9DC
P 11700 4100
F 0 "K29" H 11700 4225 50  0000 C CNN
F 1 "SW_SPST" H 11700 4000 50  0000 C CNN
F 2 "Keyboard:CHERRY_PCB_100H" H 11700 4100 50  0001 C CNN
F 3 "" H 11700 4100 50  0000 C CNN
	1    11700 4100
	1    0    0    -1  
$EndComp
$Comp
L SW_SPST K30
U 1 1 5A13CA8B
P 11700 4200
F 0 "K30" H 11700 4325 50  0000 C CNN
F 1 "SW_SPST" H 11700 4100 50  0000 C CNN
F 2 "Keyboard:CHERRY_PCB_100H" H 11700 4200 50  0001 C CNN
F 3 "" H 11700 4200 50  0000 C CNN
	1    11700 4200
	1    0    0    -1  
$EndComp
$Comp
L MCP23017 U3
U 1 1 5A142090
P 9400 3600
F 0 "U3" H 9400 4100 50  0000 R CNN
F 1 "MCP23017" H 9700 4200 50  0000 R CNN
F 2 "Housings_DIP:DIP-28_W7.62mm" H 9450 2650 50  0001 L CNN
F 3 "" H 9650 4600 50  0001 C CNN
	1    9400 3600
	1    0    0    -1  
$EndComp
$Comp
L GND #PWR03
U 1 1 5A142096
P 10200 5000
F 0 "#PWR03" H 10200 4750 50  0001 C CNN
F 1 "GND" H 10200 4850 50  0000 C CNN
F 2 "" H 10200 5000 50  0000 C CNN
F 3 "" H 10200 5000 50  0000 C CNN
	1    10200 5000
	-1   0    0    -1  
$EndComp
$Comp
L +3.3V #PWR04
U 1 1 5A14209C
P 10200 1750
F 0 "#PWR04" H 10200 1600 50  0001 C CNN
F 1 "+3.3V" H 10200 1890 50  0000 C CNN
F 2 "" H 10200 1750 50  0000 C CNN
F 3 "" H 10200 1750 50  0000 C CNN
	1    10200 1750
	-1   0    0    -1  
$EndComp
Text Label 10150 4000 2    60   ~ 0
SDA
Text Label 10150 3900 2    60   ~ 0
SCL
$Comp
L SW_SPST K1
U 1 1 5A1420CD
P 8700 2800
F 0 "K1" H 8850 2850 50  0000 C CNN
F 1 "SW_SPST" H 8550 2850 50  0000 C CNN
F 2 "Keyboard:CHERRY_PCB_100H" H 8700 2800 50  0001 C CNN
F 3 "" H 8700 2800 50  0000 C CNN
	1    8700 2800
	-1   0    0    -1  
$EndComp
$Comp
L SW_SPST K2
U 1 1 5A1420DF
P 8700 2900
F 0 "K2" H 8850 2950 50  0000 C CNN
F 1 "SW_SPST" H 8550 2950 50  0000 C CNN
F 2 "Keyboard:CHERRY_PCB_100H" H 8700 2900 50  0001 C CNN
F 3 "" H 8700 2900 50  0000 C CNN
	1    8700 2900
	-1   0    0    -1  
$EndComp
$Comp
L SW_SPST K3
U 1 1 5A1420E5
P 8700 3000
F 0 "K3" H 8850 3050 50  0000 C CNN
F 1 "SW_SPST" H 8550 3050 50  0000 C CNN
F 2 "Keyboard:CHERRY_PCB_100H" H 8700 3000 50  0001 C CNN
F 3 "" H 8700 3000 50  0000 C CNN
	1    8700 3000
	-1   0    0    -1  
$EndComp
$Comp
L SW_SPST K4
U 1 1 5A1420EB
P 8700 3100
F 0 "K4" H 8850 3150 50  0000 C CNN
F 1 "SW_SPST" H 8550 3150 50  0000 C CNN
F 2 "Keyboard:CHERRY_PCB_100H" H 8700 3100 50  0001 C CNN
F 3 "" H 8700 3100 50  0000 C CNN
	1    8700 3100
	-1   0    0    -1  
$EndComp
$Comp
L SW_SPST K5
U 1 1 5A1420F1
P 8700 3200
F 0 "K5" H 8850 3250 50  0000 C CNN
F 1 "SW_SPST" H 8550 3250 50  0000 C CNN
F 2 "Keyboard:CHERRY_PCB_100H" H 8700 3200 50  0001 C CNN
F 3 "" H 8700 3200 50  0000 C CNN
	1    8700 3200
	-1   0    0    -1  
$EndComp
$Comp
L SW_SPST K6
U 1 1 5A1420F7
P 8700 3300
F 0 "K6" H 8850 3350 50  0000 C CNN
F 1 "SW_SPST" H 8550 3350 50  0000 C CNN
F 2 "Keyboard:CHERRY_PCB_100H" H 8700 3300 50  0001 C CNN
F 3 "" H 8700 3300 50  0000 C CNN
	1    8700 3300
	-1   0    0    -1  
$EndComp
$Comp
L SW_SPST K7
U 1 1 5A1420FD
P 8700 3400
F 0 "K7" H 8850 3450 50  0000 C CNN
F 1 "SW_SPST" H 8550 3450 50  0000 C CNN
F 2 "Keyboard:CHERRY_PCB_100H" H 8700 3400 50  0001 C CNN
F 3 "" H 8700 3400 50  0000 C CNN
	1    8700 3400
	-1   0    0    -1  
$EndComp
$Comp
L SW_SPST K8
U 1 1 5A142103
P 8700 3500
F 0 "K8" H 8850 3550 50  0000 C CNN
F 1 "SW_SPST" H 8550 3550 50  0000 C CNN
F 2 "Keyboard:CHERRY_PCB_100H" H 8700 3500 50  0001 C CNN
F 3 "" H 8700 3500 50  0000 C CNN
	1    8700 3500
	-1   0    0    -1  
$EndComp
$Comp
L SW_SPST K9
U 1 1 5A142109
P 8700 3700
F 0 "K9" H 8850 3750 50  0000 C CNN
F 1 "SW_SPST" H 8550 3750 50  0000 C CNN
F 2 "Keyboard:CHERRY_PCB_100H" H 8700 3700 50  0001 C CNN
F 3 "" H 8700 3700 50  0000 C CNN
	1    8700 3700
	-1   0    0    -1  
$EndComp
$Comp
L SW_SPST K10
U 1 1 5A14210F
P 8700 3800
F 0 "K10" H 8800 3850 50  0000 C CNN
F 1 "SW_SPST" H 8700 3700 50  0000 C CNN
F 2 "Keyboard:CHERRY_PCB_100H" H 8700 3800 50  0001 C CNN
F 3 "" H 8700 3800 50  0000 C CNN
	1    8700 3800
	-1   0    0    -1  
$EndComp
$Comp
L SW_SPST K11
U 1 1 5A142115
P 8700 3900
F 0 "K11" H 8800 3950 50  0000 C CNN
F 1 "SW_SPST" H 8700 3800 50  0000 C CNN
F 2 "Keyboard:CHERRY_PCB_100H" H 8700 3900 50  0001 C CNN
F 3 "" H 8700 3900 50  0000 C CNN
	1    8700 3900
	-1   0    0    -1  
$EndComp
$Comp
L SW_SPST K12
U 1 1 5A14211B
P 8700 4000
F 0 "K12" H 8700 4125 50  0000 C CNN
F 1 "SW_SPST" H 8700 3900 50  0000 C CNN
F 2 "Keyboard:CHERRY_PCB_100H" H 8700 4000 50  0001 C CNN
F 3 "" H 8700 4000 50  0000 C CNN
	1    8700 4000
	-1   0    0    -1  
$EndComp
$Comp
L SW_SPST K13
U 1 1 5A142121
P 8700 4100
F 0 "K13" H 8700 4225 50  0000 C CNN
F 1 "SW_SPST" H 8700 4000 50  0000 C CNN
F 2 "Keyboard:CHERRY_PCB_100H" H 8700 4100 50  0001 C CNN
F 3 "" H 8700 4100 50  0000 C CNN
	1    8700 4100
	-1   0    0    -1  
$EndComp
$Comp
L SW_SPST K14
U 1 1 5A142127
P 8700 4200
F 0 "K14" H 8700 4325 50  0000 C CNN
F 1 "SW_SPST" H 8700 4100 50  0000 C CNN
F 2 "Keyboard:CHERRY_PCB_100H" H 8700 4200 50  0001 C CNN
F 3 "" H 8700 4200 50  0000 C CNN
	1    8700 4200
	-1   0    0    -1  
$EndComp
$Comp
L C C4
U 1 1 5A15E7CA
P 9200 2250
F 0 "C4" H 9225 2350 50  0000 L CNN
F 1 "0.1uF" V 9300 2000 50  0000 L CNN
F 2 "Capacitors_THT:C_Disc_D4.3mm_W1.9mm_P5.00mm" H 9238 2100 50  0001 C CNN
F 3 "" H 9200 2250 50  0001 C CNN
	1    9200 2250
	1    0    0    -1  
$EndComp
$Comp
L C C5
U 1 1 5A15E8E7
P 11150 2250
F 0 "C5" H 11175 2350 50  0000 L CNN
F 1 "0.1uF" V 11100 2000 50  0000 L CNN
F 2 "Capacitors_THT:C_Disc_D4.3mm_W1.9mm_P5.00mm" H 11188 2100 50  0001 C CNN
F 3 "" H 11150 2250 50  0001 C CNN
	1    11150 2250
	1    0    0    -1  
$EndComp
$Comp
L GND #PWR05
U 1 1 5A15F4B6
P 11150 2450
F 0 "#PWR05" H 11150 2200 50  0001 C CNN
F 1 "GND" H 11150 2300 50  0000 C CNN
F 2 "" H 11150 2450 50  0001 C CNN
F 3 "" H 11150 2450 50  0001 C CNN
	1    11150 2450
	1    0    0    -1  
$EndComp
$Comp
L GND #PWR06
U 1 1 5A15FA29
P 9200 2450
F 0 "#PWR06" H 9200 2200 50  0001 C CNN
F 1 "GND" H 9200 2300 50  0000 C CNN
F 2 "" H 9200 2450 50  0001 C CNN
F 3 "" H 9200 2450 50  0001 C CNN
	1    9200 2450
	1    0    0    -1  
$EndComp
Text Label 6400 5850 0    60   ~ 0
INT1A
Text Label 6400 5750 0    60   ~ 0
INT1B
Text Label 6400 5650 0    60   ~ 0
INT2A
Text Label 6400 5550 0    60   ~ 0
INT2B
$Comp
L +3.3V #PWR07
U 1 1 5A170360
P 10400 4200
F 0 "#PWR07" H 10400 4050 50  0001 C CNN
F 1 "+3.3V" H 10400 4340 50  0000 C CNN
F 2 "" H 10400 4200 50  0001 C CNN
F 3 "" H 10400 4200 50  0001 C CNN
	1    10400 4200
	0    -1   -1   0   
$EndComp
Text Label 9900 3200 0    60   ~ 0
INT1B
Text Label 9900 3300 0    60   ~ 0
INT1A
Text Label 10500 3200 2    60   ~ 0
INT2B
Text Label 10500 3300 2    60   ~ 0
INT2A
$Comp
L CP C6
U 1 1 5A1A3374
P 11350 2250
F 0 "C6" H 11375 2350 50  0000 L CNN
F 1 "10uF" V 11300 2000 50  0000 L CNN
F 2 "Capacitors_THT:CP_Radial_D5.0mm_P2.00mm" H 11388 2100 50  0001 C CNN
F 3 "" H 11350 2250 50  0001 C CNN
	1    11350 2250
	-1   0    0    -1  
$EndComp
$Comp
L CP C3
U 1 1 5A1A34D9
P 9000 2250
F 0 "C3" H 9025 2350 50  0000 L CNN
F 1 "10uF" V 9050 2000 50  0000 L CNN
F 2 "Capacitors_THT:CP_Radial_D5.0mm_P2.00mm" H 9038 2100 50  0001 C CNN
F 3 "" H 9000 2250 50  0001 C CNN
	1    9000 2250
	-1   0    0    -1  
$EndComp
$Comp
L GND #PWR08
U 1 1 5A1A3C5D
P 9000 2450
F 0 "#PWR08" H 9000 2200 50  0001 C CNN
F 1 "GND" H 9000 2300 50  0000 C CNN
F 2 "" H 9000 2450 50  0001 C CNN
F 3 "" H 9000 2450 50  0001 C CNN
	1    9000 2450
	1    0    0    -1  
$EndComp
$Comp
L GND #PWR09
U 1 1 5A1A405F
P 11350 2450
F 0 "#PWR09" H 11350 2200 50  0001 C CNN
F 1 "GND" H 11350 2300 50  0000 C CNN
F 2 "" H 11350 2450 50  0001 C CNN
F 3 "" H 11350 2450 50  0001 C CNN
	1    11350 2450
	1    0    0    -1  
$EndComp
Text Label 4400 2050 2    60   ~ 0
UART_RX
Text Label 4400 2150 2    60   ~ 0
UART_TX
NoConn ~ 4400 4350
NoConn ~ 4400 4550
NoConn ~ 4400 4650
NoConn ~ 4400 4750
NoConn ~ 4400 5750
NoConn ~ 6400 6150
NoConn ~ 6400 5450
NoConn ~ 6400 5350
NoConn ~ 6400 5250
NoConn ~ 6400 5150
NoConn ~ 6400 5050
NoConn ~ 6400 4950
NoConn ~ 6400 4850
NoConn ~ 6400 4250
NoConn ~ 6400 4150
NoConn ~ 6400 4050
NoConn ~ 6400 3950
NoConn ~ 6400 3850
NoConn ~ 6400 3750
NoConn ~ 6400 3650
NoConn ~ 6400 3550
NoConn ~ 6400 3450
NoConn ~ 6400 3350
NoConn ~ 6400 3250
NoConn ~ 6400 3150
NoConn ~ 6400 3050
NoConn ~ 6400 2950
NoConn ~ 6400 2850
NoConn ~ 6400 2750
NoConn ~ 6400 2650
NoConn ~ 6400 2550
NoConn ~ 6400 2450
NoConn ~ 6400 2350
NoConn ~ 6400 2250
NoConn ~ 6400 2150
NoConn ~ 6400 2050
NoConn ~ 6400 1950
$Comp
L ILI9341_LCD_Breakout U7
U 1 1 5A1C6EB8
P 1500 2100
F 0 "U7" H 800 2600 50  0000 L CNN
F 1 "ILI9341_LCD_Breakout" H 800 1600 50  0000 L CNN
F 2 "Displays:CR2013-MI2120" H 750 2500 50  0001 C CNN
F 3 "" H 850 2600 50  0000 C CNN
	1    1500 2100
	1    0    0    -1  
$EndComp
$Comp
L GND #PWR010
U 1 1 5A1C6EB9
P 1900 2700
F 0 "#PWR010" H 1900 2450 50  0001 C CNN
F 1 "GND" H 1900 2550 50  0000 C CNN
F 2 "" H 1900 2700 50  0000 C CNN
F 3 "" H 1900 2700 50  0000 C CNN
	1    1900 2700
	1    0    0    -1  
$EndComp
$Comp
L +3.3V #PWR011
U 1 1 5A1C6EBA
P 1900 1400
F 0 "#PWR011" H 1900 1250 50  0001 C CNN
F 1 "+3.3V" H 1900 1540 50  0000 C CNN
F 2 "" H 1900 1400 50  0000 C CNN
F 3 "" H 1900 1400 50  0000 C CNN
	1    1900 1400
	1    0    0    -1  
$EndComp
NoConn ~ 700  1900
NoConn ~ 700  2000
NoConn ~ 700  2100
NoConn ~ 700  2200
Text Label 2300 1800 0    60   ~ 0
DC
Text Label 2300 1900 0    60   ~ 0
CS
Text Label 2300 2000 0    60   ~ 0
MOSI
Text Label 2300 2100 0    60   ~ 0
MISO
Text Label 2300 2200 0    60   ~ 0
SCK
$Comp
L R R7
U 1 1 5A1CE3E7
P 2600 2300
F 0 "R7" V 2500 2250 50  0000 C CNN
F 1 "200" V 2600 2300 50  0000 C CNN
F 2 "Resistors_THT:R_Axial_DIN0207_L6.3mm_D2.5mm_P7.62mm_Horizontal" V 2530 2300 50  0001 C CNN
F 3 "" H 2600 2300 50  0000 C CNN
	1    2600 2300
	0    1    1    0   
$EndComp
Text Label 4400 3150 2    60   ~ 0
MOSI
Text Label 4400 3250 2    60   ~ 0
MISO
Text Label 4400 3050 2    60   ~ 0
CS
Text Label 4400 2950 2    60   ~ 0
DC
Text Label 4400 5850 2    60   ~ 0
SCK
$Comp
L SW_SPST SW2
U 1 1 5A1D4D6B
P 3700 3550
F 0 "SW2" H 3550 3600 50  0000 C CNN
F 1 "SW_SPST" H 3900 3600 50  0000 C CNN
F 2 "Keyboard:CHERRY_PCB_100H" H 3700 3550 50  0001 C CNN
F 3 "" H 3700 3550 50  0001 C CNN
	1    3700 3550
	1    0    0    -1  
$EndComp
$Comp
L SW_SPST SW3
U 1 1 5A1D4D71
P 3700 3650
F 0 "SW3" H 3550 3700 50  0000 C CNN
F 1 "SW_SPST" H 3900 3700 50  0000 C CNN
F 2 "Keyboard:CHERRY_PCB_100H" H 3700 3650 50  0001 C CNN
F 3 "" H 3700 3650 50  0001 C CNN
	1    3700 3650
	1    0    0    -1  
$EndComp
$Comp
L SW_SPST SW4
U 1 1 5A1D4D77
P 3700 3750
F 0 "SW4" H 3550 3800 50  0000 C CNN
F 1 "SW_SPST" H 3900 3800 50  0000 C CNN
F 2 "Keyboard:CHERRY_PCB_100H" H 3700 3750 50  0001 C CNN
F 3 "" H 3700 3750 50  0001 C CNN
	1    3700 3750
	1    0    0    -1  
$EndComp
$Comp
L SW_SPST SW1
U 1 1 5A1D519A
P 3700 3450
F 0 "SW1" H 3550 3500 50  0000 C CNN
F 1 "SW_SPST" H 3900 3500 50  0000 C CNN
F 2 "Keyboard:CHERRY_PCB_100H" H 3700 3450 50  0001 C CNN
F 3 "" H 3700 3450 50  0001 C CNN
	1    3700 3450
	1    0    0    -1  
$EndComp
$Comp
L +3.3V #PWR012
U 1 1 5A1DD42C
P 3700 3350
F 0 "#PWR012" H 3700 3200 50  0001 C CNN
F 1 "+3.3V" H 3700 3490 50  0000 C CNN
F 2 "" H 3700 3350 50  0001 C CNN
F 3 "" H 3700 3350 50  0001 C CNN
	1    3700 3350
	1    0    0    -1  
$EndComp
$Comp
L Mounting_Hole MK10
U 1 1 5A1F0B4D
P 4050 7950
F 0 "MK10" H 4050 8150 50  0000 C CNN
F 1 "Mounting_Hole" H 4050 8075 50  0000 C CNN
F 2 "Mounting_Holes:MountingHole_2.7mm_Pad_Via" H 4050 7950 60  0001 C CNN
F 3 "" H 4050 7950 60  0001 C CNN
	1    4050 7950
	1    0    0    -1  
$EndComp
$Comp
L Mounting_Hole MK11
U 1 1 5A1F0B53
P 4050 8250
F 0 "MK11" H 4050 8450 50  0000 C CNN
F 1 "Mounting_Hole" H 4050 8375 50  0000 C CNN
F 2 "Mounting_Holes:MountingHole_2.7mm_Pad_Via" H 4050 8250 60  0001 C CNN
F 3 "" H 4050 8250 60  0001 C CNN
	1    4050 8250
	1    0    0    -1  
$EndComp
$Comp
L Mounting_Hole MK12
U 1 1 5A1F0B59
P 4050 8550
F 0 "MK12" H 4050 8750 50  0000 C CNN
F 1 "Mounting_Hole" H 4050 8675 50  0000 C CNN
F 2 "Mounting_Holes:MountingHole_2.7mm_Pad_Via" H 4050 8550 60  0001 C CNN
F 3 "" H 4050 8550 60  0001 C CNN
	1    4050 8550
	1    0    0    -1  
$EndComp
$Comp
L Mounting_Hole MK13
U 1 1 5A1F0B5F
P 4400 7700
F 0 "MK13" H 4400 7900 50  0000 C CNN
F 1 "Mounting_Hole" H 4400 7825 50  0000 C CNN
F 2 "Mounting_Holes:MountingHole_2.7mm_Pad_Via" H 4400 7700 60  0001 C CNN
F 3 "" H 4400 7700 60  0001 C CNN
	1    4400 7700
	1    0    0    -1  
$EndComp
$Comp
L Mounting_Hole MK14
U 1 1 5A1F0B65
P 4400 7950
F 0 "MK14" H 4400 8150 50  0000 C CNN
F 1 "Mounting_Hole" H 4400 8075 50  0000 C CNN
F 2 "Mounting_Holes:MountingHole_2.7mm_Pad_Via" H 4400 7950 60  0001 C CNN
F 3 "" H 4400 7950 60  0001 C CNN
	1    4400 7950
	1    0    0    -1  
$EndComp
$Comp
L GND #PWR013
U 1 1 5A39DE71
P 3200 4250
F 0 "#PWR013" H 3200 4000 50  0001 C CNN
F 1 "GND" H 3200 4100 50  0000 C CNN
F 2 "" H 3200 4250 50  0000 C CNN
F 3 "" H 3200 4250 50  0000 C CNN
	1    3200 4250
	1    0    0    -1  
$EndComp
Text Label 4400 6050 2    60   ~ 0
PA8
Text Label 4400 6150 2    60   ~ 0
PA9
Text Label 4400 4850 2    60   ~ 0
PA0
Text Label 4400 4950 2    60   ~ 0
PA1
Text Label 4400 5050 2    60   ~ 0
PA2
Text Label 4400 5150 2    60   ~ 0
PA3
Text Label 4400 5250 2    60   ~ 0
PA4
Text Label 4400 5350 2    60   ~ 0
PA5
Text Label 4400 5450 2    60   ~ 0
PA6
Text Label 4400 5950 2    60   ~ 0
PA7
Text Label 4400 2850 2    60   ~ 0
JSW
Wire Wire Line
	11900 4650 11900 4400
Wire Wire Line
	11900 4400 11900 4300
Wire Wire Line
	11900 4300 11900 4200
Wire Wire Line
	11900 4200 11900 4100
Wire Wire Line
	11900 4100 11900 4000
Wire Wire Line
	11900 4000 11900 3900
Wire Wire Line
	11900 3900 11900 3800
Wire Wire Line
	11900 3800 11900 3700
Wire Wire Line
	11900 3700 11900 3500
Wire Wire Line
	11900 3500 11900 3400
Wire Wire Line
	11900 3400 11900 3300
Wire Wire Line
	11900 3300 11900 3200
Wire Wire Line
	11900 3200 11900 3100
Wire Wire Line
	11900 3100 11900 3000
Wire Wire Line
	11900 3000 11900 2900
Wire Wire Line
	11900 2900 11900 2800
Connection ~ 11900 2900
Connection ~ 11900 3000
Connection ~ 11900 3100
Connection ~ 11900 3200
Connection ~ 11900 3300
Connection ~ 11900 3400
Connection ~ 11900 3500
Connection ~ 11900 3700
Connection ~ 11900 3800
Connection ~ 11900 3900
Connection ~ 11900 4000
Connection ~ 11900 4100
Connection ~ 11900 4200
Connection ~ 11900 4300
Wire Wire Line
	7300 6050 7300 5550
Connection ~ 7300 6050
Wire Wire Line
	7400 5950 7400 5550
Connection ~ 7400 5950
Wire Wire Line
	7300 5250 7350 5250
Wire Wire Line
	7350 5250 7400 5250
Wire Wire Line
	7350 5250 7350 5050
Connection ~ 7350 5250
Connection ~ 11900 4400
Wire Wire Line
	9900 4400 10200 4400
Wire Wire Line
	10200 4400 10500 4400
Connection ~ 10200 4400
Wire Wire Line
	9900 4300 10200 4300
Wire Wire Line
	10200 4300 10500 4300
Connection ~ 10200 4300
Wire Wire Line
	6400 5950 7400 5950
Wire Wire Line
	7400 5950 7600 5950
Wire Wire Line
	6400 6050 7300 6050
Wire Wire Line
	7300 6050 7600 6050
Wire Wire Line
	11000 2000 11000 2600
Wire Wire Line
	10500 2800 10400 2800
Wire Wire Line
	10400 2000 10400 2800
Connection ~ 10400 2000
Wire Wire Line
	10200 4200 10200 4300
Wire Wire Line
	10200 4300 10200 4400
Wire Wire Line
	10200 4400 10200 4650
Wire Wire Line
	10200 4650 10200 5000
Wire Wire Line
	11000 4650 11000 4600
Connection ~ 11000 4650
Wire Wire Line
	8500 2800 8500 2900
Wire Wire Line
	8500 2900 8500 3000
Wire Wire Line
	8500 3000 8500 3100
Wire Wire Line
	8500 3100 8500 3200
Wire Wire Line
	8500 3200 8500 3300
Wire Wire Line
	8500 3300 8500 3400
Wire Wire Line
	8500 3400 8500 3500
Wire Wire Line
	8500 3500 8500 3700
Wire Wire Line
	8500 3700 8500 3800
Wire Wire Line
	8500 3800 8500 3900
Wire Wire Line
	8500 3900 8500 4000
Wire Wire Line
	8500 4000 8500 4100
Wire Wire Line
	8500 4100 8500 4200
Wire Wire Line
	8500 4200 8500 4300
Wire Wire Line
	8500 4300 8500 4400
Wire Wire Line
	8500 4400 8500 4650
Connection ~ 8500 2900
Connection ~ 8500 3000
Connection ~ 8500 3100
Connection ~ 8500 3200
Connection ~ 8500 3300
Connection ~ 8500 3400
Connection ~ 8500 3500
Connection ~ 8500 3700
Connection ~ 8500 3800
Connection ~ 8500 3900
Connection ~ 8500 4000
Connection ~ 8500 4100
Connection ~ 8500 4200
Connection ~ 8500 4300
Connection ~ 8500 4400
Wire Wire Line
	10200 4200 9900 4200
Wire Wire Line
	9400 2000 9400 2600
Connection ~ 10000 2000
Wire Wire Line
	10000 2800 9900 2800
Wire Wire Line
	10000 2000 10000 2800
Connection ~ 10200 4650
Wire Wire Line
	9400 4600 9400 4650
Connection ~ 9400 4650
Wire Wire Line
	10500 3900 9900 3900
Wire Wire Line
	10500 4000 9900 4000
Wire Wire Line
	4400 1950 4400 1550
Wire Wire Line
	9200 2000 9200 2100
Connection ~ 9400 2000
Wire Wire Line
	11150 2000 11150 2100
Connection ~ 11150 2000
Wire Wire Line
	11150 2400 11150 2450
Wire Wire Line
	9200 2400 9200 2450
Wire Wire Line
	10400 4200 10500 4200
Connection ~ 23150 2100
Wire Wire Line
	8500 4650 9400 4650
Wire Wire Line
	9400 4650 10200 4650
Wire Wire Line
	10200 4650 11000 4650
Wire Wire Line
	11000 4650 11900 4650
Wire Wire Line
	10200 2000 10200 1750
Connection ~ 10200 2000
Connection ~ 11000 2000
Wire Wire Line
	9000 2000 9200 2000
Wire Wire Line
	9200 2000 9400 2000
Wire Wire Line
	9400 2000 10000 2000
Wire Wire Line
	10000 2000 10200 2000
Wire Wire Line
	10200 2000 10400 2000
Wire Wire Line
	10400 2000 11000 2000
Wire Wire Line
	11000 2000 11150 2000
Wire Wire Line
	11150 2000 11350 2000
Connection ~ 9200 2000
Wire Wire Line
	11350 2000 11350 2100
Wire Wire Line
	9000 2000 9000 2100
Wire Wire Line
	9000 2400 9000 2450
Wire Wire Line
	11350 2400 11350 2450
Wire Wire Line
	3200 3450 3200 3450
Wire Wire Line
	3200 3450 3200 3550
Wire Wire Line
	3200 3550 3200 3650
Wire Wire Line
	3200 3650 3200 3750
Wire Wire Line
	3200 3750 3200 3950
Wire Wire Line
	3200 3950 3200 4050
Wire Wire Line
	3200 4050 3200 4250
Wire Wire Line
	2850 1450 2850 2300
Wire Wire Line
	2850 2300 2850 2400
Wire Wire Line
	2850 1450 1900 1450
Wire Wire Line
	1900 1400 1900 1450
Wire Wire Line
	1900 1450 1900 1500
Connection ~ 1900 1450
Wire Wire Line
	2850 2400 2300 2400
Wire Wire Line
	2300 2300 2450 2300
Wire Wire Line
	2750 2300 2850 2300
Connection ~ 2850 2300
Wire Wire Line
	3700 3350 4400 3350
Wire Wire Line
	3500 3450 3200 3450
Wire Wire Line
	3500 3550 3200 3550
Wire Wire Line
	3200 3650 3500 3650
Connection ~ 3200 3550
Wire Wire Line
	3200 3750 3500 3750
Connection ~ 3200 3650
Connection ~ 3200 3750
Wire Wire Line
	3900 3450 4400 3450
Wire Wire Line
	4400 3550 3900 3550
Wire Wire Line
	3900 3650 4400 3650
Wire Wire Line
	4400 3750 3900 3750
Connection ~ 3200 3450
Connection ~ 1150 6600
Wire Wire Line
	1150 6200 1150 6600
Connection ~ 1500 6600
Wire Wire Line
	1500 6600 1500 6200
Connection ~ 1850 6600
Wire Wire Line
	1850 6600 1850 6200
Wire Wire Line
	3000 6600 3000 6700
Wire Wire Line
	800  6600 1150 6600
Wire Wire Line
	1150 6600 1500 6600
Wire Wire Line
	1500 6600 1850 6600
Wire Wire Line
	1850 6600 2200 6600
Wire Wire Line
	2200 6600 2550 6600
Wire Wire Line
	2550 6600 2900 6600
Wire Wire Line
	2900 6600 3000 6600
Wire Wire Line
	800  6200 800  6600
Connection ~ 2150 5750
Wire Wire Line
	2150 5750 2150 6200
Connection ~ 1800 5750
Wire Wire Line
	1800 5750 1800 6200
Connection ~ 1450 5750
Wire Wire Line
	1450 6200 1450 5750
Wire Wire Line
	1100 5750 1100 6200
Wire Wire Line
	1100 5750 1450 5750
Wire Wire Line
	1450 5750 1800 5750
Wire Wire Line
	1800 5750 2150 5750
Wire Wire Line
	2150 5750 2500 5750
Wire Wire Line
	2500 5750 2850 5750
Wire Wire Line
	2850 5750 2650 5750
Wire Wire Line
	2650 5750 3000 5750
Wire Wire Line
	3000 5750 3000 5700
$Comp
L GND #PWR014
U 1 1 5A3AC09D
P 3000 6700
F 0 "#PWR014" H 3000 6450 50  0001 C CNN
F 1 "GND" H 3000 6550 50  0000 C CNN
F 2 "" H 3000 6700 50  0000 C CNN
F 3 "" H 3000 6700 50  0000 C CNN
	1    3000 6700
	1    0    0    -1  
$EndComp
$Comp
L +3.3V #PWR015
U 1 1 5A3AB563
P 3000 5700
F 0 "#PWR015" H 3000 5550 50  0001 C CNN
F 1 "+3.3V" H 3000 5840 50  0000 C CNN
F 2 "" H 3000 5700 50  0000 C CNN
F 3 "" H 3000 5700 50  0000 C CNN
	1    3000 5700
	1    0    0    -1  
$EndComp
Text Label 2000 6050 1    60   ~ 0
PA3
Text Label 1650 6050 1    60   ~ 0
PA2
Text Label 1300 6050 1    60   ~ 0
PA1
Text Label 950  6050 1    60   ~ 0
PA0
$Comp
L POT RV1
U 1 1 5A3A1B7A
P 950 6200
F 0 "RV1" V 775 6200 50  0000 C CNN
F 1 "POT" V 850 6200 50  0000 C CNN
F 2 "Potentiometers:Potentiometer_Bourns_PTV09A-1_Horizontal" H 950 6200 50  0001 C CNN
F 3 "" H 950 6200 50  0001 C CNN
	1    950  6200
	0    -1   -1   0   
$EndComp
$Comp
L POT RV2
U 1 1 5A3A1A65
P 1300 6200
F 0 "RV2" V 1125 6200 50  0000 C CNN
F 1 "POT" V 1200 6200 50  0000 C CNN
F 2 "Potentiometers:Potentiometer_Bourns_PTV09A-1_Horizontal" H 1300 6200 50  0001 C CNN
F 3 "" H 1300 6200 50  0001 C CNN
	1    1300 6200
	0    -1   -1   0   
$EndComp
$Comp
L POT RV3
U 1 1 5A3A1951
P 1650 6200
F 0 "RV3" V 1475 6200 50  0000 C CNN
F 1 "POT" V 1550 6200 50  0000 C CNN
F 2 "Potentiometers:Potentiometer_Bourns_PTV09A-1_Horizontal" H 1650 6200 50  0001 C CNN
F 3 "" H 1650 6200 50  0001 C CNN
	1    1650 6200
	0    -1   -1   0   
$EndComp
$Comp
L POT RV4
U 1 1 5A3A1844
P 2000 6200
F 0 "RV4" V 1825 6200 50  0000 C CNN
F 1 "POT" V 1900 6200 50  0000 C CNN
F 2 "Potentiometers:Potentiometer_Bourns_PTV09A-1_Horizontal" H 2000 6200 50  0001 C CNN
F 3 "" H 2000 6200 50  0001 C CNN
	1    2000 6200
	0    -1   -1   0   
$EndComp
$EndSCHEMATC
