EESchema Schematic File Version 2
LIBS:chordboard-components
LIBS:Connector
LIBS:device
LIBS:MCU_Microchip_PIC32
LIBS:power
LIBS:regul
LIBS:Switch
LIBS:MCU_Microchip_PIC16
LIBS:microchip
LIBS:pic32mx-cache
EELAYER 25 0
EELAYER END
$Descr A1 33110 23386
encoding utf-8
Sheet 1 2
Title ""
Date ""
Rev ""
Comp ""
Comment1 ""
Comment2 ""
Comment3 ""
Comment4 ""
$EndDescr
$Comp
L C_Small C3
U 1 1 5AE6EF0E
P 7700 2850
F 0 "C3" H 7710 2920 50  0000 L CNN
F 1 "0.1uF" H 7710 2770 50  0000 L CNN
F 2 "Capacitors_THT:C_Disc_D5.1mm_W3.2mm_P5.00mm" H 7700 2850 50  0001 C CNN
F 3 "" H 7700 2850 50  0001 C CNN
	1    7700 2850
	-1   0    0    -1  
$EndComp
$Comp
L USB_B J2
U 1 1 5AE729A0
P 5050 2750
F 0 "J2" H 4850 3200 50  0000 L CNN
F 1 "USB_B" H 4850 3100 50  0000 L CNN
F 2 "Connectors:USB_B" H 5200 2700 50  0001 C CNN
F 3 "" H 5200 2700 50  0001 C CNN
	1    5050 2750
	-1   0    0    -1  
$EndComp
$Comp
L VBUS #PWR01
U 1 1 5AE72D08
P 4500 1600
F 0 "#PWR01" H 4500 1450 50  0001 C CNN
F 1 "VBUS" H 4500 1750 50  0000 C CNN
F 2 "" H 4500 1600 50  0001 C CNN
F 3 "" H 4500 1600 50  0001 C CNN
	1    4500 1600
	1    0    0    -1  
$EndComp
$Comp
L D_Small D1
U 1 1 5AE72D4E
P 7450 2600
F 0 "D1" H 7400 2680 50  0000 L CNN
F 1 "D_Small" H 7300 2520 50  0000 L CNN
F 2 "Diodes_THT:D_DO-41_SOD81_P7.62mm_Horizontal" V 7450 2600 50  0001 C CNN
F 3 "" V 7450 2600 50  0001 C CNN
	1    7450 2600
	1    0    0    -1  
$EndComp
$Comp
L MCP1700-3302E_SOT23 U1
U 1 1 5AE736D3
P 6800 2600
F 0 "U1" H 6650 2725 50  0000 C CNN
F 1 "MCP1700-3302E_SOT23" H 6800 2725 50  0000 L CNN
F 2 "TO_SOT_Packages_SMD:SOT-223-3_TabPin2" H 6800 2825 50  0001 C CNN
F 3 "" H 6800 2600 50  0001 C CNN
	1    6800 2600
	-1   0    0    -1  
$EndComp
$Comp
L C_Small C2
U 1 1 5AE73B8C
P 7150 2750
F 0 "C2" H 7160 2820 50  0000 L CNN
F 1 "0.1uF" H 7160 2670 50  0000 L CNN
F 2 "Capacitors_THT:C_Disc_D5.1mm_W3.2mm_P5.00mm" H 7150 2750 50  0001 C CNN
F 3 "" H 7150 2750 50  0001 C CNN
	1    7150 2750
	1    0    0    1   
$EndComp
$Comp
L C_Small C1
U 1 1 5AE73BFF
P 6400 2750
F 0 "C1" H 6410 2820 50  0000 L CNN
F 1 "0.1uF" H 6410 2670 50  0000 L CNN
F 2 "Capacitors_THT:C_Disc_D5.1mm_W3.2mm_P5.00mm" H 6400 2750 50  0001 C CNN
F 3 "" H 6400 2750 50  0001 C CNN
	1    6400 2750
	1    0    0    1   
$EndComp
$Comp
L VBUS #PWR02
U 1 1 5AE77D26
P 7700 2300
F 0 "#PWR02" H 7700 2150 50  0001 C CNN
F 1 "VBUS" H 7700 2450 50  0000 C CNN
F 2 "" H 7700 2300 50  0001 C CNN
F 3 "" H 7700 2300 50  0001 C CNN
	1    7700 2300
	1    0    0    -1  
$EndComp
$Comp
L +5V #PWR03
U 1 1 5AE77D7C
P 7150 2300
F 0 "#PWR03" H 7150 2150 50  0001 C CNN
F 1 "+5V" H 7150 2440 50  0000 C CNN
F 2 "" H 7150 2300 50  0001 C CNN
F 3 "" H 7150 2300 50  0001 C CNN
	1    7150 2300
	-1   0    0    -1  
$EndComp
$Comp
L +3.3V #PWR04
U 1 1 5AE78A20
P 6400 2300
F 0 "#PWR04" H 6400 2150 50  0001 C CNN
F 1 "+3.3V" H 6400 2440 50  0000 C CNN
F 2 "" H 6400 2300 50  0001 C CNN
F 3 "" H 6400 2300 50  0001 C CNN
	1    6400 2300
	1    0    0    -1  
$EndComp
Wire Wire Line
	7700 3150 7700 2950
Wire Wire Line
	7700 2300 7700 2750
Wire Wire Line
	4500 2550 4750 2550
Wire Wire Line
	4500 2000 4500 2550
Wire Wire Line
	7550 2600 7700 2600
Wire Wire Line
	7100 2600 7350 2600
Wire Wire Line
	6400 3150 7700 3150
Wire Wire Line
	6800 3150 6800 2900
Wire Wire Line
	6400 2300 6400 2650
Wire Wire Line
	6400 2600 6500 2600
Wire Wire Line
	7150 2300 7150 2650
Wire Wire Line
	7150 3150 7150 2850
Connection ~ 7150 3150
Wire Wire Line
	6400 2850 6400 3150
Connection ~ 6800 3150
Connection ~ 7700 2600
Connection ~ 7150 2600
Wire Wire Line
	5050 3350 5050 3150
$Comp
L PIC_ICSP J1
U 1 1 5AE7AF04
P 10000 2450
F 0 "J1" H 10000 2750 50  0000 C CNN
F 1 "PIC_ICSP" H 10000 2050 50  0000 C CNN
F 2 "Pin_Headers:Pin_Header_Straight_1x06_Pitch2.54mm" H 10000 2450 50  0001 C CNN
F 3 "" H 10000 2450 50  0001 C CNN
	1    10000 2450
	1    0    0    -1  
$EndComp
Text Label 9800 2550 2    60   ~ 0
PGD
Text Label 9800 2650 2    60   ~ 0
PGC
Wire Wire Line
	4150 2750 4750 2750
Wire Wire Line
	4750 2850 4150 2850
$Comp
L GND #PWR05
U 1 1 5AE7D71B
P 5050 3350
F 0 "#PWR05" H 5050 3100 50  0001 C CNN
F 1 "GND" H 5050 3200 50  0000 C CNN
F 2 "" H 5050 3350 50  0001 C CNN
F 3 "" H 5050 3350 50  0001 C CNN
	1    5050 3350
	1    0    0    -1  
$EndComp
$Sheet
S 3350 2650 800  1400
U 5AE7DFE0
F0 "Brain" 60
F1 "pic32base.sch" 60
F2 "USBD+" I R 4150 2750 60 
F3 "USBD-" I R 4150 2850 60 
F4 "PGD" I R 4150 3200 60 
F5 "PGC" I R 4150 3300 60 
F6 "~RST" I R 4150 3100 60 
F7 "P02" I L 3350 2750 60 
F8 "P03" I L 3350 2850 60 
F9 "P04" I L 3350 2950 60 
F10 "P05" I L 3350 3050 60 
F11 "P11" I L 3350 3150 60 
F12 "P12" I L 3350 3250 60 
F13 "P14" I L 3350 3350 60 
F14 "P16" I L 3350 3450 60 
F15 "P17" I L 3350 3550 60 
F16 "P18" I L 3350 3650 60 
F17 "P24" I L 3350 3750 60 
F18 "P25" I L 3350 3850 60 
F19 "P26" I L 3350 3950 60 
$EndSheet
$Comp
L Jumper JP1
U 1 1 5AE8232B
P 4500 1900
F 0 "JP1" H 4450 1950 50  0000 R CNN
F 1 "Jumper" H 4550 1950 50  0000 L CNN
F 2 "Pin_Headers:Pin_Header_Straight_1x02_Pitch2.54mm" H 4500 1900 50  0001 C CNN
F 3 "" H 4500 1900 50  0001 C CNN
	1    4500 1900
	0    1    1    0   
$EndComp
Wire Wire Line
	4500 1800 4500 1600
Text Label 4150 3200 0    60   ~ 0
PGD
Text Label 4150 3300 0    60   ~ 0
PGC
Text Label 9800 2250 2    60   ~ 0
~RST
Text Label 4150 3100 0    60   ~ 0
~RST
Wire Wire Line
	9800 2450 9550 2450
Wire Wire Line
	9550 2450 9550 2800
Wire Wire Line
	9800 2350 9550 2350
Wire Wire Line
	9550 2350 9550 1950
$Comp
L GND #PWR06
U 1 1 5AE84439
P 9550 2800
F 0 "#PWR06" H 9550 2550 50  0001 C CNN
F 1 "GND" H 9550 2650 50  0000 C CNN
F 2 "" H 9550 2800 50  0001 C CNN
F 3 "" H 9550 2800 50  0001 C CNN
	1    9550 2800
	1    0    0    -1  
$EndComp
$Comp
L +3.3V #PWR07
U 1 1 5AE863BD
P 9550 1950
F 0 "#PWR07" H 9550 1800 50  0001 C CNN
F 1 "+3.3V" H 9550 2090 50  0000 C CNN
F 2 "" H 9550 1950 50  0001 C CNN
F 3 "" H 9550 1950 50  0001 C CNN
	1    9550 1950
	1    0    0    -1  
$EndComp
$EndSCHEMATC
