EESchema Schematic File Version 2
LIBS:chordboard-components
LIBS:chordboard-rescue
LIBS:power
LIBS:device
LIBS:transistors
LIBS:conn
LIBS:linear
LIBS:regul
LIBS:74xx
LIBS:cmos4000
LIBS:adc-dac
LIBS:memory
LIBS:xilinx
LIBS:microcontrollers
LIBS:dsp
LIBS:microchip
LIBS:analog_switches
LIBS:motorola
LIBS:texas
LIBS:intel
LIBS:audio
LIBS:interface
LIBS:digital-audio
LIBS:philips
LIBS:display
LIBS:cypress
LIBS:siliconi
LIBS:opto
LIBS:atmel
LIBS:contrib
LIBS:valves
LIBS:standard
LIBS:teensy
LIBS:switches
LIBS:Symbols_DCDC-ACDC-Converter_RevC_20Jul2012
LIBS:Symbols_EN60617_13Mar2013
LIBS:Symbols_EN60617-10_HF-Radio_DRAFT_12Sep2013
LIBS:Symbols_ICs-Diskrete_RevD10
LIBS:Symbols_ICs-Opto_RevB_16Sep2013
LIBS:Symbols_Microcontroller_Philips-NXP_RevA_06Oct2013
LIBS:SymbolsSimilarEN60617+oldDIN617-RevE8
LIBS:Symbols_Socket-DIN41612_RevA
LIBS:Symbols_Transformer-Diskrete_RevA
LIBS:74xgxx
LIBS:ac-dc
LIBS:actel
LIBS:allegro
LIBS:Altera
LIBS:analog_devices
LIBS:battery_management
LIBS:bbd
LIBS:brooktre
LIBS:cmos_ieee
LIBS:dc-dc
LIBS:diode
LIBS:elec-unifil
LIBS:ESD_Protection
LIBS:ftdi
LIBS:gennum
LIBS:graphic
LIBS:hc11
LIBS:ir
LIBS:Lattice
LIBS:logo
LIBS:maxim
LIBS:mechanical
LIBS:microchip_dspic33dsc
LIBS:microchip_pic10mcu
LIBS:microchip_pic12mcu
LIBS:microchip_pic16mcu
LIBS:microchip_pic18mcu
LIBS:microchip_pic32mcu
LIBS:motor_drivers
LIBS:motors
LIBS:msp430
LIBS:nordicsemi
LIBS:nxp_armmcu
LIBS:onsemi
LIBS:Oscillators
LIBS:powerint
LIBS:Power_Management
LIBS:pspice
LIBS:references
LIBS:relays
LIBS:rfcom
LIBS:sensors
LIBS:silabs
LIBS:stm8
LIBS:stm32
LIBS:supertex
LIBS:transf
LIBS:ttl_ieee
LIBS:video
LIBS:wiznet
LIBS:Worldsemi
LIBS:Xicor
LIBS:zetex
LIBS:Zilog
LIBS:Rotary-Encoders
LIBS:eurocad
LIBS:afshar
LIBS:74hct125d
LIBS:74hct245
LIBS:4000-ic
LIBS:7400-ic
LIBS:75176
LIBS:Abracon
LIBS:ABS07-32.768KHZ-T
LIBS:acorn_electron_expansion_connector
LIBS:ActiveSemi
LIBS:akn_holtek
LIBS:akn_maxim
LIBS:akn_misc
LIBS:akn_transformers
LIBS:altera
LIBS:Amplifiers
LIBS:AMS
LIBS:analog-devices
LIBS:AnalogDevices
LIBS:analog-ic
LIBS:AOS
LIBS:arm-swd-header
LIBS:Atmel
LIBS:avr-mcu
LIBS:bluegiga
LIBS:Bosch
LIBS:Chipkit_Shield_Max32-cache
LIBS:Chipkit_Shield_uC-cache
LIBS:conn-2mm
LIBS:conn-100mil
LIBS:conn-amphenol
LIBS:conn-assmann
LIBS:conn-cui
LIBS:connector
LIBS:Connectors
LIBS:conn-fci
LIBS:conn-jae
LIBS:conn-linx
LIBS:conn_mics
LIBS:conn-molex
LIBS:conn-special-headers
LIBS:conn-tagconnect
LIBS:conn-te
LIBS:conn-test
LIBS:CubeSatKit_StackBoard-cache
LIBS:DataStorage
LIBS:diode-inc-ic
LIBS:Diodes
LIBS:DiodesInc
LIBS:EKB
LIBS:electomech-misc
LIBS:_electromech
LIBS:esp8266-esp-01
LIBS:esp8266-esp-03
LIBS:esp8266-esp-12e
LIBS:ESP8266
LIBS:Fairchild
LIBS:freescale-ic
LIBS:FTDI
LIBS:ftdi-ic
LIBS:hm-11
LIBS:Infineon
LIBS:Intersil
LIBS:iso15
LIBS:kbox
LIBS:kbox-cache
LIBS:KCDA02-123
LIBS:led
LIBS:_linear
LIBS:LinearTech
LIBS:Littelfuse
LIBS:_logic
LIBS:logic-4000
LIBS:logic-7400
LIBS:logic-7400-new
LIBS:LogicDevices
LIBS:lpc11u14fbd48
LIBS:lt
LIBS:MACOM
LIBS:Macrofab
LIBS:max
LIBS:maxim-ic
LIBS:mcp1700t-3302e-tt
LIBS:micrel-ic
LIBS:Microchip
LIBS:microchip-ic
LIBS:Micron
LIBS:Microprocessors
LIBS:micro_usb_socket
LIBS:MiscellaneousDevices
LIBS:mke02z64vld2
LIBS:mke04z8vtg4
LIBS:Murata
LIBS:nrf24l01p_smd
LIBS:nrf51822-04
LIBS:nRF24L01+
LIBS:NXP
LIBS:nxp-ic
LIBS:OceanOptics
LIBS:on-semi-ic
LIBS:opamps
LIBS:_passive
LIBS:Passives
LIBS:pasv-BelFuse
LIBS:pasv-BiTech
LIBS:pasv-Bourns
LIBS:pasv-cap
LIBS:pasv-ind
LIBS:pasv-Murata
LIBS:pasv-res
LIBS:pasv-TDK
LIBS:pasv-xtal
LIBS:pcb
LIBS:PMOD
LIBS:PowerComponents
LIBS:pp_ws2812b
LIBS:random-mics
LIBS:Recom
LIBS:recom-r1se
LIBS:regulator
LIBS:relays-a
LIBS:RepeaterParts
LIBS:RF_OEM_Parts
LIBS:Richtek
LIBS:rohm
LIBS:_semi
LIBS:semi-diode-DiodesInc
LIBS:semi-diode-generic
LIBS:semi-diode-MCC
LIBS:semi-diode-NXP
LIBS:semi-diode-OnSemi
LIBS:semi-diode-Semtech
LIBS:semi-diode-ST
LIBS:semi-diode-Toshiba
LIBS:semi-opto-generic
LIBS:semi-opto-liteon
LIBS:semi-thyristor-generic
LIBS:semi-trans-AOS
LIBS:semi-trans-DiodesInc
LIBS:semi-trans-EPC
LIBS:semi-trans-Fairchild
LIBS:semi-trans-generic
LIBS:semi-trans-Infineon
LIBS:semi-trans-IRF
LIBS:semi-trans-IXYS
LIBS:semi-trans-NXP
LIBS:semi-trans-OnSemi
LIBS:semi-trans-Panasonic
LIBS:semi-trans-ST
LIBS:semi-trans-TI
LIBS:semi-trans-Toshiba
LIBS:semi-trans-Vishay
LIBS:Sensors
LIBS:sharp-relay
LIBS:skyworks
LIBS:Snickerdoodle
LIBS:sparkfun
LIBS:ST
LIBS:st_ic
LIBS:stm32f37xxx_48pin
LIBS:stm32f102xx_48pin
LIBS:stm32f103c8t6-module-china
LIBS:stm32f302xx_48pin
LIBS:stmicro-mcu
LIBS:symbol
LIBS:TexasInstruments
LIBS:ti
LIBS:ti-ic
LIBS:tinkerforge
LIBS:transistor
LIBS:TransistorParts
LIBS:transistors-mics
LIBS:txs2sa-relay
LIBS:uart_pp
LIBS:u-blox
LIBS:uln-ic
LIBS:usb_plug
LIBS:Vishay
LIBS:Winbond
LIBS:ws2812b
LIBS:Xilinx
LIBS:SparkFun-DigitalIC
LIBS:k66lqfp
LIBS:ESP32
LIBS:ESP32-footprints-Shem-Lib
LIBS:espressif-xess
LIBS:adafruit
LIBS:GeekAmmo
LIBS:LilyPad-Wearables
LIBS:SparkFun-Aesthetics
LIBS:SparkFun-AnalogIC
LIBS:SparkFun-Boards
LIBS:SparkFun-Capacitors
LIBS:SparkFun-Connectors
LIBS:SparkFun-DiscreteSemi
LIBS:SparkFun-Displays
LIBS:SparkFun-Electromechanical
LIBS:SparkFun-FreqCtrl
LIBS:SparkFun-LED
LIBS:SparkFun-Passives
LIBS:SparkFun-PowerIC
LIBS:SparkFun-Resistors
LIBS:SparkFun-Retired
LIBS:SparkFun-RF
LIBS:SparkFun-Sensors
LIBS:Teensy_3_and_LC_Series_Boards_v1.1
LIBS:User-Submitted
LIBS:chordboard-cache
EELAYER 25 0
EELAYER END
$Descr A4 11693 8268
encoding utf-8
Sheet 8 8
Title ""
Date ""
Rev ""
Comp ""
Comment1 ""
Comment2 ""
Comment3 ""
Comment4 ""
$EndDescr
$Comp
L PCA9685 U9
U 1 1 5A72209A
P 3500 3750
F 0 "U9" H 3400 4775 50  0000 R CNN
F 1 "PCA9685" H 3400 4700 50  0000 R CNN
F 2 "Housings_SSOP:TSSOP-28_4.4x9.7mm_Pitch0.65mm" H 3550 2800 50  0001 L CNN
F 3 "" H 3750 4750 50  0001 C CNN
	1    3500 3750
	1    0    0    -1  
$EndComp
Wire Wire Line
	2800 2950 3000 2950
Wire Wire Line
	2600 2950 2450 2950
$Comp
L R R5
U 1 1 5A7233D9
P 2700 2950
F 0 "R5" V 2650 3050 50  0000 L CNN
F 1 "220" V 2700 2900 35  0000 L CNN
F 2 "Resistors_SMD:R_0805_HandSoldering" H 2700 2950 50  0001 C CNN
F 3 "" H 2700 2950 50  0001 C CNN
	1    2700 2950
	0    1    1    0   
$EndComp
Wire Wire Line
	2150 2950 2000 2950
Wire Wire Line
	3500 2500 3500 2750
Wire Wire Line
	2000 2500 2000 4550
Text HLabel 4200 3500 2    60   Input ~ 0
SDA
Text HLabel 4200 3600 2    60   Input ~ 0
SCL
Wire Wire Line
	3500 4750 3500 4900
$Comp
L GND #PWR097
U 1 1 5A723CF7
P 3500 4900
F 0 "#PWR097" H 3500 4650 50  0001 C CNN
F 1 "GND" H 3500 4750 50  0000 C CNN
F 2 "" H 3500 4900 50  0001 C CNN
F 3 "" H 3500 4900 50  0001 C CNN
	1    3500 4900
	1    0    0    -1  
$EndComp
$Comp
L +3.3V #PWR098
U 1 1 5A723D4D
P 3500 2500
F 0 "#PWR098" H 3500 2350 50  0001 C CNN
F 1 "+3.3V" H 3500 2640 50  0000 C CNN
F 2 "" H 3500 2500 50  0001 C CNN
F 3 "" H 3500 2500 50  0001 C CNN
	1    3500 2500
	1    0    0    -1  
$EndComp
$Comp
L +3.3V #PWR099
U 1 1 5A723DC2
P 2000 2500
F 0 "#PWR099" H 2000 2350 50  0001 C CNN
F 1 "+3.3V" H 2000 2640 50  0000 C CNN
F 2 "" H 2000 2500 50  0001 C CNN
F 3 "" H 2000 2500 50  0001 C CNN
	1    2000 2500
	1    0    0    -1  
$EndComp
Connection ~ 2000 2950
Connection ~ 2000 3050
Connection ~ 2000 3150
Connection ~ 2000 3250
Connection ~ 2000 3350
Connection ~ 2000 3450
Connection ~ 2000 3550
Wire Wire Line
	3500 2600 4800 2600
Wire Wire Line
	4800 2600 4800 2750
Connection ~ 3500 2600
$Comp
L C C41
U 1 1 5A7249F3
P 4800 2850
F 0 "C41" H 4810 2920 50  0000 L CNN
F 1 "10uF" H 4810 2770 50  0000 L CNN
F 2 "Capacitors_SMD:C_0805_HandSoldering" H 4800 2850 50  0001 C CNN
F 3 "" H 4800 2850 50  0001 C CNN
	1    4800 2850
	1    0    0    -1  
$EndComp
Wire Wire Line
	4800 2950 4800 3100
$Comp
L GND #PWR0100
U 1 1 5A724BB2
P 4800 3100
F 0 "#PWR0100" H 4800 2850 50  0001 C CNN
F 1 "GND" H 4800 2950 50  0000 C CNN
F 2 "" H 4800 3100 50  0001 C CNN
F 3 "" H 4800 3100 50  0001 C CNN
	1    4800 3100
	1    0    0    -1  
$EndComp
Connection ~ 2000 3650
Connection ~ 2000 3850
Connection ~ 2000 3950
Connection ~ 2000 4050
Connection ~ 2000 4150
Connection ~ 2000 4250
Connection ~ 2000 4350
Connection ~ 2000 4450
Wire Wire Line
	4000 4050 4300 4050
Wire Wire Line
	4300 4050 4300 4900
Wire Wire Line
	4300 4550 4000 4550
Wire Wire Line
	4000 4150 4300 4150
Connection ~ 4300 4150
Wire Wire Line
	4000 4250 4300 4250
Connection ~ 4300 4250
Wire Wire Line
	4000 4350 4300 4350
Connection ~ 4300 4350
Wire Wire Line
	4000 4450 4300 4450
Connection ~ 4300 4450
Connection ~ 4300 4550
$Comp
L GND #PWR0101
U 1 1 5A7252EC
P 4300 4900
F 0 "#PWR0101" H 4300 4650 50  0001 C CNN
F 1 "GND" H 4300 4750 50  0000 C CNN
F 2 "" H 4300 4900 50  0001 C CNN
F 3 "" H 4300 4900 50  0001 C CNN
	1    4300 4900
	1    0    0    -1  
$EndComp
Wire Wire Line
	4000 3500 4200 3500
Wire Wire Line
	4000 3600 4200 3600
$Comp
L LED D1
U 1 1 5A725AC5
P 2300 2950
F 0 "D1" H 2250 3000 60  0000 R CNN
F 1 "LED" H 2350 3000 60  0000 L CNN
F 2 "LEDs:LED_D1.8mm_W3.3mm_H2.4mm" H 2300 2950 60  0001 C CNN
F 3 "" H 2300 2950 60  0001 C CNN
	1    2300 2950
	1    0    0    -1  
$EndComp
Wire Wire Line
	2800 3050 3000 3050
Wire Wire Line
	2600 3050 2450 3050
$Comp
L R R6
U 1 1 5A726F2E
P 2700 3050
F 0 "R6" V 2650 3150 50  0000 L CNN
F 1 "220" V 2700 3000 35  0000 L CNN
F 2 "Resistors_SMD:R_0805_HandSoldering" H 2700 3050 50  0001 C CNN
F 3 "" H 2700 3050 50  0001 C CNN
	1    2700 3050
	0    1    1    0   
$EndComp
Wire Wire Line
	2150 3050 2000 3050
$Comp
L LED D2
U 1 1 5A726F35
P 2300 3050
F 0 "D2" H 2250 3100 60  0000 R CNN
F 1 "LED" H 2350 3100 60  0000 L CNN
F 2 "LEDs:LED_D1.8mm_W3.3mm_H2.4mm" H 2300 3050 60  0001 C CNN
F 3 "" H 2300 3050 60  0001 C CNN
	1    2300 3050
	1    0    0    -1  
$EndComp
Wire Wire Line
	2800 3150 3000 3150
Wire Wire Line
	2600 3150 2450 3150
$Comp
L R R7
U 1 1 5A727047
P 2700 3150
F 0 "R7" V 2650 3250 50  0000 L CNN
F 1 "220" V 2700 3100 35  0000 L CNN
F 2 "Resistors_SMD:R_0805_HandSoldering" H 2700 3150 50  0001 C CNN
F 3 "" H 2700 3150 50  0001 C CNN
	1    2700 3150
	0    1    1    0   
$EndComp
Wire Wire Line
	2150 3150 2000 3150
$Comp
L LED D3
U 1 1 5A72704E
P 2300 3150
F 0 "D3" H 2250 3200 60  0000 R CNN
F 1 "LED" H 2350 3200 60  0000 L CNN
F 2 "LEDs:LED_D1.8mm_W3.3mm_H2.4mm" H 2300 3150 60  0001 C CNN
F 3 "" H 2300 3150 60  0001 C CNN
	1    2300 3150
	1    0    0    -1  
$EndComp
Wire Wire Line
	2800 3250 3000 3250
Wire Wire Line
	2600 3250 2450 3250
$Comp
L R R8
U 1 1 5A727056
P 2700 3250
F 0 "R8" V 2650 3350 50  0000 L CNN
F 1 "220" V 2700 3200 35  0000 L CNN
F 2 "Resistors_SMD:R_0805_HandSoldering" H 2700 3250 50  0001 C CNN
F 3 "" H 2700 3250 50  0001 C CNN
	1    2700 3250
	0    1    1    0   
$EndComp
Wire Wire Line
	2150 3250 2000 3250
$Comp
L LED D4
U 1 1 5A72705D
P 2300 3250
F 0 "D4" H 2250 3300 60  0000 R CNN
F 1 "LED" H 2350 3300 60  0000 L CNN
F 2 "LEDs:LED_D1.8mm_W3.3mm_H2.4mm" H 2300 3250 60  0001 C CNN
F 3 "" H 2300 3250 60  0001 C CNN
	1    2300 3250
	1    0    0    -1  
$EndComp
Wire Wire Line
	2800 3350 3000 3350
Wire Wire Line
	2600 3350 2450 3350
$Comp
L R R9
U 1 1 5A727135
P 2700 3350
F 0 "R9" V 2650 3450 50  0000 L CNN
F 1 "220" V 2700 3300 35  0000 L CNN
F 2 "Resistors_SMD:R_0805_HandSoldering" H 2700 3350 50  0001 C CNN
F 3 "" H 2700 3350 50  0001 C CNN
	1    2700 3350
	0    1    1    0   
$EndComp
Wire Wire Line
	2150 3350 2000 3350
$Comp
L LED D5
U 1 1 5A72713C
P 2300 3350
F 0 "D5" H 2250 3400 60  0000 R CNN
F 1 "LED" H 2350 3400 60  0000 L CNN
F 2 "LEDs:LED_D1.8mm_W3.3mm_H2.4mm" H 2300 3350 60  0001 C CNN
F 3 "" H 2300 3350 60  0001 C CNN
	1    2300 3350
	1    0    0    -1  
$EndComp
Wire Wire Line
	2800 3450 3000 3450
Wire Wire Line
	2600 3450 2450 3450
$Comp
L R R10
U 1 1 5A727144
P 2700 3450
F 0 "R10" V 2650 3550 50  0000 L CNN
F 1 "220" V 2700 3400 35  0000 L CNN
F 2 "Resistors_SMD:R_0805_HandSoldering" H 2700 3450 50  0001 C CNN
F 3 "" H 2700 3450 50  0001 C CNN
	1    2700 3450
	0    1    1    0   
$EndComp
Wire Wire Line
	2150 3450 2000 3450
$Comp
L LED D6
U 1 1 5A72714B
P 2300 3450
F 0 "D6" H 2250 3500 60  0000 R CNN
F 1 "LED" H 2350 3500 60  0000 L CNN
F 2 "LEDs:LED_D1.8mm_W3.3mm_H2.4mm" H 2300 3450 60  0001 C CNN
F 3 "" H 2300 3450 60  0001 C CNN
	1    2300 3450
	1    0    0    -1  
$EndComp
Wire Wire Line
	2800 3550 3000 3550
Wire Wire Line
	2600 3550 2450 3550
$Comp
L R R11
U 1 1 5A727153
P 2700 3550
F 0 "R11" V 2650 3650 50  0000 L CNN
F 1 "220" V 2700 3500 35  0000 L CNN
F 2 "Resistors_SMD:R_0805_HandSoldering" H 2700 3550 50  0001 C CNN
F 3 "" H 2700 3550 50  0001 C CNN
	1    2700 3550
	0    1    1    0   
$EndComp
Wire Wire Line
	2150 3550 2000 3550
$Comp
L LED D7
U 1 1 5A72715A
P 2300 3550
F 0 "D7" H 2250 3600 60  0000 R CNN
F 1 "LED" H 2350 3600 60  0000 L CNN
F 2 "LEDs:LED_D1.8mm_W3.3mm_H2.4mm" H 2300 3550 60  0001 C CNN
F 3 "" H 2300 3550 60  0001 C CNN
	1    2300 3550
	1    0    0    -1  
$EndComp
Wire Wire Line
	2800 3650 3000 3650
Wire Wire Line
	2600 3650 2450 3650
$Comp
L R R12
U 1 1 5A727162
P 2700 3650
F 0 "R12" V 2650 3750 50  0000 L CNN
F 1 "220" V 2700 3600 35  0000 L CNN
F 2 "Resistors_SMD:R_0805_HandSoldering" H 2700 3650 50  0001 C CNN
F 3 "" H 2700 3650 50  0001 C CNN
	1    2700 3650
	0    1    1    0   
$EndComp
Wire Wire Line
	2150 3650 2000 3650
$Comp
L LED D8
U 1 1 5A727169
P 2300 3650
F 0 "D8" H 2250 3700 60  0000 R CNN
F 1 "LED" H 2350 3700 60  0000 L CNN
F 2 "LEDs:LED_D1.8mm_W3.3mm_H2.4mm" H 2300 3650 60  0001 C CNN
F 3 "" H 2300 3650 60  0001 C CNN
	1    2300 3650
	1    0    0    -1  
$EndComp
Wire Wire Line
	2800 3850 3000 3850
Wire Wire Line
	2600 3850 2450 3850
$Comp
L R R13
U 1 1 5A727489
P 2700 3850
F 0 "R13" V 2650 3950 50  0000 L CNN
F 1 "220" V 2700 3800 35  0000 L CNN
F 2 "Resistors_SMD:R_0805_HandSoldering" H 2700 3850 50  0001 C CNN
F 3 "" H 2700 3850 50  0001 C CNN
	1    2700 3850
	0    1    1    0   
$EndComp
Wire Wire Line
	2150 3850 2000 3850
$Comp
L LED D9
U 1 1 5A727490
P 2300 3850
F 0 "D9" H 2250 3900 60  0000 R CNN
F 1 "LED" H 2350 3900 60  0000 L CNN
F 2 "LEDs:LED_D1.8mm_W3.3mm_H2.4mm" H 2300 3850 60  0001 C CNN
F 3 "" H 2300 3850 60  0001 C CNN
	1    2300 3850
	1    0    0    -1  
$EndComp
Wire Wire Line
	2800 3950 3000 3950
Wire Wire Line
	2600 3950 2450 3950
$Comp
L R R14
U 1 1 5A727498
P 2700 3950
F 0 "R14" V 2650 4050 50  0000 L CNN
F 1 "220" V 2700 3900 35  0000 L CNN
F 2 "Resistors_SMD:R_0805_HandSoldering" H 2700 3950 50  0001 C CNN
F 3 "" H 2700 3950 50  0001 C CNN
	1    2700 3950
	0    1    1    0   
$EndComp
Wire Wire Line
	2150 3950 2000 3950
$Comp
L LED D10
U 1 1 5A72749F
P 2300 3950
F 0 "D10" H 2250 4000 60  0000 R CNN
F 1 "LED" H 2350 4000 60  0000 L CNN
F 2 "LEDs:LED_D1.8mm_W3.3mm_H2.4mm" H 2300 3950 60  0001 C CNN
F 3 "" H 2300 3950 60  0001 C CNN
	1    2300 3950
	1    0    0    -1  
$EndComp
Wire Wire Line
	2800 4050 3000 4050
Wire Wire Line
	2600 4050 2450 4050
$Comp
L R R15
U 1 1 5A7274A7
P 2700 4050
F 0 "R15" V 2650 4150 50  0000 L CNN
F 1 "220" V 2700 4000 35  0000 L CNN
F 2 "Resistors_SMD:R_0805_HandSoldering" H 2700 4050 50  0001 C CNN
F 3 "" H 2700 4050 50  0001 C CNN
	1    2700 4050
	0    1    1    0   
$EndComp
Wire Wire Line
	2150 4050 2000 4050
$Comp
L LED D11
U 1 1 5A7274AE
P 2300 4050
F 0 "D11" H 2250 4100 60  0000 R CNN
F 1 "LED" H 2350 4100 60  0000 L CNN
F 2 "LEDs:LED_D1.8mm_W3.3mm_H2.4mm" H 2300 4050 60  0001 C CNN
F 3 "" H 2300 4050 60  0001 C CNN
	1    2300 4050
	1    0    0    -1  
$EndComp
Wire Wire Line
	2800 4150 3000 4150
Wire Wire Line
	2600 4150 2450 4150
$Comp
L R R16
U 1 1 5A7274B6
P 2700 4150
F 0 "R16" V 2650 4250 50  0000 L CNN
F 1 "220" V 2700 4100 35  0000 L CNN
F 2 "Resistors_SMD:R_0805_HandSoldering" H 2700 4150 50  0001 C CNN
F 3 "" H 2700 4150 50  0001 C CNN
	1    2700 4150
	0    1    1    0   
$EndComp
Wire Wire Line
	2150 4150 2000 4150
$Comp
L LED D12
U 1 1 5A7274BD
P 2300 4150
F 0 "D12" H 2250 4200 60  0000 R CNN
F 1 "LED" H 2350 4200 60  0000 L CNN
F 2 "LEDs:LED_D1.8mm_W3.3mm_H2.4mm" H 2300 4150 60  0001 C CNN
F 3 "" H 2300 4150 60  0001 C CNN
	1    2300 4150
	1    0    0    -1  
$EndComp
Wire Wire Line
	2800 4250 3000 4250
Wire Wire Line
	2600 4250 2450 4250
$Comp
L R R17
U 1 1 5A7274C5
P 2700 4250
F 0 "R17" V 2650 4350 50  0000 L CNN
F 1 "220" V 2700 4200 35  0000 L CNN
F 2 "Resistors_SMD:R_0805_HandSoldering" H 2700 4250 50  0001 C CNN
F 3 "" H 2700 4250 50  0001 C CNN
	1    2700 4250
	0    1    1    0   
$EndComp
Wire Wire Line
	2150 4250 2000 4250
$Comp
L LED D13
U 1 1 5A7274CC
P 2300 4250
F 0 "D13" H 2250 4300 60  0000 R CNN
F 1 "LED" H 2350 4300 60  0000 L CNN
F 2 "LEDs:LED_D1.8mm_W3.3mm_H2.4mm" H 2300 4250 60  0001 C CNN
F 3 "" H 2300 4250 60  0001 C CNN
	1    2300 4250
	1    0    0    -1  
$EndComp
Wire Wire Line
	2800 4350 3000 4350
Wire Wire Line
	2600 4350 2450 4350
$Comp
L R R18
U 1 1 5A7274D4
P 2700 4350
F 0 "R18" V 2650 4450 50  0000 L CNN
F 1 "220" V 2700 4300 35  0000 L CNN
F 2 "Resistors_SMD:R_0805_HandSoldering" H 2700 4350 50  0001 C CNN
F 3 "" H 2700 4350 50  0001 C CNN
	1    2700 4350
	0    1    1    0   
$EndComp
Wire Wire Line
	2150 4350 2000 4350
$Comp
L LED D14
U 1 1 5A7274DB
P 2300 4350
F 0 "D14" H 2250 4400 60  0000 R CNN
F 1 "LED" H 2350 4400 60  0000 L CNN
F 2 "LEDs:LED_D1.8mm_W3.3mm_H2.4mm" H 2300 4350 60  0001 C CNN
F 3 "" H 2300 4350 60  0001 C CNN
	1    2300 4350
	1    0    0    -1  
$EndComp
Wire Wire Line
	2800 4450 3000 4450
Wire Wire Line
	2600 4450 2450 4450
$Comp
L R R19
U 1 1 5A7274E3
P 2700 4450
F 0 "R19" V 2650 4550 50  0000 L CNN
F 1 "220" V 2700 4400 35  0000 L CNN
F 2 "Resistors_SMD:R_0805_HandSoldering" H 2700 4450 50  0001 C CNN
F 3 "" H 2700 4450 50  0001 C CNN
	1    2700 4450
	0    1    1    0   
$EndComp
Wire Wire Line
	2150 4450 2000 4450
$Comp
L LED D15
U 1 1 5A7274EA
P 2300 4450
F 0 "D15" H 2250 4500 60  0000 R CNN
F 1 "LED" H 2350 4500 60  0000 L CNN
F 2 "LEDs:LED_D1.8mm_W3.3mm_H2.4mm" H 2300 4450 60  0001 C CNN
F 3 "" H 2300 4450 60  0001 C CNN
	1    2300 4450
	1    0    0    -1  
$EndComp
Wire Wire Line
	2800 4550 3000 4550
Wire Wire Line
	2600 4550 2450 4550
$Comp
L R R20
U 1 1 5A7274F2
P 2700 4550
F 0 "R20" V 2650 4650 50  0000 L CNN
F 1 "220" V 2700 4500 35  0000 L CNN
F 2 "Resistors_SMD:R_0805_HandSoldering" H 2700 4550 50  0001 C CNN
F 3 "" H 2700 4550 50  0001 C CNN
	1    2700 4550
	0    1    1    0   
$EndComp
Wire Wire Line
	2000 4550 2150 4550
$Comp
L LED D16
U 1 1 5A7274F9
P 2300 4550
F 0 "D16" H 2250 4600 60  0000 R CNN
F 1 "LED" H 2350 4600 60  0000 L CNN
F 2 "LEDs:LED_D1.8mm_W3.3mm_H2.4mm" H 2300 4550 60  0001 C CNN
F 3 "" H 2300 4550 60  0001 C CNN
	1    2300 4550
	1    0    0    -1  
$EndComp
$Comp
L C C40
U 1 1 5A72762A
P 4550 2850
F 0 "C40" H 4560 2920 50  0000 L CNN
F 1 "0.1uF" H 4560 2770 50  0000 L CNN
F 2 "Capacitors_SMD:C_0805_HandSoldering" H 4550 2850 50  0001 C CNN
F 3 "" H 4550 2850 50  0001 C CNN
	1    4550 2850
	1    0    0    -1  
$EndComp
Wire Wire Line
	4550 2750 4550 2600
Connection ~ 4550 2600
Wire Wire Line
	4550 2950 4550 3100
$Comp
L GND #PWR0102
U 1 1 5A7277B8
P 4550 3100
F 0 "#PWR0102" H 4550 2850 50  0001 C CNN
F 1 "GND" H 4550 2950 50  0000 C CNN
F 2 "" H 4550 3100 50  0001 C CNN
F 3 "" H 4550 3100 50  0001 C CNN
	1    4550 3100
	1    0    0    -1  
$EndComp
$Comp
L PCA9685 U10
U 1 1 5A729F15
P 7000 3750
F 0 "U10" H 6900 4775 50  0000 R CNN
F 1 "PCA9685" H 6900 4700 50  0000 R CNN
F 2 "Housings_SSOP:TSSOP-28_4.4x9.7mm_Pitch0.65mm" H 7050 2800 50  0001 L CNN
F 3 "" H 7250 4750 50  0001 C CNN
	1    7000 3750
	1    0    0    -1  
$EndComp
Wire Wire Line
	6300 2950 6500 2950
Wire Wire Line
	6100 2950 5950 2950
$Comp
L R R21
U 1 1 5A729F1D
P 6200 2950
F 0 "R21" V 6150 3050 50  0000 L CNN
F 1 "220" V 6200 2900 35  0000 L CNN
F 2 "Resistors_SMD:R_0805_HandSoldering" H 6200 2950 50  0001 C CNN
F 3 "" H 6200 2950 50  0001 C CNN
	1    6200 2950
	0    1    1    0   
$EndComp
Wire Wire Line
	5650 2950 5500 2950
Wire Wire Line
	7000 2500 7000 2750
Wire Wire Line
	5500 2500 5500 4350
Text HLabel 7700 3500 2    60   Input ~ 0
SDA
Text HLabel 7700 3600 2    60   Input ~ 0
SCL
Wire Wire Line
	7000 4750 7000 4900
$Comp
L GND #PWR0103
U 1 1 5A729F29
P 7000 4900
F 0 "#PWR0103" H 7000 4650 50  0001 C CNN
F 1 "GND" H 7000 4750 50  0000 C CNN
F 2 "" H 7000 4900 50  0001 C CNN
F 3 "" H 7000 4900 50  0001 C CNN
	1    7000 4900
	1    0    0    -1  
$EndComp
$Comp
L +3.3V #PWR0104
U 1 1 5A729F2F
P 7000 2500
F 0 "#PWR0104" H 7000 2350 50  0001 C CNN
F 1 "+3.3V" H 7000 2640 50  0000 C CNN
F 2 "" H 7000 2500 50  0001 C CNN
F 3 "" H 7000 2500 50  0001 C CNN
	1    7000 2500
	1    0    0    -1  
$EndComp
$Comp
L +3.3V #PWR0105
U 1 1 5A729F35
P 5500 2500
F 0 "#PWR0105" H 5500 2350 50  0001 C CNN
F 1 "+3.3V" H 5500 2640 50  0000 C CNN
F 2 "" H 5500 2500 50  0001 C CNN
F 3 "" H 5500 2500 50  0001 C CNN
	1    5500 2500
	1    0    0    -1  
$EndComp
Connection ~ 5500 2950
Connection ~ 5500 3050
Connection ~ 5500 3150
Connection ~ 5500 3250
Connection ~ 5500 3350
Connection ~ 5500 3450
Connection ~ 5500 3550
Wire Wire Line
	7000 2600 8300 2600
Wire Wire Line
	8300 2600 8300 2750
Connection ~ 7000 2600
$Comp
L C C43
U 1 1 5A729F45
P 8300 2850
F 0 "C43" H 8310 2920 50  0000 L CNN
F 1 "10uF" H 8310 2770 50  0000 L CNN
F 2 "Capacitors_SMD:C_0805_HandSoldering" H 8300 2850 50  0001 C CNN
F 3 "" H 8300 2850 50  0001 C CNN
	1    8300 2850
	1    0    0    -1  
$EndComp
Wire Wire Line
	8300 2950 8300 3100
$Comp
L GND #PWR0106
U 1 1 5A729F4C
P 8300 3100
F 0 "#PWR0106" H 8300 2850 50  0001 C CNN
F 1 "GND" H 8300 2950 50  0000 C CNN
F 2 "" H 8300 3100 50  0001 C CNN
F 3 "" H 8300 3100 50  0001 C CNN
	1    8300 3100
	1    0    0    -1  
$EndComp
Connection ~ 5500 3650
Connection ~ 5500 3850
Connection ~ 5500 3950
Connection ~ 5500 4050
Connection ~ 5500 4150
Connection ~ 5500 4250
Connection ~ 5500 4350
Wire Wire Line
	7500 4050 7800 4050
Wire Wire Line
	7800 4050 7800 4900
Wire Wire Line
	7800 4550 7500 4550
Wire Wire Line
	7500 4150 7800 4150
Connection ~ 7800 4150
Wire Wire Line
	7500 4250 7800 4250
Connection ~ 7800 4250
Wire Wire Line
	7500 4350 7800 4350
Connection ~ 7800 4350
Wire Wire Line
	7500 4450 7800 4450
Connection ~ 7800 4450
Connection ~ 7800 4550
$Comp
L GND #PWR0107
U 1 1 5A729F66
P 7800 4900
F 0 "#PWR0107" H 7800 4650 50  0001 C CNN
F 1 "GND" H 7800 4750 50  0000 C CNN
F 2 "" H 7800 4900 50  0001 C CNN
F 3 "" H 7800 4900 50  0001 C CNN
	1    7800 4900
	1    0    0    -1  
$EndComp
Wire Wire Line
	7500 3500 7700 3500
Wire Wire Line
	7500 3600 7700 3600
$Comp
L LED D17
U 1 1 5A729F6E
P 5800 2950
F 0 "D17" H 5750 3000 60  0000 R CNN
F 1 "LED" H 5850 3000 60  0000 L CNN
F 2 "LEDs:LED_D1.8mm_W3.3mm_H2.4mm" H 5800 2950 60  0001 C CNN
F 3 "" H 5800 2950 60  0001 C CNN
	1    5800 2950
	1    0    0    -1  
$EndComp
Wire Wire Line
	6300 3050 6500 3050
Wire Wire Line
	6100 3050 5950 3050
$Comp
L R R22
U 1 1 5A729F76
P 6200 3050
F 0 "R22" V 6150 3150 50  0000 L CNN
F 1 "220" V 6200 3000 35  0000 L CNN
F 2 "Resistors_SMD:R_0805_HandSoldering" H 6200 3050 50  0001 C CNN
F 3 "" H 6200 3050 50  0001 C CNN
	1    6200 3050
	0    1    1    0   
$EndComp
Wire Wire Line
	5650 3050 5500 3050
$Comp
L LED D18
U 1 1 5A729F7D
P 5800 3050
F 0 "D18" H 5750 3100 60  0000 R CNN
F 1 "LED" H 5850 3100 60  0000 L CNN
F 2 "LEDs:LED_D1.8mm_W3.3mm_H2.4mm" H 5800 3050 60  0001 C CNN
F 3 "" H 5800 3050 60  0001 C CNN
	1    5800 3050
	1    0    0    -1  
$EndComp
Wire Wire Line
	6300 3150 6500 3150
Wire Wire Line
	6100 3150 5950 3150
$Comp
L R R23
U 1 1 5A729F85
P 6200 3150
F 0 "R23" V 6150 3250 50  0000 L CNN
F 1 "220" V 6200 3100 35  0000 L CNN
F 2 "Resistors_SMD:R_0805_HandSoldering" H 6200 3150 50  0001 C CNN
F 3 "" H 6200 3150 50  0001 C CNN
	1    6200 3150
	0    1    1    0   
$EndComp
Wire Wire Line
	5650 3150 5500 3150
$Comp
L LED D19
U 1 1 5A729F8C
P 5800 3150
F 0 "D19" H 5750 3200 60  0000 R CNN
F 1 "LED" H 5850 3200 60  0000 L CNN
F 2 "LEDs:LED_D1.8mm_W3.3mm_H2.4mm" H 5800 3150 60  0001 C CNN
F 3 "" H 5800 3150 60  0001 C CNN
	1    5800 3150
	1    0    0    -1  
$EndComp
Wire Wire Line
	6300 3250 6500 3250
Wire Wire Line
	6100 3250 5950 3250
$Comp
L R R24
U 1 1 5A729F94
P 6200 3250
F 0 "R24" V 6150 3350 50  0000 L CNN
F 1 "220" V 6200 3200 35  0000 L CNN
F 2 "Resistors_SMD:R_0805_HandSoldering" H 6200 3250 50  0001 C CNN
F 3 "" H 6200 3250 50  0001 C CNN
	1    6200 3250
	0    1    1    0   
$EndComp
Wire Wire Line
	5650 3250 5500 3250
$Comp
L LED D20
U 1 1 5A729F9B
P 5800 3250
F 0 "D20" H 5750 3300 60  0000 R CNN
F 1 "LED" H 5850 3300 60  0000 L CNN
F 2 "LEDs:LED_D1.8mm_W3.3mm_H2.4mm" H 5800 3250 60  0001 C CNN
F 3 "" H 5800 3250 60  0001 C CNN
	1    5800 3250
	1    0    0    -1  
$EndComp
Wire Wire Line
	6300 3350 6500 3350
Wire Wire Line
	6100 3350 5950 3350
$Comp
L R R25
U 1 1 5A729FA3
P 6200 3350
F 0 "R25" V 6150 3450 50  0000 L CNN
F 1 "220" V 6200 3300 35  0000 L CNN
F 2 "Resistors_SMD:R_0805_HandSoldering" H 6200 3350 50  0001 C CNN
F 3 "" H 6200 3350 50  0001 C CNN
	1    6200 3350
	0    1    1    0   
$EndComp
Wire Wire Line
	5650 3350 5500 3350
$Comp
L LED D21
U 1 1 5A729FAA
P 5800 3350
F 0 "D21" H 5750 3400 60  0000 R CNN
F 1 "LED" H 5850 3400 60  0000 L CNN
F 2 "LEDs:LED_D1.8mm_W3.3mm_H2.4mm" H 5800 3350 60  0001 C CNN
F 3 "" H 5800 3350 60  0001 C CNN
	1    5800 3350
	1    0    0    -1  
$EndComp
Wire Wire Line
	6300 3450 6500 3450
Wire Wire Line
	6100 3450 5950 3450
$Comp
L R R26
U 1 1 5A729FB2
P 6200 3450
F 0 "R26" V 6150 3550 50  0000 L CNN
F 1 "220" V 6200 3400 35  0000 L CNN
F 2 "Resistors_SMD:R_0805_HandSoldering" H 6200 3450 50  0001 C CNN
F 3 "" H 6200 3450 50  0001 C CNN
	1    6200 3450
	0    1    1    0   
$EndComp
Wire Wire Line
	5650 3450 5500 3450
$Comp
L LED D22
U 1 1 5A729FB9
P 5800 3450
F 0 "D22" H 5750 3500 60  0000 R CNN
F 1 "LED" H 5850 3500 60  0000 L CNN
F 2 "LEDs:LED_D1.8mm_W3.3mm_H2.4mm" H 5800 3450 60  0001 C CNN
F 3 "" H 5800 3450 60  0001 C CNN
	1    5800 3450
	1    0    0    -1  
$EndComp
Wire Wire Line
	6300 3550 6500 3550
Wire Wire Line
	6100 3550 5950 3550
$Comp
L R R27
U 1 1 5A729FC1
P 6200 3550
F 0 "R27" V 6150 3650 50  0000 L CNN
F 1 "220" V 6200 3500 35  0000 L CNN
F 2 "Resistors_SMD:R_0805_HandSoldering" H 6200 3550 50  0001 C CNN
F 3 "" H 6200 3550 50  0001 C CNN
	1    6200 3550
	0    1    1    0   
$EndComp
Wire Wire Line
	5650 3550 5500 3550
$Comp
L LED D23
U 1 1 5A729FC8
P 5800 3550
F 0 "D23" H 5750 3600 60  0000 R CNN
F 1 "LED" H 5850 3600 60  0000 L CNN
F 2 "LEDs:LED_D1.8mm_W3.3mm_H2.4mm" H 5800 3550 60  0001 C CNN
F 3 "" H 5800 3550 60  0001 C CNN
	1    5800 3550
	1    0    0    -1  
$EndComp
Wire Wire Line
	6300 3650 6500 3650
Wire Wire Line
	6100 3650 5950 3650
$Comp
L R R28
U 1 1 5A729FD0
P 6200 3650
F 0 "R28" V 6150 3750 50  0000 L CNN
F 1 "220" V 6200 3600 35  0000 L CNN
F 2 "Resistors_SMD:R_0805_HandSoldering" H 6200 3650 50  0001 C CNN
F 3 "" H 6200 3650 50  0001 C CNN
	1    6200 3650
	0    1    1    0   
$EndComp
Wire Wire Line
	5650 3650 5500 3650
$Comp
L LED D24
U 1 1 5A729FD7
P 5800 3650
F 0 "D24" H 5750 3700 60  0000 R CNN
F 1 "LED" H 5850 3700 60  0000 L CNN
F 2 "LEDs:LED_D1.8mm_W3.3mm_H2.4mm" H 5800 3650 60  0001 C CNN
F 3 "" H 5800 3650 60  0001 C CNN
	1    5800 3650
	1    0    0    -1  
$EndComp
Wire Wire Line
	6300 3850 6500 3850
Wire Wire Line
	6100 3850 5950 3850
$Comp
L R R29
U 1 1 5A729FDF
P 6200 3850
F 0 "R29" V 6150 3950 50  0000 L CNN
F 1 "220" V 6200 3800 35  0000 L CNN
F 2 "Resistors_SMD:R_0805_HandSoldering" H 6200 3850 50  0001 C CNN
F 3 "" H 6200 3850 50  0001 C CNN
	1    6200 3850
	0    1    1    0   
$EndComp
Wire Wire Line
	5650 3850 5500 3850
$Comp
L LED D25
U 1 1 5A729FE6
P 5800 3850
F 0 "D25" H 5750 3900 60  0000 R CNN
F 1 "LED" H 5850 3900 60  0000 L CNN
F 2 "LEDs:LED_D1.8mm_W3.3mm_H2.4mm" H 5800 3850 60  0001 C CNN
F 3 "" H 5800 3850 60  0001 C CNN
	1    5800 3850
	1    0    0    -1  
$EndComp
Wire Wire Line
	6300 3950 6500 3950
Wire Wire Line
	6100 3950 5950 3950
$Comp
L R R30
U 1 1 5A729FEE
P 6200 3950
F 0 "R30" V 6150 4050 50  0000 L CNN
F 1 "220" V 6200 3900 35  0000 L CNN
F 2 "Resistors_SMD:R_0805_HandSoldering" H 6200 3950 50  0001 C CNN
F 3 "" H 6200 3950 50  0001 C CNN
	1    6200 3950
	0    1    1    0   
$EndComp
Wire Wire Line
	5650 3950 5500 3950
$Comp
L LED D26
U 1 1 5A729FF5
P 5800 3950
F 0 "D26" H 5750 4000 60  0000 R CNN
F 1 "LED" H 5850 4000 60  0000 L CNN
F 2 "LEDs:LED_D1.8mm_W3.3mm_H2.4mm" H 5800 3950 60  0001 C CNN
F 3 "" H 5800 3950 60  0001 C CNN
	1    5800 3950
	1    0    0    -1  
$EndComp
Wire Wire Line
	6300 4050 6500 4050
Wire Wire Line
	6100 4050 5950 4050
$Comp
L R R31
U 1 1 5A729FFD
P 6200 4050
F 0 "R31" V 6150 4150 50  0000 L CNN
F 1 "220" V 6200 4000 35  0000 L CNN
F 2 "Resistors_SMD:R_0805_HandSoldering" H 6200 4050 50  0001 C CNN
F 3 "" H 6200 4050 50  0001 C CNN
	1    6200 4050
	0    1    1    0   
$EndComp
Wire Wire Line
	5650 4050 5500 4050
$Comp
L LED D27
U 1 1 5A72A004
P 5800 4050
F 0 "D27" H 5750 4100 60  0000 R CNN
F 1 "LED" H 5850 4100 60  0000 L CNN
F 2 "LEDs:LED_D1.8mm_W3.3mm_H2.4mm" H 5800 4050 60  0001 C CNN
F 3 "" H 5800 4050 60  0001 C CNN
	1    5800 4050
	1    0    0    -1  
$EndComp
Wire Wire Line
	6300 4150 6500 4150
Wire Wire Line
	6100 4150 5950 4150
$Comp
L R R32
U 1 1 5A72A00C
P 6200 4150
F 0 "R32" V 6150 4250 50  0000 L CNN
F 1 "220" V 6200 4100 35  0000 L CNN
F 2 "Resistors_SMD:R_0805_HandSoldering" H 6200 4150 50  0001 C CNN
F 3 "" H 6200 4150 50  0001 C CNN
	1    6200 4150
	0    1    1    0   
$EndComp
Wire Wire Line
	5650 4150 5500 4150
$Comp
L LED D28
U 1 1 5A72A013
P 5800 4150
F 0 "D28" H 5750 4200 60  0000 R CNN
F 1 "LED" H 5850 4200 60  0000 L CNN
F 2 "LEDs:LED_D1.8mm_W3.3mm_H2.4mm" H 5800 4150 60  0001 C CNN
F 3 "" H 5800 4150 60  0001 C CNN
	1    5800 4150
	1    0    0    -1  
$EndComp
Wire Wire Line
	6300 4250 6500 4250
Wire Wire Line
	6100 4250 5950 4250
$Comp
L R R33
U 1 1 5A72A01B
P 6200 4250
F 0 "R33" V 6150 4350 50  0000 L CNN
F 1 "220" V 6200 4200 35  0000 L CNN
F 2 "Resistors_SMD:R_0805_HandSoldering" H 6200 4250 50  0001 C CNN
F 3 "" H 6200 4250 50  0001 C CNN
	1    6200 4250
	0    1    1    0   
$EndComp
Wire Wire Line
	5650 4250 5500 4250
$Comp
L LED D29
U 1 1 5A72A022
P 5800 4250
F 0 "D29" H 5750 4300 60  0000 R CNN
F 1 "LED" H 5850 4300 60  0000 L CNN
F 2 "LEDs:LED_D1.8mm_W3.3mm_H2.4mm" H 5800 4250 60  0001 C CNN
F 3 "" H 5800 4250 60  0001 C CNN
	1    5800 4250
	1    0    0    -1  
$EndComp
Wire Wire Line
	6300 4350 6500 4350
Wire Wire Line
	6100 4350 5950 4350
$Comp
L R R34
U 1 1 5A72A02A
P 6200 4350
F 0 "R34" V 6150 4450 50  0000 L CNN
F 1 "220" V 6200 4300 35  0000 L CNN
F 2 "Resistors_SMD:R_0805_HandSoldering" H 6200 4350 50  0001 C CNN
F 3 "" H 6200 4350 50  0001 C CNN
	1    6200 4350
	0    1    1    0   
$EndComp
Wire Wire Line
	5500 4350 5650 4350
$Comp
L LED D30
U 1 1 5A72A031
P 5800 4350
F 0 "D30" H 5750 4400 60  0000 R CNN
F 1 "LED" H 5850 4400 60  0000 L CNN
F 2 "LEDs:LED_D1.8mm_W3.3mm_H2.4mm" H 5800 4350 60  0001 C CNN
F 3 "" H 5800 4350 60  0001 C CNN
	1    5800 4350
	1    0    0    -1  
$EndComp
$Comp
L C C42
U 1 1 5A72A055
P 8050 2850
F 0 "C42" H 8060 2920 50  0000 L CNN
F 1 "0.1uF" H 8060 2770 50  0000 L CNN
F 2 "Capacitors_SMD:C_0805_HandSoldering" H 8050 2850 50  0001 C CNN
F 3 "" H 8050 2850 50  0001 C CNN
	1    8050 2850
	1    0    0    -1  
$EndComp
Wire Wire Line
	8050 2750 8050 2600
Connection ~ 8050 2600
Wire Wire Line
	8050 2950 8050 3100
$Comp
L GND #PWR0108
U 1 1 5A72A05E
P 8050 3100
F 0 "#PWR0108" H 8050 2850 50  0001 C CNN
F 1 "GND" H 8050 2950 50  0000 C CNN
F 2 "" H 8050 3100 50  0001 C CNN
F 3 "" H 8050 3100 50  0001 C CNN
	1    8050 3100
	1    0    0    -1  
$EndComp
$EndSCHEMATC
