EESchema Schematic File Version 2
LIBS:chordboard-components
LIBS:chordboard-rescue
LIBS:power
LIBS:device
LIBS:transistors
LIBS:conn
LIBS:linear
LIBS:regul
LIBS:74xx
LIBS:cmos4000
LIBS:adc-dac
LIBS:memory
LIBS:xilinx
LIBS:microcontrollers
LIBS:dsp
LIBS:microchip
LIBS:analog_switches
LIBS:motorola
LIBS:texas
LIBS:intel
LIBS:audio
LIBS:interface
LIBS:digital-audio
LIBS:philips
LIBS:display
LIBS:cypress
LIBS:siliconi
LIBS:opto
LIBS:atmel
LIBS:contrib
LIBS:valves
LIBS:standard
LIBS:teensy
LIBS:switches
LIBS:Symbols_DCDC-ACDC-Converter_RevC_20Jul2012
LIBS:Symbols_EN60617_13Mar2013
LIBS:Symbols_EN60617-10_HF-Radio_DRAFT_12Sep2013
LIBS:Symbols_ICs-Diskrete_RevD10
LIBS:Symbols_ICs-Opto_RevB_16Sep2013
LIBS:Symbols_Microcontroller_Philips-NXP_RevA_06Oct2013
LIBS:SymbolsSimilarEN60617+oldDIN617-RevE8
LIBS:Symbols_Socket-DIN41612_RevA
LIBS:Symbols_Transformer-Diskrete_RevA
LIBS:74xgxx
LIBS:ac-dc
LIBS:actel
LIBS:allegro
LIBS:Altera
LIBS:analog_devices
LIBS:battery_management
LIBS:bbd
LIBS:brooktre
LIBS:cmos_ieee
LIBS:dc-dc
LIBS:diode
LIBS:elec-unifil
LIBS:ESD_Protection
LIBS:ftdi
LIBS:gennum
LIBS:graphic
LIBS:hc11
LIBS:ir
LIBS:Lattice
LIBS:logo
LIBS:maxim
LIBS:mechanical
LIBS:microchip_dspic33dsc
LIBS:microchip_pic10mcu
LIBS:microchip_pic12mcu
LIBS:microchip_pic16mcu
LIBS:microchip_pic18mcu
LIBS:microchip_pic32mcu
LIBS:motor_drivers
LIBS:motors
LIBS:msp430
LIBS:nordicsemi
LIBS:nxp_armmcu
LIBS:onsemi
LIBS:Oscillators
LIBS:powerint
LIBS:Power_Management
LIBS:pspice
LIBS:references
LIBS:relays
LIBS:rfcom
LIBS:sensors
LIBS:silabs
LIBS:stm8
LIBS:stm32
LIBS:supertex
LIBS:transf
LIBS:ttl_ieee
LIBS:video
LIBS:wiznet
LIBS:Worldsemi
LIBS:Xicor
LIBS:zetex
LIBS:Zilog
LIBS:Rotary-Encoders
LIBS:eurocad
LIBS:afshar
LIBS:74hct125d
LIBS:74hct245
LIBS:4000-ic
LIBS:7400-ic
LIBS:75176
LIBS:Abracon
LIBS:ABS07-32.768KHZ-T
LIBS:acorn_electron_expansion_connector
LIBS:ActiveSemi
LIBS:akn_holtek
LIBS:akn_maxim
LIBS:akn_misc
LIBS:akn_transformers
LIBS:altera
LIBS:Amplifiers
LIBS:AMS
LIBS:analog-devices
LIBS:AnalogDevices
LIBS:analog-ic
LIBS:AOS
LIBS:arm-swd-header
LIBS:Atmel
LIBS:avr-mcu
LIBS:bluegiga
LIBS:Bosch
LIBS:Chipkit_Shield_Max32-cache
LIBS:Chipkit_Shield_uC-cache
LIBS:conn-2mm
LIBS:conn-100mil
LIBS:conn-amphenol
LIBS:conn-assmann
LIBS:conn-cui
LIBS:connector
LIBS:Connectors
LIBS:conn-fci
LIBS:conn-jae
LIBS:conn-linx
LIBS:conn_mics
LIBS:conn-molex
LIBS:conn-special-headers
LIBS:conn-tagconnect
LIBS:conn-te
LIBS:conn-test
LIBS:CubeSatKit_StackBoard-cache
LIBS:DataStorage
LIBS:diode-inc-ic
LIBS:Diodes
LIBS:DiodesInc
LIBS:EKB
LIBS:electomech-misc
LIBS:_electromech
LIBS:esp8266-esp-01
LIBS:esp8266-esp-03
LIBS:esp8266-esp-12e
LIBS:ESP8266
LIBS:Fairchild
LIBS:freescale-ic
LIBS:FTDI
LIBS:ftdi-ic
LIBS:hm-11
LIBS:Infineon
LIBS:Intersil
LIBS:iso15
LIBS:kbox
LIBS:kbox-cache
LIBS:KCDA02-123
LIBS:led
LIBS:_linear
LIBS:LinearTech
LIBS:Littelfuse
LIBS:_logic
LIBS:logic-4000
LIBS:logic-7400
LIBS:logic-7400-new
LIBS:LogicDevices
LIBS:lpc11u14fbd48
LIBS:lt
LIBS:MACOM
LIBS:Macrofab
LIBS:max
LIBS:maxim-ic
LIBS:mcp1700t-3302e-tt
LIBS:micrel-ic
LIBS:Microchip
LIBS:microchip-ic
LIBS:Micron
LIBS:Microprocessors
LIBS:micro_usb_socket
LIBS:MiscellaneousDevices
LIBS:mke02z64vld2
LIBS:mke04z8vtg4
LIBS:Murata
LIBS:nrf24l01p_smd
LIBS:nrf51822-04
LIBS:nRF24L01+
LIBS:NXP
LIBS:nxp-ic
LIBS:OceanOptics
LIBS:on-semi-ic
LIBS:opamps
LIBS:_passive
LIBS:Passives
LIBS:pasv-BelFuse
LIBS:pasv-BiTech
LIBS:pasv-Bourns
LIBS:pasv-cap
LIBS:pasv-ind
LIBS:pasv-Murata
LIBS:pasv-res
LIBS:pasv-TDK
LIBS:pasv-xtal
LIBS:pcb
LIBS:PMOD
LIBS:PowerComponents
LIBS:pp_ws2812b
LIBS:random-mics
LIBS:Recom
LIBS:recom-r1se
LIBS:regulator
LIBS:relays-a
LIBS:RepeaterParts
LIBS:RF_OEM_Parts
LIBS:Richtek
LIBS:rohm
LIBS:_semi
LIBS:semi-diode-DiodesInc
LIBS:semi-diode-generic
LIBS:semi-diode-MCC
LIBS:semi-diode-NXP
LIBS:semi-diode-OnSemi
LIBS:semi-diode-Semtech
LIBS:semi-diode-ST
LIBS:semi-diode-Toshiba
LIBS:semi-opto-generic
LIBS:semi-opto-liteon
LIBS:semi-thyristor-generic
LIBS:semi-trans-AOS
LIBS:semi-trans-DiodesInc
LIBS:semi-trans-EPC
LIBS:semi-trans-Fairchild
LIBS:semi-trans-generic
LIBS:semi-trans-Infineon
LIBS:semi-trans-IRF
LIBS:semi-trans-IXYS
LIBS:semi-trans-NXP
LIBS:semi-trans-OnSemi
LIBS:semi-trans-Panasonic
LIBS:semi-trans-ST
LIBS:semi-trans-TI
LIBS:semi-trans-Toshiba
LIBS:semi-trans-Vishay
LIBS:Sensors
LIBS:sharp-relay
LIBS:skyworks
LIBS:Snickerdoodle
LIBS:sparkfun
LIBS:ST
LIBS:st_ic
LIBS:stm32f37xxx_48pin
LIBS:stm32f102xx_48pin
LIBS:stm32f103c8t6-module-china
LIBS:stm32f302xx_48pin
LIBS:stmicro-mcu
LIBS:symbol
LIBS:TexasInstruments
LIBS:ti
LIBS:ti-ic
LIBS:tinkerforge
LIBS:transistor
LIBS:TransistorParts
LIBS:transistors-mics
LIBS:txs2sa-relay
LIBS:uart_pp
LIBS:u-blox
LIBS:uln-ic
LIBS:usb_plug
LIBS:Vishay
LIBS:Winbond
LIBS:ws2812b
LIBS:Xilinx
LIBS:SparkFun-DigitalIC
LIBS:k66lqfp
LIBS:ESP32
LIBS:ESP32-footprints-Shem-Lib
LIBS:espressif-xess
LIBS:adafruit
LIBS:GeekAmmo
LIBS:LilyPad-Wearables
LIBS:SparkFun-Aesthetics
LIBS:SparkFun-AnalogIC
LIBS:SparkFun-Boards
LIBS:SparkFun-Capacitors
LIBS:SparkFun-Connectors
LIBS:SparkFun-DiscreteSemi
LIBS:SparkFun-Displays
LIBS:SparkFun-Electromechanical
LIBS:SparkFun-FreqCtrl
LIBS:SparkFun-LED
LIBS:SparkFun-Passives
LIBS:SparkFun-PowerIC
LIBS:SparkFun-Resistors
LIBS:SparkFun-Retired
LIBS:SparkFun-RF
LIBS:SparkFun-Sensors
LIBS:Teensy_3_and_LC_Series_Boards_v1.1
LIBS:User-Submitted
LIBS:chordboard-cache
EELAYER 25 0
EELAYER END
$Descr A3 16535 11693
encoding utf-8
Sheet 5 8
Title ""
Date ""
Rev ""
Comp ""
Comment1 ""
Comment2 ""
Comment3 ""
Comment4 ""
$EndDescr
$Comp
L +5V #PWR046
U 1 1 5A6BB688
P 1500 3700
F 0 "#PWR046" H 1500 3550 50  0001 C CNN
F 1 "+5V" H 1500 3840 50  0000 C CNN
F 2 "" H 1500 3700 50  0001 C CNN
F 3 "" H 1500 3700 50  0001 C CNN
	1    1500 3700
	1    0    0    -1  
$EndComp
$Comp
L C C24
U 1 1 5A6BB68E
P 1400 3900
F 0 "C24" H 1425 4000 50  0000 L CNN
F 1 "0.1uF" V 1500 3650 50  0000 L CNN
F 2 "Capacitors_SMD:C_0603_HandSoldering" H 1438 3750 50  0001 C CNN
F 3 "" H 1400 3900 50  0001 C CNN
	1    1400 3900
	1    0    0    -1  
$EndComp
$Comp
L 74LS245_aa U6
U 1 1 5A6BB695
P 2350 3450
F 0 "U6" H 2450 4025 50  0000 L BNN
F 1 "74LS245_aa" H 2400 2875 50  0000 L TNN
F 2 "Housings_SSOP:SSOP-20_5.3x7.2mm_Pitch0.65mm" H 2350 3450 50  0001 C CNN
F 3 "" H 2350 3450 50  0001 C CNN
	1    2350 3450
	1    0    0    -1  
$EndComp
$Comp
L +5V #PWR047
U 1 1 5A6BB69C
P 2350 2550
F 0 "#PWR047" H 2350 2400 50  0001 C CNN
F 1 "+5V" H 2350 2690 50  0000 C CNN
F 2 "" H 2350 2550 50  0001 C CNN
F 3 "" H 2350 2550 50  0001 C CNN
	1    2350 2550
	1    0    0    -1  
$EndComp
$Comp
L GND #PWR048
U 1 1 5A6BB6A2
P 2350 4400
F 0 "#PWR048" H 2350 4150 50  0001 C CNN
F 1 "GND" H 2350 4250 50  0000 C CNN
F 2 "" H 2350 4400 50  0000 C CNN
F 3 "" H 2350 4400 50  0000 C CNN
	1    2350 4400
	1    0    0    -1  
$EndComp
$Comp
L WS2812B LED1
U 1 1 5A6BB6A8
P 4000 2850
F 0 "LED1" H 4000 2650 50  0000 C CNN
F 1 "WS2812B" H 4000 2950 50  0000 C CNN
F 2 "afshar-kicad-lib:LED_WS2812B-PLCC4-HandSolder" H 4000 2550 50  0001 C CNN
F 3 "" H 4000 2800 50  0001 C CNN
	1    4000 2850
	1    0    0    -1  
$EndComp
$Comp
L C C25
U 1 1 5A6BB6AF
P 3800 2350
F 0 "C25" H 3825 2450 50  0000 L CNN
F 1 "0.1uF" V 3900 2100 50  0000 L CNN
F 2 "Capacitors_SMD:C_0603_HandSoldering" H 3838 2200 50  0001 C CNN
F 3 "" H 3800 2350 50  0001 C CNN
	1    3800 2350
	0    1    1    0   
$EndComp
$Comp
L GND #PWR049
U 1 1 5A6BB6B6
P 4050 2450
F 0 "#PWR049" H 4050 2200 50  0001 C CNN
F 1 "GND" H 4050 2300 50  0000 C CNN
F 2 "" H 4050 2450 50  0000 C CNN
F 3 "" H 4050 2450 50  0000 C CNN
	1    4050 2450
	1    0    0    -1  
$EndComp
$Comp
L GND #PWR050
U 1 1 5A6BB6BC
P 4400 3100
F 0 "#PWR050" H 4400 2850 50  0001 C CNN
F 1 "GND" H 4400 2950 50  0000 C CNN
F 2 "" H 4400 3100 50  0000 C CNN
F 3 "" H 4400 3100 50  0000 C CNN
	1    4400 3100
	1    0    0    -1  
$EndComp
$Comp
L +5V #PWR051
U 1 1 5A6BB6C2
P 3600 2150
F 0 "#PWR051" H 3600 2000 50  0001 C CNN
F 1 "+5V" H 3600 2290 50  0000 C CNN
F 2 "" H 3600 2150 50  0001 C CNN
F 3 "" H 3600 2150 50  0001 C CNN
	1    3600 2150
	1    0    0    -1  
$EndComp
$Comp
L WS2812B LED3
U 1 1 5A6BB6C8
P 4900 2850
F 0 "LED3" H 4900 2650 50  0000 C CNN
F 1 "WS2812B" H 4900 2950 50  0000 C CNN
F 2 "afshar-kicad-lib:LED_WS2812B-PLCC4-HandSolder" H 4900 2550 50  0001 C CNN
F 3 "" H 4900 2800 50  0001 C CNN
	1    4900 2850
	1    0    0    -1  
$EndComp
$Comp
L C C27
U 1 1 5A6BB6CF
P 4700 2350
F 0 "C27" H 4725 2450 50  0000 L CNN
F 1 "0.1uF" V 4800 2100 50  0000 L CNN
F 2 "Capacitors_SMD:C_0603_HandSoldering" H 4738 2200 50  0001 C CNN
F 3 "" H 4700 2350 50  0001 C CNN
	1    4700 2350
	0    1    1    0   
$EndComp
$Comp
L GND #PWR052
U 1 1 5A6BB6D6
P 4950 2450
F 0 "#PWR052" H 4950 2200 50  0001 C CNN
F 1 "GND" H 4950 2300 50  0000 C CNN
F 2 "" H 4950 2450 50  0000 C CNN
F 3 "" H 4950 2450 50  0000 C CNN
	1    4950 2450
	1    0    0    -1  
$EndComp
$Comp
L GND #PWR053
U 1 1 5A6BB6DC
P 5300 3100
F 0 "#PWR053" H 5300 2850 50  0001 C CNN
F 1 "GND" H 5300 2950 50  0000 C CNN
F 2 "" H 5300 3100 50  0000 C CNN
F 3 "" H 5300 3100 50  0000 C CNN
	1    5300 3100
	1    0    0    -1  
$EndComp
$Comp
L +5V #PWR054
U 1 1 5A6BB6E2
P 4500 2150
F 0 "#PWR054" H 4500 2000 50  0001 C CNN
F 1 "+5V" H 4500 2290 50  0000 C CNN
F 2 "" H 4500 2150 50  0001 C CNN
F 3 "" H 4500 2150 50  0001 C CNN
	1    4500 2150
	1    0    0    -1  
$EndComp
$Comp
L WS2812B LED4
U 1 1 5A6BB6E8
P 5800 2850
F 0 "LED4" H 5800 2650 50  0000 C CNN
F 1 "WS2812B" H 5800 2950 50  0000 C CNN
F 2 "afshar-kicad-lib:LED_WS2812B-PLCC4-HandSolder" H 5800 2550 50  0001 C CNN
F 3 "" H 5800 2800 50  0001 C CNN
	1    5800 2850
	1    0    0    -1  
$EndComp
$Comp
L C C28
U 1 1 5A6BB6EF
P 5600 2350
F 0 "C28" H 5625 2450 50  0000 L CNN
F 1 "0.1uF" V 5700 2100 50  0000 L CNN
F 2 "Capacitors_SMD:C_0603_HandSoldering" H 5638 2200 50  0001 C CNN
F 3 "" H 5600 2350 50  0001 C CNN
	1    5600 2350
	0    1    1    0   
$EndComp
$Comp
L GND #PWR055
U 1 1 5A6BB6F6
P 5850 2450
F 0 "#PWR055" H 5850 2200 50  0001 C CNN
F 1 "GND" H 5850 2300 50  0000 C CNN
F 2 "" H 5850 2450 50  0000 C CNN
F 3 "" H 5850 2450 50  0000 C CNN
	1    5850 2450
	1    0    0    -1  
$EndComp
$Comp
L GND #PWR056
U 1 1 5A6BB6FC
P 6200 3100
F 0 "#PWR056" H 6200 2850 50  0001 C CNN
F 1 "GND" H 6200 2950 50  0000 C CNN
F 2 "" H 6200 3100 50  0000 C CNN
F 3 "" H 6200 3100 50  0000 C CNN
	1    6200 3100
	1    0    0    -1  
$EndComp
$Comp
L +5V #PWR057
U 1 1 5A6BB702
P 5400 2150
F 0 "#PWR057" H 5400 2000 50  0001 C CNN
F 1 "+5V" H 5400 2290 50  0000 C CNN
F 2 "" H 5400 2150 50  0001 C CNN
F 3 "" H 5400 2150 50  0001 C CNN
	1    5400 2150
	1    0    0    -1  
$EndComp
$Comp
L WS2812B LED5
U 1 1 5A6BB708
P 6700 2850
F 0 "LED5" H 6700 2650 50  0000 C CNN
F 1 "WS2812B" H 6700 2950 50  0000 C CNN
F 2 "afshar-kicad-lib:LED_WS2812B-PLCC4-HandSolder" H 6700 2550 50  0001 C CNN
F 3 "" H 6700 2800 50  0001 C CNN
	1    6700 2850
	1    0    0    -1  
$EndComp
$Comp
L C C29
U 1 1 5A6BB70F
P 6500 2350
F 0 "C29" H 6525 2450 50  0000 L CNN
F 1 "0.1uF" V 6600 2100 50  0000 L CNN
F 2 "Capacitors_SMD:C_0603_HandSoldering" H 6538 2200 50  0001 C CNN
F 3 "" H 6500 2350 50  0001 C CNN
	1    6500 2350
	0    1    1    0   
$EndComp
$Comp
L GND #PWR058
U 1 1 5A6BB716
P 6750 2450
F 0 "#PWR058" H 6750 2200 50  0001 C CNN
F 1 "GND" H 6750 2300 50  0000 C CNN
F 2 "" H 6750 2450 50  0000 C CNN
F 3 "" H 6750 2450 50  0000 C CNN
	1    6750 2450
	1    0    0    -1  
$EndComp
$Comp
L GND #PWR059
U 1 1 5A6BB71C
P 7100 3100
F 0 "#PWR059" H 7100 2850 50  0001 C CNN
F 1 "GND" H 7100 2950 50  0000 C CNN
F 2 "" H 7100 3100 50  0000 C CNN
F 3 "" H 7100 3100 50  0000 C CNN
	1    7100 3100
	1    0    0    -1  
$EndComp
$Comp
L +5V #PWR060
U 1 1 5A6BB722
P 6300 2150
F 0 "#PWR060" H 6300 2000 50  0001 C CNN
F 1 "+5V" H 6300 2290 50  0000 C CNN
F 2 "" H 6300 2150 50  0001 C CNN
F 3 "" H 6300 2150 50  0001 C CNN
	1    6300 2150
	1    0    0    -1  
$EndComp
$Comp
L WS2812B LED6
U 1 1 5A6BB728
P 7600 2850
F 0 "LED6" H 7600 2650 50  0000 C CNN
F 1 "WS2812B" H 7600 2950 50  0000 C CNN
F 2 "afshar-kicad-lib:LED_WS2812B-PLCC4-HandSolder" H 7600 2550 50  0001 C CNN
F 3 "" H 7600 2800 50  0001 C CNN
	1    7600 2850
	1    0    0    -1  
$EndComp
$Comp
L C C30
U 1 1 5A6BB72F
P 7400 2350
F 0 "C30" H 7425 2450 50  0000 L CNN
F 1 "0.1uF" V 7500 2100 50  0000 L CNN
F 2 "Capacitors_SMD:C_0603_HandSoldering" H 7438 2200 50  0001 C CNN
F 3 "" H 7400 2350 50  0001 C CNN
	1    7400 2350
	0    1    1    0   
$EndComp
$Comp
L GND #PWR061
U 1 1 5A6BB736
P 7650 2450
F 0 "#PWR061" H 7650 2200 50  0001 C CNN
F 1 "GND" H 7650 2300 50  0000 C CNN
F 2 "" H 7650 2450 50  0000 C CNN
F 3 "" H 7650 2450 50  0000 C CNN
	1    7650 2450
	1    0    0    -1  
$EndComp
$Comp
L GND #PWR062
U 1 1 5A6BB73C
P 8000 3100
F 0 "#PWR062" H 8000 2850 50  0001 C CNN
F 1 "GND" H 8000 2950 50  0000 C CNN
F 2 "" H 8000 3100 50  0000 C CNN
F 3 "" H 8000 3100 50  0000 C CNN
	1    8000 3100
	1    0    0    -1  
$EndComp
$Comp
L +5V #PWR063
U 1 1 5A6BB742
P 7200 2150
F 0 "#PWR063" H 7200 2000 50  0001 C CNN
F 1 "+5V" H 7200 2290 50  0000 C CNN
F 2 "" H 7200 2150 50  0001 C CNN
F 3 "" H 7200 2150 50  0001 C CNN
	1    7200 2150
	1    0    0    -1  
$EndComp
$Comp
L WS2812B LED7
U 1 1 5A6BB748
P 8500 2850
F 0 "LED7" H 8500 2650 50  0000 C CNN
F 1 "WS2812B" H 8500 2950 50  0000 C CNN
F 2 "afshar-kicad-lib:LED_WS2812B-PLCC4-HandSolder" H 8500 2550 50  0001 C CNN
F 3 "" H 8500 2800 50  0001 C CNN
	1    8500 2850
	1    0    0    -1  
$EndComp
$Comp
L C C31
U 1 1 5A6BB74F
P 8300 2350
F 0 "C31" H 8325 2450 50  0000 L CNN
F 1 "0.1uF" V 8400 2100 50  0000 L CNN
F 2 "Capacitors_SMD:C_0603_HandSoldering" H 8338 2200 50  0001 C CNN
F 3 "" H 8300 2350 50  0001 C CNN
	1    8300 2350
	0    1    1    0   
$EndComp
$Comp
L GND #PWR064
U 1 1 5A6BB756
P 8550 2450
F 0 "#PWR064" H 8550 2200 50  0001 C CNN
F 1 "GND" H 8550 2300 50  0000 C CNN
F 2 "" H 8550 2450 50  0000 C CNN
F 3 "" H 8550 2450 50  0000 C CNN
	1    8550 2450
	1    0    0    -1  
$EndComp
$Comp
L GND #PWR065
U 1 1 5A6BB75C
P 8900 3100
F 0 "#PWR065" H 8900 2850 50  0001 C CNN
F 1 "GND" H 8900 2950 50  0000 C CNN
F 2 "" H 8900 3100 50  0000 C CNN
F 3 "" H 8900 3100 50  0000 C CNN
	1    8900 3100
	1    0    0    -1  
$EndComp
$Comp
L +5V #PWR066
U 1 1 5A6BB762
P 8100 2150
F 0 "#PWR066" H 8100 2000 50  0001 C CNN
F 1 "+5V" H 8100 2290 50  0000 C CNN
F 2 "" H 8100 2150 50  0001 C CNN
F 3 "" H 8100 2150 50  0001 C CNN
	1    8100 2150
	1    0    0    -1  
$EndComp
$Comp
L WS2812B LED8
U 1 1 5A6BB768
P 9400 2850
F 0 "LED8" H 9400 2650 50  0000 C CNN
F 1 "WS2812B" H 9400 2950 50  0000 C CNN
F 2 "afshar-kicad-lib:LED_WS2812B-PLCC4-HandSolder" H 9400 2550 50  0001 C CNN
F 3 "" H 9400 2800 50  0001 C CNN
	1    9400 2850
	1    0    0    -1  
$EndComp
$Comp
L C C32
U 1 1 5A6BB76F
P 9200 2350
F 0 "C32" H 9225 2450 50  0000 L CNN
F 1 "0.1uF" V 9300 2100 50  0000 L CNN
F 2 "Capacitors_SMD:C_0603_HandSoldering" H 9238 2200 50  0001 C CNN
F 3 "" H 9200 2350 50  0001 C CNN
	1    9200 2350
	0    1    1    0   
$EndComp
$Comp
L GND #PWR067
U 1 1 5A6BB776
P 9450 2450
F 0 "#PWR067" H 9450 2200 50  0001 C CNN
F 1 "GND" H 9450 2300 50  0000 C CNN
F 2 "" H 9450 2450 50  0000 C CNN
F 3 "" H 9450 2450 50  0000 C CNN
	1    9450 2450
	1    0    0    -1  
$EndComp
$Comp
L GND #PWR068
U 1 1 5A6BB77C
P 9800 3100
F 0 "#PWR068" H 9800 2850 50  0001 C CNN
F 1 "GND" H 9800 2950 50  0000 C CNN
F 2 "" H 9800 3100 50  0000 C CNN
F 3 "" H 9800 3100 50  0000 C CNN
	1    9800 3100
	1    0    0    -1  
$EndComp
$Comp
L +5V #PWR069
U 1 1 5A6BB782
P 9000 2150
F 0 "#PWR069" H 9000 2000 50  0001 C CNN
F 1 "+5V" H 9000 2290 50  0000 C CNN
F 2 "" H 9000 2150 50  0001 C CNN
F 3 "" H 9000 2150 50  0001 C CNN
	1    9000 2150
	1    0    0    -1  
$EndComp
$Comp
L WS2812B LED9
U 1 1 5A6BB788
P 10300 2850
F 0 "LED9" H 10300 2650 50  0000 C CNN
F 1 "WS2812B" H 10300 2950 50  0000 C CNN
F 2 "afshar-kicad-lib:LED_WS2812B-PLCC4-HandSolder" H 10300 2550 50  0001 C CNN
F 3 "" H 10300 2800 50  0001 C CNN
	1    10300 2850
	1    0    0    -1  
$EndComp
$Comp
L C C33
U 1 1 5A6BB78F
P 10100 2350
F 0 "C33" H 10125 2450 50  0000 L CNN
F 1 "0.1uF" V 10200 2100 50  0000 L CNN
F 2 "Capacitors_SMD:C_0603_HandSoldering" H 10138 2200 50  0001 C CNN
F 3 "" H 10100 2350 50  0001 C CNN
	1    10100 2350
	0    1    1    0   
$EndComp
$Comp
L GND #PWR070
U 1 1 5A6BB796
P 10350 2450
F 0 "#PWR070" H 10350 2200 50  0001 C CNN
F 1 "GND" H 10350 2300 50  0000 C CNN
F 2 "" H 10350 2450 50  0000 C CNN
F 3 "" H 10350 2450 50  0000 C CNN
	1    10350 2450
	1    0    0    -1  
$EndComp
$Comp
L GND #PWR071
U 1 1 5A6BB79C
P 10700 3100
F 0 "#PWR071" H 10700 2850 50  0001 C CNN
F 1 "GND" H 10700 2950 50  0000 C CNN
F 2 "" H 10700 3100 50  0000 C CNN
F 3 "" H 10700 3100 50  0000 C CNN
	1    10700 3100
	1    0    0    -1  
$EndComp
$Comp
L +5V #PWR072
U 1 1 5A6BB7A2
P 9900 2150
F 0 "#PWR072" H 9900 2000 50  0001 C CNN
F 1 "+5V" H 9900 2290 50  0000 C CNN
F 2 "" H 9900 2150 50  0001 C CNN
F 3 "" H 9900 2150 50  0001 C CNN
	1    9900 2150
	1    0    0    -1  
$EndComp
$Comp
L WS2812B LED10
U 1 1 5A6BB7A8
P 11200 2850
F 0 "LED10" H 11200 2650 50  0000 C CNN
F 1 "WS2812B" H 11200 2950 50  0000 C CNN
F 2 "afshar-kicad-lib:LED_WS2812B-PLCC4-HandSolder" H 11200 2550 50  0001 C CNN
F 3 "" H 11200 2800 50  0001 C CNN
	1    11200 2850
	1    0    0    -1  
$EndComp
$Comp
L C C34
U 1 1 5A6BB7AF
P 11000 2350
F 0 "C34" H 11025 2450 50  0000 L CNN
F 1 "0.1uF" V 11100 2100 50  0000 L CNN
F 2 "Capacitors_SMD:C_0603_HandSoldering" H 11038 2200 50  0001 C CNN
F 3 "" H 11000 2350 50  0001 C CNN
	1    11000 2350
	0    1    1    0   
$EndComp
$Comp
L GND #PWR073
U 1 1 5A6BB7B6
P 11250 2450
F 0 "#PWR073" H 11250 2200 50  0001 C CNN
F 1 "GND" H 11250 2300 50  0000 C CNN
F 2 "" H 11250 2450 50  0000 C CNN
F 3 "" H 11250 2450 50  0000 C CNN
	1    11250 2450
	1    0    0    -1  
$EndComp
$Comp
L GND #PWR074
U 1 1 5A6BB7BC
P 11600 3100
F 0 "#PWR074" H 11600 2850 50  0001 C CNN
F 1 "GND" H 11600 2950 50  0000 C CNN
F 2 "" H 11600 3100 50  0000 C CNN
F 3 "" H 11600 3100 50  0000 C CNN
	1    11600 3100
	1    0    0    -1  
$EndComp
$Comp
L +5V #PWR075
U 1 1 5A6BB7C2
P 10800 2150
F 0 "#PWR075" H 10800 2000 50  0001 C CNN
F 1 "+5V" H 10800 2290 50  0000 C CNN
F 2 "" H 10800 2150 50  0001 C CNN
F 3 "" H 10800 2150 50  0001 C CNN
	1    10800 2150
	1    0    0    -1  
$EndComp
$Comp
L WS2812B LED11
U 1 1 5A6BB7C8
P 12100 2850
F 0 "LED11" H 12100 2650 50  0000 C CNN
F 1 "WS2812B" H 12100 2950 50  0000 C CNN
F 2 "afshar-kicad-lib:LED_WS2812B-PLCC4-HandSolder" H 12100 2550 50  0001 C CNN
F 3 "" H 12100 2800 50  0001 C CNN
	1    12100 2850
	1    0    0    -1  
$EndComp
$Comp
L C C35
U 1 1 5A6BB7CF
P 11900 2350
F 0 "C35" H 11925 2450 50  0000 L CNN
F 1 "0.1uF" V 12000 2100 50  0000 L CNN
F 2 "Capacitors_SMD:C_0603_HandSoldering" H 11938 2200 50  0001 C CNN
F 3 "" H 11900 2350 50  0001 C CNN
	1    11900 2350
	0    1    1    0   
$EndComp
$Comp
L GND #PWR076
U 1 1 5A6BB7D6
P 12150 2450
F 0 "#PWR076" H 12150 2200 50  0001 C CNN
F 1 "GND" H 12150 2300 50  0000 C CNN
F 2 "" H 12150 2450 50  0000 C CNN
F 3 "" H 12150 2450 50  0000 C CNN
	1    12150 2450
	1    0    0    -1  
$EndComp
$Comp
L GND #PWR077
U 1 1 5A6BB7DC
P 12500 3100
F 0 "#PWR077" H 12500 2850 50  0001 C CNN
F 1 "GND" H 12500 2950 50  0000 C CNN
F 2 "" H 12500 3100 50  0000 C CNN
F 3 "" H 12500 3100 50  0000 C CNN
	1    12500 3100
	1    0    0    -1  
$EndComp
$Comp
L +5V #PWR078
U 1 1 5A6BB7E2
P 11700 2150
F 0 "#PWR078" H 11700 2000 50  0001 C CNN
F 1 "+5V" H 11700 2290 50  0000 C CNN
F 2 "" H 11700 2150 50  0001 C CNN
F 3 "" H 11700 2150 50  0001 C CNN
	1    11700 2150
	1    0    0    -1  
$EndComp
$Comp
L WS2812B LED12
U 1 1 5A6BB7E8
P 13000 2850
F 0 "LED12" H 13000 2650 50  0000 C CNN
F 1 "WS2812B" H 13000 2950 50  0000 C CNN
F 2 "afshar-kicad-lib:LED_WS2812B-PLCC4-HandSolder" H 13000 2550 50  0001 C CNN
F 3 "" H 13000 2800 50  0001 C CNN
	1    13000 2850
	1    0    0    -1  
$EndComp
$Comp
L C C36
U 1 1 5A6BB7EF
P 12800 2350
F 0 "C36" H 12825 2450 50  0000 L CNN
F 1 "0.1uF" V 12900 2100 50  0000 L CNN
F 2 "Capacitors_SMD:C_0603_HandSoldering" H 12838 2200 50  0001 C CNN
F 3 "" H 12800 2350 50  0001 C CNN
	1    12800 2350
	0    1    1    0   
$EndComp
$Comp
L GND #PWR079
U 1 1 5A6BB7F6
P 13050 2450
F 0 "#PWR079" H 13050 2200 50  0001 C CNN
F 1 "GND" H 13050 2300 50  0000 C CNN
F 2 "" H 13050 2450 50  0000 C CNN
F 3 "" H 13050 2450 50  0000 C CNN
	1    13050 2450
	1    0    0    -1  
$EndComp
$Comp
L GND #PWR080
U 1 1 5A6BB7FC
P 13400 3100
F 0 "#PWR080" H 13400 2850 50  0001 C CNN
F 1 "GND" H 13400 2950 50  0000 C CNN
F 2 "" H 13400 3100 50  0000 C CNN
F 3 "" H 13400 3100 50  0000 C CNN
	1    13400 3100
	1    0    0    -1  
$EndComp
$Comp
L +5V #PWR081
U 1 1 5A6BB802
P 12600 2150
F 0 "#PWR081" H 12600 2000 50  0001 C CNN
F 1 "+5V" H 12600 2290 50  0000 C CNN
F 2 "" H 12600 2150 50  0001 C CNN
F 3 "" H 12600 2150 50  0001 C CNN
	1    12600 2150
	1    0    0    -1  
$EndComp
$Comp
L WS2812B LED13
U 1 1 5A6BB808
P 13900 2850
F 0 "LED13" H 13900 2650 50  0000 C CNN
F 1 "WS2812B" H 13900 2950 50  0000 C CNN
F 2 "afshar-kicad-lib:LED_WS2812B-PLCC4-HandSolder" H 13900 2550 50  0001 C CNN
F 3 "" H 13900 2800 50  0001 C CNN
	1    13900 2850
	1    0    0    -1  
$EndComp
$Comp
L C C37
U 1 1 5A6BB80F
P 13700 2350
F 0 "C37" H 13725 2450 50  0000 L CNN
F 1 "0.1uF" V 13800 2100 50  0000 L CNN
F 2 "Capacitors_SMD:C_0603_HandSoldering" H 13738 2200 50  0001 C CNN
F 3 "" H 13700 2350 50  0001 C CNN
	1    13700 2350
	0    1    1    0   
$EndComp
$Comp
L GND #PWR082
U 1 1 5A6BB816
P 13950 2450
F 0 "#PWR082" H 13950 2200 50  0001 C CNN
F 1 "GND" H 13950 2300 50  0000 C CNN
F 2 "" H 13950 2450 50  0000 C CNN
F 3 "" H 13950 2450 50  0000 C CNN
	1    13950 2450
	1    0    0    -1  
$EndComp
$Comp
L GND #PWR083
U 1 1 5A6BB81C
P 14300 3100
F 0 "#PWR083" H 14300 2850 50  0001 C CNN
F 1 "GND" H 14300 2950 50  0000 C CNN
F 2 "" H 14300 3100 50  0000 C CNN
F 3 "" H 14300 3100 50  0000 C CNN
	1    14300 3100
	1    0    0    -1  
$EndComp
$Comp
L +5V #PWR084
U 1 1 5A6BB822
P 13500 2150
F 0 "#PWR084" H 13500 2000 50  0001 C CNN
F 1 "+5V" H 13500 2290 50  0000 C CNN
F 2 "" H 13500 2150 50  0001 C CNN
F 3 "" H 13500 2150 50  0001 C CNN
	1    13500 2150
	1    0    0    -1  
$EndComp
Wire Wire Line
	1550 2950 1650 2950
Wire Wire Line
	1500 3850 1650 3850
Wire Wire Line
	1500 3700 1500 3850
Wire Wire Line
	1650 3950 1500 3950
Wire Wire Line
	1500 3950 1500 4350
Wire Wire Line
	1500 3750 1400 3750
Connection ~ 1500 3750
Wire Wire Line
	1500 4050 1400 4050
Connection ~ 1500 4050
Wire Wire Line
	2350 2600 2350 2550
Wire Wire Line
	2350 4300 2350 4400
Wire Wire Line
	1500 4350 2350 4350
Connection ~ 2350 4350
Wire Wire Line
	4400 2850 4450 2850
Wire Wire Line
	4450 2850 4450 2950
Wire Wire Line
	4450 2950 4500 2950
Wire Wire Line
	4400 2950 4400 3100
Wire Wire Line
	3600 2150 3600 2850
Wire Wire Line
	3700 2350 3600 2350
Connection ~ 3600 2350
Wire Wire Line
	3900 2350 4050 2350
Wire Wire Line
	4050 2350 4050 2450
Wire Wire Line
	5300 2850 5350 2850
Wire Wire Line
	5350 2850 5350 2950
Wire Wire Line
	5350 2950 5400 2950
Wire Wire Line
	5300 2950 5300 3100
Wire Wire Line
	4500 2150 4500 2850
Wire Wire Line
	4600 2350 4500 2350
Connection ~ 4500 2350
Wire Wire Line
	4800 2350 4950 2350
Wire Wire Line
	4950 2350 4950 2450
Wire Wire Line
	6200 2850 6250 2850
Wire Wire Line
	6250 2850 6250 2950
Wire Wire Line
	6250 2950 6300 2950
Wire Wire Line
	6200 2950 6200 3100
Wire Wire Line
	5400 2150 5400 2850
Wire Wire Line
	5500 2350 5400 2350
Connection ~ 5400 2350
Wire Wire Line
	5700 2350 5850 2350
Wire Wire Line
	5850 2350 5850 2450
Wire Wire Line
	7100 2850 7150 2850
Wire Wire Line
	7150 2850 7150 2950
Wire Wire Line
	7150 2950 7200 2950
Wire Wire Line
	7100 2950 7100 3100
Wire Wire Line
	6300 2150 6300 2850
Wire Wire Line
	6400 2350 6300 2350
Connection ~ 6300 2350
Wire Wire Line
	6600 2350 6750 2350
Wire Wire Line
	6750 2350 6750 2450
Wire Wire Line
	8000 2850 8050 2850
Wire Wire Line
	8050 2850 8050 2950
Wire Wire Line
	8050 2950 8100 2950
Wire Wire Line
	8000 2950 8000 3100
Wire Wire Line
	7200 2150 7200 2850
Wire Wire Line
	7300 2350 7200 2350
Connection ~ 7200 2350
Wire Wire Line
	7500 2350 7650 2350
Wire Wire Line
	7650 2350 7650 2450
Wire Wire Line
	8900 2850 8950 2850
Wire Wire Line
	8950 2850 8950 2950
Wire Wire Line
	8950 2950 9000 2950
Wire Wire Line
	8900 2950 8900 3100
Wire Wire Line
	8100 2150 8100 2850
Wire Wire Line
	8200 2350 8100 2350
Connection ~ 8100 2350
Wire Wire Line
	8400 2350 8550 2350
Wire Wire Line
	8550 2350 8550 2450
Wire Wire Line
	9800 2850 9850 2850
Wire Wire Line
	9850 2850 9850 2950
Wire Wire Line
	9850 2950 9900 2950
Wire Wire Line
	9800 2950 9800 3100
Wire Wire Line
	9000 2150 9000 2850
Wire Wire Line
	9100 2350 9000 2350
Connection ~ 9000 2350
Wire Wire Line
	9300 2350 9450 2350
Wire Wire Line
	9450 2350 9450 2450
Wire Wire Line
	10700 2850 10750 2850
Wire Wire Line
	10750 2850 10750 2950
Wire Wire Line
	10750 2950 10800 2950
Wire Wire Line
	10700 2950 10700 3100
Wire Wire Line
	9900 2150 9900 2850
Wire Wire Line
	10000 2350 9900 2350
Connection ~ 9900 2350
Wire Wire Line
	10200 2350 10350 2350
Wire Wire Line
	10350 2350 10350 2450
Wire Wire Line
	11600 2850 11650 2850
Wire Wire Line
	11650 2850 11650 2950
Wire Wire Line
	11650 2950 11700 2950
Wire Wire Line
	11600 2950 11600 3100
Wire Wire Line
	10800 2150 10800 2850
Wire Wire Line
	10900 2350 10800 2350
Connection ~ 10800 2350
Wire Wire Line
	11100 2350 11250 2350
Wire Wire Line
	11250 2350 11250 2450
Wire Wire Line
	12500 2850 12550 2850
Wire Wire Line
	12550 2850 12550 2950
Wire Wire Line
	12550 2950 12600 2950
Wire Wire Line
	12500 2950 12500 3100
Wire Wire Line
	11700 2150 11700 2850
Wire Wire Line
	11800 2350 11700 2350
Connection ~ 11700 2350
Wire Wire Line
	12000 2350 12150 2350
Wire Wire Line
	12150 2350 12150 2450
Wire Wire Line
	13400 2850 13450 2850
Wire Wire Line
	13450 2850 13450 2950
Wire Wire Line
	13450 2950 13500 2950
Wire Wire Line
	13400 2950 13400 3100
Wire Wire Line
	12600 2150 12600 2850
Wire Wire Line
	12700 2350 12600 2350
Connection ~ 12600 2350
Wire Wire Line
	12900 2350 13050 2350
Wire Wire Line
	13050 2350 13050 2450
Wire Wire Line
	14300 2850 14350 2850
Wire Wire Line
	14350 2850 14350 2950
Wire Wire Line
	14350 2950 14400 2950
Wire Wire Line
	14300 2950 14300 3100
Wire Wire Line
	13500 2150 13500 2850
Wire Wire Line
	13600 2350 13500 2350
Connection ~ 13500 2350
Wire Wire Line
	13800 2350 13950 2350
Wire Wire Line
	13950 2350 13950 2450
Wire Wire Line
	3050 2950 3600 2950
Text HLabel 1550 2950 0    60   Input ~ 0
PIXEL1_IN
$Comp
L WS2812B LED2
U 1 1 5A6EE95B
P 4000 4300
F 0 "LED2" H 4000 4100 50  0000 C CNN
F 1 "WS2812B" H 4000 4400 50  0000 C CNN
F 2 "afshar-kicad-lib:LED_WS2812B-PLCC4-HandSolder" H 4000 4000 50  0001 C CNN
F 3 "" H 4000 4250 50  0001 C CNN
	1    4000 4300
	1    0    0    -1  
$EndComp
$Comp
L C C26
U 1 1 5A6EE961
P 3800 3800
F 0 "C26" H 3825 3900 50  0000 L CNN
F 1 "0.1uF" V 3900 3550 50  0000 L CNN
F 2 "Capacitors_SMD:C_0603_HandSoldering" H 3838 3650 50  0001 C CNN
F 3 "" H 3800 3800 50  0001 C CNN
	1    3800 3800
	0    1    1    0   
$EndComp
$Comp
L GND #PWR085
U 1 1 5A6EE967
P 4050 3900
F 0 "#PWR085" H 4050 3650 50  0001 C CNN
F 1 "GND" H 4050 3750 50  0000 C CNN
F 2 "" H 4050 3900 50  0000 C CNN
F 3 "" H 4050 3900 50  0000 C CNN
	1    4050 3900
	1    0    0    -1  
$EndComp
$Comp
L GND #PWR086
U 1 1 5A6EE96D
P 4400 4550
F 0 "#PWR086" H 4400 4300 50  0001 C CNN
F 1 "GND" H 4400 4400 50  0000 C CNN
F 2 "" H 4400 4550 50  0000 C CNN
F 3 "" H 4400 4550 50  0000 C CNN
	1    4400 4550
	1    0    0    -1  
$EndComp
$Comp
L +5V #PWR087
U 1 1 5A6EE973
P 3600 3600
F 0 "#PWR087" H 3600 3450 50  0001 C CNN
F 1 "+5V" H 3600 3740 50  0000 C CNN
F 2 "" H 3600 3600 50  0001 C CNN
F 3 "" H 3600 3600 50  0001 C CNN
	1    3600 3600
	1    0    0    -1  
$EndComp
Wire Wire Line
	4400 4300 4450 4300
Wire Wire Line
	4450 4300 4450 4400
Wire Wire Line
	4400 4400 4400 4550
Wire Wire Line
	3600 3600 3600 4300
Wire Wire Line
	3700 3800 3600 3800
Connection ~ 3600 3800
Wire Wire Line
	3900 3800 4050 3800
Wire Wire Line
	4050 3800 4050 3900
Wire Wire Line
	3400 4400 3600 4400
Wire Wire Line
	3400 4400 3400 3050
Wire Wire Line
	3400 3050 3050 3050
Text HLabel 1550 3050 0    60   Input ~ 0
PIXEL2_IN
Wire Wire Line
	1550 3050 1650 3050
Wire Wire Line
	1400 3750 1400 3800
Wire Wire Line
	1400 4050 1400 4000
NoConn ~ 4450 4400
$EndSCHEMATC
