EESchema Schematic File Version 2
LIBS:ac-dc
LIBS:adc-dac
LIBS:Altera
LIBS:analog_devices
LIBS:analog_switches
LIBS:atmel
LIBS:audio
LIBS:Battery_Management
LIBS:bbd
LIBS:Bosch
LIBS:brooktre
LIBS:Connector
LIBS:contrib
LIBS:cypress
LIBS:dc-dc
LIBS:Decawave
LIBS:device
LIBS:digital-audio
LIBS:Diode
LIBS:Display
LIBS:driver_gate
LIBS:dsp
LIBS:DSP_Microchip_DSPIC33
LIBS:elec-unifil
LIBS:ESD_Protection
LIBS:Espressif
LIBS:FPGA_Actel
LIBS:ftdi
LIBS:gennum
LIBS:Graphic
LIBS:hc11
LIBS:infineon
LIBS:intel
LIBS:interface
LIBS:intersil
LIBS:ir
LIBS:Lattice
LIBS:LED
LIBS:LEM
LIBS:linear
LIBS:Logic_74xgxx
LIBS:Logic_74xx
LIBS:Logic_CMOS_4000
LIBS:Logic_CMOS_IEEE
LIBS:logic_programmable
LIBS:Logic_TTL_IEEE
LIBS:maxim
LIBS:MCU_Microchip_PIC10
LIBS:MCU_Microchip_PIC12
LIBS:MCU_Microchip_PIC16
LIBS:MCU_Microchip_PIC18
LIBS:MCU_Microchip_PIC24
LIBS:MCU_Microchip_PIC32
LIBS:MCU_NXP_Kinetis
LIBS:MCU_NXP_LPC
LIBS:MCU_NXP_S08
LIBS:MCU_Parallax
LIBS:MCU_ST_STM8
LIBS:MCU_ST_STM32
LIBS:MCU_Texas_MSP430
LIBS:Mechanical
LIBS:memory
LIBS:microchip
LIBS:microcontrollers
LIBS:modules
LIBS:Motor
LIBS:motor_drivers
LIBS:motorola
LIBS:nordicsemi
LIBS:nxp
LIBS:onsemi
LIBS:opto
LIBS:Oscillators
LIBS:philips
LIBS:power
LIBS:powerint
LIBS:Power_Management
LIBS:pspice
LIBS:references
LIBS:regul
LIBS:Relay
LIBS:RF_Bluetooth
LIBS:rfcom
LIBS:RFSolutions
LIBS:Sensor_Current
LIBS:Sensor_Humidity
LIBS:sensors
LIBS:silabs
LIBS:siliconi
LIBS:supertex
LIBS:Switch
LIBS:texas
LIBS:Transformer
LIBS:Transistor
LIBS:triac_thyristor
LIBS:Valve
LIBS:video
LIBS:wiznet
LIBS:Worldsemi
LIBS:Xicor
LIBS:xilinx
LIBS:xilinx-artix7
LIBS:xilinx-kintex7
LIBS:xilinx-spartan6
LIBS:xilinx-virtex5
LIBS:xilinx-virtex6
LIBS:xilinx-virtex7
LIBS:zetex
LIBS:Zilog
LIBS:chordboard-components
LIBS:fe-cache
EELAYER 25 0
EELAYER END
$Descr A4 11693 8268
encoding utf-8
Sheet 1 1
Title ""
Date ""
Rev ""
Comp ""
Comment1 ""
Comment2 ""
Comment3 ""
Comment4 ""
$EndDescr
$Comp
L SPST S1
U 1 1 5B489E2B
P 1750 -1450
F 0 "S1" H 1740 -1365 60  0000 C CNN
F 1 "SPST" H 1750 -1545 60  0000 C CNN
F 2 "chordboard-footprints:CHERRY_PCB_100H_CUSTOMPAD" H 1750 -1450 60  0001 C CNN
F 3 "" H 1750 -1450 60  0001 C CNN
	1    1750 -1450
	1    0    0    -1  
$EndComp
$Comp
L SPST S2
U 1 1 5B489E82
P 1750 -1350
F 0 "S2" H 1740 -1265 60  0000 C CNN
F 1 "SPST" H 1750 -1445 60  0000 C CNN
F 2 "chordboard-footprints:CHERRY_PCB_100H_CUSTOMPAD" H 1750 -1350 60  0001 C CNN
F 3 "" H 1750 -1350 60  0001 C CNN
	1    1750 -1350
	1    0    0    -1  
$EndComp
$Comp
L SPST S3
U 1 1 5B489EA6
P 1750 -1250
F 0 "S3" H 1740 -1165 60  0000 C CNN
F 1 "SPST" H 1750 -1345 60  0000 C CNN
F 2 "chordboard-footprints:CHERRY_PCB_100H_CUSTOMPAD" H 1750 -1250 60  0001 C CNN
F 3 "" H 1750 -1250 60  0001 C CNN
	1    1750 -1250
	1    0    0    -1  
$EndComp
$Comp
L SPST S4
U 1 1 5B489EC1
P 1750 -1150
F 0 "S4" H 1740 -1065 60  0000 C CNN
F 1 "SPST" H 1750 -1245 60  0000 C CNN
F 2 "chordboard-footprints:CHERRY_PCB_100H_CUSTOMPAD" H 1750 -1150 60  0001 C CNN
F 3 "" H 1750 -1150 60  0001 C CNN
	1    1750 -1150
	1    0    0    -1  
$EndComp
$Comp
L SPST S5
U 1 1 5B489EDF
P 1750 -1050
F 0 "S5" H 1740 -965 60  0000 C CNN
F 1 "SPST" H 1750 -1145 60  0000 C CNN
F 2 "chordboard-footprints:CHERRY_PCB_100H_CUSTOMPAD" H 1750 -1050 60  0001 C CNN
F 3 "" H 1750 -1050 60  0001 C CNN
	1    1750 -1050
	1    0    0    -1  
$EndComp
$Comp
L SPST S6
U 1 1 5B489F14
P 1750 -950
F 0 "S6" H 1740 -865 60  0000 C CNN
F 1 "SPST" H 1750 -1045 60  0000 C CNN
F 2 "chordboard-footprints:CHERRY_PCB_100H_CUSTOMPAD" H 1750 -950 60  0001 C CNN
F 3 "" H 1750 -950 60  0001 C CNN
	1    1750 -950
	1    0    0    -1  
$EndComp
$Comp
L SPST S7
U 1 1 5B489F42
P 1750 -850
F 0 "S7" H 1740 -765 60  0000 C CNN
F 1 "SPST" H 1750 -945 60  0000 C CNN
F 2 "chordboard-footprints:CHERRY_PCB_100H_CUSTOMPAD" H 1750 -850 60  0001 C CNN
F 3 "" H 1750 -850 60  0001 C CNN
	1    1750 -850
	1    0    0    -1  
$EndComp
$Comp
L SPST S8
U 1 1 5B489F6B
P 1750 -750
F 0 "S8" H 1740 -665 60  0000 C CNN
F 1 "SPST" H 1750 -845 60  0000 C CNN
F 2 "chordboard-footprints:CHERRY_PCB_100H_CUSTOMPAD" H 1750 -750 60  0001 C CNN
F 3 "" H 1750 -750 60  0001 C CNN
	1    1750 -750
	1    0    0    -1  
$EndComp
$Comp
L SPST S9
U 1 1 5B48B079
P 2600 -1450
F 0 "S9" H 2590 -1365 60  0000 C CNN
F 1 "SPST" H 2600 -1545 60  0000 C CNN
F 2 "chordboard-footprints:CHERRY_PCB_100H_CUSTOMPAD" H 2600 -1450 60  0001 C CNN
F 3 "" H 2600 -1450 60  0001 C CNN
	1    2600 -1450
	1    0    0    -1  
$EndComp
$Comp
L SPST S10
U 1 1 5B48B07F
P 2600 -1350
F 0 "S10" H 2590 -1265 60  0000 C CNN
F 1 "SPST" H 2600 -1445 60  0000 C CNN
F 2 "chordboard-footprints:CHERRY_PCB_100H_CUSTOMPAD" H 2600 -1350 60  0001 C CNN
F 3 "" H 2600 -1350 60  0001 C CNN
	1    2600 -1350
	1    0    0    -1  
$EndComp
$Comp
L SPST S11
U 1 1 5B48B085
P 2600 -1250
F 0 "S11" H 2590 -1165 60  0000 C CNN
F 1 "SPST" H 2600 -1345 60  0000 C CNN
F 2 "chordboard-footprints:CHERRY_PCB_100H_CUSTOMPAD" H 2600 -1250 60  0001 C CNN
F 3 "" H 2600 -1250 60  0001 C CNN
	1    2600 -1250
	1    0    0    -1  
$EndComp
$Comp
L SPST S12
U 1 1 5B48B08B
P 2600 -1150
F 0 "S12" H 2590 -1065 60  0000 C CNN
F 1 "SPST" H 2600 -1245 60  0000 C CNN
F 2 "chordboard-footprints:CHERRY_PCB_100H_CUSTOMPAD" H 2600 -1150 60  0001 C CNN
F 3 "" H 2600 -1150 60  0001 C CNN
	1    2600 -1150
	1    0    0    -1  
$EndComp
$Comp
L SPST S13
U 1 1 5B48B091
P 2600 -1050
F 0 "S13" H 2590 -965 60  0000 C CNN
F 1 "SPST" H 2600 -1145 60  0000 C CNN
F 2 "chordboard-footprints:CHERRY_PCB_100H_CUSTOMPAD" H 2600 -1050 60  0001 C CNN
F 3 "" H 2600 -1050 60  0001 C CNN
	1    2600 -1050
	1    0    0    -1  
$EndComp
$Comp
L SPST S14
U 1 1 5B48B097
P 2600 -950
F 0 "S14" H 2590 -865 60  0000 C CNN
F 1 "SPST" H 2600 -1045 60  0000 C CNN
F 2 "chordboard-footprints:CHERRY_PCB_100H_CUSTOMPAD" H 2600 -950 60  0001 C CNN
F 3 "" H 2600 -950 60  0001 C CNN
	1    2600 -950
	1    0    0    -1  
$EndComp
$Comp
L SPST S15
U 1 1 5B48B09D
P 2600 -850
F 0 "S15" H 2590 -765 60  0000 C CNN
F 1 "SPST" H 2600 -945 60  0000 C CNN
F 2 "chordboard-footprints:CHERRY_PCB_100H_CUSTOMPAD" H 2600 -850 60  0001 C CNN
F 3 "" H 2600 -850 60  0001 C CNN
	1    2600 -850
	1    0    0    -1  
$EndComp
$Comp
L SPST S16
U 1 1 5B48B0A3
P 2600 -750
F 0 "S16" H 2590 -665 60  0000 C CNN
F 1 "SPST" H 2600 -845 60  0000 C CNN
F 2 "chordboard-footprints:CHERRY_PCB_100H_CUSTOMPAD" H 2600 -750 60  0001 C CNN
F 3 "" H 2600 -750 60  0001 C CNN
	1    2600 -750
	1    0    0    -1  
$EndComp
$Comp
L Conn_01x08 J2
U 1 1 5B48B194
P 2250 -1150
F 0 "J2" H 2250 -750 50  0000 C CNN
F 1 "Conn_01x08" H 2250 -1650 50  0000 C CNN
F 2 "Pin_Headers:Pin_Header_Straight_1x08_Pitch2.54mm" H 2250 -1150 50  0001 C CNN
F 3 "" H 2250 -1150 50  0001 C CNN
	1    2250 -1150
	-1   0    0    -1  
$EndComp
$Comp
L Conn_01x08 J1
U 1 1 5B48B674
P 1400 -1150
F 0 "J1" H 1400 -750 50  0000 C CNN
F 1 "Conn_01x08" H 1400 -1650 50  0000 C CNN
F 2 "Pin_Headers:Pin_Header_Straight_1x08_Pitch2.54mm" H 1400 -1150 50  0001 C CNN
F 3 "" H 1400 -1150 50  0001 C CNN
	1    1400 -1150
	-1   0    0    -1  
$EndComp
$Comp
L GND #PWR13
U 1 1 5B48B916
P 1950 -500
F 0 "#PWR13" H 1950 -750 50  0001 C CNN
F 1 "GND" H 1950 -650 50  0000 C CNN
F 2 "" H 1950 -500 50  0001 C CNN
F 3 "" H 1950 -500 50  0001 C CNN
	1    1950 -500
	1    0    0    -1  
$EndComp
$Comp
L GND #PWR14
U 1 1 5B48B982
P 2800 -500
F 0 "#PWR14" H 2800 -750 50  0001 C CNN
F 1 "GND" H 2800 -650 50  0000 C CNN
F 2 "" H 2800 -500 50  0001 C CNN
F 3 "" H 2800 -500 50  0001 C CNN
	1    2800 -500
	1    0    0    -1  
$EndComp
$Comp
L Neopixel_THT D1
U 1 1 5B48D129
P 1750 1200
F 0 "D1" H 1850 1425 50  0000 L BNN
F 1 "Neopixel_THT" H 1850 975 50  0000 L TNN
F 2 "LEDs:LED_D5.0mm-4" H 1850 900 50  0001 L TNN
F 3 "" H 1850 825 50  0001 L TNN
	1    1750 1200
	1    0    0    -1  
$EndComp
$Comp
L Neopixel_THT D2
U 1 1 5B48D601
P 2600 1200
F 0 "D2" H 2700 1425 50  0000 L BNN
F 1 "Neopixel_THT" H 2700 975 50  0000 L TNN
F 2 "LEDs:LED_D5.0mm-4" H 2700 900 50  0001 L TNN
F 3 "" H 2700 825 50  0001 L TNN
	1    2600 1200
	1    0    0    -1  
$EndComp
$Comp
L Neopixel_THT D3
U 1 1 5B48D6A3
P 3450 1200
F 0 "D3" H 3550 1425 50  0000 L BNN
F 1 "Neopixel_THT" H 3550 975 50  0000 L TNN
F 2 "LEDs:LED_D5.0mm-4" H 3550 900 50  0001 L TNN
F 3 "" H 3550 825 50  0001 L TNN
	1    3450 1200
	1    0    0    -1  
$EndComp
$Comp
L Neopixel_THT D4
U 1 1 5B48D744
P 4300 1200
F 0 "D4" H 4400 1425 50  0000 L BNN
F 1 "Neopixel_THT" H 4400 975 50  0000 L TNN
F 2 "LEDs:LED_D5.0mm-4" H 4400 900 50  0001 L TNN
F 3 "" H 4400 825 50  0001 L TNN
	1    4300 1200
	1    0    0    -1  
$EndComp
$Comp
L Neopixel_THT D5
U 1 1 5B48D7EC
P 5150 1200
F 0 "D5" H 5250 1425 50  0000 L BNN
F 1 "Neopixel_THT" H 5250 975 50  0000 L TNN
F 2 "LEDs:LED_D5.0mm-4" H 5250 900 50  0001 L TNN
F 3 "" H 5250 825 50  0001 L TNN
	1    5150 1200
	1    0    0    -1  
$EndComp
$Comp
L Neopixel_THT D6
U 1 1 5B48D895
P 6000 1200
F 0 "D6" H 6100 1425 50  0000 L BNN
F 1 "Neopixel_THT" H 6100 975 50  0000 L TNN
F 2 "LEDs:LED_D5.0mm-4" H 6100 900 50  0001 L TNN
F 3 "" H 6100 825 50  0001 L TNN
	1    6000 1200
	1    0    0    -1  
$EndComp
$Comp
L Neopixel_THT D7
U 1 1 5B48D9AB
P 6850 1200
F 0 "D7" H 6950 1425 50  0000 L BNN
F 1 "Neopixel_THT" H 6950 975 50  0000 L TNN
F 2 "LEDs:LED_D5.0mm-4" H 6950 900 50  0001 L TNN
F 3 "" H 6950 825 50  0001 L TNN
	1    6850 1200
	1    0    0    -1  
$EndComp
$Comp
L Neopixel_THT D8
U 1 1 5B48DAED
P 7700 1200
F 0 "D8" H 7800 1425 50  0000 L BNN
F 1 "Neopixel_THT" H 7800 975 50  0000 L TNN
F 2 "LEDs:LED_D5.0mm-4" H 7800 900 50  0001 L TNN
F 3 "" H 7800 825 50  0001 L TNN
	1    7700 1200
	1    0    0    -1  
$EndComp
$Comp
L GND #PWR23
U 1 1 5B48E17A
P 1750 1550
F 0 "#PWR23" H 1750 1300 50  0001 C CNN
F 1 "GND" H 1750 1400 50  0000 C CNN
F 2 "" H 1750 1550 50  0001 C CNN
F 3 "" H 1750 1550 50  0001 C CNN
	1    1750 1550
	1    0    0    -1  
$EndComp
$Comp
L +5V #PWR15
U 1 1 5B48E3C1
P 1750 850
F 0 "#PWR15" H 1750 700 50  0001 C CNN
F 1 "+5V" H 1750 990 50  0000 C CNN
F 2 "" H 1750 850 50  0001 C CNN
F 3 "" H 1750 850 50  0001 C CNN
	1    1750 850 
	1    0    0    -1  
$EndComp
$Comp
L +5V #PWR16
U 1 1 5B48E794
P 2600 850
F 0 "#PWR16" H 2600 700 50  0001 C CNN
F 1 "+5V" H 2600 990 50  0000 C CNN
F 2 "" H 2600 850 50  0001 C CNN
F 3 "" H 2600 850 50  0001 C CNN
	1    2600 850 
	1    0    0    -1  
$EndComp
$Comp
L +5V #PWR17
U 1 1 5B48E7CA
P 3450 850
F 0 "#PWR17" H 3450 700 50  0001 C CNN
F 1 "+5V" H 3450 990 50  0000 C CNN
F 2 "" H 3450 850 50  0001 C CNN
F 3 "" H 3450 850 50  0001 C CNN
	1    3450 850 
	1    0    0    -1  
$EndComp
$Comp
L +5V #PWR18
U 1 1 5B48E8B4
P 4300 850
F 0 "#PWR18" H 4300 700 50  0001 C CNN
F 1 "+5V" H 4300 990 50  0000 C CNN
F 2 "" H 4300 850 50  0001 C CNN
F 3 "" H 4300 850 50  0001 C CNN
	1    4300 850 
	1    0    0    -1  
$EndComp
$Comp
L +5V #PWR19
U 1 1 5B48E8EA
P 5150 850
F 0 "#PWR19" H 5150 700 50  0001 C CNN
F 1 "+5V" H 5150 990 50  0000 C CNN
F 2 "" H 5150 850 50  0001 C CNN
F 3 "" H 5150 850 50  0001 C CNN
	1    5150 850 
	1    0    0    -1  
$EndComp
$Comp
L +5V #PWR20
U 1 1 5B48E920
P 6000 850
F 0 "#PWR20" H 6000 700 50  0001 C CNN
F 1 "+5V" H 6000 990 50  0000 C CNN
F 2 "" H 6000 850 50  0001 C CNN
F 3 "" H 6000 850 50  0001 C CNN
	1    6000 850 
	1    0    0    -1  
$EndComp
$Comp
L +5V #PWR21
U 1 1 5B48E956
P 6850 850
F 0 "#PWR21" H 6850 700 50  0001 C CNN
F 1 "+5V" H 6850 990 50  0000 C CNN
F 2 "" H 6850 850 50  0001 C CNN
F 3 "" H 6850 850 50  0001 C CNN
	1    6850 850 
	1    0    0    -1  
$EndComp
$Comp
L +5V #PWR22
U 1 1 5B48E98C
P 7700 850
F 0 "#PWR22" H 7700 700 50  0001 C CNN
F 1 "+5V" H 7700 990 50  0000 C CNN
F 2 "" H 7700 850 50  0001 C CNN
F 3 "" H 7700 850 50  0001 C CNN
	1    7700 850 
	1    0    0    -1  
$EndComp
$Comp
L GND #PWR24
U 1 1 5B48EC3C
P 2600 1550
F 0 "#PWR24" H 2600 1300 50  0001 C CNN
F 1 "GND" H 2600 1400 50  0000 C CNN
F 2 "" H 2600 1550 50  0001 C CNN
F 3 "" H 2600 1550 50  0001 C CNN
	1    2600 1550
	1    0    0    -1  
$EndComp
$Comp
L GND #PWR25
U 1 1 5B48EC72
P 3450 1550
F 0 "#PWR25" H 3450 1300 50  0001 C CNN
F 1 "GND" H 3450 1400 50  0000 C CNN
F 2 "" H 3450 1550 50  0001 C CNN
F 3 "" H 3450 1550 50  0001 C CNN
	1    3450 1550
	1    0    0    -1  
$EndComp
$Comp
L GND #PWR26
U 1 1 5B48ED89
P 4300 1550
F 0 "#PWR26" H 4300 1300 50  0001 C CNN
F 1 "GND" H 4300 1400 50  0000 C CNN
F 2 "" H 4300 1550 50  0001 C CNN
F 3 "" H 4300 1550 50  0001 C CNN
	1    4300 1550
	1    0    0    -1  
$EndComp
$Comp
L GND #PWR27
U 1 1 5B48EDBF
P 5150 1550
F 0 "#PWR27" H 5150 1300 50  0001 C CNN
F 1 "GND" H 5150 1400 50  0000 C CNN
F 2 "" H 5150 1550 50  0001 C CNN
F 3 "" H 5150 1550 50  0001 C CNN
	1    5150 1550
	1    0    0    -1  
$EndComp
$Comp
L GND #PWR28
U 1 1 5B48EDF5
P 6000 1550
F 0 "#PWR28" H 6000 1300 50  0001 C CNN
F 1 "GND" H 6000 1400 50  0000 C CNN
F 2 "" H 6000 1550 50  0001 C CNN
F 3 "" H 6000 1550 50  0001 C CNN
	1    6000 1550
	1    0    0    -1  
$EndComp
$Comp
L GND #PWR29
U 1 1 5B48EE58
P 6850 1550
F 0 "#PWR29" H 6850 1300 50  0001 C CNN
F 1 "GND" H 6850 1400 50  0000 C CNN
F 2 "" H 6850 1550 50  0001 C CNN
F 3 "" H 6850 1550 50  0001 C CNN
	1    6850 1550
	1    0    0    -1  
$EndComp
$Comp
L GND #PWR30
U 1 1 5B48EE8E
P 7700 1550
F 0 "#PWR30" H 7700 1300 50  0001 C CNN
F 1 "GND" H 7700 1400 50  0000 C CNN
F 2 "" H 7700 1550 50  0001 C CNN
F 3 "" H 7700 1550 50  0001 C CNN
	1    7700 1550
	1    0    0    -1  
$EndComp
$Comp
L Neopixel_THT D9
U 1 1 5B49252E
P 7700 2350
F 0 "D9" H 7800 2575 50  0000 L BNN
F 1 "Neopixel_THT" H 7800 2125 50  0000 L TNN
F 2 "LEDs:LED_D5.0mm-4" H 7800 2050 50  0001 L TNN
F 3 "" H 7800 1975 50  0001 L TNN
	1    7700 2350
	-1   0    0    -1  
$EndComp
$Comp
L Neopixel_THT D10
U 1 1 5B492534
P 6850 2350
F 0 "D10" H 6950 2575 50  0000 L BNN
F 1 "Neopixel_THT" H 6950 2125 50  0000 L TNN
F 2 "LEDs:LED_D5.0mm-4" H 6950 2050 50  0001 L TNN
F 3 "" H 6950 1975 50  0001 L TNN
	1    6850 2350
	-1   0    0    -1  
$EndComp
$Comp
L Neopixel_THT D11
U 1 1 5B49253A
P 6000 2350
F 0 "D11" H 6100 2575 50  0000 L BNN
F 1 "Neopixel_THT" H 6100 2125 50  0000 L TNN
F 2 "LEDs:LED_D5.0mm-4" H 6100 2050 50  0001 L TNN
F 3 "" H 6100 1975 50  0001 L TNN
	1    6000 2350
	-1   0    0    -1  
$EndComp
$Comp
L Neopixel_THT D12
U 1 1 5B492540
P 5150 2350
F 0 "D12" H 5250 2575 50  0000 L BNN
F 1 "Neopixel_THT" H 5250 2125 50  0000 L TNN
F 2 "LEDs:LED_D5.0mm-4" H 5250 2050 50  0001 L TNN
F 3 "" H 5250 1975 50  0001 L TNN
	1    5150 2350
	-1   0    0    -1  
$EndComp
$Comp
L Neopixel_THT D13
U 1 1 5B492546
P 4300 2350
F 0 "D13" H 4400 2575 50  0000 L BNN
F 1 "Neopixel_THT" H 4400 2125 50  0000 L TNN
F 2 "LEDs:LED_D5.0mm-4" H 4400 2050 50  0001 L TNN
F 3 "" H 4400 1975 50  0001 L TNN
	1    4300 2350
	-1   0    0    -1  
$EndComp
$Comp
L Neopixel_THT D14
U 1 1 5B49254C
P 3450 2350
F 0 "D14" H 3550 2575 50  0000 L BNN
F 1 "Neopixel_THT" H 3550 2125 50  0000 L TNN
F 2 "LEDs:LED_D5.0mm-4" H 3550 2050 50  0001 L TNN
F 3 "" H 3550 1975 50  0001 L TNN
	1    3450 2350
	-1   0    0    -1  
$EndComp
$Comp
L Neopixel_THT D15
U 1 1 5B492552
P 2600 2350
F 0 "D15" H 2700 2575 50  0000 L BNN
F 1 "Neopixel_THT" H 2700 2125 50  0000 L TNN
F 2 "LEDs:LED_D5.0mm-4" H 2700 2050 50  0001 L TNN
F 3 "" H 2700 1975 50  0001 L TNN
	1    2600 2350
	-1   0    0    -1  
$EndComp
$Comp
L Neopixel_THT D16
U 1 1 5B492558
P 1750 2350
F 0 "D16" H 1850 2575 50  0000 L BNN
F 1 "Neopixel_THT" H 1850 2125 50  0000 L TNN
F 2 "LEDs:LED_D5.0mm-4" H 1850 2050 50  0001 L TNN
F 3 "" H 1850 1975 50  0001 L TNN
	1    1750 2350
	-1   0    0    -1  
$EndComp
$Comp
L GND #PWR46
U 1 1 5B49255F
P 7700 2700
F 0 "#PWR46" H 7700 2450 50  0001 C CNN
F 1 "GND" H 7700 2550 50  0000 C CNN
F 2 "" H 7700 2700 50  0001 C CNN
F 3 "" H 7700 2700 50  0001 C CNN
	1    7700 2700
	-1   0    0    -1  
$EndComp
$Comp
L +5V #PWR38
U 1 1 5B492566
P 7700 2000
F 0 "#PWR38" H 7700 1850 50  0001 C CNN
F 1 "+5V" H 7700 2140 50  0000 C CNN
F 2 "" H 7700 2000 50  0001 C CNN
F 3 "" H 7700 2000 50  0001 C CNN
	1    7700 2000
	-1   0    0    -1  
$EndComp
$Comp
L +5V #PWR37
U 1 1 5B49256D
P 6850 2000
F 0 "#PWR37" H 6850 1850 50  0001 C CNN
F 1 "+5V" H 6850 2140 50  0000 C CNN
F 2 "" H 6850 2000 50  0001 C CNN
F 3 "" H 6850 2000 50  0001 C CNN
	1    6850 2000
	-1   0    0    -1  
$EndComp
$Comp
L +5V #PWR36
U 1 1 5B492574
P 6000 2000
F 0 "#PWR36" H 6000 1850 50  0001 C CNN
F 1 "+5V" H 6000 2140 50  0000 C CNN
F 2 "" H 6000 2000 50  0001 C CNN
F 3 "" H 6000 2000 50  0001 C CNN
	1    6000 2000
	-1   0    0    -1  
$EndComp
$Comp
L +5V #PWR35
U 1 1 5B49257B
P 5150 2000
F 0 "#PWR35" H 5150 1850 50  0001 C CNN
F 1 "+5V" H 5150 2140 50  0000 C CNN
F 2 "" H 5150 2000 50  0001 C CNN
F 3 "" H 5150 2000 50  0001 C CNN
	1    5150 2000
	-1   0    0    -1  
$EndComp
$Comp
L +5V #PWR34
U 1 1 5B492582
P 4300 2000
F 0 "#PWR34" H 4300 1850 50  0001 C CNN
F 1 "+5V" H 4300 2140 50  0000 C CNN
F 2 "" H 4300 2000 50  0001 C CNN
F 3 "" H 4300 2000 50  0001 C CNN
	1    4300 2000
	-1   0    0    -1  
$EndComp
$Comp
L +5V #PWR33
U 1 1 5B492589
P 3450 2000
F 0 "#PWR33" H 3450 1850 50  0001 C CNN
F 1 "+5V" H 3450 2140 50  0000 C CNN
F 2 "" H 3450 2000 50  0001 C CNN
F 3 "" H 3450 2000 50  0001 C CNN
	1    3450 2000
	-1   0    0    -1  
$EndComp
$Comp
L +5V #PWR32
U 1 1 5B492590
P 2600 2000
F 0 "#PWR32" H 2600 1850 50  0001 C CNN
F 1 "+5V" H 2600 2140 50  0000 C CNN
F 2 "" H 2600 2000 50  0001 C CNN
F 3 "" H 2600 2000 50  0001 C CNN
	1    2600 2000
	-1   0    0    -1  
$EndComp
$Comp
L +5V #PWR31
U 1 1 5B492597
P 1750 2000
F 0 "#PWR31" H 1750 1850 50  0001 C CNN
F 1 "+5V" H 1750 2140 50  0000 C CNN
F 2 "" H 1750 2000 50  0001 C CNN
F 3 "" H 1750 2000 50  0001 C CNN
	1    1750 2000
	-1   0    0    -1  
$EndComp
$Comp
L GND #PWR45
U 1 1 5B49259E
P 6850 2700
F 0 "#PWR45" H 6850 2450 50  0001 C CNN
F 1 "GND" H 6850 2550 50  0000 C CNN
F 2 "" H 6850 2700 50  0001 C CNN
F 3 "" H 6850 2700 50  0001 C CNN
	1    6850 2700
	-1   0    0    -1  
$EndComp
$Comp
L GND #PWR44
U 1 1 5B4925A5
P 6000 2700
F 0 "#PWR44" H 6000 2450 50  0001 C CNN
F 1 "GND" H 6000 2550 50  0000 C CNN
F 2 "" H 6000 2700 50  0001 C CNN
F 3 "" H 6000 2700 50  0001 C CNN
	1    6000 2700
	-1   0    0    -1  
$EndComp
$Comp
L GND #PWR43
U 1 1 5B4925AC
P 5150 2700
F 0 "#PWR43" H 5150 2450 50  0001 C CNN
F 1 "GND" H 5150 2550 50  0000 C CNN
F 2 "" H 5150 2700 50  0001 C CNN
F 3 "" H 5150 2700 50  0001 C CNN
	1    5150 2700
	-1   0    0    -1  
$EndComp
$Comp
L GND #PWR42
U 1 1 5B4925B3
P 4300 2700
F 0 "#PWR42" H 4300 2450 50  0001 C CNN
F 1 "GND" H 4300 2550 50  0000 C CNN
F 2 "" H 4300 2700 50  0001 C CNN
F 3 "" H 4300 2700 50  0001 C CNN
	1    4300 2700
	-1   0    0    -1  
$EndComp
$Comp
L GND #PWR41
U 1 1 5B4925BA
P 3450 2700
F 0 "#PWR41" H 3450 2450 50  0001 C CNN
F 1 "GND" H 3450 2550 50  0000 C CNN
F 2 "" H 3450 2700 50  0001 C CNN
F 3 "" H 3450 2700 50  0001 C CNN
	1    3450 2700
	-1   0    0    -1  
$EndComp
$Comp
L GND #PWR40
U 1 1 5B4925C1
P 2600 2700
F 0 "#PWR40" H 2600 2450 50  0001 C CNN
F 1 "GND" H 2600 2550 50  0000 C CNN
F 2 "" H 2600 2700 50  0001 C CNN
F 3 "" H 2600 2700 50  0001 C CNN
	1    2600 2700
	-1   0    0    -1  
$EndComp
$Comp
L GND #PWR39
U 1 1 5B4925C8
P 1750 2700
F 0 "#PWR39" H 1750 2450 50  0001 C CNN
F 1 "GND" H 1750 2550 50  0000 C CNN
F 2 "" H 1750 2700 50  0001 C CNN
F 3 "" H 1750 2700 50  0001 C CNN
	1    1750 2700
	-1   0    0    -1  
$EndComp
$Comp
L ROTARY_ENCODER U1
U 1 1 5B493B11
P 7150 -1250
F 0 "U1" H 7100 -850 60  0000 C CNN
F 1 "ROTARY_ENCODER" H 7200 -1600 60  0000 C CNN
F 2 "chordboard-footprints:Rotary_Encoder_BI_EN12-HS22AF30" H 7150 -1250 60  0001 C CNN
F 3 "" H 7150 -1250 60  0000 C CNN
	1    7150 -1250
	0    1    1    0   
$EndComp
$Comp
L GND #PWR5
U 1 1 5B494171
P 7150 -700
F 0 "#PWR5" H 7150 -950 50  0001 C CNN
F 1 "GND" H 7150 -850 50  0000 C CNN
F 2 "" H 7150 -700 50  0001 C CNN
F 3 "" H 7150 -700 50  0001 C CNN
	1    7150 -700
	1    0    0    -1  
$EndComp
$Comp
L ROTARY_ENCODER U2
U 1 1 5B49433A
P 7950 -1250
F 0 "U2" H 7900 -850 60  0000 C CNN
F 1 "ROTARY_ENCODER" H 8000 -1600 60  0000 C CNN
F 2 "chordboard-footprints:Rotary_Encoder_BI_EN12-HS22AF30" H 7950 -1250 60  0001 C CNN
F 3 "" H 7950 -1250 60  0000 C CNN
	1    7950 -1250
	0    1    1    0   
$EndComp
$Comp
L GND #PWR6
U 1 1 5B494345
P 7950 -700
F 0 "#PWR6" H 7950 -950 50  0001 C CNN
F 1 "GND" H 7950 -850 50  0000 C CNN
F 2 "" H 7950 -700 50  0001 C CNN
F 3 "" H 7950 -700 50  0001 C CNN
	1    7950 -700
	1    0    0    -1  
$EndComp
$Comp
L ROTARY_ENCODER U3
U 1 1 5B494479
P 8750 -1250
F 0 "U3" H 8700 -850 60  0000 C CNN
F 1 "ROTARY_ENCODER" H 8800 -1600 60  0000 C CNN
F 2 "chordboard-footprints:Rotary_Encoder_BI_EN12-HS22AF30" H 8750 -1250 60  0001 C CNN
F 3 "" H 8750 -1250 60  0000 C CNN
	1    8750 -1250
	0    1    1    0   
$EndComp
$Comp
L GND #PWR7
U 1 1 5B494484
P 8750 -700
F 0 "#PWR7" H 8750 -950 50  0001 C CNN
F 1 "GND" H 8750 -850 50  0000 C CNN
F 2 "" H 8750 -700 50  0001 C CNN
F 3 "" H 8750 -700 50  0001 C CNN
	1    8750 -700
	1    0    0    -1  
$EndComp
$Comp
L ROTARY_ENCODER U4
U 1 1 5B49448A
P 9550 -1250
F 0 "U4" H 9500 -850 60  0000 C CNN
F 1 "ROTARY_ENCODER" H 9600 -1600 60  0000 C CNN
F 2 "chordboard-footprints:Rotary_Encoder_BI_EN12-HS22AF30" H 9550 -1250 60  0001 C CNN
F 3 "" H 9550 -1250 60  0000 C CNN
	1    9550 -1250
	0    1    1    0   
$EndComp
$Comp
L GND #PWR8
U 1 1 5B494495
P 9550 -700
F 0 "#PWR8" H 9550 -950 50  0001 C CNN
F 1 "GND" H 9550 -850 50  0000 C CNN
F 2 "" H 9550 -700 50  0001 C CNN
F 3 "" H 9550 -700 50  0001 C CNN
	1    9550 -700
	1    0    0    -1  
$EndComp
$Comp
L ROTARY_ENCODER U5
U 1 1 5B49478B
P 10400 -1250
F 0 "U5" H 10350 -850 60  0000 C CNN
F 1 "ROTARY_ENCODER" H 10450 -1600 60  0000 C CNN
F 2 "chordboard-footprints:Rotary_Encoder_BI_EN12-HS22AF30" H 10400 -1250 60  0001 C CNN
F 3 "" H 10400 -1250 60  0000 C CNN
	1    10400 -1250
	0    1    1    0   
$EndComp
$Comp
L GND #PWR9
U 1 1 5B494796
P 10400 -700
F 0 "#PWR9" H 10400 -950 50  0001 C CNN
F 1 "GND" H 10400 -850 50  0000 C CNN
F 2 "" H 10400 -700 50  0001 C CNN
F 3 "" H 10400 -700 50  0001 C CNN
	1    10400 -700
	1    0    0    -1  
$EndComp
$Comp
L ROTARY_ENCODER U6
U 1 1 5B49479C
P 11200 -1250
F 0 "U6" H 11150 -850 60  0000 C CNN
F 1 "ROTARY_ENCODER" H 11250 -1600 60  0000 C CNN
F 2 "chordboard-footprints:Rotary_Encoder_BI_EN12-HS22AF30" H 11200 -1250 60  0001 C CNN
F 3 "" H 11200 -1250 60  0000 C CNN
	1    11200 -1250
	0    1    1    0   
$EndComp
$Comp
L GND #PWR10
U 1 1 5B4947A7
P 11200 -700
F 0 "#PWR10" H 11200 -950 50  0001 C CNN
F 1 "GND" H 11200 -850 50  0000 C CNN
F 2 "" H 11200 -700 50  0001 C CNN
F 3 "" H 11200 -700 50  0001 C CNN
	1    11200 -700
	1    0    0    -1  
$EndComp
$Comp
L ROTARY_ENCODER U7
U 1 1 5B4947AD
P 12000 -1250
F 0 "U7" H 11950 -850 60  0000 C CNN
F 1 "ROTARY_ENCODER" H 12050 -1600 60  0000 C CNN
F 2 "chordboard-footprints:Rotary_Encoder_BI_EN12-HS22AF30" H 12000 -1250 60  0001 C CNN
F 3 "" H 12000 -1250 60  0000 C CNN
	1    12000 -1250
	0    1    1    0   
$EndComp
$Comp
L GND #PWR11
U 1 1 5B4947B8
P 12000 -700
F 0 "#PWR11" H 12000 -950 50  0001 C CNN
F 1 "GND" H 12000 -850 50  0000 C CNN
F 2 "" H 12000 -700 50  0001 C CNN
F 3 "" H 12000 -700 50  0001 C CNN
	1    12000 -700
	1    0    0    -1  
$EndComp
$Comp
L ROTARY_ENCODER U8
U 1 1 5B4947BE
P 12800 -1250
F 0 "U8" H 12750 -850 60  0000 C CNN
F 1 "ROTARY_ENCODER" H 12850 -1600 60  0000 C CNN
F 2 "chordboard-footprints:Rotary_Encoder_BI_EN12-HS22AF30" H 12800 -1250 60  0001 C CNN
F 3 "" H 12800 -1250 60  0000 C CNN
	1    12800 -1250
	0    1    1    0   
$EndComp
$Comp
L GND #PWR12
U 1 1 5B4947C9
P 12800 -700
F 0 "#PWR12" H 12800 -950 50  0001 C CNN
F 1 "GND" H 12800 -850 50  0000 C CNN
F 2 "" H 12800 -700 50  0001 C CNN
F 3 "" H 12800 -700 50  0001 C CNN
	1    12800 -700
	1    0    0    -1  
$EndComp
$Comp
L Mounting_Hole MK1
U 1 1 5B4982A9
P 9850 1650
F 0 "MK1" H 9850 1850 50  0000 C CNN
F 1 "Mounting_Hole" H 9850 1775 50  0000 C CNN
F 2 "Mounting_Holes:MountingHole_2.5mm_Pad_Via" H 9850 1650 50  0001 C CNN
F 3 "" H 9850 1650 50  0001 C CNN
	1    9850 1650
	1    0    0    -1  
$EndComp
$Comp
L Mounting_Hole MK5
U 1 1 5B498558
P 9850 1950
F 0 "MK5" H 9850 2150 50  0000 C CNN
F 1 "Mounting_Hole" H 9850 2075 50  0000 C CNN
F 2 "Mounting_Holes:MountingHole_2.5mm_Pad_Via" H 9850 1950 50  0001 C CNN
F 3 "" H 9850 1950 50  0001 C CNN
	1    9850 1950
	1    0    0    -1  
$EndComp
$Comp
L Mounting_Hole MK9
U 1 1 5B498697
P 9850 2250
F 0 "MK9" H 9850 2450 50  0000 C CNN
F 1 "Mounting_Hole" H 9850 2375 50  0000 C CNN
F 2 "Mounting_Holes:MountingHole_2.5mm_Pad_Via" H 9850 2250 50  0001 C CNN
F 3 "" H 9850 2250 50  0001 C CNN
	1    9850 2250
	1    0    0    -1  
$EndComp
$Comp
L Mounting_Hole MK2
U 1 1 5B49890C
P 10100 1650
F 0 "MK2" H 10100 1850 50  0000 C CNN
F 1 "Mounting_Hole" H 10100 1775 50  0000 C CNN
F 2 "Mounting_Holes:MountingHole_2.5mm_Pad_Via" H 10100 1650 50  0001 C CNN
F 3 "" H 10100 1650 50  0001 C CNN
	1    10100 1650
	1    0    0    -1  
$EndComp
$Comp
L Mounting_Hole MK6
U 1 1 5B498A48
P 10100 1950
F 0 "MK6" H 10100 2150 50  0000 C CNN
F 1 "Mounting_Hole" H 10100 2075 50  0000 C CNN
F 2 "Mounting_Holes:MountingHole_2.5mm_Pad_Via" H 10100 1950 50  0001 C CNN
F 3 "" H 10100 1950 50  0001 C CNN
	1    10100 1950
	1    0    0    -1  
$EndComp
$Comp
L Mounting_Hole MK10
U 1 1 5B498D1F
P 10100 2250
F 0 "MK10" H 10100 2450 50  0000 C CNN
F 1 "Mounting_Hole" H 10100 2375 50  0000 C CNN
F 2 "Mounting_Holes:MountingHole_2.5mm_Pad_Via" H 10100 2250 50  0001 C CNN
F 3 "" H 10100 2250 50  0001 C CNN
	1    10100 2250
	1    0    0    -1  
$EndComp
$Comp
L Mounting_Hole MK3
U 1 1 5B4994A1
P 10350 1650
F 0 "MK3" H 10350 1850 50  0000 C CNN
F 1 "Mounting_Hole" H 10350 1775 50  0000 C CNN
F 2 "Mounting_Holes:MountingHole_2.5mm_Pad_Via" H 10350 1650 50  0001 C CNN
F 3 "" H 10350 1650 50  0001 C CNN
	1    10350 1650
	1    0    0    -1  
$EndComp
$Comp
L Mounting_Hole MK7
U 1 1 5B4994A7
P 10350 1950
F 0 "MK7" H 10350 2150 50  0000 C CNN
F 1 "Mounting_Hole" H 10350 2075 50  0000 C CNN
F 2 "Mounting_Holes:MountingHole_2.5mm_Pad_Via" H 10350 1950 50  0001 C CNN
F 3 "" H 10350 1950 50  0001 C CNN
	1    10350 1950
	1    0    0    -1  
$EndComp
$Comp
L Mounting_Hole MK11
U 1 1 5B4994AD
P 10350 2250
F 0 "MK11" H 10350 2450 50  0000 C CNN
F 1 "Mounting_Hole" H 10350 2375 50  0000 C CNN
F 2 "Mounting_Holes:MountingHole_2.5mm_Pad_Via" H 10350 2250 50  0001 C CNN
F 3 "" H 10350 2250 50  0001 C CNN
	1    10350 2250
	1    0    0    -1  
$EndComp
$Comp
L Mounting_Hole MK4
U 1 1 5B4994B9
P 10600 1650
F 0 "MK4" H 10600 1850 50  0000 C CNN
F 1 "Mounting_Hole" H 10600 1775 50  0000 C CNN
F 2 "Mounting_Holes:MountingHole_2.5mm_Pad_Via" H 10600 1650 50  0001 C CNN
F 3 "" H 10600 1650 50  0001 C CNN
	1    10600 1650
	1    0    0    -1  
$EndComp
$Comp
L Mounting_Hole MK8
U 1 1 5B4994BF
P 10600 1950
F 0 "MK8" H 10600 2150 50  0000 C CNN
F 1 "Mounting_Hole" H 10600 2075 50  0000 C CNN
F 2 "Mounting_Holes:MountingHole_2.5mm_Pad_Via" H 10600 1950 50  0001 C CNN
F 3 "" H 10600 1950 50  0001 C CNN
	1    10600 1950
	1    0    0    -1  
$EndComp
Text Label 1350 1200 2    60   ~ 0
PIXEL_IN
$Comp
L Conn_01x08 J7
U 1 1 5B49CB2F
P 7500 -3050
F 0 "J7" H 7500 -2650 50  0000 C CNN
F 1 "Conn_01x08" H 7500 -3550 50  0000 C CNN
F 2 "Pin_Headers:Pin_Header_Straight_1x08_Pitch2.54mm" H 7500 -3050 50  0001 C CNN
F 3 "" H 7500 -3050 50  0001 C CNN
	1    7500 -3050
	0    -1   -1   0   
$EndComp
$Comp
L Conn_01x08 J8
U 1 1 5B49D159
P 8500 -3050
F 0 "J8" H 8500 -2650 50  0000 C CNN
F 1 "Conn_01x08" H 8500 -3550 50  0000 C CNN
F 2 "Pin_Headers:Pin_Header_Straight_1x08_Pitch2.54mm" H 8500 -3050 50  0001 C CNN
F 3 "" H 8500 -3050 50  0001 C CNN
	1    8500 -3050
	0    -1   -1   0   
$EndComp
Wire Wire Line
	1900 -1450 1950 -1450
Wire Wire Line
	1950 -1450 1950 -500
Wire Wire Line
	1950 -1350 1900 -1350
Wire Wire Line
	1950 -1250 1900 -1250
Connection ~ 1950 -1350
Wire Wire Line
	1950 -1150 1900 -1150
Connection ~ 1950 -1250
Wire Wire Line
	1950 -1050 1900 -1050
Connection ~ 1950 -1150
Wire Wire Line
	1950 -950 1900 -950
Connection ~ 1950 -1050
Wire Wire Line
	1950 -850 1900 -850
Connection ~ 1950 -950
Wire Wire Line
	1950 -750 1900 -750
Connection ~ 1950 -850
Connection ~ 1950 -750
Wire Wire Line
	2750 -1450 2800 -1450
Wire Wire Line
	2800 -1450 2800 -500
Wire Wire Line
	2800 -1350 2750 -1350
Wire Wire Line
	2800 -1250 2750 -1250
Connection ~ 2800 -1350
Wire Wire Line
	2800 -1150 2750 -1150
Connection ~ 2800 -1250
Wire Wire Line
	2800 -1050 2750 -1050
Connection ~ 2800 -1150
Wire Wire Line
	2800 -950 2750 -950
Connection ~ 2800 -1050
Wire Wire Line
	2800 -850 2750 -850
Connection ~ 2800 -950
Wire Wire Line
	2800 -750 2750 -750
Connection ~ 2800 -850
Connection ~ 2800 -750
Wire Wire Line
	1750 1500 1750 1550
Wire Wire Line
	1750 900  1750 850 
Wire Wire Line
	2600 900  2600 850 
Wire Wire Line
	3450 900  3450 850 
Wire Wire Line
	4300 900  4300 850 
Wire Wire Line
	5150 900  5150 850 
Wire Wire Line
	6000 900  6000 850 
Wire Wire Line
	6850 900  6850 850 
Wire Wire Line
	7700 900  7700 850 
Wire Wire Line
	2600 1500 2600 1550
Wire Wire Line
	3450 1500 3450 1550
Wire Wire Line
	4300 1500 4300 1550
Wire Wire Line
	5150 1500 5150 1550
Wire Wire Line
	6000 1500 6000 1550
Wire Wire Line
	6850 1500 6850 1550
Wire Wire Line
	7700 1500 7700 1550
Wire Wire Line
	2150 1200 2200 1200
Wire Wire Line
	3000 1200 3050 1200
Wire Wire Line
	3850 1200 3900 1200
Wire Wire Line
	4700 1200 4750 1200
Wire Wire Line
	5550 1200 5600 1200
Wire Wire Line
	6400 1200 6450 1200
Wire Wire Line
	7250 1200 7300 1200
Wire Wire Line
	7700 2650 7700 2700
Wire Wire Line
	7700 2050 7700 2000
Wire Wire Line
	6850 2050 6850 2000
Wire Wire Line
	6000 2050 6000 2000
Wire Wire Line
	5150 2050 5150 2000
Wire Wire Line
	4300 2050 4300 2000
Wire Wire Line
	3450 2050 3450 2000
Wire Wire Line
	2600 2050 2600 2000
Wire Wire Line
	1750 2050 1750 2000
Wire Wire Line
	6850 2650 6850 2700
Wire Wire Line
	6000 2650 6000 2700
Wire Wire Line
	5150 2650 5150 2700
Wire Wire Line
	4300 2650 4300 2700
Wire Wire Line
	3450 2650 3450 2700
Wire Wire Line
	2600 2650 2600 2700
Wire Wire Line
	1750 2650 1750 2700
Wire Wire Line
	7300 2350 7250 2350
Wire Wire Line
	6450 2350 6400 2350
Wire Wire Line
	5600 2350 5550 2350
Wire Wire Line
	4750 2350 4700 2350
Wire Wire Line
	3900 2350 3850 2350
Wire Wire Line
	3050 2350 3000 2350
Wire Wire Line
	2200 2350 2150 2350
Wire Wire Line
	6950 -950 6950 -900
Wire Wire Line
	6950 -900 7300 -900
Wire Wire Line
	7300 -900 7300 -950
Wire Wire Line
	7150 -900 7150 -700
Connection ~ 7150 -900
Wire Wire Line
	7750 -950 7750 -900
Wire Wire Line
	7750 -900 8100 -900
Wire Wire Line
	8100 -900 8100 -950
Wire Wire Line
	7950 -900 7950 -700
Connection ~ 7950 -900
Wire Wire Line
	8550 -950 8550 -900
Wire Wire Line
	8550 -900 8900 -900
Wire Wire Line
	8900 -900 8900 -950
Wire Wire Line
	8750 -900 8750 -700
Connection ~ 8750 -900
Wire Wire Line
	9350 -950 9350 -900
Wire Wire Line
	9350 -900 9700 -900
Wire Wire Line
	9700 -900 9700 -950
Wire Wire Line
	9550 -900 9550 -700
Connection ~ 9550 -900
Wire Wire Line
	10200 -950 10200 -900
Wire Wire Line
	10200 -900 10550 -900
Wire Wire Line
	10550 -900 10550 -950
Wire Wire Line
	10400 -900 10400 -700
Connection ~ 10400 -900
Wire Wire Line
	11000 -950 11000 -900
Wire Wire Line
	11000 -900 11350 -900
Wire Wire Line
	11350 -900 11350 -950
Wire Wire Line
	11200 -900 11200 -700
Connection ~ 11200 -900
Wire Wire Line
	11800 -950 11800 -900
Wire Wire Line
	11800 -900 12150 -900
Wire Wire Line
	12150 -900 12150 -950
Wire Wire Line
	12000 -900 12000 -700
Connection ~ 12000 -900
Wire Wire Line
	12600 -950 12600 -900
Wire Wire Line
	12600 -900 12950 -900
Wire Wire Line
	12950 -900 12950 -950
Wire Wire Line
	12800 -900 12800 -700
Connection ~ 12800 -900
Wire Wire Line
	8100 1200 8150 1200
Wire Wire Line
	8150 1200 8150 2350
Wire Wire Line
	8150 2350 8100 2350
Wire Wire Line
	1350 2350 1300 2350
Wire Wire Line
	7200 -2850 7200 -1500
Wire Wire Line
	7300 -2850 7300 -1800
Wire Wire Line
	7300 -1800 8000 -1800
Wire Wire Line
	8000 -1800 8000 -1500
Wire Wire Line
	7400 -2850 7400 -1950
Wire Wire Line
	7400 -1950 12250 -1950
Wire Wire Line
	8800 -2850 8800 -1500
Wire Wire Line
	7500 -2850 7500 -2100
Wire Wire Line
	7500 -2100 9600 -2100
Wire Wire Line
	9600 -2100 9600 -1500
Wire Wire Line
	7600 -2850 7600 -2250
Wire Wire Line
	7600 -2250 10450 -2250
Wire Wire Line
	10450 -2250 10450 -1500
Wire Wire Line
	7700 -2850 7700 -2400
Wire Wire Line
	7700 -2400 11250 -2400
Wire Wire Line
	11250 -2400 11250 -1500
Wire Wire Line
	12050 -1500 12050 -2550
Wire Wire Line
	12050 -2550 7800 -2550
Wire Wire Line
	7800 -2550 7800 -2850
Wire Wire Line
	7900 -2850 7900 -2650
Wire Wire Line
	7900 -2650 12850 -2650
Wire Wire Line
	12850 -2650 12850 -1500
Wire Wire Line
	8200 -2850 8200 -1700
Wire Wire Line
	8200 -1700 7400 -1700
Wire Wire Line
	7400 -1700 7400 -1500
Wire Wire Line
	8300 -2850 8300 -1600
Wire Wire Line
	8300 -1600 8200 -1600
Wire Wire Line
	8200 -1600 8200 -1500
Wire Wire Line
	8400 -2850 8400 -1600
Wire Wire Line
	8400 -1600 9000 -1600
Wire Wire Line
	9000 -1600 9000 -1500
Wire Wire Line
	8500 -2850 8500 -1700
Wire Wire Line
	8500 -1700 9800 -1700
Wire Wire Line
	9800 -1700 9800 -1500
Wire Wire Line
	8600 -2850 8600 -1800
Wire Wire Line
	8600 -1800 10650 -1800
Wire Wire Line
	10650 -1800 10650 -1500
Wire Wire Line
	8700 -2850 8700 -1900
Wire Wire Line
	8700 -1900 11450 -1900
Wire Wire Line
	11450 -1900 11450 -1500
Wire Wire Line
	12250 -1950 12250 -1500
Wire Wire Line
	8900 -2850 8900 -2000
Wire Wire Line
	8900 -2000 13050 -2000
Wire Wire Line
	13050 -2000 13050 -1500
$Comp
L Conn_01x08 J6
U 1 1 5B4A1325
P 6500 -3050
F 0 "J6" H 6500 -2650 50  0000 C CNN
F 1 "Conn_01x08" H 6500 -3550 50  0000 C CNN
F 2 "Pin_Headers:Pin_Header_Straight_1x08_Pitch2.54mm" H 6500 -3050 50  0001 C CNN
F 3 "" H 6500 -3050 50  0001 C CNN
	1    6500 -3050
	0    -1   -1   0   
$EndComp
Wire Wire Line
	7050 -1500 7050 -2000
Wire Wire Line
	7050 -2000 6200 -2000
Wire Wire Line
	6200 -2000 6200 -2850
Wire Wire Line
	6300 -2850 6300 -2050
Wire Wire Line
	6300 -2050 7850 -2050
Wire Wire Line
	7850 -2050 7850 -1500
Wire Wire Line
	8650 -1500 8650 -1750
Wire Wire Line
	8650 -1750 8100 -1750
Wire Wire Line
	8100 -1750 8100 -2150
Wire Wire Line
	8100 -2150 6400 -2150
Wire Wire Line
	6400 -2150 6400 -2850
Wire Wire Line
	9450 -1500 9450 -2200
Wire Wire Line
	9450 -2200 6500 -2200
Wire Wire Line
	6500 -2200 6500 -2850
Wire Wire Line
	6600 -2850 6600 -2300
Wire Wire Line
	6600 -2300 10300 -2300
Wire Wire Line
	10300 -2300 10300 -1500
Wire Wire Line
	11100 -1500 11100 -2350
Wire Wire Line
	11100 -2350 6700 -2350
Wire Wire Line
	6700 -2350 6700 -2850
Wire Wire Line
	6800 -2850 6800 -2450
Wire Wire Line
	6800 -2450 11900 -2450
Wire Wire Line
	11900 -2450 11900 -1500
Wire Wire Line
	12700 -1500 12700 -2500
Wire Wire Line
	12700 -2500 6900 -2500
Wire Wire Line
	6900 -2500 6900 -2850
$Comp
L Conn_01x04 J3
U 1 1 5B4BCAC1
P 4950 -1250
F 0 "J3" H 4950 -1050 50  0000 C CNN
F 1 "Conn_01x04" H 4950 -1550 50  0000 C CNN
F 2 "Pin_Headers:Pin_Header_Straight_1x04_Pitch2.54mm" H 4950 -1250 50  0001 C CNN
F 3 "" H 4950 -1250 50  0001 C CNN
	1    4950 -1250
	1    0    0    -1  
$EndComp
Wire Wire Line
	4750 -1350 4650 -1350
Wire Wire Line
	4650 -1350 4650 -1600
$Comp
L +5V #PWR2
U 1 1 5B4BCD14
P 4650 -1600
F 0 "#PWR2" H 4650 -1750 50  0001 C CNN
F 1 "+5V" H 4650 -1460 50  0000 C CNN
F 2 "" H 4650 -1600 50  0001 C CNN
F 3 "" H 4650 -1600 50  0001 C CNN
	1    4650 -1600
	1    0    0    -1  
$EndComp
Wire Wire Line
	4750 -1050 4650 -1050
Wire Wire Line
	4650 -1050 4650 -750
$Comp
L GND #PWR4
U 1 1 5B4BCE9E
P 4650 -750
F 0 "#PWR4" H 4650 -1000 50  0001 C CNN
F 1 "GND" H 4650 -900 50  0000 C CNN
F 2 "" H 4650 -750 50  0001 C CNN
F 3 "" H 4650 -750 50  0001 C CNN
	1    4650 -750
	1    0    0    -1  
$EndComp
Text Label 4750 -1250 2    60   ~ 0
PIXEL_IN
$Comp
L Conn_01x04 J4
U 1 1 5B4BE404
P 5750 -1300
F 0 "J4" H 5750 -1100 50  0000 C CNN
F 1 "Conn_01x04" H 5750 -1600 50  0000 C CNN
F 2 "Pin_Headers:Pin_Header_Straight_1x04_Pitch2.54mm" H 5750 -1300 50  0001 C CNN
F 3 "" H 5750 -1300 50  0001 C CNN
	1    5750 -1300
	1    0    0    -1  
$EndComp
Wire Wire Line
	5550 -1400 5450 -1400
Wire Wire Line
	5450 -1400 5450 -1650
$Comp
L +5V #PWR1
U 1 1 5B4BE40C
P 5450 -1650
F 0 "#PWR1" H 5450 -1800 50  0001 C CNN
F 1 "+5V" H 5450 -1510 50  0000 C CNN
F 2 "" H 5450 -1650 50  0001 C CNN
F 3 "" H 5450 -1650 50  0001 C CNN
	1    5450 -1650
	1    0    0    -1  
$EndComp
Wire Wire Line
	5550 -1100 5450 -1100
Wire Wire Line
	5450 -1100 5450 -800
$Comp
L GND #PWR3
U 1 1 5B4BE414
P 5450 -800
F 0 "#PWR3" H 5450 -1050 50  0001 C CNN
F 1 "GND" H 5450 -950 50  0000 C CNN
F 2 "" H 5450 -800 50  0001 C CNN
F 3 "" H 5450 -800 50  0001 C CNN
	1    5450 -800
	1    0    0    -1  
$EndComp
Text Label 5550 -1300 2    60   ~ 0
PIXEL_IN
$Comp
L C C1
U 1 1 5B4C69FB
P 1850 3850
F 0 "C1" H 1875 3950 50  0000 L CNN
F 1 "C" H 1875 3750 50  0000 L CNN
F 2 "Capacitors_THT:C_Disc_D3.0mm_W2.0mm_P2.50mm" H 1888 3700 50  0001 C CNN
F 3 "" H 1850 3850 50  0001 C CNN
	1    1850 3850
	1    0    0    -1  
$EndComp
$Comp
L C C2
U 1 1 5B4C70A6
P 2100 3850
F 0 "C2" H 2125 3950 50  0000 L CNN
F 1 "C" H 2125 3750 50  0000 L CNN
F 2 "Capacitors_THT:C_Disc_D3.0mm_W2.0mm_P2.50mm" H 2138 3700 50  0001 C CNN
F 3 "" H 2100 3850 50  0001 C CNN
	1    2100 3850
	1    0    0    -1  
$EndComp
$Comp
L C C3
U 1 1 5B4C717A
P 2350 3850
F 0 "C3" H 2375 3950 50  0000 L CNN
F 1 "C" H 2375 3750 50  0000 L CNN
F 2 "Capacitors_THT:C_Disc_D3.0mm_W2.0mm_P2.50mm" H 2388 3700 50  0001 C CNN
F 3 "" H 2350 3850 50  0001 C CNN
	1    2350 3850
	1    0    0    -1  
$EndComp
$Comp
L C C4
U 1 1 5B4C7247
P 2600 3850
F 0 "C4" H 2625 3950 50  0000 L CNN
F 1 "C" H 2625 3750 50  0000 L CNN
F 2 "Capacitors_THT:C_Disc_D3.0mm_W2.0mm_P2.50mm" H 2638 3700 50  0001 C CNN
F 3 "" H 2600 3850 50  0001 C CNN
	1    2600 3850
	1    0    0    -1  
$EndComp
$Comp
L C C5
U 1 1 5B4C7317
P 2850 3850
F 0 "C5" H 2875 3950 50  0000 L CNN
F 1 "C" H 2875 3750 50  0000 L CNN
F 2 "Capacitors_THT:C_Disc_D3.0mm_W2.0mm_P2.50mm" H 2888 3700 50  0001 C CNN
F 3 "" H 2850 3850 50  0001 C CNN
	1    2850 3850
	1    0    0    -1  
$EndComp
$Comp
L C C6
U 1 1 5B4C73EA
P 3100 3850
F 0 "C6" H 3125 3950 50  0000 L CNN
F 1 "C" H 3125 3750 50  0000 L CNN
F 2 "Capacitors_THT:C_Disc_D3.0mm_W2.0mm_P2.50mm" H 3138 3700 50  0001 C CNN
F 3 "" H 3100 3850 50  0001 C CNN
	1    3100 3850
	1    0    0    -1  
$EndComp
$Comp
L C C7
U 1 1 5B4C74C0
P 3350 3850
F 0 "C7" H 3375 3950 50  0000 L CNN
F 1 "C" H 3375 3750 50  0000 L CNN
F 2 "Capacitors_THT:C_Disc_D3.0mm_W2.0mm_P2.50mm" H 3388 3700 50  0001 C CNN
F 3 "" H 3350 3850 50  0001 C CNN
	1    3350 3850
	1    0    0    -1  
$EndComp
$Comp
L C C8
U 1 1 5B4C75A1
P 3600 3850
F 0 "C8" H 3625 3950 50  0000 L CNN
F 1 "C" H 3625 3750 50  0000 L CNN
F 2 "Capacitors_THT:C_Disc_D3.0mm_W2.0mm_P2.50mm" H 3638 3700 50  0001 C CNN
F 3 "" H 3600 3850 50  0001 C CNN
	1    3600 3850
	1    0    0    -1  
$EndComp
$Comp
L C C9
U 1 1 5B4C780D
P 3850 3850
F 0 "C9" H 3875 3950 50  0000 L CNN
F 1 "C" H 3875 3750 50  0000 L CNN
F 2 "Capacitors_THT:C_Disc_D3.0mm_W2.0mm_P2.50mm" H 3888 3700 50  0001 C CNN
F 3 "" H 3850 3850 50  0001 C CNN
	1    3850 3850
	1    0    0    -1  
$EndComp
$Comp
L C C10
U 1 1 5B4C78EC
P 4100 3850
F 0 "C10" H 4125 3950 50  0000 L CNN
F 1 "C" H 4125 3750 50  0000 L CNN
F 2 "Capacitors_THT:C_Disc_D3.0mm_W2.0mm_P2.50mm" H 4138 3700 50  0001 C CNN
F 3 "" H 4100 3850 50  0001 C CNN
	1    4100 3850
	1    0    0    -1  
$EndComp
$Comp
L C C11
U 1 1 5B4C7AA8
P 4350 3850
F 0 "C11" H 4375 3950 50  0000 L CNN
F 1 "C" H 4375 3750 50  0000 L CNN
F 2 "Capacitors_THT:C_Disc_D3.0mm_W2.0mm_P2.50mm" H 4388 3700 50  0001 C CNN
F 3 "" H 4350 3850 50  0001 C CNN
	1    4350 3850
	1    0    0    -1  
$EndComp
$Comp
L C C12
U 1 1 5B4C7C60
P 4600 3850
F 0 "C12" H 4625 3950 50  0000 L CNN
F 1 "C" H 4625 3750 50  0000 L CNN
F 2 "Capacitors_THT:C_Disc_D3.0mm_W2.0mm_P2.50mm" H 4638 3700 50  0001 C CNN
F 3 "" H 4600 3850 50  0001 C CNN
	1    4600 3850
	1    0    0    -1  
$EndComp
$Comp
L C C13
U 1 1 5B4C7D4A
P 4850 3850
F 0 "C13" H 4875 3950 50  0000 L CNN
F 1 "C" H 4875 3750 50  0000 L CNN
F 2 "Capacitors_THT:C_Disc_D3.0mm_W2.0mm_P2.50mm" H 4888 3700 50  0001 C CNN
F 3 "" H 4850 3850 50  0001 C CNN
	1    4850 3850
	1    0    0    -1  
$EndComp
$Comp
L C C14
U 1 1 5B4C7E39
P 5100 3850
F 0 "C14" H 5125 3950 50  0000 L CNN
F 1 "C" H 5125 3750 50  0000 L CNN
F 2 "Capacitors_THT:C_Disc_D3.0mm_W2.0mm_P2.50mm" H 5138 3700 50  0001 C CNN
F 3 "" H 5100 3850 50  0001 C CNN
	1    5100 3850
	1    0    0    -1  
$EndComp
$Comp
L C C15
U 1 1 5B4C7F2D
P 5350 3850
F 0 "C15" H 5375 3950 50  0000 L CNN
F 1 "C" H 5375 3750 50  0000 L CNN
F 2 "Capacitors_THT:C_Disc_D3.0mm_W2.0mm_P2.50mm" H 5388 3700 50  0001 C CNN
F 3 "" H 5350 3850 50  0001 C CNN
	1    5350 3850
	1    0    0    -1  
$EndComp
$Comp
L C C16
U 1 1 5B4C8022
P 5600 3850
F 0 "C16" H 5625 3950 50  0000 L CNN
F 1 "C" H 5625 3750 50  0000 L CNN
F 2 "Capacitors_THT:C_Disc_D3.0mm_W2.0mm_P2.50mm" H 5638 3700 50  0001 C CNN
F 3 "" H 5600 3850 50  0001 C CNN
	1    5600 3850
	1    0    0    -1  
$EndComp
Wire Wire Line
	1850 3500 1850 3700
Wire Wire Line
	1850 3650 5600 3650
Wire Wire Line
	2100 3650 2100 3700
Wire Wire Line
	2350 3650 2350 3700
Connection ~ 2100 3650
Wire Wire Line
	2600 3650 2600 3700
Connection ~ 2350 3650
Wire Wire Line
	2850 3650 2850 3700
Connection ~ 2600 3650
Wire Wire Line
	3100 3650 3100 3700
Connection ~ 2850 3650
Wire Wire Line
	3350 3650 3350 3700
Connection ~ 3100 3650
Wire Wire Line
	3600 3650 3600 3700
Connection ~ 3350 3650
Wire Wire Line
	3850 3650 3850 3700
Connection ~ 3600 3650
Wire Wire Line
	4100 3650 4100 3700
Connection ~ 3850 3650
Wire Wire Line
	4350 3650 4350 3700
Connection ~ 4100 3650
Wire Wire Line
	4600 3650 4600 3700
Connection ~ 4350 3650
Wire Wire Line
	4850 3650 4850 3700
Connection ~ 4600 3650
Wire Wire Line
	5100 3650 5100 3700
Connection ~ 4850 3650
Wire Wire Line
	5350 3650 5350 3700
Connection ~ 5100 3650
Wire Wire Line
	5600 3650 5600 3700
Connection ~ 5350 3650
Wire Wire Line
	1850 4000 1850 4200
Wire Wire Line
	1850 4050 5600 4050
Wire Wire Line
	2100 4050 2100 4000
Wire Wire Line
	2350 4050 2350 4000
Connection ~ 2100 4050
Wire Wire Line
	2600 4050 2600 4000
Connection ~ 2350 4050
Wire Wire Line
	2850 4050 2850 4000
Connection ~ 2600 4050
Wire Wire Line
	3100 4050 3100 4000
Connection ~ 2850 4050
Wire Wire Line
	3350 4050 3350 4000
Connection ~ 3100 4050
Wire Wire Line
	3600 4050 3600 4000
Connection ~ 3350 4050
Wire Wire Line
	3850 4050 3850 4000
Connection ~ 3600 4050
Wire Wire Line
	4100 4050 4100 4000
Connection ~ 3850 4050
Wire Wire Line
	4350 4050 4350 4000
Connection ~ 4100 4050
Wire Wire Line
	4600 4050 4600 4000
Connection ~ 4350 4050
Wire Wire Line
	4850 4050 4850 4000
Connection ~ 4600 4050
Wire Wire Line
	5100 4050 5100 4000
Connection ~ 4850 4050
Wire Wire Line
	5350 4050 5350 4000
Connection ~ 5100 4050
Wire Wire Line
	5600 4050 5600 4000
Connection ~ 5350 4050
Connection ~ 1850 3650
Connection ~ 1850 4050
$Comp
L GND #PWR48
U 1 1 5B4C9719
P 1850 4200
F 0 "#PWR48" H 1850 3950 50  0001 C CNN
F 1 "GND" H 1850 4050 50  0000 C CNN
F 2 "" H 1850 4200 50  0001 C CNN
F 3 "" H 1850 4200 50  0001 C CNN
	1    1850 4200
	-1   0    0    -1  
$EndComp
$Comp
L +5V #PWR47
U 1 1 5B4C984C
P 1850 3500
F 0 "#PWR47" H 1850 3350 50  0001 C CNN
F 1 "+5V" H 1850 3640 50  0000 C CNN
F 2 "" H 1850 3500 50  0001 C CNN
F 3 "" H 1850 3500 50  0001 C CNN
	1    1850 3500
	-1   0    0    -1  
$EndComp
$EndSCHEMATC
