EESchema Schematic File Version 2
LIBS:chordboard-rescue
LIBS:chordboard-components
LIBS:Kicad-Teensy
LIBS:ESP32-footprints-Shem-Lib
LIBS:MCU_NXP_Kinetis
LIBS:nxp
LIBS:texas
LIBS:Logic_74xx
LIBS:atmel
LIBS:eurocad
LIBS:Transistor
LIBS:power
LIBS:teensy
LIBS:device
LIBS:regul
LIBS:Connector
LIBS:MCU_Microchip_PIC16
LIBS:microchip
LIBS:chordboard-cache
EELAYER 25 0
EELAYER END
$Descr A0 46811 33110
encoding utf-8
Sheet 1 1
Title ""
Date ""
Rev ""
Comp ""
Comment1 ""
Comment2 ""
Comment3 ""
Comment4 ""
$EndDescr
$Comp
L Mounting_Hole MK1
U 1 1 5A6D2DB1
P 35600 19850
F 0 "MK1" H 35600 20050 50  0000 C CNN
F 1 "Mounting_Hole" H 35600 19975 50  0000 C CNN
F 2 "chordboard-footprints:Mounting_Hole" H 35600 19850 50  0001 C CNN
F 3 "" H 35600 19850 50  0001 C CNN
	1    35600 19850
	1    0    0    -1  
$EndComp
$Comp
L Mounting_Hole MK2
U 1 1 5A6D2DE4
P 35800 19850
F 0 "MK2" H 35800 20050 50  0000 C CNN
F 1 "Mounting_Hole" H 35800 19975 50  0000 C CNN
F 2 "chordboard-footprints:Mounting_Hole" H 35800 19850 50  0001 C CNN
F 3 "" H 35800 19850 50  0001 C CNN
	1    35800 19850
	1    0    0    -1  
$EndComp
$Comp
L Mounting_Hole MK3
U 1 1 5A6D2E0D
P 36000 19850
F 0 "MK3" H 36000 20050 50  0000 C CNN
F 1 "Mounting_Hole" H 36000 19975 50  0000 C CNN
F 2 "chordboard-footprints:Mounting_Hole" H 36000 19850 50  0001 C CNN
F 3 "" H 36000 19850 50  0001 C CNN
	1    36000 19850
	1    0    0    -1  
$EndComp
$Comp
L Mounting_Hole MK4
U 1 1 5A6D2E39
P 36200 19850
F 0 "MK4" H 36200 20050 50  0000 C CNN
F 1 "Mounting_Hole" H 36200 19975 50  0000 C CNN
F 2 "chordboard-footprints:Mounting_Hole" H 36200 19850 50  0001 C CNN
F 3 "" H 36200 19850 50  0001 C CNN
	1    36200 19850
	1    0    0    -1  
$EndComp
$Comp
L Mounting_Hole MK6
U 1 1 5A6D2EC5
P 35600 20050
F 0 "MK6" H 35600 20250 50  0000 C CNN
F 1 "Mounting_Hole" H 35600 20175 50  0000 C CNN
F 2 "chordboard-footprints:Mounting_Hole" H 35600 20050 50  0001 C CNN
F 3 "" H 35600 20050 50  0001 C CNN
	1    35600 20050
	1    0    0    -1  
$EndComp
$Comp
L Mounting_Hole MK7
U 1 1 5A6D2ECB
P 35800 20050
F 0 "MK7" H 35800 20250 50  0000 C CNN
F 1 "Mounting_Hole" H 35800 20175 50  0000 C CNN
F 2 "chordboard-footprints:Mounting_Hole" H 35800 20050 50  0001 C CNN
F 3 "" H 35800 20050 50  0001 C CNN
	1    35800 20050
	1    0    0    -1  
$EndComp
$Comp
L Mounting_Hole MK8
U 1 1 5A6D2ED1
P 36000 20050
F 0 "MK8" H 36000 20250 50  0000 C CNN
F 1 "Mounting_Hole" H 36000 20175 50  0000 C CNN
F 2 "chordboard-footprints:Mounting_Hole" H 36000 20050 50  0001 C CNN
F 3 "" H 36000 20050 50  0001 C CNN
	1    36000 20050
	1    0    0    -1  
$EndComp
$Comp
L Mounting_Hole MK9
U 1 1 5A6D2ED7
P 36200 20050
F 0 "MK9" H 36200 20250 50  0000 C CNN
F 1 "Mounting_Hole" H 36200 20175 50  0000 C CNN
F 2 "chordboard-footprints:Mounting_Hole" H 36200 20050 50  0001 C CNN
F 3 "" H 36200 20050 50  0001 C CNN
	1    36200 20050
	1    0    0    -1  
$EndComp
$Comp
L GND #PWR01
U 1 1 5A87D713
P 23350 11400
F 0 "#PWR01" H 23350 11150 50  0001 C CNN
F 1 "GND" H 23350 11250 50  0000 C CNN
F 2 "" H 23350 11400 50  0000 C CNN
F 3 "" H 23350 11400 50  0000 C CNN
	1    23350 11400
	-1   0    0    1   
$EndComp
NoConn ~ 23350 14200
NoConn ~ 25350 15300
NoConn ~ 25350 14900
NoConn ~ 25350 14100
NoConn ~ 25350 14000
NoConn ~ 25350 13900
NoConn ~ 25350 13800
NoConn ~ 25350 13000
NoConn ~ 25350 12900
Text Label 23350 13000 2    60   ~ 0
AU_MCLK
Text Label 23350 12800 2    60   ~ 0
AU_BCLK
$Comp
L GND #PWR02
U 1 1 5A87D716
P 22150 16250
F 0 "#PWR02" H 22150 16000 50  0001 C CNN
F 1 "GND" H 22150 16100 50  0000 C CNN
F 2 "" H 22150 16250 50  0000 C CNN
F 3 "" H 22150 16250 50  0000 C CNN
	1    22150 16250
	1    0    0    -1  
$EndComp
Text Label 23350 15700 2    60   ~ 0
AU_RX
Text Label 25350 15400 0    60   ~ 0
AU_LRCLK
Text Label 25350 15500 0    60   ~ 0
AU_TX
$Comp
L Teensy_Audio_Board U8
U 1 1 5A87D719
P 32050 14550
F 0 "U8" H 31850 15700 60  0000 C CNN
F 1 "Teensy_Audio_Board" H 32050 14000 60  0000 C CNN
F 2 "afshar-kicad-lib:Teensy_Audio_Board" H 31850 14000 60  0001 C CNN
F 3 "" H 31850 14000 60  0000 C CNN
	1    32050 14550
	1    0    0    -1  
$EndComp
Text Label 31300 14850 2    60   ~ 0
AU_MCLK
Text Label 31300 14650 2    60   ~ 0
AU_BCLK
Text Label 32750 14950 0    60   ~ 0
AU_RX
Text Label 32750 14350 0    60   ~ 0
SCL
Text Label 32750 14450 0    60   ~ 0
SDA
$Comp
L GND #PWR03
U 1 1 5A87D71A
P 30950 13800
F 0 "#PWR03" H 30950 13550 50  0001 C CNN
F 1 "GND" H 30950 13650 50  0000 C CNN
F 2 "" H 30950 13800 50  0000 C CNN
F 3 "" H 30950 13800 50  0000 C CNN
	1    30950 13800
	1    0    0    -1  
$EndComp
Text Label 32750 14050 0    60   ~ 0
AU_TX
Text Label 32750 13950 0    60   ~ 0
AU_LRCLK
$Comp
L +3.3V #PWR04
U 1 1 5A87D71B
P 33250 13300
F 0 "#PWR04" H 33250 13150 50  0001 C CNN
F 1 "+3.3V" H 33250 13440 50  0000 C CNN
F 2 "" H 33250 13300 50  0001 C CNN
F 3 "" H 33250 13300 50  0001 C CNN
	1    33250 13300
	1    0    0    -1  
$EndComp
Text Label 31300 14950 2    60   ~ 0
MISO
Text Label 23350 15800 2    60   ~ 0
SCK
Text Label 32750 14850 0    60   ~ 0
SCK
Text Label 31300 14750 2    60   ~ 0
AUSD_CS
Text Label 31300 14450 2    60   ~ 0
MOSI
Text Label 31300 14350 2    60   ~ 0
AUMEM_CS
NoConn ~ 25350 14700
NoConn ~ 25350 14800
$Comp
L +5V #PWR05
U 1 1 5A87D71D
P 26200 15000
F 0 "#PWR05" H 26200 14850 50  0001 C CNN
F 1 "+5V" H 26200 15140 50  0000 C CNN
F 2 "" H 26200 15000 50  0001 C CNN
F 3 "" H 26200 15000 50  0001 C CNN
	1    26200 15000
	1    0    0    -1  
$EndComp
$Comp
L Teensy3.6 U10
U 1 1 5A87D71E
P 24350 13900
F 0 "U10" H 24350 16200 60  0000 C CNN
F 1 "Teensy3.6" H 24350 11600 60  0000 C CNN
F 2 "chordboard-footprints:Teensy35_36_external_pins" H 24350 13900 60  0001 C CNN
F 3 "" H 24350 13900 60  0000 C CNN
	1    24350 13900
	1    0    0    -1  
$EndComp
Text Label 23350 16000 2    60   ~ 0
WIFI_RST
Text Label 25350 16000 0    60   ~ 0
WIFI_PGM
$Comp
L +3.3V #PWR06
U 1 1 5A87D71F
P 22150 13200
F 0 "#PWR06" H 22150 13050 50  0001 C CNN
F 1 "+3.3V" H 22150 13340 50  0000 C CNN
F 2 "" H 22150 13200 50  0001 C CNN
F 3 "" H 22150 13200 50  0001 C CNN
	1    22150 13200
	1    0    0    -1  
$EndComp
Text Label 23350 13900 2    60   ~ 0
RE1_A
Text Label 23350 14000 2    60   ~ 0
RE1_B
Text Label 23350 13500 2    60   ~ 0
RE2_A
Text Label 23350 13600 2    60   ~ 0
RE2_B
Text Label 23350 14800 2    60   ~ 0
RE2_SW
Text Label 23350 13700 2    60   ~ 0
RE3_A
Text Label 23350 13800 2    60   ~ 0
RE3_B
Text Label 23350 14700 2    60   ~ 0
RE1_SW
Text Label 23350 14900 2    60   ~ 0
RE3_SW
Text Label 27450 15800 0    60   ~ 0
SCL
Text Label 27450 15900 0    60   ~ 0
SDA
$Comp
L GNDA #PWR07
U 1 1 5A89E752
P 26200 15300
F 0 "#PWR07" H 26200 15050 50  0001 C CNN
F 1 "GNDA" H 26200 15150 50  0000 C CNN
F 2 "" H 26200 15300 50  0001 C CNN
F 3 "" H 26200 15300 50  0001 C CNN
	1    26200 15300
	1    0    0    -1  
$EndComp
$Comp
L GNDA #PWR08
U 1 1 5A89EB7E
P 32750 13750
F 0 "#PWR08" H 32750 13500 50  0001 C CNN
F 1 "GNDA" H 32750 13600 50  0000 C CNN
F 2 "" H 32750 13750 50  0001 C CNN
F 3 "" H 32750 13750 50  0001 C CNN
	1    32750 13750
	0    -1   -1   0   
$EndComp
Text Label 23350 12700 2    60   ~ 0
U3_TX
Text Label 20450 11300 2    60   ~ 0
WIFI_TXD2
Text Label 23350 12300 2    60   ~ 0
LED_LOAD
Text Label 23350 12200 2    60   ~ 0
LED_CLK
Text Label 23350 14600 2    60   ~ 0
CORE_RST
Text Label 23350 14500 2    60   ~ 0
CORE_PGM
Text Label 23350 15900 2    60   ~ 0
AU_VOL
Text Label 32750 14750 0    60   ~ 0
AU_VOL
Text Label 25350 14400 0    60   ~ 0
USBH_DP
Text Label 25350 14500 0    60   ~ 0
USBH_DM
$Comp
L USB_A J12
U 1 1 5A81EE8D
P 26650 14400
F 0 "J12" H 26450 14850 50  0000 L CNN
F 1 "USB_A" H 26450 14750 50  0000 L CNN
F 2 "Connectors:USB_A" H 26800 14350 50  0001 C CNN
F 3 "" H 26800 14350 50  0001 C CNN
	1    26650 14400
	-1   0    0    -1  
$EndComp
$Comp
L Mounting_Hole MK5
U 1 1 5A853441
P 36400 19850
F 0 "MK5" H 36400 20050 50  0000 C CNN
F 1 "Mounting_Hole" H 36400 19975 50  0000 C CNN
F 2 "chordboard-footprints:Mounting_Hole" H 36400 19850 50  0001 C CNN
F 3 "" H 36400 19850 50  0001 C CNN
	1    36400 19850
	1    0    0    -1  
$EndComp
$Comp
L Mounting_Hole MK10
U 1 1 5A853447
P 36400 20050
F 0 "MK10" H 36400 20250 50  0000 C CNN
F 1 "Mounting_Hole" H 36400 20175 50  0000 C CNN
F 2 "chordboard-footprints:Mounting_Hole" H 36400 20050 50  0001 C CNN
F 3 "" H 36400 20050 50  0001 C CNN
	1    36400 20050
	1    0    0    -1  
$EndComp
Text Label 23350 13100 2    60   ~ 0
MISO
Text Label 23350 12600 2    60   ~ 0
MOSI
Text Label 23350 12500 2    60   ~ 0
AUMEM_CS
NoConn ~ 25350 13700
NoConn ~ 25350 13600
NoConn ~ 25350 13500
NoConn ~ 25350 13400
NoConn ~ 25350 13300
NoConn ~ 25350 13200
NoConn ~ 25350 13100
NoConn ~ 25350 12800
NoConn ~ 25350 12700
NoConn ~ 25350 12600
NoConn ~ 25350 12500
NoConn ~ 25350 12400
NoConn ~ 25350 12300
NoConn ~ 25350 12200
NoConn ~ 25350 12100
NoConn ~ 25350 12000
NoConn ~ 25350 11900
NoConn ~ 25350 11800
Text Label 23350 12900 2    60   ~ 0
AUSD_CS
$Comp
L +3.3V #PWR09
U 1 1 5A955EFE
P 28100 9350
F 0 "#PWR09" H 28100 9200 50  0001 C CNN
F 1 "+3.3V" H 28100 9490 50  0000 C CNN
F 2 "" H 28100 9350 50  0000 C CNN
F 3 "" H 28100 9350 50  0000 C CNN
	1    28100 9350
	1    0    0    -1  
$EndComp
$Comp
L GND #PWR010
U 1 1 5A955F04
P 29050 9900
F 0 "#PWR010" H 29050 9650 50  0001 C CNN
F 1 "GND" H 29050 9750 50  0000 C CNN
F 2 "" H 29050 9900 50  0001 C CNN
F 3 "" H 29050 9900 50  0001 C CNN
	1    29050 9900
	-1   0    0    -1  
$EndComp
$Comp
L GND #PWR011
U 1 1 5A955F0A
P 28100 12750
F 0 "#PWR011" H 28100 12500 50  0001 C CNN
F 1 "GND" H 28100 12600 50  0000 C CNN
F 2 "" H 28100 12750 50  0001 C CNN
F 3 "" H 28100 12750 50  0001 C CNN
	1    28100 12750
	-1   0    0    -1  
$EndComp
$Comp
L MCP23017 U4
U 1 1 5A955F10
P 28100 11050
F 0 "U4" H 28000 12075 50  0000 R CNN
F 1 "MCP23017" H 28000 12000 50  0000 R CNN
F 2 "chordboard-footprints:SOIC-28W_7.5x17.9mm_Pitch1.27mm_HANDSOLDER" H 28150 10100 50  0001 L CNN
F 3 "" H 28350 12050 50  0001 C CNN
	1    28100 11050
	1    0    0    -1  
$EndComp
$Comp
L C C5
U 1 1 5A955F33
P 29050 9700
F 0 "C5" H 29060 9770 50  0000 L CNN
F 1 "0.1uF" H 29060 9620 50  0000 L CNN
F 2 "chordboard-footprints:C_0805_HandSoldering" H 29050 9700 50  0001 C CNN
F 3 "" H 29050 9700 50  0001 C CNN
	1    29050 9700
	-1   0    0    -1  
$EndComp
$Comp
L GND #PWR012
U 1 1 5A955F8E
P 28800 12100
F 0 "#PWR012" H 28800 11850 50  0001 C CNN
F 1 "GND" H 28800 11950 50  0000 C CNN
F 2 "" H 28800 12100 50  0001 C CNN
F 3 "" H 28800 12100 50  0001 C CNN
	1    28800 12100
	-1   0    0    -1  
$EndComp
$Comp
L +3.3V #PWR013
U 1 1 5A9574B8
P 28800 11650
F 0 "#PWR013" H 28800 11500 50  0001 C CNN
F 1 "+3.3V" H 28800 11790 50  0000 C CNN
F 2 "" H 28800 11650 50  0000 C CNN
F 3 "" H 28800 11650 50  0000 C CNN
	1    28800 11650
	1    0    0    -1  
$EndComp
Text Label 28800 11350 0    60   ~ 0
SCL
Text Label 28800 11450 0    60   ~ 0
SDA
Text Label 23350 15400 2    60   ~ 0
DAC0
Text Label 23350 15500 2    60   ~ 0
DAC1
Text Label 23350 11900 2    60   ~ 0
U1_RX
Text Label 23350 12000 2    60   ~ 0
U1_TX
Text Label 15050 12150 0    60   ~ 0
WIFI_RST
Text Label 15050 12050 0    60   ~ 0
WIFI_PGM
Text Label 15050 12250 0    60   ~ 0
U1_RX
Text Label 15050 12350 0    60   ~ 0
U1_TX
$Comp
L GND #PWR014
U 1 1 5AA410B2
P 20350 12050
F 0 "#PWR014" H 20350 11800 50  0001 C CNN
F 1 "GND" H 20350 11900 50  0000 C CNN
F 2 "" H 20350 12050 50  0001 C CNN
F 3 "" H 20350 12050 50  0001 C CNN
	1    20350 12050
	1    0    0    -1  
$EndComp
$Comp
L CONN_01X06 J9
U 1 1 5AA410BA
P 20650 11450
F 0 "J9" H 20650 11800 50  0000 C CNN
F 1 "CONN_01X06" V 20750 11450 50  0000 C CNN
F 2 "Pin_Headers:Pin_Header_Straight_1x06_Pitch2.54mm" H 20650 11450 50  0001 C CNN
F 3 "" H 20650 11450 50  0001 C CNN
	1    20650 11450
	1    0    0    -1  
$EndComp
Text Label 23350 12400 2    60   ~ 0
LED2_DIN
Text Label 23350 13300 2    60   ~ 0
LED2_CLK
Text Label 23350 13400 2    60   ~ 0
LED2_LOAD
$Comp
L GND #PWR015
U 1 1 5A95507B
P 29550 12100
F 0 "#PWR015" H 29550 11850 50  0001 C CNN
F 1 "GND" H 29550 11950 50  0000 C CNN
F 2 "" H 29550 12100 50  0001 C CNN
F 3 "" H 29550 12100 50  0001 C CNN
	1    29550 12100
	1    0    0    -1  
$EndComp
$Comp
L C C4
U 1 1 5A955020
P 29300 9700
F 0 "C4" H 29310 9770 50  0000 L CNN
F 1 "0.1uF" H 29310 9620 50  0000 L CNN
F 2 "chordboard-footprints:C_0805_HandSoldering" H 29300 9700 50  0001 C CNN
F 3 "" H 29300 9700 50  0001 C CNN
	1    29300 9700
	1    0    0    -1  
$EndComp
$Comp
L MCP23017 U3
U 1 1 5A954FFD
P 30250 11050
F 0 "U3" H 30150 12075 50  0000 R CNN
F 1 "MCP23017" H 30150 12000 50  0000 R CNN
F 2 "chordboard-footprints:SOIC-28W_7.5x17.9mm_Pitch1.27mm_HANDSOLDER" H 30300 10100 50  0001 L CNN
F 3 "" H 30500 12050 50  0001 C CNN
	1    30250 11050
	-1   0    0    -1  
$EndComp
$Comp
L GND #PWR016
U 1 1 5A954FF7
P 30250 12750
F 0 "#PWR016" H 30250 12500 50  0001 C CNN
F 1 "GND" H 30250 12600 50  0000 C CNN
F 2 "" H 30250 12750 50  0001 C CNN
F 3 "" H 30250 12750 50  0001 C CNN
	1    30250 12750
	1    0    0    -1  
$EndComp
$Comp
L GND #PWR017
U 1 1 5A954FF1
P 29300 9900
F 0 "#PWR017" H 29300 9650 50  0001 C CNN
F 1 "GND" H 29300 9750 50  0000 C CNN
F 2 "" H 29300 9900 50  0001 C CNN
F 3 "" H 29300 9900 50  0001 C CNN
	1    29300 9900
	1    0    0    -1  
$EndComp
$Comp
L +3.3V #PWR018
U 1 1 5A954FEB
P 30250 9350
F 0 "#PWR018" H 30250 9200 50  0001 C CNN
F 1 "+3.3V" H 30250 9490 50  0000 C CNN
F 2 "" H 30250 9350 50  0000 C CNN
F 3 "" H 30250 9350 50  0000 C CNN
	1    30250 9350
	-1   0    0    -1  
$EndComp
Text Label 29550 11450 2    60   ~ 0
SDA
Text Label 29550 11350 2    60   ~ 0
SCL
$Comp
L CONN_02X20 J5
U 1 1 5AA90114
P 24450 8300
F 0 "J5" H 24450 9350 50  0000 C CNN
F 1 "CONN_02X20" V 24450 8300 50  0000 C CNN
F 2 "Pin_Headers:Pin_Header_Straight_2x20_Pitch2.54mm" H 24450 7350 50  0001 C CNN
F 3 "" H 24450 7350 50  0001 C CNN
	1    24450 8300
	1    0    0    -1  
$EndComp
$Comp
L KSW CORE_SW1
U 1 1 5AA6F885
P 22650 14500
F 0 "CORE_SW1" H 22550 14550 60  0000 C CNN
F 1 "KSW" H 22800 14550 60  0000 C CNN
F 2 "Buttons_Switches_THT:SW_Tactile_SPST_Angled_PTS645Vx58-2LFS" H 22650 14500 60  0001 C CNN
F 3 "" H 22650 14500 60  0001 C CNN
	1    22650 14500
	-1   0    0    -1  
$EndComp
$Comp
L CONN_02X20 J4
U 1 1 5AA708B1
P 22900 8300
F 0 "J4" H 22900 9350 50  0000 C CNN
F 1 "CONN_02X20" V 22900 8300 50  0000 C CNN
F 2 "Pin_Headers:Pin_Header_Straight_2x20_Pitch2.54mm" H 22900 7350 50  0001 C CNN
F 3 "" H 22900 7350 50  0001 C CNN
	1    22900 8300
	1    0    0    -1  
$EndComp
$Comp
L HT16K33 U5
U 1 1 5AC55463
P 15850 8850
F 0 "U5" H 15850 7500 60  0000 C CNN
F 1 "HT16K33" H 15850 10100 60  0000 C CNN
F 2 "chordboard-footprints:SOIC-28W_7.5x17.9mm_Pitch1.27mm_HANDSOLDER" H 15850 10000 60  0001 C CNN
F 3 "" H 15850 10000 60  0000 C CNN
	1    15850 8850
	1    0    0    -1  
$EndComp
$Comp
L BSS138 Q2
U 1 1 5AC55464
P 28200 15200
F 0 "Q2" H 28400 15275 50  0000 L CNN
F 1 "BSS138" H 28400 15200 50  0000 L CNN
F 2 "TO_SOT_Packages_SMD:SOT-23" H 28400 15125 50  0001 L CIN
F 3 "" H 28200 15200 50  0001 L CNN
	1    28200 15200
	0    1    1    0   
$EndComp
Text Label 27800 15300 2    60   ~ 0
SCL
Text Label 28600 15300 0    60   ~ 0
SCL5
$Comp
L +3.3V #PWR019
U 1 1 5AC55465
P 28200 14900
F 0 "#PWR019" H 28200 14750 50  0001 C CNN
F 1 "+3.3V" H 28200 15040 50  0000 C CNN
F 2 "" H 28200 14900 50  0001 C CNN
F 3 "" H 28200 14900 50  0001 C CNN
	1    28200 14900
	1    0    0    -1  
$EndComp
$Comp
L R R10
U 1 1 5AC55466
P 27950 15100
F 0 "R10" V 28000 15200 50  0000 L CNN
F 1 "R" V 27950 15050 50  0000 L CNN
F 2 "Resistors_SMD:R_1206_HandSoldering" H 27950 15100 50  0001 C CNN
F 3 "" H 27950 15100 50  0001 C CNN
	1    27950 15100
	1    0    0    -1  
$EndComp
$Comp
L R R11
U 1 1 5AC55467
P 28450 15100
F 0 "R11" V 28500 15200 50  0000 L CNN
F 1 "R" V 28450 15050 50  0000 L CNN
F 2 "Resistors_SMD:R_1206_HandSoldering" H 28450 15100 50  0001 C CNN
F 3 "" H 28450 15100 50  0001 C CNN
	1    28450 15100
	1    0    0    -1  
$EndComp
$Comp
L +5V #PWR020
U 1 1 5AC55468
P 28450 14900
F 0 "#PWR020" H 28450 14750 50  0001 C CNN
F 1 "+5V" H 28450 15040 50  0000 C CNN
F 2 "" H 28450 14900 50  0001 C CNN
F 3 "" H 28450 14900 50  0001 C CNN
	1    28450 14900
	1    0    0    -1  
$EndComp
$Comp
L BSS138 Q1
U 1 1 5AC55469
P 28200 16250
F 0 "Q1" H 28400 16325 50  0000 L CNN
F 1 "BSS138" H 28400 16250 50  0000 L CNN
F 2 "TO_SOT_Packages_SMD:SOT-23" H 28400 16175 50  0001 L CIN
F 3 "" H 28200 16250 50  0001 L CNN
	1    28200 16250
	0    1    1    0   
$EndComp
Text Label 27800 16350 2    60   ~ 0
SDA
Text Label 28600 16350 0    60   ~ 0
SDA5
$Comp
L +3.3V #PWR021
U 1 1 5AC5546A
P 28200 15950
F 0 "#PWR021" H 28200 15800 50  0001 C CNN
F 1 "+3.3V" H 28200 16090 50  0000 C CNN
F 2 "" H 28200 15950 50  0001 C CNN
F 3 "" H 28200 15950 50  0001 C CNN
	1    28200 15950
	1    0    0    -1  
$EndComp
$Comp
L R R6
U 1 1 5AC5546B
P 27950 16150
F 0 "R6" V 28000 16250 50  0000 L CNN
F 1 "R" V 27950 16100 50  0000 L CNN
F 2 "Resistors_SMD:R_1206_HandSoldering" H 27950 16150 50  0001 C CNN
F 3 "" H 27950 16150 50  0001 C CNN
	1    27950 16150
	1    0    0    -1  
$EndComp
$Comp
L R R9
U 1 1 5AC5546C
P 28450 16150
F 0 "R9" V 28500 16250 50  0000 L CNN
F 1 "R" V 28450 16100 50  0000 L CNN
F 2 "Resistors_SMD:R_1206_HandSoldering" H 28450 16150 50  0001 C CNN
F 3 "" H 28450 16150 50  0001 C CNN
	1    28450 16150
	1    0    0    -1  
$EndComp
$Comp
L +5V #PWR022
U 1 1 5AC5546D
P 28450 15950
F 0 "#PWR022" H 28450 15800 50  0001 C CNN
F 1 "+5V" H 28450 16090 50  0000 C CNN
F 2 "" H 28450 15950 50  0001 C CNN
F 3 "" H 28450 15950 50  0001 C CNN
	1    28450 15950
	1    0    0    -1  
$EndComp
Text Label 15200 7900 2    60   ~ 0
SCL5
Text Label 15200 8000 2    60   ~ 0
SDA5
$Comp
L +5V #PWR023
U 1 1 5AC5546E
P 15200 7600
F 0 "#PWR023" H 15200 7450 50  0001 C CNN
F 1 "+5V" H 15200 7740 50  0000 C CNN
F 2 "" H 15200 7600 50  0001 C CNN
F 3 "" H 15200 7600 50  0001 C CNN
	1    15200 7600
	1    0    0    -1  
$EndComp
$Comp
L GND #PWR024
U 1 1 5AC5546F
P 15200 10200
F 0 "#PWR024" H 15200 9950 50  0001 C CNN
F 1 "GND" H 15200 10050 50  0000 C CNN
F 2 "" H 15200 10200 50  0001 C CNN
F 3 "" H 15200 10200 50  0001 C CNN
	1    15200 10200
	-1   0    0    -1  
$EndComp
Text Label 16500 7700 0    60   ~ 0
R0
Text Label 16500 7800 0    60   ~ 0
R1
Text Label 16500 7900 0    60   ~ 0
R2
Text Label 16500 8000 0    60   ~ 0
R3
Text Label 16500 8100 0    60   ~ 0
R4
Text Label 16500 8200 0    60   ~ 0
R5
Text Label 16500 8300 0    60   ~ 0
R6
Text Label 16500 8400 0    60   ~ 0
R7
Text Label 16500 8500 0    60   ~ 0
R8
Text Label 16500 8600 0    60   ~ 0
R9
Text Label 16500 8700 0    60   ~ 0
R10
Text Label 16500 8800 0    60   ~ 0
R11
Text Label 16500 8900 0    60   ~ 0
R12
Text Label 16500 9000 0    60   ~ 0
R13
Text Label 16500 9100 0    60   ~ 0
R14
Text Label 16500 9200 0    60   ~ 0
R15
Text Label 16500 9400 0    60   ~ 0
C0
Text Label 16500 9500 0    60   ~ 0
C1
Text Label 16500 9600 0    60   ~ 0
C2
Text Label 16500 9700 0    60   ~ 0
C3
Text Label 16500 9800 0    60   ~ 0
C4
Text Label 16500 9900 0    60   ~ 0
C5
Text Label 27550 11150 2    60   ~ 0
K0
Text Label 27550 11250 2    60   ~ 0
K1
Text Label 27550 11350 2    60   ~ 0
K2
Text Label 27550 11450 2    60   ~ 0
K3
Text Label 27550 11550 2    60   ~ 0
K4
Text Label 27550 11650 2    60   ~ 0
K5
Text Label 27550 11750 2    60   ~ 0
K6
Text Label 27550 11850 2    60   ~ 0
K7
Text Label 27550 10250 2    60   ~ 0
K8
Text Label 27550 10350 2    60   ~ 0
K9
Text Label 27550 10450 2    60   ~ 0
K10
Text Label 27550 10550 2    60   ~ 0
K11
Text Label 27550 10650 2    60   ~ 0
K12
Text Label 27550 10750 2    60   ~ 0
K13
Text Label 27550 10850 2    60   ~ 0
K14
Text Label 27550 10950 2    60   ~ 0
K15
Text Label 30800 11150 0    60   ~ 0
K16
Text Label 30800 11250 0    60   ~ 0
K17
Text Label 30800 11350 0    60   ~ 0
K18
Text Label 30800 11450 0    60   ~ 0
K19
Text Label 30800 11550 0    60   ~ 0
K20
Text Label 30800 11650 0    60   ~ 0
K21
Text Label 30800 11750 0    60   ~ 0
K22
Text Label 30800 11850 0    60   ~ 0
K23
Text Label 30800 10250 0    60   ~ 0
K24
Text Label 30800 10350 0    60   ~ 0
K25
Text Label 30800 10450 0    60   ~ 0
K26
Text Label 30800 10550 0    60   ~ 0
K27
Text Label 30800 10650 0    60   ~ 0
K28
Text Label 30800 10750 0    60   ~ 0
K29
Text Label 30800 10850 0    60   ~ 0
K30
Text Label 30800 10950 0    60   ~ 0
K31
$Comp
L C C1
U 1 1 5AC72D73
P 14650 7950
F 0 "C1" H 14660 8020 50  0000 L CNN
F 1 "0.1uF" H 14660 7870 50  0000 L CNN
F 2 "chordboard-footprints:C_0805_HandSoldering" H 14650 7950 50  0001 C CNN
F 3 "" H 14650 7950 50  0001 C CNN
	1    14650 7950
	1    0    0    -1  
$EndComp
$Comp
L GND #PWR025
U 1 1 5AC72D79
P 14650 8150
F 0 "#PWR025" H 14650 7900 50  0001 C CNN
F 1 "GND" H 14650 8000 50  0000 C CNN
F 2 "" H 14650 8150 50  0001 C CNN
F 3 "" H 14650 8150 50  0001 C CNN
	1    14650 8150
	1    0    0    -1  
$EndComp
Text Label 23150 7450 0    60   ~ 0
R0
Text Label 23150 7550 0    60   ~ 0
R1
Text Label 23150 7650 0    60   ~ 0
R2
Text Label 23150 7750 0    60   ~ 0
R3
Text Label 23150 7850 0    60   ~ 0
R4
Text Label 23150 7950 0    60   ~ 0
R5
Text Label 23150 8050 0    60   ~ 0
R6
Text Label 23150 8150 0    60   ~ 0
R7
Text Label 24700 7450 0    60   ~ 0
R8
Text Label 24700 7550 0    60   ~ 0
R9
Text Label 24700 7650 0    60   ~ 0
R10
Text Label 24700 7750 0    60   ~ 0
R11
Text Label 24700 7850 0    60   ~ 0
R12
Text Label 24700 7950 0    60   ~ 0
R13
Text Label 24700 8050 0    60   ~ 0
R14
Text Label 24700 8150 0    60   ~ 0
R15
$Comp
L +5V #PWR026
U 1 1 5AC7409B
P 22550 7150
F 0 "#PWR026" H 22550 7000 50  0001 C CNN
F 1 "+5V" H 22550 7290 50  0000 C CNN
F 2 "" H 22550 7150 50  0001 C CNN
F 3 "" H 22550 7150 50  0001 C CNN
	1    22550 7150
	1    0    0    -1  
$EndComp
$Comp
L GND #PWR027
U 1 1 5AC7412F
P 22550 9350
F 0 "#PWR027" H 22550 9100 50  0001 C CNN
F 1 "GND" H 22550 9200 50  0000 C CNN
F 2 "" H 22550 9350 50  0001 C CNN
F 3 "" H 22550 9350 50  0001 C CNN
	1    22550 9350
	1    0    0    -1  
$EndComp
Text Label 16500 10000 0    60   ~ 0
C6
Text Label 16500 10100 0    60   ~ 0
C7
Text Label 16700 9400 0    60   ~ 0
C8
Text Label 16700 9500 0    60   ~ 0
C9
Text Label 16700 9600 0    60   ~ 0
C10
Text Label 16700 9700 0    60   ~ 0
C11
Text Label 16700 9800 0    60   ~ 0
C12
Text Label 16700 9900 0    60   ~ 0
C13
Text Label 16700 10000 0    60   ~ 0
C14
Text Label 16700 10100 0    60   ~ 0
C15
Text Label 23150 8250 0    60   ~ 0
C0
Text Label 23150 8350 0    60   ~ 0
C1
Text Label 23150 8450 0    60   ~ 0
C2
Text Label 23150 8550 0    60   ~ 0
C3
Text Label 23150 8650 0    60   ~ 0
C4
Text Label 23150 8750 0    60   ~ 0
C5
Text Label 23150 8850 0    60   ~ 0
C6
Text Label 23150 8950 0    60   ~ 0
C7
Text Label 24700 8250 0    60   ~ 0
C8
Text Label 24700 8350 0    60   ~ 0
C9
Text Label 24700 8450 0    60   ~ 0
C10
Text Label 24700 8550 0    60   ~ 0
C11
Text Label 24700 8650 0    60   ~ 0
C12
Text Label 24700 8750 0    60   ~ 0
C13
Text Label 24700 8850 0    60   ~ 0
C14
Text Label 24700 8950 0    60   ~ 0
C15
Text Label 22650 7550 2    60   ~ 0
K0
Text Label 22650 7650 2    60   ~ 0
K1
Text Label 22650 7750 2    60   ~ 0
K2
Text Label 22650 7850 2    60   ~ 0
K3
Text Label 22650 7950 2    60   ~ 0
K4
Text Label 22650 8050 2    60   ~ 0
K5
Text Label 22650 8150 2    60   ~ 0
K6
Text Label 22650 8250 2    60   ~ 0
K7
Text Label 22650 8350 2    60   ~ 0
K8
Text Label 22650 8450 2    60   ~ 0
K9
Text Label 22650 8550 2    60   ~ 0
K10
Text Label 22650 8650 2    60   ~ 0
K11
Text Label 22650 8750 2    60   ~ 0
K12
Text Label 22650 8850 2    60   ~ 0
K13
Text Label 22650 8950 2    60   ~ 0
K14
Text Label 22650 9050 2    60   ~ 0
K15
Text Label 24200 7550 2    60   ~ 0
K16
Text Label 24200 7650 2    60   ~ 0
K17
Text Label 24200 7750 2    60   ~ 0
K18
Text Label 24200 7850 2    60   ~ 0
K19
Text Label 24200 7950 2    60   ~ 0
K20
Text Label 24200 8050 2    60   ~ 0
K21
Text Label 24200 8150 2    60   ~ 0
K22
Text Label 24200 8250 2    60   ~ 0
K23
Text Label 24200 8350 2    60   ~ 0
K24
Text Label 24200 8450 2    60   ~ 0
K25
Text Label 24200 8550 2    60   ~ 0
K26
Text Label 24200 8650 2    60   ~ 0
K27
Text Label 24200 8750 2    60   ~ 0
K28
Text Label 24200 8850 2    60   ~ 0
K29
Text Label 24200 8950 2    60   ~ 0
K30
Text Label 24200 9050 2    60   ~ 0
K31
$Comp
L GND #PWR028
U 1 1 5AC810FA
P 24100 9350
F 0 "#PWR028" H 24100 9100 50  0001 C CNN
F 1 "GND" H 24100 9200 50  0000 C CNN
F 2 "" H 24100 9350 50  0001 C CNN
F 3 "" H 24100 9350 50  0001 C CNN
	1    24100 9350
	1    0    0    -1  
$EndComp
$Comp
L +5V #PWR029
U 1 1 5AC8116B
P 24100 7150
F 0 "#PWR029" H 24100 7000 50  0001 C CNN
F 1 "+5V" H 24100 7290 50  0000 C CNN
F 2 "" H 24100 7150 50  0001 C CNN
F 3 "" H 24100 7150 50  0001 C CNN
	1    24100 7150
	1    0    0    -1  
$EndComp
$Comp
L CONN_02X20 J1
U 1 1 5AC81C63
P 25850 8350
F 0 "J1" H 25850 9400 50  0000 C CNN
F 1 "CONN_02X20" V 25850 8350 50  0000 C CNN
F 2 "Pin_Headers:Pin_Header_Straight_2x20_Pitch2.54mm" H 25850 7400 50  0001 C CNN
F 3 "" H 25850 7400 50  0001 C CNN
	1    25850 8350
	1    0    0    -1  
$EndComp
Text Label 23350 12100 2    60   ~ 0
LED_DIN
Wire Wire Line
	26200 15200 26200 15300
Wire Wire Line
	26200 15100 26200 15000
Wire Wire Line
	25350 14400 26350 14400
Wire Wire Line
	25350 14600 26350 14600
Wire Wire Line
	25350 14500 26350 14500
Wire Wire Line
	26350 14300 25350 14300
Wire Wire Line
	25350 14200 26350 14200
Wire Wire Line
	22150 14400 23350 14400
Wire Wire Line
	22150 14400 22150 16250
Wire Wire Line
	22800 14500 23350 14500
Wire Wire Line
	22150 13200 23350 13200
Wire Wire Line
	23350 11800 23350 11400
Wire Wire Line
	25350 15900 27800 15900
Wire Wire Line
	25350 15800 27800 15800
Connection ~ 27250 15800
Connection ~ 27150 15900
Wire Wire Line
	22150 15600 23350 15600
Wire Wire Line
	30950 13650 31300 13650
Wire Wire Line
	30950 13650 30950 13800
Wire Wire Line
	33250 13850 33250 13300
Wire Wire Line
	32750 13850 33250 13850
Wire Wire Line
	22500 14500 22150 14500
Connection ~ 22150 14500
Wire Wire Line
	25350 15100 26200 15100
Wire Wire Line
	25350 15200 26200 15200
Wire Wire Line
	28600 11450 29750 11450
Wire Wire Line
	28600 11350 29750 11350
Wire Wire Line
	28100 12050 28100 12750
Wire Wire Line
	28700 9450 28700 10250
Wire Wire Line
	28700 10250 28600 10250
Wire Wire Line
	28100 9350 28100 10050
Connection ~ 28100 9450
Connection ~ 28100 12100
Wire Wire Line
	29050 9450 29050 9600
Wire Wire Line
	29050 9800 29050 9900
Wire Wire Line
	27600 10250 27550 10250
Wire Wire Line
	27600 10350 27550 10350
Wire Wire Line
	27600 10450 27550 10450
Wire Wire Line
	27600 10550 27550 10550
Wire Wire Line
	27600 10650 27550 10650
Wire Wire Line
	27600 10750 27550 10750
Wire Wire Line
	27600 10850 27550 10850
Wire Wire Line
	27600 10950 27550 10950
Wire Wire Line
	27600 11150 27550 11150
Wire Wire Line
	27600 11250 27550 11250
Wire Wire Line
	27600 11350 27550 11350
Wire Wire Line
	27600 11450 27550 11450
Wire Wire Line
	27600 11550 27550 11550
Wire Wire Line
	27600 11650 27550 11650
Wire Wire Line
	27600 11750 27550 11750
Wire Wire Line
	27600 11850 27550 11850
Connection ~ 28700 9450
Wire Wire Line
	28600 11750 28800 11750
Wire Wire Line
	28600 11850 28800 11850
Wire Wire Line
	28100 9450 29050 9450
Connection ~ 28800 11850
Wire Wire Line
	28600 11650 28800 11650
Wire Wire Line
	28800 11750 28800 12100
Connection ~ 22150 15200
Connection ~ 22150 15100
Connection ~ 22150 15000
Connection ~ 22150 15600
Wire Wire Line
	20450 11700 20350 11700
Wire Wire Line
	20350 11700 20350 12050
Connection ~ 22150 15300
Connection ~ 29550 11750
Wire Wire Line
	29550 11650 29550 12100
Wire Wire Line
	29750 11650 29550 11650
Connection ~ 29550 11850
Wire Wire Line
	29300 9450 30250 9450
Wire Wire Line
	29550 11850 29750 11850
Wire Wire Line
	29750 11750 29550 11750
Connection ~ 29650 9450
Wire Wire Line
	30750 11850 30800 11850
Wire Wire Line
	30750 11750 30800 11750
Wire Wire Line
	30750 11650 30800 11650
Wire Wire Line
	30750 11550 30800 11550
Wire Wire Line
	30750 11450 30800 11450
Wire Wire Line
	30750 11350 30800 11350
Wire Wire Line
	30750 11250 30800 11250
Wire Wire Line
	30750 11150 30800 11150
Wire Wire Line
	30750 10950 30800 10950
Wire Wire Line
	30750 10850 30800 10850
Wire Wire Line
	30750 10750 30800 10750
Wire Wire Line
	30750 10650 30800 10650
Wire Wire Line
	30750 10550 30800 10550
Wire Wire Line
	30750 10450 30800 10450
Wire Wire Line
	30750 10350 30800 10350
Wire Wire Line
	30750 10250 30800 10250
Wire Wire Line
	29300 9800 29300 9900
Wire Wire Line
	29300 9450 29300 9600
Connection ~ 30250 12100
Connection ~ 30250 9450
Wire Wire Line
	30250 9350 30250 10050
Wire Wire Line
	29650 10250 29750 10250
Wire Wire Line
	29650 9450 29650 10250
Wire Wire Line
	30250 12050 30250 12750
Wire Wire Line
	27800 15300 28000 15300
Wire Wire Line
	28400 15300 28600 15300
Wire Wire Line
	28200 14900 28200 15000
Wire Wire Line
	28450 15200 28450 15300
Connection ~ 28450 15300
Wire Wire Line
	27950 15200 27950 15300
Connection ~ 27950 15300
Wire Wire Line
	28450 14900 28450 15000
Wire Wire Line
	27950 15000 27950 14950
Wire Wire Line
	27950 14950 28200 14950
Connection ~ 28200 14950
Wire Wire Line
	27800 16350 28000 16350
Wire Wire Line
	28400 16350 28600 16350
Wire Wire Line
	28200 15950 28200 16050
Wire Wire Line
	28450 16250 28450 16350
Connection ~ 28450 16350
Wire Wire Line
	27950 16250 27950 16350
Connection ~ 27950 16350
Wire Wire Line
	28450 15950 28450 16050
Wire Wire Line
	27950 16050 27950 16000
Wire Wire Line
	27950 16000 28200 16000
Connection ~ 28200 16000
Wire Wire Line
	15200 7600 15200 7700
Wire Wire Line
	15200 10100 15200 10200
Connection ~ 22150 14600
Wire Wire Line
	27800 15800 27800 15300
Wire Wire Line
	27800 15900 27800 16350
Wire Wire Line
	14650 8050 14650 8150
Wire Wire Line
	14650 7700 14650 7850
Wire Wire Line
	15200 7700 14650 7700
Wire Wire Line
	22650 7350 22550 7350
Wire Wire Line
	22550 7350 22550 7150
Wire Wire Line
	22550 9250 22550 9350
Wire Wire Line
	22550 9250 22650 9250
Wire Wire Line
	16500 9400 16700 9400
Wire Wire Line
	16500 9500 16700 9500
Wire Wire Line
	16500 9600 16700 9600
Wire Wire Line
	16500 9700 16700 9700
Wire Wire Line
	16500 9800 16700 9800
Wire Wire Line
	16500 9900 16700 9900
Wire Wire Line
	16500 10000 16700 10000
Wire Wire Line
	16500 10100 16700 10100
Wire Wire Line
	24100 9250 24100 9350
Wire Wire Line
	24100 9250 24200 9250
Wire Wire Line
	24200 7350 24100 7350
Wire Wire Line
	24100 7350 24100 7150
Wire Wire Line
	24700 7350 24800 7350
Wire Wire Line
	24800 7350 24800 7150
Wire Wire Line
	23150 7350 23250 7350
Wire Wire Line
	23250 7350 23250 7150
NoConn ~ 23350 14300
Wire Wire Line
	22500 14600 22150 14600
Wire Wire Line
	22800 14600 23350 14600
$Comp
L KSW CORE_SW2
U 1 1 5AC70C2A
P 22650 14600
F 0 "CORE_SW2" H 22550 14650 60  0000 C CNN
F 1 "KSW" H 22800 14650 60  0000 C CNN
F 2 "Buttons_Switches_THT:SW_Tactile_SPST_Angled_PTS645Vx58-2LFS" H 22650 14600 60  0001 C CNN
F 3 "" H 22650 14600 60  0001 C CNN
	1    22650 14600
	-1   0    0    -1  
$EndComp
Text Label 23350 14100 2    60   ~ 0
PIXEL_DIN
Wire Wire Line
	25350 15700 25400 15700
Wire Wire Line
	25350 15600 25400 15600
Text Label 25400 15600 0    60   ~ 0
TFT_CS
Text Label 25400 15700 0    60   ~ 0
TFT_DC
Text Label 23350 15000 2    60   ~ 0
SH1
Text Label 23350 15100 2    60   ~ 0
SH2
Text Label 23350 15200 2    60   ~ 0
SH3
Text Label 23350 15300 2    60   ~ 0
SH4
$Comp
L +3.3V #PWR030
U 1 1 5AC983B4
P 24800 7150
F 0 "#PWR030" H 24800 7000 50  0001 C CNN
F 1 "+3.3V" H 24800 7290 50  0000 C CNN
F 2 "" H 24800 7150 50  0000 C CNN
F 3 "" H 24800 7150 50  0000 C CNN
	1    24800 7150
	1    0    0    -1  
$EndComp
$Comp
L +3.3V #PWR031
U 1 1 5AC98440
P 23250 7150
F 0 "#PWR031" H 23250 7000 50  0001 C CNN
F 1 "+3.3V" H 23250 7290 50  0000 C CNN
F 2 "" H 23250 7150 50  0000 C CNN
F 3 "" H 23250 7150 50  0000 C CNN
	1    23250 7150
	1    0    0    -1  
$EndComp
$Comp
L GND #PWR032
U 1 1 5AC9E9FD
P 8100 18350
F 0 "#PWR032" H 8100 18100 50  0001 C CNN
F 1 "GND" H 8100 18200 50  0000 C CNN
F 2 "" H 8100 18350 50  0001 C CNN
F 3 "" H 8100 18350 50  0001 C CNN
	1    8100 18350
	-1   0    0    -1  
$EndComp
$Comp
L +5V #PWR033
U 1 1 5AC9E9FE
P 7600 17500
F 0 "#PWR033" H 7600 17350 50  0001 C CNN
F 1 "+5V" H 7600 17640 50  0000 C CNN
F 2 "" H 7600 17500 50  0001 C CNN
F 3 "" H 7600 17500 50  0001 C CNN
	1    7600 17500
	1    0    0    -1  
$EndComp
$Comp
L C C3
U 1 1 5AC9E9FF
P 7600 18000
F 0 "C3" H 7610 18070 50  0000 L CNN
F 1 "0.1uF" H 7610 17920 50  0000 L CNN
F 2 "chordboard-footprints:C_0805_HandSoldering" H 7600 18000 50  0001 C CNN
F 3 "" H 7600 18000 50  0001 C CNN
	1    7600 18000
	1    0    0    -1  
$EndComp
$Comp
L C C6
U 1 1 5AC9EA00
P 8600 18000
F 0 "C6" H 8610 18070 50  0000 L CNN
F 1 "10uF" H 8610 17920 50  0000 L CNN
F 2 "Capacitors_SMD:C_1206_HandSoldering" H 8600 18000 50  0001 C CNN
F 3 "" H 8600 18000 50  0001 C CNN
	1    8600 18000
	1    0    0    -1  
$EndComp
$Comp
L LD1117S33TR U1
U 1 1 5AC9EA01
P 8100 17850
F 0 "U1" H 8100 18100 50  0000 C CNN
F 1 "LD1117S33TR" H 8100 18050 50  0000 C CNN
F 2 "TO_SOT_Packages_SMD:SOT-223" H 8100 17950 50  0001 C CNN
F 3 "" H 8100 17850 50  0001 C CNN
	1    8100 17850
	1    0    0    -1  
$EndComp
$Comp
L C C2
U 1 1 5AC9EA02
P 11200 12950
F 0 "C2" H 11210 13020 50  0000 L CNN
F 1 "10uF" H 11210 12870 50  0000 L CNN
F 2 "Capacitors_SMD:C_1206_HandSoldering" H 11200 12950 50  0001 C CNN
F 3 "" H 11200 12950 50  0001 C CNN
	1    11200 12950
	1    0    0    -1  
$EndComp
Text Label 14650 12350 2    60   ~ 0
WIFI_RXD
Text Label 14650 12250 2    60   ~ 0
WIFI_TXD
Text Label 14850 14300 2    60   ~ 0
WIFI_RST
Text Label 14850 14050 2    60   ~ 0
WIFI_PGM
$Comp
L GND #PWR034
U 1 1 5AC9EA04
P 15650 14650
F 0 "#PWR034" H 15650 14400 50  0001 C CNN
F 1 "GND" H 15650 14500 50  0000 C CNN
F 2 "" H 15650 14650 50  0001 C CNN
F 3 "" H 15650 14650 50  0001 C CNN
	1    15650 14650
	1    0    0    -1  
$EndComp
$Comp
L GND #PWR035
U 1 1 5AC9EA05
P 11050 13800
F 0 "#PWR035" H 11050 13550 50  0001 C CNN
F 1 "GND" H 11050 13650 50  0000 C CNN
F 2 "" H 11050 13800 50  0001 C CNN
F 3 "" H 11050 13800 50  0001 C CNN
	1    11050 13800
	1    0    0    -1  
$EndComp
$Comp
L R RW3
U 1 1 5AC9EA06
P 10850 13350
F 0 "RW3" V 10900 13450 50  0000 L CNN
F 1 "10K" V 10850 13300 50  0000 L CNN
F 2 "Resistors_SMD:R_0805_HandSoldering" H 10850 13350 50  0001 C CNN
F 3 "" H 10850 13350 50  0001 C CNN
	1    10850 13350
	0    1    1    0   
$EndComp
$Comp
L R RW2
U 1 1 5AC9EA07
P 10850 13200
F 0 "RW2" V 10900 13300 50  0000 L CNN
F 1 "10K" V 10850 13150 50  0000 L CNN
F 2 "Resistors_SMD:R_0805_HandSoldering" H 10850 13200 50  0001 C CNN
F 3 "" H 10850 13200 50  0001 C CNN
	1    10850 13200
	0    1    1    0   
$EndComp
$Comp
L R RW1
U 1 1 5AC9EA08
P 10850 13050
F 0 "RW1" V 10900 13150 50  0000 L CNN
F 1 "10K" V 10850 13000 50  0000 L CNN
F 2 "Resistors_SMD:R_0805_HandSoldering" H 10850 13050 50  0001 C CNN
F 3 "" H 10850 13050 50  0001 C CNN
	1    10850 13050
	0    1    1    0   
$EndComp
Text Label 10600 13350 2    60   ~ 0
WIFI_02
Text Label 10600 13200 2    60   ~ 0
WIFI_PGM
Text Label 13200 14900 3    60   ~ 0
WIFI_15
Text Label 13300 14900 3    60   ~ 0
WIFI_02
Text Label 10600 13050 2    60   ~ 0
WIFI_RST
$Comp
L SPST S2
U 1 1 5AC9EA0A
P 15350 14300
F 0 "S2" H 15340 14385 60  0000 C CNN
F 1 "WRST" H 15350 14250 60  0000 C CNN
F 2 "chordboard-footprints:SW_PUSH_6mm" H 15350 14300 60  0001 C CNN
F 3 "" H 15350 14300 60  0001 C CNN
	1    15350 14300
	-1   0    0    1   
$EndComp
$Comp
L SPST S1
U 1 1 5AC9EA0B
P 15350 14050
F 0 "S1" H 15340 14135 60  0000 C CNN
F 1 "WPGM" H 15350 14000 60  0000 C CNN
F 2 "chordboard-footprints:SW_PUSH_6mm" H 15350 14050 60  0001 C CNN
F 3 "" H 15350 14050 60  0001 C CNN
	1    15350 14050
	-1   0    0    1   
$EndComp
Text Label 13750 14300 0    60   ~ 0
WIFI_PGM
Text Label 13750 13400 0    60   ~ 0
WIFI_RXD
Text Label 13750 13300 0    60   ~ 0
WIFI_TXD
Text Label 11900 13350 2    60   ~ 0
WIFI_RST
$Comp
L GND #PWR036
U 1 1 5AC9EA0C
P 11900 14700
F 0 "#PWR036" H 11900 14450 50  0001 C CNN
F 1 "GND" H 11900 14550 50  0000 C CNN
F 2 "" H 11900 14700 50  0001 C CNN
F 3 "" H 11900 14700 50  0001 C CNN
	1    11900 14700
	1    0    0    -1  
$EndComp
Wire Wire Line
	11050 13350 11050 13800
Wire Wire Line
	11050 13350 10950 13350
Wire Wire Line
	11050 12550 11050 13200
Wire Wire Line
	11050 13200 10950 13200
Wire Wire Line
	11050 13050 10950 13050
Connection ~ 11050 13200
Connection ~ 11050 13050
Wire Wire Line
	10600 13050 10750 13050
Wire Wire Line
	10600 13200 10750 13200
Wire Wire Line
	10600 13350 10750 13350
Wire Wire Line
	15500 14050 15650 14050
Wire Wire Line
	15650 14050 15650 14650
Wire Wire Line
	15650 14300 15500 14300
Connection ~ 15650 14300
Wire Wire Line
	8600 17800 8500 17800
Wire Wire Line
	8600 17500 8600 17900
Wire Wire Line
	7600 17800 7700 17800
Wire Wire Line
	8100 18100 8100 18350
Wire Wire Line
	7600 18200 8600 18200
Wire Wire Line
	7600 18200 7600 18100
Wire Wire Line
	8600 18200 8600 18100
Connection ~ 8100 18200
Connection ~ 7600 17800
Connection ~ 8600 17800
Wire Wire Line
	7600 17500 7600 17900
Text Label 14650 12150 2    60   ~ 0
WIFI_RST
Text Label 14650 12050 2    60   ~ 0
WIFI_PGM
$Comp
L ESP32-WROOM U2
U 1 1 5AC9EA0F
P 12850 13850
F 0 "U2" H 12150 15100 60  0000 C CNN
F 1 "ESP32-WROOM" H 13350 15100 60  0000 C CNN
F 2 "ESP32-footprints-Lib:ESP32-WROOM" H 13200 15200 60  0001 C CNN
F 3 "" H 12400 14300 60  0001 C CNN
	1    12850 13850
	1    0    0    -1  
$EndComp
Wire Wire Line
	11900 14700 11900 14550
Wire Wire Line
	11900 12600 11900 13250
Wire Wire Line
	11200 12750 11900 12750
Connection ~ 11900 12750
Connection ~ 11900 13150
Wire Wire Line
	11200 13050 11200 13650
Wire Wire Line
	11200 12850 11200 12750
Connection ~ 11650 12750
Wire Wire Line
	14850 14300 15200 14300
Wire Wire Line
	14850 14050 15200 14050
Connection ~ 11200 13650
$Comp
L LED LED1
U 1 1 5AC9EA14
P 11450 13650
F 0 "LED1" H 11400 13700 60  0000 R CNN
F 1 "LED" H 11500 13700 60  0000 L CNN
F 2 "LEDs:LED_1206_HandSoldering" H 11450 13650 60  0001 C CNN
F 3 "" H 11450 13650 60  0001 C CNN
	1    11450 13650
	-1   0    0    1   
$EndComp
$Comp
L R RW4
U 1 1 5AC9EA15
P 11750 13650
F 0 "RW4" V 11800 13750 50  0000 L CNN
F 1 "200" V 11750 13600 50  0000 L CNN
F 2 "Resistors_SMD:R_0805_HandSoldering" H 11750 13650 50  0001 C CNN
F 3 "" H 11750 13650 50  0001 C CNN
	1    11750 13650
	0    1    1    0   
$EndComp
Wire Wire Line
	11850 13650 11900 13650
Wire Wire Line
	11650 13650 11600 13650
Wire Wire Line
	11050 13650 11300 13650
Connection ~ 11050 13650
Wire Wire Line
	14650 12050 15050 12050
Wire Wire Line
	15050 12150 14650 12150
Wire Wire Line
	14650 12250 15050 12250
Wire Wire Line
	15050 12350 14650 12350
Text Label 13750 14000 0    60   ~ 0
WIFI_TXD2
Text Label 13750 14100 0    60   ~ 0
WIFI_RXD2
Text Label 19350 11300 2    60   ~ 0
U3_TX
$Comp
L GND #PWR037
U 1 1 5ACA433E
P 19250 12050
F 0 "#PWR037" H 19250 11800 50  0001 C CNN
F 1 "GND" H 19250 11900 50  0000 C CNN
F 2 "" H 19250 12050 50  0001 C CNN
F 3 "" H 19250 12050 50  0001 C CNN
	1    19250 12050
	1    0    0    -1  
$EndComp
$Comp
L CONN_01X06 J2
U 1 1 5ACA4344
P 19550 11450
F 0 "J2" H 19550 11800 50  0000 C CNN
F 1 "CONN_01X06" V 19650 11450 50  0000 C CNN
F 2 "Pin_Headers:Pin_Header_Straight_1x06_Pitch2.54mm" H 19550 11450 50  0001 C CNN
F 3 "" H 19550 11450 50  0001 C CNN
	1    19550 11450
	1    0    0    -1  
$EndComp
Wire Wire Line
	19350 11700 19250 11700
Wire Wire Line
	19250 11700 19250 12050
$Comp
L GND #PWR038
U 1 1 5ACA8D11
P 21400 12050
F 0 "#PWR038" H 21400 11800 50  0001 C CNN
F 1 "GND" H 21400 11900 50  0000 C CNN
F 2 "" H 21400 12050 50  0001 C CNN
F 3 "" H 21400 12050 50  0001 C CNN
	1    21400 12050
	1    0    0    -1  
$EndComp
$Comp
L CONN_01X06 J3
U 1 1 5ACA8D17
P 21700 11450
F 0 "J3" H 21700 11800 50  0000 C CNN
F 1 "CONN_01X06" V 21800 11450 50  0000 C CNN
F 2 "Pin_Headers:Pin_Header_Straight_1x06_Pitch2.54mm" H 21700 11450 50  0001 C CNN
F 3 "" H 21700 11450 50  0001 C CNN
	1    21700 11450
	1    0    0    -1  
$EndComp
Wire Wire Line
	21500 11700 21400 11700
Wire Wire Line
	21400 11700 21400 12050
Text Label 21500 11300 2    60   ~ 0
WIFI_TXD
Text Label 21500 11400 2    60   ~ 0
WIFI_RXD
Text Label 20450 11400 2    60   ~ 0
WIFI_RXD2
$Comp
L MK66FX1M0VLQ18-Teensy U9
U 1 1 5ACAB29B
P 11150 22000
F 0 "U9" H 10500 25150 60  0000 C CNN
F 1 "MK66FX1M0VLQ18-Teensy" H 11300 25150 60  0000 C CNN
F 2 "Housings_QFP:LQFP-144_20x20mm_Pitch0.5mm" H 11000 24250 60  0001 C CNN
F 3 "" H 11000 24250 60  0001 C CNN
	1    11150 22000
	1    0    0    -1  
$EndComp
$Comp
L Crystal_Small Y1
U 1 1 5ACAB29C
P 10050 21250
F 0 "Y1" H 10050 21350 50  0000 C CNN
F 1 "Crystal_Small" H 10050 21150 50  0000 C CNN
F 2 "Crystals:Crystal_SMD_5032-2pin_5.0x3.2mm_HandSoldering" H 10050 21250 50  0001 C CNN
F 3 "" H 10050 21250 50  0001 C CNN
	1    10050 21250
	0    1    1    0   
$EndComp
$Comp
L Crystal_Small Y2
U 1 1 5ACAB29D
P 10050 21650
F 0 "Y2" H 10050 21750 50  0000 C CNN
F 1 "Crystal_Small" H 10050 21550 50  0000 C CNN
F 2 "Crystals:Crystal_SMD_5032-2pin_5.0x3.2mm_HandSoldering" H 10050 21650 50  0001 C CNN
F 3 "" H 10050 21650 50  0001 C CNN
	1    10050 21650
	0    1    1    0   
$EndComp
Wire Wire Line
	10050 21550 10050 21500
Wire Wire Line
	10050 21500 10250 21500
Wire Wire Line
	10050 21750 10050 21800
Wire Wire Line
	10050 21800 10250 21800
Wire Wire Line
	10250 21400 10050 21400
Wire Wire Line
	10050 21400 10050 21350
Wire Wire Line
	10250 21050 10050 21050
Wire Wire Line
	10050 21050 10050 21150
$Comp
L USB_A J8
U 1 1 5ACAB29E
P 7000 20850
F 0 "J8" H 6800 21300 50  0000 L CNN
F 1 "USB_A" H 6800 21200 50  0000 L CNN
F 2 "Connectors:USB_B" H 7150 20800 50  0001 C CNN
F 3 "" H 7150 20800 50  0001 C CNN
	1    7000 20850
	1    0    0    1   
$EndComp
$Comp
L R R1
U 1 1 5ACAB29F
P 9950 20750
F 0 "R1" V 10000 20850 50  0000 L CNN
F 1 "R" V 9950 20700 50  0000 L CNN
F 2 "Resistors_SMD:R_0805_HandSoldering" H 9950 20750 50  0001 C CNN
F 3 "" H 9950 20750 50  0001 C CNN
	1    9950 20750
	0    1    1    0   
$EndComp
$Comp
L R R2
U 1 1 5ACAB2A0
P 9950 20850
F 0 "R2" V 10000 20950 50  0000 L CNN
F 1 "R" V 9950 20800 50  0000 L CNN
F 2 "Resistors_SMD:R_0805_HandSoldering" H 9950 20850 50  0001 C CNN
F 3 "" H 9950 20850 50  0001 C CNN
	1    9950 20850
	0    1    1    0   
$EndComp
Wire Wire Line
	10050 20750 10250 20750
Wire Wire Line
	10250 20850 10050 20850
Wire Wire Line
	7300 20750 9850 20750
Wire Wire Line
	9850 20850 7300 20850
$Comp
L USB_A J10
U 1 1 5ACAB2A1
P 7000 22300
F 0 "J10" H 6800 22750 50  0000 L CNN
F 1 "USB_A" H 6800 22650 50  0000 L CNN
F 2 "Connectors:USB_B" H 7150 22250 50  0001 C CNN
F 3 "" H 7150 22250 50  0001 C CNN
	1    7000 22300
	1    0    0    1   
$EndComp
$Comp
L R R3
U 1 1 5ACAB2A2
P 9950 22200
F 0 "R3" V 10000 22300 50  0000 L CNN
F 1 "R" V 9950 22150 50  0000 L CNN
F 2 "Resistors_SMD:R_0805_HandSoldering" H 9950 22200 50  0001 C CNN
F 3 "" H 9950 22200 50  0001 C CNN
	1    9950 22200
	0    1    1    0   
$EndComp
$Comp
L R R4
U 1 1 5ACAB2A3
P 9950 22300
F 0 "R4" V 10000 22400 50  0000 L CNN
F 1 "R" V 9950 22250 50  0000 L CNN
F 2 "Resistors_SMD:R_0805_HandSoldering" H 9950 22300 50  0001 C CNN
F 3 "" H 9950 22300 50  0001 C CNN
	1    9950 22300
	0    1    1    0   
$EndComp
Wire Wire Line
	10050 22200 10250 22200
Wire Wire Line
	10250 22300 10050 22300
Wire Wire Line
	7300 22200 9850 22200
Wire Wire Line
	7300 22300 9850 22300
$Comp
L TPD3S014 U7
U 1 1 5ACBB349
P 7950 21900
F 0 "U7" H 7750 22050 60  0000 C CNN
F 1 "TPD3S014" H 8200 22200 60  0000 C CNN
F 2 "" H 7950 21650 60  0001 C CNN
F 3 "" H 7950 21650 60  0001 C CNN
	1    7950 21900
	1    0    0    -1  
$EndComp
$Comp
L L_Core_Ferrite L1
U 1 1 5ACBB76D
P 5750 17650
F 0 "L1" V 5700 17650 50  0000 C CNN
F 1 "L_Core_Ferrite" V 5860 17650 50  0000 C CNN
F 2 "" H 5750 17650 50  0001 C CNN
F 3 "" H 5750 17650 50  0001 C CNN
	1    5750 17650
	0    1    1    0   
$EndComp
$Comp
L Polyfuse F1
U 1 1 5ACBBB08
P 5300 17650
F 0 "F1" V 5200 17650 50  0000 C CNN
F 1 "Polyfuse" V 5400 17650 50  0000 C CNN
F 2 "" H 5350 17450 50  0001 L CNN
F 3 "" H 5300 17650 50  0001 C CNN
	1    5300 17650
	0    1    1    0   
$EndComp
$Comp
L VBUS #PWR039
U 1 1 5ACBD84A
P 4950 17450
F 0 "#PWR039" H 4950 17300 50  0001 C CNN
F 1 "VBUS" H 4950 17600 50  0000 C CNN
F 2 "" H 4950 17450 50  0001 C CNN
F 3 "" H 4950 17450 50  0001 C CNN
	1    4950 17450
	1    0    0    -1  
$EndComp
Wire Wire Line
	4950 17450 4950 17950
Wire Wire Line
	4950 17650 5150 17650
Wire Wire Line
	5450 17650 5600 17650
$Comp
L D D1
U 1 1 5ACBDEAA
P 6300 17500
F 0 "D1" H 6300 17600 50  0000 C CNN
F 1 "D" H 6300 17400 50  0000 C CNN
F 2 "" H 6300 17500 50  0001 C CNN
F 3 "" H 6300 17500 50  0001 C CNN
	1    6300 17500
	-1   0    0    1   
$EndComp
$Comp
L D D2
U 1 1 5ACBDF78
P 6300 17800
F 0 "D2" H 6300 17900 50  0000 C CNN
F 1 "D" H 6300 17700 50  0000 C CNN
F 2 "" H 6300 17800 50  0001 C CNN
F 3 "" H 6300 17800 50  0001 C CNN
	1    6300 17800
	-1   0    0    1   
$EndComp
Wire Wire Line
	5900 17650 6050 17650
Wire Wire Line
	6050 17500 6050 17800
Wire Wire Line
	6050 17500 6150 17500
Wire Wire Line
	6050 17800 6150 17800
Connection ~ 6050 17650
Wire Wire Line
	6450 17500 6600 17500
Wire Wire Line
	6600 17500 6600 17800
Wire Wire Line
	6600 17800 6450 17800
Connection ~ 6600 17650
$Comp
L +3V3 #PWR040
U 1 1 5ACBEF0B
P 11050 12550
F 0 "#PWR040" H 11050 12400 50  0001 C CNN
F 1 "+3V3" H 11050 12690 50  0000 C CNN
F 2 "" H 11050 12550 50  0001 C CNN
F 3 "" H 11050 12550 50  0001 C CNN
	1    11050 12550
	1    0    0    -1  
$EndComp
$Comp
L +3V3 #PWR041
U 1 1 5ACBF071
P 11900 12600
F 0 "#PWR041" H 11900 12450 50  0001 C CNN
F 1 "+3V3" H 11900 12740 50  0000 C CNN
F 2 "" H 11900 12600 50  0001 C CNN
F 3 "" H 11900 12600 50  0001 C CNN
	1    11900 12600
	1    0    0    -1  
$EndComp
Wire Wire Line
	6600 17650 7000 17650
Wire Wire Line
	7000 17650 7000 17500
$Comp
L +5V #PWR042
U 1 1 5ACC069F
P 7000 17500
F 0 "#PWR042" H 7000 17350 50  0001 C CNN
F 1 "+5V" H 7000 17640 50  0000 C CNN
F 2 "" H 7000 17500 50  0001 C CNN
F 3 "" H 7000 17500 50  0001 C CNN
	1    7000 17500
	1    0    0    -1  
$EndComp
$Comp
L +3V3 #PWR043
U 1 1 5ACC07C5
P 8600 17500
F 0 "#PWR043" H 8600 17350 50  0001 C CNN
F 1 "+3V3" H 8600 17640 50  0000 C CNN
F 2 "" H 8600 17500 50  0001 C CNN
F 3 "" H 8600 17500 50  0001 C CNN
	1    8600 17500
	1    0    0    -1  
$EndComp
Connection ~ 4950 17650
Wire Wire Line
	7950 21450 7950 21250
$Comp
L +5V #PWR044
U 1 1 5ACC0F30
P 7950 21250
F 0 "#PWR044" H 7950 21100 50  0001 C CNN
F 1 "+5V" H 7950 21390 50  0000 C CNN
F 2 "" H 7950 21250 50  0001 C CNN
F 3 "" H 7950 21250 50  0001 C CNN
	1    7950 21250
	1    0    0    -1  
$EndComp
Wire Wire Line
	7300 22100 7450 22100
Wire Wire Line
	7450 22100 7450 22000
Wire Wire Line
	8450 22000 10250 22000
Wire Wire Line
	8450 21750 8700 21750
Wire Wire Line
	8700 21750 8700 22300
Connection ~ 8700 22300
Wire Wire Line
	8450 21850 8800 21850
Wire Wire Line
	8800 21850 8800 22200
Connection ~ 8800 22200
Wire Wire Line
	7300 22400 7950 22400
Wire Wire Line
	7950 22300 7950 22500
Connection ~ 7950 22400
$Comp
L GND #PWR045
U 1 1 5ACC395C
P 7950 22500
F 0 "#PWR045" H 7950 22250 50  0001 C CNN
F 1 "GND" H 7950 22350 50  0000 C CNN
F 2 "" H 7950 22500 50  0001 C CNN
F 3 "" H 7950 22500 50  0001 C CNN
	1    7950 22500
	-1   0    0    -1  
$EndComp
$Comp
L C C7
U 1 1 5ACC413D
P 4950 18050
F 0 "C7" H 4960 18120 50  0000 L CNN
F 1 "2.2uF" H 4960 17970 50  0000 L CNN
F 2 "chordboard-footprints:C_0805_HandSoldering" H 4950 18050 50  0001 C CNN
F 3 "" H 4950 18050 50  0001 C CNN
	1    4950 18050
	1    0    0    -1  
$EndComp
$Comp
L GND #PWR046
U 1 1 5ACC42A1
P 4950 18400
F 0 "#PWR046" H 4950 18150 50  0001 C CNN
F 1 "GND" H 4950 18250 50  0000 C CNN
F 2 "" H 4950 18400 50  0001 C CNN
F 3 "" H 4950 18400 50  0001 C CNN
	1    4950 18400
	-1   0    0    -1  
$EndComp
Wire Wire Line
	4950 18150 4950 18400
Wire Wire Line
	7400 20950 7400 21300
$Comp
L GND #PWR047
U 1 1 5ACC4BBE
P 7400 21300
F 0 "#PWR047" H 7400 21050 50  0001 C CNN
F 1 "GND" H 7400 21150 50  0000 C CNN
F 2 "" H 7400 21300 50  0001 C CNN
F 3 "" H 7400 21300 50  0001 C CNN
	1    7400 21300
	-1   0    0    -1  
$EndComp
Wire Wire Line
	7300 20950 7400 20950
Wire Wire Line
	7300 21050 7400 21050
Connection ~ 7400 21050
Wire Wire Line
	7300 20650 7400 20650
Wire Wire Line
	7400 20650 7400 20400
$Comp
L VBUS #PWR048
U 1 1 5ACC52D4
P 7400 20400
F 0 "#PWR048" H 7400 20250 50  0001 C CNN
F 1 "VBUS" H 7400 20550 50  0000 C CNN
F 2 "" H 7400 20400 50  0001 C CNN
F 3 "" H 7400 20400 50  0001 C CNN
	1    7400 20400
	1    0    0    -1  
$EndComp
$Comp
L Micro_SD_Card J11
U 1 1 5ACC59C4
P 5150 23200
F 0 "J11" H 4500 23800 50  0000 C CNN
F 1 "Micro_SD_Card" H 5800 23800 50  0000 R CNN
F 2 "" H 6300 23500 50  0001 C CNN
F 3 "" H 5150 23200 50  0001 C CNN
	1    5150 23200
	-1   0    0    -1  
$EndComp
Wire Wire Line
	6050 22900 10250 22900
Wire Wire Line
	10250 23000 6050 23000
Wire Wire Line
	6050 23100 10250 23100
Wire Wire Line
	10250 23300 6050 23300
Wire Wire Line
	6050 23500 10250 23500
Wire Wire Line
	6050 23600 10250 23600
Wire Wire Line
	6050 23200 6300 23200
Wire Wire Line
	6300 23200 6300 22650
$Comp
L +3V3 #PWR049
U 1 1 5ACC6E2F
P 6300 22650
F 0 "#PWR049" H 6300 22500 50  0001 C CNN
F 1 "+3V3" H 6300 22790 50  0000 C CNN
F 2 "" H 6300 22650 50  0001 C CNN
F 3 "" H 6300 22650 50  0001 C CNN
	1    6300 22650
	1    0    0    -1  
$EndComp
Wire Wire Line
	6050 23400 6300 23400
Wire Wire Line
	6300 23400 6300 23900
$Comp
L Conn_ARM_JTAG_SWD_10 J7
U 1 1 5AD77F85
P 17050 20150
F 0 "J7" H 16950 20800 50  0000 R CNN
F 1 "Conn_ARM_JTAG_SWD_10" H 16950 20700 50  0000 R BNN
F 2 "Pin_Headers:Pin_Header_Straight_2x05_Pitch1.27mm_SMD" H 17100 19600 50  0001 L TNN
F 3 "" V 16700 18900 50  0001 C CNN
	1    17050 20150
	1    0    0    -1  
$EndComp
$Comp
L PIC16(L)F1454-I/SL U6
U 1 1 5AD7B9A0
P 5550 14500
F 0 "U6" H 3700 15100 50  0000 L CNN
F 1 "PIC16(L)F1454-I/SL" H 3700 15000 50  0000 L CNN
F 2 "Housings_SOIC:SOIC-14W_7.5x9.0mm_Pitch1.27mm" H 5550 14500 50  0001 C CNN
F 3 "" H 5550 14500 50  0001 C CNN
	1    5550 14500
	1    0    0    -1  
$EndComp
Wire Wire Line
	2900 14400 3550 14400
Wire Wire Line
	3550 14500 2900 14500
$Comp
L USB_B J6
U 1 1 5AD7C8A9
P 2600 14400
F 0 "J6" H 2400 14850 50  0000 L CNN
F 1 "USB_B" H 2400 14750 50  0000 L CNN
F 2 "Connectors:USB_B" H 2750 14350 50  0001 C CNN
F 3 "" H 2750 14350 50  0001 C CNN
	1    2600 14400
	1    0    0    -1  
$EndComp
Wire Wire Line
	2900 14200 2900 13900
$Comp
L VBUS #PWR050
U 1 1 5AD7D3EF
P 2900 13900
F 0 "#PWR050" H 2900 13750 50  0001 C CNN
F 1 "VBUS" H 2900 14050 50  0000 C CNN
F 2 "" H 2900 13900 50  0001 C CNN
F 3 "" H 2900 13900 50  0001 C CNN
	1    2900 13900
	1    0    0    -1  
$EndComp
$Comp
L VBUS #PWR051
U 1 1 5AD7D603
P 5550 13850
F 0 "#PWR051" H 5550 13700 50  0001 C CNN
F 1 "VBUS" H 5550 14000 50  0000 C CNN
F 2 "" H 5550 13850 50  0001 C CNN
F 3 "" H 5550 13850 50  0001 C CNN
	1    5550 13850
	1    0    0    -1  
$EndComp
Wire Wire Line
	5550 13850 5550 13900
$Comp
L GND #PWR052
U 1 1 5AD7DA5E
P 5550 15150
F 0 "#PWR052" H 5550 14900 50  0001 C CNN
F 1 "GND" H 5550 15000 50  0000 C CNN
F 2 "" H 5550 15150 50  0001 C CNN
F 3 "" H 5550 15150 50  0001 C CNN
	1    5550 15150
	-1   0    0    -1  
$EndComp
Wire Wire Line
	5550 15100 5550 15150
$Comp
L GND #PWR053
U 1 1 5AD7E2F3
P 2600 14950
F 0 "#PWR053" H 2600 14700 50  0001 C CNN
F 1 "GND" H 2600 14800 50  0000 C CNN
F 2 "" H 2600 14950 50  0001 C CNN
F 3 "" H 2600 14950 50  0001 C CNN
	1    2600 14950
	-1   0    0    -1  
$EndComp
Wire Wire Line
	2600 14800 2600 14950
Wire Wire Line
	2500 14800 2500 14900
Wire Wire Line
	2500 14900 2600 14900
Connection ~ 2600 14900
Text Label 2900 14400 0    60   ~ 0
DP_DEV
Text Label 2900 14500 0    60   ~ 0
DM_DEV
$EndSCHEMATC
