EESchema Schematic File Version 2
LIBS:pic16test-rescue
LIBS:power
LIBS:chordboard-components
LIBS:MCU_Microchip_PIC16
LIBS:Connector
LIBS:device
LIBS:regul
LIBS:Switch
LIBS:ESP32
LIBS:ESP32-footprints-Shem-Lib
LIBS:espressif-xess
LIBS:Kicad-Teensy
LIBS:memory
LIBS:microchip
LIBS:atmel
LIBS:Transistor
LIBS:ftdi
LIBS:texas
LIBS:ESD_Protection
LIBS:SparkFun-Connectors
LIBS:pic16test-cache
EELAYER 25 0
EELAYER END
$Descr A4 11693 8268
encoding utf-8
Sheet 3 4
Title ""
Date ""
Rev ""
Comp ""
Comment1 ""
Comment2 ""
Comment3 ""
Comment4 ""
$EndDescr
$Comp
L HT16K33 J18
U 1 1 5ADF04BB
P 4700 3250
F 0 "J18" H 4700 1900 60  0000 C CNN
F 1 "HT16K33" H 4700 4500 60  0000 C CNN
F 2 "chordboard-footprints:SOIC-28W_7.5x17.9mm_Pitch1.27mm_HANDSOLDER" H 4700 4400 60  0001 C CNN
F 3 "" H 4700 4400 60  0000 C CNN
	1    4700 3250
	1    0    0    -1  
$EndComp
Text Label 4050 2300 2    60   ~ 0
SCL5
Text Label 4050 2400 2    60   ~ 0
SDA5
$Comp
L +5V #PWR039
U 1 1 5ADF04C4
P 4050 2000
F 0 "#PWR039" H 4050 1850 50  0001 C CNN
F 1 "+5V" H 4050 2140 50  0000 C CNN
F 2 "" H 4050 2000 50  0001 C CNN
F 3 "" H 4050 2000 50  0001 C CNN
	1    4050 2000
	1    0    0    -1  
$EndComp
Wire Wire Line
	4050 2000 4050 2100
$Comp
L GND #PWR040
U 1 1 5ADF04CB
P 4050 4600
F 0 "#PWR040" H 4050 4350 50  0001 C CNN
F 1 "GND" H 4050 4450 50  0000 C CNN
F 2 "" H 4050 4600 50  0001 C CNN
F 3 "" H 4050 4600 50  0001 C CNN
	1    4050 4600
	-1   0    0    -1  
$EndComp
Wire Wire Line
	4050 4500 4050 4600
Text Label 5350 2100 0    60   ~ 0
R0
Text Label 5350 2200 0    60   ~ 0
R1
Text Label 5350 2300 0    60   ~ 0
R2
Text Label 5350 2400 0    60   ~ 0
R3
Text Label 5350 2500 0    60   ~ 0
R4
Text Label 5350 2600 0    60   ~ 0
R5
Text Label 5350 2700 0    60   ~ 0
R6
Text Label 5350 2800 0    60   ~ 0
R7
Text Label 5350 2900 0    60   ~ 0
R8
Text Label 5350 3000 0    60   ~ 0
R9
Text Label 5350 3100 0    60   ~ 0
R10
Text Label 5350 3200 0    60   ~ 0
R11
Text Label 5350 3300 0    60   ~ 0
R12
Text Label 5350 3400 0    60   ~ 0
R13
Text Label 5350 3500 0    60   ~ 0
R14
Text Label 5350 3600 0    60   ~ 0
R15
Text Label 5350 3800 0    60   ~ 0
C0
Text Label 5350 3900 0    60   ~ 0
C1
Text Label 5350 4000 0    60   ~ 0
C2
Text Label 5350 4100 0    60   ~ 0
C3
Text Label 5350 4200 0    60   ~ 0
C4
Text Label 5350 4300 0    60   ~ 0
C5
Wire Wire Line
	5350 2100 5650 2100
Wire Wire Line
	5350 2200 5650 2200
Wire Wire Line
	5350 2300 5650 2300
Wire Wire Line
	5350 2400 5650 2400
Wire Wire Line
	5350 2500 5650 2500
Wire Wire Line
	5350 2600 5650 2600
Wire Wire Line
	5350 2700 5650 2700
Wire Wire Line
	5350 2800 5650 2800
Wire Wire Line
	5350 2900 5650 2900
Wire Wire Line
	5350 3000 5650 3000
Wire Wire Line
	5350 3100 5650 3100
Wire Wire Line
	5350 3200 5650 3200
Wire Wire Line
	5350 3300 5650 3300
Wire Wire Line
	5350 3400 5650 3400
Wire Wire Line
	5350 3500 5650 3500
Wire Wire Line
	5350 3600 5650 3600
Wire Wire Line
	5350 3800 5650 3800
Wire Wire Line
	5350 3900 5650 3900
Wire Wire Line
	5350 4000 5650 4000
Wire Wire Line
	5350 4100 5650 4100
Text Label 5500 2300 0    60   ~ 0
A0
Text Label 5500 2200 0    60   ~ 0
A1
Text Label 5500 2100 0    60   ~ 0
A2
$Comp
L Conn_01x08_Male J16
U 1 1 5ADF06F7
P 5850 2400
F 0 "J16" H 5850 2800 50  0000 C CNN
F 1 "Conn_01x08_Male" H 5850 1900 50  0000 C CNN
F 2 "Pin_Headers:Pin_Header_Straight_1x08_Pitch2.54mm" H 5850 2400 50  0001 C CNN
F 3 "" H 5850 2400 50  0001 C CNN
	1    5850 2400
	-1   0    0    -1  
$EndComp
$Comp
L Conn_01x08_Male J17
U 1 1 5ADF0747
P 5850 3200
F 0 "J17" H 5850 3600 50  0000 C CNN
F 1 "Conn_01x08_Male" H 5850 2700 50  0000 C CNN
F 2 "Pin_Headers:Pin_Header_Straight_1x08_Pitch2.54mm" H 5850 3200 50  0001 C CNN
F 3 "" H 5850 3200 50  0001 C CNN
	1    5850 3200
	-1   0    0    -1  
$EndComp
$Comp
L Conn_01x08_Male J19
U 1 1 5ADF07AD
P 5850 4100
F 0 "J19" H 5850 4500 50  0000 C CNN
F 1 "Conn_01x08_Male" H 5850 3600 50  0000 C CNN
F 2 "Pin_Headers:Pin_Header_Straight_1x08_Pitch2.54mm" H 5850 4100 50  0001 C CNN
F 3 "" H 5850 4100 50  0001 C CNN
	1    5850 4100
	-1   0    0    -1  
$EndComp
Text HLabel 6850 3750 0    60   Input ~ 0
SCL
Text HLabel 6850 2700 0    60   Input ~ 0
SDA
$Comp
L BSS138 Q6
U 1 1 5ADFF12F
P 7450 3650
F 0 "Q6" H 7650 3725 50  0000 L CNN
F 1 "BSS138" H 7650 3650 50  0000 L CNN
F 2 "TO_SOT_Packages_SMD:SOT-23" H 7650 3575 50  0001 L CIN
F 3 "" H 7450 3650 50  0001 L CNN
	1    7450 3650
	0    1    1    0   
$EndComp
Wire Wire Line
	6850 3750 7250 3750
Wire Wire Line
	7650 3750 7850 3750
Text Label 7050 3750 2    60   ~ 0
SCL
Text Label 7850 3750 0    60   ~ 0
SCL5
Wire Wire Line
	7450 3350 7450 3450
$Comp
L +3.3V #PWR041
U 1 1 5ADFF13B
P 7450 3350
F 0 "#PWR041" H 7450 3200 50  0001 C CNN
F 1 "+3.3V" H 7450 3490 50  0000 C CNN
F 2 "" H 7450 3350 50  0001 C CNN
F 3 "" H 7450 3350 50  0001 C CNN
	1    7450 3350
	1    0    0    -1  
$EndComp
$Comp
L R R23
U 1 1 5ADFF148
P 7700 3550
F 0 "R23" V 7750 3650 50  0000 L CNN
F 1 "R" V 7700 3500 50  0000 L CNN
F 2 "Resistors_SMD:R_0603" H 7700 3550 50  0001 C CNN
F 3 "" H 7700 3550 50  0001 C CNN
	1    7700 3550
	1    0    0    -1  
$EndComp
Wire Wire Line
	7700 3650 7700 3750
Connection ~ 7700 3750
$Comp
L +5V #PWR042
U 1 1 5ADFF153
P 7700 3350
F 0 "#PWR042" H 7700 3200 50  0001 C CNN
F 1 "+5V" H 7700 3490 50  0000 C CNN
F 2 "" H 7700 3350 50  0001 C CNN
F 3 "" H 7700 3350 50  0001 C CNN
	1    7700 3350
	1    0    0    -1  
$EndComp
Wire Wire Line
	7700 3350 7700 3450
$Comp
L BSS138 Q5
U 1 1 5ADFF15D
P 7450 2600
F 0 "Q5" H 7650 2675 50  0000 L CNN
F 1 "BSS138" H 7650 2600 50  0000 L CNN
F 2 "TO_SOT_Packages_SMD:SOT-23" H 7650 2525 50  0001 L CIN
F 3 "" H 7450 2600 50  0001 L CNN
	1    7450 2600
	0    1    1    0   
$EndComp
Wire Wire Line
	6850 2700 7250 2700
Wire Wire Line
	7650 2700 7850 2700
Text Label 7050 2700 2    60   ~ 0
SDA
Text Label 7850 2700 0    60   ~ 0
SDA5
Wire Wire Line
	7450 2300 7450 2400
$Comp
L +3.3V #PWR043
U 1 1 5ADFF169
P 7450 2300
F 0 "#PWR043" H 7450 2150 50  0001 C CNN
F 1 "+3.3V" H 7450 2440 50  0000 C CNN
F 2 "" H 7450 2300 50  0001 C CNN
F 3 "" H 7450 2300 50  0001 C CNN
	1    7450 2300
	1    0    0    -1  
$EndComp
$Comp
L R R18
U 1 1 5ADFF176
P 7700 2500
F 0 "R18" V 7750 2600 50  0000 L CNN
F 1 "R" V 7700 2450 50  0000 L CNN
F 2 "Resistors_SMD:R_0603" H 7700 2500 50  0001 C CNN
F 3 "" H 7700 2500 50  0001 C CNN
	1    7700 2500
	1    0    0    -1  
$EndComp
Wire Wire Line
	7700 2600 7700 2700
Connection ~ 7700 2700
$Comp
L +5V #PWR044
U 1 1 5ADFF181
P 7700 2300
F 0 "#PWR044" H 7700 2150 50  0001 C CNN
F 1 "+5V" H 7700 2440 50  0000 C CNN
F 2 "" H 7700 2300 50  0001 C CNN
F 3 "" H 7700 2300 50  0001 C CNN
	1    7700 2300
	1    0    0    -1  
$EndComp
Wire Wire Line
	7700 2300 7700 2400
Wire Wire Line
	4050 2100 3450 2100
$Comp
L GND #PWR045
U 1 1 5AEA8E02
P 3450 2550
F 0 "#PWR045" H 3450 2300 50  0001 C CNN
F 1 "GND" H 3450 2400 50  0000 C CNN
F 2 "" H 3450 2550 50  0001 C CNN
F 3 "" H 3450 2550 50  0001 C CNN
	1    3450 2550
	-1   0    0    -1  
$EndComp
$Comp
L C C9
U 1 1 5AEA8E08
P 3450 2350
F 0 "C9" H 3460 2420 50  0000 L CNN
F 1 "0.1uF" H 3460 2270 50  0000 L CNN
F 2 "Capacitors_SMD:C_0603" H 3450 2350 50  0001 C CNN
F 3 "" H 3450 2350 50  0001 C CNN
	1    3450 2350
	-1   0    0    -1  
$EndComp
Wire Wire Line
	3450 2100 3450 2250
Wire Wire Line
	3450 2450 3450 2550
$EndSCHEMATC
