EESchema Schematic File Version 2
LIBS:chordboard-components
LIBS:eurocad
LIBS:Transistor
LIBS:Diode
LIBS:leftpad-cache
EELAYER 25 0
EELAYER END
$Descr A1 23386 33110 portrait
encoding utf-8
Sheet 1 1
Title ""
Date ""
Rev ""
Comp ""
Comment1 ""
Comment2 ""
Comment3 ""
Comment4 ""
$EndDescr
$Comp
L LED_ARGB LED1
U 1 1 5AA7AE0B
P 11050 9600
F 0 "LED1" H 11050 9970 50  0000 C CNN
F 1 "LED_ARGB" H 11050 9250 50  0000 C CNN
F 2 "chordboard-footprints:LED_D3.0mm-4" H 11050 9550 50  0001 C CNN
F 3 "" H 11050 9550 50  0001 C CNN
	1    11050 9600
	-1   0    0    1   
$EndComp
Wire Wire Line
	11250 9400 11550 9400
Wire Wire Line
	11250 9600 11650 9600
Wire Wire Line
	11250 9800 11750 9800
Wire Wire Line
	10850 9600 10750 9600
Wire Wire Line
	10750 9600 10750 9950
Connection ~ 11550 9400
Connection ~ 11650 9600
$Comp
L HT16K33 J1
U 1 1 5AAABC44
P 7700 10500
F 0 "J1" H 7700 9150 60  0000 C CNN
F 1 "HT16K33" H 7700 11750 60  0000 C CNN
F 2 "chordboard-footprints:SOIC-28W_7.5x17.9mm_Pitch1.27mm_HANDSOLDER" H 7700 11650 60  0001 C CNN
F 3 "" H 7700 11650 60  0000 C CNN
	1    7700 10500
	1    0    0    -1  
$EndComp
$Comp
L BSS138 Q2
U 1 1 5AAABC4B
P 7550 8100
F 0 "Q2" H 7750 8175 50  0000 L CNN
F 1 "BSS138" H 7750 8100 50  0000 L CNN
F 2 "TO_SOT_Packages_SMD:SOT-23" H 7750 8025 50  0001 L CIN
F 3 "" H 7550 8100 50  0001 L CNN
	1    7550 8100
	0    1    1    0   
$EndComp
Wire Wire Line
	7150 8200 7350 8200
Wire Wire Line
	7750 8200 7950 8200
Text Label 7150 8200 2    60   ~ 0
SCL
Text Label 7950 8200 0    60   ~ 0
SCL5
Wire Wire Line
	7550 7800 7550 7900
$Comp
L +3.3V #PWR01
U 1 1 5AAABC57
P 7550 7800
F 0 "#PWR01" H 7550 7650 50  0001 C CNN
F 1 "+3.3V" H 7550 7940 50  0000 C CNN
F 2 "" H 7550 7800 50  0001 C CNN
F 3 "" H 7550 7800 50  0001 C CNN
	1    7550 7800
	1    0    0    -1  
$EndComp
$Comp
L R R3
U 1 1 5AAABC5D
P 7300 8000
F 0 "R3" V 7350 8100 50  0000 L CNN
F 1 "R" V 7300 7950 50  0000 L CNN
F 2 "Resistors_SMD:R_1206_HandSoldering" H 7300 8000 50  0001 C CNN
F 3 "" H 7300 8000 50  0001 C CNN
	1    7300 8000
	1    0    0    -1  
$EndComp
$Comp
L R R4
U 1 1 5AAABC64
P 7800 8000
F 0 "R4" V 7850 8100 50  0000 L CNN
F 1 "R" V 7800 7950 50  0000 L CNN
F 2 "Resistors_SMD:R_1206_HandSoldering" H 7800 8000 50  0001 C CNN
F 3 "" H 7800 8000 50  0001 C CNN
	1    7800 8000
	1    0    0    -1  
$EndComp
Wire Wire Line
	7800 8100 7800 8200
Connection ~ 7800 8200
Wire Wire Line
	7300 8100 7300 8200
Connection ~ 7300 8200
$Comp
L +5V #PWR02
U 1 1 5AAABC6F
P 7800 7800
F 0 "#PWR02" H 7800 7650 50  0001 C CNN
F 1 "+5V" H 7800 7940 50  0000 C CNN
F 2 "" H 7800 7800 50  0001 C CNN
F 3 "" H 7800 7800 50  0001 C CNN
	1    7800 7800
	1    0    0    -1  
$EndComp
Wire Wire Line
	7800 7800 7800 7900
Wire Wire Line
	7300 7900 7300 7850
Wire Wire Line
	7300 7850 7550 7850
Connection ~ 7550 7850
$Comp
L BSS138 Q1
U 1 1 5AAABC79
P 7550 7050
F 0 "Q1" H 7750 7125 50  0000 L CNN
F 1 "BSS138" H 7750 7050 50  0000 L CNN
F 2 "TO_SOT_Packages_SMD:SOT-23" H 7750 6975 50  0001 L CIN
F 3 "" H 7550 7050 50  0001 L CNN
	1    7550 7050
	0    1    1    0   
$EndComp
Wire Wire Line
	7150 7150 7350 7150
Wire Wire Line
	7750 7150 7950 7150
Text Label 7150 7150 2    60   ~ 0
SDA
Text Label 7950 7150 0    60   ~ 0
SDA5
Wire Wire Line
	7550 6750 7550 6850
$Comp
L +3.3V #PWR03
U 1 1 5AAABC85
P 7550 6750
F 0 "#PWR03" H 7550 6600 50  0001 C CNN
F 1 "+3.3V" H 7550 6890 50  0000 C CNN
F 2 "" H 7550 6750 50  0001 C CNN
F 3 "" H 7550 6750 50  0001 C CNN
	1    7550 6750
	1    0    0    -1  
$EndComp
$Comp
L R R1
U 1 1 5AAABC8B
P 7300 6950
F 0 "R1" V 7350 7050 50  0000 L CNN
F 1 "R" V 7300 6900 50  0000 L CNN
F 2 "Resistors_SMD:R_1206_HandSoldering" H 7300 6950 50  0001 C CNN
F 3 "" H 7300 6950 50  0001 C CNN
	1    7300 6950
	1    0    0    -1  
$EndComp
$Comp
L R R2
U 1 1 5AAABC92
P 7800 6950
F 0 "R2" V 7850 7050 50  0000 L CNN
F 1 "R" V 7800 6900 50  0000 L CNN
F 2 "Resistors_SMD:R_1206_HandSoldering" H 7800 6950 50  0001 C CNN
F 3 "" H 7800 6950 50  0001 C CNN
	1    7800 6950
	1    0    0    -1  
$EndComp
Wire Wire Line
	7800 7050 7800 7150
Connection ~ 7800 7150
Wire Wire Line
	7300 7050 7300 7150
Connection ~ 7300 7150
$Comp
L +5V #PWR04
U 1 1 5AAABC9D
P 7800 6750
F 0 "#PWR04" H 7800 6600 50  0001 C CNN
F 1 "+5V" H 7800 6890 50  0000 C CNN
F 2 "" H 7800 6750 50  0001 C CNN
F 3 "" H 7800 6750 50  0001 C CNN
	1    7800 6750
	1    0    0    -1  
$EndComp
Wire Wire Line
	7800 6750 7800 6850
Wire Wire Line
	7300 6850 7300 6800
Wire Wire Line
	7300 6800 7550 6800
Connection ~ 7550 6800
Text Label 7050 9550 2    60   ~ 0
SCL5
Text Label 7050 9650 2    60   ~ 0
SDA5
$Comp
L +5V #PWR05
U 1 1 5AAFDBED
P 7050 9250
F 0 "#PWR05" H 7050 9100 50  0001 C CNN
F 1 "+5V" H 7050 9390 50  0000 C CNN
F 2 "" H 7050 9250 50  0001 C CNN
F 3 "" H 7050 9250 50  0001 C CNN
	1    7050 9250
	1    0    0    -1  
$EndComp
Wire Wire Line
	7050 9250 7050 9350
$Comp
L GND #PWR06
U 1 1 5AAFEA04
P 7050 11850
F 0 "#PWR06" H 7050 11600 50  0001 C CNN
F 1 "GND" H 7050 11700 50  0000 C CNN
F 2 "" H 7050 11850 50  0001 C CNN
F 3 "" H 7050 11850 50  0001 C CNN
	1    7050 11850
	-1   0    0    -1  
$EndComp
Wire Wire Line
	7050 11750 7050 11850
$Comp
L LED_ARGB LED2
U 1 1 5AB8CC86
P 12100 9600
F 0 "LED2" H 12100 9970 50  0000 C CNN
F 1 "LED_ARGB" H 12100 9250 50  0000 C CNN
F 2 "chordboard-footprints:LED_D3.0mm-4" H 12100 9550 50  0001 C CNN
F 3 "" H 12100 9550 50  0001 C CNN
	1    12100 9600
	-1   0    0    1   
$EndComp
Connection ~ 11750 9800
Wire Wire Line
	10350 9950 11900 9950
Wire Wire Line
	11900 9950 11900 9600
Connection ~ 10750 9950
Wire Wire Line
	12300 9400 12600 9400
Wire Wire Line
	12300 9600 12700 9600
Wire Wire Line
	12300 9800 12800 9800
Connection ~ 12600 9400
Connection ~ 12700 9600
Connection ~ 12800 9800
$Comp
L LED_ARGB LED3
U 1 1 5AB8EA57
P 11050 10400
F 0 "LED3" H 11050 10770 50  0000 C CNN
F 1 "LED_ARGB" H 11050 10050 50  0000 C CNN
F 2 "chordboard-footprints:LED_D3.0mm-4" H 11050 10350 50  0001 C CNN
F 3 "" H 11050 10350 50  0001 C CNN
	1    11050 10400
	-1   0    0    1   
$EndComp
Wire Wire Line
	11550 10200 11250 10200
Wire Wire Line
	11650 10400 11250 10400
Wire Wire Line
	11750 10600 11250 10600
Wire Wire Line
	10850 10400 10750 10400
Wire Wire Line
	10750 10400 10750 10750
Connection ~ 11550 10200
Connection ~ 11650 10400
$Comp
L LED_ARGB LED4
U 1 1 5AB8EA65
P 12100 10400
F 0 "LED4" H 12100 10770 50  0000 C CNN
F 1 "LED_ARGB" H 12100 10050 50  0000 C CNN
F 2 "chordboard-footprints:LED_D3.0mm-4" H 12100 10350 50  0001 C CNN
F 3 "" H 12100 10350 50  0001 C CNN
	1    12100 10400
	-1   0    0    1   
$EndComp
Connection ~ 11750 10600
Wire Wire Line
	10350 10750 11900 10750
Wire Wire Line
	11900 10750 11900 10400
Connection ~ 10750 10750
Wire Wire Line
	12600 10200 12300 10200
Wire Wire Line
	12700 10400 12300 10400
Wire Wire Line
	12800 10600 12300 10600
Connection ~ 12600 10200
Connection ~ 12700 10400
Connection ~ 12800 10600
$Comp
L LED_ARGB LED5
U 1 1 5AB8EDA8
P 11050 11200
F 0 "LED5" H 11050 11570 50  0000 C CNN
F 1 "LED_ARGB" H 11050 10850 50  0000 C CNN
F 2 "chordboard-footprints:LED_D3.0mm-4" H 11050 11150 50  0001 C CNN
F 3 "" H 11050 11150 50  0001 C CNN
	1    11050 11200
	-1   0    0    1   
$EndComp
Wire Wire Line
	11550 11000 11250 11000
Wire Wire Line
	11650 11200 11250 11200
Wire Wire Line
	11750 11400 11250 11400
Wire Wire Line
	10850 11200 10750 11200
Wire Wire Line
	10750 11200 10750 11550
Connection ~ 11550 11000
Connection ~ 11650 11200
$Comp
L LED_ARGB LED6
U 1 1 5AB8EDB6
P 12100 11200
F 0 "LED6" H 12100 11570 50  0000 C CNN
F 1 "LED_ARGB" H 12100 10850 50  0000 C CNN
F 2 "chordboard-footprints:LED_D3.0mm-4" H 12100 11150 50  0001 C CNN
F 3 "" H 12100 11150 50  0001 C CNN
	1    12100 11200
	-1   0    0    1   
$EndComp
Connection ~ 11750 11400
Wire Wire Line
	10350 11550 11900 11550
Wire Wire Line
	11900 11550 11900 11200
Connection ~ 10750 11550
Wire Wire Line
	12600 11000 12300 11000
Wire Wire Line
	12700 11200 12300 11200
Wire Wire Line
	12800 11400 12300 11400
Connection ~ 12600 11000
Connection ~ 12700 11200
Connection ~ 12800 11400
$Comp
L LED_ARGB LED7
U 1 1 5AB8EDC7
P 11050 12000
F 0 "LED7" H 11050 12370 50  0000 C CNN
F 1 "LED_ARGB" H 11050 11650 50  0000 C CNN
F 2 "chordboard-footprints:LED_D3.0mm-4" H 11050 11950 50  0001 C CNN
F 3 "" H 11050 11950 50  0001 C CNN
	1    11050 12000
	-1   0    0    1   
$EndComp
Wire Wire Line
	11550 11800 11250 11800
Wire Wire Line
	11650 12000 11250 12000
Wire Wire Line
	11750 12200 11250 12200
Wire Wire Line
	10850 12000 10750 12000
Wire Wire Line
	10750 12000 10750 12350
Connection ~ 11550 11800
Connection ~ 11650 12000
$Comp
L LED_ARGB LED8
U 1 1 5AB8EDD5
P 12100 12000
F 0 "LED8" H 12100 12370 50  0000 C CNN
F 1 "LED_ARGB" H 12100 11650 50  0000 C CNN
F 2 "chordboard-footprints:LED_D3.0mm-4" H 12100 11950 50  0001 C CNN
F 3 "" H 12100 11950 50  0001 C CNN
	1    12100 12000
	-1   0    0    1   
$EndComp
Connection ~ 11750 12200
Wire Wire Line
	10350 12350 11900 12350
Wire Wire Line
	11900 12350 11900 12000
Connection ~ 10750 12350
Wire Wire Line
	12600 11800 12300 11800
Wire Wire Line
	12700 12000 12300 12000
Wire Wire Line
	12800 12200 12300 12200
Connection ~ 12600 11800
Connection ~ 12700 12000
Connection ~ 12800 12200
$Comp
L LED_ARGB LED9
U 1 1 5AB8F8CA
P 11050 12800
F 0 "LED9" H 11050 13170 50  0000 C CNN
F 1 "LED_ARGB" H 11050 12450 50  0000 C CNN
F 2 "chordboard-footprints:LED_D3.0mm-4" H 11050 12750 50  0001 C CNN
F 3 "" H 11050 12750 50  0001 C CNN
	1    11050 12800
	-1   0    0    1   
$EndComp
Wire Wire Line
	11550 12600 11250 12600
Wire Wire Line
	11650 12800 11250 12800
Wire Wire Line
	11750 13000 11250 13000
Wire Wire Line
	10850 12800 10750 12800
Wire Wire Line
	10750 12800 10750 13150
Connection ~ 11550 12600
Connection ~ 11650 12800
$Comp
L LED_ARGB LED10
U 1 1 5AB8F8D8
P 12100 12800
F 0 "LED10" H 12100 13170 50  0000 C CNN
F 1 "LED_ARGB" H 12100 12450 50  0000 C CNN
F 2 "chordboard-footprints:LED_D3.0mm-4" H 12100 12750 50  0001 C CNN
F 3 "" H 12100 12750 50  0001 C CNN
	1    12100 12800
	-1   0    0    1   
$EndComp
Connection ~ 11750 13000
Wire Wire Line
	10350 13150 11900 13150
Wire Wire Line
	11900 13150 11900 12800
Connection ~ 10750 13150
Wire Wire Line
	12600 12600 12300 12600
Wire Wire Line
	12700 12800 12300 12800
Wire Wire Line
	12800 13000 12300 13000
Connection ~ 12600 12600
Connection ~ 12700 12800
Connection ~ 12800 13000
$Comp
L LED_ARGB LED11
U 1 1 5AB8F8E9
P 11050 13600
F 0 "LED11" H 11050 13970 50  0000 C CNN
F 1 "LED_ARGB" H 11050 13250 50  0000 C CNN
F 2 "chordboard-footprints:LED_D3.0mm-4" H 11050 13550 50  0001 C CNN
F 3 "" H 11050 13550 50  0001 C CNN
	1    11050 13600
	-1   0    0    1   
$EndComp
Wire Wire Line
	11550 13400 11250 13400
Wire Wire Line
	11650 13600 11250 13600
Wire Wire Line
	11750 13800 11250 13800
Wire Wire Line
	10850 13600 10750 13600
Wire Wire Line
	10750 13600 10750 13950
Connection ~ 11550 13400
Connection ~ 11650 13600
$Comp
L LED_ARGB LED12
U 1 1 5AB8F8F7
P 12100 13600
F 0 "LED12" H 12100 13970 50  0000 C CNN
F 1 "LED_ARGB" H 12100 13250 50  0000 C CNN
F 2 "chordboard-footprints:LED_D3.0mm-4" H 12100 13550 50  0001 C CNN
F 3 "" H 12100 13550 50  0001 C CNN
	1    12100 13600
	-1   0    0    1   
$EndComp
Connection ~ 11750 13800
Wire Wire Line
	10350 13950 11900 13950
Wire Wire Line
	11900 13950 11900 13600
Connection ~ 10750 13950
Wire Wire Line
	12600 13400 12300 13400
Wire Wire Line
	12700 13600 12300 13600
Wire Wire Line
	12800 13800 12300 13800
Connection ~ 12600 13400
Connection ~ 12700 13600
Connection ~ 12800 13800
$Comp
L LED_ARGB LED13
U 1 1 5AB8F908
P 11050 14400
F 0 "LED13" H 11050 14770 50  0000 C CNN
F 1 "LED_ARGB" H 11050 14050 50  0000 C CNN
F 2 "chordboard-footprints:LED_D3.0mm-4" H 11050 14350 50  0001 C CNN
F 3 "" H 11050 14350 50  0001 C CNN
	1    11050 14400
	-1   0    0    1   
$EndComp
Wire Wire Line
	11550 14200 11250 14200
Wire Wire Line
	11650 14400 11250 14400
Wire Wire Line
	11750 14600 11250 14600
Wire Wire Line
	10850 14400 10750 14400
Wire Wire Line
	10750 14400 10750 14750
Connection ~ 11550 14200
Connection ~ 11650 14400
$Comp
L LED_ARGB LED14
U 1 1 5AB8F916
P 12100 14400
F 0 "LED14" H 12100 14770 50  0000 C CNN
F 1 "LED_ARGB" H 12100 14050 50  0000 C CNN
F 2 "chordboard-footprints:LED_D3.0mm-4" H 12100 14350 50  0001 C CNN
F 3 "" H 12100 14350 50  0001 C CNN
	1    12100 14400
	-1   0    0    1   
$EndComp
Connection ~ 11750 14600
Wire Wire Line
	10350 14750 11900 14750
Wire Wire Line
	11900 14750 11900 14400
Connection ~ 10750 14750
Wire Wire Line
	12600 14200 12300 14200
Wire Wire Line
	12700 14400 12300 14400
Wire Wire Line
	12800 14600 12300 14600
Connection ~ 12600 14200
Connection ~ 12700 14400
Connection ~ 12800 14600
$Comp
L LED_ARGB LED15
U 1 1 5AB8F927
P 11050 15200
F 0 "LED15" H 11050 15570 50  0000 C CNN
F 1 "LED_ARGB" H 11050 14850 50  0000 C CNN
F 2 "chordboard-footprints:LED_D3.0mm-4" H 11050 15150 50  0001 C CNN
F 3 "" H 11050 15150 50  0001 C CNN
	1    11050 15200
	-1   0    0    1   
$EndComp
Wire Wire Line
	11550 15000 11250 15000
Wire Wire Line
	11650 15200 11250 15200
Wire Wire Line
	11750 15400 11250 15400
Wire Wire Line
	10850 15200 10750 15200
Wire Wire Line
	10750 15200 10750 15550
Connection ~ 11550 15000
Connection ~ 11650 15200
$Comp
L LED_ARGB LED16
U 1 1 5AB8F935
P 12100 15200
F 0 "LED16" H 12100 15570 50  0000 C CNN
F 1 "LED_ARGB" H 12100 14850 50  0000 C CNN
F 2 "chordboard-footprints:LED_D3.0mm-4" H 12100 15150 50  0001 C CNN
F 3 "" H 12100 15150 50  0001 C CNN
	1    12100 15200
	-1   0    0    1   
$EndComp
Connection ~ 11750 15400
Wire Wire Line
	10350 15550 11900 15550
Wire Wire Line
	11900 15550 11900 15200
Connection ~ 10750 15550
Wire Wire Line
	12600 15000 12300 15000
Wire Wire Line
	12700 15200 12300 15200
Wire Wire Line
	12800 15400 12300 15400
Connection ~ 12600 15000
Connection ~ 12700 15200
Connection ~ 12800 15400
$Comp
L LED_ARGB LED17
U 1 1 5AB90C12
P 11050 16000
F 0 "LED17" H 11050 16370 50  0000 C CNN
F 1 "LED_ARGB" H 11050 15650 50  0000 C CNN
F 2 "chordboard-footprints:LED_D3.0mm-4" H 11050 15950 50  0001 C CNN
F 3 "" H 11050 15950 50  0001 C CNN
	1    11050 16000
	-1   0    0    1   
$EndComp
Wire Wire Line
	11550 15800 11250 15800
Wire Wire Line
	11650 16000 11250 16000
Wire Wire Line
	11750 16200 11250 16200
Wire Wire Line
	10850 16000 10750 16000
Wire Wire Line
	10750 16000 10750 16350
Connection ~ 11550 15800
Connection ~ 11650 16000
$Comp
L LED_ARGB LED18
U 1 1 5AB90C1F
P 12100 16000
F 0 "LED18" H 12100 16370 50  0000 C CNN
F 1 "LED_ARGB" H 12100 15650 50  0000 C CNN
F 2 "chordboard-footprints:LED_D3.0mm-4" H 12100 15950 50  0001 C CNN
F 3 "" H 12100 15950 50  0001 C CNN
	1    12100 16000
	-1   0    0    1   
$EndComp
Connection ~ 11750 16200
Wire Wire Line
	10350 16350 11900 16350
Wire Wire Line
	11900 16350 11900 16000
Connection ~ 10750 16350
Wire Wire Line
	12600 15800 12300 15800
Wire Wire Line
	12700 16000 12300 16000
Wire Wire Line
	12800 16200 12300 16200
Connection ~ 12600 15800
Connection ~ 12700 16000
Connection ~ 12800 16200
$Comp
L LED_ARGB LED19
U 1 1 5AB90C2F
P 11050 16800
F 0 "LED19" H 11050 17170 50  0000 C CNN
F 1 "LED_ARGB" H 11050 16450 50  0000 C CNN
F 2 "chordboard-footprints:LED_D3.0mm-4" H 11050 16750 50  0001 C CNN
F 3 "" H 11050 16750 50  0001 C CNN
	1    11050 16800
	-1   0    0    1   
$EndComp
Wire Wire Line
	11550 16600 11250 16600
Wire Wire Line
	11650 16800 11250 16800
Wire Wire Line
	11750 17000 11250 17000
Wire Wire Line
	10850 16800 10750 16800
Wire Wire Line
	10750 16800 10750 17150
Connection ~ 11550 16600
Connection ~ 11650 16800
$Comp
L LED_ARGB LED20
U 1 1 5AB90C3C
P 12100 16800
F 0 "LED20" H 12100 17170 50  0000 C CNN
F 1 "LED_ARGB" H 12100 16450 50  0000 C CNN
F 2 "chordboard-footprints:LED_D3.0mm-4" H 12100 16750 50  0001 C CNN
F 3 "" H 12100 16750 50  0001 C CNN
	1    12100 16800
	-1   0    0    1   
$EndComp
Connection ~ 11750 17000
Wire Wire Line
	10350 17150 11900 17150
Wire Wire Line
	11900 17150 11900 16800
Connection ~ 10750 17150
Wire Wire Line
	12600 16600 12300 16600
Wire Wire Line
	12700 16800 12300 16800
Wire Wire Line
	12800 17000 12300 17000
Connection ~ 12600 16600
Connection ~ 12700 16800
Connection ~ 12800 17000
$Comp
L LED_ARGB LED21
U 1 1 5AB90C4C
P 11050 17600
F 0 "LED21" H 11050 17970 50  0000 C CNN
F 1 "LED_ARGB" H 11050 17250 50  0000 C CNN
F 2 "chordboard-footprints:LED_D3.0mm-4" H 11050 17550 50  0001 C CNN
F 3 "" H 11050 17550 50  0001 C CNN
	1    11050 17600
	-1   0    0    1   
$EndComp
Wire Wire Line
	11550 17400 11250 17400
Wire Wire Line
	11650 17600 11250 17600
Wire Wire Line
	11750 17800 11250 17800
Wire Wire Line
	10850 17600 10750 17600
Wire Wire Line
	10750 17600 10750 17950
Connection ~ 11550 17400
Connection ~ 11650 17600
$Comp
L LED_ARGB LED22
U 1 1 5AB90C59
P 12100 17600
F 0 "LED22" H 12100 17970 50  0000 C CNN
F 1 "LED_ARGB" H 12100 17250 50  0000 C CNN
F 2 "chordboard-footprints:LED_D3.0mm-4" H 12100 17550 50  0001 C CNN
F 3 "" H 12100 17550 50  0001 C CNN
	1    12100 17600
	-1   0    0    1   
$EndComp
Connection ~ 11750 17800
Wire Wire Line
	10350 17950 11900 17950
Wire Wire Line
	11900 17950 11900 17600
Connection ~ 10750 17950
Wire Wire Line
	12600 17400 12300 17400
Wire Wire Line
	12700 17600 12300 17600
Wire Wire Line
	12800 17800 12300 17800
Connection ~ 12600 17400
Connection ~ 12700 17600
Connection ~ 12800 17800
$Comp
L LED_ARGB LED23
U 1 1 5AB90C69
P 11050 18400
F 0 "LED23" H 11050 18770 50  0000 C CNN
F 1 "LED_ARGB" H 11050 18050 50  0000 C CNN
F 2 "chordboard-footprints:LED_D3.0mm-4" H 11050 18350 50  0001 C CNN
F 3 "" H 11050 18350 50  0001 C CNN
	1    11050 18400
	-1   0    0    1   
$EndComp
Wire Wire Line
	11550 18200 11250 18200
Wire Wire Line
	11650 18400 11250 18400
Wire Wire Line
	11750 18600 11250 18600
Wire Wire Line
	10850 18400 10750 18400
Wire Wire Line
	10750 18400 10750 18750
Connection ~ 11550 18200
Connection ~ 11650 18400
$Comp
L LED_ARGB LED24
U 1 1 5AB90C76
P 12100 18400
F 0 "LED24" H 12100 18770 50  0000 C CNN
F 1 "LED_ARGB" H 12100 18050 50  0000 C CNN
F 2 "chordboard-footprints:LED_D3.0mm-4" H 12100 18350 50  0001 C CNN
F 3 "" H 12100 18350 50  0001 C CNN
	1    12100 18400
	-1   0    0    1   
$EndComp
Connection ~ 11750 18600
Wire Wire Line
	10350 18750 11900 18750
Wire Wire Line
	11900 18750 11900 18400
Connection ~ 10750 18750
Wire Wire Line
	12600 18200 12300 18200
Wire Wire Line
	12700 18400 12300 18400
Wire Wire Line
	12800 18600 12300 18600
Connection ~ 12600 18200
Connection ~ 12700 18400
Connection ~ 12800 18600
$Comp
L LED_ARGB LED25
U 1 1 5AB90C86
P 11050 19200
F 0 "LED25" H 11050 19570 50  0000 C CNN
F 1 "LED_ARGB" H 11050 18850 50  0000 C CNN
F 2 "chordboard-footprints:LED_D3.0mm-4" H 11050 19150 50  0001 C CNN
F 3 "" H 11050 19150 50  0001 C CNN
	1    11050 19200
	-1   0    0    1   
$EndComp
Wire Wire Line
	11550 19000 11250 19000
Wire Wire Line
	11650 19200 11250 19200
Wire Wire Line
	11750 19400 11250 19400
Wire Wire Line
	10850 19200 10750 19200
Wire Wire Line
	10750 19200 10750 19550
Connection ~ 11550 19000
Connection ~ 11650 19200
$Comp
L LED_ARGB LED26
U 1 1 5AB90C93
P 12100 19200
F 0 "LED26" H 12100 19570 50  0000 C CNN
F 1 "LED_ARGB" H 12100 18850 50  0000 C CNN
F 2 "chordboard-footprints:LED_D3.0mm-4" H 12100 19150 50  0001 C CNN
F 3 "" H 12100 19150 50  0001 C CNN
	1    12100 19200
	-1   0    0    1   
$EndComp
Connection ~ 11750 19400
Wire Wire Line
	10350 19550 11900 19550
Wire Wire Line
	11900 19550 11900 19200
Connection ~ 10750 19550
Wire Wire Line
	12600 19000 12300 19000
Wire Wire Line
	12700 19200 12300 19200
Wire Wire Line
	12800 19400 12300 19400
Connection ~ 12600 19000
Connection ~ 12700 19200
Connection ~ 12800 19400
$Comp
L LED_ARGB LED27
U 1 1 5AB90CA3
P 11050 20000
F 0 "LED27" H 11050 20370 50  0000 C CNN
F 1 "LED_ARGB" H 11050 19650 50  0000 C CNN
F 2 "chordboard-footprints:LED_D3.0mm-4" H 11050 19950 50  0001 C CNN
F 3 "" H 11050 19950 50  0001 C CNN
	1    11050 20000
	-1   0    0    1   
$EndComp
Wire Wire Line
	11550 19800 11250 19800
Wire Wire Line
	11650 20000 11250 20000
Wire Wire Line
	11750 20200 11250 20200
Wire Wire Line
	10850 20000 10750 20000
Wire Wire Line
	10750 20000 10750 20350
Connection ~ 11550 19800
Connection ~ 11650 20000
$Comp
L LED_ARGB LED28
U 1 1 5AB90CB0
P 12100 20000
F 0 "LED28" H 12100 20370 50  0000 C CNN
F 1 "LED_ARGB" H 12100 19650 50  0000 C CNN
F 2 "chordboard-footprints:LED_D3.0mm-4" H 12100 19950 50  0001 C CNN
F 3 "" H 12100 19950 50  0001 C CNN
	1    12100 20000
	-1   0    0    1   
$EndComp
Connection ~ 11750 20200
Wire Wire Line
	10350 20350 11900 20350
Wire Wire Line
	11900 20350 11900 20000
Connection ~ 10750 20350
Wire Wire Line
	12600 19800 12300 19800
Wire Wire Line
	12700 20000 12300 20000
Wire Wire Line
	12800 20200 12300 20200
Connection ~ 12600 19800
Connection ~ 12700 20000
Connection ~ 12800 20200
$Comp
L LED_ARGB LED29
U 1 1 5AB90CC0
P 11050 20800
F 0 "LED29" H 11050 21170 50  0000 C CNN
F 1 "LED_ARGB" H 11050 20450 50  0000 C CNN
F 2 "chordboard-footprints:LED_D3.0mm-4" H 11050 20750 50  0001 C CNN
F 3 "" H 11050 20750 50  0001 C CNN
	1    11050 20800
	-1   0    0    1   
$EndComp
Wire Wire Line
	11550 20600 11250 20600
Wire Wire Line
	11650 20800 11250 20800
Wire Wire Line
	11750 21000 11250 21000
Wire Wire Line
	10850 20800 10750 20800
Wire Wire Line
	10750 20800 10750 21150
Connection ~ 11550 20600
Connection ~ 11650 20800
$Comp
L LED_ARGB LED30
U 1 1 5AB90CCD
P 12100 20800
F 0 "LED30" H 12100 21170 50  0000 C CNN
F 1 "LED_ARGB" H 12100 20450 50  0000 C CNN
F 2 "chordboard-footprints:LED_D3.0mm-4" H 12100 20750 50  0001 C CNN
F 3 "" H 12100 20750 50  0001 C CNN
	1    12100 20800
	-1   0    0    1   
$EndComp
Connection ~ 11750 21000
Wire Wire Line
	10350 21150 11900 21150
Wire Wire Line
	11900 21150 11900 20800
Connection ~ 10750 21150
Wire Wire Line
	12600 20600 12300 20600
Wire Wire Line
	12700 20800 12300 20800
Wire Wire Line
	12800 21000 12300 21000
Connection ~ 12600 20600
Connection ~ 12700 20800
Connection ~ 12800 21000
$Comp
L LED_ARGB LED31
U 1 1 5AB90CDD
P 11050 21600
F 0 "LED31" H 11050 21970 50  0000 C CNN
F 1 "LED_ARGB" H 11050 21250 50  0000 C CNN
F 2 "chordboard-footprints:LED_D3.0mm-4" H 11050 21550 50  0001 C CNN
F 3 "" H 11050 21550 50  0001 C CNN
	1    11050 21600
	-1   0    0    1   
$EndComp
Wire Wire Line
	11550 21400 11250 21400
Wire Wire Line
	11650 21600 11250 21600
Wire Wire Line
	11750 21800 11250 21800
Wire Wire Line
	10850 21600 10750 21600
Wire Wire Line
	10750 21600 10750 21950
Connection ~ 11550 21400
Connection ~ 11650 21600
$Comp
L LED_ARGB LED32
U 1 1 5AB90CEA
P 12100 21600
F 0 "LED32" H 12100 21970 50  0000 C CNN
F 1 "LED_ARGB" H 12100 21250 50  0000 C CNN
F 2 "chordboard-footprints:LED_D3.0mm-4" H 12100 21550 50  0001 C CNN
F 3 "" H 12100 21550 50  0001 C CNN
	1    12100 21600
	-1   0    0    1   
$EndComp
Connection ~ 11750 21800
Wire Wire Line
	10350 21950 11900 21950
Wire Wire Line
	11900 21950 11900 21600
Connection ~ 10750 21950
Wire Wire Line
	12600 21400 12300 21400
Wire Wire Line
	12700 21600 12300 21600
Wire Wire Line
	12800 21800 12300 21800
Connection ~ 12600 21400
Connection ~ 12700 21600
Connection ~ 12800 21800
Text Label 8350 9350 0    60   ~ 0
R0
Text Label 8350 9450 0    60   ~ 0
R1
Text Label 8350 9550 0    60   ~ 0
R2
Text Label 8350 9650 0    60   ~ 0
R3
Text Label 8350 9750 0    60   ~ 0
R4
Text Label 8350 9850 0    60   ~ 0
R5
Text Label 8350 9950 0    60   ~ 0
R6
Text Label 8350 10050 0    60   ~ 0
R7
Text Label 8350 10150 0    60   ~ 0
R8
Text Label 8350 10250 0    60   ~ 0
R9
Text Label 8350 10350 0    60   ~ 0
R10
Text Label 8350 10450 0    60   ~ 0
R11
Text Label 8350 10550 0    60   ~ 0
R12
Text Label 8350 10650 0    60   ~ 0
R13
Text Label 8350 10750 0    60   ~ 0
R14
Text Label 8350 10850 0    60   ~ 0
R15
Text Label 8350 11050 0    60   ~ 0
C0
Text Label 8350 11150 0    60   ~ 0
C1
Text Label 8350 11250 0    60   ~ 0
C2
Text Label 8350 11350 0    60   ~ 0
C3
Text Label 8350 11450 0    60   ~ 0
C4
Text Label 8350 11550 0    60   ~ 0
C5
Wire Wire Line
	11550 8750 11550 21400
Wire Wire Line
	11650 8750 11650 21600
Wire Wire Line
	11750 8750 11750 21800
Wire Wire Line
	12600 8750 12600 21400
Wire Wire Line
	12700 8750 12700 21600
Wire Wire Line
	12800 8750 12800 21800
Wire Wire Line
	8350 9350 8650 9350
Wire Wire Line
	8350 9450 8650 9450
Wire Wire Line
	8350 9550 8650 9550
Wire Wire Line
	8350 9650 8650 9650
Wire Wire Line
	8350 9750 8650 9750
Wire Wire Line
	8350 9850 8650 9850
Wire Wire Line
	8350 9950 8650 9950
Wire Wire Line
	8350 10050 8650 10050
Wire Wire Line
	8350 10150 8650 10150
Wire Wire Line
	8350 10250 8650 10250
Wire Wire Line
	8350 10350 8650 10350
Wire Wire Line
	8350 10450 8650 10450
Wire Wire Line
	8350 10550 8650 10550
Wire Wire Line
	8350 10650 8650 10650
Wire Wire Line
	8350 10750 8650 10750
Wire Wire Line
	8350 10850 8650 10850
Wire Wire Line
	8350 11050 8650 11050
Wire Wire Line
	8350 11150 8650 11150
Wire Wire Line
	8350 11250 8650 11250
Wire Wire Line
	8350 11350 8650 11350
Text Label 10350 9950 2    60   ~ 0
R0
Text Label 10350 10750 2    60   ~ 0
R1
Text Label 10350 11550 2    60   ~ 0
R2
Text Label 10350 12350 2    60   ~ 0
R3
Text Label 10350 13150 2    60   ~ 0
R4
Text Label 10350 13950 2    60   ~ 0
R5
Text Label 10350 14750 2    60   ~ 0
R6
Text Label 10350 15550 2    60   ~ 0
R7
Text Label 10350 16350 2    60   ~ 0
R8
Text Label 10350 17150 2    60   ~ 0
R9
Text Label 10350 17950 2    60   ~ 0
R10
Text Label 10350 18750 2    60   ~ 0
R11
Text Label 10350 19550 2    60   ~ 0
R12
Text Label 10350 20350 2    60   ~ 0
R13
Text Label 10350 21150 2    60   ~ 0
R14
Text Label 10350 21950 2    60   ~ 0
R15
Text Label 11550 8750 1    60   ~ 0
C0
Text Label 11650 8750 1    60   ~ 0
C1
Text Label 11750 8750 1    60   ~ 0
C2
Text Label 12600 8750 1    60   ~ 0
C3
Text Label 12700 8750 1    60   ~ 0
C4
Text Label 12800 8750 1    60   ~ 0
C5
Text Label 8650 11050 0    60   ~ 0
AD
Text Label 4800 10650 2    60   ~ 0
AD
Text Label 8650 9350 0    60   ~ 0
A2
Text Label 8650 9450 0    60   ~ 0
A1
Text Label 8650 9550 0    60   ~ 0
A0
Text Label 6150 10750 0    60   ~ 0
A2
Text Label 6150 10650 0    60   ~ 0
A1
Text Label 6150 10550 0    60   ~ 0
A0
$Comp
L R R5
U 1 1 5AB9E111
P 5500 10550
F 0 "R5" V 5550 10650 50  0000 L CNN
F 1 "R" V 5500 10500 50  0000 L CNN
F 2 "Resistors_SMD:R_1206_HandSoldering" H 5500 10550 50  0001 C CNN
F 3 "" H 5500 10550 50  0001 C CNN
	1    5500 10550
	0    1    1    0   
$EndComp
$Comp
L R R6
U 1 1 5AB9E207
P 5500 10650
F 0 "R6" V 5550 10750 50  0000 L CNN
F 1 "R" V 5500 10600 50  0000 L CNN
F 2 "Resistors_SMD:R_1206_HandSoldering" H 5500 10650 50  0001 C CNN
F 3 "" H 5500 10650 50  0001 C CNN
	1    5500 10650
	0    1    1    0   
$EndComp
$Comp
L R R7
U 1 1 5AB9E2E3
P 5500 10750
F 0 "R7" V 5550 10850 50  0000 L CNN
F 1 "R" V 5500 10700 50  0000 L CNN
F 2 "Resistors_SMD:R_1206_HandSoldering" H 5500 10750 50  0001 C CNN
F 3 "" H 5500 10750 50  0001 C CNN
	1    5500 10750
	0    1    1    0   
$EndComp
$Comp
L 1N4148 D1
U 1 1 5AB9E566
P 5000 10650
F 0 "D1" H 5000 10750 50  0000 C CNN
F 1 "1N4148" H 5000 10550 50  0000 C CNN
F 2 "Diodes_THT:D_DO-35_SOD27_Horizontal_RM10" H 5000 10475 50  0001 C CNN
F 3 "" H 5000 10650 50  0001 C CNN
	1    5000 10650
	-1   0    0    1   
$EndComp
Wire Wire Line
	4800 10650 4850 10650
Wire Wire Line
	5400 10550 5250 10550
Wire Wire Line
	5250 10550 5250 10750
Wire Wire Line
	5250 10750 5400 10750
Wire Wire Line
	5150 10650 5400 10650
Connection ~ 5250 10650
Wire Wire Line
	5600 10550 5700 10550
Wire Wire Line
	5600 10650 5700 10650
Wire Wire Line
	5600 10750 5700 10750
Text Label 8650 9650 0    60   ~ 0
K1
Text Label 8650 9750 0    60   ~ 0
K2
Text Label 8650 9850 0    60   ~ 0
K3
Text Label 8650 9950 0    60   ~ 0
K4
Text Label 8650 10050 0    60   ~ 0
K5
Text Label 8650 10150 0    60   ~ 0
K6
Text Label 8650 10250 0    60   ~ 0
K7
Text Label 8650 10350 0    60   ~ 0
K8
Text Label 8650 10450 0    60   ~ 0
K9
Text Label 8650 10550 0    60   ~ 0
K10
Text Label 8650 10650 0    60   ~ 0
K11
Text Label 8650 10750 0    60   ~ 0
K12
Text Label 8650 11150 0    60   ~ 0
KS0
Text Label 8650 11250 0    60   ~ 0
KS1
Text Label 8650 11350 0    60   ~ 0
KS2
Text Label 16150 11700 2    60   ~ 0
KS0
Text Label 16150 12000 2    60   ~ 0
KS1
Text Label 16150 12300 2    60   ~ 0
KS2
$Comp
L KSW K1
U 1 1 5ABA075D
P 17000 11600
F 0 "K1" H 16900 11650 60  0000 C CNN
F 1 "KSW" H 17150 11650 60  0000 C CNN
F 2 "chordboard-footprints:CHERRY_PCB_100H" H 17950 11650 60  0001 C CNN
F 3 "" H 17000 11600 60  0001 C CNN
	1    17000 11600
	-1   0    0    -1  
$EndComp
$Comp
L KSW K2
U 1 1 5ABA0F2A
P 17400 11600
F 0 "K2" H 17300 11650 60  0000 C CNN
F 1 "KSW" H 17550 11650 60  0000 C CNN
F 2 "chordboard-footprints:CHERRY_PCB_100H" H 18350 11650 60  0001 C CNN
F 3 "" H 17400 11600 60  0001 C CNN
	1    17400 11600
	-1   0    0    -1  
$EndComp
Wire Wire Line
	16850 11600 16850 11700
Wire Wire Line
	16600 11700 21250 11700
Wire Wire Line
	17250 11700 17250 11600
Connection ~ 16850 11700
$Comp
L KSW K3
U 1 1 5ABA167D
P 17800 11600
F 0 "K3" H 17700 11650 60  0000 C CNN
F 1 "KSW" H 17950 11650 60  0000 C CNN
F 2 "chordboard-footprints:CHERRY_PCB_100H" H 18750 11650 60  0001 C CNN
F 3 "" H 17800 11600 60  0001 C CNN
	1    17800 11600
	-1   0    0    -1  
$EndComp
Wire Wire Line
	17650 11700 17650 11600
Connection ~ 17250 11700
Wire Wire Line
	18050 11700 18050 11600
Connection ~ 17650 11700
$Comp
L KSW K4
U 1 1 5ABA1BCF
P 18200 11600
F 0 "K4" H 18100 11650 60  0000 C CNN
F 1 "KSW" H 18350 11650 60  0000 C CNN
F 2 "chordboard-footprints:CHERRY_PCB_100H" H 19150 11650 60  0001 C CNN
F 3 "" H 18200 11600 60  0001 C CNN
	1    18200 11600
	-1   0    0    -1  
$EndComp
$Comp
L KSW K5
U 1 1 5ABA1CDD
P 18600 11600
F 0 "K5" H 18500 11650 60  0000 C CNN
F 1 "KSW" H 18750 11650 60  0000 C CNN
F 2 "chordboard-footprints:CHERRY_PCB_100H" H 19550 11650 60  0001 C CNN
F 3 "" H 18600 11600 60  0001 C CNN
	1    18600 11600
	-1   0    0    -1  
$EndComp
$Comp
L KSW K6
U 1 1 5ABA1DDE
P 19000 11600
F 0 "K6" H 18900 11650 60  0000 C CNN
F 1 "KSW" H 19150 11650 60  0000 C CNN
F 2 "chordboard-footprints:CHERRY_PCB_100H" H 19950 11650 60  0001 C CNN
F 3 "" H 19000 11600 60  0001 C CNN
	1    19000 11600
	-1   0    0    -1  
$EndComp
$Comp
L KSW K7
U 1 1 5ABA1EDE
P 19400 11600
F 0 "K7" H 19300 11650 60  0000 C CNN
F 1 "KSW" H 19550 11650 60  0000 C CNN
F 2 "chordboard-footprints:CHERRY_PCB_100H" H 20350 11650 60  0001 C CNN
F 3 "" H 19400 11600 60  0001 C CNN
	1    19400 11600
	-1   0    0    -1  
$EndComp
$Comp
L KSW K8
U 1 1 5ABA202E
P 19800 11600
F 0 "K8" H 19700 11650 60  0000 C CNN
F 1 "KSW" H 19950 11650 60  0000 C CNN
F 2 "chordboard-footprints:CHERRY_PCB_100H" H 20750 11650 60  0001 C CNN
F 3 "" H 19800 11600 60  0001 C CNN
	1    19800 11600
	-1   0    0    -1  
$EndComp
$Comp
L KSW K9
U 1 1 5ABA2138
P 20200 11600
F 0 "K9" H 20100 11650 60  0000 C CNN
F 1 "KSW" H 20350 11650 60  0000 C CNN
F 2 "chordboard-footprints:CHERRY_PCB_100H" H 21150 11650 60  0001 C CNN
F 3 "" H 20200 11600 60  0001 C CNN
	1    20200 11600
	-1   0    0    -1  
$EndComp
$Comp
L KSW K10
U 1 1 5ABA2241
P 20600 11600
F 0 "K10" H 20500 11650 60  0000 C CNN
F 1 "KSW" H 20750 11650 60  0000 C CNN
F 2 "chordboard-footprints:CHERRY_PCB_100H" H 21550 11650 60  0001 C CNN
F 3 "" H 20600 11600 60  0001 C CNN
	1    20600 11600
	-1   0    0    -1  
$EndComp
$Comp
L KSW K11
U 1 1 5ABA248D
P 21000 11600
F 0 "K11" H 20900 11650 60  0000 C CNN
F 1 "KSW" H 21150 11650 60  0000 C CNN
F 2 "chordboard-footprints:CHERRY_PCB_100H" H 21950 11650 60  0001 C CNN
F 3 "" H 21000 11600 60  0001 C CNN
	1    21000 11600
	-1   0    0    -1  
$EndComp
$Comp
L KSW K12
U 1 1 5ABA259C
P 21400 11600
F 0 "K12" H 21300 11650 60  0000 C CNN
F 1 "KSW" H 21550 11650 60  0000 C CNN
F 2 "chordboard-footprints:CHERRY_PCB_100H" H 22350 11650 60  0001 C CNN
F 3 "" H 21400 11600 60  0001 C CNN
	1    21400 11600
	-1   0    0    -1  
$EndComp
Wire Wire Line
	18450 11700 18450 11600
Connection ~ 18050 11700
Wire Wire Line
	18850 11700 18850 11600
Connection ~ 18450 11700
Wire Wire Line
	19250 11700 19250 11600
Connection ~ 18850 11700
Wire Wire Line
	19650 11700 19650 11600
Connection ~ 19250 11700
Wire Wire Line
	20050 11700 20050 11600
Connection ~ 19650 11700
Wire Wire Line
	20450 11700 20450 11600
Connection ~ 20050 11700
Wire Wire Line
	20850 11700 20850 11600
Connection ~ 20450 11700
Wire Wire Line
	21250 11700 21250 11600
Connection ~ 20850 11700
$Comp
L 1N4148 D2
U 1 1 5ABA3CB7
P 16450 11700
F 0 "D2" H 16450 11800 50  0000 C CNN
F 1 "1N4148" H 16450 11600 50  0000 C CNN
F 2 "Diodes_THT:D_DO-35_SOD27_Horizontal_RM10" H 16450 11525 50  0001 C CNN
F 3 "" H 16450 11700 50  0001 C CNN
	1    16450 11700
	-1   0    0    1   
$EndComp
Wire Wire Line
	16300 11700 16150 11700
$Comp
L KSW K13
U 1 1 5ABA4267
P 17000 11900
F 0 "K13" H 16900 11950 60  0000 C CNN
F 1 "KSW" H 17150 11950 60  0000 C CNN
F 2 "chordboard-footprints:CHERRY_PCB_100H" H 17950 11950 60  0001 C CNN
F 3 "" H 17000 11900 60  0001 C CNN
	1    17000 11900
	-1   0    0    -1  
$EndComp
$Comp
L KSW K14
U 1 1 5ABA426D
P 17400 11900
F 0 "K14" H 17300 11950 60  0000 C CNN
F 1 "KSW" H 17550 11950 60  0000 C CNN
F 2 "chordboard-footprints:CHERRY_PCB_100H" H 18350 11950 60  0001 C CNN
F 3 "" H 17400 11900 60  0001 C CNN
	1    17400 11900
	-1   0    0    -1  
$EndComp
Wire Wire Line
	16850 11900 16850 12000
Wire Wire Line
	16600 12000 21250 12000
Wire Wire Line
	17250 12000 17250 11900
Connection ~ 16850 12000
$Comp
L KSW K15
U 1 1 5ABA4277
P 17800 11900
F 0 "K15" H 17700 11950 60  0000 C CNN
F 1 "KSW" H 17950 11950 60  0000 C CNN
F 2 "chordboard-footprints:CHERRY_PCB_100H" H 18750 11950 60  0001 C CNN
F 3 "" H 17800 11900 60  0001 C CNN
	1    17800 11900
	-1   0    0    -1  
$EndComp
Wire Wire Line
	17650 12000 17650 11900
Connection ~ 17250 12000
Wire Wire Line
	18050 12000 18050 11900
Connection ~ 17650 12000
$Comp
L KSW K16
U 1 1 5ABA4281
P 18200 11900
F 0 "K16" H 18100 11950 60  0000 C CNN
F 1 "KSW" H 18350 11950 60  0000 C CNN
F 2 "chordboard-footprints:CHERRY_PCB_100H" H 19150 11950 60  0001 C CNN
F 3 "" H 18200 11900 60  0001 C CNN
	1    18200 11900
	-1   0    0    -1  
$EndComp
$Comp
L KSW K17
U 1 1 5ABA4287
P 18600 11900
F 0 "K17" H 18500 11950 60  0000 C CNN
F 1 "KSW" H 18750 11950 60  0000 C CNN
F 2 "chordboard-footprints:CHERRY_PCB_100H" H 19550 11950 60  0001 C CNN
F 3 "" H 18600 11900 60  0001 C CNN
	1    18600 11900
	-1   0    0    -1  
$EndComp
$Comp
L KSW K18
U 1 1 5ABA428D
P 19000 11900
F 0 "K18" H 18900 11950 60  0000 C CNN
F 1 "KSW" H 19150 11950 60  0000 C CNN
F 2 "chordboard-footprints:CHERRY_PCB_100H" H 19950 11950 60  0001 C CNN
F 3 "" H 19000 11900 60  0001 C CNN
	1    19000 11900
	-1   0    0    -1  
$EndComp
$Comp
L KSW K19
U 1 1 5ABA4293
P 19400 11900
F 0 "K19" H 19300 11950 60  0000 C CNN
F 1 "KSW" H 19550 11950 60  0000 C CNN
F 2 "chordboard-footprints:CHERRY_PCB_100H" H 20350 11950 60  0001 C CNN
F 3 "" H 19400 11900 60  0001 C CNN
	1    19400 11900
	-1   0    0    -1  
$EndComp
$Comp
L KSW K20
U 1 1 5ABA4299
P 19800 11900
F 0 "K20" H 19700 11950 60  0000 C CNN
F 1 "KSW" H 19950 11950 60  0000 C CNN
F 2 "chordboard-footprints:CHERRY_PCB_100H" H 20750 11950 60  0001 C CNN
F 3 "" H 19800 11900 60  0001 C CNN
	1    19800 11900
	-1   0    0    -1  
$EndComp
$Comp
L KSW K21
U 1 1 5ABA429F
P 20200 11900
F 0 "K21" H 20100 11950 60  0000 C CNN
F 1 "KSW" H 20350 11950 60  0000 C CNN
F 2 "chordboard-footprints:CHERRY_PCB_100H" H 21150 11950 60  0001 C CNN
F 3 "" H 20200 11900 60  0001 C CNN
	1    20200 11900
	-1   0    0    -1  
$EndComp
$Comp
L KSW K22
U 1 1 5ABA42A5
P 20600 11900
F 0 "K22" H 20500 11950 60  0000 C CNN
F 1 "KSW" H 20750 11950 60  0000 C CNN
F 2 "chordboard-footprints:CHERRY_PCB_100H" H 21550 11950 60  0001 C CNN
F 3 "" H 20600 11900 60  0001 C CNN
	1    20600 11900
	-1   0    0    -1  
$EndComp
$Comp
L KSW K23
U 1 1 5ABA42AB
P 21000 11900
F 0 "K23" H 20900 11950 60  0000 C CNN
F 1 "KSW" H 21150 11950 60  0000 C CNN
F 2 "chordboard-footprints:CHERRY_PCB_100H" H 21950 11950 60  0001 C CNN
F 3 "" H 21000 11900 60  0001 C CNN
	1    21000 11900
	-1   0    0    -1  
$EndComp
$Comp
L KSW K24
U 1 1 5ABA42B1
P 21400 11900
F 0 "K24" H 21300 11950 60  0000 C CNN
F 1 "KSW" H 21550 11950 60  0000 C CNN
F 2 "chordboard-footprints:CHERRY_PCB_100H" H 22350 11950 60  0001 C CNN
F 3 "" H 21400 11900 60  0001 C CNN
	1    21400 11900
	-1   0    0    -1  
$EndComp
Wire Wire Line
	18450 12000 18450 11900
Connection ~ 18050 12000
Wire Wire Line
	18850 12000 18850 11900
Connection ~ 18450 12000
Wire Wire Line
	19250 12000 19250 11900
Connection ~ 18850 12000
Wire Wire Line
	19650 12000 19650 11900
Connection ~ 19250 12000
Wire Wire Line
	20050 12000 20050 11900
Connection ~ 19650 12000
Wire Wire Line
	20450 12000 20450 11900
Connection ~ 20050 12000
Wire Wire Line
	20850 12000 20850 11900
Connection ~ 20450 12000
Wire Wire Line
	21250 12000 21250 11900
Connection ~ 20850 12000
$Comp
L 1N4148 D3
U 1 1 5ABA42C7
P 16450 12000
F 0 "D3" H 16450 12100 50  0000 C CNN
F 1 "1N4148" H 16450 11900 50  0000 C CNN
F 2 "Diodes_THT:D_DO-35_SOD27_Horizontal_RM10" H 16450 11825 50  0001 C CNN
F 3 "" H 16450 12000 50  0001 C CNN
	1    16450 12000
	-1   0    0    1   
$EndComp
Wire Wire Line
	16300 12000 16150 12000
$Comp
L KSW K25
U 1 1 5ABA4692
P 17000 12200
F 0 "K25" H 16900 12250 60  0000 C CNN
F 1 "KSW" H 17150 12250 60  0000 C CNN
F 2 "chordboard-footprints:CHERRY_PCB_100H" H 17950 12250 60  0001 C CNN
F 3 "" H 17000 12200 60  0001 C CNN
	1    17000 12200
	-1   0    0    -1  
$EndComp
$Comp
L KSW K26
U 1 1 5ABA4698
P 17400 12200
F 0 "K26" H 17300 12250 60  0000 C CNN
F 1 "KSW" H 17550 12250 60  0000 C CNN
F 2 "chordboard-footprints:CHERRY_PCB_100H" H 18350 12250 60  0001 C CNN
F 3 "" H 17400 12200 60  0001 C CNN
	1    17400 12200
	-1   0    0    -1  
$EndComp
Wire Wire Line
	16850 12200 16850 12300
Wire Wire Line
	16600 12300 21250 12300
Wire Wire Line
	17250 12300 17250 12200
Connection ~ 16850 12300
$Comp
L KSW K27
U 1 1 5ABA46A2
P 17800 12200
F 0 "K27" H 17700 12250 60  0000 C CNN
F 1 "KSW" H 17950 12250 60  0000 C CNN
F 2 "chordboard-footprints:CHERRY_PCB_100H" H 18750 12250 60  0001 C CNN
F 3 "" H 17800 12200 60  0001 C CNN
	1    17800 12200
	-1   0    0    -1  
$EndComp
Wire Wire Line
	17650 12300 17650 12200
Connection ~ 17250 12300
Wire Wire Line
	18050 12300 18050 12200
Connection ~ 17650 12300
$Comp
L KSW K28
U 1 1 5ABA46AC
P 18200 12200
F 0 "K28" H 18100 12250 60  0000 C CNN
F 1 "KSW" H 18350 12250 60  0000 C CNN
F 2 "chordboard-footprints:CHERRY_PCB_100H" H 19150 12250 60  0001 C CNN
F 3 "" H 18200 12200 60  0001 C CNN
	1    18200 12200
	-1   0    0    -1  
$EndComp
$Comp
L KSW K29
U 1 1 5ABA46B2
P 18600 12200
F 0 "K29" H 18500 12250 60  0000 C CNN
F 1 "KSW" H 18750 12250 60  0000 C CNN
F 2 "chordboard-footprints:CHERRY_PCB_100H" H 19550 12250 60  0001 C CNN
F 3 "" H 18600 12200 60  0001 C CNN
	1    18600 12200
	-1   0    0    -1  
$EndComp
$Comp
L KSW K30
U 1 1 5ABA46B8
P 19000 12200
F 0 "K30" H 18900 12250 60  0000 C CNN
F 1 "KSW" H 19150 12250 60  0000 C CNN
F 2 "chordboard-footprints:CHERRY_PCB_100H" H 19950 12250 60  0001 C CNN
F 3 "" H 19000 12200 60  0001 C CNN
	1    19000 12200
	-1   0    0    -1  
$EndComp
$Comp
L KSW K31
U 1 1 5ABA46BE
P 19400 12200
F 0 "K31" H 19300 12250 60  0000 C CNN
F 1 "KSW" H 19550 12250 60  0000 C CNN
F 2 "chordboard-footprints:CHERRY_PCB_100H" H 20350 12250 60  0001 C CNN
F 3 "" H 19400 12200 60  0001 C CNN
	1    19400 12200
	-1   0    0    -1  
$EndComp
$Comp
L KSW K32
U 1 1 5ABA46C4
P 19800 12200
F 0 "K32" H 19700 12250 60  0000 C CNN
F 1 "KSW" H 19950 12250 60  0000 C CNN
F 2 "chordboard-footprints:CHERRY_PCB_100H" H 20750 12250 60  0001 C CNN
F 3 "" H 19800 12200 60  0001 C CNN
	1    19800 12200
	-1   0    0    -1  
$EndComp
$Comp
L KSW K33
U 1 1 5ABA46CA
P 20200 12200
F 0 "K33" H 20100 12250 60  0000 C CNN
F 1 "KSW" H 20350 12250 60  0000 C CNN
F 2 "chordboard-footprints:SW_PUSH_6mm" H 21150 12250 60  0001 C CNN
F 3 "" H 20200 12200 60  0001 C CNN
	1    20200 12200
	-1   0    0    -1  
$EndComp
$Comp
L KSW K34
U 1 1 5ABA46D0
P 20600 12200
F 0 "K34" H 20500 12250 60  0000 C CNN
F 1 "KSW" H 20750 12250 60  0000 C CNN
F 2 "chordboard-footprints:SW_PUSH_6mm" H 21550 12250 60  0001 C CNN
F 3 "" H 20600 12200 60  0001 C CNN
	1    20600 12200
	-1   0    0    -1  
$EndComp
$Comp
L KSW K35
U 1 1 5ABA46D6
P 21000 12200
F 0 "K35" H 20900 12250 60  0000 C CNN
F 1 "KSW" H 21150 12250 60  0000 C CNN
F 2 "chordboard-footprints:SW_PUSH_6mm" H 21950 12250 60  0001 C CNN
F 3 "" H 21000 12200 60  0001 C CNN
	1    21000 12200
	-1   0    0    -1  
$EndComp
$Comp
L KSW K36
U 1 1 5ABA46DC
P 21400 12200
F 0 "K36" H 21300 12250 60  0000 C CNN
F 1 "KSW" H 21550 12250 60  0000 C CNN
F 2 "chordboard-footprints:SW_PUSH_6mm" H 22350 12250 60  0001 C CNN
F 3 "" H 21400 12200 60  0001 C CNN
	1    21400 12200
	-1   0    0    -1  
$EndComp
Wire Wire Line
	18450 12300 18450 12200
Connection ~ 18050 12300
Wire Wire Line
	18850 12300 18850 12200
Connection ~ 18450 12300
Wire Wire Line
	19250 12300 19250 12200
Connection ~ 18850 12300
Wire Wire Line
	19650 12300 19650 12200
Connection ~ 19250 12300
Wire Wire Line
	20050 12300 20050 12200
Connection ~ 19650 12300
Wire Wire Line
	20450 12300 20450 12200
Connection ~ 20050 12300
Wire Wire Line
	20850 12300 20850 12200
Connection ~ 20450 12300
Wire Wire Line
	21250 12300 21250 12200
Connection ~ 20850 12300
$Comp
L 1N4148 D4
U 1 1 5ABA46F2
P 16450 12300
F 0 "D4" H 16450 12400 50  0000 C CNN
F 1 "1N4148" H 16450 12200 50  0000 C CNN
F 2 "Diodes_THT:D_DO-35_SOD27_Horizontal_RM10" H 16450 12125 50  0001 C CNN
F 3 "" H 16450 12300 50  0001 C CNN
	1    16450 12300
	-1   0    0    1   
$EndComp
Wire Wire Line
	16300 12300 16150 12300
Wire Wire Line
	17150 11300 17150 12200
Connection ~ 17150 11900
Connection ~ 17150 11600
Wire Wire Line
	17550 11300 17550 12200
Connection ~ 17550 11600
Connection ~ 17550 11900
Wire Wire Line
	17950 11300 17950 12200
Connection ~ 17950 11600
Connection ~ 17950 11900
Wire Wire Line
	18350 11300 18350 12200
Connection ~ 18350 11900
Connection ~ 18350 11600
Wire Wire Line
	18750 11300 18750 12200
Connection ~ 18750 11600
Connection ~ 18750 11900
Wire Wire Line
	19150 11300 19150 12200
Connection ~ 19150 11600
Connection ~ 19150 11900
Wire Wire Line
	19550 11300 19550 12200
Connection ~ 19550 11600
Connection ~ 19550 11900
Wire Wire Line
	19950 11300 19950 12200
Connection ~ 19950 11600
Connection ~ 19950 11900
Wire Wire Line
	20350 11300 20350 12200
Connection ~ 20350 11600
Connection ~ 20350 11900
Wire Wire Line
	20750 11300 20750 12200
Connection ~ 20750 11600
Connection ~ 20750 11900
Wire Wire Line
	21150 11300 21150 12200
Connection ~ 21150 11600
Connection ~ 21150 11900
Wire Wire Line
	21550 11300 21550 12200
Connection ~ 21550 11900
Connection ~ 21550 11600
Text Label 17150 11300 1    60   ~ 0
K1
Text Label 17550 11300 1    60   ~ 0
K2
Text Label 17950 11300 1    60   ~ 0
K3
Text Label 18350 11300 1    60   ~ 0
K4
Text Label 18750 11300 1    60   ~ 0
K5
Text Label 19150 11300 1    60   ~ 0
K6
Text Label 19550 11300 1    60   ~ 0
K7
Text Label 19950 11300 1    60   ~ 0
K8
Text Label 20350 11300 1    60   ~ 0
K9
Text Label 20750 11300 1    60   ~ 0
K10
Text Label 21150 11300 1    60   ~ 0
K11
Text Label 21550 11300 1    60   ~ 0
K12
$Comp
L Jumper JP1
U 1 1 5ABAC61F
P 5800 10550
F 0 "JP1" H 5750 10600 50  0000 R CNN
F 1 "Jumper" H 5850 10600 50  0000 L CNN
F 2 "Pin_Headers:Pin_Header_Straight_1x02_Pitch2.54mm" H 5800 10550 50  0001 C CNN
F 3 "" H 5800 10550 50  0001 C CNN
	1    5800 10550
	1    0    0    -1  
$EndComp
$Comp
L Jumper JP2
U 1 1 5ABAC79A
P 5800 10650
F 0 "JP2" H 5750 10700 50  0000 R CNN
F 1 "Jumper" H 5850 10700 50  0000 L CNN
F 2 "Pin_Headers:Pin_Header_Straight_1x02_Pitch2.54mm" H 5800 10650 50  0001 C CNN
F 3 "" H 5800 10650 50  0001 C CNN
	1    5800 10650
	1    0    0    -1  
$EndComp
$Comp
L Jumper JP3
U 1 1 5ABAC8FB
P 5800 10750
F 0 "JP3" H 5750 10800 50  0000 R CNN
F 1 "Jumper" H 5850 10800 50  0000 L CNN
F 2 "Pin_Headers:Pin_Header_Straight_1x02_Pitch2.54mm" H 5800 10750 50  0001 C CNN
F 3 "" H 5800 10750 50  0001 C CNN
	1    5800 10750
	1    0    0    -1  
$EndComp
Wire Wire Line
	5900 10550 6150 10550
Wire Wire Line
	6150 10650 5900 10650
Wire Wire Line
	5900 10750 6150 10750
Text Label 8650 10850 0    60   ~ 0
INT
$EndSCHEMATC
