EESchema Schematic File Version 4
LIBS:chordboard-cache
EELAYER 26 0
EELAYER END
$Descr A0 46811 33110
encoding utf-8
Sheet 1 1
Title ""
Date ""
Rev ""
Comp ""
Comment1 ""
Comment2 ""
Comment3 ""
Comment4 ""
$EndDescr
$Comp
L chordboard-components:Teensy3.6 U1
U 1 1 5BF71C9C
P 10750 10800
F 0 "U1" H 10750 13187 60  0000 C CNN
F 1 "Teensy3.6" H 10750 13081 60  0000 C CNN
F 2 "chordboard-footprints:Teensy35_36_external_pins" H 10750 10800 60  0001 C CNN
F 3 "" H 10750 10800 60  0000 C CNN
	1    10750 10800
	1    0    0    -1  
$EndComp
$Comp
L Switch:SW_SPST SW1
U 1 1 5CC03083
P 9550 11400
F 0 "SW1" H 9550 11635 50  0000 C CNN
F 1 "SW_SPST" H 9550 11544 50  0000 C CNN
F 2 "Button_Switch_THT:SW_Tactile_SPST_Angled_PTS645Vx58-2LFS" H 9550 11400 50  0001 C CNN
F 3 "" H 9550 11400 50  0001 C CNN
	1    9550 11400
	1    0    0    -1  
$EndComp
Wire Wire Line
	9350 11400 9250 11400
Wire Wire Line
	9250 11400 9250 11300
Wire Wire Line
	9250 11300 9750 11300
Text Label 9750 11700 2    50   ~ 0
TEE_RX5
Text Label 9750 11600 2    50   ~ 0
TEE_TX5
Wire Wire Line
	9750 12500 9000 12500
NoConn ~ 9750 9400
NoConn ~ 9750 9500
NoConn ~ 9750 9700
NoConn ~ 9750 9800
NoConn ~ 9750 9900
NoConn ~ 9750 10000
NoConn ~ 9750 12600
NoConn ~ 9750 12700
NoConn ~ 11750 12400
NoConn ~ 11750 12300
Text Label 11750 12200 0    50   ~ 0
AU_3V3
Text Label 11750 12300 0    50   ~ 0
AU_LRCK
NoConn ~ 11750 12200
Text Label 9750 9400 2    50   ~ 0
AU_MEMCS
Text Label 9750 9500 2    50   ~ 0
AU_MOSI
Text Label 9750 9700 2    50   ~ 0
AU_BCK
Text Label 9750 9800 2    50   ~ 0
AU_SDCS
Text Label 9750 9900 2    50   ~ 0
AU_MCK
Text Label 9750 10000 2    50   ~ 0
AU_MISO
Text Label 11750 12400 0    50   ~ 0
AU_TXD
Text Label 9750 12800 2    50   ~ 0
AU_AN
Text Label 9750 12700 2    50   ~ 0
AU_SCK
Text Label 9750 12600 2    50   ~ 0
AU_RXD
NoConn ~ 9750 12800
Text Label 22300 11150 0    50   ~ 0
ESP_TX0
Text Label 22300 11250 0    50   ~ 0
ESP_RX0
Text Label 11750 12000 0    50   ~ 0
TEE_5V
Text Label 9750 11800 2    50   ~ 0
ESP_D0
Text Label 9750 11900 2    50   ~ 0
ESP_RST
$Comp
L Connector:Screw_Terminal_01x02 J1
U 1 1 5C0AB2FB
P 13650 6550
F 0 "J1" H 13730 6542 50  0000 L CNN
F 1 "Screw_Terminal_01x02" H 13730 6451 50  0000 L CNN
F 2 "TerminalBlock_Phoenix:TerminalBlock_Phoenix_PT-1,5-2-3.5-H_1x02_P3.50mm_Horizontal" H 13650 6550 50  0001 C CNN
F 3 "~" H 13650 6550 50  0001 C CNN
	1    13650 6550
	1    0    0    -1  
$EndComp
Wire Wire Line
	13450 6550 13300 6550
Wire Wire Line
	13300 6550 13300 6350
Wire Wire Line
	13450 6650 13300 6650
Wire Wire Line
	13300 6650 13300 6850
Wire Wire Line
	9750 8700 8900 8700
Text Label 11750 12700 0    50   ~ 0
AU_SCL
NoConn ~ 11750 12700
NoConn ~ 11750 12800
Text Label 11750 12800 0    50   ~ 0
AU_SDA
Text Label 9750 9100 2    50   ~ 0
TEE_SCL2
Text Label 9750 9200 2    50   ~ 0
TEE_SDA2
$Comp
L chordboard-components:GROVE_I2C J5
U 1 1 5C0556A1
P 2100 9100
F 0 "J5" H 2427 9151 50  0000 L CNN
F 1 "GROVE_I2C" H 2427 9060 50  0000 L CNN
F 2 "Connector_JST:JST_PH_B4B-PH-K_1x04_P2.00mm_Vertical" H 2100 9100 50  0001 C CNN
F 3 "" H 2100 9100 50  0001 C CNN
	1    2100 9100
	1    0    0    -1  
$EndComp
Text Label 1900 8950 2    50   ~ 0
TEE_SCL1
Text Label 1900 9050 2    50   ~ 0
TEE_SDA1
$Comp
L chordboard-components:GROVE_I2C J3
U 1 1 5C05F809
P 3650 9100
F 0 "J3" H 3977 9151 50  0000 L CNN
F 1 "GROVE_I2C" H 3977 9060 50  0000 L CNN
F 2 "Connector_JST:JST_PH_B4B-PH-K_1x04_P2.00mm_Vertical" H 3650 9100 50  0001 C CNN
F 3 "" H 3650 9100 50  0001 C CNN
	1    3650 9100
	1    0    0    -1  
$EndComp
Text Label 3450 8950 2    50   ~ 0
TEE_SCL2
Text Label 3450 9050 2    50   ~ 0
TEE_SDA2
Text Label 3450 9250 2    50   ~ 0
TEE_GND
Text Label 1900 9250 2    50   ~ 0
TEE_GND
$Comp
L chordboard-components:GROVE_I2C J6
U 1 1 5C069D6D
P 5100 9100
F 0 "J6" H 5427 9151 50  0000 L CNN
F 1 "GROVE_I2C" H 5427 9060 50  0000 L CNN
F 2 "Connector_JST:JST_PH_B4B-PH-K_1x04_P2.00mm_Vertical" H 5100 9100 50  0001 C CNN
F 3 "" H 5100 9100 50  0001 C CNN
	1    5100 9100
	1    0    0    -1  
$EndComp
Text Label 4900 9250 2    50   ~ 0
TEE_GND
$Comp
L Mechanical:MountingHole H5
U 1 1 5C0D7422
P 10200 5750
F 0 "H5" H 10300 5796 50  0000 L CNN
F 1 "MountingHole" H 10300 5705 50  0000 L CNN
F 2 "MountingHole:MountingHole_3.2mm_M3_Pad_Via" H 10200 5750 50  0001 C CNN
F 3 "~" H 10200 5750 50  0001 C CNN
	1    10200 5750
	1    0    0    -1  
$EndComp
$Comp
L Mechanical:MountingHole H6
U 1 1 5C0D7428
P 10200 5950
F 0 "H6" H 10300 5996 50  0000 L CNN
F 1 "MountingHole" H 10300 5905 50  0000 L CNN
F 2 "MountingHole:MountingHole_3.2mm_M3_Pad_Via" H 10200 5950 50  0001 C CNN
F 3 "~" H 10200 5950 50  0001 C CNN
	1    10200 5950
	1    0    0    -1  
$EndComp
$Comp
L Mechanical:MountingHole H7
U 1 1 5C0D742E
P 10200 6150
F 0 "H7" H 10300 6196 50  0000 L CNN
F 1 "MountingHole" H 10300 6105 50  0000 L CNN
F 2 "MountingHole:MountingHole_3.2mm_M3_Pad_Via" H 10200 6150 50  0001 C CNN
F 3 "~" H 10200 6150 50  0001 C CNN
	1    10200 6150
	1    0    0    -1  
$EndComp
$Comp
L Mechanical:MountingHole H8
U 1 1 5C0D7434
P 10200 6350
F 0 "H8" H 10300 6396 50  0000 L CNN
F 1 "MountingHole" H 10300 6305 50  0000 L CNN
F 2 "MountingHole:MountingHole_3.2mm_M3_Pad_Via" H 10200 6350 50  0001 C CNN
F 3 "~" H 10200 6350 50  0001 C CNN
	1    10200 6350
	1    0    0    -1  
$EndComp
Text Label 9750 8900 2    50   ~ 0
TEE_TX1
Text Label 9750 8800 2    50   ~ 0
TEE_RX1
Text Label 9750 12000 2    50   ~ 0
TEE_SCL1_3
Text Label 9750 12100 2    50   ~ 0
TEE_SDA1_3
Text Label 9750 10900 2    50   ~ 0
TEE_RX4
Text Label 9750 11000 2    50   ~ 0
TEE_TX4
Text Label 8900 8700 2    50   ~ 0
TEE_GND
Text Label 4900 8950 2    50   ~ 0
TEE_TX1
Text Label 4900 9050 2    50   ~ 0
TEE_RX1
Text Label 4900 9150 2    50   ~ 0
TEE_5V
Wire Wire Line
	13300 6350 14350 6350
$Comp
L Device:D D3
U 1 1 5C1084FD
P 14500 6350
F 0 "D3" H 14500 6134 50  0000 C CNN
F 1 "D" H 14500 6225 50  0000 C CNN
F 2 "Diode_THT:D_DO-41_SOD81_P7.62mm_Horizontal" H 14500 6350 50  0001 C CNN
F 3 "~" H 14500 6350 50  0001 C CNN
	1    14500 6350
	-1   0    0    1   
$EndComp
Text Label 15600 6350 0    50   ~ 0
TEE_5V
Wire Wire Line
	9250 11300 9100 11300
Connection ~ 9250 11300
Text Label 9100 11300 2    50   ~ 0
TEE_GND
Text Label 9000 12500 2    50   ~ 0
TEE_GND
$Comp
L Jumper:Jumper_2_Bridged JP3
U 1 1 5C11A3EA
P 12250 6850
F 0 "JP3" H 12250 7045 50  0000 C CNN
F 1 "Jumper_2_Bridged" H 12250 6954 50  0000 C CNN
F 2 "Jumper:SolderJumper-2_P1.3mm_Bridged_RoundedPad1.0x1.5mm" H 12250 6850 50  0001 C CNN
F 3 "~" H 12250 6850 50  0001 C CNN
	1    12250 6850
	1    0    0    -1  
$EndComp
Wire Wire Line
	12050 6850 12000 6850
Text Label 9750 11200 2    50   ~ 0
TEE_3V3
Text Label 12900 6850 2    50   ~ 0
TEE_GND
NoConn ~ 11750 12100
Text Label 11750 12100 0    50   ~ 0
TEE_AGND
Text Label 12000 6850 2    50   ~ 0
ESP_GND
Wire Wire Line
	12450 6850 12900 6850
Text Label 1900 9150 2    50   ~ 0
TEE_5V
Text Label 3450 9150 2    50   ~ 0
TEE_5V
NoConn ~ 11750 11100
NoConn ~ 11750 11200
NoConn ~ 11750 11300
NoConn ~ 11750 11400
NoConn ~ 11750 11500
$Comp
L Device:R R3
U 1 1 5C18A5C6
P 16200 6350
F 0 "R3" V 15993 6350 50  0000 C CNN
F 1 "R" V 16084 6350 50  0000 C CNN
F 2 "Resistor_THT:R_Axial_DIN0204_L3.6mm_D1.6mm_P7.62mm_Horizontal" V 16130 6350 50  0001 C CNN
F 3 "~" H 16200 6350 50  0001 C CNN
	1    16200 6350
	0    1    1    0   
$EndComp
$Comp
L Device:LED D5
U 1 1 5C18A5CC
P 16500 6350
F 0 "D5" H 16491 6566 50  0000 C CNN
F 1 "LED" H 16491 6475 50  0000 C CNN
F 2 "LED_THT:LED_D1.8mm_W3.3mm_H2.4mm" H 16500 6350 50  0001 C CNN
F 3 "~" H 16500 6350 50  0001 C CNN
	1    16500 6350
	-1   0    0    1   
$EndComp
Wire Wire Line
	16650 6350 16900 6350
$Comp
L Jumper:Jumper_2_Bridged JP5
U 1 1 5C19B472
P 13100 6850
F 0 "JP5" H 13100 7045 50  0000 C CNN
F 1 "Jumper_2_Bridged" H 13100 6954 50  0000 C CNN
F 2 "Jumper:SolderJumper-2_P1.3mm_Bridged_RoundedPad1.0x1.5mm" H 13100 6850 50  0001 C CNN
F 3 "~" H 13100 6850 50  0001 C CNN
	1    13100 6850
	1    0    0    -1  
$EndComp
Text Label 13300 6850 0    50   ~ 0
IN_GND
Text Label 13300 6450 0    50   ~ 0
IN_5V
Text Label 16900 6350 0    50   ~ 0
TEE_GND
$Comp
L esp32-wrover:ESP32-WROVER U2
U 1 1 5C1A2B52
P 21450 11500
F 0 "U2" H 21425 12837 60  0000 C CNN
F 1 "ESP32-WROVER" H 21425 12731 60  0000 C CNN
F 2 "esp32-wrover:ESP32-WROVER" H 21900 11200 60  0001 C CNN
F 3 "" H 21900 11200 60  0001 C CNN
	1    21450 11500
	1    0    0    -1  
$EndComp
Text Label 23700 11250 0    50   ~ 0
TEE_TX5
Text Label 23700 11150 0    50   ~ 0
TEE_RX5
Text Label 22300 12150 0    50   ~ 0
ESP_D0
Text Label 20550 10950 2    50   ~ 0
ESP_RST
Text Label 20550 10850 2    50   ~ 0
ESP_3V3
Text Label 20550 10750 2    50   ~ 0
ESP_GND
$Comp
L Jumper:Jumper_2_Open JP7
U 1 1 5C1C6DFD
P 23050 11150
F 0 "JP7" H 23450 11250 50  0000 C CNN
F 1 "J_ESP_TX" H 23050 11250 50  0000 C CNN
F 2 "Connector_PinHeader_2.54mm:PinHeader_1x02_P2.54mm_Vertical" H 23050 11150 50  0001 C CNN
F 3 "~" H 23050 11150 50  0001 C CNN
	1    23050 11150
	1    0    0    -1  
$EndComp
$Comp
L Jumper:Jumper_2_Open JP8
U 1 1 5C1C6EDE
P 23050 11250
F 0 "JP8" H 23450 11200 50  0000 C CNN
F 1 "J_ESP_RX" H 23050 11200 50  0000 C CNN
F 2 "Connector_PinHeader_2.54mm:PinHeader_1x02_P2.54mm_Vertical" H 23050 11250 50  0001 C CNN
F 3 "~" H 23050 11250 50  0001 C CNN
	1    23050 11250
	1    0    0    -1  
$EndComp
Wire Wire Line
	22300 11150 22850 11150
Wire Wire Line
	22300 11250 22850 11250
Wire Wire Line
	23250 11150 23700 11150
Wire Wire Line
	23700 11250 23250 11250
$Comp
L Jumper:Jumper_2_Bridged JP6
U 1 1 5C1DD60C
P 19800 10850
F 0 "JP6" H 19800 11045 50  0000 C CNN
F 1 "J_ESP_3V3" H 19800 10954 50  0000 C CNN
F 2 "Jumper:SolderJumper-2_P1.3mm_Bridged_RoundedPad1.0x1.5mm" H 19800 10850 50  0001 C CNN
F 3 "~" H 19800 10850 50  0001 C CNN
	1    19800 10850
	1    0    0    -1  
$EndComp
Wire Wire Line
	20000 10850 20550 10850
$Comp
L chordboard-components:DMPCM5102 U3
U 1 1 5C1E2AD2
P 16450 12000
F 0 "U3" H 16525 11163 60  0000 C CNN
F 1 "DMPCM5102" H 16525 11269 60  0000 C CNN
F 2 "chordboard-footprints:DMPCM5102_BLACK" H 16450 12000 60  0001 C CNN
F 3 "" H 16450 12000 60  0001 C CNN
	1    16450 12000
	-1   0    0    1   
$EndComp
NoConn ~ 20550 12350
NoConn ~ 20550 12450
NoConn ~ 20550 12550
NoConn ~ 22300 12650
NoConn ~ 22300 12550
NoConn ~ 22300 12450
Wire Wire Line
	17000 11650 20550 11650
Wire Wire Line
	17000 11750 20550 11750
Wire Wire Line
	20550 11850 17000 11850
Text Label 17000 12450 0    50   ~ 0
5V
Text Label 17750 12250 0    50   ~ 0
ESP_GND
Text Label 17000 12350 0    50   ~ 0
DAC_3V3
Text Label 22300 11550 0    50   ~ 0
ESP_MISO
Text Label 22300 10950 0    50   ~ 0
ESP_MOSI
Text Label 22300 11650 0    50   ~ 0
ESP_SCK
Text Label 22300 11750 0    50   ~ 0
ESP_CS
$Comp
L chordboard-components:SD_BREAKOUT U4
U 1 1 5C23E111
P 25600 11550
F 0 "U4" H 25928 11596 50  0000 L CNN
F 1 "SD_BREAKOUT" H 25928 11505 50  0000 L CNN
F 2 "Connector_PinSocket_2.54mm:PinSocket_1x07_P2.54mm_Vertical" H 25750 11600 50  0001 C CNN
F 3 "" H 25750 11600 50  0001 C CNN
	1    25600 11550
	1    0    0    -1  
$EndComp
Text Label 25050 11450 2    50   ~ 0
ESP_GND
Text Label 25050 11650 2    50   ~ 0
ESP_3V3
Text Label 25050 11750 2    50   ~ 0
ESP_MOSI
Text Label 25050 11350 2    50   ~ 0
ESP_MISO
Text Label 25050 11550 2    50   ~ 0
ESP_SCK
Text Label 25050 11850 2    50   ~ 0
ESP_CS
Text Label 22300 12050 0    50   ~ 0
ESP_D4
Text Label 24650 11250 2    50   ~ 0
ESP_D4
Text Label 22300 11350 0    50   ~ 0
ESP_SDA
Text Label 22300 11050 0    50   ~ 0
ESP_SCL
$Comp
L Jumper:Jumper_2_Bridged JP9
U 1 1 5C243F00
P 24850 11250
F 0 "JP9" H 24850 11445 50  0000 C CNN
F 1 "J_ESP_3V3" H 24850 11354 50  0000 C CNN
F 2 "Jumper:SolderJumper-2_P1.3mm_Bridged_RoundedPad1.0x1.5mm" H 24850 11250 50  0001 C CNN
F 3 "~" H 24850 11250 50  0001 C CNN
	1    24850 11250
	1    0    0    -1  
$EndComp
Text Label 22300 10850 0    50   ~ 0
ESP_GND
NoConn ~ 22300 10750
Text Label 19500 10850 2    50   ~ 0
TEE_3V3
Wire Wire Line
	19500 10850 19600 10850
Wire Wire Line
	20550 10950 19050 10950
$Comp
L Device:R R5
U 1 1 5C255867
P 19050 10700
F 0 "R5" V 18843 10700 50  0000 C CNN
F 1 "R" V 18934 10700 50  0000 C CNN
F 2 "Resistor_THT:R_Axial_DIN0204_L3.6mm_D1.6mm_P7.62mm_Horizontal" V 18980 10700 50  0001 C CNN
F 3 "~" H 19050 10700 50  0001 C CNN
	1    19050 10700
	-1   0    0    1   
$EndComp
$Comp
L Device:R R6
U 1 1 5C25596F
P 22800 11900
F 0 "R6" V 22593 11900 50  0000 C CNN
F 1 "R" V 22684 11900 50  0000 C CNN
F 2 "Resistor_THT:R_Axial_DIN0204_L3.6mm_D1.6mm_P7.62mm_Horizontal" V 22730 11900 50  0001 C CNN
F 3 "~" H 22800 11900 50  0001 C CNN
	1    22800 11900
	-1   0    0    1   
$EndComp
Wire Wire Line
	22300 12150 22800 12150
Text Label 19050 10550 2    50   ~ 0
ESP_3V3
Text Label 22800 11750 0    50   ~ 0
ESP_3V3
$Comp
L Switch:SW_SPST SW2
U 1 1 5C25BCF8
P 18750 10950
F 0 "SW2" H 18750 11185 50  0000 C CNN
F 1 "SW_SPST" H 18750 11094 50  0000 C CNN
F 2 "Button_Switch_THT:SW_PUSH_6mm_H8mm" H 18750 10950 50  0001 C CNN
F 3 "" H 18750 10950 50  0001 C CNN
	1    18750 10950
	1    0    0    -1  
$EndComp
Wire Wire Line
	19050 10850 19050 10950
Wire Wire Line
	19050 10950 18950 10950
Connection ~ 19050 10950
Text Label 18550 10950 2    50   ~ 0
ESP_GND
$Comp
L Switch:SW_SPST SW3
U 1 1 5C26D100
P 23250 12150
F 0 "SW3" H 23250 12385 50  0000 C CNN
F 1 "SW_SPST" H 23250 12294 50  0000 C CNN
F 2 "Button_Switch_THT:SW_PUSH_6mm_H8mm" H 23250 12150 50  0001 C CNN
F 3 "" H 23250 12150 50  0001 C CNN
	1    23250 12150
	-1   0    0    -1  
$EndComp
Text Label 23450 12150 0    50   ~ 0
ESP_GND
Wire Wire Line
	22800 12050 22800 12150
Wire Wire Line
	22800 12150 23050 12150
Connection ~ 22800 12150
$Comp
L Device:R R8
U 1 1 5C29633F
P 22750 11350
F 0 "R8" V 22543 11350 50  0000 C CNN
F 1 "R" V 22634 11350 50  0000 C CNN
F 2 "Resistor_THT:R_Axial_DIN0204_L3.6mm_D1.6mm_P7.62mm_Horizontal" V 22680 11350 50  0001 C CNN
F 3 "~" H 22750 11350 50  0001 C CNN
	1    22750 11350
	0    -1   -1   0   
$EndComp
Wire Wire Line
	22300 11350 22600 11350
Wire Wire Line
	22900 11350 22950 11350
Text Label 22950 11350 0    50   ~ 0
ESP_3V3
$Comp
L Device:R R7
U 1 1 5C2A207B
P 22750 11050
F 0 "R7" V 22543 11050 50  0000 C CNN
F 1 "R" V 22634 11050 50  0000 C CNN
F 2 "Resistor_THT:R_Axial_DIN0204_L3.6mm_D1.6mm_P7.62mm_Horizontal" V 22680 11050 50  0001 C CNN
F 3 "~" H 22750 11050 50  0001 C CNN
	1    22750 11050
	0    -1   -1   0   
$EndComp
Wire Wire Line
	22300 11050 22600 11050
Text Label 22900 11050 0    50   ~ 0
ESP_3V3
Text Label 17000 12250 0    50   ~ 0
DAC_GND
$Comp
L Jumper:Jumper_2_Bridged JP10
U 1 1 5C2D9C17
P 17550 12250
F 0 "JP10" H 17550 12445 50  0000 C CNN
F 1 "J_ESP_3V3" H 17550 12354 50  0000 C CNN
F 2 "Jumper:SolderJumper-2_P1.3mm_Bridged_RoundedPad1.0x1.5mm" H 17550 12250 50  0001 C CNN
F 3 "~" H 17550 12250 50  0001 C CNN
	1    17550 12250
	1    0    0    -1  
$EndComp
Wire Wire Line
	17350 12250 17000 12250
Text Label 20550 12150 2    50   ~ 0
ESP_GND
Text Label 17000 11950 0    50   ~ 0
DAC_GND
Text Label 17000 12050 0    50   ~ 0
DAC_GND
Text Label 17000 12150 0    50   ~ 0
DAC_GND
Text Label 17000 11550 0    50   ~ 0
DAC_GND
Text Label 17000 11450 0    50   ~ 0
DAC_3V3
Text Label 20550 12050 2    50   ~ 0
ESP_RX2
Text Label 20550 12250 2    50   ~ 0
ESP_TX2
$Comp
L Switch:SW_SPST SW4
U 1 1 5C303336
P 9100 12200
F 0 "SW4" H 9100 12435 50  0000 C CNN
F 1 "SW_SPST" H 9100 12344 50  0000 C CNN
F 2 "Button_Switch_THT:SW_PUSH_6mm_H8mm" H 9100 12200 50  0001 C CNN
F 3 "" H 9100 12200 50  0001 C CNN
	1    9100 12200
	1    0    0    -1  
$EndComp
Wire Wire Line
	9300 12200 9750 12200
Text Label 8900 12200 2    50   ~ 0
TEE_GND
Text Label 19150 12050 2    50   ~ 0
TEE_TX4
Text Label 19150 12250 2    50   ~ 0
TEE_RX4
$Comp
L Jumper:Jumper_2_Open JP1
U 1 1 5C3181A0
P 19800 12050
F 0 "JP1" H 20200 12150 50  0000 C CNN
F 1 "J_ESP_TX" H 19800 12150 50  0000 C CNN
F 2 "Connector_PinHeader_2.54mm:PinHeader_1x02_P2.54mm_Vertical" H 19800 12050 50  0001 C CNN
F 3 "~" H 19800 12050 50  0001 C CNN
	1    19800 12050
	-1   0    0    -1  
$EndComp
$Comp
L Jumper:Jumper_2_Open JP2
U 1 1 5C3181A6
P 19800 12250
F 0 "JP2" H 20200 12200 50  0000 C CNN
F 1 "J_ESP_RX" H 19800 12200 50  0000 C CNN
F 2 "Connector_PinHeader_2.54mm:PinHeader_1x02_P2.54mm_Vertical" H 19800 12250 50  0001 C CNN
F 3 "~" H 19800 12250 50  0001 C CNN
	1    19800 12250
	-1   0    0    -1  
$EndComp
Wire Wire Line
	20550 12050 20000 12050
Wire Wire Line
	20550 12250 20000 12250
Wire Wire Line
	19600 12050 19150 12050
Wire Wire Line
	19150 12250 19600 12250
Text Label 9750 9600 2    50   ~ 0
TEE_TX3
$Comp
L Device:C C1
U 1 1 5C331496
P 20150 10600
F 0 "C1" H 20265 10646 50  0000 L CNN
F 1 "C" H 20265 10555 50  0000 L CNN
F 2 "Capacitor_THT:C_Disc_D3.0mm_W1.6mm_P2.50mm" H 20188 10450 50  0001 C CNN
F 3 "~" H 20150 10600 50  0001 C CNN
	1    20150 10600
	1    0    0    -1  
$EndComp
Wire Wire Line
	20550 10750 20150 10750
Text Label 20150 10450 0    50   ~ 0
ESP_3V3
Wire Wire Line
	14650 6350 16050 6350
$Comp
L chordboard-components:FTDI_MCU J2
U 1 1 5C3402EA
P 23750 13050
F 0 "J2" H 24329 13050 50  0000 L CNN
F 1 "FTDI_MCU" H 24329 12959 50  0000 L CNN
F 2 "Connector_PinHeader_2.54mm:PinHeader_1x06_P2.54mm_Horizontal" H 23750 13050 50  0001 C CNN
F 3 "~" H 23750 13050 50  0001 C CNN
	1    23750 13050
	1    0    0    -1  
$EndComp
Text Label 23550 12850 2    50   ~ 0
ESP_GND
Text Label 23550 13250 2    50   ~ 0
ESP_TX0
Text Label 23550 13150 2    50   ~ 0
ESP_RX0
$Comp
L Device:R R1
U 1 1 5C340E34
P 9150 9000
F 0 "R1" V 8943 9000 50  0000 C CNN
F 1 "R" V 9034 9000 50  0000 C CNN
F 2 "Resistor_THT:R_Axial_DIN0204_L3.6mm_D1.6mm_P7.62mm_Horizontal" V 9080 9000 50  0001 C CNN
F 3 "~" H 9150 9000 50  0001 C CNN
	1    9150 9000
	0    -1   1    0   
$EndComp
$Comp
L Device:LED D1
U 1 1 5C340E3A
P 8850 9000
F 0 "D1" H 8841 9216 50  0000 C CNN
F 1 "LED" H 8841 9125 50  0000 C CNN
F 2 "LED_THT:LED_D1.8mm_W3.3mm_H2.4mm" H 8850 9000 50  0001 C CNN
F 3 "~" H 8850 9000 50  0001 C CNN
	1    8850 9000
	1    0    0    1   
$EndComp
Wire Wire Line
	8700 9000 8450 9000
Text Label 8450 9000 2    50   ~ 0
TEE_GND
Wire Wire Line
	9750 9000 9300 9000
$Comp
L chordboard-components:FTDI_MCU J4
U 1 1 5C351FAD
P 2550 11400
F 0 "J4" H 3129 11400 50  0000 L CNN
F 1 "FTDI_MCU" H 3129 11309 50  0000 L CNN
F 2 "Connector_PinHeader_2.54mm:PinHeader_1x06_P2.54mm_Horizontal" H 2550 11400 50  0001 C CNN
F 3 "~" H 2550 11400 50  0001 C CNN
	1    2550 11400
	1    0    0    -1  
$EndComp
Text Label 2350 11600 2    50   ~ 0
TEE_TX3
Text Label 2350 11200 2    50   ~ 0
TEE_GND
$Comp
L chordboard-components:GROVE_I2C J7
U 1 1 5C354A70
P 3650 9550
F 0 "J7" H 3977 9601 50  0000 L CNN
F 1 "GROVE_I2C" H 3977 9510 50  0000 L CNN
F 2 "Connector_JST:JST_PH_B4B-PH-K_1x04_P2.00mm_Vertical" H 3650 9550 50  0001 C CNN
F 3 "" H 3650 9550 50  0001 C CNN
	1    3650 9550
	1    0    0    -1  
$EndComp
Text Label 3450 9400 2    50   ~ 0
TEE_SCL2
Text Label 3450 9500 2    50   ~ 0
TEE_SDA2
Text Label 3450 9700 2    50   ~ 0
TEE_GND
Text Label 3450 9600 2    50   ~ 0
TEE_5V
$Comp
L chordboard-components:GROVE_I2C J8
U 1 1 5C355675
P 3650 10000
F 0 "J8" H 3977 10051 50  0000 L CNN
F 1 "GROVE_I2C" H 3977 9960 50  0000 L CNN
F 2 "Connector_JST:JST_PH_B4B-PH-K_1x04_P2.00mm_Vertical" H 3650 10000 50  0001 C CNN
F 3 "" H 3650 10000 50  0001 C CNN
	1    3650 10000
	1    0    0    -1  
$EndComp
Text Label 3450 9850 2    50   ~ 0
TEE_SCL2
Text Label 3450 9950 2    50   ~ 0
TEE_SDA2
Text Label 3450 10150 2    50   ~ 0
TEE_GND
Text Label 3450 10050 2    50   ~ 0
TEE_5V
$Comp
L chordboard-components:GROVE_I2C J9
U 1 1 5C356278
P 3650 10450
F 0 "J9" H 3977 10501 50  0000 L CNN
F 1 "GROVE_I2C" H 3977 10410 50  0000 L CNN
F 2 "Connector_JST:JST_PH_B4B-PH-K_1x04_P2.00mm_Vertical" H 3650 10450 50  0001 C CNN
F 3 "" H 3650 10450 50  0001 C CNN
	1    3650 10450
	1    0    0    -1  
$EndComp
Text Label 3450 10300 2    50   ~ 0
TEE_SCL2
Text Label 3450 10400 2    50   ~ 0
TEE_SDA2
Text Label 3450 10600 2    50   ~ 0
TEE_GND
Text Label 3450 10500 2    50   ~ 0
TEE_5V
Wire Wire Line
	9750 12000 7900 12000
Wire Wire Line
	9750 12100 7750 12100
$Comp
L Device:R R10
U 1 1 5C35B7E8
P 7900 11750
F 0 "R10" V 7693 11750 50  0000 C CNN
F 1 "R" V 7784 11750 50  0000 C CNN
F 2 "Resistor_THT:R_Axial_DIN0204_L3.6mm_D1.6mm_P7.62mm_Horizontal" V 7830 11750 50  0001 C CNN
F 3 "~" H 7900 11750 50  0001 C CNN
	1    7900 11750
	1    0    0    -1  
$EndComp
$Comp
L Device:R R9
U 1 1 5C35BC0B
P 7750 11750
F 0 "R9" V 7543 11750 50  0000 C CNN
F 1 "R" V 7634 11750 50  0000 C CNN
F 2 "Resistor_THT:R_Axial_DIN0204_L3.6mm_D1.6mm_P7.62mm_Horizontal" V 7680 11750 50  0001 C CNN
F 3 "~" H 7750 11750 50  0001 C CNN
	1    7750 11750
	1    0    0    -1  
$EndComp
Wire Wire Line
	7900 11900 7900 12000
Wire Wire Line
	7350 12000 7900 12000
Connection ~ 7900 12000
Wire Wire Line
	7750 11900 7750 12100
Connection ~ 7750 12100
Wire Wire Line
	7750 12100 6850 12100
$Comp
L Transistor_FET:2N7000 Q2
U 1 1 5C35F660
P 6650 12000
F 0 "Q2" V 6900 12000 50  0000 C CNN
F 1 "2N7000" V 6991 12000 50  0000 C CNN
F 2 "Package_TO_SOT_THT:TO-92_Inline" H 6850 11925 50  0001 L CIN
F 3 "https://www.fairchildsemi.com/datasheets/2N/2N7000.pdf" H 6650 12000 50  0001 L CNN
	1    6650 12000
	0    -1   1    0   
$EndComp
$Comp
L Transistor_FET:2N7000 Q1
U 1 1 5C36087A
P 7150 11900
F 0 "Q1" V 7400 11900 50  0000 C CNN
F 1 "2N7000" V 7491 11900 50  0000 C CNN
F 2 "Package_TO_SOT_THT:TO-92_Inline" H 7350 11825 50  0001 L CIN
F 3 "https://www.fairchildsemi.com/datasheets/2N/2N7000.pdf" H 7150 11900 50  0001 L CNN
	1    7150 11900
	0    -1   1    0   
$EndComp
Wire Wire Line
	6650 11800 6650 11700
Wire Wire Line
	6650 11700 6900 11700
Wire Wire Line
	6900 11700 6900 11550
Connection ~ 6900 11700
Wire Wire Line
	6900 11700 7150 11700
Text Label 6900 11550 2    50   ~ 0
TEE_3V3
Wire Wire Line
	6950 12000 6250 12000
Wire Wire Line
	6450 12100 6100 12100
Text Label 5850 12000 2    50   ~ 0
TEE_SCL1
Text Label 5850 12100 2    50   ~ 0
TEE_SDA1
Wire Wire Line
	7750 11600 7750 11550
Wire Wire Line
	7750 11550 7800 11550
Wire Wire Line
	7900 11550 7900 11600
Text Label 7800 11450 2    50   ~ 0
TEE_3V3
Wire Wire Line
	7800 11450 7800 11550
Connection ~ 7800 11550
Wire Wire Line
	7800 11550 7900 11550
$Comp
L Device:R R2
U 1 1 5C368F88
P 6100 11750
F 0 "R2" V 5893 11750 50  0000 C CNN
F 1 "R" V 5984 11750 50  0000 C CNN
F 2 "Resistor_THT:R_Axial_DIN0204_L3.6mm_D1.6mm_P7.62mm_Horizontal" V 6030 11750 50  0001 C CNN
F 3 "~" H 6100 11750 50  0001 C CNN
	1    6100 11750
	1    0    0    -1  
$EndComp
$Comp
L Device:R R4
U 1 1 5C369030
P 6250 11750
F 0 "R4" V 6043 11750 50  0000 C CNN
F 1 "R" V 6134 11750 50  0000 C CNN
F 2 "Resistor_THT:R_Axial_DIN0204_L3.6mm_D1.6mm_P7.62mm_Horizontal" V 6180 11750 50  0001 C CNN
F 3 "~" H 6250 11750 50  0001 C CNN
	1    6250 11750
	1    0    0    -1  
$EndComp
Wire Wire Line
	6250 11900 6250 12000
Connection ~ 6250 12000
Wire Wire Line
	6250 12000 5850 12000
Wire Wire Line
	6100 11900 6100 12100
Connection ~ 6100 12100
Wire Wire Line
	6100 12100 5850 12100
Wire Wire Line
	6100 11600 6100 11550
Wire Wire Line
	6100 11550 6150 11550
Wire Wire Line
	6250 11550 6250 11600
Wire Wire Line
	6150 11550 6150 11450
Connection ~ 6150 11550
Wire Wire Line
	6150 11550 6250 11550
Text Label 6150 11450 2    50   ~ 0
TEE_5V
$Comp
L Connector_Generic:Conn_01x03 J10
U 1 1 5C370391
P 15550 12300
F 0 "J10" H 15470 12617 50  0000 C CNN
F 1 "Conn_01x03" H 15470 12526 50  0000 C CNN
F 2 "Connector_JST:JST_EH_B03B-EH-A_1x03_P2.50mm_Vertical" H 15550 12300 50  0001 C CNN
F 3 "~" H 15550 12300 50  0001 C CNN
	1    15550 12300
	-1   0    0    -1  
$EndComp
Wire Wire Line
	9750 10100 8450 10100
Wire Wire Line
	8450 10200 9750 10200
Wire Wire Line
	9750 10300 8450 10300
Wire Wire Line
	8450 10400 9750 10400
Wire Wire Line
	9750 10500 8450 10500
Wire Wire Line
	8450 10600 9750 10600
Wire Wire Line
	9750 10700 8450 10700
Wire Wire Line
	8450 10800 9750 10800
Text Label 9750 12900 2    50   ~ 0
TEE_16
Text Label 8450 10900 0    50   ~ 0
TEE_16
Text Label 8450 11000 0    50   ~ 0
TEE_17
Text Label 11750 12900 0    50   ~ 0
TEE_17
Text Label 11750 12600 0    50   ~ 0
TEE_20
Text Label 8450 9900 0    50   ~ 0
TEE_21
Text Label 11750 12500 0    50   ~ 0
TEE_21
$Comp
L Connector_Generic:Conn_01x14 J11
U 1 1 5C388C00
P 8250 10500
F 0 "J11" H 8170 11317 50  0000 C CNN
F 1 "Conn_01x14" H 8170 11226 50  0000 C CNN
F 2 "Connector_PinHeader_2.54mm:PinHeader_1x14_P2.54mm_Vertical" H 8250 10500 50  0001 C CNN
F 3 "~" H 8250 10500 50  0001 C CNN
	1    8250 10500
	-1   0    0    -1  
$EndComp
Text Label 8450 10000 0    50   ~ 0
TEE_20
Text Label 8450 11100 0    50   ~ 0
TEE_5V
Text Label 8450 11200 0    50   ~ 0
TEE_GND
$Comp
L Device:C C2
U 1 1 5C38A8E7
P 19950 10600
F 0 "C2" H 20065 10646 50  0000 L CNN
F 1 "C" H 20065 10555 50  0000 L CNN
F 2 "Capacitor_THT:C_Disc_D3.0mm_W1.6mm_P2.50mm" H 19988 10450 50  0001 C CNN
F 3 "~" H 19950 10600 50  0001 C CNN
	1    19950 10600
	1    0    0    -1  
$EndComp
Wire Wire Line
	20150 10750 19950 10750
Connection ~ 20150 10750
Wire Wire Line
	19950 10450 20150 10450
$Comp
L chordboard-components:GROVE_I2C J12
U 1 1 5C39090E
P 24650 9650
F 0 "J12" H 24977 9701 50  0000 L CNN
F 1 "GROVE_I2C" H 24977 9610 50  0000 L CNN
F 2 "Connector_JST:JST_PH_B4B-PH-K_1x04_P2.00mm_Vertical" H 24650 9650 50  0001 C CNN
F 3 "" H 24650 9650 50  0001 C CNN
	1    24650 9650
	1    0    0    -1  
$EndComp
Text Label 24450 9700 2    50   ~ 0
ESP_3V3
Text Label 24450 9800 2    50   ~ 0
ESP_GND
Text Label 24450 9500 2    50   ~ 0
ESP_SCL
Text Label 24450 9600 2    50   ~ 0
ESP_SDA
$EndSCHEMATC
