EESchema Schematic File Version 4
LIBS:chordboard-cache
EELAYER 26 0
EELAYER END
$Descr A0 46811 33110
encoding utf-8
Sheet 1 2
Title ""
Date ""
Rev ""
Comp ""
Comment1 ""
Comment2 ""
Comment3 ""
Comment4 ""
$EndDescr
$Comp
L Mechanical:MountingHole H2
U 1 1 671782CE
P 4650 6150
F 0 "H2" H 4750 6196 50  0000 L CNN
F 1 "MountingHole" H 4750 6105 50  0000 L CNN
F 2 "MountingHole:MountingHole_3.2mm_M3_Pad_Via" H 4650 6150 50  0001 C CNN
F 3 "~" H 4650 6150 50  0001 C CNN
	1    4650 6150
	1    0    0    -1  
$EndComp
$Comp
L Mechanical:MountingHole H3
U 1 1 671782D4
P 4650 6350
F 0 "H3" H 4750 6396 50  0000 L CNN
F 1 "MountingHole" H 4750 6305 50  0000 L CNN
F 2 "MountingHole:MountingHole_3.2mm_M3_Pad_Via" H 4650 6350 50  0001 C CNN
F 3 "~" H 4650 6350 50  0001 C CNN
	1    4650 6350
	1    0    0    -1  
$EndComp
$Comp
L Mechanical:MountingHole H4
U 1 1 671782DA
P 4650 6550
F 0 "H4" H 4750 6596 50  0000 L CNN
F 1 "MountingHole" H 4750 6505 50  0000 L CNN
F 2 "MountingHole:MountingHole_3.2mm_M3_Pad_Via" H 4650 6550 50  0001 C CNN
F 3 "~" H 4650 6550 50  0001 C CNN
	1    4650 6550
	1    0    0    -1  
$EndComp
$Comp
L Device:C C2
U 1 1 68CFA0F9
P 9000 2700
F 0 "C2" H 9115 2746 50  0000 L CNN
F 1 "C" H 9115 2655 50  0000 L CNN
F 2 "Capacitor_THT:C_Disc_D3.0mm_W1.6mm_P2.50mm" H 9038 2550 50  0001 C CNN
F 3 "~" H 9000 2700 50  0001 C CNN
	1    9000 2700
	1    0    0    -1  
$EndComp
$Comp
L Device:C C1
U 1 1 68CFA100
P 8800 2700
F 0 "C1" H 8915 2746 50  0000 L CNN
F 1 "C" H 8915 2655 50  0000 L CNN
F 2 "Capacitor_THT:C_Disc_D3.0mm_W1.6mm_P2.50mm" H 8838 2550 50  0001 C CNN
F 3 "~" H 8800 2700 50  0001 C CNN
	1    8800 2700
	1    0    0    -1  
$EndComp
Wire Wire Line
	8800 2850 8800 2900
Wire Wire Line
	8800 2900 8900 2900
Wire Wire Line
	9000 2900 9000 2850
Wire Wire Line
	8900 2900 8900 3050
Connection ~ 8900 2900
Wire Wire Line
	8900 2900 9000 2900
Text Label 8800 2500 2    50   ~ 0
RE1A
Text Label 9000 2500 0    50   ~ 0
RE1B
Text Label 9450 2500 2    50   ~ 0
RE2A
Text Label 9650 2500 0    50   ~ 0
RE2B
Wire Wire Line
	8900 2500 8900 2900
Wire Wire Line
	8800 2500 8800 2550
Wire Wire Line
	9000 2500 9000 2550
$Comp
L Device:C C4
U 1 1 68CFA11A
P 9650 2700
F 0 "C4" H 9765 2746 50  0000 L CNN
F 1 "C" H 9765 2655 50  0000 L CNN
F 2 "Capacitor_THT:C_Disc_D3.0mm_W1.6mm_P2.50mm" H 9688 2550 50  0001 C CNN
F 3 "~" H 9650 2700 50  0001 C CNN
	1    9650 2700
	1    0    0    -1  
$EndComp
$Comp
L Device:C C3
U 1 1 68CFA121
P 9450 2700
F 0 "C3" H 9565 2746 50  0000 L CNN
F 1 "C" H 9565 2655 50  0000 L CNN
F 2 "Capacitor_THT:C_Disc_D3.0mm_W1.6mm_P2.50mm" H 9488 2550 50  0001 C CNN
F 3 "~" H 9450 2700 50  0001 C CNN
	1    9450 2700
	1    0    0    -1  
$EndComp
Wire Wire Line
	9450 2850 9450 2900
Wire Wire Line
	9450 2900 9550 2900
Wire Wire Line
	9650 2900 9650 2850
Wire Wire Line
	9550 2900 9550 3050
Connection ~ 9550 2900
Wire Wire Line
	9550 2900 9650 2900
Wire Wire Line
	9550 2500 9550 2900
Wire Wire Line
	9450 2500 9450 2550
Wire Wire Line
	9650 2500 9650 2550
$Comp
L Device:R R1
U 1 1 5C0168EF
P 5300 7400
F 0 "R1" V 5300 7250 50  0000 C CNN
F 1 "R" V 5200 7550 50  0000 C CNN
F 2 "Resistor_THT:R_Axial_DIN0204_L3.6mm_D1.6mm_P7.62mm_Horizontal" V 5230 7400 50  0001 C CNN
F 3 "~" H 5300 7400 50  0001 C CNN
	1    5300 7400
	0    1    -1   0   
$EndComp
$Comp
L Device:LED LED1
U 1 1 5C0168F5
P 5600 7400
F 0 "LED1" H 5450 7450 50  0000 C CNN
F 1 "LED" H 5300 7450 50  0000 C CNN
F 2 "LED_THT:LED_D1.8mm_W3.3mm_H2.4mm" H 5600 7400 50  0001 C CNN
F 3 "~" H 5600 7400 50  0001 C CNN
	1    5600 7400
	-1   0    0    -1  
$EndComp
Wire Wire Line
	5750 7400 6250 7400
$Comp
L Device:R R2
U 1 1 5C01F0FE
P 5300 7500
F 0 "R2" V 5300 7350 50  0000 C CNN
F 1 "R" V 5400 7650 50  0000 C CNN
F 2 "Resistor_THT:R_Axial_DIN0204_L3.6mm_D1.6mm_P7.62mm_Horizontal" V 5230 7500 50  0001 C CNN
F 3 "~" H 5300 7500 50  0001 C CNN
	1    5300 7500
	0    1    -1   0   
$EndComp
$Comp
L Device:LED LED2
U 1 1 5C01F104
P 5600 7500
F 0 "LED2" H 5450 7550 50  0000 C CNN
F 1 "LED" H 5300 7550 50  0000 C CNN
F 2 "LED_THT:LED_D1.8mm_W3.3mm_H2.4mm" H 5600 7500 50  0001 C CNN
F 3 "~" H 5600 7500 50  0001 C CNN
	1    5600 7500
	-1   0    0    -1  
$EndComp
Wire Wire Line
	5750 7500 6250 7500
$Comp
L Device:Rotary_Encoder RE1
U 1 1 5C0422B2
P 8900 2200
F 0 "RE1" V 8891 1970 50  0000 R CNN
F 1 "Rotary_Encoder" V 8800 1970 50  0000 R CNN
F 2 "Rotary_Encoder:RotaryEncoder_Alps_EC11E_Vertical_H20mm" H 8750 2360 50  0001 C CNN
F 3 "~" H 8900 2460 50  0001 C CNN
	1    8900 2200
	0    -1   -1   0   
$EndComp
$Comp
L Device:Rotary_Encoder RE2
U 1 1 5C0452CF
P 9550 2200
F 0 "RE2" V 9541 1970 50  0000 R CNN
F 1 "Rotary_Encoder" V 9450 1970 50  0000 R CNN
F 2 "Rotary_Encoder:RotaryEncoder_Alps_EC11E_Vertical_H20mm" H 9400 2360 50  0001 C CNN
F 3 "~" H 9550 2460 50  0001 C CNN
	1    9550 2200
	0    -1   -1   0   
$EndComp
$Comp
L Switch:SW_SPST CSW2
U 1 1 5C06CF00
P 5100 7800
F 0 "CSW2" H 4550 7850 50  0000 C CNN
F 1 "SW_SPST" H 4850 7850 50  0000 C CNN
F 2 "Button_Switch_THT:SW_PUSH_6mm_H9.5mm" H 5100 7800 50  0001 C CNN
F 3 "" H 5100 7800 50  0001 C CNN
	1    5100 7800
	-1   0    0    -1  
$EndComp
$Comp
L Switch:SW_SPST CSW3
U 1 1 5C0B28B4
P 5100 7900
F 0 "CSW3" H 4550 7950 50  0000 C CNN
F 1 "SW_SPST" H 4850 7950 50  0000 C CNN
F 2 "Button_Switch_THT:SW_PUSH_6mm_H9.5mm" H 5100 7900 50  0001 C CNN
F 3 "" H 5100 7900 50  0001 C CNN
	1    5100 7900
	-1   0    0    -1  
$EndComp
$Comp
L Switch:SW_SPST CSW4
U 1 1 5C0B2995
P 5100 8000
F 0 "CSW4" H 4550 8050 50  0000 C CNN
F 1 "SW_SPST" H 4850 8050 50  0000 C CNN
F 2 "Button_Switch_THT:SW_PUSH_6mm_H9.5mm" H 5100 8000 50  0001 C CNN
F 3 "" H 5100 8000 50  0001 C CNN
	1    5100 8000
	-1   0    0    -1  
$EndComp
$Comp
L Switch:SW_SPST CSW5
U 1 1 5C0B29F5
P 5100 8100
F 0 "CSW5" H 4550 8150 50  0000 C CNN
F 1 "SW_SPST" H 4850 8150 50  0000 C CNN
F 2 "Button_Switch_THT:SW_PUSH_6mm_H9.5mm" H 5100 8100 50  0001 C CNN
F 3 "" H 5100 8100 50  0001 C CNN
	1    5100 8100
	-1   0    0    -1  
$EndComp
$Comp
L Switch:SW_SPST CSW1
U 1 1 5C0B2A57
P 5100 7700
F 0 "CSW1" H 4550 7750 50  0000 C CNN
F 1 "SW_SPST" H 4850 7750 50  0000 C CNN
F 2 "Button_Switch_THT:SW_PUSH_6mm_H9.5mm" H 5100 7700 50  0001 C CNN
F 3 "" H 5100 7700 50  0001 C CNN
	1    5100 7700
	-1   0    0    -1  
$EndComp
$Comp
L Switch:SW_SPST CSW12
U 1 1 5C0B2AC1
P 5100 8900
F 0 "CSW12" H 4550 8950 50  0000 C CNN
F 1 "SW_SPST" H 4850 8950 50  0000 C CNN
F 2 "Button_Switch_THT:SW_PUSH_6mm_H9.5mm" H 5100 8900 50  0001 C CNN
F 3 "" H 5100 8900 50  0001 C CNN
	1    5100 8900
	-1   0    0    -1  
$EndComp
$Comp
L Switch:SW_SPST CSW6
U 1 1 5C0B9233
P 5100 8300
F 0 "CSW6" H 4550 8350 50  0000 C CNN
F 1 "SW_SPST" H 4850 8350 50  0000 C CNN
F 2 "Button_Switch_THT:SW_PUSH_6mm_H9.5mm" H 5100 8300 50  0001 C CNN
F 3 "" H 5100 8300 50  0001 C CNN
	1    5100 8300
	-1   0    0    -1  
$EndComp
$Comp
L Switch:SW_SPST CSW7
U 1 1 5C0B9239
P 5100 8400
F 0 "CSW7" H 4550 8450 50  0000 C CNN
F 1 "SW_SPST" H 4850 8450 50  0000 C CNN
F 2 "Button_Switch_THT:SW_PUSH_6mm_H9.5mm" H 5100 8400 50  0001 C CNN
F 3 "" H 5100 8400 50  0001 C CNN
	1    5100 8400
	-1   0    0    -1  
$EndComp
$Comp
L Switch:SW_SPST CSW8
U 1 1 5C0B923F
P 5100 8500
F 0 "CSW8" H 4550 8550 50  0000 C CNN
F 1 "SW_SPST" H 4850 8550 50  0000 C CNN
F 2 "Button_Switch_THT:SW_PUSH_6mm_H9.5mm" H 5100 8500 50  0001 C CNN
F 3 "" H 5100 8500 50  0001 C CNN
	1    5100 8500
	-1   0    0    -1  
$EndComp
$Comp
L Switch:SW_SPST CSW9
U 1 1 5C0B9245
P 5100 8600
F 0 "CSW9" H 4550 8650 50  0000 C CNN
F 1 "SW_SPST" H 4850 8650 50  0000 C CNN
F 2 "Button_Switch_THT:SW_PUSH_6mm_H9.5mm" H 5100 8600 50  0001 C CNN
F 3 "" H 5100 8600 50  0001 C CNN
	1    5100 8600
	-1   0    0    -1  
$EndComp
$Comp
L Switch:SW_SPST CSW10
U 1 1 5C0BD122
P 5100 8700
F 0 "CSW10" H 4550 8750 50  0000 C CNN
F 1 "SW_SPST" H 4850 8750 50  0000 C CNN
F 2 "Button_Switch_THT:SW_PUSH_6mm_H9.5mm" H 5100 8700 50  0001 C CNN
F 3 "" H 5100 8700 50  0001 C CNN
	1    5100 8700
	-1   0    0    -1  
$EndComp
$Comp
L Switch:SW_SPST CSW11
U 1 1 5C0BD19C
P 5100 8800
F 0 "CSW11" H 4550 8850 50  0000 C CNN
F 1 "SW_SPST" H 4850 8850 50  0000 C CNN
F 2 "Button_Switch_THT:SW_PUSH_6mm_H9.5mm" H 5100 8800 50  0001 C CNN
F 3 "" H 5100 8800 50  0001 C CNN
	1    5100 8800
	-1   0    0    -1  
$EndComp
$Comp
L chordboard-components:GROVE_I2C J1
U 1 1 5C0C8156
P 6450 2450
F 0 "J1" H 6777 2501 50  0000 L CNN
F 1 "GROVE_I2C" H 6777 2410 50  0000 L CNN
F 2 "Connector_JST:JST_PH_B4B-PH-K_1x04_P2.00mm_Vertical" H 6450 2450 50  0001 C CNN
F 3 "" H 6450 2450 50  0001 C CNN
	1    6450 2450
	1    0    0    -1  
$EndComp
Text Label 6250 2300 2    50   ~ 0
LC_SCL
Text Label 6250 2400 2    50   ~ 0
LC_SDA
Text Label 6250 2500 2    50   ~ 0
LC_5V
Text Label 6250 2600 2    50   ~ 0
LC_GND
Text Label 9250 3100 3    50   ~ 0
LC_GND
Wire Wire Line
	8900 3050 9250 3050
Wire Wire Line
	9250 3100 9250 3050
Connection ~ 9250 3050
Wire Wire Line
	9250 3050 9550 3050
$Comp
L Device:C C6
U 1 1 5C1D0B28
P 10300 2700
F 0 "C6" H 10415 2746 50  0000 L CNN
F 1 "C" H 10415 2655 50  0000 L CNN
F 2 "Capacitor_THT:C_Disc_D3.0mm_W1.6mm_P2.50mm" H 10338 2550 50  0001 C CNN
F 3 "~" H 10300 2700 50  0001 C CNN
	1    10300 2700
	1    0    0    -1  
$EndComp
$Comp
L Device:C C5
U 1 1 5C1D0B2F
P 10100 2700
F 0 "C5" H 10215 2746 50  0000 L CNN
F 1 "C" H 10215 2655 50  0000 L CNN
F 2 "Capacitor_THT:C_Disc_D3.0mm_W1.6mm_P2.50mm" H 10138 2550 50  0001 C CNN
F 3 "~" H 10100 2700 50  0001 C CNN
	1    10100 2700
	1    0    0    -1  
$EndComp
Wire Wire Line
	10100 2850 10100 2900
Wire Wire Line
	10100 2900 10200 2900
Wire Wire Line
	10300 2900 10300 2850
Wire Wire Line
	10200 2900 10200 3050
Connection ~ 10200 2900
Wire Wire Line
	10200 2900 10300 2900
Text Label 10100 2500 2    50   ~ 0
RE3A
Text Label 10300 2500 0    50   ~ 0
RE3B
Text Label 10750 2500 2    50   ~ 0
RE4A
Text Label 10950 2500 0    50   ~ 0
RE4B
Wire Wire Line
	10200 2500 10200 2900
Wire Wire Line
	10100 2500 10100 2550
Wire Wire Line
	10300 2500 10300 2550
$Comp
L Device:C C8
U 1 1 5C1D0B43
P 10950 2700
F 0 "C8" H 11065 2746 50  0000 L CNN
F 1 "C" H 11065 2655 50  0000 L CNN
F 2 "Capacitor_THT:C_Disc_D3.0mm_W1.6mm_P2.50mm" H 10988 2550 50  0001 C CNN
F 3 "~" H 10950 2700 50  0001 C CNN
	1    10950 2700
	1    0    0    -1  
$EndComp
$Comp
L Device:C C7
U 1 1 5C1D0B4A
P 10750 2700
F 0 "C7" H 10865 2746 50  0000 L CNN
F 1 "C" H 10865 2655 50  0000 L CNN
F 2 "Capacitor_THT:C_Disc_D3.0mm_W1.6mm_P2.50mm" H 10788 2550 50  0001 C CNN
F 3 "~" H 10750 2700 50  0001 C CNN
	1    10750 2700
	1    0    0    -1  
$EndComp
Wire Wire Line
	10750 2850 10750 2900
Wire Wire Line
	10750 2900 10850 2900
Wire Wire Line
	10950 2900 10950 2850
Wire Wire Line
	10850 2900 10850 3050
Connection ~ 10850 2900
Wire Wire Line
	10850 2900 10950 2900
Wire Wire Line
	10850 2500 10850 2900
Wire Wire Line
	10750 2500 10750 2550
Wire Wire Line
	10950 2500 10950 2550
$Comp
L Device:Rotary_Encoder RE3
U 1 1 5C1D0B5A
P 10200 2200
F 0 "RE3" V 10191 1970 50  0000 R CNN
F 1 "Rotary_Encoder" V 10100 1970 50  0000 R CNN
F 2 "Rotary_Encoder:RotaryEncoder_Alps_EC11E_Vertical_H20mm" H 10050 2360 50  0001 C CNN
F 3 "~" H 10200 2460 50  0001 C CNN
	1    10200 2200
	0    -1   -1   0   
$EndComp
$Comp
L Device:Rotary_Encoder RE4
U 1 1 5C1D0B61
P 10850 2200
F 0 "RE4" V 10841 1970 50  0000 R CNN
F 1 "Rotary_Encoder" V 10750 1970 50  0000 R CNN
F 2 "Rotary_Encoder:RotaryEncoder_Alps_EC11E_Vertical_H20mm" H 10700 2360 50  0001 C CNN
F 3 "~" H 10850 2460 50  0001 C CNN
	1    10850 2200
	0    -1   -1   0   
$EndComp
Text Label 10550 3100 3    50   ~ 0
LC_GND
Wire Wire Line
	10200 3050 10550 3050
Wire Wire Line
	10550 3100 10550 3050
Connection ~ 10550 3050
Wire Wire Line
	10550 3050 10850 3050
$Comp
L Device:C C10
U 1 1 5C1D22FE
P 11600 2700
F 0 "C10" H 11715 2746 50  0000 L CNN
F 1 "C" H 11715 2655 50  0000 L CNN
F 2 "Capacitor_THT:C_Disc_D3.0mm_W1.6mm_P2.50mm" H 11638 2550 50  0001 C CNN
F 3 "~" H 11600 2700 50  0001 C CNN
	1    11600 2700
	1    0    0    -1  
$EndComp
$Comp
L Device:C C9
U 1 1 5C1D2305
P 11400 2700
F 0 "C9" H 11515 2746 50  0000 L CNN
F 1 "C" H 11515 2655 50  0000 L CNN
F 2 "Capacitor_THT:C_Disc_D3.0mm_W1.6mm_P2.50mm" H 11438 2550 50  0001 C CNN
F 3 "~" H 11400 2700 50  0001 C CNN
	1    11400 2700
	1    0    0    -1  
$EndComp
Wire Wire Line
	11400 2850 11400 2900
Wire Wire Line
	11400 2900 11500 2900
Wire Wire Line
	11600 2900 11600 2850
Wire Wire Line
	11500 2900 11500 3050
Connection ~ 11500 2900
Wire Wire Line
	11500 2900 11600 2900
Text Label 11400 2500 2    50   ~ 0
RE5A
Text Label 11600 2500 0    50   ~ 0
RE5B
Text Label 12050 2500 2    50   ~ 0
RE6A
Text Label 12250 2500 0    50   ~ 0
RE6B
Wire Wire Line
	11500 2500 11500 2900
Wire Wire Line
	11400 2500 11400 2550
Wire Wire Line
	11600 2500 11600 2550
$Comp
L Device:C C12
U 1 1 5C1D2319
P 12250 2700
F 0 "C12" H 12365 2746 50  0000 L CNN
F 1 "C" H 12365 2655 50  0000 L CNN
F 2 "Capacitor_THT:C_Disc_D3.0mm_W1.6mm_P2.50mm" H 12288 2550 50  0001 C CNN
F 3 "~" H 12250 2700 50  0001 C CNN
	1    12250 2700
	1    0    0    -1  
$EndComp
$Comp
L Device:C C11
U 1 1 5C1D2320
P 12050 2700
F 0 "C11" H 12165 2746 50  0000 L CNN
F 1 "C" H 12165 2655 50  0000 L CNN
F 2 "Capacitor_THT:C_Disc_D3.0mm_W1.6mm_P2.50mm" H 12088 2550 50  0001 C CNN
F 3 "~" H 12050 2700 50  0001 C CNN
	1    12050 2700
	1    0    0    -1  
$EndComp
Wire Wire Line
	12050 2850 12050 2900
Wire Wire Line
	12050 2900 12150 2900
Wire Wire Line
	12250 2900 12250 2850
Wire Wire Line
	12150 2900 12150 3050
Connection ~ 12150 2900
Wire Wire Line
	12150 2900 12250 2900
Wire Wire Line
	12150 2500 12150 2900
Wire Wire Line
	12050 2500 12050 2550
Wire Wire Line
	12250 2500 12250 2550
$Comp
L Device:Rotary_Encoder RE5
U 1 1 5C1D2330
P 11500 2200
F 0 "RE5" V 11491 1970 50  0000 R CNN
F 1 "Rotary_Encoder" V 11400 1970 50  0000 R CNN
F 2 "Rotary_Encoder:RotaryEncoder_Alps_EC11E_Vertical_H20mm" H 11350 2360 50  0001 C CNN
F 3 "~" H 11500 2460 50  0001 C CNN
	1    11500 2200
	0    -1   -1   0   
$EndComp
$Comp
L Device:Rotary_Encoder RE6
U 1 1 5C1D2337
P 12150 2200
F 0 "RE6" V 12141 1970 50  0000 R CNN
F 1 "Rotary_Encoder" V 12050 1970 50  0000 R CNN
F 2 "Rotary_Encoder:RotaryEncoder_Alps_EC11E_Vertical_H20mm" H 12000 2360 50  0001 C CNN
F 3 "~" H 12150 2460 50  0001 C CNN
	1    12150 2200
	0    -1   -1   0   
$EndComp
Text Label 11850 3100 3    50   ~ 0
LC_GND
Wire Wire Line
	11500 3050 11850 3050
Wire Wire Line
	11850 3100 11850 3050
Connection ~ 11850 3050
Wire Wire Line
	11850 3050 12150 3050
$Comp
L Device:C C14
U 1 1 5C1D2343
P 12900 2700
F 0 "C14" H 13015 2746 50  0000 L CNN
F 1 "C" H 13015 2655 50  0000 L CNN
F 2 "Capacitor_THT:C_Disc_D3.0mm_W1.6mm_P2.50mm" H 12938 2550 50  0001 C CNN
F 3 "~" H 12900 2700 50  0001 C CNN
	1    12900 2700
	1    0    0    -1  
$EndComp
$Comp
L Device:C C13
U 1 1 5C1D234A
P 12700 2700
F 0 "C13" H 12815 2746 50  0000 L CNN
F 1 "C" H 12815 2655 50  0000 L CNN
F 2 "Capacitor_THT:C_Disc_D3.0mm_W1.6mm_P2.50mm" H 12738 2550 50  0001 C CNN
F 3 "~" H 12700 2700 50  0001 C CNN
	1    12700 2700
	1    0    0    -1  
$EndComp
Wire Wire Line
	12700 2850 12700 2900
Wire Wire Line
	12700 2900 12800 2900
Wire Wire Line
	12900 2900 12900 2850
Wire Wire Line
	12800 2900 12800 3050
Connection ~ 12800 2900
Wire Wire Line
	12800 2900 12900 2900
Text Label 12700 2500 2    50   ~ 0
RE7A
Text Label 12900 2500 0    50   ~ 0
RE7B
Text Label 13350 2500 2    50   ~ 0
RE8A
Text Label 13550 2500 0    50   ~ 0
RE8B
Wire Wire Line
	12800 2500 12800 2900
Wire Wire Line
	12700 2500 12700 2550
Wire Wire Line
	12900 2500 12900 2550
$Comp
L Device:C C16
U 1 1 5C1D235E
P 13550 2700
F 0 "C16" H 13665 2746 50  0000 L CNN
F 1 "C" H 13665 2655 50  0000 L CNN
F 2 "Capacitor_THT:C_Disc_D3.0mm_W1.6mm_P2.50mm" H 13588 2550 50  0001 C CNN
F 3 "~" H 13550 2700 50  0001 C CNN
	1    13550 2700
	1    0    0    -1  
$EndComp
$Comp
L Device:C C15
U 1 1 5C1D2365
P 13350 2700
F 0 "C15" H 13465 2746 50  0000 L CNN
F 1 "C" H 13465 2655 50  0000 L CNN
F 2 "Capacitor_THT:C_Disc_D3.0mm_W1.6mm_P2.50mm" H 13388 2550 50  0001 C CNN
F 3 "~" H 13350 2700 50  0001 C CNN
	1    13350 2700
	1    0    0    -1  
$EndComp
Wire Wire Line
	13350 2850 13350 2900
Wire Wire Line
	13350 2900 13450 2900
Wire Wire Line
	13550 2900 13550 2850
Wire Wire Line
	13450 2900 13450 3050
Connection ~ 13450 2900
Wire Wire Line
	13450 2900 13550 2900
Wire Wire Line
	13450 2500 13450 2900
Wire Wire Line
	13350 2500 13350 2550
Wire Wire Line
	13550 2500 13550 2550
$Comp
L Device:Rotary_Encoder RE7
U 1 1 5C1D2375
P 12800 2200
F 0 "RE7" V 12791 1970 50  0000 R CNN
F 1 "Rotary_Encoder" V 12700 1970 50  0000 R CNN
F 2 "Rotary_Encoder:RotaryEncoder_Alps_EC11E_Vertical_H20mm" H 12650 2360 50  0001 C CNN
F 3 "~" H 12800 2460 50  0001 C CNN
	1    12800 2200
	0    -1   -1   0   
$EndComp
$Comp
L Device:Rotary_Encoder RE8
U 1 1 5C1D237C
P 13450 2200
F 0 "RE8" V 13441 1970 50  0000 R CNN
F 1 "Rotary_Encoder" V 13350 1970 50  0000 R CNN
F 2 "Rotary_Encoder:RotaryEncoder_Alps_EC11E_Vertical_H20mm" H 13300 2360 50  0001 C CNN
F 3 "~" H 13450 2460 50  0001 C CNN
	1    13450 2200
	0    -1   -1   0   
$EndComp
Text Label 13150 3100 3    50   ~ 0
LC_GND
Wire Wire Line
	12800 3050 13150 3050
Wire Wire Line
	13150 3100 13150 3050
Connection ~ 13150 3050
Wire Wire Line
	13150 3050 13450 3050
Wire Wire Line
	5150 7400 4800 7400
Wire Wire Line
	4800 7400 4800 7250
Wire Wire Line
	5150 7500 4800 7500
Wire Wire Line
	4800 7500 4800 7400
Connection ~ 4800 7400
Text Label 4800 7250 2    50   ~ 0
LC_5V
Wire Wire Line
	5300 7700 6250 7700
Wire Wire Line
	5300 7800 6250 7800
Wire Wire Line
	6250 7900 5300 7900
Wire Wire Line
	5300 8000 6250 8000
Wire Wire Line
	6250 8100 5300 8100
Wire Wire Line
	5300 8300 6250 8300
Wire Wire Line
	6250 8400 5300 8400
Wire Wire Line
	5300 8500 6250 8500
Wire Wire Line
	6250 8600 5300 8600
Wire Wire Line
	5300 8700 6250 8700
Wire Wire Line
	6250 8800 5300 8800
$Comp
L Mechanical:MountingHole H1
U 1 1 671782C8
P 4650 5950
F 0 "H1" H 4750 5996 50  0000 L CNN
F 1 "MountingHole" H 4750 5905 50  0000 L CNN
F 2 "MountingHole:MountingHole_3.2mm_M3_Pad_Via" H 4650 5950 50  0001 C CNN
F 3 "~" H 4650 5950 50  0001 C CNN
	1    4650 5950
	1    0    0    -1  
$EndComp
$Comp
L chordboard-components:GROVE_I2C J2
U 1 1 5C23BFDE
P 6450 3050
F 0 "J2" H 6777 3101 50  0000 L CNN
F 1 "GROVE_I2C" H 6777 3010 50  0000 L CNN
F 2 "Connector_JST:JST_PH_B4B-PH-K_1x04_P2.00mm_Vertical" H 6450 3050 50  0001 C CNN
F 3 "" H 6450 3050 50  0001 C CNN
	1    6450 3050
	1    0    0    -1  
$EndComp
Text Label 6250 2900 2    50   ~ 0
LC_SCL
Text Label 6250 3000 2    50   ~ 0
LC_SDA
Text Label 6250 3100 2    50   ~ 0
LC_5V
Text Label 6250 3200 2    50   ~ 0
LC_GND
Text Label 9400 7400 2    50   ~ 0
RE1B
Text Label 9400 8300 2    50   ~ 0
RE1A
Text Label 9400 8400 2    50   ~ 0
RE2A
Text Label 9400 7500 2    50   ~ 0
RE2B
Text Label 9400 8500 2    50   ~ 0
RE3A
Text Label 9400 7600 2    50   ~ 0
RE3B
Text Label 9400 8600 2    50   ~ 0
RE4A
Text Label 9400 7700 2    50   ~ 0
RE4B
Text Label 9400 8700 2    50   ~ 0
RE5A
Text Label 9400 7800 2    50   ~ 0
RE5B
Text Label 9400 8800 2    50   ~ 0
RE6A
Text Label 9400 7900 2    50   ~ 0
RE6B
Text Label 9400 8900 2    50   ~ 0
RE7A
Text Label 9400 8000 2    50   ~ 0
RE7B
Text Label 9400 9000 2    50   ~ 0
RE8A
Text Label 9400 8100 2    50   ~ 0
RE8B
Text Label 7650 7500 0    50   ~ 0
LC_SCL
Text Label 7650 7400 0    50   ~ 0
LC_SDA
Text Label 7650 9000 0    50   ~ 0
LC_GND
Text Label 7650 8800 0    50   ~ 0
LC_5V
Text Label 7650 8900 0    50   ~ 0
LC_5V
Text Label 10800 8800 0    50   ~ 0
LC_5V
Text Label 10800 8900 0    50   ~ 0
LC_5V
Text Label 10800 9000 0    50   ~ 0
LC_5V
Wire Wire Line
	4800 7700 4900 7700
Wire Wire Line
	4800 7700 4800 7800
Wire Wire Line
	4900 7800 4800 7800
Connection ~ 4800 7800
Wire Wire Line
	4800 7800 4800 7900
Wire Wire Line
	4900 7900 4800 7900
Connection ~ 4800 7900
Wire Wire Line
	4800 7900 4800 8000
Wire Wire Line
	4900 8000 4800 8000
Connection ~ 4800 8000
Wire Wire Line
	4800 8000 4800 8100
Wire Wire Line
	4900 8100 4800 8100
Connection ~ 4800 8100
Wire Wire Line
	4800 8100 4800 8300
Wire Wire Line
	4900 8300 4800 8300
Connection ~ 4800 8300
Wire Wire Line
	4800 8300 4800 8400
Wire Wire Line
	4900 8400 4800 8400
Connection ~ 4800 8400
Wire Wire Line
	4800 8400 4800 8500
Wire Wire Line
	4900 8500 4800 8500
Connection ~ 4800 8500
Wire Wire Line
	4800 8500 4800 8600
Wire Wire Line
	4900 8600 4800 8600
Connection ~ 4800 8600
Wire Wire Line
	4800 8600 4800 8700
Wire Wire Line
	4900 8700 4800 8700
Connection ~ 4800 8700
Wire Wire Line
	4800 8700 4800 8800
Wire Wire Line
	4900 8800 4800 8800
Connection ~ 4800 8800
Wire Wire Line
	4800 8800 4800 8900
Text Label 4800 9200 2    50   ~ 0
LC_GND
$Comp
L Interface_Expansion:MCP23017_SP U1
U 1 1 5C265866
P 6950 8200
F 0 "U1" H 6950 9478 50  0000 C CNN
F 1 "MCP23017_SP" H 6950 9387 50  0000 C CNN
F 2 "Package_DIP:DIP-28_W7.62mm" H 7150 7200 50  0001 L CNN
F 3 "http://ww1.microchip.com/downloads/en/DeviceDoc/20001952C.pdf" H 7150 7100 50  0001 L CNN
	1    6950 8200
	-1   0    0    -1  
$EndComp
$Comp
L Interface_Expansion:MCP23017_SP U2
U 1 1 5C265A08
P 10100 8200
F 0 "U2" H 10100 9478 50  0000 C CNN
F 1 "MCP23017_SP" H 10100 9387 50  0000 C CNN
F 2 "Package_DIP:DIP-28_W7.62mm" H 10300 7200 50  0001 L CNN
F 3 "http://ww1.microchip.com/downloads/en/DeviceDoc/20001952C.pdf" H 10300 7100 50  0001 L CNN
	1    10100 8200
	-1   0    0    -1  
$EndComp
Text Label 7650 8300 0    50   ~ 0
LC_5V
Text Label 10800 7500 0    50   ~ 0
LC_SCL
Text Label 10800 7400 0    50   ~ 0
LC_SDA
Text Label 10800 8300 0    50   ~ 0
LC_5V
Text Label 6950 9300 2    50   ~ 0
LC_GND
Text Label 10100 9300 2    50   ~ 0
LC_GND
Text Label 6950 7100 2    50   ~ 0
LC_5V
Text Label 10100 7100 2    50   ~ 0
LC_5V
Wire Wire Line
	4900 8900 4800 8900
Connection ~ 4800 8900
Wire Wire Line
	4800 8900 4800 9200
Wire Wire Line
	5300 8900 6250 8900
$Comp
L Device:R R3
U 1 1 5C298E0A
P 5300 7600
F 0 "R3" V 5300 7450 50  0000 C CNN
F 1 "R" V 5400 7750 50  0000 C CNN
F 2 "Resistor_THT:R_Axial_DIN0204_L3.6mm_D1.6mm_P7.62mm_Horizontal" V 5230 7600 50  0001 C CNN
F 3 "~" H 5300 7600 50  0001 C CNN
	1    5300 7600
	0    1    -1   0   
$EndComp
$Comp
L Device:LED LED3
U 1 1 5C298E7C
P 5600 7600
F 0 "LED3" H 5450 7650 50  0000 C CNN
F 1 "LED" H 5300 7650 50  0000 C CNN
F 2 "LED_THT:LED_D1.8mm_W3.3mm_H2.4mm" H 5600 7600 50  0001 C CNN
F 3 "~" H 5600 7600 50  0001 C CNN
	1    5600 7600
	-1   0    0    -1  
$EndComp
Wire Wire Line
	5750 7600 6250 7600
Wire Wire Line
	5150 7600 4800 7600
Wire Wire Line
	4800 7600 4800 7500
Connection ~ 4800 7500
Text Label 8000 6500 2    50   ~ 0
LC_5V
Text Label 8000 6800 2    50   ~ 0
LC_GND
$Comp
L Device:C C17
U 1 1 5C2A1910
P 8250 6650
F 0 "C17" H 8365 6696 50  0000 L CNN
F 1 "C" H 8365 6605 50  0000 L CNN
F 2 "Capacitor_THT:C_Disc_D3.0mm_W1.6mm_P2.50mm" H 8288 6500 50  0001 C CNN
F 3 "~" H 8250 6650 50  0001 C CNN
	1    8250 6650
	1    0    0    -1  
$EndComp
$Comp
L Device:C C18
U 1 1 5C2A1AF3
P 8500 6650
F 0 "C18" H 8615 6696 50  0000 L CNN
F 1 "C" H 8615 6605 50  0000 L CNN
F 2 "Capacitor_THT:C_Disc_D3.0mm_W1.6mm_P2.50mm" H 8538 6500 50  0001 C CNN
F 3 "~" H 8500 6650 50  0001 C CNN
	1    8500 6650
	1    0    0    -1  
$EndComp
Wire Wire Line
	8000 6800 8250 6800
Connection ~ 8250 6800
Wire Wire Line
	8250 6800 8500 6800
Wire Wire Line
	8000 6500 8250 6500
Connection ~ 8250 6500
Wire Wire Line
	8250 6500 8500 6500
$EndSCHEMATC
