(export (version D)
  (design
    (source /home/afshar/src/chordboard/hard/v16/config_board/chordboard.sch)
    (date "Sat 22 Dec 2018 10:52:38 PM GMT")
    (tool "Eeschema 5.0.0+dfsg1-2~bpo9+1")
    (sheet (number 1) (name /) (tstamps /)
      (title_block
        (title)
        (company)
        (rev)
        (date)
        (source chordboard.sch)
        (comment (number 1) (value ""))
        (comment (number 2) (value ""))
        (comment (number 3) (value ""))
        (comment (number 4) (value "")))))
  (components
    (comp (ref H2)
      (value MountingHole)
      (footprint MountingHole:MountingHole_3.2mm_M3_Pad_Via)
      (datasheet ~)
      (libsource (lib Mechanical) (part MountingHole) (description "Mounting Hole without connection"))
      (sheetpath (names /) (tstamps /))
      (tstamp 671782CE))
    (comp (ref H3)
      (value MountingHole)
      (footprint MountingHole:MountingHole_3.2mm_M3_Pad_Via)
      (datasheet ~)
      (libsource (lib Mechanical) (part MountingHole) (description "Mounting Hole without connection"))
      (sheetpath (names /) (tstamps /))
      (tstamp 671782D4))
    (comp (ref H4)
      (value MountingHole)
      (footprint MountingHole:MountingHole_3.2mm_M3_Pad_Via)
      (datasheet ~)
      (libsource (lib Mechanical) (part MountingHole) (description "Mounting Hole without connection"))
      (sheetpath (names /) (tstamps /))
      (tstamp 671782DA))
    (comp (ref C2)
      (value C)
      (footprint Capacitor_THT:C_Disc_D3.0mm_W1.6mm_P2.50mm)
      (datasheet ~)
      (libsource (lib Device) (part C) (description "Unpolarized capacitor"))
      (sheetpath (names /) (tstamps /))
      (tstamp 68CFA0F9))
    (comp (ref C1)
      (value C)
      (footprint Capacitor_THT:C_Disc_D3.0mm_W1.6mm_P2.50mm)
      (datasheet ~)
      (libsource (lib Device) (part C) (description "Unpolarized capacitor"))
      (sheetpath (names /) (tstamps /))
      (tstamp 68CFA100))
    (comp (ref C4)
      (value C)
      (footprint Capacitor_THT:C_Disc_D3.0mm_W1.6mm_P2.50mm)
      (datasheet ~)
      (libsource (lib Device) (part C) (description "Unpolarized capacitor"))
      (sheetpath (names /) (tstamps /))
      (tstamp 68CFA11A))
    (comp (ref C3)
      (value C)
      (footprint Capacitor_THT:C_Disc_D3.0mm_W1.6mm_P2.50mm)
      (datasheet ~)
      (libsource (lib Device) (part C) (description "Unpolarized capacitor"))
      (sheetpath (names /) (tstamps /))
      (tstamp 68CFA121))
    (comp (ref R1)
      (value R)
      (footprint Resistor_THT:R_Axial_DIN0204_L3.6mm_D1.6mm_P7.62mm_Horizontal)
      (datasheet ~)
      (libsource (lib Device) (part R) (description Resistor))
      (sheetpath (names /) (tstamps /))
      (tstamp 5C0168EF))
    (comp (ref LED1)
      (value LED)
      (footprint LED_THT:LED_D1.8mm_W3.3mm_H2.4mm)
      (datasheet ~)
      (libsource (lib Device) (part LED) (description "Light emitting diode"))
      (sheetpath (names /) (tstamps /))
      (tstamp 5C0168F5))
    (comp (ref R2)
      (value R)
      (footprint Resistor_THT:R_Axial_DIN0204_L3.6mm_D1.6mm_P7.62mm_Horizontal)
      (datasheet ~)
      (libsource (lib Device) (part R) (description Resistor))
      (sheetpath (names /) (tstamps /))
      (tstamp 5C01F0FE))
    (comp (ref LED2)
      (value LED)
      (footprint LED_THT:LED_D1.8mm_W3.3mm_H2.4mm)
      (datasheet ~)
      (libsource (lib Device) (part LED) (description "Light emitting diode"))
      (sheetpath (names /) (tstamps /))
      (tstamp 5C01F104))
    (comp (ref RE1)
      (value Rotary_Encoder)
      (footprint Rotary_Encoder:RotaryEncoder_Alps_EC11E_Vertical_H20mm)
      (datasheet ~)
      (libsource (lib Device) (part Rotary_Encoder) (description "Rotary encoder, dual channel, incremental quadrate outputs"))
      (sheetpath (names /) (tstamps /))
      (tstamp 5C0422B2))
    (comp (ref RE2)
      (value Rotary_Encoder)
      (footprint Rotary_Encoder:RotaryEncoder_Alps_EC11E_Vertical_H20mm)
      (datasheet ~)
      (libsource (lib Device) (part Rotary_Encoder) (description "Rotary encoder, dual channel, incremental quadrate outputs"))
      (sheetpath (names /) (tstamps /))
      (tstamp 5C0452CF))
    (comp (ref CSW2)
      (value SW_SPST)
      (footprint Button_Switch_THT:SW_PUSH_6mm_H9.5mm)
      (libsource (lib Switch) (part SW_SPST) (description "Single Pole Single Throw (SPST) switch"))
      (sheetpath (names /) (tstamps /))
      (tstamp 5C06CF00))
    (comp (ref CSW3)
      (value SW_SPST)
      (footprint Button_Switch_THT:SW_PUSH_6mm_H9.5mm)
      (libsource (lib Switch) (part SW_SPST) (description "Single Pole Single Throw (SPST) switch"))
      (sheetpath (names /) (tstamps /))
      (tstamp 5C0B28B4))
    (comp (ref CSW4)
      (value SW_SPST)
      (footprint Button_Switch_THT:SW_PUSH_6mm_H9.5mm)
      (libsource (lib Switch) (part SW_SPST) (description "Single Pole Single Throw (SPST) switch"))
      (sheetpath (names /) (tstamps /))
      (tstamp 5C0B2995))
    (comp (ref CSW5)
      (value SW_SPST)
      (footprint Button_Switch_THT:SW_PUSH_6mm_H9.5mm)
      (libsource (lib Switch) (part SW_SPST) (description "Single Pole Single Throw (SPST) switch"))
      (sheetpath (names /) (tstamps /))
      (tstamp 5C0B29F5))
    (comp (ref CSW1)
      (value SW_SPST)
      (footprint Button_Switch_THT:SW_PUSH_6mm_H9.5mm)
      (libsource (lib Switch) (part SW_SPST) (description "Single Pole Single Throw (SPST) switch"))
      (sheetpath (names /) (tstamps /))
      (tstamp 5C0B2A57))
    (comp (ref CSW12)
      (value SW_SPST)
      (footprint Button_Switch_THT:SW_PUSH_6mm_H9.5mm)
      (libsource (lib Switch) (part SW_SPST) (description "Single Pole Single Throw (SPST) switch"))
      (sheetpath (names /) (tstamps /))
      (tstamp 5C0B2AC1))
    (comp (ref CSW6)
      (value SW_SPST)
      (footprint Button_Switch_THT:SW_PUSH_6mm_H9.5mm)
      (libsource (lib Switch) (part SW_SPST) (description "Single Pole Single Throw (SPST) switch"))
      (sheetpath (names /) (tstamps /))
      (tstamp 5C0B9233))
    (comp (ref CSW7)
      (value SW_SPST)
      (footprint Button_Switch_THT:SW_PUSH_6mm_H9.5mm)
      (libsource (lib Switch) (part SW_SPST) (description "Single Pole Single Throw (SPST) switch"))
      (sheetpath (names /) (tstamps /))
      (tstamp 5C0B9239))
    (comp (ref CSW8)
      (value SW_SPST)
      (footprint Button_Switch_THT:SW_PUSH_6mm_H9.5mm)
      (libsource (lib Switch) (part SW_SPST) (description "Single Pole Single Throw (SPST) switch"))
      (sheetpath (names /) (tstamps /))
      (tstamp 5C0B923F))
    (comp (ref CSW9)
      (value SW_SPST)
      (footprint Button_Switch_THT:SW_PUSH_6mm_H9.5mm)
      (libsource (lib Switch) (part SW_SPST) (description "Single Pole Single Throw (SPST) switch"))
      (sheetpath (names /) (tstamps /))
      (tstamp 5C0B9245))
    (comp (ref CSW10)
      (value SW_SPST)
      (footprint Button_Switch_THT:SW_PUSH_6mm_H9.5mm)
      (libsource (lib Switch) (part SW_SPST) (description "Single Pole Single Throw (SPST) switch"))
      (sheetpath (names /) (tstamps /))
      (tstamp 5C0BD122))
    (comp (ref CSW11)
      (value SW_SPST)
      (footprint Button_Switch_THT:SW_PUSH_6mm_H9.5mm)
      (libsource (lib Switch) (part SW_SPST) (description "Single Pole Single Throw (SPST) switch"))
      (sheetpath (names /) (tstamps /))
      (tstamp 5C0BD19C))
    (comp (ref J1)
      (value GROVE_I2C)
      (footprint Connector_JST:JST_PH_B4B-PH-K_1x04_P2.00mm_Vertical)
      (libsource (lib chordboard-components) (part GROVE_I2C) (description "Connector, single row, 01x04, pin header"))
      (sheetpath (names /) (tstamps /))
      (tstamp 5C0C8156))
    (comp (ref C6)
      (value C)
      (footprint Capacitor_THT:C_Disc_D3.0mm_W1.6mm_P2.50mm)
      (datasheet ~)
      (libsource (lib Device) (part C) (description "Unpolarized capacitor"))
      (sheetpath (names /) (tstamps /))
      (tstamp 5C1D0B28))
    (comp (ref C5)
      (value C)
      (footprint Capacitor_THT:C_Disc_D3.0mm_W1.6mm_P2.50mm)
      (datasheet ~)
      (libsource (lib Device) (part C) (description "Unpolarized capacitor"))
      (sheetpath (names /) (tstamps /))
      (tstamp 5C1D0B2F))
    (comp (ref C8)
      (value C)
      (footprint Capacitor_THT:C_Disc_D3.0mm_W1.6mm_P2.50mm)
      (datasheet ~)
      (libsource (lib Device) (part C) (description "Unpolarized capacitor"))
      (sheetpath (names /) (tstamps /))
      (tstamp 5C1D0B43))
    (comp (ref C7)
      (value C)
      (footprint Capacitor_THT:C_Disc_D3.0mm_W1.6mm_P2.50mm)
      (datasheet ~)
      (libsource (lib Device) (part C) (description "Unpolarized capacitor"))
      (sheetpath (names /) (tstamps /))
      (tstamp 5C1D0B4A))
    (comp (ref RE3)
      (value Rotary_Encoder)
      (footprint Rotary_Encoder:RotaryEncoder_Alps_EC11E_Vertical_H20mm)
      (datasheet ~)
      (libsource (lib Device) (part Rotary_Encoder) (description "Rotary encoder, dual channel, incremental quadrate outputs"))
      (sheetpath (names /) (tstamps /))
      (tstamp 5C1D0B5A))
    (comp (ref RE4)
      (value Rotary_Encoder)
      (footprint Rotary_Encoder:RotaryEncoder_Alps_EC11E_Vertical_H20mm)
      (datasheet ~)
      (libsource (lib Device) (part Rotary_Encoder) (description "Rotary encoder, dual channel, incremental quadrate outputs"))
      (sheetpath (names /) (tstamps /))
      (tstamp 5C1D0B61))
    (comp (ref C10)
      (value C)
      (footprint Capacitor_THT:C_Disc_D3.0mm_W1.6mm_P2.50mm)
      (datasheet ~)
      (libsource (lib Device) (part C) (description "Unpolarized capacitor"))
      (sheetpath (names /) (tstamps /))
      (tstamp 5C1D22FE))
    (comp (ref C9)
      (value C)
      (footprint Capacitor_THT:C_Disc_D3.0mm_W1.6mm_P2.50mm)
      (datasheet ~)
      (libsource (lib Device) (part C) (description "Unpolarized capacitor"))
      (sheetpath (names /) (tstamps /))
      (tstamp 5C1D2305))
    (comp (ref C12)
      (value C)
      (footprint Capacitor_THT:C_Disc_D3.0mm_W1.6mm_P2.50mm)
      (datasheet ~)
      (libsource (lib Device) (part C) (description "Unpolarized capacitor"))
      (sheetpath (names /) (tstamps /))
      (tstamp 5C1D2319))
    (comp (ref C11)
      (value C)
      (footprint Capacitor_THT:C_Disc_D3.0mm_W1.6mm_P2.50mm)
      (datasheet ~)
      (libsource (lib Device) (part C) (description "Unpolarized capacitor"))
      (sheetpath (names /) (tstamps /))
      (tstamp 5C1D2320))
    (comp (ref RE5)
      (value Rotary_Encoder)
      (footprint Rotary_Encoder:RotaryEncoder_Alps_EC11E_Vertical_H20mm)
      (datasheet ~)
      (libsource (lib Device) (part Rotary_Encoder) (description "Rotary encoder, dual channel, incremental quadrate outputs"))
      (sheetpath (names /) (tstamps /))
      (tstamp 5C1D2330))
    (comp (ref RE6)
      (value Rotary_Encoder)
      (footprint Rotary_Encoder:RotaryEncoder_Alps_EC11E_Vertical_H20mm)
      (datasheet ~)
      (libsource (lib Device) (part Rotary_Encoder) (description "Rotary encoder, dual channel, incremental quadrate outputs"))
      (sheetpath (names /) (tstamps /))
      (tstamp 5C1D2337))
    (comp (ref C14)
      (value C)
      (footprint Capacitor_THT:C_Disc_D3.0mm_W1.6mm_P2.50mm)
      (datasheet ~)
      (libsource (lib Device) (part C) (description "Unpolarized capacitor"))
      (sheetpath (names /) (tstamps /))
      (tstamp 5C1D2343))
    (comp (ref C13)
      (value C)
      (footprint Capacitor_THT:C_Disc_D3.0mm_W1.6mm_P2.50mm)
      (datasheet ~)
      (libsource (lib Device) (part C) (description "Unpolarized capacitor"))
      (sheetpath (names /) (tstamps /))
      (tstamp 5C1D234A))
    (comp (ref C16)
      (value C)
      (footprint Capacitor_THT:C_Disc_D3.0mm_W1.6mm_P2.50mm)
      (datasheet ~)
      (libsource (lib Device) (part C) (description "Unpolarized capacitor"))
      (sheetpath (names /) (tstamps /))
      (tstamp 5C1D235E))
    (comp (ref C15)
      (value C)
      (footprint Capacitor_THT:C_Disc_D3.0mm_W1.6mm_P2.50mm)
      (datasheet ~)
      (libsource (lib Device) (part C) (description "Unpolarized capacitor"))
      (sheetpath (names /) (tstamps /))
      (tstamp 5C1D2365))
    (comp (ref RE7)
      (value Rotary_Encoder)
      (footprint Rotary_Encoder:RotaryEncoder_Alps_EC11E_Vertical_H20mm)
      (datasheet ~)
      (libsource (lib Device) (part Rotary_Encoder) (description "Rotary encoder, dual channel, incremental quadrate outputs"))
      (sheetpath (names /) (tstamps /))
      (tstamp 5C1D2375))
    (comp (ref RE8)
      (value Rotary_Encoder)
      (footprint Rotary_Encoder:RotaryEncoder_Alps_EC11E_Vertical_H20mm)
      (datasheet ~)
      (libsource (lib Device) (part Rotary_Encoder) (description "Rotary encoder, dual channel, incremental quadrate outputs"))
      (sheetpath (names /) (tstamps /))
      (tstamp 5C1D237C))
    (comp (ref H1)
      (value MountingHole)
      (footprint MountingHole:MountingHole_3.2mm_M3_Pad_Via)
      (datasheet ~)
      (libsource (lib Mechanical) (part MountingHole) (description "Mounting Hole without connection"))
      (sheetpath (names /) (tstamps /))
      (tstamp 671782C8))
    (comp (ref J2)
      (value GROVE_I2C)
      (footprint Connector_JST:JST_PH_B4B-PH-K_1x04_P2.00mm_Vertical)
      (libsource (lib chordboard-components) (part GROVE_I2C) (description "Connector, single row, 01x04, pin header"))
      (sheetpath (names /) (tstamps /))
      (tstamp 5C23BFDE))
    (comp (ref U1)
      (value MCP23017_SP)
      (footprint Package_DIP:DIP-28_W7.62mm)
      (datasheet http://ww1.microchip.com/downloads/en/DeviceDoc/20001952C.pdf)
      (libsource (lib Interface_Expansion) (part MCP23017_SP) (description "16-bit I/O expander, I2C, interrupts, w pull-ups, SPDIP-28"))
      (sheetpath (names /) (tstamps /))
      (tstamp 5C265866))
    (comp (ref U2)
      (value MCP23017_SP)
      (footprint Package_DIP:DIP-28_W7.62mm)
      (datasheet http://ww1.microchip.com/downloads/en/DeviceDoc/20001952C.pdf)
      (libsource (lib Interface_Expansion) (part MCP23017_SP) (description "16-bit I/O expander, I2C, interrupts, w pull-ups, SPDIP-28"))
      (sheetpath (names /) (tstamps /))
      (tstamp 5C265A08))
    (comp (ref R3)
      (value R)
      (footprint Resistor_THT:R_Axial_DIN0204_L3.6mm_D1.6mm_P7.62mm_Horizontal)
      (datasheet ~)
      (libsource (lib Device) (part R) (description Resistor))
      (sheetpath (names /) (tstamps /))
      (tstamp 5C298E0A))
    (comp (ref LED3)
      (value LED)
      (footprint LED_THT:LED_D1.8mm_W3.3mm_H2.4mm)
      (datasheet ~)
      (libsource (lib Device) (part LED) (description "Light emitting diode"))
      (sheetpath (names /) (tstamps /))
      (tstamp 5C298E7C))
    (comp (ref C17)
      (value C)
      (footprint Capacitor_THT:C_Disc_D3.0mm_W1.6mm_P2.50mm)
      (datasheet ~)
      (libsource (lib Device) (part C) (description "Unpolarized capacitor"))
      (sheetpath (names /) (tstamps /))
      (tstamp 5C2A1910))
    (comp (ref C18)
      (value C)
      (footprint Capacitor_THT:C_Disc_D3.0mm_W1.6mm_P2.50mm)
      (datasheet ~)
      (libsource (lib Device) (part C) (description "Unpolarized capacitor"))
      (sheetpath (names /) (tstamps /))
      (tstamp 5C2A1AF3)))
  (libparts
    (libpart (lib Device) (part C)
      (description "Unpolarized capacitor")
      (docs ~)
      (footprints
        (fp C_*))
      (fields
        (field (name Reference) C)
        (field (name Value) C))
      (pins
        (pin (num 1) (name ~) (type passive))
        (pin (num 2) (name ~) (type passive))))
    (libpart (lib Device) (part LED)
      (description "Light emitting diode")
      (docs ~)
      (footprints
        (fp LED*)
        (fp LED_SMD:*)
        (fp LED_THT:*))
      (fields
        (field (name Reference) D)
        (field (name Value) LED))
      (pins
        (pin (num 1) (name K) (type passive))
        (pin (num 2) (name A) (type passive))))
    (libpart (lib Device) (part R)
      (description Resistor)
      (docs ~)
      (footprints
        (fp R_*))
      (fields
        (field (name Reference) R)
        (field (name Value) R))
      (pins
        (pin (num 1) (name ~) (type passive))
        (pin (num 2) (name ~) (type passive))))
    (libpart (lib Device) (part Rotary_Encoder)
      (description "Rotary encoder, dual channel, incremental quadrate outputs")
      (docs ~)
      (footprints
        (fp RotaryEncoder*))
      (fields
        (field (name Reference) SW)
        (field (name Value) Rotary_Encoder))
      (pins
        (pin (num A) (name A) (type passive))
        (pin (num B) (name B) (type passive))
        (pin (num C) (name C) (type passive))))
    (libpart (lib Interface_Expansion) (part MCP23017_SP)
      (description "16-bit I/O expander, I2C, interrupts, w pull-ups, SPDIP-28")
      (docs http://ww1.microchip.com/downloads/en/DeviceDoc/20001952C.pdf)
      (footprints
        (fp DIP*W7.62mm*))
      (fields
        (field (name Reference) U)
        (field (name Value) MCP23017_SP)
        (field (name Footprint) Package_DIP:DIP-28_W7.62mm))
      (pins
        (pin (num 1) (name GPB0) (type BiDi))
        (pin (num 2) (name GPB1) (type BiDi))
        (pin (num 3) (name GPB2) (type BiDi))
        (pin (num 4) (name GPB3) (type BiDi))
        (pin (num 5) (name GPB4) (type BiDi))
        (pin (num 6) (name GPB5) (type BiDi))
        (pin (num 7) (name GPB6) (type BiDi))
        (pin (num 8) (name GPB7) (type BiDi))
        (pin (num 9) (name VDD) (type power_in))
        (pin (num 10) (name VSS) (type power_in))
        (pin (num 11) (name NC) (type NotConnected))
        (pin (num 12) (name SCK) (type input))
        (pin (num 13) (name SDA) (type BiDi))
        (pin (num 14) (name NC) (type NotConnected))
        (pin (num 15) (name A0) (type input))
        (pin (num 16) (name A1) (type input))
        (pin (num 17) (name A2) (type input))
        (pin (num 18) (name ~RESET~) (type input))
        (pin (num 19) (name INTB) (type 3state))
        (pin (num 20) (name INTA) (type 3state))
        (pin (num 21) (name GPA0) (type BiDi))
        (pin (num 22) (name GPA1) (type BiDi))
        (pin (num 23) (name GPA2) (type BiDi))
        (pin (num 24) (name GPA3) (type BiDi))
        (pin (num 25) (name GPA4) (type BiDi))
        (pin (num 26) (name GPA5) (type BiDi))
        (pin (num 27) (name GPA6) (type BiDi))
        (pin (num 28) (name GPA7) (type BiDi))))
    (libpart (lib Mechanical) (part MountingHole)
      (description "Mounting Hole without connection")
      (docs ~)
      (footprints
        (fp MountingHole*))
      (fields
        (field (name Reference) H)
        (field (name Value) MountingHole)))
    (libpart (lib Switch) (part SW_SPST)
      (description "Single Pole Single Throw (SPST) switch")
      (fields
        (field (name Reference) SW)
        (field (name Value) SW_SPST))
      (pins
        (pin (num 1) (name A) (type passive))
        (pin (num 2) (name B) (type passive))))
    (libpart (lib chordboard-components) (part GROVE_I2C)
      (description "Connector, single row, 01x04, pin header")
      (footprints
        (fp Pin_Header_Straight_1X*)
        (fp Pin_Header_Angled_1X*)
        (fp Socket_Strip_Straight_1X*)
        (fp Socket_Strip_Angled_1X*))
      (fields
        (field (name Reference) J)
        (field (name Value) GROVE_I2C))
      (pins
        (pin (num 1) (name SCL) (type passive))
        (pin (num 2) (name SDA) (type passive))
        (pin (num 3) (name VCC) (type passive))
        (pin (num 4) (name GND) (type passive)))))
  (libraries
    (library (logical Device)
      (uri /home/afshar/src/kicad/kicad-symbols-master/Device.lib))
    (library (logical Interface_Expansion)
      (uri /home/afshar/src/kicad/kicad-symbols-master/Interface_Expansion.lib))
    (library (logical Mechanical)
      (uri /home/afshar/src/kicad/kicad-symbols-master/Mechanical.lib))
    (library (logical Switch)
      (uri /home/afshar/src/kicad/kicad-symbols-master/Switch.lib))
    (library (logical chordboard-components)
      (uri /home/afshar/src/chordboard/hard/chordboard-kicad-libs/chordboard-components.lib)))
  (nets
    (net (code 1) (name "Net-(CSW1-Pad1)")
      (node (ref CSW1) (pin 1))
      (node (ref U1) (pin 4)))
    (net (code 2) (name "Net-(CSW11-Pad1)")
      (node (ref CSW11) (pin 1))
      (node (ref U1) (pin 26)))
    (net (code 3) (name "Net-(CSW10-Pad1)")
      (node (ref CSW10) (pin 1))
      (node (ref U1) (pin 25)))
    (net (code 4) (name "Net-(CSW9-Pad1)")
      (node (ref CSW9) (pin 1))
      (node (ref U1) (pin 24)))
    (net (code 5) (name "Net-(CSW8-Pad1)")
      (node (ref U1) (pin 23))
      (node (ref CSW8) (pin 1)))
    (net (code 6) (name "Net-(CSW7-Pad1)")
      (node (ref U1) (pin 22))
      (node (ref CSW7) (pin 1)))
    (net (code 7) (name "Net-(CSW6-Pad1)")
      (node (ref CSW6) (pin 1))
      (node (ref U1) (pin 21)))
    (net (code 8) (name "Net-(CSW5-Pad1)")
      (node (ref U1) (pin 8))
      (node (ref CSW5) (pin 1)))
    (net (code 9) (name "Net-(CSW4-Pad1)")
      (node (ref U1) (pin 7))
      (node (ref CSW4) (pin 1)))
    (net (code 10) (name "Net-(CSW3-Pad1)")
      (node (ref CSW3) (pin 1))
      (node (ref U1) (pin 6)))
    (net (code 11) (name "Net-(CSW2-Pad1)")
      (node (ref U1) (pin 5))
      (node (ref CSW2) (pin 1)))
    (net (code 12) (name /RE7B)
      (node (ref RE7) (pin B))
      (node (ref C14) (pin 1))
      (node (ref U2) (pin 7)))
    (net (code 13) (name /RE8B)
      (node (ref C16) (pin 1))
      (node (ref U2) (pin 8))
      (node (ref RE8) (pin B)))
    (net (code 14) (name /RE6B)
      (node (ref U2) (pin 6))
      (node (ref RE6) (pin B))
      (node (ref C12) (pin 1)))
    (net (code 15) (name /RE5B)
      (node (ref RE5) (pin B))
      (node (ref C10) (pin 1))
      (node (ref U2) (pin 5)))
    (net (code 16) (name /RE4B)
      (node (ref C8) (pin 1))
      (node (ref RE4) (pin B))
      (node (ref U2) (pin 4)))
    (net (code 17) (name /RE3B)
      (node (ref U2) (pin 3))
      (node (ref C6) (pin 1))
      (node (ref RE3) (pin B)))
    (net (code 18) (name /RE8A)
      (node (ref C15) (pin 1))
      (node (ref U2) (pin 28))
      (node (ref RE8) (pin A)))
    (net (code 19) (name /RE7A)
      (node (ref RE7) (pin A))
      (node (ref C13) (pin 1))
      (node (ref U2) (pin 27)))
    (net (code 20) (name /RE6A)
      (node (ref U2) (pin 26))
      (node (ref RE6) (pin A))
      (node (ref C11) (pin 1)))
    (net (code 21) (name /RE5A)
      (node (ref U2) (pin 25))
      (node (ref C9) (pin 1))
      (node (ref RE5) (pin A)))
    (net (code 22) (name /RE4A)
      (node (ref U2) (pin 24))
      (node (ref RE4) (pin A))
      (node (ref C7) (pin 1)))
    (net (code 23) (name /RE3A)
      (node (ref C5) (pin 1))
      (node (ref RE3) (pin A))
      (node (ref U2) (pin 23)))
    (net (code 24) (name /RE2A)
      (node (ref U2) (pin 22))
      (node (ref C3) (pin 1))
      (node (ref RE2) (pin A)))
    (net (code 25) (name /RE1A)
      (node (ref C1) (pin 1))
      (node (ref U2) (pin 21))
      (node (ref RE1) (pin A)))
    (net (code 26) (name "Net-(LED3-Pad1)")
      (node (ref LED3) (pin 1))
      (node (ref U1) (pin 3)))
    (net (code 27) (name "Net-(LED3-Pad2)")
      (node (ref R3) (pin 1))
      (node (ref LED3) (pin 2)))
    (net (code 28) (name "Net-(CSW12-Pad1)")
      (node (ref CSW12) (pin 1))
      (node (ref U1) (pin 27)))
    (net (code 29) (name /LC_GND)
      (node (ref C5) (pin 2))
      (node (ref C2) (pin 2))
      (node (ref RE2) (pin C))
      (node (ref C6) (pin 2))
      (node (ref CSW2) (pin 2))
      (node (ref CSW6) (pin 2))
      (node (ref C4) (pin 2))
      (node (ref C1) (pin 2))
      (node (ref J1) (pin 4))
      (node (ref C3) (pin 2))
      (node (ref C13) (pin 2))
      (node (ref C14) (pin 2))
      (node (ref RE3) (pin C))
      (node (ref RE4) (pin C))
      (node (ref C7) (pin 2))
      (node (ref C8) (pin 2))
      (node (ref C9) (pin 2))
      (node (ref C10) (pin 2))
      (node (ref RE6) (pin C))
      (node (ref RE5) (pin C))
      (node (ref RE1) (pin C))
      (node (ref C11) (pin 2))
      (node (ref C12) (pin 2))
      (node (ref C15) (pin 2))
      (node (ref C16) (pin 2))
      (node (ref J2) (pin 4))
      (node (ref RE8) (pin C))
      (node (ref RE7) (pin C))
      (node (ref C18) (pin 2))
      (node (ref C17) (pin 2))
      (node (ref U1) (pin 15))
      (node (ref U1) (pin 10))
      (node (ref U2) (pin 10))
      (node (ref CSW11) (pin 2))
      (node (ref CSW10) (pin 2))
      (node (ref CSW9) (pin 2))
      (node (ref CSW8) (pin 2))
      (node (ref CSW7) (pin 2))
      (node (ref CSW12) (pin 2))
      (node (ref CSW1) (pin 2))
      (node (ref CSW5) (pin 2))
      (node (ref CSW4) (pin 2))
      (node (ref CSW3) (pin 2)))
    (net (code 30) (name "Net-(U1-Pad20)")
      (node (ref U1) (pin 20)))
    (net (code 31) (name "Net-(LED2-Pad1)")
      (node (ref U1) (pin 2))
      (node (ref LED2) (pin 1)))
    (net (code 32) (name "Net-(U1-Pad19)")
      (node (ref U1) (pin 19)))
    (net (code 33) (name "Net-(U1-Pad14)")
      (node (ref U1) (pin 14)))
    (net (code 34) (name /LC_SDA)
      (node (ref U2) (pin 13))
      (node (ref J1) (pin 2))
      (node (ref U1) (pin 13))
      (node (ref J2) (pin 2)))
    (net (code 35) (name /LC_SCL)
      (node (ref J1) (pin 1))
      (node (ref J2) (pin 1))
      (node (ref U1) (pin 12))
      (node (ref U2) (pin 12)))
    (net (code 36) (name "Net-(U1-Pad11)")
      (node (ref U1) (pin 11)))
    (net (code 37) (name "Net-(LED1-Pad1)")
      (node (ref U1) (pin 1))
      (node (ref LED1) (pin 1)))
    (net (code 38) (name "Net-(U2-Pad20)")
      (node (ref U2) (pin 20)))
    (net (code 39) (name /RE2B)
      (node (ref U2) (pin 2))
      (node (ref RE2) (pin B))
      (node (ref C4) (pin 1)))
    (net (code 40) (name "Net-(U2-Pad19)")
      (node (ref U2) (pin 19)))
    (net (code 41) (name /LC_5V)
      (node (ref R3) (pin 2))
      (node (ref U1) (pin 9))
      (node (ref J1) (pin 3))
      (node (ref R2) (pin 2))
      (node (ref U2) (pin 15))
      (node (ref U1) (pin 18))
      (node (ref U1) (pin 17))
      (node (ref U1) (pin 16))
      (node (ref R1) (pin 2))
      (node (ref U2) (pin 9))
      (node (ref C18) (pin 1))
      (node (ref J2) (pin 3))
      (node (ref C17) (pin 1))
      (node (ref U2) (pin 18))
      (node (ref U2) (pin 17))
      (node (ref U2) (pin 16)))
    (net (code 42) (name "Net-(U2-Pad14)")
      (node (ref U2) (pin 14)))
    (net (code 43) (name "Net-(U2-Pad11)")
      (node (ref U2) (pin 11)))
    (net (code 44) (name /RE1B)
      (node (ref C2) (pin 1))
      (node (ref RE1) (pin B))
      (node (ref U2) (pin 1)))
    (net (code 45) (name "Net-(U1-Pad28)")
      (node (ref U1) (pin 28)))
    (net (code 46) (name "Net-(LED2-Pad2)")
      (node (ref R2) (pin 1))
      (node (ref LED2) (pin 2)))
    (net (code 47) (name "Net-(LED1-Pad2)")
      (node (ref R1) (pin 1))
      (node (ref LED1) (pin 2)))))