EESchema Schematic File Version 4
LIBS:chordboard-cache
EELAYER 26 0
EELAYER END
$Descr A1 33110 23386
encoding utf-8
Sheet 1 1
Title ""
Date ""
Rev ""
Comp ""
Comment1 ""
Comment2 ""
Comment3 ""
Comment4 ""
$EndDescr
$Comp
L Interface_Expansion:MCP23017_SP MCP1
U 1 1 5C2EF9EB
P 8750 2750
F 0 "MCP1" H 8750 4028 50  0000 C CNN
F 1 "MCP23017_SP" H 8750 3937 50  0000 C CNN
F 2 "Package_DIP:DIP-28_W7.62mm" H 8950 1750 50  0001 L CNN
F 3 "http://ww1.microchip.com/downloads/en/DeviceDoc/20001952C.pdf" H 8950 1650 50  0001 L CNN
	1    8750 2750
	1    0    0    -1  
$EndComp
$Comp
L chordboard-components:MAX7219 MAX1
U 1 1 5C2EFB41
P 12200 3500
F 0 "MAX1" H 12200 3400 60  0000 C CNN
F 1 "MAX7219" H 12750 4150 60  0000 C CNN
F 2 "Package_DIP:DIP-24_W7.62mm" H 12200 3300 40  0001 L CIN
F 3 "https://datasheets.maximintegrated.com/en/ds/MAX7219-MAX7221.pdf" H 12200 3200 40  0001 L CIN
	1    12200 3500
	1    0    0    -1  
$EndComp
Text Label 8050 2050 2    50   ~ 0
T_SCL
Text Label 8050 1950 2    50   ~ 0
T_SDA
Text Label 8750 1400 0    50   ~ 0
T_3V3
Text Label 8750 3850 0    50   ~ 0
T_GND
Text Label 12900 1900 0    50   ~ 0
T_5V
Wire Wire Line
	12500 2100 12500 2000
$Comp
L chordboard-components:R R1
U 1 1 5C2F06E8
P 12700 2000
F 0 "R1" V 12504 2000 50  0000 C CNN
F 1 "R" V 12595 2000 50  0000 C CNN
F 2 "Resistor_THT:R_Axial_DIN0204_L3.6mm_D1.6mm_P5.08mm_Horizontal" H 12700 2000 50  0001 C CNN
F 3 "" H 12700 2000 50  0001 C CNN
	1    12700 2000
	0    1    1    0   
$EndComp
Wire Wire Line
	12900 3600 12900 3650
Wire Wire Line
	13000 3650 13000 3600
Text Label 12800 3650 2    50   ~ 0
T_GND
Wire Wire Line
	12900 3650 13000 3650
Wire Wire Line
	12900 3650 12800 3650
Connection ~ 12900 3650
Wire Wire Line
	12900 1900 12900 2000
Wire Wire Line
	12100 2400 12050 2400
Wire Wire Line
	12050 2400 12050 1700
Wire Wire Line
	12050 1700 14950 1700
Wire Wire Line
	14900 2350 14950 2350
Wire Wire Line
	14950 1700 14950 2350
Wire Wire Line
	12100 2500 12000 2500
Wire Wire Line
	12000 2500 12000 1650
Wire Wire Line
	12000 1650 15000 1650
Wire Wire Line
	15000 1650 15000 2550
Wire Wire Line
	15000 2550 14900 2550
Wire Wire Line
	12100 2600 11950 2600
Wire Wire Line
	11950 2600 11950 1600
Wire Wire Line
	11950 1600 15050 1600
Wire Wire Line
	15050 1600 15050 2750
Wire Wire Line
	15050 2750 14900 2750
Wire Wire Line
	12100 2700 11900 2700
Wire Wire Line
	11900 2700 11900 1550
Wire Wire Line
	11900 1550 15650 1550
Wire Wire Line
	15600 2350 15650 2350
Wire Wire Line
	15650 2350 15650 1550
Wire Wire Line
	15600 2550 15700 2550
Wire Wire Line
	15700 2550 15700 1500
Wire Wire Line
	15750 1450 15750 2750
Wire Wire Line
	15750 2750 15600 2750
Wire Wire Line
	15700 1500 11850 1500
Wire Wire Line
	11850 1500 11850 2800
Wire Wire Line
	11850 2800 12100 2800
Wire Wire Line
	12100 2900 11800 2900
Wire Wire Line
	11800 2900 11800 1450
Wire Wire Line
	11800 1450 15750 1450
Wire Wire Line
	12500 2000 12600 2000
Wire Wire Line
	12800 2000 12900 2000
Connection ~ 12900 2000
Wire Wire Line
	12900 2000 12900 2100
Wire Wire Line
	13400 3100 13850 3100
Wire Wire Line
	13850 3100 13850 8200
Wire Wire Line
	13400 3000 13900 3000
Wire Wire Line
	13900 3000 13900 7450
Wire Wire Line
	13950 6700 13950 2900
Wire Wire Line
	13950 2900 13400 2900
Wire Wire Line
	13400 2800 14000 2800
Wire Wire Line
	14000 2800 14000 5950
Wire Wire Line
	14050 5200 14050 2700
Wire Wire Line
	14050 2700 13400 2700
Wire Wire Line
	13400 2600 14100 2600
Wire Wire Line
	14100 2600 14100 4450
Wire Wire Line
	13400 2500 14150 2500
Wire Wire Line
	14150 2500 14150 3700
Wire Wire Line
	13400 2400 14200 2400
Wire Wire Line
	14200 2400 14200 2950
Wire Wire Line
	14200 2950 14450 2950
Wire Wire Line
	14500 2550 14450 2550
Wire Wire Line
	14450 2550 14450 2950
Connection ~ 14450 2950
Wire Wire Line
	14450 2950 15150 2950
Wire Wire Line
	15150 2950 15150 2550
Wire Wire Line
	15150 2550 15200 2550
Wire Wire Line
	14950 2350 14950 3100
Wire Wire Line
	14950 3100 14900 3100
Connection ~ 14950 2350
Wire Wire Line
	15000 2550 15000 3300
Wire Wire Line
	15000 3300 14900 3300
Connection ~ 15000 2550
Wire Wire Line
	15050 2750 15050 3500
Wire Wire Line
	15050 3500 14900 3500
Connection ~ 15050 2750
Wire Wire Line
	14150 3700 14450 3700
Wire Wire Line
	14100 4450 14450 4450
Wire Wire Line
	14050 5200 14450 5200
Wire Wire Line
	14000 5950 14450 5950
Wire Wire Line
	13950 6700 14450 6700
Wire Wire Line
	13900 7450 14450 7450
Wire Wire Line
	13850 8200 14450 8200
Wire Wire Line
	15150 8200 15150 7800
Wire Wire Line
	15150 7800 15200 7800
Wire Wire Line
	14500 7800 14450 7800
Wire Wire Line
	14450 7800 14450 8200
Connection ~ 14450 8200
Wire Wire Line
	14450 8200 15150 8200
Wire Wire Line
	14500 7050 14450 7050
Wire Wire Line
	14450 7050 14450 7450
Connection ~ 14450 7450
Wire Wire Line
	14450 7450 15150 7450
Wire Wire Line
	15200 7050 15150 7050
Wire Wire Line
	15150 7050 15150 7450
Wire Wire Line
	15150 6700 15150 6300
Wire Wire Line
	15150 6300 15200 6300
Wire Wire Line
	14500 6300 14450 6300
Wire Wire Line
	14450 6300 14450 6700
Connection ~ 14450 6700
Wire Wire Line
	14450 6700 15150 6700
Wire Wire Line
	14500 5550 14450 5550
Wire Wire Line
	14450 5550 14450 5950
Connection ~ 14450 5950
Wire Wire Line
	14450 5950 15150 5950
Wire Wire Line
	15200 5550 15150 5550
Wire Wire Line
	15150 5550 15150 5950
Wire Wire Line
	14500 4800 14450 4800
Wire Wire Line
	14450 4800 14450 5200
Connection ~ 14450 5200
Wire Wire Line
	14450 5200 15150 5200
Wire Wire Line
	15200 4800 15150 4800
Wire Wire Line
	15150 4800 15150 5200
Wire Wire Line
	15200 4050 15150 4050
Wire Wire Line
	15150 4050 15150 4450
Wire Wire Line
	14500 4050 14450 4050
Wire Wire Line
	14450 4050 14450 4450
Connection ~ 14450 4450
Wire Wire Line
	14450 4450 15150 4450
Wire Wire Line
	14500 3300 14450 3300
Wire Wire Line
	14450 3300 14450 3700
Connection ~ 14450 3700
Wire Wire Line
	14450 3700 15150 3700
Wire Wire Line
	15200 3300 15150 3300
Wire Wire Line
	15150 3300 15150 3700
Wire Wire Line
	14950 3100 14950 3850
Wire Wire Line
	14950 3850 14900 3850
Connection ~ 14950 3100
Wire Wire Line
	15000 3300 15000 4050
Wire Wire Line
	15000 4050 14900 4050
Connection ~ 15000 3300
Wire Wire Line
	15050 3500 15050 4250
Wire Wire Line
	15050 4250 14900 4250
Connection ~ 15050 3500
Wire Wire Line
	14950 3850 14950 4600
Wire Wire Line
	14950 4600 14900 4600
Connection ~ 14950 3850
Wire Wire Line
	15000 4050 15000 4800
Wire Wire Line
	15000 4800 14900 4800
Connection ~ 15000 4050
Wire Wire Line
	15050 4250 15050 5000
Wire Wire Line
	15050 5000 14900 5000
Connection ~ 15050 4250
Wire Wire Line
	14950 4600 14950 5350
Wire Wire Line
	14950 5350 14900 5350
Connection ~ 14950 4600
Wire Wire Line
	15000 4800 15000 5550
Wire Wire Line
	15000 5550 14900 5550
Connection ~ 15000 4800
Wire Wire Line
	15050 5000 15050 5750
Wire Wire Line
	15050 5750 14900 5750
Connection ~ 15050 5000
Wire Wire Line
	14950 5350 14950 6100
Wire Wire Line
	14950 6100 14900 6100
Connection ~ 14950 5350
Wire Wire Line
	15000 5550 15000 6300
Wire Wire Line
	15000 6300 14900 6300
Connection ~ 15000 5550
Wire Wire Line
	15050 5750 15050 6500
Wire Wire Line
	15050 6500 14900 6500
Connection ~ 15050 5750
Wire Wire Line
	14950 6100 14950 6850
Wire Wire Line
	14950 6850 14900 6850
Connection ~ 14950 6100
Wire Wire Line
	15000 6300 15000 7050
Wire Wire Line
	15000 7050 14900 7050
Connection ~ 15000 6300
Wire Wire Line
	15050 6500 15050 7250
Wire Wire Line
	15050 7250 14900 7250
Connection ~ 15050 6500
Wire Wire Line
	14950 6850 14950 7600
Wire Wire Line
	14950 7600 14900 7600
Connection ~ 14950 6850
Wire Wire Line
	15000 7050 15000 7800
Wire Wire Line
	15000 7800 14900 7800
Connection ~ 15000 7050
Wire Wire Line
	15050 7250 15050 8000
Wire Wire Line
	15050 8000 14900 8000
Connection ~ 15050 7250
Wire Wire Line
	15650 2350 15650 3100
Connection ~ 15650 2350
Wire Wire Line
	15700 2550 15700 3300
Connection ~ 15700 2550
Wire Wire Line
	15750 2750 15750 3500
Connection ~ 15750 2750
Wire Wire Line
	15750 8000 15600 8000
Wire Wire Line
	15700 7800 15600 7800
Wire Wire Line
	15600 7600 15650 7600
Wire Wire Line
	15600 7250 15750 7250
Connection ~ 15750 7250
Wire Wire Line
	15750 7250 15750 8000
Wire Wire Line
	15700 7050 15600 7050
Connection ~ 15700 7050
Wire Wire Line
	15700 7050 15700 7800
Wire Wire Line
	15650 6850 15600 6850
Connection ~ 15650 6850
Wire Wire Line
	15650 6850 15650 7600
Wire Wire Line
	15600 6500 15750 6500
Connection ~ 15750 6500
Wire Wire Line
	15750 6500 15750 7250
Wire Wire Line
	15600 6300 15700 6300
Connection ~ 15700 6300
Wire Wire Line
	15700 6300 15700 7050
Wire Wire Line
	15600 6100 15650 6100
Connection ~ 15650 6100
Wire Wire Line
	15650 6100 15650 6850
Wire Wire Line
	15600 5750 15750 5750
Connection ~ 15750 5750
Wire Wire Line
	15750 5750 15750 6500
Wire Wire Line
	15600 5550 15700 5550
Connection ~ 15700 5550
Wire Wire Line
	15700 5550 15700 6300
Wire Wire Line
	15600 5350 15650 5350
Connection ~ 15650 5350
Wire Wire Line
	15650 5350 15650 6100
Wire Wire Line
	15600 5000 15750 5000
Connection ~ 15750 5000
Wire Wire Line
	15750 5000 15750 5750
Wire Wire Line
	15600 4800 15700 4800
Connection ~ 15700 4800
Wire Wire Line
	15700 4800 15700 5550
Wire Wire Line
	15600 4600 15650 4600
Connection ~ 15650 4600
Wire Wire Line
	15650 4600 15650 5350
Wire Wire Line
	15600 4250 15750 4250
Connection ~ 15750 4250
Wire Wire Line
	15750 4250 15750 5000
Wire Wire Line
	15600 4050 15700 4050
Connection ~ 15700 4050
Wire Wire Line
	15700 4050 15700 4800
Wire Wire Line
	15600 3850 15650 3850
Connection ~ 15650 3850
Wire Wire Line
	15650 3850 15650 4600
Wire Wire Line
	15600 3500 15750 3500
Connection ~ 15750 3500
Wire Wire Line
	15750 3500 15750 4250
Wire Wire Line
	15600 3300 15700 3300
Connection ~ 15700 3300
Wire Wire Line
	15700 3300 15700 4050
Wire Wire Line
	15600 3100 15650 3100
Connection ~ 15650 3100
Wire Wire Line
	15650 3100 15650 3850
Text Label 12100 3250 2    50   ~ 0
LED_DAT
Text Label 12100 3350 2    50   ~ 0
LED_CLK
$Comp
L Switch:SW_Push SW1
U 1 1 5C4373EF
P 9850 1950
F 0 "SW1" H 9650 2000 50  0000 C CNN
F 1 "SW_Push" H 10150 2000 50  0000 C CNN
F 2 "chordboard-footprints:CHERRY_PCB_100H" H 9850 2150 50  0001 C CNN
F 3 "" H 9850 2150 50  0001 C CNN
	1    9850 1950
	1    0    0    -1  
$EndComp
$Comp
L Switch:SW_Push SW2
U 1 1 5C437509
P 9850 2050
F 0 "SW2" H 9650 2100 50  0000 C CNN
F 1 "SW_Push" H 10150 2100 50  0000 C CNN
F 2 "chordboard-footprints:CHERRY_PCB_100H" H 9850 2250 50  0001 C CNN
F 3 "" H 9850 2250 50  0001 C CNN
	1    9850 2050
	1    0    0    -1  
$EndComp
$Comp
L Switch:SW_Push SW3
U 1 1 5C437551
P 9850 2150
F 0 "SW3" H 9650 2200 50  0000 C CNN
F 1 "SW_Push" H 10150 2200 50  0000 C CNN
F 2 "chordboard-footprints:CHERRY_PCB_100H" H 9850 2350 50  0001 C CNN
F 3 "" H 9850 2350 50  0001 C CNN
	1    9850 2150
	1    0    0    -1  
$EndComp
$Comp
L Switch:SW_Push SW4
U 1 1 5C437593
P 9850 2250
F 0 "SW4" H 9650 2300 50  0000 C CNN
F 1 "SW_Push" H 10150 2300 50  0000 C CNN
F 2 "chordboard-footprints:CHERRY_PCB_100H" H 9850 2450 50  0001 C CNN
F 3 "" H 9850 2450 50  0001 C CNN
	1    9850 2250
	1    0    0    -1  
$EndComp
$Comp
L Switch:SW_Push SW5
U 1 1 5C4375D7
P 9850 2350
F 0 "SW5" H 9650 2400 50  0000 C CNN
F 1 "SW_Push" H 10150 2400 50  0000 C CNN
F 2 "chordboard-footprints:CHERRY_PCB_100H" H 9850 2550 50  0001 C CNN
F 3 "" H 9850 2550 50  0001 C CNN
	1    9850 2350
	1    0    0    -1  
$EndComp
$Comp
L Switch:SW_Push SW6
U 1 1 5C437619
P 9850 2450
F 0 "SW6" H 9650 2500 50  0000 C CNN
F 1 "SW_Push" H 10150 2500 50  0000 C CNN
F 2 "chordboard-footprints:CHERRY_PCB_100H" H 9850 2650 50  0001 C CNN
F 3 "" H 9850 2650 50  0001 C CNN
	1    9850 2450
	1    0    0    -1  
$EndComp
$Comp
L Switch:SW_Push SW7
U 1 1 5C43765D
P 9850 2550
F 0 "SW7" H 9650 2600 50  0000 C CNN
F 1 "SW_Push" H 10150 2600 50  0000 C CNN
F 2 "chordboard-footprints:CHERRY_PCB_100H" H 9850 2750 50  0001 C CNN
F 3 "" H 9850 2750 50  0001 C CNN
	1    9850 2550
	1    0    0    -1  
$EndComp
$Comp
L Switch:SW_Push SW8
U 1 1 5C4376A7
P 9850 2650
F 0 "SW8" H 9650 2700 50  0000 C CNN
F 1 "SW_Push" H 10150 2700 50  0000 C CNN
F 2 "chordboard-footprints:CHERRY_PCB_100H" H 9850 2850 50  0001 C CNN
F 3 "" H 9850 2850 50  0001 C CNN
	1    9850 2650
	1    0    0    -1  
$EndComp
$Comp
L Switch:SW_Push SW9
U 1 1 5C4376EF
P 9850 2850
F 0 "SW9" H 9650 2900 50  0000 C CNN
F 1 "SW_Push" H 10150 2900 50  0000 C CNN
F 2 "chordboard-footprints:CHERRY_PCB_100H" H 9850 3050 50  0001 C CNN
F 3 "" H 9850 3050 50  0001 C CNN
	1    9850 2850
	1    0    0    -1  
$EndComp
$Comp
L Switch:SW_Push SW10
U 1 1 5C43773D
P 9850 2950
F 0 "SW10" H 9650 3000 50  0000 C CNN
F 1 "SW_Push" H 10150 3000 50  0000 C CNN
F 2 "chordboard-footprints:CHERRY_PCB_100H" H 9850 3150 50  0001 C CNN
F 3 "" H 9850 3150 50  0001 C CNN
	1    9850 2950
	1    0    0    -1  
$EndComp
$Comp
L Switch:SW_Push SW11
U 1 1 5C43778D
P 9850 3050
F 0 "SW11" H 9650 3100 50  0000 C CNN
F 1 "SW_Push" H 10150 3100 50  0000 C CNN
F 2 "chordboard-footprints:CHERRY_PCB_100H" H 9850 3250 50  0001 C CNN
F 3 "" H 9850 3250 50  0001 C CNN
	1    9850 3050
	1    0    0    -1  
$EndComp
$Comp
L Switch:SW_Push SW12
U 1 1 5C4377DB
P 9850 3150
F 0 "SW12" H 9650 3200 50  0000 C CNN
F 1 "SW_Push" H 10150 3200 50  0000 C CNN
F 2 "chordboard-footprints:CHERRY_PCB_100H" H 9850 3350 50  0001 C CNN
F 3 "" H 9850 3350 50  0001 C CNN
	1    9850 3150
	1    0    0    -1  
$EndComp
$Comp
L Switch:SW_Push SW13
U 1 1 5C43782B
P 9850 3250
F 0 "SW13" H 9650 3300 50  0000 C CNN
F 1 "SW_Push" H 10150 3300 50  0000 C CNN
F 2 "chordboard-footprints:CHERRY_PCB_100H" H 9850 3450 50  0001 C CNN
F 3 "" H 9850 3450 50  0001 C CNN
	1    9850 3250
	1    0    0    -1  
$EndComp
$Comp
L Switch:SW_Push SW14
U 1 1 5C43787F
P 9850 3350
F 0 "SW14" H 9650 3400 50  0000 C CNN
F 1 "SW_Push" H 10150 3400 50  0000 C CNN
F 2 "chordboard-footprints:CHERRY_PCB_100H" H 9850 3550 50  0001 C CNN
F 3 "" H 9850 3550 50  0001 C CNN
	1    9850 3350
	1    0    0    -1  
$EndComp
$Comp
L Switch:SW_Push SW15
U 1 1 5C4378D7
P 9850 3450
F 0 "SW15" H 9650 3500 50  0000 C CNN
F 1 "SW_Push" H 10150 3500 50  0000 C CNN
F 2 "chordboard-footprints:CHERRY_PCB_100H" H 9850 3650 50  0001 C CNN
F 3 "" H 9850 3650 50  0001 C CNN
	1    9850 3450
	1    0    0    -1  
$EndComp
$Comp
L Switch:SW_Push SW16
U 1 1 5C43792D
P 9850 3550
F 0 "SW16" H 9650 3600 50  0000 C CNN
F 1 "SW_Push" H 10150 3600 50  0000 C CNN
F 2 "chordboard-footprints:CHERRY_PCB_100H" H 9850 3750 50  0001 C CNN
F 3 "" H 9850 3750 50  0001 C CNN
	1    9850 3550
	1    0    0    -1  
$EndComp
Wire Wire Line
	9450 1950 9650 1950
Wire Wire Line
	9650 2050 9450 2050
Wire Wire Line
	9450 2150 9650 2150
Wire Wire Line
	9650 2250 9450 2250
Wire Wire Line
	9450 2350 9650 2350
Wire Wire Line
	9450 2450 9650 2450
Wire Wire Line
	9650 2550 9450 2550
Wire Wire Line
	9450 2650 9650 2650
Wire Wire Line
	9650 2850 9450 2850
Wire Wire Line
	9450 2950 9650 2950
Wire Wire Line
	9450 3050 9650 3050
Wire Wire Line
	9450 3150 9650 3150
Wire Wire Line
	9450 3250 9650 3250
Wire Wire Line
	9450 3350 9650 3350
Wire Wire Line
	9650 3450 9450 3450
Wire Wire Line
	9450 3550 9650 3550
Wire Wire Line
	10050 1950 10450 1950
Wire Wire Line
	10050 2050 10450 2050
Wire Wire Line
	10050 2150 10450 2150
Wire Wire Line
	10050 2250 10450 2250
Wire Wire Line
	10050 2350 10450 2350
Wire Wire Line
	10050 2450 10450 2450
Wire Wire Line
	10050 2550 10450 2550
Wire Wire Line
	10050 2650 10450 2650
Wire Wire Line
	10050 2850 10450 2850
Wire Wire Line
	10050 2950 10450 2950
Wire Wire Line
	10050 3050 10450 3050
Wire Wire Line
	10050 3150 10450 3150
Wire Wire Line
	10050 3250 10450 3250
Wire Wire Line
	10050 3350 10450 3350
Wire Wire Line
	10050 3450 10450 3450
Wire Wire Line
	10050 3550 10450 3550
Wire Wire Line
	10450 1950 10450 2050
Connection ~ 10450 2050
Wire Wire Line
	10450 2050 10450 2150
Connection ~ 10450 2150
Wire Wire Line
	10450 2150 10450 2250
Connection ~ 10450 2250
Wire Wire Line
	10450 2250 10450 2350
Connection ~ 10450 2350
Wire Wire Line
	10450 2350 10450 2450
Connection ~ 10450 2450
Wire Wire Line
	10450 2450 10450 2550
Connection ~ 10450 2550
Wire Wire Line
	10450 2550 10450 2650
Connection ~ 10450 2650
Wire Wire Line
	10450 2650 10450 2850
Connection ~ 10450 2850
Wire Wire Line
	10450 2850 10450 2950
Connection ~ 10450 2950
Wire Wire Line
	10450 2950 10450 3050
Connection ~ 10450 3050
Wire Wire Line
	10450 3050 10450 3150
Connection ~ 10450 3150
Wire Wire Line
	10450 3150 10450 3250
Connection ~ 10450 3250
Wire Wire Line
	10450 3250 10450 3350
Connection ~ 10450 3350
Wire Wire Line
	10450 3350 10450 3450
Connection ~ 10450 3450
Wire Wire Line
	10450 3450 10450 3550
Connection ~ 10450 3550
Wire Wire Line
	10450 3550 10450 3800
Text Label 10450 3800 0    50   ~ 0
T_GND
$Comp
L Device:LED_ARGB KLED1
U 1 1 5C2F0A78
P 14700 2550
F 0 "KLED1" V 14850 2350 50  0000 C CNN
F 1 "LED_ARGB" V 14850 2750 50  0000 C CNN
F 2 "chordboard-footprints:LED_D3.0mm-4" H 14700 2500 50  0001 C CNN
F 3 "~" H 14700 2500 50  0001 C CNN
	1    14700 2550
	-1   0    0    1   
$EndComp
$Comp
L Device:LED_ARGB KLED2
U 1 1 5C5FA78E
P 14700 3300
F 0 "KLED2" V 14850 3100 50  0000 C CNN
F 1 "LED_ARGB" V 14850 3500 50  0000 C CNN
F 2 "chordboard-footprints:LED_D3.0mm-4" H 14700 3250 50  0001 C CNN
F 3 "~" H 14700 3250 50  0001 C CNN
	1    14700 3300
	-1   0    0    1   
$EndComp
$Comp
L Device:LED_ARGB KLED3
U 1 1 5C5FA7EA
P 14700 4050
F 0 "KLED3" V 14850 3850 50  0000 C CNN
F 1 "LED_ARGB" V 14850 4250 50  0000 C CNN
F 2 "chordboard-footprints:LED_D3.0mm-4" H 14700 4000 50  0001 C CNN
F 3 "~" H 14700 4000 50  0001 C CNN
	1    14700 4050
	-1   0    0    1   
$EndComp
$Comp
L Device:LED_ARGB KLED4
U 1 1 5C5FA86A
P 14700 4800
F 0 "KLED4" V 14850 4600 50  0000 C CNN
F 1 "LED_ARGB" V 14850 5000 50  0000 C CNN
F 2 "chordboard-footprints:LED_D3.0mm-4" H 14700 4750 50  0001 C CNN
F 3 "~" H 14700 4750 50  0001 C CNN
	1    14700 4800
	-1   0    0    1   
$EndComp
$Comp
L Device:LED_ARGB KLED5
U 1 1 5C5FA8D8
P 14700 5550
F 0 "KLED5" V 14850 5350 50  0000 C CNN
F 1 "LED_ARGB" V 14850 5750 50  0000 C CNN
F 2 "chordboard-footprints:LED_D3.0mm-4" H 14700 5500 50  0001 C CNN
F 3 "~" H 14700 5500 50  0001 C CNN
	1    14700 5550
	-1   0    0    1   
$EndComp
$Comp
L Device:LED_ARGB KLED6
U 1 1 5C5FAA02
P 14700 6300
F 0 "KLED6" V 14850 6100 50  0000 C CNN
F 1 "LED_ARGB" V 14850 6500 50  0000 C CNN
F 2 "chordboard-footprints:LED_D3.0mm-4" H 14700 6250 50  0001 C CNN
F 3 "~" H 14700 6250 50  0001 C CNN
	1    14700 6300
	-1   0    0    1   
$EndComp
$Comp
L Device:LED_ARGB KLED7
U 1 1 5C5FAA68
P 14700 7050
F 0 "KLED7" V 14850 6850 50  0000 C CNN
F 1 "LED_ARGB" V 14850 7250 50  0000 C CNN
F 2 "chordboard-footprints:LED_D3.0mm-4" H 14700 7000 50  0001 C CNN
F 3 "~" H 14700 7000 50  0001 C CNN
	1    14700 7050
	-1   0    0    1   
$EndComp
$Comp
L Device:LED_ARGB KLED8
U 1 1 5C5FAAD4
P 14700 7800
F 0 "KLED8" V 14850 7600 50  0000 C CNN
F 1 "LED_ARGB" V 14850 8000 50  0000 C CNN
F 2 "chordboard-footprints:LED_D3.0mm-4" H 14700 7750 50  0001 C CNN
F 3 "~" H 14700 7750 50  0001 C CNN
	1    14700 7800
	-1   0    0    1   
$EndComp
$Comp
L Device:LED_ARGB KLED9
U 1 1 5C5FAB5F
P 15400 2550
F 0 "KLED9" V 15550 2350 50  0000 C CNN
F 1 "LED_ARGB" V 15550 2750 50  0000 C CNN
F 2 "chordboard-footprints:LED_D3.0mm-4" H 15400 2500 50  0001 C CNN
F 3 "~" H 15400 2500 50  0001 C CNN
	1    15400 2550
	-1   0    0    1   
$EndComp
$Comp
L Device:LED_ARGB KLED10
U 1 1 5C5FABD5
P 15400 3300
F 0 "KLED10" V 15550 3100 50  0000 C CNN
F 1 "LED_ARGB" V 15550 3500 50  0000 C CNN
F 2 "chordboard-footprints:LED_D3.0mm-4" H 15400 3250 50  0001 C CNN
F 3 "~" H 15400 3250 50  0001 C CNN
	1    15400 3300
	-1   0    0    1   
$EndComp
$Comp
L Device:LED_ARGB KLED11
U 1 1 5C5FAC45
P 15400 4050
F 0 "KLED11" V 15550 3850 50  0000 C CNN
F 1 "LED_ARGB" V 15550 4250 50  0000 C CNN
F 2 "chordboard-footprints:LED_D3.0mm-4" H 15400 4000 50  0001 C CNN
F 3 "~" H 15400 4000 50  0001 C CNN
	1    15400 4050
	-1   0    0    1   
$EndComp
$Comp
L Device:LED_ARGB KLED12
U 1 1 5C5FACB7
P 15400 4800
F 0 "KLED12" V 15550 4600 50  0000 C CNN
F 1 "LED_ARGB" V 15550 5000 50  0000 C CNN
F 2 "chordboard-footprints:LED_D3.0mm-4" H 15400 4750 50  0001 C CNN
F 3 "~" H 15400 4750 50  0001 C CNN
	1    15400 4800
	-1   0    0    1   
$EndComp
$Comp
L Device:LED_ARGB KLED13
U 1 1 5C5FAE01
P 15400 5550
F 0 "KLED13" V 15550 5350 50  0000 C CNN
F 1 "LED_ARGB" V 15550 5750 50  0000 C CNN
F 2 "chordboard-footprints:LED_D3.0mm-4" H 15400 5500 50  0001 C CNN
F 3 "~" H 15400 5500 50  0001 C CNN
	1    15400 5550
	-1   0    0    1   
$EndComp
$Comp
L Device:LED_ARGB KLED14
U 1 1 5C5FAE77
P 15400 6300
F 0 "KLED14" V 15550 6100 50  0000 C CNN
F 1 "LED_ARGB" V 15550 6500 50  0000 C CNN
F 2 "chordboard-footprints:LED_D3.0mm-4" H 15400 6250 50  0001 C CNN
F 3 "~" H 15400 6250 50  0001 C CNN
	1    15400 6300
	-1   0    0    1   
$EndComp
$Comp
L Device:LED_ARGB KLED15
U 1 1 5C5FAEF3
P 15400 7050
F 0 "KLED15" V 15550 6850 50  0000 C CNN
F 1 "LED_ARGB" V 15550 7250 50  0000 C CNN
F 2 "chordboard-footprints:LED_D3.0mm-4" H 15400 7000 50  0001 C CNN
F 3 "~" H 15400 7000 50  0001 C CNN
	1    15400 7050
	-1   0    0    1   
$EndComp
$Comp
L Device:LED_ARGB KLED16
U 1 1 5C5FAF6D
P 15400 7800
F 0 "KLED16" V 15550 7600 50  0000 C CNN
F 1 "LED_ARGB" V 15550 8000 50  0000 C CNN
F 2 "chordboard-footprints:LED_D3.0mm-4" H 15400 7750 50  0001 C CNN
F 3 "~" H 15400 7750 50  0001 C CNN
	1    15400 7800
	-1   0    0    1   
$EndComp
Text Label 8050 2850 2    50   ~ 0
T_3V3
Wire Wire Line
	12900 2000 13500 2000
$Comp
L Device:C_Small C3
U 1 1 5CFBFDBF
P 13500 2150
F 0 "C3" H 13592 2196 50  0000 L CNN
F 1 "C_Small" H 13592 2105 50  0000 L CNN
F 2 "Capacitor_THT:C_Disc_D3.0mm_W2.0mm_P2.50mm" H 13500 2150 50  0001 C CNN
F 3 "~" H 13500 2150 50  0001 C CNN
	1    13500 2150
	1    0    0    -1  
$EndComp
$Comp
L Device:CP_Small C4
U 1 1 5CFBFDC6
P 13700 2150
F 0 "C4" H 13788 2196 50  0000 L CNN
F 1 "CP_Small" H 13788 2105 50  0000 L CNN
F 2 "Capacitor_THT:CP_Radial_D5.0mm_P2.00mm" H 13700 2150 50  0001 C CNN
F 3 "~" H 13700 2150 50  0001 C CNN
	1    13700 2150
	1    0    0    -1  
$EndComp
Wire Wire Line
	13500 2050 13500 2000
Wire Wire Line
	13500 2000 13700 2000
Wire Wire Line
	13700 2000 13700 2050
Connection ~ 13500 2000
Wire Wire Line
	13500 2250 13500 2300
Wire Wire Line
	13500 2300 13700 2300
Wire Wire Line
	13700 2300 13700 2250
Text Label 13750 2300 0    50   ~ 0
T_GND
Wire Wire Line
	13750 2300 13700 2300
Connection ~ 13700 2300
Wire Wire Line
	8750 1400 8750 1450
Wire Wire Line
	8750 1450 9350 1450
$Comp
L Device:C_Small C33
U 1 1 5D27F075
P 9350 1600
F 0 "C33" H 9442 1646 50  0000 L CNN
F 1 "C_Small" H 9442 1555 50  0000 L CNN
F 2 "Capacitor_THT:C_Disc_D3.0mm_W2.0mm_P2.50mm" H 9350 1600 50  0001 C CNN
F 3 "~" H 9350 1600 50  0001 C CNN
	1    9350 1600
	1    0    0    -1  
$EndComp
$Comp
L Device:CP_Small C34
U 1 1 5D27F07C
P 9550 1600
F 0 "C34" H 9638 1646 50  0000 L CNN
F 1 "CP_Small" H 9638 1555 50  0000 L CNN
F 2 "Capacitor_THT:CP_Radial_D5.0mm_P2.00mm" H 9550 1600 50  0001 C CNN
F 3 "~" H 9550 1600 50  0001 C CNN
	1    9550 1600
	1    0    0    -1  
$EndComp
Wire Wire Line
	9350 1500 9350 1450
Wire Wire Line
	9350 1450 9550 1450
Wire Wire Line
	9550 1450 9550 1500
Connection ~ 9350 1450
Wire Wire Line
	9350 1700 9350 1750
Wire Wire Line
	9350 1750 9550 1750
Wire Wire Line
	9550 1750 9550 1700
Text Label 9600 1750 0    50   ~ 0
T_GND
Wire Wire Line
	9600 1750 9550 1750
Connection ~ 9550 1750
Connection ~ 8750 1450
Wire Wire Line
	8750 1450 8750 1650
Text Label 13400 3250 0    50   ~ 0
LED_DOUT
Text Label 12100 3450 2    50   ~ 0
LED_CS
$Comp
L chordboard-components:GROVE_I2C JI1
U 1 1 66F39276
P 10950 4600
F 0 "JI1" H 11277 4651 50  0000 L CNN
F 1 "I2C_IN" H 11277 4560 50  0000 L CNN
F 2 "Connector_JST:JST_PH_B4B-PH-K_1x04_P2.00mm_Vertical" H 10950 4600 50  0001 C CNN
F 3 "" H 10950 4600 50  0001 C CNN
	1    10950 4600
	1    0    0    -1  
$EndComp
Text Label 10750 4450 2    50   ~ 0
T_SCL
Text Label 10750 4550 2    50   ~ 0
T_SDA
Text Label 10750 4650 2    50   ~ 0
T_3V3
Text Label 10750 4750 2    50   ~ 0
T_GND
$Comp
L chordboard-components:GROVE_I2C JL1
U 1 1 5C7B2A7B
P 10950 5100
F 0 "JL1" H 11277 5151 50  0000 L CNN
F 1 "LED_IN" H 11277 5060 50  0000 L CNN
F 2 "Connector_JST:JST_PH_B4B-PH-K_1x04_P2.00mm_Vertical" H 10950 5100 50  0001 C CNN
F 3 "" H 10950 5100 50  0001 C CNN
	1    10950 5100
	1    0    0    -1  
$EndComp
Text Label 10750 5150 2    50   ~ 0
LED_CS
Text Label 10750 5050 2    50   ~ 0
LED_CLK
Text Label 10750 4950 2    50   ~ 0
LED_DAT
Text Label 10750 5250 2    50   ~ 0
T_5V
$Comp
L chordboard-components:GROVE_I2C JI2
U 1 1 5C8389BF
P 12250 4650
F 0 "JI2" H 12577 4701 50  0000 L CNN
F 1 "I2C_OUT" H 12577 4610 50  0000 L CNN
F 2 "Connector_JST:JST_PH_B4B-PH-K_1x04_P2.00mm_Vertical" H 12250 4650 50  0001 C CNN
F 3 "" H 12250 4650 50  0001 C CNN
	1    12250 4650
	1    0    0    -1  
$EndComp
Text Label 12050 4500 2    50   ~ 0
T_SCL
Text Label 12050 4600 2    50   ~ 0
T_SDA
Text Label 12050 4700 2    50   ~ 0
T_3V3
Text Label 12050 4800 2    50   ~ 0
T_GND
$Comp
L chordboard-components:GROVE_I2C JL2
U 1 1 5C8389CA
P 12250 5150
F 0 "JL2" H 12577 5201 50  0000 L CNN
F 1 "LED_OUT" H 12577 5110 50  0000 L CNN
F 2 "Connector_JST:JST_PH_B4B-PH-K_1x04_P2.00mm_Vertical" H 12250 5150 50  0001 C CNN
F 3 "" H 12250 5150 50  0001 C CNN
	1    12250 5150
	1    0    0    -1  
$EndComp
Text Label 12050 5200 2    50   ~ 0
LED_CS
Text Label 12050 5100 2    50   ~ 0
LED_CLK
Text Label 12050 5300 2    50   ~ 0
T_5V
Text Label 12050 5000 2    50   ~ 0
LED_DOUT
$Comp
L Mechanical:MountingHole H1
U 1 1 5C84B4DE
P 8800 4450
F 0 "H1" H 8900 4496 50  0000 L CNN
F 1 "MountingHole" H 8900 4405 50  0000 L CNN
F 2 "MountingHole:MountingHole_2.7mm_M2.5_Pad_Via" H 8800 4450 50  0001 C CNN
F 3 "~" H 8800 4450 50  0001 C CNN
	1    8800 4450
	1    0    0    -1  
$EndComp
$Comp
L Mechanical:MountingHole H2
U 1 1 5C84B654
P 8800 4650
F 0 "H2" H 8900 4696 50  0000 L CNN
F 1 "MountingHole" H 8900 4605 50  0000 L CNN
F 2 "MountingHole:MountingHole_2.7mm_M2.5_Pad_Via" H 8800 4650 50  0001 C CNN
F 3 "~" H 8800 4650 50  0001 C CNN
	1    8800 4650
	1    0    0    -1  
$EndComp
$Comp
L Mechanical:MountingHole H3
U 1 1 5C84B6C6
P 8800 4850
F 0 "H3" H 8900 4896 50  0000 L CNN
F 1 "MountingHole" H 8900 4805 50  0000 L CNN
F 2 "MountingHole:MountingHole_2.7mm_M2.5_Pad_Via" H 8800 4850 50  0001 C CNN
F 3 "~" H 8800 4850 50  0001 C CNN
	1    8800 4850
	1    0    0    -1  
$EndComp
$Comp
L Mechanical:MountingHole H4
U 1 1 5C84B736
P 8800 5050
F 0 "H4" H 8900 5096 50  0000 L CNN
F 1 "MountingHole" H 8900 5005 50  0000 L CNN
F 2 "MountingHole:MountingHole_2.7mm_M2.5_Pad_Via" H 8800 5050 50  0001 C CNN
F 3 "~" H 8800 5050 50  0001 C CNN
	1    8800 5050
	1    0    0    -1  
$EndComp
$Comp
L Jumper:SolderJumper_3_Open A1
U 1 1 5C84C4EE
P 7100 3200
F 0 "A1" H 7100 3405 50  0000 C CNN
F 1 "SolderJumper_3_Open" H 7100 3314 50  0000 C CNN
F 2 "Jumper:SolderJumper-3_P2.0mm_Open_TrianglePad1.0x1.5mm" H 7100 3200 50  0001 C CNN
F 3 "~" H 7100 3200 50  0001 C CNN
	1    7100 3200
	1    0    0    -1  
$EndComp
$Comp
L Jumper:SolderJumper_3_Open A0
U 1 1 5C84C76A
P 6600 3200
F 0 "A0" H 6600 3405 50  0000 C CNN
F 1 "SolderJumper_3_Open" H 6600 3314 50  0000 C CNN
F 2 "Jumper:SolderJumper-3_P2.0mm_Open_TrianglePad1.0x1.5mm" H 6600 3200 50  0001 C CNN
F 3 "~" H 6600 3200 50  0001 C CNN
	1    6600 3200
	1    0    0    -1  
$EndComp
$Comp
L Jumper:SolderJumper_3_Open A2
U 1 1 5C84C808
P 7600 3200
F 0 "A2" H 7600 3405 50  0000 C CNN
F 1 "SolderJumper_3_Open" H 7600 3314 50  0000 C CNN
F 2 "Jumper:SolderJumper-3_P2.0mm_Open_TrianglePad1.0x1.5mm" H 7600 3200 50  0001 C CNN
F 3 "~" H 7600 3200 50  0001 C CNN
	1    7600 3200
	1    0    0    -1  
$EndComp
Wire Wire Line
	8050 3350 7600 3350
Wire Wire Line
	8050 3450 7100 3450
Wire Wire Line
	7100 3450 7100 3350
Wire Wire Line
	8050 3550 6600 3550
Wire Wire Line
	6600 3550 6600 3350
Text Label 7800 3200 1    50   ~ 0
T_3V3
Text Label 7300 3200 1    50   ~ 0
T_3V3
Text Label 6800 3200 1    50   ~ 0
T_3V3
Text Label 7400 3200 1    50   ~ 0
T_GND
Text Label 6900 3200 1    50   ~ 0
T_GND
Text Label 6400 3200 1    50   ~ 0
T_GND
$EndSCHEMATC
