EESchema Schematic File Version 2
LIBS:Connector
LIBS:MCU_ST_STM32
LIBS:power
LIBS:regul
LIBS:device
LIBS:Switch
LIBS:MCU_Microchip_PIC32
LIBS:stm32rest-cache
EELAYER 25 0
EELAYER END
$Descr A0 46811 33110
encoding utf-8
Sheet 1 1
Title ""
Date ""
Rev ""
Comp ""
Comment1 ""
Comment2 ""
Comment3 ""
Comment4 ""
$EndDescr
$Comp
L STM32F103C8Tx U2
U 1 1 5AE4B846
P 8900 6650
F 0 "U2" H 6100 8375 50  0000 L BNN
F 1 "STM32F103C8Tx" H 11700 8375 50  0000 R BNN
F 2 "Housings_QFP:LQFP-48_7x7mm_Pitch0.5mm" H 11700 8325 50  0001 R TNN
F 3 "" H 8900 6650 50  0001 C CNN
	1    8900 6650
	1    0    0    -1  
$EndComp
$Comp
L Crystal Y1
U 1 1 5AE4B917
P 4600 5900
F 0 "Y1" H 4600 6050 50  0000 C CNN
F 1 "8M" H 4600 5750 50  0000 C CNN
F 2 "" H 4600 5900 50  0001 C CNN
F 3 "" H 4600 5900 50  0001 C CNN
	1    4600 5900
	0    1    1    0   
$EndComp
$Comp
L Crystal Y2
U 1 1 5AE4BA1F
P 4600 6300
F 0 "Y2" H 4600 6450 50  0000 C CNN
F 1 "32.768K" H 4600 6150 50  0000 C CNN
F 2 "" H 4600 6300 50  0001 C CNN
F 3 "" H 4600 6300 50  0001 C CNN
	1    4600 6300
	0    1    1    0   
$EndComp
$Comp
L C_Small C8
U 1 1 5AE4BCBD
P 4350 5750
F 0 "C8" H 4360 5820 50  0000 L CNN
F 1 "23pF" H 4360 5670 50  0000 L CNN
F 2 "Capacitors_SMD:C_0603" H 4350 5750 50  0001 C CNN
F 3 "" H 4350 5750 50  0001 C CNN
	1    4350 5750
	0    1    1    0   
$EndComp
$Comp
L C_Small C9
U 1 1 5AE4BD0A
P 4350 6050
F 0 "C9" H 4360 6120 50  0000 L CNN
F 1 "23pF" H 4360 5970 50  0000 L CNN
F 2 "Capacitors_SMD:C_0603" H 4350 6050 50  0001 C CNN
F 3 "" H 4350 6050 50  0001 C CNN
	1    4350 6050
	0    1    1    0   
$EndComp
$Comp
L C_Small C10
U 1 1 5AE4BD35
P 4350 6150
F 0 "C10" H 4360 6220 50  0000 L CNN
F 1 "23pF" H 4360 6070 50  0000 L CNN
F 2 "Capacitors_SMD:C_0603" H 4350 6150 50  0001 C CNN
F 3 "" H 4350 6150 50  0001 C CNN
	1    4350 6150
	0    1    1    0   
$EndComp
$Comp
L C_Small C11
U 1 1 5AE4BD57
P 4350 6450
F 0 "C11" H 4360 6520 50  0000 L CNN
F 1 "23pF" H 4360 6370 50  0000 L CNN
F 2 "Capacitors_SMD:C_0603" H 4350 6450 50  0001 C CNN
F 3 "" H 4350 6450 50  0001 C CNN
	1    4350 6450
	0    1    1    0   
$EndComp
$Comp
L R_Small R4
U 1 1 5AE4C050
P 4650 4900
F 0 "R4" H 4680 4920 50  0000 L CNN
F 1 "10K" H 4680 4860 50  0000 L CNN
F 2 "Resistors_SMD:R_0603" H 4650 4900 50  0001 C CNN
F 3 "" H 4650 4900 50  0001 C CNN
	1    4650 4900
	-1   0    0    1   
$EndComp
Text Label 6000 5250 2    60   ~ 0
RST
Text Label 6000 5850 2    60   ~ 0
OSC_IN
Text Label 6000 5950 2    60   ~ 0
OSC_OUT
Text Label 6000 6250 2    60   ~ 0
OSC32_IN
Text Label 6000 6350 2    60   ~ 0
OSC32_OUT
Wire Wire Line
	6000 5850 4750 5850
Wire Wire Line
	4750 5850 4750 5750
Wire Wire Line
	4750 5750 4450 5750
Wire Wire Line
	6000 5950 4750 5950
Wire Wire Line
	4750 5950 4750 6050
Wire Wire Line
	4750 6050 4450 6050
Wire Wire Line
	6000 6250 4750 6250
Wire Wire Line
	4750 6250 4750 6150
Wire Wire Line
	4750 6150 4450 6150
Wire Wire Line
	6000 6350 4750 6350
Wire Wire Line
	4750 6350 4750 6450
Wire Wire Line
	4750 6450 4450 6450
Connection ~ 4600 6050
Connection ~ 4600 5750
Wire Wire Line
	4250 5750 4200 5750
Wire Wire Line
	4200 5750 4200 6050
Wire Wire Line
	4200 6050 4250 6050
Wire Wire Line
	4250 6150 4200 6150
Wire Wire Line
	4200 6150 4200 6450
Wire Wire Line
	4200 6450 4250 6450
Wire Wire Line
	4000 6300 4200 6300
Connection ~ 4200 6300
Wire Wire Line
	4000 5900 4200 5900
Wire Wire Line
	4000 3850 4000 8950
Connection ~ 4200 5900
Connection ~ 4600 6150
Connection ~ 4600 6450
Connection ~ 4000 6300
Wire Wire Line
	4500 5250 6000 5250
Wire Wire Line
	4650 5000 4650 5300
Wire Wire Line
	4650 4400 4650 4800
$Comp
L SW_SPST SW1
U 1 1 5AE4C6CE
P 4300 5250
F 0 "SW1" H 4300 5375 50  0000 C CNN
F 1 "RESET" H 4300 5150 50  0000 C CNN
F 2 "Buttons_Switches_SMD:SW_SPST_PTS645" H 4300 5250 50  0001 C CNN
F 3 "" H 4300 5250 50  0001 C CNN
	1    4300 5250
	1    0    0    -1  
$EndComp
$Comp
L C_Small C7
U 1 1 5AE4C724
P 4650 5400
F 0 "C7" H 4660 5470 50  0000 L CNN
F 1 "1uF" H 4660 5320 50  0000 L CNN
F 2 "Capacitors_SMD:C_0603" H 4650 5400 50  0001 C CNN
F 3 "" H 4650 5400 50  0001 C CNN
	1    4650 5400
	-1   0    0    1   
$EndComp
Connection ~ 4650 5250
Wire Wire Line
	4100 5250 4000 5250
Connection ~ 4000 5900
Wire Wire Line
	4650 5500 4650 5600
Wire Wire Line
	4650 5600 4000 5600
Connection ~ 4000 5600
$Comp
L MCP1703A-3302_SOT23 U1
U 1 1 5AE4CA3D
P 6100 3250
F 0 "U1" H 5950 3375 50  0000 C CNN
F 1 "MCP1703A-3302_SOT23" H 6100 3375 50  0000 L CNN
F 2 "TO_SOT_Packages_SMD:SOT-23" H 6100 3450 50  0001 C CNN
F 3 "" H 6100 3200 50  0001 C CNN
	1    6100 3250
	1    0    0    -1  
$EndComp
$Comp
L C_Small C2
U 1 1 5AE4CAE6
P 6450 3450
F 0 "C2" H 6460 3520 50  0000 L CNN
F 1 "1uF" H 6460 3370 50  0000 L CNN
F 2 "Capacitors_SMD:C_0603" H 6450 3450 50  0001 C CNN
F 3 "" H 6450 3450 50  0001 C CNN
	1    6450 3450
	-1   0    0    1   
$EndComp
Wire Wire Line
	6400 3250 6450 3250
Wire Wire Line
	6450 3050 6450 3350
$Comp
L C_Small C1
U 1 1 5AE4CBE3
P 5750 3450
F 0 "C1" H 5760 3520 50  0000 L CNN
F 1 "1uF" H 5760 3370 50  0000 L CNN
F 2 "Capacitors_SMD:C_0603" H 5750 3450 50  0001 C CNN
F 3 "" H 5750 3450 50  0001 C CNN
	1    5750 3450
	-1   0    0    1   
$EndComp
Wire Wire Line
	5750 3050 5750 3350
Wire Wire Line
	4800 3250 5800 3250
Wire Wire Line
	5750 3550 5750 3650
Wire Wire Line
	5750 3650 6450 3650
Wire Wire Line
	6100 3550 6100 4000
Wire Wire Line
	6450 3650 6450 3550
Connection ~ 6100 3650
$Comp
L VBUS #PWR2
U 1 1 5AE4D702
P 4500 3050
F 0 "#PWR2" H 4500 2900 50  0001 C CNN
F 1 "VBUS" H 4500 3200 50  0000 C CNN
F 2 "" H 4500 3050 50  0001 C CNN
F 3 "" H 4500 3050 50  0001 C CNN
	1    4500 3050
	1    0    0    -1  
$EndComp
$Comp
L D_Schottky_Small D1
U 1 1 5AE4D730
P 4700 3250
F 0 "D1" H 4650 3330 50  0000 L CNN
F 1 "D_Schottky_Small" H 4420 3170 50  0000 L CNN
F 2 "Diodes_SMD:D_SOD-123" V 4700 3250 50  0001 C CNN
F 3 "" V 4700 3250 50  0001 C CNN
	1    4700 3250
	-1   0    0    1   
$EndComp
Connection ~ 5750 3250
Wire Wire Line
	4500 3050 4500 3250
Wire Wire Line
	4300 3250 4600 3250
$Comp
L +5V #PWR3
U 1 1 5AE4D94B
P 5750 3050
F 0 "#PWR3" H 5750 2900 50  0001 C CNN
F 1 "+5V" H 5750 3190 50  0000 C CNN
F 2 "" H 5750 3050 50  0001 C CNN
F 3 "" H 5750 3050 50  0001 C CNN
	1    5750 3050
	1    0    0    -1  
$EndComp
Connection ~ 6450 3250
$Comp
L USB_B J1
U 1 1 5AE4DFF4
P 4000 3450
F 0 "J1" H 3800 3900 50  0000 L CNN
F 1 "USB_B" H 3800 3800 50  0000 L CNN
F 2 "Connectors:USB_B" H 4150 3400 50  0001 C CNN
F 3 "" H 4150 3400 50  0001 C CNN
	1    4000 3450
	1    0    0    -1  
$EndComp
Connection ~ 4500 3250
Text Label 5150 3450 0    60   ~ 0
USB_D+
Text Label 5150 3550 0    60   ~ 0
USB_D-
Text Label 11800 7750 0    60   ~ 0
USB_D+
Text Label 11800 7650 0    60   ~ 0
USB_D-
$Comp
L R_Small R2
U 1 1 5AE4EC9B
P 4450 3450
F 0 "R2" H 4480 3470 50  0000 L CNN
F 1 "20" H 4480 3410 50  0000 L CNN
F 2 "Resistors_SMD:R_0603" H 4450 3450 50  0001 C CNN
F 3 "" H 4450 3450 50  0001 C CNN
	1    4450 3450
	0    -1   -1   0   
$EndComp
Wire Wire Line
	4350 3450 4300 3450
Wire Wire Line
	4550 3450 5150 3450
$Comp
L R_Small R3
U 1 1 5AE4EEB3
P 4450 3550
F 0 "R3" H 4480 3570 50  0000 L CNN
F 1 "20" H 4480 3510 50  0000 L CNN
F 2 "Resistors_SMD:R_0603" H 4450 3550 50  0001 C CNN
F 3 "" H 4450 3550 50  0001 C CNN
	1    4450 3550
	0    -1   -1   0   
$EndComp
Wire Wire Line
	4350 3550 4300 3550
Wire Wire Line
	4550 3550 5150 3550
$Comp
L R_Small R1
U 1 1 5AE4F203
P 4900 3350
F 0 "R1" H 4930 3370 50  0000 L CNN
F 1 "4.7K" H 4930 3310 50  0000 L CNN
F 2 "Resistors_SMD:R_0603" H 4900 3350 50  0001 C CNN
F 3 "" H 4900 3350 50  0001 C CNN
	1    4900 3350
	1    0    0    -1  
$EndComp
Connection ~ 4900 3250
Connection ~ 4900 3450
Wire Wire Line
	8700 8450 8700 8600
Wire Wire Line
	8700 8600 9000 8600
Wire Wire Line
	8800 8600 8800 8450
Wire Wire Line
	8900 8600 8900 8450
Connection ~ 8800 8600
Wire Wire Line
	9000 8600 9000 8450
Connection ~ 8900 8600
Wire Wire Line
	8850 8600 8850 9150
Connection ~ 8850 8600
Wire Wire Line
	8700 4850 8700 4700
Wire Wire Line
	8700 4700 9000 4700
Wire Wire Line
	8800 4700 8800 4850
Wire Wire Line
	8900 4700 8900 4850
Connection ~ 8800 4700
Wire Wire Line
	9000 4700 9000 4850
Connection ~ 8900 4700
Wire Wire Line
	8850 2800 8850 4700
Connection ~ 8850 4700
$Comp
L +3.3V #PWR1
U 1 1 5AE5009D
P 8850 2800
F 0 "#PWR1" H 8850 2650 50  0001 C CNN
F 1 "+3.3V" H 8850 2940 50  0000 C CNN
F 2 "" H 8850 2800 50  0001 C CNN
F 3 "" H 8850 2800 50  0001 C CNN
	1    8850 2800
	1    0    0    -1  
$EndComp
Connection ~ 4000 5250
Wire Wire Line
	4650 4400 8850 4400
Connection ~ 8850 4400
Wire Wire Line
	6450 3050 8850 3050
Connection ~ 8850 3050
$Comp
L GND #PWR4
U 1 1 5AE4FC88
P 8850 9150
F 0 "#PWR4" H 8850 8900 50  0001 C CNN
F 1 "GND" H 8850 9000 50  0000 C CNN
F 2 "" H 8850 9150 50  0001 C CNN
F 3 "" H 8850 9150 50  0001 C CNN
	1    8850 9150
	1    0    0    -1  
$EndComp
Wire Wire Line
	4000 8950 8850 8950
Connection ~ 8850 8950
Wire Wire Line
	4000 4000 7750 4000
Connection ~ 4000 4000
Connection ~ 6100 4000
$Comp
L C_Small C3
U 1 1 5AE50ADB
P 7150 3700
F 0 "C3" H 7160 3770 50  0000 L CNN
F 1 "0.1uF" H 7160 3620 50  0000 L CNN
F 2 "Capacitors_SMD:C_0603" H 7150 3700 50  0001 C CNN
F 3 "" H 7150 3700 50  0001 C CNN
	1    7150 3700
	-1   0    0    1   
$EndComp
$Comp
L C_Small C4
U 1 1 5AE50BDF
P 7350 3700
F 0 "C4" H 7360 3770 50  0000 L CNN
F 1 "0.1uF" H 7360 3620 50  0000 L CNN
F 2 "Capacitors_SMD:C_0603" H 7350 3700 50  0001 C CNN
F 3 "" H 7350 3700 50  0001 C CNN
	1    7350 3700
	-1   0    0    1   
$EndComp
$Comp
L C_Small C5
U 1 1 5AE50C2F
P 7550 3700
F 0 "C5" H 7560 3770 50  0000 L CNN
F 1 "0.1uF" H 7560 3620 50  0000 L CNN
F 2 "Capacitors_SMD:C_0603" H 7550 3700 50  0001 C CNN
F 3 "" H 7550 3700 50  0001 C CNN
	1    7550 3700
	-1   0    0    1   
$EndComp
$Comp
L C_Small C6
U 1 1 5AE50C82
P 7750 3700
F 0 "C6" H 7760 3770 50  0000 L CNN
F 1 "0.1uF" H 7760 3620 50  0000 L CNN
F 2 "Capacitors_SMD:C_0603" H 7750 3700 50  0001 C CNN
F 3 "" H 7750 3700 50  0001 C CNN
	1    7750 3700
	-1   0    0    1   
$EndComp
Wire Wire Line
	7750 4000 7750 3800
Wire Wire Line
	7550 3800 7550 4000
Connection ~ 7550 4000
Wire Wire Line
	7350 3800 7350 4000
Connection ~ 7350 4000
Wire Wire Line
	7150 3800 7150 4000
Connection ~ 7150 4000
Wire Wire Line
	7150 3600 7150 3050
Connection ~ 7150 3050
Wire Wire Line
	7350 3600 7350 3050
Connection ~ 7350 3050
Wire Wire Line
	7550 3600 7550 3050
Connection ~ 7550 3050
Wire Wire Line
	7750 3600 7750 3050
Connection ~ 7750 3050
$EndSCHEMATC
