EESchema Schematic File Version 2
LIBS:chordboard-components
LIBS:Connector
LIBS:Switch
LIBS:Mechanical
LIBS:power
LIBS:regul
LIBS:samd11-cache
EELAYER 25 0
EELAYER END
$Descr A1 33110 23386
encoding utf-8
Sheet 1 1
Title ""
Date ""
Rev ""
Comp ""
Comment1 ""
Comment2 ""
Comment3 ""
Comment4 ""
$EndDescr
$Comp
L SAMD11D U4
U 1 1 5AE1B9F8
P 11150 7100
F 0 "U4" H 10800 6450 60  0000 C CNN
F 1 "SAMD11D" V 11150 7100 60  0000 C CNN
F 2 "Housings_SOIC:SOIC-20W_7.5x12.8mm_Pitch1.27mm" H 11350 7400 60  0001 C CNN
F 3 "" H 11350 7400 60  0001 C CNN
	1    11150 7100
	1    0    0    -1  
$EndComp
$Comp
L Crystal_Small Y1
U 1 1 5AE1C1AD
P 9200 7000
F 0 "Y1" H 9200 7100 50  0000 C CNN
F 1 "Crystal_Small" H 9200 6900 50  0000 C CNN
F 2 "Crystals:Crystal_SMD_3215-2pin_3.2x1.5mm" H 9200 7000 50  0001 C CNN
F 3 "" H 9200 7000 50  0001 C CNN
	1    9200 7000
	0    1    1    0   
$EndComp
$Comp
L C C10
U 1 1 5AE1C1AE
P 9000 7150
F 0 "C10" H 9010 7220 50  0000 L CNN
F 1 "18pF" H 9010 7070 50  0000 L CNN
F 2 "Capacitors_SMD:C_0603" H 9000 7150 50  0001 C CNN
F 3 "" H 9000 7150 50  0001 C CNN
	1    9000 7150
	0    1    -1   0   
$EndComp
$Comp
L C C11
U 1 1 5AE1C1AF
P 9000 6850
F 0 "C11" H 9010 6920 50  0000 L CNN
F 1 "18pF" H 9010 6770 50  0000 L CNN
F 2 "Capacitors_SMD:C_0603" H 9000 6850 50  0001 C CNN
F 3 "" H 9000 6850 50  0001 C CNN
	1    9000 6850
	0    1    -1   0   
$EndComp
$Comp
L GND #PWR01
U 1 1 5AE1C1B0
P 8800 7450
F 0 "#PWR01" H 8800 7200 50  0001 C CNN
F 1 "GND" H 8800 7300 50  0000 C CNN
F 2 "" H 8800 7450 50  0001 C CNN
F 3 "" H 8800 7450 50  0001 C CNN
	1    8800 7450
	-1   0    0    -1  
$EndComp
$Comp
L R R3
U 1 1 5AE1C1B6
P 10150 7550
F 0 "R3" V 10200 7650 50  0000 L CNN
F 1 "2.2K" V 10150 7500 50  0000 L CNN
F 2 "Resistors_SMD:R_0603" H 10150 7550 50  0001 C CNN
F 3 "" H 10150 7550 50  0001 C CNN
	1    10150 7550
	0    -1   -1   0   
$EndComp
$Comp
L R R4
U 1 1 5AE1C1B7
P 10150 7450
F 0 "R4" V 10200 7550 50  0000 L CNN
F 1 "2.2K" V 10150 7400 50  0000 L CNN
F 2 "Resistors_SMD:R_0603" H 10150 7450 50  0001 C CNN
F 3 "" H 10150 7450 50  0001 C CNN
	1    10150 7450
	0    -1   -1   0   
$EndComp
Wire Wire Line
	9100 7150 9550 7150
Wire Wire Line
	9200 7150 9200 7100
Wire Wire Line
	9100 6850 9550 6850
Wire Wire Line
	9200 6850 9200 6900
Wire Wire Line
	10600 7050 9550 7050
Wire Wire Line
	10600 6950 9550 6950
Connection ~ 9200 6850
Connection ~ 9200 7150
Wire Wire Line
	8900 7150 8800 7150
Wire Wire Line
	8800 6850 8800 7450
Wire Wire Line
	8800 6850 8900 6850
Connection ~ 8800 7150
$Comp
L +3V3 #PWR02
U 1 1 5AE1E948
P 11150 6200
F 0 "#PWR02" H 11150 6050 50  0001 C CNN
F 1 "+3V3" H 11150 6340 50  0000 C CNN
F 2 "" H 11150 6200 50  0001 C CNN
F 3 "" H 11150 6200 50  0001 C CNN
	1    11150 6200
	1    0    0    -1  
$EndComp
Wire Wire Line
	11150 6200 11150 6400
$Comp
L GND #PWR03
U 1 1 5AE1EAB0
P 11150 8050
F 0 "#PWR03" H 11150 7800 50  0001 C CNN
F 1 "GND" H 11150 7900 50  0000 C CNN
F 2 "" H 11150 8050 50  0001 C CNN
F 3 "" H 11150 8050 50  0001 C CNN
	1    11150 8050
	1    0    0    -1  
$EndComp
Wire Wire Line
	11150 7800 11150 8050
Text Label 11700 7250 0    60   ~ 0
D+
Text Label 11700 7350 0    60   ~ 0
D-
Text Label 10600 7450 2    60   ~ 0
SDA
Text Label 10600 7550 2    60   ~ 0
SCL
Text Label 11850 7550 0    60   ~ 0
SWDCLK
Text Label 11850 7450 0    60   ~ 0
SWDAT
Text Label 11700 6650 0    60   ~ 0
~RST
Wire Wire Line
	11700 7450 11850 7450
Wire Wire Line
	11700 7550 11850 7550
Text Label 11700 7450 0    60   ~ 0
RX
Text Label 11700 7550 0    60   ~ 0
TX
Text Label 10600 7150 2    60   ~ 0
PA14
Text Label 10600 7250 2    60   ~ 0
PA15
Text Label 10600 7350 2    60   ~ 0
PA16
Text Label 11700 7150 0    60   ~ 0
PA02
Text Label 11700 6950 0    60   ~ 0
PA04
Text Label 11700 7050 0    60   ~ 0
PA03
Text Label 10600 6650 2    60   ~ 0
PA05
Text Label 10600 6750 2    60   ~ 0
PA06
Text Label 10600 6850 2    60   ~ 0
PA07
Wire Wire Line
	22700 8700 22700 8350
Wire Wire Line
	22700 8050 22700 8150
Wire Wire Line
	22450 8700 22450 8350
Wire Wire Line
	22450 8050 22450 8150
$Comp
L C C5
U 1 1 5AE1C1C8
P 22700 8250
F 0 "C5" H 22710 8320 50  0000 L CNN
F 1 "0.1uF" H 22710 8170 50  0000 L CNN
F 2 "Capacitors_SMD:C_0603" H 22700 8250 50  0001 C CNN
F 3 "" H 22700 8250 50  0001 C CNN
	1    22700 8250
	1    0    0    -1  
$EndComp
$Comp
L C C4
U 1 1 5AE1C1C6
P 22450 8250
F 0 "C4" H 22460 8320 50  0000 L CNN
F 1 "0.1uF" H 22460 8170 50  0000 L CNN
F 2 "Capacitors_SMD:C_0603" H 22450 8250 50  0001 C CNN
F 3 "" H 22450 8250 50  0001 C CNN
	1    22450 8250
	1    0    0    -1  
$EndComp
$Comp
L GND #PWR04
U 1 1 5AE51328
P 21700 9050
F 0 "#PWR04" H 21700 8800 50  0001 C CNN
F 1 "GND" H 21700 8900 50  0000 C CNN
F 2 "" H 21700 9050 50  0001 C CNN
F 3 "" H 21700 9050 50  0001 C CNN
	1    21700 9050
	-1   0    0    -1  
$EndComp
$Comp
L C C2
U 1 1 5AE5132A
P 21200 8250
F 0 "C2" H 21210 8320 50  0000 L CNN
F 1 "1uF" H 21210 8170 50  0000 L CNN
F 2 "Capacitors_SMD:C_0603" H 21200 8250 50  0001 C CNN
F 3 "" H 21200 8250 50  0001 C CNN
	1    21200 8250
	1    0    0    -1  
$EndComp
$Comp
L C C3
U 1 1 5AE5132B
P 22200 8250
F 0 "C3" H 22210 8320 50  0000 L CNN
F 1 "1uF" H 22210 8170 50  0000 L CNN
F 2 "Capacitors_SMD:C_0603" H 22200 8250 50  0001 C CNN
F 3 "" H 22200 8250 50  0001 C CNN
	1    22200 8250
	1    0    0    -1  
$EndComp
$Comp
L Polyfuse F1
U 1 1 5AE5132C
P 20350 8050
F 0 "F1" V 20250 8050 50  0000 C CNN
F 1 "Polyfuse" V 20450 8050 50  0000 C CNN
F 2 "Fuse_Holders_and_Fuses:Fuse_SMD1206_Reflow" H 20400 7850 50  0001 L CNN
F 3 "" H 20350 8050 50  0001 C CNN
	1    20350 8050
	0    1    1    0   
$EndComp
$Comp
L VBUS #PWR05
U 1 1 5AE5132D
P 19200 7350
F 0 "#PWR05" H 19200 7200 50  0001 C CNN
F 1 "VBUS" H 19200 7500 50  0000 C CNN
F 2 "" H 19200 7350 50  0001 C CNN
F 3 "" H 19200 7350 50  0001 C CNN
	1    19200 7350
	1    0    0    -1  
$EndComp
$Comp
L D D1
U 1 1 5AE5132E
P 19650 8050
F 0 "D1" H 19650 8150 50  0000 C CNN
F 1 "D" H 19650 7950 50  0000 C CNN
F 2 "Diodes_SMD:D_SOD-123" H 19650 8050 50  0001 C CNN
F 3 "" H 19650 8050 50  0001 C CNN
	1    19650 8050
	-1   0    0    1   
$EndComp
$Comp
L +5V #PWR06
U 1 1 5AE5132F
P 20900 7350
F 0 "#PWR06" H 20900 7200 50  0001 C CNN
F 1 "+5V" H 20900 7490 50  0000 C CNN
F 2 "" H 20900 7350 50  0001 C CNN
F 3 "" H 20900 7350 50  0001 C CNN
	1    20900 7350
	1    0    0    -1  
$EndComp
$Comp
L +3V3 #PWR07
U 1 1 5AE51330
P 22200 7350
F 0 "#PWR07" H 22200 7200 50  0001 C CNN
F 1 "+3V3" H 22200 7490 50  0000 C CNN
F 2 "" H 22200 7350 50  0001 C CNN
F 3 "" H 22200 7350 50  0001 C CNN
	1    22200 7350
	1    0    0    -1  
$EndComp
$Comp
L C C1
U 1 1 5AE51331
P 19200 8250
F 0 "C1" H 19210 8320 50  0000 L CNN
F 1 "2.2uF" H 19210 8170 50  0000 L CNN
F 2 "Capacitors_SMD:C_0603" H 19200 8250 50  0001 C CNN
F 3 "" H 19200 8250 50  0001 C CNN
	1    19200 8250
	1    0    0    -1  
$EndComp
$Comp
L GND #PWR08
U 1 1 5AE51337
P 14900 10600
F 0 "#PWR08" H 14900 10350 50  0001 C CNN
F 1 "GND" H 14900 10450 50  0000 C CNN
F 2 "" H 14900 10600 50  0001 C CNN
F 3 "" H 14900 10600 50  0001 C CNN
	1    14900 10600
	1    0    0    -1  
$EndComp
$Comp
L +3V3 #PWR09
U 1 1 5AE51338
P 14850 8350
F 0 "#PWR09" H 14850 8200 50  0001 C CNN
F 1 "+3V3" H 14850 8490 50  0000 C CNN
F 2 "" H 14850 8350 50  0001 C CNN
F 3 "" H 14850 8350 50  0001 C CNN
	1    14850 8350
	1    0    0    -1  
$EndComp
Text Label 18150 7750 0    60   ~ 0
D+
$Comp
L R R5
U 1 1 5AE51339
P 14200 8450
F 0 "R5" V 14250 8550 50  0000 L CNN
F 1 "1K" V 14200 8400 50  0000 L CNN
F 2 "Resistors_SMD:R_0603" H 14200 8450 50  0001 C CNN
F 3 "" H 14200 8450 50  0001 C CNN
	1    14200 8450
	0    -1   -1   0   
$EndComp
$Comp
L TPD2EUSB30 U2
U 1 1 5AE5133A
P 18650 8150
F 0 "U2" H 18650 8500 50  0000 C CNN
F 1 "TPD2EUSB30" H 18650 8400 50  0000 C CNN
F 2 "TO_SOT_Packages_SMD:SOT-23" H 18650 8150 50  0001 C CNN
F 3 "" H 18650 8150 50  0001 C CNN
	1    18650 8150
	-1   0    0    -1  
$EndComp
Text Label 18150 7850 0    60   ~ 0
D-
$Comp
L USB_B J1
U 1 1 5AE5133D
P 17850 7750
F 0 "J1" H 17650 8200 50  0000 L CNN
F 1 "USB_B" H 17650 8100 50  0000 L CNN
F 2 "Connectors:USB_B" H 18000 7700 50  0001 C CNN
F 3 "" H 18000 7700 50  0001 C CNN
	1    17850 7750
	1    0    0    -1  
$EndComp
Text Label 13050 9450 2    60   ~ 0
SWDAT
Text Label 13050 9350 2    60   ~ 0
SWDCLK
Text Label 13050 9050 2    60   ~ 0
~RST
Text Label 14800 7150 2    60   ~ 0
~RST
$Comp
L C C6
U 1 1 5AE51345
P 15400 7150
F 0 "C6" H 15410 7220 50  0000 L CNN
F 1 "0.1uF" H 15410 7070 50  0000 L CNN
F 2 "Capacitors_SMD:C_0603" H 15400 7150 50  0001 C CNN
F 3 "" H 15400 7150 50  0001 C CNN
	1    15400 7150
	0    1    1    0   
$EndComp
$Comp
L SPST S1
U 1 1 5AE51349
P 15700 6850
F 0 "S1" H 15690 6935 60  0000 C CNN
F 1 "SPST" H 15700 6755 60  0000 C CNN
F 2 "Buttons_Switches_SMD:SW_SPST_B3U-1000P-B" H 15700 6850 60  0001 C CNN
F 3 "" H 15700 6850 60  0001 C CNN
	1    15700 6850
	1    0    0    -1  
$EndComp
$Comp
L GND #PWR010
U 1 1 5AE5134A
P 15900 7300
F 0 "#PWR010" H 15900 7050 50  0001 C CNN
F 1 "GND" H 15900 7150 50  0000 C CNN
F 2 "" H 15900 7300 50  0001 C CNN
F 3 "" H 15900 7300 50  0001 C CNN
	1    15900 7300
	1    0    0    -1  
$EndComp
$Comp
L R R2
U 1 1 5AE5134B
P 15400 6850
F 0 "R2" V 15450 6950 50  0000 L CNN
F 1 "330" V 15400 6800 50  0000 L CNN
F 2 "Resistors_SMD:R_0603" H 15400 6850 50  0001 C CNN
F 3 "" H 15400 6850 50  0001 C CNN
	1    15400 6850
	0    -1   -1   0   
$EndComp
$Comp
L R R1
U 1 1 5AE5134C
P 15000 6850
F 0 "R1" V 15050 6950 50  0000 L CNN
F 1 "10K" V 15000 6800 50  0000 L CNN
F 2 "Resistors_SMD:R_0603" H 15000 6850 50  0001 C CNN
F 3 "" H 15000 6850 50  0001 C CNN
	1    15000 6850
	0    1    1    0   
$EndComp
$Comp
L +3V3 #PWR011
U 1 1 5AE5134E
P 14800 6650
F 0 "#PWR011" H 14800 6500 50  0001 C CNN
F 1 "+3V3" H 14800 6790 50  0000 C CNN
F 2 "" H 14800 6650 50  0001 C CNN
F 3 "" H 14800 6650 50  0001 C CNN
	1    14800 6650
	1    0    0    -1  
$EndComp
$Comp
L Conn_ARM_JTAG_SWD_20 J4
U 1 1 5AE51358
P 14800 9450
F 0 "J4" H 14600 10300 50  0000 R CNN
F 1 "Conn_ARM_JTAG_SWD_20" H 14600 10200 50  0000 R BNN
F 2 "Pin_Headers:Pin_Header_Straight_2x10_Pitch2.54mm" H 15250 8400 50  0001 L TNN
F 3 "" V 14450 8200 50  0001 C CNN
	1    14800 9450
	-1   0    0    -1  
$EndComp
Wire Wire Line
	22000 8050 22700 8050
Wire Wire Line
	22200 7350 22200 8150
Wire Wire Line
	20500 8050 21400 8050
Wire Wire Line
	21700 8350 21700 9050
Wire Wire Line
	17850 8700 22700 8700
Wire Wire Line
	21200 8700 21200 8350
Wire Wire Line
	22200 8700 22200 8350
Connection ~ 21700 8700
Connection ~ 21200 8050
Connection ~ 22200 8050
Wire Wire Line
	21200 8050 21200 8150
Wire Wire Line
	19200 7350 19200 8150
Wire Wire Line
	19200 8050 19500 8050
Wire Wire Line
	19800 8050 20200 8050
Wire Wire Line
	20900 7350 20900 8050
Connection ~ 19200 8050
Wire Wire Line
	19200 8350 19200 8700
Wire Wire Line
	13050 9050 14200 9050
Wire Wire Line
	13050 9350 14200 9350
Wire Wire Line
	13050 9450 14200 9450
Wire Wire Line
	14900 10250 14900 10600
Wire Wire Line
	14850 8350 14850 8600
Wire Wire Line
	14000 8450 14100 8450
Wire Wire Line
	14300 8450 14850 8450
Connection ~ 14850 8450
Wire Wire Line
	18250 8150 18250 7850
Wire Wire Line
	17850 8150 17850 8700
Wire Wire Line
	19200 7550 18150 7550
Connection ~ 15900 7150
Wire Wire Line
	15500 7150 15900 7150
Wire Wire Line
	15900 6850 15900 7300
Wire Wire Line
	15850 6850 15900 6850
Wire Wire Line
	15200 6850 15200 7350
Wire Wire Line
	15500 6850 15550 6850
Connection ~ 15200 6850
Wire Wire Line
	15100 6850 15300 6850
Wire Wire Line
	14900 6850 14800 6850
Wire Wire Line
	14800 6850 14800 6650
Wire Wire Line
	14800 7150 15300 7150
Connection ~ 15200 7150
Wire Wire Line
	14800 8650 14800 8600
Wire Wire Line
	14800 8600 14900 8600
Wire Wire Line
	14900 8600 14900 8650
Connection ~ 14850 8600
Wire Wire Line
	14000 8450 14000 9350
Connection ~ 14000 9350
Wire Wire Line
	11150 7950 11400 7950
Wire Wire Line
	11150 6300 11400 6300
Connection ~ 11150 6300
Connection ~ 11150 7950
Wire Wire Line
	9550 6950 9550 6850
Wire Wire Line
	9550 7050 9550 7150
Wire Wire Line
	10600 7450 10250 7450
Wire Wire Line
	10600 7550 10250 7550
Wire Wire Line
	10050 7450 9950 7450
Wire Wire Line
	9950 7450 9950 7550
Wire Wire Line
	9950 7550 10050 7550
Wire Wire Line
	9950 7500 9800 7500
Wire Wire Line
	9800 7500 9800 7350
Connection ~ 9950 7500
$Comp
L +3V3 #PWR012
U 1 1 5AE6274B
P 9800 7350
F 0 "#PWR012" H 9800 7200 50  0001 C CNN
F 1 "+3V3" H 9800 7490 50  0000 C CNN
F 2 "" H 9800 7350 50  0001 C CNN
F 3 "" H 9800 7350 50  0001 C CNN
	1    9800 7350
	1    0    0    -1  
$EndComp
$Comp
L Jumper JP2
U 1 1 5AE6319A
P 20350 7850
F 0 "JP2" H 20300 7900 50  0000 R CNN
F 1 "Jumper" H 20400 7900 50  0000 L CNN
F 2 "SparkFun-Passives:PAD-JUMPER-2-NC_BY_PASTE_YES_SILK" H 20350 7850 50  0001 C CNN
F 3 "" H 20350 7850 50  0001 C CNN
	1    20350 7850
	1    0    0    -1  
$EndComp
Wire Wire Line
	20250 7850 20100 7850
Wire Wire Line
	20100 7850 20100 8050
Connection ~ 20100 8050
Wire Wire Line
	20450 7850 20600 7850
Wire Wire Line
	20600 7850 20600 8050
Connection ~ 20600 8050
$Comp
L Jumper JP1
U 1 1 5AE63605
P 19650 7850
F 0 "JP1" H 19600 7900 50  0000 R CNN
F 1 "Jumper" H 19700 7900 50  0000 L CNN
F 2 "SparkFun-Passives:PAD-JUMPER-2-NC_BY_PASTE_YES_SILK" H 19650 7850 50  0001 C CNN
F 3 "" H 19650 7850 50  0001 C CNN
	1    19650 7850
	1    0    0    -1  
$EndComp
Wire Wire Line
	19550 7850 19400 7850
Wire Wire Line
	19400 7850 19400 8050
Wire Wire Line
	19750 7850 19900 7850
Wire Wire Line
	19900 7850 19900 8050
Connection ~ 19900 8050
Connection ~ 19400 8050
Connection ~ 20900 8050
Connection ~ 22450 8050
Connection ~ 22200 8700
Connection ~ 22450 8700
Connection ~ 21200 8700
Wire Wire Line
	18150 7750 19050 7750
Wire Wire Line
	19050 7750 19050 8150
Wire Wire Line
	18250 7850 18150 7850
Wire Wire Line
	18650 8550 18650 8700
Connection ~ 19200 8700
Connection ~ 18650 8700
Connection ~ 19200 7550
$Comp
L MCP1703A-3302_SOT23 U3
U 1 1 5AE6B92E
P 21700 8050
F 0 "U3" H 21550 8175 50  0000 C CNN
F 1 "MCP1703A-3302_SOT23" H 21700 8175 50  0000 L CNN
F 2 "TO_SOT_Packages_SMD:SOT-23" H 21700 8250 50  0001 C CNN
F 3 "" H 21700 8000 50  0001 C CNN
	1    21700 8050
	1    0    0    -1  
$EndComp
$Comp
L Conn_01x08 J2
U 1 1 5AE6D6BB
P 9750 9100
F 0 "J2" H 9750 9500 50  0000 C CNN
F 1 "Conn_01x08" H 9750 8600 50  0000 C CNN
F 2 "Pin_Headers:Pin_Header_Straight_1x08_Pitch2.54mm" H 9750 9100 50  0001 C CNN
F 3 "" H 9750 9100 50  0001 C CNN
	1    9750 9100
	1    0    0    -1  
$EndComp
Text Label 9550 8800 2    60   ~ 0
PA04
Text Label 9550 8900 2    60   ~ 0
PA03
Text Label 9550 9000 2    60   ~ 0
PA02
Wire Wire Line
	9100 9100 9100 8900
$Comp
L +3V3 #PWR013
U 1 1 5AE6D97B
P 9100 8900
F 0 "#PWR013" H 9100 8750 50  0001 C CNN
F 1 "+3V3" H 9100 9040 50  0000 C CNN
F 2 "" H 9100 8900 50  0001 C CNN
F 3 "" H 9100 8900 50  0001 C CNN
	1    9100 8900
	1    0    0    -1  
$EndComp
$Comp
L GND #PWR014
U 1 1 5AE6D9CF
P 9100 9650
F 0 "#PWR014" H 9100 9400 50  0001 C CNN
F 1 "GND" H 9100 9500 50  0000 C CNN
F 2 "" H 9100 9650 50  0001 C CNN
F 3 "" H 9100 9650 50  0001 C CNN
	1    9100 9650
	1    0    0    -1  
$EndComp
Wire Wire Line
	9100 9200 9100 9650
Wire Wire Line
	9100 9100 9550 9100
Wire Wire Line
	9550 9200 9100 9200
Text Label 9550 9300 2    60   ~ 0
PA07
Text Label 9550 9400 2    60   ~ 0
PA06
Text Label 9550 9500 2    60   ~ 0
PA05
$Comp
L Conn_01x08 J3
U 1 1 5AE6DEEC
P 10100 9100
F 0 "J3" H 10100 9500 50  0000 C CNN
F 1 "Conn_01x08" H 10100 8600 50  0000 C CNN
F 2 "Pin_Headers:Pin_Header_Straight_1x08_Pitch2.54mm" H 10100 9100 50  0001 C CNN
F 3 "" H 10100 9100 50  0001 C CNN
	1    10100 9100
	-1   0    0    -1  
$EndComp
Text Label 10300 9500 0    60   ~ 0
~RST
Text Label 10300 9400 0    60   ~ 0
TX
Text Label 10300 9300 0    60   ~ 0
RX
Text Label 10300 9200 0    60   ~ 0
PA14
Text Label 10300 9100 0    60   ~ 0
PA15
Text Label 10300 9000 0    60   ~ 0
PA16
Text Label 10300 8900 0    60   ~ 0
SDA
Text Label 10300 8800 0    60   ~ 0
SCL
$EndSCHEMATC
