EESchema Schematic File Version 2
LIBS:chordboard-rescue
LIBS:maxim
LIBS:afshar
LIBS:chordboard-components
LIBS:power
LIBS:device
LIBS:transistors
LIBS:conn
LIBS:linear
LIBS:regul
LIBS:74xx
LIBS:cmos4000
LIBS:adc-dac
LIBS:memory
LIBS:xilinx
LIBS:microcontrollers
LIBS:dsp
LIBS:microchip
LIBS:analog_switches
LIBS:motorola
LIBS:texas
LIBS:intel
LIBS:audio
LIBS:interface
LIBS:digital-audio
LIBS:philips
LIBS:display
LIBS:cypress
LIBS:siliconi
LIBS:opto
LIBS:atmel
LIBS:contrib
LIBS:valves
LIBS:switches
LIBS:standard
LIBS:mechanical
LIBS:led
LIBS:akn_maxim
LIBS:SparkFun-Electromechanical
LIBS:chordboard-cache
EELAYER 25 0
EELAYER END
$Descr A1 33110 23386
encoding utf-8
Sheet 1 5
Title ""
Date ""
Rev ""
Comp ""
Comment1 ""
Comment2 ""
Comment3 ""
Comment4 ""
$EndDescr
$Comp
L Mounting_Hole MK1
U 1 1 5A6D2DB1
P 22100 8800
F 0 "MK1" H 22100 9000 50  0000 C CNN
F 1 "Mounting_Hole" H 22100 8925 50  0000 C CNN
F 2 "chordboard-footprints:Mounting_Hole" H 22100 8800 50  0001 C CNN
F 3 "" H 22100 8800 50  0001 C CNN
	1    22100 8800
	1    0    0    -1  
$EndComp
$Comp
L Mounting_Hole MK3
U 1 1 5A6D2DE4
P 22300 8800
F 0 "MK3" H 22300 9000 50  0000 C CNN
F 1 "Mounting_Hole" H 22300 8925 50  0000 C CNN
F 2 "chordboard-footprints:Mounting_Hole" H 22300 8800 50  0001 C CNN
F 3 "" H 22300 8800 50  0001 C CNN
	1    22300 8800
	1    0    0    -1  
$EndComp
$Comp
L Mounting_Hole MK5
U 1 1 5A6D2E0D
P 22500 8800
F 0 "MK5" H 22500 9000 50  0000 C CNN
F 1 "Mounting_Hole" H 22500 8925 50  0000 C CNN
F 2 "chordboard-footprints:Mounting_Hole" H 22500 8800 50  0001 C CNN
F 3 "" H 22500 8800 50  0001 C CNN
	1    22500 8800
	1    0    0    -1  
$EndComp
$Comp
L Mounting_Hole MK7
U 1 1 5A6D2E39
P 22700 8800
F 0 "MK7" H 22700 9000 50  0000 C CNN
F 1 "Mounting_Hole" H 22700 8925 50  0000 C CNN
F 2 "chordboard-footprints:Mounting_Hole" H 22700 8800 50  0001 C CNN
F 3 "" H 22700 8800 50  0001 C CNN
	1    22700 8800
	1    0    0    -1  
$EndComp
$Comp
L Mounting_Hole MK2
U 1 1 5A6D2EC5
P 22100 9000
F 0 "MK2" H 22100 9200 50  0000 C CNN
F 1 "Mounting_Hole" H 22100 9125 50  0000 C CNN
F 2 "chordboard-footprints:Mounting_Hole" H 22100 9000 50  0001 C CNN
F 3 "" H 22100 9000 50  0001 C CNN
	1    22100 9000
	1    0    0    -1  
$EndComp
$Comp
L Mounting_Hole MK4
U 1 1 5A6D2ECB
P 22300 9000
F 0 "MK4" H 22300 9200 50  0000 C CNN
F 1 "Mounting_Hole" H 22300 9125 50  0000 C CNN
F 2 "chordboard-footprints:Mounting_Hole" H 22300 9000 50  0001 C CNN
F 3 "" H 22300 9000 50  0001 C CNN
	1    22300 9000
	1    0    0    -1  
$EndComp
$Comp
L Mounting_Hole MK6
U 1 1 5A6D2ED1
P 22500 9000
F 0 "MK6" H 22500 9200 50  0000 C CNN
F 1 "Mounting_Hole" H 22500 9125 50  0000 C CNN
F 2 "chordboard-footprints:Mounting_Hole" H 22500 9000 50  0001 C CNN
F 3 "" H 22500 9000 50  0001 C CNN
	1    22500 9000
	1    0    0    -1  
$EndComp
$Comp
L Mounting_Hole MK8
U 1 1 5A6D2ED7
P 22700 9000
F 0 "MK8" H 22700 9200 50  0000 C CNN
F 1 "Mounting_Hole" H 22700 9125 50  0000 C CNN
F 2 "chordboard-footprints:Mounting_Hole" H 22700 9000 50  0001 C CNN
F 3 "" H 22700 9000 50  0001 C CNN
	1    22700 9000
	1    0    0    -1  
$EndComp
$Comp
L R R2
U 1 1 5A87D710
P 21900 14100
F 0 "R2" V 21800 14050 50  0000 C CNN
F 1 "4.7K" V 21900 14100 50  0000 C CNN
F 2 "Resistors_SMD:R_1206_HandSoldering" V 21830 14100 50  0001 C CNN
F 3 "" H 21900 14100 50  0000 C CNN
	1    21900 14100
	1    0    0    -1  
$EndComp
$Comp
L R R3
U 1 1 5A87D711
P 22000 14100
F 0 "R3" V 22100 14050 50  0000 C CNN
F 1 "4.7K" V 22000 14100 50  0000 C CNN
F 2 "Resistors_SMD:R_1206_HandSoldering" V 21930 14100 50  0001 C CNN
F 3 "" H 22000 14100 50  0000 C CNN
	1    22000 14100
	1    0    0    -1  
$EndComp
$Comp
L +3.3V #PWR01
U 1 1 5A87D712
P 21950 12950
F 0 "#PWR01" H 21950 12800 50  0001 C CNN
F 1 "+3.3V" H 21950 13090 50  0000 C CNN
F 2 "" H 21950 12950 50  0000 C CNN
F 3 "" H 21950 12950 50  0000 C CNN
	1    21950 12950
	1    0    0    -1  
$EndComp
$Comp
L GND #PWR02
U 1 1 5A87D713
P 18100 10250
F 0 "#PWR02" H 18100 10000 50  0001 C CNN
F 1 "GND" H 18100 10100 50  0000 C CNN
F 2 "" H 18100 10250 50  0000 C CNN
F 3 "" H 18100 10250 50  0000 C CNN
	1    18100 10250
	-1   0    0    1   
$EndComp
Text Label 17200 10850 2    60   ~ 0
WIFI_RXD
Text Label 17200 10750 2    60   ~ 0
WIFI_TXD
NoConn ~ 18100 13050
NoConn ~ 20100 14150
NoConn ~ 20100 13850
NoConn ~ 20100 13750
NoConn ~ 20100 12950
NoConn ~ 20100 12850
NoConn ~ 20100 12750
NoConn ~ 20100 12650
NoConn ~ 20100 12550
NoConn ~ 20100 12450
NoConn ~ 20100 12350
NoConn ~ 20100 12250
NoConn ~ 20100 12150
NoConn ~ 20100 12050
NoConn ~ 20100 11950
NoConn ~ 20100 11850
NoConn ~ 20100 11750
NoConn ~ 20100 11650
NoConn ~ 20100 11550
NoConn ~ 20100 11250
NoConn ~ 20100 11150
NoConn ~ 20100 11050
NoConn ~ 20100 10950
NoConn ~ 20100 10850
NoConn ~ 20100 10750
NoConn ~ 20100 10650
Text Label 18100 11850 2    60   ~ 0
AU_MCLK
Text Label 18100 11750 2    60   ~ 0
AUSD_CS
Text Label 18100 11650 2    60   ~ 0
AU_BCLK
$Comp
L SW_SPST CORE_SW1
U 1 1 5A87D715
P 17400 13350
F 0 "CORE_SW1" H 17250 13400 50  0000 C CNN
F 1 "PGM" H 17600 13400 50  0000 C CNN
F 2 "Buttons_Switches_THT:SW_Tactile_SPST_Angled_PTS645Vx58-2LFS" H 17400 13350 50  0001 C CNN
F 3 "" H 17400 13350 50  0001 C CNN
	1    17400 13350
	1    0    0    -1  
$EndComp
$Comp
L GND #PWR03
U 1 1 5A87D716
P 16900 15450
F 0 "#PWR03" H 16900 15200 50  0001 C CNN
F 1 "GND" H 16900 15300 50  0000 C CNN
F 2 "" H 16900 15450 50  0000 C CNN
F 3 "" H 16900 15450 50  0000 C CNN
	1    16900 15450
	1    0    0    -1  
$EndComp
NoConn ~ 18100 13150
Text Label 18100 14550 2    60   ~ 0
AU_RX
Text Label 20100 14250 0    60   ~ 0
AU_LRCLK
Text Label 20100 14350 0    60   ~ 0
AU_TX
Text Label 18100 11950 2    60   ~ 0
MISO
$Comp
L Teensy_Audio_Board U4
U 1 1 5A87D719
P 23400 11850
F 0 "U4" H 23200 13000 60  0000 C CNN
F 1 "Teensy_Audio_Board" H 23400 11300 60  0000 C CNN
F 2 "afshar-kicad-lib:Teensy_Audio_Board" H 23200 11300 60  0001 C CNN
F 3 "" H 23200 11300 60  0000 C CNN
	1    23400 11850
	1    0    0    -1  
$EndComp
Text Label 22650 12150 2    60   ~ 0
AU_MCLK
Text Label 22650 11950 2    60   ~ 0
AU_BCLK
Text Label 24100 12250 0    60   ~ 0
AU_RX
Text Label 24100 11650 0    60   ~ 0
SCL
Text Label 24100 11750 0    60   ~ 0
SDA
$Comp
L GND #PWR04
U 1 1 5A87D71A
P 22300 11100
F 0 "#PWR04" H 22300 10850 50  0001 C CNN
F 1 "GND" H 22300 10950 50  0000 C CNN
F 2 "" H 22300 11100 50  0000 C CNN
F 3 "" H 22300 11100 50  0000 C CNN
	1    22300 11100
	1    0    0    -1  
$EndComp
Text Label 24100 11350 0    60   ~ 0
AU_TX
Text Label 24100 11250 0    60   ~ 0
AU_LRCLK
$Comp
L +3.3V #PWR05
U 1 1 5A87D71B
P 24600 10600
F 0 "#PWR05" H 24600 10450 50  0001 C CNN
F 1 "+3.3V" H 24600 10740 50  0000 C CNN
F 2 "" H 24600 10600 50  0001 C CNN
F 3 "" H 24600 10600 50  0001 C CNN
	1    24600 10600
	1    0    0    -1  
$EndComp
Text Label 22650 12250 2    60   ~ 0
MISO
Text Label 18100 14650 2    60   ~ 0
SCK
Text Label 24100 12150 0    60   ~ 0
SCK
Text Label 22650 12050 2    60   ~ 0
AUSD_CS
Text Label 18100 11450 2    60   ~ 0
MOSI
Text Label 22650 11750 2    60   ~ 0
MOSI
Text Label 18100 11350 2    60   ~ 0
AUMEM_CS
Text Label 22650 11650 2    60   ~ 0
AUMEM_CS
NoConn ~ 20100 11350
NoConn ~ 20100 11450
NoConn ~ 20100 13550
NoConn ~ 20100 13650
$Comp
L +5V #PWR06
U 1 1 5A87D71D
P 20700 12850
F 0 "#PWR06" H 20700 12700 50  0001 C CNN
F 1 "+5V" H 20700 12990 50  0000 C CNN
F 2 "" H 20700 12850 50  0001 C CNN
F 3 "" H 20700 12850 50  0001 C CNN
	1    20700 12850
	1    0    0    -1  
$EndComp
$Comp
L Teensy3.6 U2
U 1 1 5A87D71E
P 19100 12750
F 0 "U2" H 19100 15050 60  0000 C CNN
F 1 "Teensy3.6" H 19100 10450 60  0000 C CNN
F 2 "teensy:Teensy35_36" H 19100 12750 60  0001 C CNN
F 3 "" H 19100 12750 60  0000 C CNN
	1    19100 12750
	1    0    0    -1  
$EndComp
Text Label 18100 11050 2    60   ~ 0
WIFI_RST
Text Label 18100 10950 2    60   ~ 0
WIFI_PGM
$Comp
L +3.3V #PWR07
U 1 1 5A87D71F
P 16900 12050
F 0 "#PWR07" H 16900 11900 50  0001 C CNN
F 1 "+3.3V" H 16900 12190 50  0000 C CNN
F 2 "" H 16900 12050 50  0001 C CNN
F 3 "" H 16900 12050 50  0001 C CNN
	1    16900 12050
	1    0    0    -1  
$EndComp
$Comp
L ROTARY_ENCODER_afshar ENC1
U 1 1 5A8858A7
P 5700 12150
F 0 "ENC1" H 5700 12550 60  0000 C CNN
F 1 "ROTARY_ENCODER" H 5750 11800 60  0000 C CNN
F 2 "Rotary-Encoders:BI_EN12-HS22AF30" H 5700 11700 60  0000 C CNN
F 3 "" H 5700 12150 60  0000 C CNN
	1    5700 12150
	1    0    0    1   
$EndComp
$Comp
L C C2
U 1 1 5A8858A8
P 5450 12650
F 0 "C2" H 5460 12720 50  0000 L CNN
F 1 "0.1uF" H 5460 12570 50  0000 L CNN
F 2 "Capacitors_SMD:C_1206_HandSoldering" H 5450 12650 50  0001 C CNN
F 3 "" H 5450 12650 50  0001 C CNN
	1    5450 12650
	1    0    0    -1  
$EndComp
$Comp
L C C1
U 1 1 5A8858A9
P 4950 12650
F 0 "C1" H 4960 12720 50  0000 L CNN
F 1 "0.1uF" H 4960 12570 50  0000 L CNN
F 2 "Capacitors_SMD:C_1206_HandSoldering" H 4950 12650 50  0001 C CNN
F 3 "" H 4950 12650 50  0001 C CNN
	1    4950 12650
	1    0    0    -1  
$EndComp
$Comp
L GND #PWR08
U 1 1 5A8858AA
P 6200 12300
F 0 "#PWR08" H 6200 12050 50  0001 C CNN
F 1 "GND" H 6200 12150 50  0000 C CNN
F 2 "" H 6200 12300 50  0001 C CNN
F 3 "" H 6200 12300 50  0001 C CNN
	1    6200 12300
	1    0    0    -1  
$EndComp
$Comp
L GND #PWR09
U 1 1 5A8858AB
P 5200 12850
F 0 "#PWR09" H 5200 12600 50  0001 C CNN
F 1 "GND" H 5200 12700 50  0000 C CNN
F 2 "" H 5200 12850 50  0001 C CNN
F 3 "" H 5200 12850 50  0001 C CNN
	1    5200 12850
	1    0    0    -1  
$EndComp
Text Label 5450 12050 2    60   ~ 0
RE1_SW
$Comp
L ROTARY_ENCODER_afshar ENC2
U 1 1 5A8858B1
P 7900 12150
F 0 "ENC2" H 7900 12550 60  0000 C CNN
F 1 "ROTARY_ENCODER" H 7950 11800 60  0000 C CNN
F 2 "Rotary-Encoders:BI_EN12-HS22AF30" H 7900 11700 60  0000 C CNN
F 3 "" H 7900 12150 60  0000 C CNN
	1    7900 12150
	1    0    0    1   
$EndComp
$Comp
L C C4
U 1 1 5A8858B2
P 7650 12650
F 0 "C4" H 7660 12720 50  0000 L CNN
F 1 "0.1uF" H 7660 12570 50  0000 L CNN
F 2 "Capacitors_SMD:C_1206_HandSoldering" H 7650 12650 50  0001 C CNN
F 3 "" H 7650 12650 50  0001 C CNN
	1    7650 12650
	1    0    0    -1  
$EndComp
$Comp
L C C3
U 1 1 5A8858B3
P 7150 12650
F 0 "C3" H 7160 12720 50  0000 L CNN
F 1 "0.1uF" H 7160 12570 50  0000 L CNN
F 2 "Capacitors_SMD:C_1206_HandSoldering" H 7150 12650 50  0001 C CNN
F 3 "" H 7150 12650 50  0001 C CNN
	1    7150 12650
	1    0    0    -1  
$EndComp
$Comp
L GND #PWR010
U 1 1 5A8858B4
P 8400 12300
F 0 "#PWR010" H 8400 12050 50  0001 C CNN
F 1 "GND" H 8400 12150 50  0000 C CNN
F 2 "" H 8400 12300 50  0001 C CNN
F 3 "" H 8400 12300 50  0001 C CNN
	1    8400 12300
	1    0    0    -1  
$EndComp
$Comp
L GND #PWR011
U 1 1 5A8858B5
P 7400 12850
F 0 "#PWR011" H 7400 12600 50  0001 C CNN
F 1 "GND" H 7400 12700 50  0000 C CNN
F 2 "" H 7400 12850 50  0001 C CNN
F 3 "" H 7400 12850 50  0001 C CNN
	1    7400 12850
	1    0    0    -1  
$EndComp
Text Label 7650 12050 2    60   ~ 0
RE2_SW
$Comp
L ROTARY_ENCODER_afshar ENC3
U 1 1 5A8858BB
P 9900 12150
F 0 "ENC3" H 9900 12550 60  0000 C CNN
F 1 "ROTARY_ENCODER" H 9950 11800 60  0000 C CNN
F 2 "Rotary-Encoders:BI_EN12-HS22AF30" H 9900 11700 60  0000 C CNN
F 3 "" H 9900 12150 60  0000 C CNN
	1    9900 12150
	1    0    0    1   
$EndComp
$Comp
L C C6
U 1 1 5A8858BC
P 9650 12650
F 0 "C6" H 9660 12720 50  0000 L CNN
F 1 "0.1uF" H 9660 12570 50  0000 L CNN
F 2 "Capacitors_SMD:C_1206_HandSoldering" H 9650 12650 50  0001 C CNN
F 3 "" H 9650 12650 50  0001 C CNN
	1    9650 12650
	1    0    0    -1  
$EndComp
$Comp
L C C5
U 1 1 5A8858BD
P 9150 12650
F 0 "C5" H 9160 12720 50  0000 L CNN
F 1 "0.1uF" H 9160 12570 50  0000 L CNN
F 2 "Capacitors_SMD:C_1206_HandSoldering" H 9150 12650 50  0001 C CNN
F 3 "" H 9150 12650 50  0001 C CNN
	1    9150 12650
	1    0    0    -1  
$EndComp
$Comp
L GND #PWR012
U 1 1 5A8858BE
P 10400 12300
F 0 "#PWR012" H 10400 12050 50  0001 C CNN
F 1 "GND" H 10400 12150 50  0000 C CNN
F 2 "" H 10400 12300 50  0001 C CNN
F 3 "" H 10400 12300 50  0001 C CNN
	1    10400 12300
	1    0    0    -1  
$EndComp
$Comp
L GND #PWR013
U 1 1 5A8858BF
P 9400 12850
F 0 "#PWR013" H 9400 12600 50  0001 C CNN
F 1 "GND" H 9400 12700 50  0000 C CNN
F 2 "" H 9400 12850 50  0001 C CNN
F 3 "" H 9400 12850 50  0001 C CNN
	1    9400 12850
	1    0    0    -1  
$EndComp
Text Label 9650 12050 2    60   ~ 0
RE3_SW
Text Notes 5400 11400 0    60   ~ 0
Config: Key; Mode\nShift: Change Main mode
Text Notes 7050 11400 0    60   ~ 0
Config: Octave; spread; channel; etc.\nShift Config: change bank
Text Notes 9550 11450 0    60   ~ 0
Config: tempo\nPlay: tempo\nShift: change looper
Text Label 4950 12200 2    60   ~ 0
RE1_B
Text Label 5450 12400 2    60   ~ 0
RE1_A
Text Label 7150 12200 2    60   ~ 0
RE2_B
Text Label 7650 12400 2    60   ~ 0
RE2_A
Text Label 9650 12400 2    60   ~ 0
RE3_A
Text Label 9150 12200 2    60   ~ 0
RE3_B
Text Label 18100 12150 2    60   ~ 0
RE1_A
Text Label 18100 12250 2    60   ~ 0
RE1_B
Text Label 18100 12350 2    60   ~ 0
RE2_A
Text Label 18100 12450 2    60   ~ 0
RE2_B
Text Label 18100 13650 2    60   ~ 0
RE2_SW
Text Label 18100 12550 2    60   ~ 0
RE3_A
Text Label 18100 12650 2    60   ~ 0
RE3_B
Text Label 18100 13550 2    60   ~ 0
RE1_SW
Text Label 18100 13750 2    60   ~ 0
RE3_SW
Text Label 18100 12850 2    60   ~ 0
U4_RX
Text Label 18100 12950 2    60   ~ 0
U4_TX
$Comp
L R R5
U 1 1 5A893158
P 29000 12700
F 0 "R5" H 29030 12720 50  0000 L CNN
F 1 "10K" H 29030 12660 50  0000 L CNN
F 2 "Resistors_SMD:R_1206_HandSoldering" H 29000 12700 50  0001 C CNN
F 3 "" H 29000 12700 50  0001 C CNN
	1    29000 12700
	-1   0    0    -1  
$EndComp
$Comp
L GND #PWR014
U 1 1 5A893159
P 29000 12950
F 0 "#PWR014" H 29000 12700 50  0001 C CNN
F 1 "GND" H 29000 12800 50  0000 C CNN
F 2 "" H 29000 12950 50  0001 C CNN
F 3 "" H 29000 12950 50  0001 C CNN
	1    29000 12950
	-1   0    0    -1  
$EndComp
$Comp
L GND #PWR015
U 1 1 5A89315A
P 29500 12950
F 0 "#PWR015" H 29500 12700 50  0001 C CNN
F 1 "GND" H 29500 12800 50  0000 C CNN
F 2 "" H 29500 12950 50  0001 C CNN
F 3 "" H 29500 12950 50  0001 C CNN
	1    29500 12950
	1    0    0    -1  
$EndComp
$Comp
L C C9
U 1 1 5A89315B
P 28550 12200
F 0 "C9" H 28560 12270 50  0000 L CNN
F 1 "10uF" H 28560 12120 50  0000 L CNN
F 2 "Capacitors_SMD:C_1206_HandSoldering" H 28550 12200 50  0001 C CNN
F 3 "" H 28550 12200 50  0001 C CNN
	1    28550 12200
	1    0    0    -1  
$EndComp
$Comp
L Battery BT1
U 1 1 5A89315C
P 30650 12300
F 0 "BT1" H 30750 12400 50  0000 L CNN
F 1 "Battery" H 30750 12300 50  0000 L CNN
F 2 "Connectors_JST:JST_PH_S2B-PH-K_02x2.00mm_Angled" V 30650 12360 50  0001 C CNN
F 3 "" V 30650 12360 50  0001 C CNN
	1    30650 12300
	0    -1   -1   0   
$EndComp
$Comp
L GND #PWR016
U 1 1 5A89315D
P 31100 12550
F 0 "#PWR016" H 31100 12300 50  0001 C CNN
F 1 "GND" H 31100 12400 50  0000 C CNN
F 2 "" H 31100 12550 50  0001 C CNN
F 3 "" H 31100 12550 50  0001 C CNN
	1    31100 12550
	1    0    0    -1  
$EndComp
$Comp
L +BATT #PWR017
U 1 1 5A89315F
P 30350 11650
F 0 "#PWR017" H 30350 11500 50  0001 C CNN
F 1 "+BATT" H 30350 11790 50  0000 C CNN
F 2 "" H 30350 11650 50  0001 C CNN
F 3 "" H 30350 11650 50  0001 C CNN
	1    30350 11650
	1    0    0    -1  
$EndComp
$Comp
L D_Schottky D1
U 1 1 5A893160
P 29750 11800
F 0 "D1" H 29750 11900 50  0000 C CNN
F 1 "MBR120" H 29750 11700 50  0000 C CNN
F 2 "Diodes_SMD:D_SOD-123F" H 29750 11800 50  0001 C CNN
F 3 "" H 29750 11800 50  0001 C CNN
	1    29750 11800
	1    0    0    -1  
$EndComp
$Comp
L GND #PWR018
U 1 1 5A893161
P 28550 12950
F 0 "#PWR018" H 28550 12700 50  0001 C CNN
F 1 "GND" H 28550 12800 50  0000 C CNN
F 2 "" H 28550 12950 50  0001 C CNN
F 3 "" H 28550 12950 50  0001 C CNN
	1    28550 12950
	-1   0    0    -1  
$EndComp
$Comp
L C C10
U 1 1 5A893162
P 30350 12750
F 0 "C10" H 30360 12820 50  0000 L CNN
F 1 "10uF" H 30360 12670 50  0000 L CNN
F 2 "Capacitors_SMD:C_1206_HandSoldering" H 30350 12750 50  0001 C CNN
F 3 "" H 30350 12750 50  0001 C CNN
	1    30350 12750
	1    0    0    -1  
$EndComp
$Comp
L GND #PWR019
U 1 1 5A893163
P 30350 12950
F 0 "#PWR019" H 30350 12700 50  0001 C CNN
F 1 "GND" H 30350 12800 50  0000 C CNN
F 2 "" H 30350 12950 50  0001 C CNN
F 3 "" H 30350 12950 50  0001 C CNN
	1    30350 12950
	-1   0    0    -1  
$EndComp
$Comp
L MCP73831-2-OT U5
U 1 1 5A8941D2
P 29500 12400
F 0 "U5" H 29200 12650 50  0000 L CNN
F 1 "MCP73831" H 29550 12650 50  0000 L CNN
F 2 "TO_SOT_Packages_SMD:SOT-23-5" H 29550 12150 50  0001 L CIN
F 3 "" H 29350 12350 50  0001 C CNN
	1    29500 12400
	1    0    0    -1  
$EndComp
$Comp
L ILI9341_LCD_Breakout U1
U 1 1 5A895173
P 13100 12500
F 0 "U1" H 12400 13000 50  0000 L CNN
F 1 "ILI9341_LCD_Breakout" H 12400 12000 50  0000 L CNN
F 2 "Displays:CR2013-MI2120" H 12350 12900 50  0001 C CNN
F 3 "" H 12450 13000 50  0001 C CNN
	1    13100 12500
	1    0    0    -1  
$EndComp
$Comp
L R R1
U 1 1 5A895174
P 14100 12700
F 0 "R1" V 14000 12650 50  0000 C CNN
F 1 "220" V 14100 12700 50  0000 C CNN
F 2 "Resistors_SMD:R_1206_HandSoldering" V 14030 12700 50  0001 C CNN
F 3 "" H 14100 12700 50  0000 C CNN
	1    14100 12700
	0    1    1    0   
$EndComp
Text Label 13900 12200 0    60   ~ 0
TFT_DC
Text Label 13900 12300 0    60   ~ 0
TFT_CS
Text Label 13900 12400 0    60   ~ 0
MOSI
Text Label 13900 12500 0    60   ~ 0
MISO
Text Label 13900 12600 0    60   ~ 0
SCK
$Comp
L +3.3V #PWR020
U 1 1 5A895175
P 13500 11750
F 0 "#PWR020" H 13500 11600 50  0001 C CNN
F 1 "+3.3V" H 13500 11890 50  0000 C CNN
F 2 "" H 13500 11750 50  0000 C CNN
F 3 "" H 13500 11750 50  0000 C CNN
	1    13500 11750
	-1   0    0    -1  
$EndComp
$Comp
L GND #PWR021
U 1 1 5A895176
P 13500 13150
F 0 "#PWR021" H 13500 12900 50  0001 C CNN
F 1 "GND" H 13500 13000 50  0000 C CNN
F 2 "" H 13500 13150 50  0000 C CNN
F 3 "" H 13500 13150 50  0000 C CNN
	1    13500 13150
	-1   0    0    -1  
$EndComp
NoConn ~ 12300 12300
NoConn ~ 12300 12400
NoConn ~ 12300 12500
NoConn ~ 12300 12600
$Comp
L KSW SW1
U 1 1 5A89A746
P 17450 11150
F 0 "SW1" H 17350 11200 60  0000 C CNN
F 1 "KSW" H 17600 11200 60  0000 C CNN
F 2 "chordboard-footprints:CHERRY_PCB_100H" H 17450 11150 60  0001 C CNN
F 3 "" H 17450 11150 60  0001 C CNN
	1    17450 11150
	-1   0    0    -1  
$EndComp
$Comp
L KSW SW2
U 1 1 5A89A74C
P 17450 11250
F 0 "SW2" H 17350 11300 60  0000 C CNN
F 1 "KSW" H 17600 11300 60  0000 C CNN
F 2 "chordboard-footprints:CHERRY_PCB_100H" H 18400 11300 60  0001 C CNN
F 3 "" H 17450 11250 60  0001 C CNN
	1    17450 11250
	-1   0    0    -1  
$EndComp
Text Label 22200 14650 0    60   ~ 0
SCL
Text Label 22200 14750 0    60   ~ 0
SDA
$Comp
L GNDA #PWR022
U 1 1 5A89E752
P 20300 14050
F 0 "#PWR022" H 20300 13800 50  0001 C CNN
F 1 "GNDA" H 20300 13900 50  0000 C CNN
F 2 "" H 20300 14050 50  0001 C CNN
F 3 "" H 20300 14050 50  0001 C CNN
	1    20300 14050
	0    -1   -1   0   
$EndComp
$Comp
L GNDA #PWR023
U 1 1 5A89EB7E
P 24100 11050
F 0 "#PWR023" H 24100 10800 50  0001 C CNN
F 1 "GNDA" H 24100 10900 50  0000 C CNN
F 2 "" H 24100 11050 50  0001 C CNN
F 3 "" H 24100 11050 50  0001 C CNN
	1    24100 11050
	0    -1   -1   0   
$EndComp
Text Label 20150 14450 0    60   ~ 0
TFT_CS
Text Label 20150 14550 0    60   ~ 0
TFT_DC
Text Label 18100 11550 2    60   ~ 0
U3_TX
$Comp
L ESP-01_aa U3
U 1 1 5A8F4069
P 24150 5650
F 0 "U3" H 24350 5900 60  0000 L CNN
F 1 "ESP-01" H 24350 5800 60  0000 L CNN
F 2 "ESP8266:ESP-01" H 24150 5650 60  0001 C CNN
F 3 "" H 24150 5650 60  0001 C CNN
	1    24150 5650
	1    0    0    -1  
$EndComp
$Comp
L GND #PWR024
U 1 1 5A8F4C7A
P 24750 6300
F 0 "#PWR024" H 24750 6050 50  0001 C CNN
F 1 "GND" H 24750 6150 50  0000 C CNN
F 2 "" H 24750 6300 50  0001 C CNN
F 3 "" H 24750 6300 50  0001 C CNN
	1    24750 6300
	-1   0    0    -1  
$EndComp
$Comp
L +3.3V #PWR025
U 1 1 5A8F540E
P 24750 5250
F 0 "#PWR025" H 24750 5100 50  0001 C CNN
F 1 "+3.3V" H 24750 5390 50  0000 C CNN
F 2 "" H 24750 5250 50  0000 C CNN
F 3 "" H 24750 5250 50  0000 C CNN
	1    24750 5250
	1    0    0    -1  
$EndComp
Text Label 25350 5950 0    60   ~ 0
WIFI_PGM
Text Label 25350 5650 0    60   ~ 0
WIFI_RST
Text Label 25350 5750 0    60   ~ 0
WIFI_TX
Text Label 25350 5850 0    60   ~ 0
WIFI_RX
$Comp
L GND #PWR026
U 1 1 5A8F7290
P 16900 11300
F 0 "#PWR026" H 16900 11050 50  0001 C CNN
F 1 "GND" H 16900 11150 50  0000 C CNN
F 2 "" H 16900 11300 50  0000 C CNN
F 3 "" H 16900 11300 50  0000 C CNN
	1    16900 11300
	1    0    0    -1  
$EndComp
$Comp
L +3.3V #PWR027
U 1 1 5A8FF9A5
P 3700 12150
F 0 "#PWR027" H 3700 12000 50  0001 C CNN
F 1 "+3.3V" H 3700 12290 50  0000 C CNN
F 2 "" H 3700 12150 50  0001 C CNN
F 3 "" H 3700 12150 50  0001 C CNN
	1    3700 12150
	-1   0    0    -1  
$EndComp
Text Label 3450 12400 2    60   ~ 0
AP_1
$Comp
L POT RV1
U 1 1 5A8FF9A6
P 3700 12400
F 0 "RV1" H 3650 12500 50  0000 R CNN
F 1 "POT" H 3650 12300 50  0000 R CNN
F 2 "Potentiometers:Potentiometer_Bourns_PTV09A-1_Horizontal" H 3700 12400 50  0001 C CNN
F 3 "" H 3700 12400 50  0001 C CNN
	1    3700 12400
	-1   0    0    -1  
$EndComp
$Comp
L C C7
U 1 1 5A8FF9AD
P 3450 12550
F 0 "C7" H 3475 12650 50  0000 L CNN
F 1 "0.1uF" H 3500 12500 50  0000 L CNN
F 2 "Capacitors_SMD:C_1206_HandSoldering" H 3488 12400 50  0001 C CNN
F 3 "" H 3450 12550 50  0001 C CNN
	1    3450 12550
	-1   0    0    1   
$EndComp
$Comp
L GNDA #PWR028
U 1 1 5A900B2D
P 3700 12850
F 0 "#PWR028" H 3700 12600 50  0001 C CNN
F 1 "GNDA" H 3700 12700 50  0000 C CNN
F 2 "" H 3700 12850 50  0001 C CNN
F 3 "" H 3700 12850 50  0001 C CNN
	1    3700 12850
	1    0    0    -1  
$EndComp
Text Label 18100 14150 2    60   ~ 0
CHG_STAT
Text Label 30000 12600 3    60   ~ 0
CHG_STAT
$Comp
L +5VA #PWR029
U 1 1 5A918388
P 20500 13950
F 0 "#PWR029" H 20500 13800 50  0001 C CNN
F 1 "+5VA" H 20500 14090 50  0000 C CNN
F 2 "" H 20500 13950 50  0001 C CNN
F 3 "" H 20500 13950 50  0001 C CNN
	1    20500 13950
	0    1    1    0   
$EndComp
Text Label 18100 14850 2    60   ~ 0
AP_1
$Comp
L GND #PWR030
U 1 1 5A91DB29
P 13000 5700
F 0 "#PWR030" H 13000 5450 50  0001 C CNN
F 1 "GND" H 13000 5550 50  0000 C CNN
F 2 "" H 13000 5700 50  0001 C CNN
F 3 "" H 13000 5700 50  0001 C CNN
	1    13000 5700
	1    0    0    -1  
$EndComp
Text Label 13000 5500 0    60   ~ 0
U3_TX
$Comp
L +5VA #PWR031
U 1 1 5A931F60
P 29500 11600
F 0 "#PWR031" H 29500 11450 50  0001 C CNN
F 1 "+5VA" H 29500 11740 50  0000 C CNN
F 2 "" H 29500 11600 50  0001 C CNN
F 3 "" H 29500 11600 50  0001 C CNN
	1    29500 11600
	1    0    0    -1  
$EndComp
$Sheet
S 12300 14800 700  500 
U 5A944550
F0 "Matrix1" 60
F1 "led_matrix.sch" 60
F2 "DIN" I L 12300 14900 60 
F3 "DOUT" O R 13000 14900 60 
F4 "CLK" I L 12300 15100 60 
F5 "LOAD" I L 12300 15200 60 
$EndSheet
$Sheet
S 13800 14800 700  500 
U 5A94A2CB
F0 "Matrix2" 60
F1 "led_matrix.sch" 60
F2 "DIN" I L 13800 14900 60 
F3 "DOUT" O R 14500 14900 60 
F4 "CLK" I L 13800 15100 60 
F5 "LOAD" I L 13800 15200 60 
$EndSheet
Text Label 18100 13850 2    60   ~ 0
LED_DIN
Text Label 18100 14050 2    60   ~ 0
LED_LOAD
Text Label 18100 13950 2    60   ~ 0
LED_CLK
$Sheet
S 12300 14100 700  300 
U 5A953B58
F0 "Keypad1" 60
F1 "keypad.sch" 60
F2 "SCL" I L 12300 14200 60 
F3 "SDA" I L 12300 14300 60 
F4 "ADDR" I R 13000 14200 60 
$EndSheet
$Sheet
S 13800 14100 700  300 
U 5A95553D
F0 "Keypad2" 60
F1 "keypad.sch" 60
F2 "SCL" I L 13800 14200 60 
F3 "SDA" I L 13800 14300 60 
F4 "ADDR" I R 14500 14200 60 
$EndSheet
Text Label 13800 14200 2    60   ~ 0
SCL
Text Label 13800 14300 2    60   ~ 0
SDA
Text Label 12300 14200 2    60   ~ 0
SCL
Text Label 12300 14300 2    60   ~ 0
SDA
$Comp
L GND #PWR032
U 1 1 5A958604
P 13150 14350
F 0 "#PWR032" H 13150 14100 50  0001 C CNN
F 1 "GND" H 13150 14200 50  0000 C CNN
F 2 "" H 13150 14350 50  0000 C CNN
F 3 "" H 13150 14350 50  0000 C CNN
	1    13150 14350
	-1   0    0    -1  
$EndComp
$Comp
L +3.3V #PWR033
U 1 1 5A9588AF
P 14650 14050
F 0 "#PWR033" H 14650 13900 50  0001 C CNN
F 1 "+3.3V" H 14650 14190 50  0000 C CNN
F 2 "" H 14650 14050 50  0000 C CNN
F 3 "" H 14650 14050 50  0000 C CNN
	1    14650 14050
	-1   0    0    -1  
$EndComp
Text Label 12300 14900 2    60   ~ 0
LED_DIN
Text Label 12300 15200 2    60   ~ 0
LED_LOAD
Text Label 12300 15100 2    60   ~ 0
LED_CLK
Text Label 13800 15200 2    60   ~ 0
LED_LOAD
Text Label 13800 15100 2    60   ~ 0
LED_CLK
Text Label 18100 13450 2    60   ~ 0
CORE_RST
Text Label 18100 13350 2    60   ~ 0
CORE_PGM
Text Label 18100 14750 2    60   ~ 0
AU_VOL
Text Label 14500 14900 0    60   ~ 0
LED_DOUT
Text Label 24100 12050 0    60   ~ 0
AU_VOL
Text Label 20100 13250 0    60   ~ 0
USBH_DP
Text Label 20100 13350 0    60   ~ 0
USBH_DM
Text Label 18100 12750 2    60   ~ 0
EXT_30
Text Label 20100 14850 0    60   ~ 0
EXT_17
Wire Wire Line
	20100 14050 20300 14050
Wire Wire Line
	13000 14900 13800 14900
Wire Wire Line
	14650 14200 14650 14050
Wire Wire Line
	14500 14200 14650 14200
Wire Wire Line
	13150 14200 13150 14350
Wire Wire Line
	13000 14200 13150 14200
Wire Wire Line
	13000 5600 13000 5700
Wire Wire Line
	20100 13950 20500 13950
Wire Wire Line
	3550 12400 3450 12400
Wire Wire Line
	16900 11200 16900 11300
Wire Wire Line
	24750 5250 24750 5350
Wire Wire Line
	24750 6250 24750 6300
Wire Wire Line
	14200 12700 14350 12700
Wire Wire Line
	22000 13950 22000 14000
Wire Wire Line
	21900 13950 21900 14000
Connection ~ 16900 13350
Wire Wire Line
	17200 13350 16900 13350
Connection ~ 17150 11200
Wire Wire Line
	17150 11200 16900 11200
Wire Wire Line
	17150 11250 17300 11250
Wire Wire Line
	17150 11150 17150 11250
Wire Wire Line
	17300 11150 17150 11150
Wire Wire Line
	17600 11250 18100 11250
Wire Wire Line
	17600 11150 18100 11150
Wire Wire Line
	13900 12700 14000 12700
Wire Wire Line
	14350 12800 13900 12800
Wire Wire Line
	14350 11800 14350 12800
Wire Wire Line
	14350 11800 13500 11800
Connection ~ 14350 12700
Wire Wire Line
	13500 11750 13500 11900
Connection ~ 13500 11800
Wire Wire Line
	13500 13100 13500 13150
Wire Wire Line
	30000 12500 30000 12600
Wire Wire Line
	29900 12500 30000 12500
Wire Wire Line
	30350 12850 30350 12950
Wire Wire Line
	28550 12300 28550 12950
Wire Wire Line
	28550 11800 28550 12100
Connection ~ 29500 11800
Wire Wire Line
	28550 11800 29600 11800
Connection ~ 30350 11800
Wire Wire Line
	29900 11800 30350 11800
Wire Wire Line
	31100 12300 31100 12550
Wire Wire Line
	30850 12300 31100 12300
Connection ~ 30350 12300
Wire Wire Line
	29500 11600 29500 12100
Wire Wire Line
	30350 11650 30350 12650
Wire Wire Line
	29900 12300 30450 12300
Wire Wire Line
	29500 12700 29500 12950
Wire Wire Line
	29000 12800 29000 12950
Wire Wire Line
	29000 12500 29000 12600
Wire Wire Line
	29100 12500 29000 12500
Wire Wire Line
	10400 12150 10400 12300
Connection ~ 9400 12750
Wire Wire Line
	9400 12750 9400 12850
Wire Wire Line
	9150 12750 9650 12750
Wire Wire Line
	9150 12200 9150 12550
Wire Wire Line
	9650 12200 9150 12200
Wire Wire Line
	9650 12400 9650 12550
Wire Wire Line
	10200 11950 10200 12300
Wire Wire Line
	10400 12150 10200 12150
Connection ~ 10200 12150
Wire Wire Line
	8400 12150 8400 12300
Connection ~ 7400 12750
Wire Wire Line
	7400 12750 7400 12850
Wire Wire Line
	7150 12750 7650 12750
Wire Wire Line
	7150 12200 7150 12550
Wire Wire Line
	7650 12200 7150 12200
Wire Wire Line
	7650 12400 7650 12550
Wire Wire Line
	8200 11950 8200 12300
Wire Wire Line
	8400 12150 8200 12150
Connection ~ 8200 12150
Wire Wire Line
	6200 12150 6200 12300
Connection ~ 5200 12750
Wire Wire Line
	5200 12750 5200 12850
Wire Wire Line
	4950 12750 5450 12750
Wire Wire Line
	4950 12200 4950 12550
Wire Wire Line
	5450 12200 4950 12200
Wire Wire Line
	5450 12400 5450 12550
Wire Wire Line
	6000 11950 6000 12300
Wire Wire Line
	6200 12150 6000 12150
Connection ~ 6000 12150
Wire Wire Line
	24100 11150 24600 11150
Wire Wire Line
	20100 14450 20150 14450
Wire Wire Line
	20100 14550 20150 14550
Wire Wire Line
	24600 11150 24600 10600
Wire Wire Line
	22300 10950 22300 11100
Wire Wire Line
	22300 10950 22650 10950
Wire Wire Line
	16900 14450 18100 14450
Wire Wire Line
	21900 14750 21900 14200
Connection ~ 21900 14750
Wire Wire Line
	22000 14650 22000 14200
Connection ~ 22000 14650
Wire Wire Line
	21900 13950 22000 13950
Wire Wire Line
	21950 13950 21950 12950
Connection ~ 21950 13950
Wire Wire Line
	20100 14650 22200 14650
Wire Wire Line
	20100 14750 22200 14750
Wire Wire Line
	18100 10650 18100 10250
Wire Wire Line
	16900 12050 18100 12050
Wire Wire Line
	17600 13350 18100 13350
Wire Wire Line
	16900 13250 16900 15450
Wire Wire Line
	16900 13250 18100 13250
Wire Wire Line
	20100 13050 21100 13050
Wire Wire Line
	21100 13150 20100 13150
Wire Wire Line
	20100 13350 21100 13350
Wire Wire Line
	20100 13450 21100 13450
Text Label 14850 6750 2    60   ~ 0
EXT_30
Text Label 14850 6850 2    60   ~ 0
EXT_17
$Comp
L CONN_01X02 J1
U 1 1 5A98F507
P 12800 5550
F 0 "J1" H 12800 5700 50  0000 C CNN
F 1 "UART3" V 12900 5550 50  0000 C CNN
F 2 "Pin_Headers:Pin_Header_Angled_1x02_Pitch2.54mm" H 12800 5550 50  0001 C CNN
F 3 "" H 12800 5550 50  0001 C CNN
	1    12800 5550
	-1   0    0    -1  
$EndComp
Wire Wire Line
	3700 12250 3700 12150
Wire Wire Line
	3700 12550 3700 12850
Wire Wire Line
	3450 12400 3450 12450
Wire Wire Line
	3450 12650 3450 12750
Wire Wire Line
	3450 12750 3700 12750
Connection ~ 3700 12750
$Comp
L USB_A J2
U 1 1 5A81EE8D
P 21400 13250
F 0 "J2" H 21200 13700 50  0000 L CNN
F 1 "USB_A" H 21200 13600 50  0000 L CNN
F 2 "Connectors:USB_A" H 21550 13200 50  0001 C CNN
F 3 "" H 21550 13200 50  0001 C CNN
	1    21400 13250
	-1   0    0    -1  
$EndComp
Wire Wire Line
	20700 13450 20700 12850
Wire Wire Line
	20100 13250 21100 13250
Connection ~ 20700 13450
$Comp
L +3.3V #PWR034
U 1 1 5A832355
P 2850 12150
F 0 "#PWR034" H 2850 12000 50  0001 C CNN
F 1 "+3.3V" H 2850 12290 50  0000 C CNN
F 2 "" H 2850 12150 50  0001 C CNN
F 3 "" H 2850 12150 50  0001 C CNN
	1    2850 12150
	-1   0    0    -1  
$EndComp
Text Label 2600 12400 2    60   ~ 0
AP_2
$Comp
L POT RV2
U 1 1 5A83235C
P 2850 12400
F 0 "RV2" H 2800 12500 50  0000 R CNN
F 1 "POT" H 2800 12300 50  0000 R CNN
F 2 "Potentiometers:Potentiometer_Bourns_PTV09A-1_Horizontal" H 2850 12400 50  0001 C CNN
F 3 "" H 2850 12400 50  0001 C CNN
	1    2850 12400
	-1   0    0    -1  
$EndComp
$Comp
L C C8
U 1 1 5A832362
P 2600 12550
F 0 "C8" H 2625 12650 50  0000 L CNN
F 1 "0.1uF" H 2650 12500 50  0000 L CNN
F 2 "Capacitors_SMD:C_1206_HandSoldering" H 2638 12400 50  0001 C CNN
F 3 "" H 2600 12550 50  0001 C CNN
	1    2600 12550
	-1   0    0    1   
$EndComp
$Comp
L GNDA #PWR035
U 1 1 5A832368
P 2850 12850
F 0 "#PWR035" H 2850 12600 50  0001 C CNN
F 1 "GNDA" H 2850 12700 50  0000 C CNN
F 2 "" H 2850 12850 50  0001 C CNN
F 3 "" H 2850 12850 50  0001 C CNN
	1    2850 12850
	1    0    0    -1  
$EndComp
Wire Wire Line
	2700 12400 2600 12400
Wire Wire Line
	2850 12250 2850 12150
Wire Wire Line
	2850 12550 2850 12850
Wire Wire Line
	2600 12400 2600 12450
Wire Wire Line
	2600 12650 2600 12750
Wire Wire Line
	2600 12750 2850 12750
Connection ~ 2850 12750
$Comp
L ESP-12 U10
U 1 1 5A838D3F
P 20900 5800
F 0 "U10" H 20900 5700 50  0000 C CNN
F 1 "ESP-12" H 20900 5900 50  0000 C CNN
F 2 "chordboard-footprints:ESP-12_smd" H 20900 5800 50  0001 C CNN
F 3 "" H 20900 5800 50  0001 C CNN
	1    20900 5800
	1    0    0    -1  
$EndComp
$Comp
L GND #PWR036
U 1 1 5A838D41
P 20900 6750
F 0 "#PWR036" H 20900 6500 50  0001 C CNN
F 1 "GND" H 20900 6600 50  0000 C CNN
F 2 "" H 20900 6750 50  0001 C CNN
F 3 "" H 20900 6750 50  0001 C CNN
	1    20900 6750
	1    0    0    -1  
$EndComp
Wire Wire Line
	20900 6700 20900 6750
Text Label 20000 5500 2    60   ~ 0
WIFI_RST
Text Label 21800 5500 0    60   ~ 0
WIFI_TXD
Text Label 21800 5600 0    60   ~ 0
WIFI_RXD
Text Label 21800 5900 0    60   ~ 0
WIFI_PGM
Text Label 21800 5700 0    60   ~ 0
WIFI_CMDIN
Text Label 21800 5800 0    60   ~ 0
WIFI_CMDOUT
$Comp
L SPST S1
U 1 1 5A83F558
P 17750 6150
F 0 "S1" H 17740 6235 60  0000 C CNN
F 1 "WPGM" H 17750 6055 60  0000 C CNN
F 2 "Buttons_Switches_THT:SW_PUSH_6mm_h5mm" H 17750 6150 60  0001 C CNN
F 3 "" H 17750 6150 60  0001 C CNN
	1    17750 6150
	-1   0    0    1   
$EndComp
$Comp
L SPST S2
U 1 1 5A83FC56
P 17750 6400
F 0 "S2" H 17740 6485 60  0000 C CNN
F 1 "WRST" H 17750 6305 60  0000 C CNN
F 2 "Buttons_Switches_THT:SW_PUSH_6mm_h5mm" H 17750 6400 60  0001 C CNN
F 3 "" H 17750 6400 60  0001 C CNN
	1    17750 6400
	-1   0    0    1   
$EndComp
$Comp
L CONN_01X06 J7
U 1 1 5A840328
P 23150 5650
F 0 "J7" H 23150 6000 50  0000 C CNN
F 1 "CONN_01X06" V 23250 5650 50  0000 C CNN
F 2 "Pin_Headers:Pin_Header_Angled_1x06_Pitch2.54mm" H 23150 5650 50  0001 C CNN
F 3 "" H 23150 5650 50  0001 C CNN
	1    23150 5650
	1    0    0    -1  
$EndComp
Text Label 20000 5700 2    60   ~ 0
WIFI_EN
Text Label 18750 5950 2    60   ~ 0
WIFI_RST
Text Label 18750 5800 2    60   ~ 0
WIFI_EN
Text Label 21800 6000 0    60   ~ 0
WIFI_02
Text Label 21800 6100 0    60   ~ 0
WIFI_15
$Comp
L +3.3V #PWR037
U 1 1 5A841F0A
P 20900 4800
F 0 "#PWR037" H 20900 4650 50  0001 C CNN
F 1 "+3.3V" H 20900 4940 50  0000 C CNN
F 2 "" H 20900 4800 50  0001 C CNN
F 3 "" H 20900 4800 50  0001 C CNN
	1    20900 4800
	1    0    0    -1  
$EndComp
Wire Wire Line
	20900 4800 20900 4900
Text Label 18750 6100 2    60   ~ 0
WIFI_PGM
Text Label 18750 6250 2    60   ~ 0
WIFI_02
Text Label 18750 6400 2    60   ~ 0
WIFI_15
$Comp
L R R4
U 1 1 5A8429DC
P 19000 5800
F 0 "R4" V 19050 5900 50  0000 L CNN
F 1 "10K" V 19000 5750 50  0000 L CNN
F 2 "Resistors_SMD:R_1206_HandSoldering" H 19000 5800 50  0001 C CNN
F 3 "" H 19000 5800 50  0001 C CNN
	1    19000 5800
	0    1    1    0   
$EndComp
$Comp
L R R8
U 1 1 5A842C5B
P 19000 5950
F 0 "R8" V 19050 6050 50  0000 L CNN
F 1 "10K" V 19000 5900 50  0000 L CNN
F 2 "Resistors_SMD:R_1206_HandSoldering" H 19000 5950 50  0001 C CNN
F 3 "" H 19000 5950 50  0001 C CNN
	1    19000 5950
	0    1    1    0   
$EndComp
$Comp
L R R9
U 1 1 5A842D69
P 19000 6100
F 0 "R9" V 19050 6200 50  0000 L CNN
F 1 "10K" V 19000 6050 50  0000 L CNN
F 2 "Resistors_SMD:R_1206_HandSoldering" H 19000 6100 50  0001 C CNN
F 3 "" H 19000 6100 50  0001 C CNN
	1    19000 6100
	0    1    1    0   
$EndComp
$Comp
L R R10
U 1 1 5A842E6E
P 19000 6250
F 0 "R10" V 19050 6350 50  0000 L CNN
F 1 "10K" V 19000 6200 50  0000 L CNN
F 2 "Resistors_SMD:R_1206_HandSoldering" H 19000 6250 50  0001 C CNN
F 3 "" H 19000 6250 50  0001 C CNN
	1    19000 6250
	0    1    1    0   
$EndComp
$Comp
L R R11
U 1 1 5A842F76
P 19000 6400
F 0 "R11" V 19050 6500 50  0000 L CNN
F 1 "10K" V 19000 6350 50  0000 L CNN
F 2 "Resistors_SMD:R_1206_HandSoldering" H 19000 6400 50  0001 C CNN
F 3 "" H 19000 6400 50  0001 C CNN
	1    19000 6400
	0    1    1    0   
$EndComp
Wire Wire Line
	19100 6400 19200 6400
Wire Wire Line
	19200 6400 19200 6700
$Comp
L GND #PWR038
U 1 1 5A84347D
P 19200 6700
F 0 "#PWR038" H 19200 6450 50  0001 C CNN
F 1 "GND" H 19200 6550 50  0000 C CNN
F 2 "" H 19200 6700 50  0001 C CNN
F 3 "" H 19200 6700 50  0001 C CNN
	1    19200 6700
	1    0    0    -1  
$EndComp
Wire Wire Line
	19200 6250 19100 6250
Wire Wire Line
	19200 5500 19200 6250
Wire Wire Line
	19200 6100 19100 6100
Wire Wire Line
	19200 5950 19100 5950
Connection ~ 19200 6100
Wire Wire Line
	19200 5800 19100 5800
Connection ~ 19200 5950
Connection ~ 19200 5800
$Comp
L +3.3V #PWR039
U 1 1 5A843B55
P 19200 5500
F 0 "#PWR039" H 19200 5350 50  0001 C CNN
F 1 "+3.3V" H 19200 5640 50  0000 C CNN
F 2 "" H 19200 5500 50  0001 C CNN
F 3 "" H 19200 5500 50  0001 C CNN
	1    19200 5500
	1    0    0    -1  
$EndComp
Wire Wire Line
	18750 5800 18900 5800
Wire Wire Line
	18750 5950 18900 5950
Wire Wire Line
	18750 6100 18900 6100
Wire Wire Line
	18750 6250 18900 6250
Wire Wire Line
	18750 6400 18900 6400
Wire Wire Line
	17900 6150 18050 6150
Wire Wire Line
	18050 6150 18050 6650
Wire Wire Line
	18050 6400 17900 6400
Connection ~ 18050 6400
$Comp
L GND #PWR040
U 1 1 5A844C51
P 18050 6650
F 0 "#PWR040" H 18050 6400 50  0001 C CNN
F 1 "GND" H 18050 6500 50  0000 C CNN
F 2 "" H 18050 6650 50  0001 C CNN
F 3 "" H 18050 6650 50  0001 C CNN
	1    18050 6650
	1    0    0    -1  
$EndComp
Wire Wire Line
	17600 6150 17500 6150
Wire Wire Line
	17600 6400 17500 6400
Text Label 17500 6150 2    60   ~ 0
WIFI_PGM
Text Label 17500 6400 2    60   ~ 0
WIFI_RST
Text Label 22950 5500 2    60   ~ 0
WIFI_TXD
Text Label 22950 5600 2    60   ~ 0
WIFI_RXD
Wire Wire Line
	22950 5900 22850 5900
Wire Wire Line
	22850 5900 22850 6250
$Comp
L GND #PWR041
U 1 1 5A8464C8
P 22850 6250
F 0 "#PWR041" H 22850 6000 50  0001 C CNN
F 1 "GND" H 22850 6100 50  0000 C CNN
F 2 "" H 22850 6250 50  0001 C CNN
F 3 "" H 22850 6250 50  0001 C CNN
	1    22850 6250
	1    0    0    -1  
$EndComp
$Comp
L Jumper JP1
U 1 1 5A847590
P 17500 10750
F 0 "JP1" H 17450 10800 50  0000 R CNN
F 1 "JWTX" H 17550 10800 50  0000 L CNN
F 2 "Pin_Headers:Pin_Header_Straight_1x02_Pitch2.54mm" H 17500 10750 50  0001 C CNN
F 3 "" H 17500 10750 50  0001 C CNN
	1    17500 10750
	1    0    0    -1  
$EndComp
$Comp
L Jumper JP2
U 1 1 5A847A1F
P 17500 10850
F 0 "JP2" H 17450 10900 50  0000 R CNN
F 1 "JWRX" H 17550 10900 50  0000 L CNN
F 2 "Pin_Headers:Pin_Header_Straight_1x02_Pitch2.54mm" H 17500 10850 50  0001 C CNN
F 3 "" H 17500 10850 50  0001 C CNN
	1    17500 10850
	1    0    0    -1  
$EndComp
Wire Wire Line
	17200 10850 17400 10850
Wire Wire Line
	17600 10850 18100 10850
Wire Wire Line
	18100 10750 17600 10750
Wire Wire Line
	17400 10750 17200 10750
Text Label 14800 4850 2    60   ~ 0
U4_TX
Text Label 14800 4750 2    60   ~ 0
U4_RX
$Comp
L GND #PWR042
U 1 1 5A84B35E
P 14350 7400
F 0 "#PWR042" H 14350 7150 50  0001 C CNN
F 1 "GND" H 14350 7250 50  0000 C CNN
F 2 "" H 14350 7400 50  0001 C CNN
F 3 "" H 14350 7400 50  0001 C CNN
	1    14350 7400
	1    0    0    -1  
$EndComp
Text Label 24150 5950 2    60   ~ 0
WIFI_02
Text Label 24150 5650 2    60   ~ 0
WIFI_EN
$Comp
L GROVE_I2C J4
U 1 1 5A84DEDC
P 15000 5500
F 0 "J4" H 15000 5750 50  0000 C CNN
F 1 "I2C" V 15250 5500 50  0000 C CNN
F 2 "Pin_Headers:Pin_Header_Angled_1x04_Pitch2.54mm" H 15000 5500 50  0001 C CNN
F 3 "" H 15000 5500 50  0001 C CNN
	1    15000 5500
	1    0    0    -1  
$EndComp
$Comp
L GROVE_I2C J5
U 1 1 5A84DFEA
P 15000 6050
F 0 "J5" H 15000 6300 50  0000 C CNN
F 1 "I2C" V 15250 6050 50  0000 C CNN
F 2 "Pin_Headers:Pin_Header_Angled_1x04_Pitch2.54mm" H 15000 6050 50  0001 C CNN
F 3 "" H 15000 6050 50  0001 C CNN
	1    15000 6050
	1    0    0    -1  
$EndComp
$Comp
L GROVE_UART J3
U 1 1 5A84E1DC
P 15000 4900
F 0 "J3" H 15000 5150 50  0000 C CNN
F 1 "UART4" V 15250 4900 50  0000 C CNN
F 2 "Pin_Headers:Pin_Header_Angled_1x04_Pitch2.54mm" H 15000 4900 50  0001 C CNN
F 3 "" H 15000 4900 50  0001 C CNN
	1    15000 4900
	1    0    0    -1  
$EndComp
Wire Wire Line
	14800 4950 14250 4950
Wire Wire Line
	14250 4500 14250 6550
Wire Wire Line
	14250 5550 14800 5550
Connection ~ 14250 4950
Wire Wire Line
	14250 6100 14800 6100
Connection ~ 14250 5550
Wire Wire Line
	14800 5050 14350 5050
Wire Wire Line
	14350 5050 14350 7400
Wire Wire Line
	14350 5650 14800 5650
Wire Wire Line
	14350 6200 14800 6200
Connection ~ 14350 5650
Connection ~ 14350 6200
$Comp
L +3.3V #PWR043
U 1 1 5A84EEBA
P 14250 4500
F 0 "#PWR043" H 14250 4350 50  0001 C CNN
F 1 "+3.3V" H 14250 4640 50  0000 C CNN
F 2 "" H 14250 4500 50  0001 C CNN
F 3 "" H 14250 4500 50  0001 C CNN
	1    14250 4500
	1    0    0    -1  
$EndComp
Text Label 14800 5350 2    60   ~ 0
SCL
Text Label 14800 5450 2    60   ~ 0
SDA
Text Label 14800 5900 2    60   ~ 0
SCL
Text Label 14800 6000 2    60   ~ 0
SDA
$Comp
L CONN_01X06 J6
U 1 1 5A850B3E
P 15050 6800
F 0 "J6" H 15050 7150 50  0000 C CNN
F 1 "EXT" V 15150 6800 50  0000 C CNN
F 2 "Pin_Headers:Pin_Header_Angled_1x06_Pitch2.54mm" H 15050 6800 50  0001 C CNN
F 3 "" H 15050 6800 50  0001 C CNN
	1    15050 6800
	1    0    0    -1  
$EndComp
Wire Wire Line
	14850 7050 14350 7050
Connection ~ 14350 7050
Wire Wire Line
	14250 6550 14850 6550
Connection ~ 14250 6100
Wire Wire Line
	14850 6650 14750 6650
Wire Wire Line
	14750 6650 14750 6450
Wire Wire Line
	14850 6950 14750 6950
Wire Wire Line
	14750 6950 14750 7400
$Comp
L +5V #PWR044
U 1 1 5A851810
P 14750 6450
F 0 "#PWR044" H 14750 6300 50  0001 C CNN
F 1 "+5V" H 14750 6590 50  0000 C CNN
F 2 "" H 14750 6450 50  0001 C CNN
F 3 "" H 14750 6450 50  0001 C CNN
	1    14750 6450
	1    0    0    -1  
$EndComp
$Comp
L GNDA #PWR045
U 1 1 5A851914
P 14750 7400
F 0 "#PWR045" H 14750 7150 50  0001 C CNN
F 1 "GNDA" H 14750 7250 50  0000 C CNN
F 2 "" H 14750 7400 50  0001 C CNN
F 3 "" H 14750 7400 50  0001 C CNN
	1    14750 7400
	1    0    0    -1  
$EndComp
$Comp
L Mounting_Hole MK9
U 1 1 5A853441
P 22900 8800
F 0 "MK9" H 22900 9000 50  0000 C CNN
F 1 "Mounting_Hole" H 22900 8925 50  0000 C CNN
F 2 "chordboard-footprints:Mounting_Hole" H 22900 8800 50  0001 C CNN
F 3 "" H 22900 8800 50  0001 C CNN
	1    22900 8800
	1    0    0    -1  
$EndComp
$Comp
L Mounting_Hole MK10
U 1 1 5A853447
P 22900 9000
F 0 "MK10" H 22900 9200 50  0000 C CNN
F 1 "Mounting_Hole" H 22900 9125 50  0000 C CNN
F 2 "chordboard-footprints:Mounting_Hole" H 22900 9000 50  0001 C CNN
F 3 "" H 22900 9000 50  0001 C CNN
	1    22900 9000
	1    0    0    -1  
$EndComp
$Comp
L C C15
U 1 1 5A85490B
P 21650 5000
F 0 "C15" H 21660 5070 50  0000 L CNN
F 1 "10uF" H 21660 4920 50  0000 L CNN
F 2 "Capacitors_SMD:C_1206_HandSoldering" H 21650 5000 50  0001 C CNN
F 3 "" H 21650 5000 50  0001 C CNN
	1    21650 5000
	1    0    0    -1  
$EndComp
Wire Wire Line
	20900 4850 21650 4850
Connection ~ 20900 4850
$Comp
L GND #PWR046
U 1 1 5A855381
P 21650 5150
F 0 "#PWR046" H 21650 4900 50  0001 C CNN
F 1 "GND" H 21650 5000 50  0000 C CNN
F 2 "" H 21650 5150 50  0001 C CNN
F 3 "" H 21650 5150 50  0001 C CNN
	1    21650 5150
	1    0    0    -1  
$EndComp
Wire Wire Line
	21650 4850 21650 4900
Wire Wire Line
	21650 5150 21650 5100
Text Notes 28850 13650 0    60   ~ 0
10K = 100mA\n5.0K = 200mA\n2.0K = 500mA\n1.0K = 1000mA
$EndSCHEMATC
