EESchema Schematic File Version 2
LIBS:chordboard-rescue
LIBS:maxim
LIBS:afshar
LIBS:chordboard-components
LIBS:power
LIBS:device
LIBS:transistors
LIBS:conn
LIBS:linear
LIBS:regul
LIBS:74xx
LIBS:cmos4000
LIBS:adc-dac
LIBS:memory
LIBS:xilinx
LIBS:microcontrollers
LIBS:dsp
LIBS:microchip
LIBS:analog_switches
LIBS:motorola
LIBS:texas
LIBS:intel
LIBS:audio
LIBS:interface
LIBS:digital-audio
LIBS:philips
LIBS:display
LIBS:cypress
LIBS:siliconi
LIBS:opto
LIBS:atmel
LIBS:contrib
LIBS:valves
LIBS:switches
LIBS:standard
LIBS:mechanical
LIBS:led
LIBS:akn_maxim
LIBS:SparkFun-Electromechanical
LIBS:chordboard-cache
EELAYER 25 0
EELAYER END
$Descr A4 11693 8268
encoding utf-8
Sheet 5 5
Title ""
Date ""
Rev ""
Comp ""
Comment1 ""
Comment2 ""
Comment3 ""
Comment4 ""
$EndDescr
$Comp
L +3.3V #PWR053
U 1 1 5A9549E1
P 4600 2250
AR Path="/5A953B58/5A9549E1" Ref="#PWR053"  Part="1" 
AR Path="/5A95553D/5A9549E1" Ref="#PWR057"  Part="1" 
F 0 "#PWR057" H 4600 2100 50  0001 C CNN
F 1 "+3.3V" H 4600 2390 50  0000 C CNN
F 2 "" H 4600 2250 50  0000 C CNN
F 3 "" H 4600 2250 50  0000 C CNN
	1    4600 2250
	1    0    0    -1  
$EndComp
$Comp
L GND #PWR054
U 1 1 5A9549E7
P 5550 2800
AR Path="/5A953B58/5A9549E7" Ref="#PWR054"  Part="1" 
AR Path="/5A95553D/5A9549E7" Ref="#PWR058"  Part="1" 
F 0 "#PWR058" H 5550 2550 50  0001 C CNN
F 1 "GND" H 5550 2650 50  0000 C CNN
F 2 "" H 5550 2800 50  0001 C CNN
F 3 "" H 5550 2800 50  0001 C CNN
	1    5550 2800
	-1   0    0    -1  
$EndComp
$Comp
L GND #PWR055
U 1 1 5A9549ED
P 4600 5650
AR Path="/5A953B58/5A9549ED" Ref="#PWR055"  Part="1" 
AR Path="/5A95553D/5A9549ED" Ref="#PWR059"  Part="1" 
F 0 "#PWR059" H 4600 5400 50  0001 C CNN
F 1 "GND" H 4600 5500 50  0000 C CNN
F 2 "" H 4600 5650 50  0001 C CNN
F 3 "" H 4600 5650 50  0001 C CNN
	1    4600 5650
	-1   0    0    -1  
$EndComp
$Comp
L MCP23017 U8
U 1 1 5A9549F3
P 4600 3950
AR Path="/5A953B58/5A9549F3" Ref="U8"  Part="1" 
AR Path="/5A95553D/5A9549F3" Ref="U9"  Part="1" 
F 0 "U9" H 4500 4975 50  0000 R CNN
F 1 "MCP23017" H 4500 4900 50  0000 R CNN
F 2 "Housings_SOIC:SOIC-28W_7.5x17.9mm_Pitch1.27mm" H 4650 3000 50  0001 L CNN
F 3 "" H 4850 4950 50  0001 C CNN
	1    4600 3950
	1    0    0    -1  
$EndComp
$Comp
L KSW K1
U 1 1 5A9549FA
P 3900 3150
AR Path="/5A953B58/5A9549FA" Ref="K1"  Part="1" 
AR Path="/5A95553D/5A9549FA" Ref="K17"  Part="1" 
F 0 "K17" H 3800 3200 60  0000 C CNN
F 1 "KSW" H 4050 3200 60  0000 C CNN
F 2 "chordboard-footprints:CHERRY_PCB_100H" H 3900 3150 60  0001 C CNN
F 3 "" H 3900 3150 60  0001 C CNN
	1    3900 3150
	-1   0    0    -1  
$EndComp
$Comp
L KSW K2
U 1 1 5A954A01
P 3900 3250
AR Path="/5A953B58/5A954A01" Ref="K2"  Part="1" 
AR Path="/5A95553D/5A954A01" Ref="K18"  Part="1" 
F 0 "K18" H 3800 3300 60  0000 C CNN
F 1 "KSW" H 4050 3300 60  0000 C CNN
F 2 "chordboard-footprints:CHERRY_PCB_100H" H 4850 3300 60  0001 C CNN
F 3 "" H 3900 3250 60  0001 C CNN
	1    3900 3250
	-1   0    0    -1  
$EndComp
$Comp
L KSW K3
U 1 1 5A954A08
P 3900 3350
AR Path="/5A953B58/5A954A08" Ref="K3"  Part="1" 
AR Path="/5A95553D/5A954A08" Ref="K19"  Part="1" 
F 0 "K19" H 3800 3400 60  0000 C CNN
F 1 "KSW" H 4050 3400 60  0000 C CNN
F 2 "chordboard-footprints:CHERRY_PCB_100H" H 4850 3400 60  0001 C CNN
F 3 "" H 3900 3350 60  0001 C CNN
	1    3900 3350
	-1   0    0    -1  
$EndComp
$Comp
L KSW K4
U 1 1 5A954A0F
P 3900 3450
AR Path="/5A953B58/5A954A0F" Ref="K4"  Part="1" 
AR Path="/5A95553D/5A954A0F" Ref="K20"  Part="1" 
F 0 "K20" H 3800 3500 60  0000 C CNN
F 1 "KSW" H 4050 3500 60  0000 C CNN
F 2 "chordboard-footprints:CHERRY_PCB_100H" H 4850 3500 60  0001 C CNN
F 3 "" H 3900 3450 60  0001 C CNN
	1    3900 3450
	-1   0    0    -1  
$EndComp
$Comp
L C C13
U 1 1 5A954A16
P 5550 2600
AR Path="/5A953B58/5A954A16" Ref="C13"  Part="1" 
AR Path="/5A95553D/5A954A16" Ref="C14"  Part="1" 
F 0 "C14" H 5560 2670 50  0000 L CNN
F 1 "0.1uF" H 5560 2520 50  0000 L CNN
F 2 "Capacitors_SMD:C_1206_HandSoldering" H 5550 2600 50  0001 C CNN
F 3 "" H 5550 2600 50  0001 C CNN
	1    5550 2600
	-1   0    0    -1  
$EndComp
$Comp
L KSW K5
U 1 1 5A954A1D
P 3900 3550
AR Path="/5A953B58/5A954A1D" Ref="K5"  Part="1" 
AR Path="/5A95553D/5A954A1D" Ref="K21"  Part="1" 
F 0 "K21" H 3800 3600 60  0000 C CNN
F 1 "KSW" H 4050 3600 60  0000 C CNN
F 2 "chordboard-footprints:CHERRY_PCB_100H" H 4850 3600 60  0001 C CNN
F 3 "" H 3900 3550 60  0001 C CNN
	1    3900 3550
	-1   0    0    -1  
$EndComp
$Comp
L KSW K6
U 1 1 5A954A24
P 3900 3650
AR Path="/5A953B58/5A954A24" Ref="K6"  Part="1" 
AR Path="/5A95553D/5A954A24" Ref="K22"  Part="1" 
F 0 "K22" H 3800 3700 60  0000 C CNN
F 1 "KSW" H 4050 3700 60  0000 C CNN
F 2 "chordboard-footprints:CHERRY_PCB_100H" H 4850 3700 60  0001 C CNN
F 3 "" H 3900 3650 60  0001 C CNN
	1    3900 3650
	-1   0    0    -1  
$EndComp
$Comp
L KSW K7
U 1 1 5A954A2B
P 3900 3750
AR Path="/5A953B58/5A954A2B" Ref="K7"  Part="1" 
AR Path="/5A95553D/5A954A2B" Ref="K23"  Part="1" 
F 0 "K23" H 3800 3800 60  0000 C CNN
F 1 "KSW" H 4050 3800 60  0000 C CNN
F 2 "chordboard-footprints:CHERRY_PCB_100H" H 4850 3800 60  0001 C CNN
F 3 "" H 3900 3750 60  0001 C CNN
	1    3900 3750
	-1   0    0    -1  
$EndComp
$Comp
L KSW K9
U 1 1 5A954A32
P 3900 4050
AR Path="/5A953B58/5A954A32" Ref="K9"  Part="1" 
AR Path="/5A95553D/5A954A32" Ref="K25"  Part="1" 
F 0 "K25" H 3800 4100 60  0000 C CNN
F 1 "KSW" H 4050 4100 60  0000 C CNN
F 2 "chordboard-footprints:CHERRY_PCB_100H" H 4850 4100 60  0001 C CNN
F 3 "" H 3900 4050 60  0001 C CNN
	1    3900 4050
	-1   0    0    -1  
$EndComp
$Comp
L KSW K10
U 1 1 5A954A39
P 3900 4150
AR Path="/5A953B58/5A954A39" Ref="K10"  Part="1" 
AR Path="/5A95553D/5A954A39" Ref="K26"  Part="1" 
F 0 "K26" H 3800 4200 60  0000 C CNN
F 1 "KSW" H 4050 4200 60  0000 C CNN
F 2 "chordboard-footprints:CHERRY_PCB_100H" H 4850 4200 60  0001 C CNN
F 3 "" H 3900 4150 60  0001 C CNN
	1    3900 4150
	-1   0    0    -1  
$EndComp
$Comp
L KSW K11
U 1 1 5A954A40
P 3900 4250
AR Path="/5A953B58/5A954A40" Ref="K11"  Part="1" 
AR Path="/5A95553D/5A954A40" Ref="K27"  Part="1" 
F 0 "K27" H 3800 4300 60  0000 C CNN
F 1 "KSW" H 4050 4300 60  0000 C CNN
F 2 "chordboard-footprints:CHERRY_PCB_100H" H 4850 4300 60  0001 C CNN
F 3 "" H 3900 4250 60  0001 C CNN
	1    3900 4250
	-1   0    0    -1  
$EndComp
$Comp
L KSW K12
U 1 1 5A954A47
P 3900 4350
AR Path="/5A953B58/5A954A47" Ref="K12"  Part="1" 
AR Path="/5A95553D/5A954A47" Ref="K28"  Part="1" 
F 0 "K28" H 3800 4400 60  0000 C CNN
F 1 "KSW" H 4050 4400 60  0000 C CNN
F 2 "chordboard-footprints:CHERRY_PCB_100H" H 4850 4400 60  0001 C CNN
F 3 "" H 3900 4350 60  0001 C CNN
	1    3900 4350
	-1   0    0    -1  
$EndComp
$Comp
L KSW K13
U 1 1 5A954A4E
P 3900 4450
AR Path="/5A953B58/5A954A4E" Ref="K13"  Part="1" 
AR Path="/5A95553D/5A954A4E" Ref="K29"  Part="1" 
F 0 "K29" H 3800 4500 60  0000 C CNN
F 1 "KSW" H 4050 4500 60  0000 C CNN
F 2 "chordboard-footprints:CHERRY_PCB_100H" H 4850 4500 60  0001 C CNN
F 3 "" H 3900 4450 60  0001 C CNN
	1    3900 4450
	-1   0    0    -1  
$EndComp
$Comp
L KSW K14
U 1 1 5A954A55
P 3900 4550
AR Path="/5A953B58/5A954A55" Ref="K14"  Part="1" 
AR Path="/5A95553D/5A954A55" Ref="K30"  Part="1" 
F 0 "K30" H 3800 4600 60  0000 C CNN
F 1 "KSW" H 4050 4600 60  0000 C CNN
F 2 "chordboard-footprints:CHERRY_PCB_100H" H 4850 4600 60  0001 C CNN
F 3 "" H 3900 4550 60  0001 C CNN
	1    3900 4550
	-1   0    0    -1  
$EndComp
$Comp
L KSW K8
U 1 1 5A954A5C
P 3900 3850
AR Path="/5A953B58/5A954A5C" Ref="K8"  Part="1" 
AR Path="/5A95553D/5A954A5C" Ref="K24"  Part="1" 
F 0 "K24" H 3800 3900 60  0000 C CNN
F 1 "KSW" H 4050 3900 60  0000 C CNN
F 2 "chordboard-footprints:CHERRY_PCB_100H" H 4850 3900 60  0001 C CNN
F 3 "" H 3900 3850 60  0001 C CNN
	1    3900 3850
	-1   0    0    -1  
$EndComp
$Comp
L KSW K15
U 1 1 5A954A63
P 3900 4650
AR Path="/5A953B58/5A954A63" Ref="K15"  Part="1" 
AR Path="/5A95553D/5A954A63" Ref="K31"  Part="1" 
F 0 "K31" H 3800 4700 60  0000 C CNN
F 1 "KSW" H 4050 4700 60  0000 C CNN
F 2 "chordboard-footprints:CHERRY_PCB_100H" H 4850 4700 60  0001 C CNN
F 3 "" H 3900 4650 60  0001 C CNN
	1    3900 4650
	-1   0    0    -1  
$EndComp
$Comp
L KSW K16
U 1 1 5A954A6A
P 3900 4750
AR Path="/5A953B58/5A954A6A" Ref="K16"  Part="1" 
AR Path="/5A95553D/5A954A6A" Ref="K32"  Part="1" 
F 0 "K32" H 3800 4800 60  0000 C CNN
F 1 "KSW" H 4050 4800 60  0000 C CNN
F 2 "chordboard-footprints:CHERRY_PCB_100H" H 4850 4800 60  0001 C CNN
F 3 "" H 3900 4750 60  0001 C CNN
	1    3900 4750
	-1   0    0    -1  
$EndComp
$Comp
L GND #PWR056
U 1 1 5A954A71
P 5300 5000
AR Path="/5A953B58/5A954A71" Ref="#PWR056"  Part="1" 
AR Path="/5A95553D/5A954A71" Ref="#PWR060"  Part="1" 
F 0 "#PWR060" H 5300 4750 50  0001 C CNN
F 1 "GND" H 5300 4850 50  0000 C CNN
F 2 "" H 5300 5000 50  0001 C CNN
F 3 "" H 5300 5000 50  0001 C CNN
	1    5300 5000
	-1   0    0    -1  
$EndComp
Wire Wire Line
	5100 4350 5300 4350
Wire Wire Line
	5100 4250 5300 4250
Wire Wire Line
	4600 4950 4600 5650
Wire Wire Line
	5200 2350 5200 3150
Wire Wire Line
	5200 3150 5100 3150
Wire Wire Line
	4600 2250 4600 2950
Connection ~ 3700 4550
Connection ~ 3700 4450
Connection ~ 3700 4350
Connection ~ 3700 4250
Connection ~ 3700 4150
Connection ~ 3700 4050
Connection ~ 3700 3850
Connection ~ 3700 3750
Connection ~ 3700 3650
Connection ~ 3700 3550
Connection ~ 3700 3450
Connection ~ 3700 3350
Connection ~ 3700 3250
Wire Wire Line
	3700 3150 3700 5000
Connection ~ 4600 2350
Wire Wire Line
	3700 5000 4600 5000
Connection ~ 4600 5000
Wire Wire Line
	5550 2350 5550 2500
Wire Wire Line
	5550 2700 5550 2800
Wire Wire Line
	4100 3150 4050 3150
Wire Wire Line
	3750 3150 3700 3150
Wire Wire Line
	4100 3250 4050 3250
Wire Wire Line
	3750 3250 3700 3250
Wire Wire Line
	4100 3350 4050 3350
Wire Wire Line
	4100 3450 4050 3450
Wire Wire Line
	3750 3350 3700 3350
Wire Wire Line
	3750 3450 3700 3450
Wire Wire Line
	4100 3550 4050 3550
Wire Wire Line
	3750 3550 3700 3550
Wire Wire Line
	4100 3650 4050 3650
Wire Wire Line
	3750 3650 3700 3650
Wire Wire Line
	4100 3750 4050 3750
Wire Wire Line
	4100 3850 4050 3850
Wire Wire Line
	3750 3750 3700 3750
Wire Wire Line
	3750 3850 3700 3850
Wire Wire Line
	4100 4050 4050 4050
Wire Wire Line
	3750 4050 3700 4050
Wire Wire Line
	4100 4150 4050 4150
Wire Wire Line
	3750 4150 3700 4150
Wire Wire Line
	4100 4250 4050 4250
Wire Wire Line
	4100 4350 4050 4350
Wire Wire Line
	3750 4250 3700 4250
Wire Wire Line
	3750 4350 3700 4350
Wire Wire Line
	4100 4450 4050 4450
Wire Wire Line
	3750 4450 3700 4450
Wire Wire Line
	4100 4550 4050 4550
Wire Wire Line
	3750 4550 3700 4550
Wire Wire Line
	4100 4650 4050 4650
Wire Wire Line
	4100 4750 4050 4750
Connection ~ 5200 2350
Wire Wire Line
	5100 4650 5300 4650
Wire Wire Line
	5100 4750 5300 4750
Wire Wire Line
	4600 2350 5550 2350
Wire Wire Line
	3750 4650 3700 4650
Connection ~ 3700 4650
Wire Wire Line
	3750 4750 3700 4750
Connection ~ 3700 4750
Connection ~ 5300 4750
Wire Wire Line
	5100 4550 5300 4550
Wire Wire Line
	5300 4650 5300 5000
Text HLabel 5300 4250 2    60   Input ~ 0
SCL
Text HLabel 5300 4350 2    60   Input ~ 0
SDA
Text HLabel 5300 4550 2    60   Input ~ 0
ADDR
$EndSCHEMATC
