EESchema Schematic File Version 2
LIBS:chordboard-rescue
LIBS:power
LIBS:device
LIBS:transistors
LIBS:conn
LIBS:linear
LIBS:regul
LIBS:74xx
LIBS:cmos4000
LIBS:adc-dac
LIBS:memory
LIBS:xilinx
LIBS:microcontrollers
LIBS:dsp
LIBS:microchip
LIBS:analog_switches
LIBS:motorola
LIBS:texas
LIBS:intel
LIBS:audio
LIBS:interface
LIBS:digital-audio
LIBS:philips
LIBS:display
LIBS:cypress
LIBS:siliconi
LIBS:opto
LIBS:atmel
LIBS:contrib
LIBS:valves
LIBS:teensy
LIBS:switches
LIBS:Symbols_DCDC-ACDC-Converter_RevC_20Jul2012
LIBS:Symbols_EN60617_13Mar2013
LIBS:Symbols_EN60617-10_HF-Radio_DRAFT_12Sep2013
LIBS:Symbols_ICs-Diskrete_RevD10
LIBS:Symbols_ICs-Opto_RevB_16Sep2013
LIBS:Symbols_Microcontroller_Philips-NXP_RevA_06Oct2013
LIBS:SymbolsSimilarEN60617+oldDIN617-RevE8
LIBS:Symbols_Socket-DIN41612_RevA
LIBS:Symbols_Transformer-Diskrete_RevA
LIBS:74xgxx
LIBS:ac-dc
LIBS:actel
LIBS:allegro
LIBS:Altera
LIBS:analog_devices
LIBS:battery_management
LIBS:bbd
LIBS:brooktre
LIBS:cmos_ieee
LIBS:dc-dc
LIBS:diode
LIBS:elec-unifil
LIBS:ESD_Protection
LIBS:ftdi
LIBS:gennum
LIBS:graphic
LIBS:hc11
LIBS:ir
LIBS:Lattice
LIBS:logo
LIBS:maxim
LIBS:mechanical
LIBS:microchip_dspic33dsc
LIBS:microchip_pic10mcu
LIBS:microchip_pic12mcu
LIBS:microchip_pic16mcu
LIBS:microchip_pic18mcu
LIBS:microchip_pic32mcu
LIBS:motor_drivers
LIBS:motors
LIBS:msp430
LIBS:nordicsemi
LIBS:nxp_armmcu
LIBS:onsemi
LIBS:Oscillators
LIBS:powerint
LIBS:Power_Management
LIBS:pspice
LIBS:references
LIBS:relays
LIBS:rfcom
LIBS:sensors
LIBS:silabs
LIBS:stm8
LIBS:stm32
LIBS:supertex
LIBS:transf
LIBS:ttl_ieee
LIBS:video
LIBS:wiznet
LIBS:Worldsemi
LIBS:Xicor
LIBS:zetex
LIBS:Zilog
LIBS:Rotary-Encoders
LIBS:eurocad
LIBS:afshar
LIBS:74hct125d
LIBS:74hct245
LIBS:4000-ic
LIBS:7400-ic
LIBS:75176
LIBS:Abracon
LIBS:ABS07-32.768KHZ-T
LIBS:acorn_electron_expansion_connector
LIBS:ActiveSemi
LIBS:akn_holtek
LIBS:akn_maxim
LIBS:akn_misc
LIBS:akn_transformers
LIBS:altera
LIBS:Amplifiers
LIBS:AMS
LIBS:analog-devices
LIBS:AnalogDevices
LIBS:analog-ic
LIBS:AOS
LIBS:arm-swd-header
LIBS:Atmel
LIBS:avr-mcu
LIBS:bluegiga
LIBS:Bosch
LIBS:Chipkit_Shield_Max32-cache
LIBS:Chipkit_Shield_uC-cache
LIBS:conn-2mm
LIBS:conn-100mil
LIBS:conn-amphenol
LIBS:conn-assmann
LIBS:conn-cui
LIBS:connector
LIBS:Connectors
LIBS:conn-fci
LIBS:conn-jae
LIBS:conn-linx
LIBS:conn_mics
LIBS:conn-molex
LIBS:conn-special-headers
LIBS:conn-tagconnect
LIBS:conn-te
LIBS:conn-test
LIBS:CubeSatKit_StackBoard-cache
LIBS:DataStorage
LIBS:diode-inc-ic
LIBS:Diodes
LIBS:DiodesInc
LIBS:EKB
LIBS:electomech-misc
LIBS:_electromech
LIBS:esp8266-esp-01
LIBS:esp8266-esp-03
LIBS:esp8266-esp-12e
LIBS:ESP8266
LIBS:Fairchild
LIBS:freescale-ic
LIBS:FTDI
LIBS:ftdi-ic
LIBS:hm-11
LIBS:Infineon
LIBS:Intersil
LIBS:iso15
LIBS:kbox
LIBS:kbox-cache
LIBS:KCDA02-123
LIBS:led
LIBS:_linear
LIBS:LinearTech
LIBS:Littelfuse
LIBS:_logic
LIBS:logic-4000
LIBS:logic-7400
LIBS:logic-7400-new
LIBS:LogicDevices
LIBS:lpc11u14fbd48
LIBS:lt
LIBS:MACOM
LIBS:Macrofab
LIBS:max
LIBS:maxim-ic
LIBS:mcp1700t-3302e-tt
LIBS:mcp73831t-2aci-ot
LIBS:micrel-ic
LIBS:Microchip
LIBS:microchip-ic
LIBS:Micron
LIBS:Microprocessors
LIBS:micro_usb_socket
LIBS:MiscellaneousDevices
LIBS:mke02z64vld2
LIBS:mke04z8vtg4
LIBS:Murata
LIBS:nrf24l01p_smd
LIBS:nrf51822-04
LIBS:nRF24L01+
LIBS:NXP
LIBS:nxp-ic
LIBS:OceanOptics
LIBS:on-semi-ic
LIBS:opamps
LIBS:_passive
LIBS:Passives
LIBS:pasv-BelFuse
LIBS:pasv-BiTech
LIBS:pasv-Bourns
LIBS:pasv-cap
LIBS:pasv-ind
LIBS:pasv-Murata
LIBS:pasv-res
LIBS:pasv-TDK
LIBS:pasv-xtal
LIBS:pcb
LIBS:PMOD
LIBS:PowerComponents
LIBS:pp_ws2812b
LIBS:random-mics
LIBS:Recom
LIBS:recom-r1se
LIBS:regulator
LIBS:relays-a
LIBS:RepeaterParts
LIBS:RF_OEM_Parts
LIBS:Richtek
LIBS:rohm
LIBS:_semi
LIBS:semi-diode-DiodesInc
LIBS:semi-diode-generic
LIBS:semi-diode-MCC
LIBS:semi-diode-NXP
LIBS:semi-diode-OnSemi
LIBS:semi-diode-Semtech
LIBS:semi-diode-ST
LIBS:semi-diode-Toshiba
LIBS:semi-opto-generic
LIBS:semi-opto-liteon
LIBS:semi-thyristor-generic
LIBS:semi-trans-AOS
LIBS:semi-trans-DiodesInc
LIBS:semi-trans-EPC
LIBS:semi-trans-Fairchild
LIBS:semi-trans-generic
LIBS:semi-trans-Infineon
LIBS:semi-trans-IRF
LIBS:semi-trans-IXYS
LIBS:semi-trans-NXP
LIBS:semi-trans-OnSemi
LIBS:semi-trans-Panasonic
LIBS:semi-trans-ST
LIBS:semi-trans-TI
LIBS:semi-trans-Toshiba
LIBS:semi-trans-Vishay
LIBS:Sensors
LIBS:sharp-relay
LIBS:skyworks
LIBS:Snickerdoodle
LIBS:sparkfun
LIBS:ST
LIBS:standard
LIBS:st_ic
LIBS:stm32f37xxx_48pin
LIBS:stm32f102xx_48pin
LIBS:stm32f103c8t6-module-china
LIBS:stm32f302xx_48pin
LIBS:stmicro-mcu
LIBS:symbol
LIBS:TexasInstruments
LIBS:ti
LIBS:ti-ic
LIBS:tinkerforge
LIBS:transistor
LIBS:TransistorParts
LIBS:transistors-mics
LIBS:txs2sa-relay
LIBS:uart_pp
LIBS:u-blox
LIBS:uln-ic
LIBS:usb_plug
LIBS:Vishay
LIBS:Winbond
LIBS:ws2812b
LIBS:Xilinx
LIBS:SparkFun-DigitalIC
LIBS:k66lqfp
LIBS:chordboard-cache
EELAYER 25 0
EELAYER END
$Descr A4 11693 8268
encoding utf-8
Sheet 2 2
Title ""
Date ""
Rev ""
Comp ""
Comment1 ""
Comment2 ""
Comment3 ""
Comment4 ""
$EndDescr
$Comp
L PCA9685_aa U?
U 1 1 5A6A133F
P 2150 4850
F 0 "U?" H 2150 6450 50  0000 L BNN
F 1 "PCA9685_aa" H 2150 6370 50  0000 L BNN
F 2 "Housings_SSOP:TSSOP-28_4.4x9.7mm_Pitch0.65mm" H 2180 5000 20  0001 C CNN
F 3 "" H 2150 4850 60  0001 C CNN
	1    2150 4850
	1    0    0    -1  
$EndComp
Text Label 3050 3650 0    60   ~ 0
SCL
Text Label 3050 3550 0    60   ~ 0
SDA
$Comp
L +3.3V #PWR?
U 1 1 5A6A1348
P 2500 3050
F 0 "#PWR?" H 2500 2900 50  0001 C CNN
F 1 "+3.3V" H 2500 3190 50  0000 C CNN
F 2 "" H 2500 3050 50  0001 C CNN
F 3 "" H 2500 3050 50  0001 C CNN
	1    2500 3050
	1    0    0    -1  
$EndComp
$Comp
L GND #PWR?
U 1 1 5A6A134E
P 2500 5150
F 0 "#PWR?" H 2500 4900 50  0001 C CNN
F 1 "GND" H 2500 5000 50  0000 C CNN
F 2 "" H 2500 5150 50  0000 C CNN
F 3 "" H 2500 5150 50  0000 C CNN
	1    2500 5150
	1    0    0    -1  
$EndComp
$Comp
L R R?
U 1 1 5A6A1354
P 3250 3950
F 0 "R?" V 3200 4100 50  0000 C CNN
F 1 "10K" V 3250 3950 50  0000 C CNN
F 2 "Resistors_SMD:R_1210_HandSoldering" V 3180 3950 50  0001 C CNN
F 3 "" H 3250 3950 50  0000 C CNN
	1    3250 3950
	0    1    1    0   
$EndComp
$Comp
L C C?
U 1 1 5A6A135B
P 4700 3600
F 0 "C?" H 4725 3700 50  0000 L CNN
F 1 "0.1uF" V 4800 3350 50  0000 L CNN
F 2 "Capacitors_THT:C_Disc_D4.3mm_W1.9mm_P5.00mm" H 4738 3450 50  0001 C CNN
F 3 "" H 4700 3600 50  0001 C CNN
	1    4700 3600
	-1   0    0    1   
$EndComp
Wire Wire Line
	2500 3050 2500 3150
Wire Wire Line
	2500 5050 2500 5150
Wire Wire Line
	4700 3750 4700 4050
Wire Wire Line
	3050 3750 4700 3750
Wire Wire Line
	3050 3950 3100 3950
Wire Wire Line
	3400 3950 4700 3950
Connection ~ 4700 3950
Wire Wire Line
	1000 3100 4700 3100
Wire Wire Line
	4700 3100 4700 3450
Connection ~ 2500 3100
Connection ~ 4700 3750
Wire Wire Line
	4450 3450 4450 3100
Connection ~ 4450 3100
Connection ~ 4450 3750
Wire Wire Line
	1950 3450 1750 3450
Wire Wire Line
	1950 3550 1750 3550
Wire Wire Line
	1750 3550 1750 3850
Wire Wire Line
	1750 3650 1950 3650
Wire Wire Line
	1750 3750 1950 3750
Connection ~ 1750 3650
Wire Wire Line
	1750 3850 1950 3850
Connection ~ 1750 3750
$Comp
L +3.3V #PWR?
U 1 1 5A6A1378
P 1750 3450
F 0 "#PWR?" H 1750 3300 50  0001 C CNN
F 1 "+3.3V" H 1750 3590 50  0000 C CNN
F 2 "" H 1750 3450 50  0001 C CNN
F 3 "" H 1750 3450 50  0001 C CNN
	1    1750 3450
	0    -1   -1   0   
$EndComp
$Comp
L GND #PWR?
U 1 1 5A6A137E
P 1750 3650
F 0 "#PWR?" H 1750 3400 50  0001 C CNN
F 1 "GND" H 1750 3500 50  0000 C CNN
F 2 "" H 1750 3650 50  0000 C CNN
F 3 "" H 1750 3650 50  0000 C CNN
	1    1750 3650
	0    1    1    0   
$EndComp
Wire Wire Line
	3050 3850 4700 3850
Connection ~ 4700 3850
$Comp
L GND #PWR?
U 1 1 5A6A1386
P 4700 4050
F 0 "#PWR?" H 4700 3800 50  0001 C CNN
F 1 "GND" H 4700 3900 50  0000 C CNN
F 2 "" H 4700 4050 50  0000 C CNN
F 3 "" H 4700 4050 50  0000 C CNN
	1    4700 4050
	1    0    0    -1  
$EndComp
$Comp
L R R?
U 1 1 5A6A138C
P 3250 4050
F 0 "R?" V 3200 4200 50  0000 C CNN
F 1 "50" V 3250 4050 50  0000 C CNN
F 2 "Resistors_SMD:R_1210_HandSoldering" V 3180 4050 50  0001 C CNN
F 3 "" H 3250 4050 50  0000 C CNN
	1    3250 4050
	0    1    1    0   
$EndComp
$Comp
L R R?
U 1 1 5A6A1393
P 3250 4150
F 0 "R?" V 3200 4300 50  0000 C CNN
F 1 "5" V 3250 4150 50  0000 C CNN
F 2 "Resistors_SMD:R_1210_HandSoldering" V 3180 4150 50  0001 C CNN
F 3 "" H 3250 4150 50  0000 C CNN
	1    3250 4150
	0    1    1    0   
$EndComp
$Comp
L R R?
U 1 1 5A6A139A
P 3250 4250
F 0 "R?" V 3200 4400 50  0000 C CNN
F 1 "10" V 3250 4250 50  0000 C CNN
F 2 "Resistors_SMD:R_1210_HandSoldering" V 3180 4250 50  0001 C CNN
F 3 "" H 3250 4250 50  0000 C CNN
	1    3250 4250
	0    1    1    0   
$EndComp
Wire Wire Line
	3400 4050 3500 4050
Wire Wire Line
	3500 4150 3400 4150
Wire Wire Line
	3400 4250 3500 4250
Wire Wire Line
	3050 4050 3100 4050
Wire Wire Line
	3050 4150 3100 4150
Wire Wire Line
	3050 4250 3100 4250
Wire Wire Line
	4000 3100 4000 4450
Connection ~ 4000 3100
$Comp
L R R?
U 1 1 5A6A13A9
P 3250 4350
F 0 "R?" V 3200 4500 50  0000 C CNN
F 1 "50" V 3250 4350 50  0000 C CNN
F 2 "Resistors_SMD:R_1210_HandSoldering" V 3180 4350 50  0001 C CNN
F 3 "" H 3250 4350 50  0000 C CNN
	1    3250 4350
	0    1    1    0   
$EndComp
$Comp
L R R?
U 1 1 5A6A13B0
P 3250 4450
F 0 "R?" V 3200 4600 50  0000 C CNN
F 1 "5" V 3250 4450 50  0000 C CNN
F 2 "Resistors_SMD:R_1210_HandSoldering" V 3180 4450 50  0001 C CNN
F 3 "" H 3250 4450 50  0000 C CNN
	1    3250 4450
	0    1    1    0   
$EndComp
$Comp
L R R?
U 1 1 5A6A13B7
P 3250 4550
F 0 "R?" V 3200 4700 50  0000 C CNN
F 1 "10" V 3250 4550 50  0000 C CNN
F 2 "Resistors_SMD:R_1210_HandSoldering" V 3180 4550 50  0001 C CNN
F 3 "" H 3250 4550 50  0000 C CNN
	1    3250 4550
	0    1    1    0   
$EndComp
Wire Wire Line
	3400 4350 3500 4350
Wire Wire Line
	3500 4450 3400 4450
Wire Wire Line
	3400 4550 3500 4550
Wire Wire Line
	3050 4350 3100 4350
Wire Wire Line
	3050 4450 3100 4450
Wire Wire Line
	3050 4550 3100 4550
Connection ~ 4000 4150
$Comp
L LED-RGB-CA KLED?
U 1 1 5A6A13C5
P 1250 4050
F 0 "KLED?" H 1250 4250 60  0000 C CNN
F 1 "LED-RGB-CA" H 1250 3850 60  0000 C CNN
F 2 "afshar-kicad-lib:LED_D3.0mm-4" H 1100 4150 60  0001 C CNN
F 3 "" H 1250 4250 60  0001 C CNN
	1    1250 4050
	-1   0    0    -1  
$EndComp
$Comp
L R R?
U 1 1 5A6A13CC
P 1750 3950
F 0 "R?" V 1700 4100 50  0000 C CNN
F 1 "50" V 1750 3950 50  0000 C CNN
F 2 "Resistors_SMD:R_1210_HandSoldering" V 1680 3950 50  0001 C CNN
F 3 "" H 1750 3950 50  0000 C CNN
	1    1750 3950
	0    -1   1    0   
$EndComp
$Comp
L R R?
U 1 1 5A6A13D3
P 1750 4050
F 0 "R?" V 1700 4200 50  0000 C CNN
F 1 "5" V 1750 4050 50  0000 C CNN
F 2 "Resistors_SMD:R_1210_HandSoldering" V 1680 4050 50  0001 C CNN
F 3 "" H 1750 4050 50  0000 C CNN
	1    1750 4050
	0    -1   1    0   
$EndComp
$Comp
L R R?
U 1 1 5A6A13DA
P 1750 4150
F 0 "R?" V 1700 4300 50  0000 C CNN
F 1 "10" V 1750 4150 50  0000 C CNN
F 2 "Resistors_SMD:R_1210_HandSoldering" V 1680 4150 50  0001 C CNN
F 3 "" H 1750 4150 50  0000 C CNN
	1    1750 4150
	0    -1   1    0   
$EndComp
Wire Wire Line
	1600 3950 1500 3950
Wire Wire Line
	1500 4050 1600 4050
Wire Wire Line
	1600 4150 1500 4150
Wire Wire Line
	1950 3950 1900 3950
Wire Wire Line
	1950 4050 1900 4050
Wire Wire Line
	1950 4150 1900 4150
$Comp
L R R?
U 1 1 5A6A13E7
P 1750 4250
F 0 "R?" V 1700 4400 50  0000 C CNN
F 1 "50" V 1750 4250 50  0000 C CNN
F 2 "Resistors_SMD:R_1210_HandSoldering" V 1680 4250 50  0001 C CNN
F 3 "" H 1750 4250 50  0000 C CNN
	1    1750 4250
	0    -1   1    0   
$EndComp
$Comp
L R R?
U 1 1 5A6A13EE
P 1750 4350
F 0 "R?" V 1700 4500 50  0000 C CNN
F 1 "5" V 1750 4350 50  0000 C CNN
F 2 "Resistors_SMD:R_1210_HandSoldering" V 1680 4350 50  0001 C CNN
F 3 "" H 1750 4350 50  0000 C CNN
	1    1750 4350
	0    -1   1    0   
$EndComp
$Comp
L R R?
U 1 1 5A6A13F5
P 1750 4450
F 0 "R?" V 1700 4600 50  0000 C CNN
F 1 "10" V 1750 4450 50  0000 C CNN
F 2 "Resistors_SMD:R_1210_HandSoldering" V 1680 4450 50  0001 C CNN
F 3 "" H 1750 4450 50  0000 C CNN
	1    1750 4450
	0    -1   1    0   
$EndComp
Wire Wire Line
	1600 4250 1500 4250
Wire Wire Line
	1500 4350 1600 4350
Wire Wire Line
	1600 4450 1500 4450
Wire Wire Line
	1950 4250 1900 4250
Wire Wire Line
	1950 4350 1900 4350
Wire Wire Line
	1950 4450 1900 4450
$Comp
L R R?
U 1 1 5A6A1402
P 1750 4550
F 0 "R?" V 1700 4700 50  0000 C CNN
F 1 "50" V 1750 4550 50  0000 C CNN
F 2 "Resistors_SMD:R_1210_HandSoldering" V 1680 4550 50  0001 C CNN
F 3 "" H 1750 4550 50  0000 C CNN
	1    1750 4550
	0    -1   1    0   
$EndComp
$Comp
L R R?
U 1 1 5A6A1409
P 1750 4650
F 0 "R?" V 1700 4800 50  0000 C CNN
F 1 "5" V 1750 4650 50  0000 C CNN
F 2 "Resistors_SMD:R_1210_HandSoldering" V 1680 4650 50  0001 C CNN
F 3 "" H 1750 4650 50  0000 C CNN
	1    1750 4650
	0    -1   1    0   
$EndComp
$Comp
L R R?
U 1 1 5A6A1410
P 1750 4750
F 0 "R?" V 1700 4900 50  0000 C CNN
F 1 "10" V 1750 4750 50  0000 C CNN
F 2 "Resistors_SMD:R_1210_HandSoldering" V 1680 4750 50  0001 C CNN
F 3 "" H 1750 4750 50  0000 C CNN
	1    1750 4750
	0    -1   1    0   
$EndComp
Wire Wire Line
	1600 4550 1500 4550
Wire Wire Line
	1500 4650 1600 4650
Wire Wire Line
	1600 4750 1500 4750
Wire Wire Line
	1950 4550 1900 4550
Wire Wire Line
	1950 4650 1900 4650
Wire Wire Line
	1950 4750 1900 4750
Wire Wire Line
	1000 3100 1000 4650
Connection ~ 1000 4350
Connection ~ 1000 4050
$Comp
L PCA9685_aa U?
U 1 1 5A6A1420
P 6750 4850
F 0 "U?" H 6750 6450 50  0000 L BNN
F 1 "PCA9685_aa" H 6750 6370 50  0000 L BNN
F 2 "Housings_SSOP:TSSOP-28_4.4x9.7mm_Pitch0.65mm" H 6780 5000 20  0001 C CNN
F 3 "" H 6750 4850 60  0001 C CNN
	1    6750 4850
	1    0    0    -1  
$EndComp
Text Label 7650 3650 0    60   ~ 0
SCL
Text Label 7650 3550 0    60   ~ 0
SDA
$Comp
L +3.3V #PWR?
U 1 1 5A6A1429
P 7100 3050
F 0 "#PWR?" H 7100 2900 50  0001 C CNN
F 1 "+3.3V" H 7100 3190 50  0000 C CNN
F 2 "" H 7100 3050 50  0001 C CNN
F 3 "" H 7100 3050 50  0001 C CNN
	1    7100 3050
	1    0    0    -1  
$EndComp
$Comp
L GND #PWR?
U 1 1 5A6A142F
P 7100 5150
F 0 "#PWR?" H 7100 4900 50  0001 C CNN
F 1 "GND" H 7100 5000 50  0000 C CNN
F 2 "" H 7100 5150 50  0000 C CNN
F 3 "" H 7100 5150 50  0000 C CNN
	1    7100 5150
	1    0    0    -1  
$EndComp
$Comp
L R R?
U 1 1 5A6A1435
P 7850 3950
F 0 "R?" V 7800 4100 50  0000 C CNN
F 1 "10K" V 7850 3950 50  0000 C CNN
F 2 "Resistors_SMD:R_1210_HandSoldering" V 7780 3950 50  0001 C CNN
F 3 "" H 7850 3950 50  0000 C CNN
	1    7850 3950
	0    1    1    0   
$EndComp
$Comp
L C C?
U 1 1 5A6A143C
P 9300 3600
F 0 "C?" H 9325 3700 50  0000 L CNN
F 1 "0.1uF" V 9400 3350 50  0000 L CNN
F 2 "Capacitors_THT:C_Disc_D4.3mm_W1.9mm_P5.00mm" H 9338 3450 50  0001 C CNN
F 3 "" H 9300 3600 50  0001 C CNN
	1    9300 3600
	-1   0    0    1   
$EndComp
Wire Wire Line
	7100 3050 7100 3150
Wire Wire Line
	7100 5050 7100 5150
Wire Wire Line
	9300 3750 9300 4050
Wire Wire Line
	7650 3750 9300 3750
Wire Wire Line
	7650 3950 7700 3950
Wire Wire Line
	8000 3950 9300 3950
Connection ~ 9300 3950
Wire Wire Line
	5600 3100 9300 3100
Wire Wire Line
	9300 3100 9300 3450
Connection ~ 7100 3100
Connection ~ 9300 3750
Wire Wire Line
	9050 3450 9050 3100
Connection ~ 9050 3100
Connection ~ 9050 3750
Wire Wire Line
	6550 3450 6350 3450
Wire Wire Line
	6550 3550 6350 3550
Wire Wire Line
	6350 3650 6550 3650
Wire Wire Line
	6350 3750 6550 3750
Connection ~ 6350 3650
Wire Wire Line
	6350 3850 6550 3850
Connection ~ 6350 3750
$Comp
L +3.3V #PWR?
U 1 1 5A6A1458
P 6350 3450
F 0 "#PWR?" H 6350 3300 50  0001 C CNN
F 1 "+3.3V" H 6350 3590 50  0000 C CNN
F 2 "" H 6350 3450 50  0001 C CNN
F 3 "" H 6350 3450 50  0001 C CNN
	1    6350 3450
	0    -1   -1   0   
$EndComp
$Comp
L GND #PWR?
U 1 1 5A6A145E
P 6350 3650
F 0 "#PWR?" H 6350 3400 50  0001 C CNN
F 1 "GND" H 6350 3500 50  0000 C CNN
F 2 "" H 6350 3650 50  0000 C CNN
F 3 "" H 6350 3650 50  0000 C CNN
	1    6350 3650
	0    1    1    0   
$EndComp
Wire Wire Line
	7650 3850 9300 3850
Connection ~ 9300 3850
$Comp
L GND #PWR?
U 1 1 5A6A1466
P 9300 4050
F 0 "#PWR?" H 9300 3800 50  0001 C CNN
F 1 "GND" H 9300 3900 50  0000 C CNN
F 2 "" H 9300 4050 50  0000 C CNN
F 3 "" H 9300 4050 50  0000 C CNN
	1    9300 4050
	1    0    0    -1  
$EndComp
$Comp
L R R?
U 1 1 5A6A146C
P 7850 4050
F 0 "R?" V 7800 4200 50  0000 C CNN
F 1 "50" V 7850 4050 50  0000 C CNN
F 2 "Resistors_SMD:R_1210_HandSoldering" V 7780 4050 50  0001 C CNN
F 3 "" H 7850 4050 50  0000 C CNN
	1    7850 4050
	0    1    1    0   
$EndComp
$Comp
L R R?
U 1 1 5A6A1473
P 7850 4150
F 0 "R?" V 7800 4300 50  0000 C CNN
F 1 "5" V 7850 4150 50  0000 C CNN
F 2 "Resistors_SMD:R_1210_HandSoldering" V 7780 4150 50  0001 C CNN
F 3 "" H 7850 4150 50  0000 C CNN
	1    7850 4150
	0    1    1    0   
$EndComp
$Comp
L R R?
U 1 1 5A6A147A
P 7850 4250
F 0 "R?" V 7800 4400 50  0000 C CNN
F 1 "10" V 7850 4250 50  0000 C CNN
F 2 "Resistors_SMD:R_1210_HandSoldering" V 7780 4250 50  0001 C CNN
F 3 "" H 7850 4250 50  0000 C CNN
	1    7850 4250
	0    1    1    0   
$EndComp
Wire Wire Line
	8000 4050 8100 4050
Wire Wire Line
	8100 4150 8000 4150
Wire Wire Line
	8000 4250 8100 4250
Wire Wire Line
	7650 4050 7700 4050
Wire Wire Line
	7650 4150 7700 4150
Wire Wire Line
	7650 4250 7700 4250
Wire Wire Line
	8600 3100 8600 4450
Connection ~ 8600 3100
$Comp
L R R?
U 1 1 5A6A1489
P 7850 4350
F 0 "R?" V 7800 4500 50  0000 C CNN
F 1 "50" V 7850 4350 50  0000 C CNN
F 2 "Resistors_SMD:R_1210_HandSoldering" V 7780 4350 50  0001 C CNN
F 3 "" H 7850 4350 50  0000 C CNN
	1    7850 4350
	0    1    1    0   
$EndComp
$Comp
L R R?
U 1 1 5A6A1490
P 7850 4450
F 0 "R?" V 7800 4600 50  0000 C CNN
F 1 "5" V 7850 4450 50  0000 C CNN
F 2 "Resistors_SMD:R_1210_HandSoldering" V 7780 4450 50  0001 C CNN
F 3 "" H 7850 4450 50  0000 C CNN
	1    7850 4450
	0    1    1    0   
$EndComp
$Comp
L R R?
U 1 1 5A6A1497
P 7850 4550
F 0 "R?" V 7800 4700 50  0000 C CNN
F 1 "10" V 7850 4550 50  0000 C CNN
F 2 "Resistors_SMD:R_1210_HandSoldering" V 7780 4550 50  0001 C CNN
F 3 "" H 7850 4550 50  0000 C CNN
	1    7850 4550
	0    1    1    0   
$EndComp
Wire Wire Line
	8000 4350 8100 4350
Wire Wire Line
	8100 4450 8000 4450
Wire Wire Line
	8000 4550 8100 4550
Wire Wire Line
	7650 4350 7700 4350
Wire Wire Line
	7650 4450 7700 4450
Wire Wire Line
	7650 4550 7700 4550
Connection ~ 8600 4150
$Comp
L R R?
U 1 1 5A6A14A5
P 6350 3950
F 0 "R?" V 6300 4100 50  0000 C CNN
F 1 "50" V 6350 3950 50  0000 C CNN
F 2 "Resistors_SMD:R_1210_HandSoldering" V 6280 3950 50  0001 C CNN
F 3 "" H 6350 3950 50  0000 C CNN
	1    6350 3950
	0    -1   1    0   
$EndComp
$Comp
L R R?
U 1 1 5A6A14AC
P 6350 4050
F 0 "R?" V 6300 4200 50  0000 C CNN
F 1 "5" V 6350 4050 50  0000 C CNN
F 2 "Resistors_SMD:R_1210_HandSoldering" V 6280 4050 50  0001 C CNN
F 3 "" H 6350 4050 50  0000 C CNN
	1    6350 4050
	0    -1   1    0   
$EndComp
$Comp
L R R?
U 1 1 5A6A14B3
P 6350 4150
F 0 "R?" V 6300 4300 50  0000 C CNN
F 1 "10" V 6350 4150 50  0000 C CNN
F 2 "Resistors_SMD:R_1210_HandSoldering" V 6280 4150 50  0001 C CNN
F 3 "" H 6350 4150 50  0000 C CNN
	1    6350 4150
	0    -1   1    0   
$EndComp
Wire Wire Line
	6200 3950 6100 3950
Wire Wire Line
	6100 4050 6200 4050
Wire Wire Line
	6200 4150 6100 4150
Wire Wire Line
	6550 3950 6500 3950
Wire Wire Line
	6550 4050 6500 4050
Wire Wire Line
	6550 4150 6500 4150
$Comp
L R R?
U 1 1 5A6A14C0
P 6350 4250
F 0 "R?" V 6300 4400 50  0000 C CNN
F 1 "50" V 6350 4250 50  0000 C CNN
F 2 "Resistors_SMD:R_1210_HandSoldering" V 6280 4250 50  0001 C CNN
F 3 "" H 6350 4250 50  0000 C CNN
	1    6350 4250
	0    -1   1    0   
$EndComp
$Comp
L R R?
U 1 1 5A6A14C7
P 6350 4350
F 0 "R?" V 6300 4500 50  0000 C CNN
F 1 "5" V 6350 4350 50  0000 C CNN
F 2 "Resistors_SMD:R_1210_HandSoldering" V 6280 4350 50  0001 C CNN
F 3 "" H 6350 4350 50  0000 C CNN
	1    6350 4350
	0    -1   1    0   
$EndComp
$Comp
L R R?
U 1 1 5A6A14CE
P 6350 4450
F 0 "R?" V 6300 4600 50  0000 C CNN
F 1 "10" V 6350 4450 50  0000 C CNN
F 2 "Resistors_SMD:R_1210_HandSoldering" V 6280 4450 50  0001 C CNN
F 3 "" H 6350 4450 50  0000 C CNN
	1    6350 4450
	0    -1   1    0   
$EndComp
Wire Wire Line
	6200 4250 6100 4250
Wire Wire Line
	6100 4350 6200 4350
Wire Wire Line
	6200 4450 6100 4450
Wire Wire Line
	6550 4250 6500 4250
Wire Wire Line
	6550 4350 6500 4350
Wire Wire Line
	6550 4450 6500 4450
$Comp
L R R?
U 1 1 5A6A14DB
P 6350 4550
F 0 "R?" V 6300 4700 50  0000 C CNN
F 1 "50" V 6350 4550 50  0000 C CNN
F 2 "Resistors_SMD:R_1210_HandSoldering" V 6280 4550 50  0001 C CNN
F 3 "" H 6350 4550 50  0000 C CNN
	1    6350 4550
	0    -1   1    0   
$EndComp
$Comp
L R R?
U 1 1 5A6A14E2
P 6350 4650
F 0 "R?" V 6300 4800 50  0000 C CNN
F 1 "5" V 6350 4650 50  0000 C CNN
F 2 "Resistors_SMD:R_1210_HandSoldering" V 6280 4650 50  0001 C CNN
F 3 "" H 6350 4650 50  0000 C CNN
	1    6350 4650
	0    -1   1    0   
$EndComp
$Comp
L R R?
U 1 1 5A6A14E9
P 6350 4750
F 0 "R?" V 6300 4900 50  0000 C CNN
F 1 "10" V 6350 4750 50  0000 C CNN
F 2 "Resistors_SMD:R_1210_HandSoldering" V 6280 4750 50  0001 C CNN
F 3 "" H 6350 4750 50  0000 C CNN
	1    6350 4750
	0    -1   1    0   
$EndComp
Wire Wire Line
	6200 4550 6100 4550
Wire Wire Line
	6100 4650 6200 4650
Wire Wire Line
	6200 4750 6100 4750
Wire Wire Line
	6550 4550 6500 4550
Wire Wire Line
	6550 4650 6500 4650
Wire Wire Line
	6550 4750 6500 4750
Wire Wire Line
	5600 3100 5600 4650
Connection ~ 5600 4350
Connection ~ 5600 4050
$Comp
L PCA9685_aa U?
U 1 1 5A6A14F9
P 11500 4850
F 0 "U?" H 11500 6450 50  0000 L BNN
F 1 "PCA9685_aa" H 11500 6370 50  0000 L BNN
F 2 "Housings_SSOP:TSSOP-28_4.4x9.7mm_Pitch0.65mm" H 11530 5000 20  0001 C CNN
F 3 "" H 11500 4850 60  0001 C CNN
	1    11500 4850
	1    0    0    -1  
$EndComp
Text Label 12400 3650 0    60   ~ 0
SCL
Text Label 12400 3550 0    60   ~ 0
SDA
$Comp
L +3.3V #PWR?
U 1 1 5A6A1502
P 11850 3050
F 0 "#PWR?" H 11850 2900 50  0001 C CNN
F 1 "+3.3V" H 11850 3190 50  0000 C CNN
F 2 "" H 11850 3050 50  0001 C CNN
F 3 "" H 11850 3050 50  0001 C CNN
	1    11850 3050
	1    0    0    -1  
$EndComp
$Comp
L GND #PWR?
U 1 1 5A6A1508
P 11850 5150
F 0 "#PWR?" H 11850 4900 50  0001 C CNN
F 1 "GND" H 11850 5000 50  0000 C CNN
F 2 "" H 11850 5150 50  0000 C CNN
F 3 "" H 11850 5150 50  0000 C CNN
	1    11850 5150
	1    0    0    -1  
$EndComp
$Comp
L R R?
U 1 1 5A6A150E
P 12600 3950
F 0 "R?" V 12550 4100 50  0000 C CNN
F 1 "10K" V 12600 3950 50  0000 C CNN
F 2 "Resistors_SMD:R_1210_HandSoldering" V 12530 3950 50  0001 C CNN
F 3 "" H 12600 3950 50  0000 C CNN
	1    12600 3950
	0    1    1    0   
$EndComp
$Comp
L C C?
U 1 1 5A6A1515
P 14050 3600
F 0 "C?" H 14075 3700 50  0000 L CNN
F 1 "0.1uF" V 14150 3350 50  0000 L CNN
F 2 "Capacitors_THT:C_Disc_D4.3mm_W1.9mm_P5.00mm" H 14088 3450 50  0001 C CNN
F 3 "" H 14050 3600 50  0001 C CNN
	1    14050 3600
	-1   0    0    1   
$EndComp
Wire Wire Line
	11850 3050 11850 3150
Wire Wire Line
	11850 5050 11850 5150
Wire Wire Line
	14050 3750 14050 4050
Wire Wire Line
	12400 3750 14050 3750
Wire Wire Line
	12400 3950 12450 3950
Wire Wire Line
	12750 3950 14050 3950
Connection ~ 14050 3950
Wire Wire Line
	10350 3100 14050 3100
Wire Wire Line
	14050 3100 14050 3450
Connection ~ 11850 3100
Connection ~ 14050 3750
Wire Wire Line
	13800 3450 13800 3100
Connection ~ 13800 3100
Connection ~ 13800 3750
Wire Wire Line
	11300 3450 11100 3450
Wire Wire Line
	11300 3550 11100 3550
Wire Wire Line
	11100 3650 11300 3650
Wire Wire Line
	11100 3750 11300 3750
Wire Wire Line
	11100 3850 11300 3850
$Comp
L +3.3V #PWR?
U 1 1 5A6A152F
P 11100 3450
F 0 "#PWR?" H 11100 3300 50  0001 C CNN
F 1 "+3.3V" H 11100 3590 50  0000 C CNN
F 2 "" H 11100 3450 50  0001 C CNN
F 3 "" H 11100 3450 50  0001 C CNN
	1    11100 3450
	0    -1   -1   0   
$EndComp
$Comp
L GND #PWR?
U 1 1 5A6A1535
P 11100 3750
F 0 "#PWR?" H 11100 3500 50  0001 C CNN
F 1 "GND" H 11100 3600 50  0000 C CNN
F 2 "" H 11100 3750 50  0000 C CNN
F 3 "" H 11100 3750 50  0000 C CNN
	1    11100 3750
	0    1    1    0   
$EndComp
Wire Wire Line
	12400 3850 14050 3850
Connection ~ 14050 3850
$Comp
L GND #PWR?
U 1 1 5A6A153D
P 14050 4050
F 0 "#PWR?" H 14050 3800 50  0001 C CNN
F 1 "GND" H 14050 3900 50  0000 C CNN
F 2 "" H 14050 4050 50  0000 C CNN
F 3 "" H 14050 4050 50  0000 C CNN
	1    14050 4050
	1    0    0    -1  
$EndComp
$Comp
L R R?
U 1 1 5A6A1543
P 12600 4050
F 0 "R?" V 12550 4200 50  0000 C CNN
F 1 "50" V 12600 4050 50  0000 C CNN
F 2 "Resistors_SMD:R_1210_HandSoldering" V 12530 4050 50  0001 C CNN
F 3 "" H 12600 4050 50  0000 C CNN
	1    12600 4050
	0    1    1    0   
$EndComp
$Comp
L R R?
U 1 1 5A6A154A
P 12600 4150
F 0 "R?" V 12550 4300 50  0000 C CNN
F 1 "5" V 12600 4150 50  0000 C CNN
F 2 "Resistors_SMD:R_1210_HandSoldering" V 12530 4150 50  0001 C CNN
F 3 "" H 12600 4150 50  0000 C CNN
	1    12600 4150
	0    1    1    0   
$EndComp
$Comp
L R R?
U 1 1 5A6A1551
P 12600 4250
F 0 "R?" V 12550 4400 50  0000 C CNN
F 1 "10" V 12600 4250 50  0000 C CNN
F 2 "Resistors_SMD:R_1210_HandSoldering" V 12530 4250 50  0001 C CNN
F 3 "" H 12600 4250 50  0000 C CNN
	1    12600 4250
	0    1    1    0   
$EndComp
Wire Wire Line
	12750 4050 12850 4050
Wire Wire Line
	12850 4150 12750 4150
Wire Wire Line
	12750 4250 12850 4250
Wire Wire Line
	12400 4050 12450 4050
Wire Wire Line
	12400 4150 12450 4150
Wire Wire Line
	12400 4250 12450 4250
Wire Wire Line
	13350 3100 13350 4450
Connection ~ 13350 3100
$Comp
L R R?
U 1 1 5A6A1560
P 12600 4350
F 0 "R?" V 12550 4500 50  0000 C CNN
F 1 "50" V 12600 4350 50  0000 C CNN
F 2 "Resistors_SMD:R_1210_HandSoldering" V 12530 4350 50  0001 C CNN
F 3 "" H 12600 4350 50  0000 C CNN
	1    12600 4350
	0    1    1    0   
$EndComp
$Comp
L R R?
U 1 1 5A6A1567
P 12600 4450
F 0 "R?" V 12550 4600 50  0000 C CNN
F 1 "5" V 12600 4450 50  0000 C CNN
F 2 "Resistors_SMD:R_1210_HandSoldering" V 12530 4450 50  0001 C CNN
F 3 "" H 12600 4450 50  0000 C CNN
	1    12600 4450
	0    1    1    0   
$EndComp
$Comp
L R R?
U 1 1 5A6A156E
P 12600 4550
F 0 "R?" V 12550 4700 50  0000 C CNN
F 1 "10" V 12600 4550 50  0000 C CNN
F 2 "Resistors_SMD:R_1210_HandSoldering" V 12530 4550 50  0001 C CNN
F 3 "" H 12600 4550 50  0000 C CNN
	1    12600 4550
	0    1    1    0   
$EndComp
Wire Wire Line
	12750 4350 12850 4350
Wire Wire Line
	12850 4450 12750 4450
Wire Wire Line
	12750 4550 12850 4550
Wire Wire Line
	12400 4350 12450 4350
Wire Wire Line
	12400 4450 12450 4450
Wire Wire Line
	12400 4550 12450 4550
Connection ~ 13350 4150
$Comp
L R R?
U 1 1 5A6A157C
P 11100 3950
F 0 "R?" V 11050 4100 50  0000 C CNN
F 1 "50" V 11100 3950 50  0000 C CNN
F 2 "Resistors_SMD:R_1210_HandSoldering" V 11030 3950 50  0001 C CNN
F 3 "" H 11100 3950 50  0000 C CNN
	1    11100 3950
	0    -1   1    0   
$EndComp
$Comp
L R R?
U 1 1 5A6A1583
P 11100 4050
F 0 "R?" V 11050 4200 50  0000 C CNN
F 1 "5" V 11100 4050 50  0000 C CNN
F 2 "Resistors_SMD:R_1210_HandSoldering" V 11030 4050 50  0001 C CNN
F 3 "" H 11100 4050 50  0000 C CNN
	1    11100 4050
	0    -1   1    0   
$EndComp
$Comp
L R R?
U 1 1 5A6A158A
P 11100 4150
F 0 "R?" V 11050 4300 50  0000 C CNN
F 1 "10" V 11100 4150 50  0000 C CNN
F 2 "Resistors_SMD:R_1210_HandSoldering" V 11030 4150 50  0001 C CNN
F 3 "" H 11100 4150 50  0000 C CNN
	1    11100 4150
	0    -1   1    0   
$EndComp
Wire Wire Line
	10950 3950 10850 3950
Wire Wire Line
	10850 4050 10950 4050
Wire Wire Line
	10950 4150 10850 4150
Wire Wire Line
	11300 3950 11250 3950
Wire Wire Line
	11300 4050 11250 4050
Wire Wire Line
	11300 4150 11250 4150
$Comp
L R R?
U 1 1 5A6A1597
P 11100 4250
F 0 "R?" V 11050 4400 50  0000 C CNN
F 1 "50" V 11100 4250 50  0000 C CNN
F 2 "Resistors_SMD:R_1210_HandSoldering" V 11030 4250 50  0001 C CNN
F 3 "" H 11100 4250 50  0000 C CNN
	1    11100 4250
	0    -1   1    0   
$EndComp
$Comp
L R R?
U 1 1 5A6A159E
P 11100 4350
F 0 "R?" V 11050 4500 50  0000 C CNN
F 1 "5" V 11100 4350 50  0000 C CNN
F 2 "Resistors_SMD:R_1210_HandSoldering" V 11030 4350 50  0001 C CNN
F 3 "" H 11100 4350 50  0000 C CNN
	1    11100 4350
	0    -1   1    0   
$EndComp
$Comp
L R R?
U 1 1 5A6A15A5
P 11100 4450
F 0 "R?" V 11050 4600 50  0000 C CNN
F 1 "10" V 11100 4450 50  0000 C CNN
F 2 "Resistors_SMD:R_1210_HandSoldering" V 11030 4450 50  0001 C CNN
F 3 "" H 11100 4450 50  0000 C CNN
	1    11100 4450
	0    -1   1    0   
$EndComp
Wire Wire Line
	10950 4250 10850 4250
Wire Wire Line
	10850 4350 10950 4350
Wire Wire Line
	10950 4450 10850 4450
Wire Wire Line
	11300 4250 11250 4250
Wire Wire Line
	11300 4350 11250 4350
Wire Wire Line
	11300 4450 11250 4450
$Comp
L R R?
U 1 1 5A6A15B2
P 11100 4550
F 0 "R?" V 11050 4700 50  0000 C CNN
F 1 "50" V 11100 4550 50  0000 C CNN
F 2 "Resistors_SMD:R_1210_HandSoldering" V 11030 4550 50  0001 C CNN
F 3 "" H 11100 4550 50  0000 C CNN
	1    11100 4550
	0    -1   1    0   
$EndComp
$Comp
L R R?
U 1 1 5A6A15B9
P 11100 4650
F 0 "R?" V 11050 4800 50  0000 C CNN
F 1 "5" V 11100 4650 50  0000 C CNN
F 2 "Resistors_SMD:R_1210_HandSoldering" V 11030 4650 50  0001 C CNN
F 3 "" H 11100 4650 50  0000 C CNN
	1    11100 4650
	0    -1   1    0   
$EndComp
$Comp
L R R?
U 1 1 5A6A15C0
P 11100 4750
F 0 "R?" V 11050 4900 50  0000 C CNN
F 1 "10" V 11100 4750 50  0000 C CNN
F 2 "Resistors_SMD:R_1210_HandSoldering" V 11030 4750 50  0001 C CNN
F 3 "" H 11100 4750 50  0000 C CNN
	1    11100 4750
	0    -1   1    0   
$EndComp
Wire Wire Line
	10950 4550 10850 4550
Wire Wire Line
	10850 4650 10950 4650
Wire Wire Line
	10950 4750 10850 4750
Wire Wire Line
	11300 4550 11250 4550
Wire Wire Line
	11300 4650 11250 4650
Wire Wire Line
	11300 4750 11250 4750
Wire Wire Line
	10350 3100 10350 4650
Connection ~ 10350 4350
Connection ~ 10350 4050
$Comp
L PCA9685_aa U?
U 1 1 5A6A15D0
P 16100 4850
F 0 "U?" H 16100 6450 50  0000 L BNN
F 1 "PCA9685_aa" H 16100 6370 50  0000 L BNN
F 2 "Housings_SSOP:TSSOP-28_4.4x9.7mm_Pitch0.65mm" H 16130 5000 20  0001 C CNN
F 3 "" H 16100 4850 60  0001 C CNN
	1    16100 4850
	1    0    0    -1  
$EndComp
Text Label 17000 3650 0    60   ~ 0
SCL
Text Label 17000 3550 0    60   ~ 0
SDA
$Comp
L +3.3V #PWR?
U 1 1 5A6A15D9
P 16450 3050
F 0 "#PWR?" H 16450 2900 50  0001 C CNN
F 1 "+3.3V" H 16450 3190 50  0000 C CNN
F 2 "" H 16450 3050 50  0001 C CNN
F 3 "" H 16450 3050 50  0001 C CNN
	1    16450 3050
	1    0    0    -1  
$EndComp
$Comp
L GND #PWR?
U 1 1 5A6A15DF
P 16450 5150
F 0 "#PWR?" H 16450 4900 50  0001 C CNN
F 1 "GND" H 16450 5000 50  0000 C CNN
F 2 "" H 16450 5150 50  0000 C CNN
F 3 "" H 16450 5150 50  0000 C CNN
	1    16450 5150
	1    0    0    -1  
$EndComp
$Comp
L R R?
U 1 1 5A6A15E5
P 17200 3950
F 0 "R?" V 17150 4100 50  0000 C CNN
F 1 "10K" V 17200 3950 50  0000 C CNN
F 2 "Resistors_SMD:R_1210_HandSoldering" V 17130 3950 50  0001 C CNN
F 3 "" H 17200 3950 50  0000 C CNN
	1    17200 3950
	0    1    1    0   
$EndComp
$Comp
L C C?
U 1 1 5A6A15EC
P 18650 3600
F 0 "C?" H 18675 3700 50  0000 L CNN
F 1 "0.1uF" V 18750 3350 50  0000 L CNN
F 2 "Capacitors_THT:C_Disc_D4.3mm_W1.9mm_P5.00mm" H 18688 3450 50  0001 C CNN
F 3 "" H 18650 3600 50  0001 C CNN
	1    18650 3600
	-1   0    0    1   
$EndComp
Wire Wire Line
	16450 3050 16450 3150
Wire Wire Line
	16450 5050 16450 5150
Wire Wire Line
	18650 3750 18650 4050
Wire Wire Line
	17000 3750 18650 3750
Wire Wire Line
	17000 3950 17050 3950
Wire Wire Line
	17350 3950 18650 3950
Connection ~ 18650 3950
Wire Wire Line
	14950 3100 18650 3100
Wire Wire Line
	18650 3100 18650 3450
Connection ~ 16450 3100
Connection ~ 18650 3750
Wire Wire Line
	18400 3450 18400 3100
Connection ~ 18400 3100
Connection ~ 18400 3750
Wire Wire Line
	15900 3450 15700 3450
Wire Wire Line
	15900 3550 15700 3550
Wire Wire Line
	15700 3650 15900 3650
Wire Wire Line
	15700 3750 15900 3750
Connection ~ 15700 3650
Wire Wire Line
	15700 3850 15900 3850
$Comp
L +3.3V #PWR?
U 1 1 5A6A1607
P 15700 3450
F 0 "#PWR?" H 15700 3300 50  0001 C CNN
F 1 "+3.3V" H 15700 3590 50  0000 C CNN
F 2 "" H 15700 3450 50  0001 C CNN
F 3 "" H 15700 3450 50  0001 C CNN
	1    15700 3450
	0    -1   -1   0   
$EndComp
$Comp
L GND #PWR?
U 1 1 5A6A160D
P 15700 3850
F 0 "#PWR?" H 15700 3600 50  0001 C CNN
F 1 "GND" H 15700 3700 50  0000 C CNN
F 2 "" H 15700 3850 50  0000 C CNN
F 3 "" H 15700 3850 50  0000 C CNN
	1    15700 3850
	0    1    1    0   
$EndComp
Wire Wire Line
	17000 3850 18650 3850
Connection ~ 18650 3850
$Comp
L GND #PWR?
U 1 1 5A6A1615
P 18650 4050
F 0 "#PWR?" H 18650 3800 50  0001 C CNN
F 1 "GND" H 18650 3900 50  0000 C CNN
F 2 "" H 18650 4050 50  0000 C CNN
F 3 "" H 18650 4050 50  0000 C CNN
	1    18650 4050
	1    0    0    -1  
$EndComp
$Comp
L R R?
U 1 1 5A6A161B
P 17200 4050
F 0 "R?" V 17150 4200 50  0000 C CNN
F 1 "50" V 17200 4050 50  0000 C CNN
F 2 "Resistors_SMD:R_1210_HandSoldering" V 17130 4050 50  0001 C CNN
F 3 "" H 17200 4050 50  0000 C CNN
	1    17200 4050
	0    1    1    0   
$EndComp
$Comp
L R R?
U 1 1 5A6A1622
P 17200 4150
F 0 "R?" V 17150 4300 50  0000 C CNN
F 1 "5" V 17200 4150 50  0000 C CNN
F 2 "Resistors_SMD:R_1210_HandSoldering" V 17130 4150 50  0001 C CNN
F 3 "" H 17200 4150 50  0000 C CNN
	1    17200 4150
	0    1    1    0   
$EndComp
$Comp
L R R?
U 1 1 5A6A1629
P 17200 4250
F 0 "R?" V 17150 4400 50  0000 C CNN
F 1 "10" V 17200 4250 50  0000 C CNN
F 2 "Resistors_SMD:R_1210_HandSoldering" V 17130 4250 50  0001 C CNN
F 3 "" H 17200 4250 50  0000 C CNN
	1    17200 4250
	0    1    1    0   
$EndComp
Wire Wire Line
	17350 4050 17450 4050
Wire Wire Line
	17450 4150 17350 4150
Wire Wire Line
	17350 4250 17450 4250
Wire Wire Line
	17000 4050 17050 4050
Wire Wire Line
	17000 4150 17050 4150
Wire Wire Line
	17000 4250 17050 4250
Wire Wire Line
	17950 3100 17950 4450
Connection ~ 17950 3100
$Comp
L R R?
U 1 1 5A6A1638
P 17200 4350
F 0 "R?" V 17150 4500 50  0000 C CNN
F 1 "50" V 17200 4350 50  0000 C CNN
F 2 "Resistors_SMD:R_1210_HandSoldering" V 17130 4350 50  0001 C CNN
F 3 "" H 17200 4350 50  0000 C CNN
	1    17200 4350
	0    1    1    0   
$EndComp
$Comp
L R R?
U 1 1 5A6A163F
P 17200 4450
F 0 "R?" V 17150 4600 50  0000 C CNN
F 1 "5" V 17200 4450 50  0000 C CNN
F 2 "Resistors_SMD:R_1210_HandSoldering" V 17130 4450 50  0001 C CNN
F 3 "" H 17200 4450 50  0000 C CNN
	1    17200 4450
	0    1    1    0   
$EndComp
$Comp
L R R?
U 1 1 5A6A1646
P 17200 4550
F 0 "R?" V 17150 4700 50  0000 C CNN
F 1 "10" V 17200 4550 50  0000 C CNN
F 2 "Resistors_SMD:R_1210_HandSoldering" V 17130 4550 50  0001 C CNN
F 3 "" H 17200 4550 50  0000 C CNN
	1    17200 4550
	0    1    1    0   
$EndComp
Wire Wire Line
	17350 4350 17450 4350
Wire Wire Line
	17450 4450 17350 4450
Wire Wire Line
	17350 4550 17450 4550
Wire Wire Line
	17000 4350 17050 4350
Wire Wire Line
	17000 4450 17050 4450
Wire Wire Line
	17000 4550 17050 4550
Connection ~ 17950 4150
$Comp
L R R?
U 1 1 5A6A1654
P 15700 3950
F 0 "R?" V 15650 4100 50  0000 C CNN
F 1 "50" V 15700 3950 50  0000 C CNN
F 2 "Resistors_SMD:R_1210_HandSoldering" V 15630 3950 50  0001 C CNN
F 3 "" H 15700 3950 50  0000 C CNN
	1    15700 3950
	0    -1   1    0   
$EndComp
$Comp
L R R?
U 1 1 5A6A165B
P 15700 4050
F 0 "R?" V 15650 4200 50  0000 C CNN
F 1 "5" V 15700 4050 50  0000 C CNN
F 2 "Resistors_SMD:R_1210_HandSoldering" V 15630 4050 50  0001 C CNN
F 3 "" H 15700 4050 50  0000 C CNN
	1    15700 4050
	0    -1   1    0   
$EndComp
$Comp
L R R?
U 1 1 5A6A1662
P 15700 4150
F 0 "R?" V 15650 4300 50  0000 C CNN
F 1 "10" V 15700 4150 50  0000 C CNN
F 2 "Resistors_SMD:R_1210_HandSoldering" V 15630 4150 50  0001 C CNN
F 3 "" H 15700 4150 50  0000 C CNN
	1    15700 4150
	0    -1   1    0   
$EndComp
Wire Wire Line
	15550 3950 15450 3950
Wire Wire Line
	15450 4050 15550 4050
Wire Wire Line
	15550 4150 15450 4150
Wire Wire Line
	15900 3950 15850 3950
Wire Wire Line
	15900 4050 15850 4050
Wire Wire Line
	15900 4150 15850 4150
$Comp
L R R?
U 1 1 5A6A166F
P 15700 4250
F 0 "R?" V 15650 4400 50  0000 C CNN
F 1 "50" V 15700 4250 50  0000 C CNN
F 2 "Resistors_SMD:R_1210_HandSoldering" V 15630 4250 50  0001 C CNN
F 3 "" H 15700 4250 50  0000 C CNN
	1    15700 4250
	0    -1   1    0   
$EndComp
$Comp
L R R?
U 1 1 5A6A1676
P 15700 4350
F 0 "R?" V 15650 4500 50  0000 C CNN
F 1 "5" V 15700 4350 50  0000 C CNN
F 2 "Resistors_SMD:R_1210_HandSoldering" V 15630 4350 50  0001 C CNN
F 3 "" H 15700 4350 50  0000 C CNN
	1    15700 4350
	0    -1   1    0   
$EndComp
$Comp
L R R?
U 1 1 5A6A167D
P 15700 4450
F 0 "R?" V 15650 4600 50  0000 C CNN
F 1 "10" V 15700 4450 50  0000 C CNN
F 2 "Resistors_SMD:R_1210_HandSoldering" V 15630 4450 50  0001 C CNN
F 3 "" H 15700 4450 50  0000 C CNN
	1    15700 4450
	0    -1   1    0   
$EndComp
Wire Wire Line
	15550 4250 15450 4250
Wire Wire Line
	15450 4350 15550 4350
Wire Wire Line
	15550 4450 15450 4450
Wire Wire Line
	15900 4250 15850 4250
Wire Wire Line
	15900 4350 15850 4350
Wire Wire Line
	15900 4450 15850 4450
$Comp
L R R?
U 1 1 5A6A168A
P 15700 4550
F 0 "R?" V 15650 4700 50  0000 C CNN
F 1 "50" V 15700 4550 50  0000 C CNN
F 2 "Resistors_SMD:R_1210_HandSoldering" V 15630 4550 50  0001 C CNN
F 3 "" H 15700 4550 50  0000 C CNN
	1    15700 4550
	0    -1   1    0   
$EndComp
$Comp
L R R?
U 1 1 5A6A1691
P 15700 4650
F 0 "R?" V 15650 4800 50  0000 C CNN
F 1 "5" V 15700 4650 50  0000 C CNN
F 2 "Resistors_SMD:R_1210_HandSoldering" V 15630 4650 50  0001 C CNN
F 3 "" H 15700 4650 50  0000 C CNN
	1    15700 4650
	0    -1   1    0   
$EndComp
$Comp
L R R?
U 1 1 5A6A1698
P 15700 4750
F 0 "R?" V 15650 4900 50  0000 C CNN
F 1 "10" V 15700 4750 50  0000 C CNN
F 2 "Resistors_SMD:R_1210_HandSoldering" V 15630 4750 50  0001 C CNN
F 3 "" H 15700 4750 50  0000 C CNN
	1    15700 4750
	0    -1   1    0   
$EndComp
Wire Wire Line
	15550 4550 15450 4550
Wire Wire Line
	15450 4650 15550 4650
Wire Wire Line
	15550 4750 15450 4750
Wire Wire Line
	15900 4550 15850 4550
Wire Wire Line
	15900 4650 15850 4650
Wire Wire Line
	15900 4750 15850 4750
Wire Wire Line
	14950 3100 14950 4650
Connection ~ 14950 4350
Connection ~ 14950 4050
$Comp
L PCA9685_aa U?
U 1 1 5A6A16A8
P 20650 4850
F 0 "U?" H 20650 6450 50  0000 L BNN
F 1 "PCA9685_aa" H 20650 6370 50  0000 L BNN
F 2 "Housings_SSOP:TSSOP-28_4.4x9.7mm_Pitch0.65mm" H 20680 5000 20  0001 C CNN
F 3 "" H 20650 4850 60  0001 C CNN
	1    20650 4850
	1    0    0    -1  
$EndComp
Text Label 21550 3650 0    60   ~ 0
SCL
Text Label 21550 3550 0    60   ~ 0
SDA
$Comp
L +3.3V #PWR?
U 1 1 5A6A16B1
P 21000 3050
F 0 "#PWR?" H 21000 2900 50  0001 C CNN
F 1 "+3.3V" H 21000 3190 50  0000 C CNN
F 2 "" H 21000 3050 50  0001 C CNN
F 3 "" H 21000 3050 50  0001 C CNN
	1    21000 3050
	1    0    0    -1  
$EndComp
$Comp
L GND #PWR?
U 1 1 5A6A16B7
P 21000 5150
F 0 "#PWR?" H 21000 4900 50  0001 C CNN
F 1 "GND" H 21000 5000 50  0000 C CNN
F 2 "" H 21000 5150 50  0000 C CNN
F 3 "" H 21000 5150 50  0000 C CNN
	1    21000 5150
	1    0    0    -1  
$EndComp
$Comp
L R R?
U 1 1 5A6A16BD
P 21750 3950
F 0 "R?" V 21700 4100 50  0000 C CNN
F 1 "10K" V 21750 3950 50  0000 C CNN
F 2 "Resistors_SMD:R_1210_HandSoldering" V 21680 3950 50  0001 C CNN
F 3 "" H 21750 3950 50  0000 C CNN
	1    21750 3950
	0    1    1    0   
$EndComp
$Comp
L C C?
U 1 1 5A6A16C4
P 23200 3600
F 0 "C?" H 23225 3700 50  0000 L CNN
F 1 "0.1uF" V 23300 3350 50  0000 L CNN
F 2 "Capacitors_THT:C_Disc_D4.3mm_W1.9mm_P5.00mm" H 23238 3450 50  0001 C CNN
F 3 "" H 23200 3600 50  0001 C CNN
	1    23200 3600
	-1   0    0    1   
$EndComp
Wire Wire Line
	21000 3050 21000 3150
Wire Wire Line
	21000 5050 21000 5150
Wire Wire Line
	23200 3750 23200 4050
Wire Wire Line
	21550 3750 23200 3750
Wire Wire Line
	21550 3950 21600 3950
Wire Wire Line
	21900 3950 23200 3950
Connection ~ 23200 3950
Wire Wire Line
	19500 3100 23200 3100
Wire Wire Line
	23200 3100 23200 3450
Connection ~ 21000 3100
Connection ~ 23200 3750
Wire Wire Line
	22950 3450 22950 3100
Connection ~ 22950 3100
Connection ~ 22950 3750
Wire Wire Line
	20450 3450 20250 3450
Wire Wire Line
	20450 3550 20250 3550
Wire Wire Line
	20250 3450 20250 3850
Wire Wire Line
	20250 3650 20450 3650
Wire Wire Line
	20250 3750 20450 3750
Connection ~ 20250 3650
Wire Wire Line
	20250 3850 20450 3850
Connection ~ 20250 3750
$Comp
L +3.3V #PWR?
U 1 1 5A6A16E1
P 20250 3450
F 0 "#PWR?" H 20250 3300 50  0001 C CNN
F 1 "+3.3V" H 20250 3590 50  0000 C CNN
F 2 "" H 20250 3450 50  0001 C CNN
F 3 "" H 20250 3450 50  0001 C CNN
	1    20250 3450
	0    -1   -1   0   
$EndComp
Wire Wire Line
	21550 3850 23200 3850
Connection ~ 23200 3850
$Comp
L GND #PWR?
U 1 1 5A6A16E9
P 23200 4050
F 0 "#PWR?" H 23200 3800 50  0001 C CNN
F 1 "GND" H 23200 3900 50  0000 C CNN
F 2 "" H 23200 4050 50  0000 C CNN
F 3 "" H 23200 4050 50  0000 C CNN
	1    23200 4050
	1    0    0    -1  
$EndComp
$Comp
L R R?
U 1 1 5A6A16EF
P 21750 4050
F 0 "R?" V 21700 4200 50  0000 C CNN
F 1 "50" V 21750 4050 50  0000 C CNN
F 2 "Resistors_SMD:R_1210_HandSoldering" V 21680 4050 50  0001 C CNN
F 3 "" H 21750 4050 50  0000 C CNN
	1    21750 4050
	0    1    1    0   
$EndComp
$Comp
L R R?
U 1 1 5A6A16F6
P 21750 4150
F 0 "R?" V 21700 4300 50  0000 C CNN
F 1 "5" V 21750 4150 50  0000 C CNN
F 2 "Resistors_SMD:R_1210_HandSoldering" V 21680 4150 50  0001 C CNN
F 3 "" H 21750 4150 50  0000 C CNN
	1    21750 4150
	0    1    1    0   
$EndComp
$Comp
L R R?
U 1 1 5A6A16FD
P 21750 4250
F 0 "R?" V 21700 4400 50  0000 C CNN
F 1 "10" V 21750 4250 50  0000 C CNN
F 2 "Resistors_SMD:R_1210_HandSoldering" V 21680 4250 50  0001 C CNN
F 3 "" H 21750 4250 50  0000 C CNN
	1    21750 4250
	0    1    1    0   
$EndComp
Wire Wire Line
	21900 4050 22000 4050
Wire Wire Line
	22000 4150 21900 4150
Wire Wire Line
	21900 4250 22000 4250
Wire Wire Line
	21550 4050 21600 4050
Wire Wire Line
	21550 4150 21600 4150
Wire Wire Line
	21550 4250 21600 4250
Wire Wire Line
	22500 3100 22500 4450
Connection ~ 22500 3100
$Comp
L R R?
U 1 1 5A6A170C
P 21750 4350
F 0 "R?" V 21700 4500 50  0000 C CNN
F 1 "50" V 21750 4350 50  0000 C CNN
F 2 "Resistors_SMD:R_1210_HandSoldering" V 21680 4350 50  0001 C CNN
F 3 "" H 21750 4350 50  0000 C CNN
	1    21750 4350
	0    1    1    0   
$EndComp
$Comp
L R R?
U 1 1 5A6A1713
P 21750 4450
F 0 "R?" V 21700 4600 50  0000 C CNN
F 1 "5" V 21750 4450 50  0000 C CNN
F 2 "Resistors_SMD:R_1210_HandSoldering" V 21680 4450 50  0001 C CNN
F 3 "" H 21750 4450 50  0000 C CNN
	1    21750 4450
	0    1    1    0   
$EndComp
$Comp
L R R?
U 1 1 5A6A171A
P 21750 4550
F 0 "R?" V 21700 4700 50  0000 C CNN
F 1 "10" V 21750 4550 50  0000 C CNN
F 2 "Resistors_SMD:R_1210_HandSoldering" V 21680 4550 50  0001 C CNN
F 3 "" H 21750 4550 50  0000 C CNN
	1    21750 4550
	0    1    1    0   
$EndComp
Wire Wire Line
	21900 4350 22000 4350
Wire Wire Line
	22000 4450 21900 4450
Wire Wire Line
	21900 4550 22000 4550
Wire Wire Line
	21550 4350 21600 4350
Wire Wire Line
	21550 4450 21600 4450
Wire Wire Line
	21550 4550 21600 4550
Connection ~ 22500 4150
$Comp
L R R?
U 1 1 5A6A1728
P 20250 3950
F 0 "R?" V 20200 4100 50  0000 C CNN
F 1 "50" V 20250 3950 50  0000 C CNN
F 2 "Resistors_SMD:R_1210_HandSoldering" V 20180 3950 50  0001 C CNN
F 3 "" H 20250 3950 50  0000 C CNN
	1    20250 3950
	0    -1   1    0   
$EndComp
$Comp
L R R?
U 1 1 5A6A172F
P 20250 4050
F 0 "R?" V 20200 4200 50  0000 C CNN
F 1 "5" V 20250 4050 50  0000 C CNN
F 2 "Resistors_SMD:R_1210_HandSoldering" V 20180 4050 50  0001 C CNN
F 3 "" H 20250 4050 50  0000 C CNN
	1    20250 4050
	0    -1   1    0   
$EndComp
$Comp
L R R?
U 1 1 5A6A1736
P 20250 4150
F 0 "R?" V 20200 4300 50  0000 C CNN
F 1 "10" V 20250 4150 50  0000 C CNN
F 2 "Resistors_SMD:R_1210_HandSoldering" V 20180 4150 50  0001 C CNN
F 3 "" H 20250 4150 50  0000 C CNN
	1    20250 4150
	0    -1   1    0   
$EndComp
Wire Wire Line
	20100 3950 20000 3950
Wire Wire Line
	20000 4050 20100 4050
Wire Wire Line
	20100 4150 20000 4150
Wire Wire Line
	20450 3950 20400 3950
Wire Wire Line
	20450 4050 20400 4050
Wire Wire Line
	20450 4150 20400 4150
$Comp
L R R?
U 1 1 5A6A1743
P 20250 4250
F 0 "R?" V 20200 4400 50  0000 C CNN
F 1 "50" V 20250 4250 50  0000 C CNN
F 2 "Resistors_SMD:R_1210_HandSoldering" V 20180 4250 50  0001 C CNN
F 3 "" H 20250 4250 50  0000 C CNN
	1    20250 4250
	0    -1   1    0   
$EndComp
$Comp
L R R?
U 1 1 5A6A174A
P 20250 4350
F 0 "R?" V 20200 4500 50  0000 C CNN
F 1 "5" V 20250 4350 50  0000 C CNN
F 2 "Resistors_SMD:R_1210_HandSoldering" V 20180 4350 50  0001 C CNN
F 3 "" H 20250 4350 50  0000 C CNN
	1    20250 4350
	0    -1   1    0   
$EndComp
$Comp
L R R?
U 1 1 5A6A1751
P 20250 4450
F 0 "R?" V 20200 4600 50  0000 C CNN
F 1 "10" V 20250 4450 50  0000 C CNN
F 2 "Resistors_SMD:R_1210_HandSoldering" V 20180 4450 50  0001 C CNN
F 3 "" H 20250 4450 50  0000 C CNN
	1    20250 4450
	0    -1   1    0   
$EndComp
Wire Wire Line
	20100 4250 20000 4250
Wire Wire Line
	20000 4350 20100 4350
Wire Wire Line
	20100 4450 20000 4450
Wire Wire Line
	20450 4250 20400 4250
Wire Wire Line
	20450 4350 20400 4350
Wire Wire Line
	20450 4450 20400 4450
$Comp
L R R?
U 1 1 5A6A175E
P 20250 4550
F 0 "R?" V 20200 4700 50  0000 C CNN
F 1 "50" V 20250 4550 50  0000 C CNN
F 2 "Resistors_SMD:R_1210_HandSoldering" V 20180 4550 50  0001 C CNN
F 3 "" H 20250 4550 50  0000 C CNN
	1    20250 4550
	0    -1   1    0   
$EndComp
$Comp
L R R?
U 1 1 5A6A1765
P 20250 4650
F 0 "R?" V 20200 4800 50  0000 C CNN
F 1 "5" V 20250 4650 50  0000 C CNN
F 2 "Resistors_SMD:R_1210_HandSoldering" V 20180 4650 50  0001 C CNN
F 3 "" H 20250 4650 50  0000 C CNN
	1    20250 4650
	0    -1   1    0   
$EndComp
$Comp
L R R?
U 1 1 5A6A176C
P 20250 4750
F 0 "R?" V 20200 4900 50  0000 C CNN
F 1 "10" V 20250 4750 50  0000 C CNN
F 2 "Resistors_SMD:R_1210_HandSoldering" V 20180 4750 50  0001 C CNN
F 3 "" H 20250 4750 50  0000 C CNN
	1    20250 4750
	0    -1   1    0   
$EndComp
Wire Wire Line
	20100 4550 20000 4550
Wire Wire Line
	20000 4650 20100 4650
Wire Wire Line
	20100 4750 20000 4750
Wire Wire Line
	20450 4550 20400 4550
Wire Wire Line
	20450 4650 20400 4650
Wire Wire Line
	20450 4750 20400 4750
Wire Wire Line
	19500 3100 19500 4650
Connection ~ 19500 4350
Connection ~ 19500 4050
$Comp
L PCA9685_aa U?
U 1 1 5A6A177C
P 25250 4850
F 0 "U?" H 25250 6450 50  0000 L BNN
F 1 "PCA9685_aa" H 25250 6370 50  0000 L BNN
F 2 "Housings_SSOP:TSSOP-28_4.4x9.7mm_Pitch0.65mm" H 25280 5000 20  0001 C CNN
F 3 "" H 25250 4850 60  0001 C CNN
	1    25250 4850
	1    0    0    -1  
$EndComp
Text Label 26150 3650 0    60   ~ 0
SCL
Text Label 26150 3550 0    60   ~ 0
SDA
$Comp
L +3.3V #PWR?
U 1 1 5A6A1785
P 25600 3050
F 0 "#PWR?" H 25600 2900 50  0001 C CNN
F 1 "+3.3V" H 25600 3190 50  0000 C CNN
F 2 "" H 25600 3050 50  0001 C CNN
F 3 "" H 25600 3050 50  0001 C CNN
	1    25600 3050
	1    0    0    -1  
$EndComp
$Comp
L GND #PWR?
U 1 1 5A6A178B
P 25600 5150
F 0 "#PWR?" H 25600 4900 50  0001 C CNN
F 1 "GND" H 25600 5000 50  0000 C CNN
F 2 "" H 25600 5150 50  0000 C CNN
F 3 "" H 25600 5150 50  0000 C CNN
	1    25600 5150
	1    0    0    -1  
$EndComp
$Comp
L R R?
U 1 1 5A6A1791
P 26350 3950
F 0 "R?" V 26300 4100 50  0000 C CNN
F 1 "10K" V 26350 3950 50  0000 C CNN
F 2 "Resistors_SMD:R_1210_HandSoldering" V 26280 3950 50  0001 C CNN
F 3 "" H 26350 3950 50  0000 C CNN
	1    26350 3950
	0    1    1    0   
$EndComp
$Comp
L C C?
U 1 1 5A6A1798
P 27800 3600
F 0 "C?" H 27825 3700 50  0000 L CNN
F 1 "0.1uF" V 27900 3350 50  0000 L CNN
F 2 "Capacitors_THT:C_Disc_D4.3mm_W1.9mm_P5.00mm" H 27838 3450 50  0001 C CNN
F 3 "" H 27800 3600 50  0001 C CNN
	1    27800 3600
	-1   0    0    1   
$EndComp
Wire Wire Line
	25600 3050 25600 3150
Wire Wire Line
	25600 5050 25600 5150
Wire Wire Line
	27800 3750 27800 4050
Wire Wire Line
	26150 3750 27800 3750
Wire Wire Line
	26150 3950 26200 3950
Wire Wire Line
	26500 3950 27800 3950
Connection ~ 27800 3950
Wire Wire Line
	24100 3100 27800 3100
Wire Wire Line
	27800 3100 27800 3450
Connection ~ 25600 3100
Connection ~ 27800 3750
Wire Wire Line
	27550 3450 27550 3100
Connection ~ 27550 3100
Connection ~ 27550 3750
Wire Wire Line
	25050 3450 24600 3450
Wire Wire Line
	25050 3550 24850 3550
Wire Wire Line
	24850 3550 24850 3750
Wire Wire Line
	24850 3650 25050 3650
Wire Wire Line
	24850 3750 25050 3750
Connection ~ 24850 3650
Wire Wire Line
	24600 3850 25050 3850
$Comp
L +3.3V #PWR?
U 1 1 5A6A17B4
P 24600 3450
F 0 "#PWR?" H 24600 3300 50  0001 C CNN
F 1 "+3.3V" H 24600 3590 50  0000 C CNN
F 2 "" H 24600 3450 50  0001 C CNN
F 3 "" H 24600 3450 50  0001 C CNN
	1    24600 3450
	0    -1   -1   0   
$EndComp
$Comp
L GND #PWR?
U 1 1 5A6A17BA
P 24850 3650
F 0 "#PWR?" H 24850 3400 50  0001 C CNN
F 1 "GND" H 24850 3500 50  0000 C CNN
F 2 "" H 24850 3650 50  0000 C CNN
F 3 "" H 24850 3650 50  0000 C CNN
	1    24850 3650
	0    1    1    0   
$EndComp
Wire Wire Line
	26150 3850 27800 3850
Connection ~ 27800 3850
$Comp
L GND #PWR?
U 1 1 5A6A17C2
P 27800 4050
F 0 "#PWR?" H 27800 3800 50  0001 C CNN
F 1 "GND" H 27800 3900 50  0000 C CNN
F 2 "" H 27800 4050 50  0000 C CNN
F 3 "" H 27800 4050 50  0000 C CNN
	1    27800 4050
	1    0    0    -1  
$EndComp
$Comp
L R R?
U 1 1 5A6A17C8
P 26350 4050
F 0 "R?" V 26300 4200 50  0000 C CNN
F 1 "50" V 26350 4050 50  0000 C CNN
F 2 "Resistors_SMD:R_1210_HandSoldering" V 26280 4050 50  0001 C CNN
F 3 "" H 26350 4050 50  0000 C CNN
	1    26350 4050
	0    1    1    0   
$EndComp
$Comp
L R R?
U 1 1 5A6A17CF
P 26350 4150
F 0 "R?" V 26300 4300 50  0000 C CNN
F 1 "5" V 26350 4150 50  0000 C CNN
F 2 "Resistors_SMD:R_1210_HandSoldering" V 26280 4150 50  0001 C CNN
F 3 "" H 26350 4150 50  0000 C CNN
	1    26350 4150
	0    1    1    0   
$EndComp
$Comp
L R R?
U 1 1 5A6A17D6
P 26350 4250
F 0 "R?" V 26300 4400 50  0000 C CNN
F 1 "10" V 26350 4250 50  0000 C CNN
F 2 "Resistors_SMD:R_1210_HandSoldering" V 26280 4250 50  0001 C CNN
F 3 "" H 26350 4250 50  0000 C CNN
	1    26350 4250
	0    1    1    0   
$EndComp
Wire Wire Line
	26500 4050 26600 4050
Wire Wire Line
	26600 4150 26500 4150
Wire Wire Line
	26500 4250 26600 4250
Wire Wire Line
	26150 4050 26200 4050
Wire Wire Line
	26150 4150 26200 4150
Wire Wire Line
	26150 4250 26200 4250
Wire Wire Line
	27100 3100 27100 4450
Connection ~ 27100 3100
$Comp
L R R?
U 1 1 5A6A17E5
P 26350 4350
F 0 "R?" V 26300 4500 50  0000 C CNN
F 1 "50" V 26350 4350 50  0000 C CNN
F 2 "Resistors_SMD:R_1210_HandSoldering" V 26280 4350 50  0001 C CNN
F 3 "" H 26350 4350 50  0000 C CNN
	1    26350 4350
	0    1    1    0   
$EndComp
$Comp
L R R?
U 1 1 5A6A17EC
P 26350 4450
F 0 "R?" V 26300 4600 50  0000 C CNN
F 1 "5" V 26350 4450 50  0000 C CNN
F 2 "Resistors_SMD:R_1210_HandSoldering" V 26280 4450 50  0001 C CNN
F 3 "" H 26350 4450 50  0000 C CNN
	1    26350 4450
	0    1    1    0   
$EndComp
$Comp
L R R?
U 1 1 5A6A17F3
P 26350 4550
F 0 "R?" V 26300 4700 50  0000 C CNN
F 1 "10" V 26350 4550 50  0000 C CNN
F 2 "Resistors_SMD:R_1210_HandSoldering" V 26280 4550 50  0001 C CNN
F 3 "" H 26350 4550 50  0000 C CNN
	1    26350 4550
	0    1    1    0   
$EndComp
Wire Wire Line
	26500 4350 26600 4350
Wire Wire Line
	26600 4450 26500 4450
Wire Wire Line
	26500 4550 26600 4550
Wire Wire Line
	26150 4350 26200 4350
Wire Wire Line
	26150 4450 26200 4450
Wire Wire Line
	26150 4550 26200 4550
Connection ~ 27100 4150
$Comp
L R R?
U 1 1 5A6A1801
P 24850 3950
F 0 "R?" V 24800 4100 50  0000 C CNN
F 1 "50" V 24850 3950 50  0000 C CNN
F 2 "Resistors_SMD:R_1210_HandSoldering" V 24780 3950 50  0001 C CNN
F 3 "" H 24850 3950 50  0000 C CNN
	1    24850 3950
	0    -1   1    0   
$EndComp
$Comp
L R R?
U 1 1 5A6A1808
P 24850 4050
F 0 "R?" V 24800 4200 50  0000 C CNN
F 1 "5" V 24850 4050 50  0000 C CNN
F 2 "Resistors_SMD:R_1210_HandSoldering" V 24780 4050 50  0001 C CNN
F 3 "" H 24850 4050 50  0000 C CNN
	1    24850 4050
	0    -1   1    0   
$EndComp
$Comp
L R R?
U 1 1 5A6A180F
P 24850 4150
F 0 "R?" V 24800 4300 50  0000 C CNN
F 1 "10" V 24850 4150 50  0000 C CNN
F 2 "Resistors_SMD:R_1210_HandSoldering" V 24780 4150 50  0001 C CNN
F 3 "" H 24850 4150 50  0000 C CNN
	1    24850 4150
	0    -1   1    0   
$EndComp
Wire Wire Line
	24700 3950 24600 3950
Wire Wire Line
	24600 4050 24700 4050
Wire Wire Line
	24700 4150 24600 4150
Wire Wire Line
	25050 3950 25000 3950
Wire Wire Line
	25050 4050 25000 4050
Wire Wire Line
	25050 4150 25000 4150
$Comp
L R R?
U 1 1 5A6A181C
P 24850 4250
F 0 "R?" V 24800 4400 50  0000 C CNN
F 1 "50" V 24850 4250 50  0000 C CNN
F 2 "Resistors_SMD:R_1210_HandSoldering" V 24780 4250 50  0001 C CNN
F 3 "" H 24850 4250 50  0000 C CNN
	1    24850 4250
	0    -1   1    0   
$EndComp
$Comp
L R R?
U 1 1 5A6A1823
P 24850 4350
F 0 "R?" V 24800 4500 50  0000 C CNN
F 1 "5" V 24850 4350 50  0000 C CNN
F 2 "Resistors_SMD:R_1210_HandSoldering" V 24780 4350 50  0001 C CNN
F 3 "" H 24850 4350 50  0000 C CNN
	1    24850 4350
	0    -1   1    0   
$EndComp
$Comp
L R R?
U 1 1 5A6A182A
P 24850 4450
F 0 "R?" V 24800 4600 50  0000 C CNN
F 1 "10" V 24850 4450 50  0000 C CNN
F 2 "Resistors_SMD:R_1210_HandSoldering" V 24780 4450 50  0001 C CNN
F 3 "" H 24850 4450 50  0000 C CNN
	1    24850 4450
	0    -1   1    0   
$EndComp
Wire Wire Line
	24700 4250 24600 4250
Wire Wire Line
	24600 4350 24700 4350
Wire Wire Line
	24700 4450 24600 4450
Wire Wire Line
	25050 4250 25000 4250
Wire Wire Line
	25050 4350 25000 4350
Wire Wire Line
	25050 4450 25000 4450
$Comp
L R R?
U 1 1 5A6A1837
P 24850 4550
F 0 "R?" V 24800 4700 50  0000 C CNN
F 1 "50" V 24850 4550 50  0000 C CNN
F 2 "Resistors_SMD:R_1210_HandSoldering" V 24780 4550 50  0001 C CNN
F 3 "" H 24850 4550 50  0000 C CNN
	1    24850 4550
	0    -1   1    0   
$EndComp
$Comp
L R R?
U 1 1 5A6A183E
P 24850 4650
F 0 "R?" V 24800 4800 50  0000 C CNN
F 1 "5" V 24850 4650 50  0000 C CNN
F 2 "Resistors_SMD:R_1210_HandSoldering" V 24780 4650 50  0001 C CNN
F 3 "" H 24850 4650 50  0000 C CNN
	1    24850 4650
	0    -1   1    0   
$EndComp
$Comp
L R R?
U 1 1 5A6A1845
P 24850 4750
F 0 "R?" V 24800 4900 50  0000 C CNN
F 1 "10" V 24850 4750 50  0000 C CNN
F 2 "Resistors_SMD:R_1210_HandSoldering" V 24780 4750 50  0001 C CNN
F 3 "" H 24850 4750 50  0000 C CNN
	1    24850 4750
	0    -1   1    0   
$EndComp
Wire Wire Line
	24700 4550 24600 4550
Wire Wire Line
	24600 4650 24700 4650
Wire Wire Line
	24700 4750 24600 4750
Wire Wire Line
	25050 4550 25000 4550
Wire Wire Line
	25050 4650 25000 4650
Wire Wire Line
	25050 4750 25000 4750
Wire Wire Line
	24100 3100 24100 4650
Connection ~ 24100 4350
Connection ~ 24100 4050
Wire Wire Line
	6350 3650 6350 3850
Wire Wire Line
	6350 3550 6350 3450
Wire Wire Line
	11100 3750 11100 3850
Wire Wire Line
	11100 3450 11100 3650
Connection ~ 11100 3550
Connection ~ 15700 3550
Wire Wire Line
	15700 3450 15700 3750
Connection ~ 20250 3550
Wire Wire Line
	24600 3450 24600 3850
$Comp
L LED-RGB-CA KLED?
U 1 1 5A6A185E
P 1250 4350
F 0 "KLED?" H 1250 4550 60  0000 C CNN
F 1 "LED-RGB-CA" H 1250 4150 60  0000 C CNN
F 2 "afshar-kicad-lib:LED_D3.0mm-4" H 1100 4450 60  0001 C CNN
F 3 "" H 1250 4550 60  0001 C CNN
	1    1250 4350
	-1   0    0    -1  
$EndComp
$Comp
L LED-RGB-CA KLED?
U 1 1 5A6A1865
P 1250 4650
F 0 "KLED?" H 1250 4850 60  0000 C CNN
F 1 "LED-RGB-CA" H 1250 4450 60  0000 C CNN
F 2 "afshar-kicad-lib:LED_D3.0mm-4" H 1100 4750 60  0001 C CNN
F 3 "" H 1250 4850 60  0001 C CNN
	1    1250 4650
	-1   0    0    -1  
$EndComp
$Comp
L LED-RGB-CA KLED?
U 1 1 5A6A186C
P 3750 4150
F 0 "KLED?" H 3750 4350 60  0000 C CNN
F 1 "LED-RGB-CA" H 3750 3950 60  0000 C CNN
F 2 "afshar-kicad-lib:LED_D3.0mm-4" H 3600 4250 60  0001 C CNN
F 3 "" H 3750 4350 60  0001 C CNN
	1    3750 4150
	1    0    0    -1  
$EndComp
$Comp
L LED-RGB-CA KLED?
U 1 1 5A6A1873
P 3750 4450
F 0 "KLED?" H 3750 4650 60  0000 C CNN
F 1 "LED-RGB-CA" H 3750 4250 60  0000 C CNN
F 2 "afshar-kicad-lib:LED_D3.0mm-4" H 3600 4550 60  0001 C CNN
F 3 "" H 3750 4650 60  0001 C CNN
	1    3750 4450
	1    0    0    -1  
$EndComp
$Comp
L LED-RGB-CA KLED?
U 1 1 5A6A187A
P 5850 4050
F 0 "KLED?" H 5850 4250 60  0000 C CNN
F 1 "LED-RGB-CA" H 5850 3850 60  0000 C CNN
F 2 "afshar-kicad-lib:LED_D3.0mm-4" H 5700 4150 60  0001 C CNN
F 3 "" H 5850 4250 60  0001 C CNN
	1    5850 4050
	-1   0    0    -1  
$EndComp
$Comp
L LED-RGB-CA KLED?
U 1 1 5A6A1881
P 5850 4350
F 0 "KLED?" H 5850 4550 60  0000 C CNN
F 1 "LED-RGB-CA" H 5850 4150 60  0000 C CNN
F 2 "afshar-kicad-lib:LED_D3.0mm-4" H 5700 4450 60  0001 C CNN
F 3 "" H 5850 4550 60  0001 C CNN
	1    5850 4350
	-1   0    0    -1  
$EndComp
$Comp
L LED-RGB-CA KLED?
U 1 1 5A6A1888
P 5850 4650
F 0 "KLED?" H 5850 4850 60  0000 C CNN
F 1 "LED-RGB-CA" H 5850 4450 60  0000 C CNN
F 2 "afshar-kicad-lib:LED_D3.0mm-4" H 5700 4750 60  0001 C CNN
F 3 "" H 5850 4850 60  0001 C CNN
	1    5850 4650
	-1   0    0    -1  
$EndComp
$Comp
L LED-RGB-CA KLED?
U 1 1 5A6A188F
P 8350 4150
F 0 "KLED?" H 8350 4350 60  0000 C CNN
F 1 "LED-RGB-CA" H 8350 3950 60  0000 C CNN
F 2 "afshar-kicad-lib:LED_D3.0mm-4" H 8200 4250 60  0001 C CNN
F 3 "" H 8350 4350 60  0001 C CNN
	1    8350 4150
	1    0    0    -1  
$EndComp
$Comp
L LED-RGB-CA KLED?
U 1 1 5A6A1896
P 8350 4450
F 0 "KLED?" H 8350 4650 60  0000 C CNN
F 1 "LED-RGB-CA" H 8350 4250 60  0000 C CNN
F 2 "afshar-kicad-lib:LED_D3.0mm-4" H 8200 4550 60  0001 C CNN
F 3 "" H 8350 4650 60  0001 C CNN
	1    8350 4450
	1    0    0    -1  
$EndComp
$Comp
L LED-RGB-CA KLED?
U 1 1 5A6A189D
P 10600 4050
F 0 "KLED?" H 10600 4250 60  0000 C CNN
F 1 "LED-RGB-CA" H 10600 3850 60  0000 C CNN
F 2 "afshar-kicad-lib:LED_D3.0mm-4" H 10450 4150 60  0001 C CNN
F 3 "" H 10600 4250 60  0001 C CNN
	1    10600 4050
	-1   0    0    -1  
$EndComp
$Comp
L LED-RGB-CA KLED?
U 1 1 5A6A18A4
P 10600 4350
F 0 "KLED?" H 10600 4550 60  0000 C CNN
F 1 "LED-RGB-CA" H 10600 4150 60  0000 C CNN
F 2 "afshar-kicad-lib:LED_D3.0mm-4" H 10450 4450 60  0001 C CNN
F 3 "" H 10600 4550 60  0001 C CNN
	1    10600 4350
	-1   0    0    -1  
$EndComp
$Comp
L LED-RGB-CA KLED?
U 1 1 5A6A18AB
P 10600 4650
F 0 "KLED?" H 10600 4850 60  0000 C CNN
F 1 "LED-RGB-CA" H 10600 4450 60  0000 C CNN
F 2 "afshar-kicad-lib:LED_D3.0mm-4" H 10450 4750 60  0001 C CNN
F 3 "" H 10600 4850 60  0001 C CNN
	1    10600 4650
	-1   0    0    -1  
$EndComp
$Comp
L LED-RGB-CA KLED?
U 1 1 5A6A18B2
P 13100 4150
F 0 "KLED?" H 13100 4350 60  0000 C CNN
F 1 "LED-RGB-CA" H 13100 3950 60  0000 C CNN
F 2 "afshar-kicad-lib:LED_D3.0mm-4" H 12950 4250 60  0001 C CNN
F 3 "" H 13100 4350 60  0001 C CNN
	1    13100 4150
	1    0    0    -1  
$EndComp
$Comp
L LED-RGB-CA KLED?
U 1 1 5A6A18B9
P 13100 4450
F 0 "KLED?" H 13100 4650 60  0000 C CNN
F 1 "LED-RGB-CA" H 13100 4250 60  0000 C CNN
F 2 "afshar-kicad-lib:LED_D3.0mm-4" H 12950 4550 60  0001 C CNN
F 3 "" H 13100 4650 60  0001 C CNN
	1    13100 4450
	1    0    0    -1  
$EndComp
$Comp
L LED-RGB-CA KLED?
U 1 1 5A6A18C0
P 15200 4050
F 0 "KLED?" H 15200 4250 60  0000 C CNN
F 1 "LED-RGB-CA" H 15200 3850 60  0000 C CNN
F 2 "afshar-kicad-lib:LED_D3.0mm-4" H 15050 4150 60  0001 C CNN
F 3 "" H 15200 4250 60  0001 C CNN
	1    15200 4050
	-1   0    0    -1  
$EndComp
$Comp
L LED-RGB-CA KLED?
U 1 1 5A6A18C7
P 15200 4350
F 0 "KLED?" H 15200 4550 60  0000 C CNN
F 1 "LED-RGB-CA" H 15200 4150 60  0000 C CNN
F 2 "afshar-kicad-lib:LED_D3.0mm-4" H 15050 4450 60  0001 C CNN
F 3 "" H 15200 4550 60  0001 C CNN
	1    15200 4350
	-1   0    0    -1  
$EndComp
$Comp
L LED-RGB-CA KLED?
U 1 1 5A6A18CE
P 17700 4150
F 0 "KLED?" H 17700 4350 60  0000 C CNN
F 1 "LED-RGB-CA" H 17700 3950 60  0000 C CNN
F 2 "afshar-kicad-lib:LED_D3.0mm-4" H 17550 4250 60  0001 C CNN
F 3 "" H 17700 4350 60  0001 C CNN
	1    17700 4150
	1    0    0    -1  
$EndComp
$Comp
L LED-RGB-CA KLED?
U 1 1 5A6A18D5
P 17700 4450
F 0 "KLED?" H 17700 4650 60  0000 C CNN
F 1 "LED-RGB-CA" H 17700 4250 60  0000 C CNN
F 2 "afshar-kicad-lib:LED_D3.0mm-4" H 17550 4550 60  0001 C CNN
F 3 "" H 17700 4650 60  0001 C CNN
	1    17700 4450
	1    0    0    -1  
$EndComp
$Comp
L LED-RGB-CA KLED?
U 1 1 5A6A18DC
P 15200 4650
F 0 "KLED?" H 15200 4850 60  0000 C CNN
F 1 "LED-RGB-CA" H 15200 4450 60  0000 C CNN
F 2 "afshar-kicad-lib:LED_D3.0mm-4" H 15050 4750 60  0001 C CNN
F 3 "" H 15200 4850 60  0001 C CNN
	1    15200 4650
	-1   0    0    -1  
$EndComp
$Comp
L LED-RGB-CA KLED?
U 1 1 5A6A18E3
P 19750 4050
F 0 "KLED?" H 19750 4250 60  0000 C CNN
F 1 "LED-RGB-CA" H 19750 3850 60  0000 C CNN
F 2 "afshar-kicad-lib:LED_D3.0mm-4" H 19600 4150 60  0001 C CNN
F 3 "" H 19750 4250 60  0001 C CNN
	1    19750 4050
	-1   0    0    -1  
$EndComp
$Comp
L LED-RGB-CA KLED?
U 1 1 5A6A18EA
P 24350 4050
F 0 "KLED?" H 24350 4250 60  0000 C CNN
F 1 "LED-RGB-CA" H 24350 3850 60  0000 C CNN
F 2 "afshar-kicad-lib:LED_D3.0mm-4" H 24200 4150 60  0001 C CNN
F 3 "" H 24350 4250 60  0001 C CNN
	1    24350 4050
	-1   0    0    -1  
$EndComp
$Comp
L LED-RGB-CA KLED?
U 1 1 5A6A18F1
P 22250 4150
F 0 "KLED?" H 22250 4350 60  0000 C CNN
F 1 "LED-RGB-CA" H 22250 3950 60  0000 C CNN
F 2 "afshar-kicad-lib:LED_D3.0mm-4" H 22100 4250 60  0001 C CNN
F 3 "" H 22250 4350 60  0001 C CNN
	1    22250 4150
	1    0    0    -1  
$EndComp
$Comp
L LED-RGB-CA KLED?
U 1 1 5A6A18F8
P 22250 4450
F 0 "KLED?" H 22250 4650 60  0000 C CNN
F 1 "LED-RGB-CA" H 22250 4250 60  0000 C CNN
F 2 "afshar-kicad-lib:LED_D3.0mm-4" H 22100 4550 60  0001 C CNN
F 3 "" H 22250 4650 60  0001 C CNN
	1    22250 4450
	1    0    0    -1  
$EndComp
$Comp
L LED-RGB-CA KLED?
U 1 1 5A6A18FF
P 19750 4350
F 0 "KLED?" H 19750 4550 60  0000 C CNN
F 1 "LED-RGB-CA" H 19750 4150 60  0000 C CNN
F 2 "afshar-kicad-lib:LED_D3.0mm-4" H 19600 4450 60  0001 C CNN
F 3 "" H 19750 4550 60  0001 C CNN
	1    19750 4350
	-1   0    0    -1  
$EndComp
$Comp
L LED-RGB-CA KLED?
U 1 1 5A6A1906
P 19750 4650
F 0 "KLED?" H 19750 4850 60  0000 C CNN
F 1 "LED-RGB-CA" H 19750 4450 60  0000 C CNN
F 2 "afshar-kicad-lib:LED_D3.0mm-4" H 19600 4750 60  0001 C CNN
F 3 "" H 19750 4850 60  0001 C CNN
	1    19750 4650
	-1   0    0    -1  
$EndComp
$Comp
L LED-RGB-CA KLED?
U 1 1 5A6A190D
P 24350 4350
F 0 "KLED?" H 24350 4550 60  0000 C CNN
F 1 "LED-RGB-CA" H 24350 4150 60  0000 C CNN
F 2 "afshar-kicad-lib:LED_D3.0mm-4" H 24200 4450 60  0001 C CNN
F 3 "" H 24350 4550 60  0001 C CNN
	1    24350 4350
	-1   0    0    -1  
$EndComp
$Comp
L LED-RGB-CA KLED?
U 1 1 5A6A1914
P 24350 4650
F 0 "KLED?" H 24350 4850 60  0000 C CNN
F 1 "LED-RGB-CA" H 24350 4450 60  0000 C CNN
F 2 "afshar-kicad-lib:LED_D3.0mm-4" H 24200 4750 60  0001 C CNN
F 3 "" H 24350 4850 60  0001 C CNN
	1    24350 4650
	-1   0    0    -1  
$EndComp
$Comp
L LED-RGB-CA KLED?
U 1 1 5A6A191B
P 26850 4150
F 0 "KLED?" H 26850 4350 60  0000 C CNN
F 1 "LED-RGB-CA" H 26850 3950 60  0000 C CNN
F 2 "afshar-kicad-lib:LED_D3.0mm-4" H 26700 4250 60  0001 C CNN
F 3 "" H 26850 4350 60  0001 C CNN
	1    26850 4150
	1    0    0    -1  
$EndComp
$Comp
L LED-RGB-CA KLED?
U 1 1 5A6A1922
P 26850 4450
F 0 "KLED?" H 26850 4650 60  0000 C CNN
F 1 "LED-RGB-CA" H 26850 4250 60  0000 C CNN
F 2 "afshar-kicad-lib:LED_D3.0mm-4" H 26700 4550 60  0001 C CNN
F 3 "" H 26850 4650 60  0001 C CNN
	1    26850 4450
	1    0    0    -1  
$EndComp
$EndSCHEMATC
