EESchema Schematic File Version 2
LIBS:maxim
LIBS:afshar
LIBS:chordboard-components
LIBS:power
LIBS:device
LIBS:transistors
LIBS:conn
LIBS:linear
LIBS:regul
LIBS:74xx
LIBS:cmos4000
LIBS:adc-dac
LIBS:memory
LIBS:xilinx
LIBS:microcontrollers
LIBS:dsp
LIBS:microchip
LIBS:analog_switches
LIBS:motorola
LIBS:texas
LIBS:intel
LIBS:audio
LIBS:interface
LIBS:digital-audio
LIBS:philips
LIBS:display
LIBS:cypress
LIBS:siliconi
LIBS:opto
LIBS:atmel
LIBS:contrib
LIBS:valves
LIBS:switches
LIBS:standard
LIBS:mechanical
LIBS:led
LIBS:akn_maxim
LIBS:keypad7x2-cache
EELAYER 25 0
EELAYER END
$Descr A3 16535 11693
encoding utf-8
Sheet 2 2
Title ""
Date ""
Rev ""
Comp ""
Comment1 ""
Comment2 ""
Comment3 ""
Comment4 ""
$EndDescr
$Comp
L LED-RGB-CA LED?
U 1 1 5A926A19
P 6850 2150
F 0 "LED?" H 6850 2350 60  0000 C CNN
F 1 "LED-RGB-CA" H 6850 1950 60  0000 C CNN
F 2 "afshar-kicad-lib:LED_D3.0mm-4" H 6700 2250 60  0001 C CNN
F 3 "" H 6850 2350 60  0001 C CNN
	1    6850 2150
	-1   0    0    1   
$EndComp
$Comp
L LED-RGB-CA LED?
U 1 1 5A926A20
P 8300 2150
F 0 "LED?" H 8300 2350 60  0000 C CNN
F 1 "LED-RGB-CA" H 8300 1950 60  0000 C CNN
F 2 "afshar-kicad-lib:LED_D3.0mm-4" H 8150 2250 60  0001 C CNN
F 3 "" H 8300 2350 60  0001 C CNN
	1    8300 2150
	-1   0    0    1   
$EndComp
$Comp
L LED-RGB-CA LED?
U 1 1 5A926A27
P 6850 3050
F 0 "LED?" H 6850 3250 60  0000 C CNN
F 1 "LED-RGB-CA" H 6850 2850 60  0000 C CNN
F 2 "afshar-kicad-lib:LED_D3.0mm-4" H 6700 3150 60  0001 C CNN
F 3 "" H 6850 3250 60  0001 C CNN
	1    6850 3050
	-1   0    0    1   
$EndComp
Wire Wire Line
	7100 2050 7450 2050
Wire Wire Line
	7100 2150 7550 2150
Wire Wire Line
	7100 2250 7650 2250
Wire Wire Line
	6600 2150 6400 2150
Wire Wire Line
	6400 2150 6400 2650
Wire Wire Line
	5800 2650 10200 2650
Wire Wire Line
	7450 1100 7450 8600
Wire Wire Line
	7550 1200 7550 8700
Wire Wire Line
	7650 1300 7650 8800
Wire Wire Line
	8550 2050 8900 2050
Wire Wire Line
	8550 2150 9000 2150
Wire Wire Line
	8550 2250 9100 2250
Wire Wire Line
	8050 2150 7850 2150
Wire Wire Line
	8900 1100 8900 8600
Wire Wire Line
	9000 1200 9000 8700
Wire Wire Line
	9100 1300 9100 8800
Wire Wire Line
	7850 2150 7850 2650
Connection ~ 6400 2650
Wire Wire Line
	7450 2950 7100 2950
Wire Wire Line
	7550 3050 7100 3050
Wire Wire Line
	7650 3150 7100 3150
Wire Wire Line
	6600 3050 6400 3050
Wire Wire Line
	9300 2650 9300 2150
Connection ~ 7850 2650
Wire Wire Line
	6400 3050 6400 3600
Wire Wire Line
	5750 3600 10200 3600
Wire Wire Line
	9300 3600 9300 3100
$Comp
L LED-RGB-CA LED?
U 1 1 5A926A49
P 8300 3050
F 0 "LED?" H 8300 3250 60  0000 C CNN
F 1 "LED-RGB-CA" H 8300 2850 60  0000 C CNN
F 2 "afshar-kicad-lib:LED_D3.0mm-4" H 8150 3150 60  0001 C CNN
F 3 "" H 8300 3250 60  0001 C CNN
	1    8300 3050
	-1   0    0    1   
$EndComp
Wire Wire Line
	8900 2950 8550 2950
Wire Wire Line
	9000 3050 8550 3050
Wire Wire Line
	9100 3150 8550 3150
Wire Wire Line
	8050 3050 7850 3050
Wire Wire Line
	7850 3050 7850 3600
Connection ~ 6400 3600
Connection ~ 7850 3600
Connection ~ 7450 2050
Connection ~ 7550 2150
Connection ~ 7650 2250
Connection ~ 9100 2250
Connection ~ 9000 2150
Connection ~ 8900 2050
$Comp
L LED-RGB-CA LED?
U 1 1 5A926A5D
P 6850 4000
F 0 "LED?" H 6850 4200 60  0000 C CNN
F 1 "LED-RGB-CA" H 6850 3800 60  0000 C CNN
F 2 "afshar-kicad-lib:LED_D3.0mm-4" H 6700 4100 60  0001 C CNN
F 3 "" H 6850 4200 60  0001 C CNN
	1    6850 4000
	-1   0    0    1   
$EndComp
$Comp
L LED-RGB-CA LED?
U 1 1 5A926A64
P 8300 4000
F 0 "LED?" H 8300 4200 60  0000 C CNN
F 1 "LED-RGB-CA" H 8300 3800 60  0000 C CNN
F 2 "afshar-kicad-lib:LED_D3.0mm-4" H 8150 4100 60  0001 C CNN
F 3 "" H 8300 4200 60  0001 C CNN
	1    8300 4000
	-1   0    0    1   
$EndComp
$Comp
L LED-RGB-CA LED?
U 1 1 5A926A6B
P 6850 4950
F 0 "LED?" H 6850 5150 60  0000 C CNN
F 1 "LED-RGB-CA" H 6850 4750 60  0000 C CNN
F 2 "afshar-kicad-lib:LED_D3.0mm-4" H 6700 5050 60  0001 C CNN
F 3 "" H 6850 5150 60  0001 C CNN
	1    6850 4950
	-1   0    0    1   
$EndComp
Wire Wire Line
	7450 3900 7100 3900
Wire Wire Line
	7550 4000 7100 4000
Wire Wire Line
	7650 4100 7100 4100
Wire Wire Line
	6600 4000 6400 4000
Wire Wire Line
	6400 4000 6400 4500
Wire Wire Line
	5800 4500 10200 4500
Wire Wire Line
	8900 3900 8550 3900
Wire Wire Line
	9000 4000 8550 4000
Wire Wire Line
	9100 4100 8550 4100
Wire Wire Line
	8050 4000 7850 4000
Wire Wire Line
	7850 4000 7850 4500
Connection ~ 6400 4500
Wire Wire Line
	7450 4850 7100 4850
Wire Wire Line
	7550 4950 7100 4950
Wire Wire Line
	7650 5050 7100 5050
Wire Wire Line
	6600 4950 6400 4950
Wire Wire Line
	9300 4500 9300 4000
Connection ~ 7850 4500
Wire Wire Line
	6400 4950 6400 5500
Wire Wire Line
	5750 5500 10200 5500
Wire Wire Line
	9300 5500 9300 5000
$Comp
L LED-RGB-CA LED?
U 1 1 5A926A87
P 8300 4950
F 0 "LED?" H 8300 5150 60  0000 C CNN
F 1 "LED-RGB-CA" H 8300 4750 60  0000 C CNN
F 2 "afshar-kicad-lib:LED_D3.0mm-4" H 8150 5050 60  0001 C CNN
F 3 "" H 8300 5150 60  0001 C CNN
	1    8300 4950
	-1   0    0    1   
$EndComp
Wire Wire Line
	8900 4850 8550 4850
Wire Wire Line
	9000 4950 8550 4950
Wire Wire Line
	9100 5050 8550 5050
Wire Wire Line
	8050 4950 7850 4950
Wire Wire Line
	7850 4950 7850 5500
Connection ~ 6400 5500
Connection ~ 7850 5500
Connection ~ 7450 3900
Connection ~ 7550 4000
Connection ~ 7650 4100
Connection ~ 9100 4100
Connection ~ 9000 4000
Connection ~ 8900 3900
Connection ~ 7650 3150
Connection ~ 7550 3050
Connection ~ 7450 2950
Connection ~ 8900 2950
Connection ~ 9000 3050
Connection ~ 9100 3150
$Comp
L LED-RGB-CA LED?
U 1 1 5A926AA1
P 6850 5900
F 0 "LED?" H 6850 6100 60  0000 C CNN
F 1 "LED-RGB-CA" H 6850 5700 60  0000 C CNN
F 2 "afshar-kicad-lib:LED_D3.0mm-4" H 6700 6000 60  0001 C CNN
F 3 "" H 6850 6100 60  0001 C CNN
	1    6850 5900
	-1   0    0    1   
$EndComp
$Comp
L LED-RGB-CA LED?
U 1 1 5A926AA8
P 8300 5900
F 0 "LED?" H 8300 6100 60  0000 C CNN
F 1 "LED-RGB-CA" H 8300 5700 60  0000 C CNN
F 2 "afshar-kicad-lib:LED_D3.0mm-4" H 8150 6000 60  0001 C CNN
F 3 "" H 8300 6100 60  0001 C CNN
	1    8300 5900
	-1   0    0    1   
$EndComp
$Comp
L LED-RGB-CA LED?
U 1 1 5A926AAF
P 6850 6800
F 0 "LED?" H 6850 7000 60  0000 C CNN
F 1 "LED-RGB-CA" H 6850 6600 60  0000 C CNN
F 2 "afshar-kicad-lib:LED_D3.0mm-4" H 6700 6900 60  0001 C CNN
F 3 "" H 6850 7000 60  0001 C CNN
	1    6850 6800
	-1   0    0    1   
$EndComp
Wire Wire Line
	7450 5800 7100 5800
Wire Wire Line
	7550 5900 7100 5900
Wire Wire Line
	7650 6000 7100 6000
Wire Wire Line
	6600 5900 6400 5900
Wire Wire Line
	6400 5900 6400 6400
Wire Wire Line
	5800 6400 10200 6400
Wire Wire Line
	8900 5800 8550 5800
Wire Wire Line
	9000 5900 8550 5900
Wire Wire Line
	9100 6000 8550 6000
Wire Wire Line
	8050 5900 7850 5900
Wire Wire Line
	7850 5900 7850 6400
Connection ~ 6400 6400
Wire Wire Line
	7450 6700 7100 6700
Wire Wire Line
	7550 6800 7100 6800
Wire Wire Line
	7650 6900 7100 6900
Wire Wire Line
	6600 6800 6400 6800
Wire Wire Line
	9300 6400 9300 5900
Connection ~ 7850 6400
Wire Wire Line
	6400 6800 6400 7350
Wire Wire Line
	5750 7350 10200 7350
Wire Wire Line
	9300 7350 9300 6850
$Comp
L LED-RGB-CA LED?
U 1 1 5A926ACB
P 8300 6800
F 0 "LED?" H 8300 7000 60  0000 C CNN
F 1 "LED-RGB-CA" H 8300 6600 60  0000 C CNN
F 2 "afshar-kicad-lib:LED_D3.0mm-4" H 8150 6900 60  0001 C CNN
F 3 "" H 8300 7000 60  0001 C CNN
	1    8300 6800
	-1   0    0    1   
$EndComp
Wire Wire Line
	8900 6700 8550 6700
Wire Wire Line
	9000 6800 8550 6800
Wire Wire Line
	9100 6900 8550 6900
Wire Wire Line
	8050 6800 7850 6800
Wire Wire Line
	7850 6800 7850 7350
Connection ~ 6400 7350
Connection ~ 7850 7350
Connection ~ 7450 5800
Connection ~ 7550 5900
Connection ~ 7650 6000
Connection ~ 9100 6000
Connection ~ 9000 5900
Connection ~ 8900 5800
Connection ~ 7650 5050
Connection ~ 7550 4950
Connection ~ 7450 4850
Connection ~ 8900 4850
Connection ~ 9000 4950
Connection ~ 9100 5050
$Comp
L LED-RGB-CA LED?
U 1 1 5A926AE5
P 6850 7750
F 0 "LED?" H 6850 7950 60  0000 C CNN
F 1 "LED-RGB-CA" H 6850 7550 60  0000 C CNN
F 2 "afshar-kicad-lib:LED_D3.0mm-4" H 6700 7850 60  0001 C CNN
F 3 "" H 6850 7950 60  0001 C CNN
	1    6850 7750
	-1   0    0    1   
$EndComp
$Comp
L LED-RGB-CA LED?
U 1 1 5A926AEC
P 8300 7750
F 0 "LED?" H 8300 7950 60  0000 C CNN
F 1 "LED-RGB-CA" H 8300 7550 60  0000 C CNN
F 2 "afshar-kicad-lib:LED_D3.0mm-4" H 8150 7850 60  0001 C CNN
F 3 "" H 8300 7950 60  0001 C CNN
	1    8300 7750
	-1   0    0    1   
$EndComp
$Comp
L LED-RGB-CA LED?
U 1 1 5A926AF3
P 6850 8700
F 0 "LED?" H 6850 8900 60  0000 C CNN
F 1 "LED-RGB-CA" H 6850 8500 60  0000 C CNN
F 2 "afshar-kicad-lib:LED_D3.0mm-4" H 6700 8800 60  0001 C CNN
F 3 "" H 6850 8900 60  0001 C CNN
	1    6850 8700
	-1   0    0    1   
$EndComp
Wire Wire Line
	7450 7650 7100 7650
Wire Wire Line
	7550 7750 7100 7750
Wire Wire Line
	7650 7850 7100 7850
Wire Wire Line
	6600 7750 6400 7750
Wire Wire Line
	6400 7750 6400 8250
Wire Wire Line
	5800 8250 10200 8250
Wire Wire Line
	8900 7650 8550 7650
Wire Wire Line
	9000 7750 8550 7750
Wire Wire Line
	9100 7850 8550 7850
Wire Wire Line
	8050 7750 7850 7750
Wire Wire Line
	7850 7750 7850 8250
Connection ~ 6400 8250
Wire Wire Line
	7450 8600 7100 8600
Wire Wire Line
	7550 8700 7100 8700
Wire Wire Line
	7650 8800 7100 8800
Wire Wire Line
	6600 8700 6400 8700
Wire Wire Line
	9300 8250 9300 7750
Connection ~ 7850 8250
Wire Wire Line
	6400 8700 6400 9250
Wire Wire Line
	5750 9250 10200 9250
Wire Wire Line
	9300 9250 9300 8750
$Comp
L LED-RGB-CA LED?
U 1 1 5A926B0F
P 8300 8700
F 0 "LED?" H 8300 8900 60  0000 C CNN
F 1 "LED-RGB-CA" H 8300 8500 60  0000 C CNN
F 2 "afshar-kicad-lib:LED_D3.0mm-4" H 8150 8800 60  0001 C CNN
F 3 "" H 8300 8900 60  0001 C CNN
	1    8300 8700
	-1   0    0    1   
$EndComp
Wire Wire Line
	8900 8600 8550 8600
Wire Wire Line
	9000 8700 8550 8700
Wire Wire Line
	9100 8800 8550 8800
Wire Wire Line
	8050 8700 7850 8700
Wire Wire Line
	7850 8700 7850 9250
Connection ~ 6400 9250
Connection ~ 7850 9250
Connection ~ 7450 7650
Connection ~ 7550 7750
Connection ~ 7650 7850
Connection ~ 9100 7850
Connection ~ 9000 7750
Connection ~ 8900 7650
Connection ~ 7650 6900
Connection ~ 7550 6800
Connection ~ 7450 6700
Connection ~ 8900 6700
Connection ~ 9000 6800
Connection ~ 9100 6900
Wire Wire Line
	9300 2150 9500 2150
$Comp
L LED D?
U 1 1 5A926B2A
P 9650 2150
F 0 "D?" H 9600 2200 60  0000 R CNN
F 1 "LED" H 9700 2200 60  0000 L CNN
F 2 "LEDs:LED_D1.8mm_W3.3mm_H2.4mm" H 9650 2150 60  0001 C CNN
F 3 "" H 9650 2150 60  0001 C CNN
	1    9650 2150
	1    0    0    -1  
$EndComp
Wire Wire Line
	10200 2650 10200 2150
Wire Wire Line
	10200 2150 10400 2150
$Comp
L LED D?
U 1 1 5A926B33
P 10550 2150
F 0 "D?" H 10500 2200 60  0000 R CNN
F 1 "LED" H 10600 2200 60  0000 L CNN
F 2 "LEDs:LED_D1.8mm_W3.3mm_H2.4mm" H 10550 2150 60  0001 C CNN
F 3 "" H 10550 2150 60  0001 C CNN
	1    10550 2150
	1    0    0    -1  
$EndComp
Connection ~ 9300 2650
Wire Wire Line
	9800 2150 9950 2150
Wire Wire Line
	10700 2150 10900 2150
Wire Wire Line
	9300 3100 9500 3100
$Comp
L LED D?
U 1 1 5A926B3E
P 9650 3100
F 0 "D?" H 9600 3150 60  0000 R CNN
F 1 "LED" H 9700 3150 60  0000 L CNN
F 2 "LEDs:LED_D1.8mm_W3.3mm_H2.4mm" H 9650 3100 60  0001 C CNN
F 3 "" H 9650 3100 60  0001 C CNN
	1    9650 3100
	1    0    0    -1  
$EndComp
Wire Wire Line
	10200 3600 10200 3100
Wire Wire Line
	10200 3100 10400 3100
$Comp
L LED D?
U 1 1 5A926B47
P 10550 3100
F 0 "D?" H 10500 3150 60  0000 R CNN
F 1 "LED" H 10600 3150 60  0000 L CNN
F 2 "LEDs:LED_D1.8mm_W3.3mm_H2.4mm" H 10550 3100 60  0001 C CNN
F 3 "" H 10550 3100 60  0001 C CNN
	1    10550 3100
	1    0    0    -1  
$EndComp
Wire Wire Line
	9950 3100 9800 3100
Wire Wire Line
	10900 3100 10700 3100
Connection ~ 9300 3600
Wire Wire Line
	9300 4000 9500 4000
$Comp
L LED D?
U 1 1 5A926B52
P 9650 4000
F 0 "D?" H 9600 4050 60  0000 R CNN
F 1 "LED" H 9700 4050 60  0000 L CNN
F 2 "LEDs:LED_D1.8mm_W3.3mm_H2.4mm" H 9650 4000 60  0001 C CNN
F 3 "" H 9650 4000 60  0001 C CNN
	1    9650 4000
	1    0    0    -1  
$EndComp
Wire Wire Line
	10200 4500 10200 4000
Wire Wire Line
	10200 4000 10400 4000
$Comp
L LED D?
U 1 1 5A926B5B
P 10550 4000
F 0 "D?" H 10500 4050 60  0000 R CNN
F 1 "LED" H 10600 4050 60  0000 L CNN
F 2 "LEDs:LED_D1.8mm_W3.3mm_H2.4mm" H 10550 4000 60  0001 C CNN
F 3 "" H 10550 4000 60  0001 C CNN
	1    10550 4000
	1    0    0    -1  
$EndComp
Wire Wire Line
	9950 4000 9800 4000
Wire Wire Line
	10900 4000 10700 4000
Wire Wire Line
	9300 5000 9500 5000
$Comp
L LED D?
U 1 1 5A926B65
P 9650 5000
F 0 "D?" H 9600 5050 60  0000 R CNN
F 1 "LED" H 9700 5050 60  0000 L CNN
F 2 "LEDs:LED_D1.8mm_W3.3mm_H2.4mm" H 9650 5000 60  0001 C CNN
F 3 "" H 9650 5000 60  0001 C CNN
	1    9650 5000
	1    0    0    -1  
$EndComp
Wire Wire Line
	10200 5500 10200 5000
Wire Wire Line
	10200 5000 10400 5000
$Comp
L LED D?
U 1 1 5A926B6E
P 10550 5000
F 0 "D?" H 10500 5050 60  0000 R CNN
F 1 "LED" H 10600 5050 60  0000 L CNN
F 2 "LEDs:LED_D1.8mm_W3.3mm_H2.4mm" H 10550 5000 60  0001 C CNN
F 3 "" H 10550 5000 60  0001 C CNN
	1    10550 5000
	1    0    0    -1  
$EndComp
Wire Wire Line
	9950 5000 9800 5000
Wire Wire Line
	10900 5000 10700 5000
Wire Wire Line
	9300 5900 9500 5900
$Comp
L LED D?
U 1 1 5A926B78
P 9650 5900
F 0 "D?" H 9600 5950 60  0000 R CNN
F 1 "LED" H 9700 5950 60  0000 L CNN
F 2 "LEDs:LED_D1.8mm_W3.3mm_H2.4mm" H 9650 5900 60  0001 C CNN
F 3 "" H 9650 5900 60  0001 C CNN
	1    9650 5900
	1    0    0    -1  
$EndComp
Wire Wire Line
	10200 6400 10200 5900
Wire Wire Line
	10200 5900 10400 5900
$Comp
L LED D?
U 1 1 5A926B81
P 10550 5900
F 0 "D?" H 10500 5950 60  0000 R CNN
F 1 "LED" H 10600 5950 60  0000 L CNN
F 2 "LEDs:LED_D1.8mm_W3.3mm_H2.4mm" H 10550 5900 60  0001 C CNN
F 3 "" H 10550 5900 60  0001 C CNN
	1    10550 5900
	1    0    0    -1  
$EndComp
Wire Wire Line
	9950 5900 9800 5900
Wire Wire Line
	10900 5900 10700 5900
Wire Wire Line
	9300 6850 9500 6850
$Comp
L LED D?
U 1 1 5A926B8B
P 9650 6850
F 0 "D?" H 9600 6900 60  0000 R CNN
F 1 "LED" H 9700 6900 60  0000 L CNN
F 2 "LEDs:LED_D1.8mm_W3.3mm_H2.4mm" H 9650 6850 60  0001 C CNN
F 3 "" H 9650 6850 60  0001 C CNN
	1    9650 6850
	1    0    0    -1  
$EndComp
Wire Wire Line
	10200 7350 10200 6850
Wire Wire Line
	10200 6850 10400 6850
$Comp
L LED D?
U 1 1 5A926B94
P 10550 6850
F 0 "D?" H 10500 6900 60  0000 R CNN
F 1 "LED" H 10600 6900 60  0000 L CNN
F 2 "LEDs:LED_D1.8mm_W3.3mm_H2.4mm" H 10550 6850 60  0001 C CNN
F 3 "" H 10550 6850 60  0001 C CNN
	1    10550 6850
	1    0    0    -1  
$EndComp
Wire Wire Line
	9950 6850 9800 6850
Wire Wire Line
	10900 6850 10700 6850
$Comp
L LED D?
U 1 1 5A926B9D
P 9650 7750
F 0 "D?" H 9600 7800 60  0000 R CNN
F 1 "LED" H 9700 7800 60  0000 L CNN
F 2 "LEDs:LED_D1.8mm_W3.3mm_H2.4mm" H 9650 7750 60  0001 C CNN
F 3 "" H 9650 7750 60  0001 C CNN
	1    9650 7750
	1    0    0    -1  
$EndComp
Wire Wire Line
	10200 8250 10200 7750
Wire Wire Line
	10200 7750 10400 7750
$Comp
L LED D?
U 1 1 5A926BA6
P 10550 7750
F 0 "D?" H 10500 7800 60  0000 R CNN
F 1 "LED" H 10600 7800 60  0000 L CNN
F 2 "LEDs:LED_D1.8mm_W3.3mm_H2.4mm" H 10550 7750 60  0001 C CNN
F 3 "" H 10550 7750 60  0001 C CNN
	1    10550 7750
	1    0    0    -1  
$EndComp
Wire Wire Line
	9950 7750 9800 7750
Wire Wire Line
	10900 7750 10700 7750
Wire Wire Line
	9300 8750 9500 8750
$Comp
L LED D?
U 1 1 5A926BB0
P 9650 8750
F 0 "D?" H 9600 8800 60  0000 R CNN
F 1 "LED" H 9700 8800 60  0000 L CNN
F 2 "LEDs:LED_D1.8mm_W3.3mm_H2.4mm" H 9650 8750 60  0001 C CNN
F 3 "" H 9650 8750 60  0001 C CNN
	1    9650 8750
	1    0    0    -1  
$EndComp
Wire Wire Line
	10200 9250 10200 8750
Wire Wire Line
	10200 8750 10400 8750
$Comp
L LED D?
U 1 1 5A926BB9
P 10550 8750
F 0 "D?" H 10500 8800 60  0000 R CNN
F 1 "LED" H 10600 8800 60  0000 L CNN
F 2 "LEDs:LED_D1.8mm_W3.3mm_H2.4mm" H 10550 8750 60  0001 C CNN
F 3 "" H 10550 8750 60  0001 C CNN
	1    10550 8750
	1    0    0    -1  
$EndComp
Wire Wire Line
	9950 8750 9800 8750
Wire Wire Line
	10900 8750 10700 8750
Wire Wire Line
	9300 7750 9500 7750
Wire Wire Line
	9950 1350 9950 8750
Wire Wire Line
	10900 1350 10900 8750
Connection ~ 9950 2150
Connection ~ 9950 3100
Connection ~ 9950 4000
Connection ~ 9950 5000
Connection ~ 9950 5900
Connection ~ 9950 6850
Connection ~ 9950 7750
Connection ~ 10900 2150
Connection ~ 10900 3100
Connection ~ 9300 8250
Connection ~ 9300 7350
Connection ~ 9300 6400
Connection ~ 9300 5500
Connection ~ 9300 4500
Connection ~ 10900 4000
Connection ~ 10900 5000
Connection ~ 10900 5900
Connection ~ 10900 6850
Connection ~ 10900 7750
Connection ~ 9300 9250
$Comp
L MAX7219 U?
U 1 1 5A926BD9
P 2250 5000
F 0 "U?" H 2350 6350 60  0000 C CNN
F 1 "MAX7219" H 2800 5700 60  0000 C CNN
F 2 "Housings_SOIC:SOIC-24W_7.5x15.4mm_Pitch1.27mm" H 2250 4800 40  0001 L CIN
F 3 "https://datasheets.maximintegrated.com/en/ds/MAX7219-MAX7221.pdf" H 2250 4700 40  0001 L CIN
	1    2250 5000
	1    0    0    -1  
$EndComp
Text Label 3450 3900 0    60   ~ 0
X0
Text Label 2150 4600 2    60   ~ 0
Y0
Wire Wire Line
	2950 3150 2950 3600
$Comp
L +5V #PWR?
U 1 1 5A926BE3
P 2950 3150
F 0 "#PWR?" H 2950 3000 50  0001 C CNN
F 1 "+5V" H 2950 3290 50  0000 C CNN
F 2 "" H 2950 3150 50  0001 C CNN
F 3 "" H 2950 3150 50  0001 C CNN
	1    2950 3150
	1    0    0    -1  
$EndComp
Text Label 3450 4000 0    60   ~ 0
X7
Text Label 3450 4100 0    60   ~ 0
X6
Text Label 3450 4200 0    60   ~ 0
X5
Text Label 3450 4300 0    60   ~ 0
X4
Text Label 3450 4400 0    60   ~ 0
X3
Text Label 3450 4500 0    60   ~ 0
X2
Text Label 3450 4600 0    60   ~ 0
X1
Text Label 2150 4500 2    60   ~ 0
Y1
Text Label 2150 4400 2    60   ~ 0
Y2
Text Label 2150 4300 2    60   ~ 0
Y3
Text Label 2150 4200 2    60   ~ 0
Y4
Text Label 2150 4100 2    60   ~ 0
Y5
Text Label 2150 4000 2    60   ~ 0
Y6
Text Label 2150 3900 2    60   ~ 0
Y7
Text Label 5800 2650 2    60   ~ 0
X0
Text Label 5750 3600 2    60   ~ 0
X1
Text Label 5800 4500 2    60   ~ 0
X2
Text Label 5750 5500 2    60   ~ 0
X3
Text Label 5800 6400 2    60   ~ 0
X4
Text Label 5750 7350 2    60   ~ 0
X5
Text Label 5800 8250 2    60   ~ 0
X6
Text Label 5750 9250 2    60   ~ 0
X7
Text Label 7450 1100 0    60   ~ 0
Y0
Text Label 7550 1200 0    60   ~ 0
Y1
Text Label 7650 1300 0    60   ~ 0
Y2
Text Label 8900 1100 0    60   ~ 0
Y3
Text Label 9000 1200 0    60   ~ 0
Y4
Text Label 9100 1300 0    60   ~ 0
Y5
Text Label 9950 1350 0    60   ~ 0
Y6
Text Label 10900 1350 0    60   ~ 0
Y7
Text Label 2150 4800 2    60   ~ 0
LED_DIN
Text Label 2550 5100 3    60   ~ 0
LED_CLK
Text Label 2650 5100 3    60   ~ 0
LED_CS
Wire Wire Line
	2950 5100 2950 5250
Wire Wire Line
	2950 5250 3050 5250
Wire Wire Line
	3050 5250 3050 5100
Wire Wire Line
	3000 5250 3000 5600
Connection ~ 3000 5250
$Comp
L GND #PWR?
U 1 1 5A926C0F
P 3000 5600
F 0 "#PWR?" H 3000 5350 50  0001 C CNN
F 1 "GND" H 3000 5450 50  0000 C CNN
F 2 "" H 3000 5600 50  0000 C CNN
F 3 "" H 3000 5600 50  0000 C CNN
	1    3000 5600
	1    0    0    -1  
$EndComp
Wire Wire Line
	2550 3600 2550 3400
Wire Wire Line
	2550 3400 2650 3400
$Comp
L R R?
U 1 1 5A926C17
P 2750 3400
F 0 "R?" V 2650 3350 50  0000 C CNN
F 1 "10K" V 2750 3400 50  0000 C CNN
F 2 "Resistors_SMD:R_1206" V 2680 3400 50  0001 C CNN
F 3 "" H 2750 3400 50  0000 C CNN
	1    2750 3400
	0    1    1    0   
$EndComp
Wire Wire Line
	2850 3400 4000 3400
Connection ~ 2950 3400
Wire Wire Line
	4000 3400 4000 3600
$Comp
L C C?
U 1 1 5A926C21
P 4000 3700
F 0 "C?" H 4010 3770 50  0000 L CNN
F 1 "0.1uF" H 4010 3620 50  0000 L CNN
F 2 "Resistors_SMD:R_0805" H 4000 3700 50  0001 C CNN
F 3 "" H 4000 3700 50  0001 C CNN
	1    4000 3700
	-1   0    0    -1  
$EndComp
Wire Wire Line
	4000 3800 4000 4150
$Comp
L GND #PWR?
U 1 1 5A926C29
P 4000 4150
F 0 "#PWR?" H 4000 3900 50  0001 C CNN
F 1 "GND" H 4000 4000 50  0000 C CNN
F 2 "" H 4000 4150 50  0000 C CNN
F 3 "" H 4000 4150 50  0000 C CNN
	1    4000 4150
	1    0    0    -1  
$EndComp
$EndSCHEMATC
