EESchema Schematic File Version 2
LIBS:maxim
LIBS:afshar
LIBS:chordboard-components
LIBS:power
LIBS:device
LIBS:transistors
LIBS:conn
LIBS:linear
LIBS:regul
LIBS:74xx
LIBS:cmos4000
LIBS:adc-dac
LIBS:memory
LIBS:xilinx
LIBS:microcontrollers
LIBS:dsp
LIBS:microchip
LIBS:analog_switches
LIBS:motorola
LIBS:texas
LIBS:intel
LIBS:audio
LIBS:interface
LIBS:digital-audio
LIBS:philips
LIBS:display
LIBS:cypress
LIBS:siliconi
LIBS:opto
LIBS:atmel
LIBS:contrib
LIBS:valves
LIBS:switches
LIBS:standard
LIBS:mechanical
LIBS:led
LIBS:akn_maxim
LIBS:keypad7x2-cache
EELAYER 25 0
EELAYER END
$Descr A1 33110 23386
encoding utf-8
Sheet 1 1
Title ""
Date ""
Rev ""
Comp ""
Comment1 ""
Comment2 ""
Comment3 ""
Comment4 ""
$EndDescr
$Comp
L Mounting_Hole MK1
U 1 1 5A6D2DB1
P 16650 11800
F 0 "MK1" H 16650 12000 50  0000 C CNN
F 1 "Mounting_Hole" H 16650 11925 50  0000 C CNN
F 2 "chordboard-footprints:Mounting_Hole" H 16650 11800 50  0001 C CNN
F 3 "" H 16650 11800 50  0001 C CNN
	1    16650 11800
	1    0    0    -1  
$EndComp
$Comp
L Mounting_Hole MK3
U 1 1 5A6D2DE4
P 16850 11800
F 0 "MK3" H 16850 12000 50  0000 C CNN
F 1 "Mounting_Hole" H 16850 11925 50  0000 C CNN
F 2 "chordboard-footprints:Mounting_Hole" H 16850 11800 50  0001 C CNN
F 3 "" H 16850 11800 50  0001 C CNN
	1    16850 11800
	1    0    0    -1  
$EndComp
$Comp
L Mounting_Hole MK5
U 1 1 5A6D2E0D
P 17050 11800
F 0 "MK5" H 17050 12000 50  0000 C CNN
F 1 "Mounting_Hole" H 17050 11925 50  0000 C CNN
F 2 "chordboard-footprints:Mounting_Hole" H 17050 11800 50  0001 C CNN
F 3 "" H 17050 11800 50  0001 C CNN
	1    17050 11800
	1    0    0    -1  
$EndComp
$Comp
L Mounting_Hole MK7
U 1 1 5A6D2E39
P 17250 11800
F 0 "MK7" H 17250 12000 50  0000 C CNN
F 1 "Mounting_Hole" H 17250 11925 50  0000 C CNN
F 2 "chordboard-footprints:Mounting_Hole" H 17250 11800 50  0001 C CNN
F 3 "" H 17250 11800 50  0001 C CNN
	1    17250 11800
	1    0    0    -1  
$EndComp
$Comp
L +3.3V #PWR01
U 1 1 5A791E14
P 18100 11650
F 0 "#PWR01" H 18100 11500 50  0001 C CNN
F 1 "+3.3V" H 18100 11790 50  0000 C CNN
F 2 "" H 18100 11650 50  0000 C CNN
F 3 "" H 18100 11650 50  0000 C CNN
	1    18100 11650
	1    0    0    -1  
$EndComp
$Comp
L GND #PWR02
U 1 1 5A791E1A
P 19050 12200
F 0 "#PWR02" H 19050 11950 50  0001 C CNN
F 1 "GND" H 19050 12050 50  0000 C CNN
F 2 "" H 19050 12200 50  0001 C CNN
F 3 "" H 19050 12200 50  0001 C CNN
	1    19050 12200
	-1   0    0    -1  
$EndComp
$Comp
L GND #PWR03
U 1 1 5A791E20
P 18100 15050
F 0 "#PWR03" H 18100 14800 50  0001 C CNN
F 1 "GND" H 18100 14900 50  0000 C CNN
F 2 "" H 18100 15050 50  0001 C CNN
F 3 "" H 18100 15050 50  0001 C CNN
	1    18100 15050
	-1   0    0    -1  
$EndComp
$Comp
L MCP23017 U4
U 1 1 5A791E64
P 18100 13350
F 0 "U4" H 18000 14375 50  0000 R CNN
F 1 "MCP23017" H 18000 14300 50  0000 R CNN
F 2 "Housings_SOIC:SOIC-28W_7.5x17.9mm_Pitch1.27mm" H 18150 12400 50  0001 L CNN
F 3 "" H 18350 14350 50  0001 C CNN
	1    18100 13350
	1    0    0    -1  
$EndComp
$Comp
L KSW K1
U 1 1 5A791E6B
P 17400 12550
F 0 "K1" H 17300 12600 60  0000 C CNN
F 1 "KSW" H 17550 12600 60  0000 C CNN
F 2 "chordboard-footprints:CHERRY_PCB_100H" H 17400 12550 60  0001 C CNN
F 3 "" H 17400 12550 60  0001 C CNN
	1    17400 12550
	-1   0    0    -1  
$EndComp
$Comp
L KSW K2
U 1 1 5A791E72
P 17400 12650
F 0 "K2" H 17300 12700 60  0000 C CNN
F 1 "KSW" H 17550 12700 60  0000 C CNN
F 2 "chordboard-footprints:CHERRY_PCB_100H" H 18350 12700 60  0001 C CNN
F 3 "" H 17400 12650 60  0001 C CNN
	1    17400 12650
	-1   0    0    -1  
$EndComp
$Comp
L KSW K3
U 1 1 5A791E79
P 17400 12750
F 0 "K3" H 17300 12800 60  0000 C CNN
F 1 "KSW" H 17550 12800 60  0000 C CNN
F 2 "chordboard-footprints:CHERRY_PCB_100H" H 18350 12800 60  0001 C CNN
F 3 "" H 17400 12750 60  0001 C CNN
	1    17400 12750
	-1   0    0    -1  
$EndComp
$Comp
L KSW K4
U 1 1 5A791E80
P 17400 12850
F 0 "K4" H 17300 12900 60  0000 C CNN
F 1 "KSW" H 17550 12900 60  0000 C CNN
F 2 "chordboard-footprints:CHERRY_PCB_100H" H 18350 12900 60  0001 C CNN
F 3 "" H 17400 12850 60  0001 C CNN
	1    17400 12850
	-1   0    0    -1  
$EndComp
$Comp
L C C7
U 1 1 5A791E87
P 19050 12000
F 0 "C7" H 19060 12070 50  0000 L CNN
F 1 "0.1uF" H 19060 11920 50  0000 L CNN
F 2 "Capacitors_SMD:C_0805_HandSoldering" H 19050 12000 50  0001 C CNN
F 3 "" H 19050 12000 50  0001 C CNN
	1    19050 12000
	-1   0    0    -1  
$EndComp
$Comp
L KSW K5
U 1 1 5A791E8E
P 17400 12950
F 0 "K5" H 17300 13000 60  0000 C CNN
F 1 "KSW" H 17550 13000 60  0000 C CNN
F 2 "chordboard-footprints:CHERRY_PCB_100H" H 18350 13000 60  0001 C CNN
F 3 "" H 17400 12950 60  0001 C CNN
	1    17400 12950
	-1   0    0    -1  
$EndComp
$Comp
L KSW K6
U 1 1 5A791E95
P 17400 13050
F 0 "K6" H 17300 13100 60  0000 C CNN
F 1 "KSW" H 17550 13100 60  0000 C CNN
F 2 "chordboard-footprints:CHERRY_PCB_100H" H 18350 13100 60  0001 C CNN
F 3 "" H 17400 13050 60  0001 C CNN
	1    17400 13050
	-1   0    0    -1  
$EndComp
$Comp
L KSW K7
U 1 1 5A791E9C
P 17400 13150
F 0 "K7" H 17300 13200 60  0000 C CNN
F 1 "KSW" H 17550 13200 60  0000 C CNN
F 2 "chordboard-footprints:CHERRY_PCB_100H" H 18350 13200 60  0001 C CNN
F 3 "" H 17400 13150 60  0001 C CNN
	1    17400 13150
	-1   0    0    -1  
$EndComp
$Comp
L KSW K9
U 1 1 5A791EA3
P 17400 13450
F 0 "K9" H 17300 13500 60  0000 C CNN
F 1 "KSW" H 17550 13500 60  0000 C CNN
F 2 "chordboard-footprints:CHERRY_PCB_100H" H 18350 13500 60  0001 C CNN
F 3 "" H 17400 13450 60  0001 C CNN
	1    17400 13450
	-1   0    0    -1  
$EndComp
$Comp
L KSW K10
U 1 1 5A791EAA
P 17400 13550
F 0 "K10" H 17300 13600 60  0000 C CNN
F 1 "KSW" H 17550 13600 60  0000 C CNN
F 2 "chordboard-footprints:CHERRY_PCB_100H" H 18350 13600 60  0001 C CNN
F 3 "" H 17400 13550 60  0001 C CNN
	1    17400 13550
	-1   0    0    -1  
$EndComp
$Comp
L KSW K11
U 1 1 5A791EB1
P 17400 13650
F 0 "K11" H 17300 13700 60  0000 C CNN
F 1 "KSW" H 17550 13700 60  0000 C CNN
F 2 "chordboard-footprints:CHERRY_PCB_100H" H 18350 13700 60  0001 C CNN
F 3 "" H 17400 13650 60  0001 C CNN
	1    17400 13650
	-1   0    0    -1  
$EndComp
$Comp
L KSW K12
U 1 1 5A791EB8
P 17400 13750
F 0 "K12" H 17300 13800 60  0000 C CNN
F 1 "KSW" H 17550 13800 60  0000 C CNN
F 2 "chordboard-footprints:CHERRY_PCB_100H" H 18350 13800 60  0001 C CNN
F 3 "" H 17400 13750 60  0001 C CNN
	1    17400 13750
	-1   0    0    -1  
$EndComp
$Comp
L KSW K13
U 1 1 5A791EBF
P 17400 13850
F 0 "K13" H 17300 13900 60  0000 C CNN
F 1 "KSW" H 17550 13900 60  0000 C CNN
F 2 "chordboard-footprints:CHERRY_PCB_100H" H 18350 13900 60  0001 C CNN
F 3 "" H 17400 13850 60  0001 C CNN
	1    17400 13850
	-1   0    0    -1  
$EndComp
$Comp
L KSW K14
U 1 1 5A791EC6
P 17400 13950
F 0 "K14" H 17300 14000 60  0000 C CNN
F 1 "KSW" H 17550 14000 60  0000 C CNN
F 2 "chordboard-footprints:CHERRY_PCB_100H" H 18350 14000 60  0001 C CNN
F 3 "" H 17400 13950 60  0001 C CNN
	1    17400 13950
	-1   0    0    -1  
$EndComp
$Comp
L KSW K8
U 1 1 5A791ECE
P 17400 13250
F 0 "K8" H 17300 13300 60  0000 C CNN
F 1 "KSW" H 17550 13300 60  0000 C CNN
F 2 "chordboard-footprints:CHERRY_PCB_100H" H 18350 13300 60  0001 C CNN
F 3 "" H 17400 13250 60  0001 C CNN
	1    17400 13250
	-1   0    0    -1  
$EndComp
$Comp
L KSW K15
U 1 1 5A791EDC
P 17400 14050
F 0 "K15" H 17300 14100 60  0000 C CNN
F 1 "KSW" H 17550 14100 60  0000 C CNN
F 2 "chordboard-footprints:CHERRY_PCB_100H" H 18350 14100 60  0001 C CNN
F 3 "" H 17400 14050 60  0001 C CNN
	1    17400 14050
	-1   0    0    -1  
$EndComp
$Comp
L KSW K16
U 1 1 5A791EE3
P 17400 14150
F 0 "K16" H 17300 14200 60  0000 C CNN
F 1 "KSW" H 17550 14200 60  0000 C CNN
F 2 "chordboard-footprints:CHERRY_PCB_100H" H 18350 14200 60  0001 C CNN
F 3 "" H 17400 14150 60  0001 C CNN
	1    17400 14150
	-1   0    0    -1  
$EndComp
$Comp
L GND #PWR04
U 1 1 5A7A0D89
P 18800 14400
F 0 "#PWR04" H 18800 14150 50  0001 C CNN
F 1 "GND" H 18800 14250 50  0000 C CNN
F 2 "" H 18800 14400 50  0001 C CNN
F 3 "" H 18800 14400 50  0001 C CNN
	1    18800 14400
	-1   0    0    -1  
$EndComp
Text Label 18800 13750 0    60   ~ 0
SDA
Text Label 18800 13650 0    60   ~ 0
SCL
Wire Wire Line
	18600 13750 19500 13750
Wire Wire Line
	18600 13650 19500 13650
Wire Wire Line
	18100 14350 18100 15050
Wire Wire Line
	18700 11750 18700 12550
Wire Wire Line
	18700 12550 18600 12550
Wire Wire Line
	18100 11650 18100 12350
Connection ~ 17200 13950
Connection ~ 17200 13850
Connection ~ 17200 13750
Connection ~ 17200 13650
Connection ~ 17200 13550
Connection ~ 17200 13450
Connection ~ 17200 13250
Connection ~ 17200 13150
Connection ~ 17200 13050
Connection ~ 17200 12950
Connection ~ 17200 12850
Connection ~ 17200 12750
Connection ~ 17200 12650
Wire Wire Line
	17200 12550 17200 14400
Connection ~ 18100 11750
Wire Wire Line
	17200 14400 18100 14400
Connection ~ 18100 14400
Wire Wire Line
	19050 11750 19050 11900
Wire Wire Line
	19050 12100 19050 12200
Wire Wire Line
	17600 12550 17550 12550
Wire Wire Line
	17250 12550 17200 12550
Wire Wire Line
	17600 12650 17550 12650
Wire Wire Line
	17250 12650 17200 12650
Wire Wire Line
	17600 12750 17550 12750
Wire Wire Line
	17600 12850 17550 12850
Wire Wire Line
	17250 12750 17200 12750
Wire Wire Line
	17250 12850 17200 12850
Wire Wire Line
	17600 12950 17550 12950
Wire Wire Line
	17250 12950 17200 12950
Wire Wire Line
	17600 13050 17550 13050
Wire Wire Line
	17250 13050 17200 13050
Wire Wire Line
	17600 13150 17550 13150
Wire Wire Line
	17600 13250 17550 13250
Wire Wire Line
	17250 13150 17200 13150
Wire Wire Line
	17250 13250 17200 13250
Wire Wire Line
	17600 13450 17550 13450
Wire Wire Line
	17250 13450 17200 13450
Wire Wire Line
	17600 13550 17550 13550
Wire Wire Line
	17250 13550 17200 13550
Wire Wire Line
	17600 13650 17550 13650
Wire Wire Line
	17600 13750 17550 13750
Wire Wire Line
	17250 13650 17200 13650
Wire Wire Line
	17250 13750 17200 13750
Wire Wire Line
	17600 13850 17550 13850
Wire Wire Line
	17250 13850 17200 13850
Wire Wire Line
	17600 13950 17550 13950
Wire Wire Line
	17250 13950 17200 13950
Wire Wire Line
	17600 14050 17550 14050
Wire Wire Line
	17600 14150 17550 14150
Connection ~ 18700 11750
Wire Wire Line
	18600 14050 18800 14050
Wire Wire Line
	18800 14150 18600 14150
Wire Wire Line
	18100 11750 19050 11750
Wire Wire Line
	17250 14050 17200 14050
Connection ~ 17200 14050
Wire Wire Line
	17250 14150 17200 14150
Connection ~ 17200 14150
Wire Wire Line
	18800 13950 18800 14400
Connection ~ 18800 14150
Wire Wire Line
	18600 13950 18800 13950
Connection ~ 18800 14050
$Comp
L GROVE_I2C J1
U 1 1 5A816C45
P 19700 13800
F 0 "J1" H 19700 14050 50  0000 C CNN
F 1 "GROVE_I2C" V 19950 13800 50  0000 C CNN
F 2 "chordboard-footprints:GROVE_I2C" H 19700 13800 50  0001 C CNN
F 3 "" H 19700 13800 50  0001 C CNN
	1    19700 13800
	1    0    0    -1  
$EndComp
Wire Wire Line
	19500 13950 19500 14400
$Comp
L GND #PWR05
U 1 1 5A816DB1
P 19500 14400
F 0 "#PWR05" H 19500 14150 50  0001 C CNN
F 1 "GND" H 19500 14250 50  0000 C CNN
F 2 "" H 19500 14400 50  0001 C CNN
F 3 "" H 19500 14400 50  0001 C CNN
	1    19500 14400
	-1   0    0    -1  
$EndComp
$Comp
L +3.3V #PWR06
U 1 1 5A816E5E
P 19500 13250
F 0 "#PWR06" H 19500 13100 50  0001 C CNN
F 1 "+3.3V" H 19500 13390 50  0000 C CNN
F 2 "" H 19500 13250 50  0000 C CNN
F 3 "" H 19500 13250 50  0000 C CNN
	1    19500 13250
	1    0    0    -1  
$EndComp
Wire Wire Line
	19500 13850 19500 13250
$EndSCHEMATC
