G04 #@! TF.GenerationSoftware,KiCad,Pcbnew,5.0.0+dfsg1-2~bpo9+1*
G04 #@! TF.CreationDate,2018-12-03T09:47:35+00:00*
G04 #@! TF.ProjectId,chordboard,63686F7264626F6172642E6B69636164,rev?*
G04 #@! TF.SameCoordinates,Original*
G04 #@! TF.FileFunction,Soldermask,Top*
G04 #@! TF.FilePolarity,Negative*
%FSLAX46Y46*%
G04 Gerber Fmt 4.6, Leading zero omitted, Abs format (unit mm)*
G04 Created by KiCad (PCBNEW 5.0.0+dfsg1-2~bpo9+1) date Mon Dec  3 09:47:35 2018*
%MOMM*%
%LPD*%
G01*
G04 APERTURE LIST*
%ADD10C,1.924000*%
%ADD11R,2.200000X2.200000*%
%ADD12C,2.200000*%
%ADD13R,2.800000X2.800000*%
%ADD14C,2.800000*%
%ADD15C,1.800000*%
%ADD16O,1.800000X1.800000*%
%ADD17O,2.150000X1.600000*%
%ADD18C,0.100000*%
%ADD19C,1.600000*%
%ADD20C,2.500000*%
%ADD21C,2.150000*%
%ADD22C,2.000000*%
%ADD23R,2.000000X2.000000*%
%ADD24C,1.200000*%
%ADD25C,6.800000*%
%ADD26R,2.600000X2.600000*%
%ADD27O,2.600000X2.600000*%
%ADD28R,2.100000X2.100000*%
%ADD29O,2.100000X2.100000*%
%ADD30C,1.900000*%
%ADD31C,3.400000*%
%ADD32C,0.500000*%
G04 APERTURE END LIST*
D10*
G04 #@! TO.C,esp1*
X55880000Y299720000D03*
X53340000Y299720000D03*
X50800000Y299720000D03*
X48260000Y299720000D03*
X45720000Y299720000D03*
X43180000Y299720000D03*
X40640000Y299720000D03*
X38100000Y299720000D03*
X35560000Y299720000D03*
X33020000Y299720000D03*
X30480000Y299720000D03*
X27940000Y299720000D03*
X25400000Y299720000D03*
X22860000Y299720000D03*
X20320000Y299720000D03*
X17780000Y299720000D03*
X15240000Y299720000D03*
X15240000Y322580000D03*
X17780000Y322580000D03*
X20320000Y322580000D03*
X22860000Y322580000D03*
X25400000Y322580000D03*
X27940000Y322580000D03*
X30480000Y322580000D03*
X33020000Y322580000D03*
X35560000Y322580000D03*
X38100000Y322580000D03*
X40640000Y322580000D03*
X43180000Y322580000D03*
X45720000Y322580000D03*
X48260000Y322580000D03*
X50800000Y322580000D03*
X55880000Y322580000D03*
X53340000Y322580000D03*
G04 #@! TD*
D11*
G04 #@! TO.C,D1*
X60960000Y240030000D03*
D12*
X58420000Y240030000D03*
G04 #@! TD*
D13*
G04 #@! TO.C,J1*
X66040000Y246380000D03*
D14*
X66040000Y249880000D03*
G04 #@! TD*
D15*
G04 #@! TO.C,R1*
X58420000Y243840000D03*
D16*
X58420000Y251460000D03*
G04 #@! TD*
D17*
G04 #@! TO.C,J5*
X68580000Y284830000D03*
X68580000Y286830000D03*
X68580000Y288830000D03*
D18*
G36*
X69354340Y291628395D02*
X69386698Y291623595D01*
X69418429Y291615647D01*
X69449229Y291604627D01*
X69478800Y291590641D01*
X69506857Y291573823D01*
X69533132Y291554337D01*
X69557369Y291532369D01*
X69579337Y291508132D01*
X69598823Y291481857D01*
X69615641Y291453800D01*
X69629627Y291424229D01*
X69640647Y291393429D01*
X69648595Y291361698D01*
X69653395Y291329340D01*
X69655000Y291296668D01*
X69655000Y290363332D01*
X69653395Y290330660D01*
X69648595Y290298302D01*
X69640647Y290266571D01*
X69629627Y290235771D01*
X69615641Y290206200D01*
X69598823Y290178143D01*
X69579337Y290151868D01*
X69557369Y290127631D01*
X69533132Y290105663D01*
X69506857Y290086177D01*
X69478800Y290069359D01*
X69449229Y290055373D01*
X69418429Y290044353D01*
X69386698Y290036405D01*
X69354340Y290031605D01*
X69321668Y290030000D01*
X67838332Y290030000D01*
X67805660Y290031605D01*
X67773302Y290036405D01*
X67741571Y290044353D01*
X67710771Y290055373D01*
X67681200Y290069359D01*
X67653143Y290086177D01*
X67626868Y290105663D01*
X67602631Y290127631D01*
X67580663Y290151868D01*
X67561177Y290178143D01*
X67544359Y290206200D01*
X67530373Y290235771D01*
X67519353Y290266571D01*
X67511405Y290298302D01*
X67506605Y290330660D01*
X67505000Y290363332D01*
X67505000Y291296668D01*
X67506605Y291329340D01*
X67511405Y291361698D01*
X67519353Y291393429D01*
X67530373Y291424229D01*
X67544359Y291453800D01*
X67561177Y291481857D01*
X67580663Y291508132D01*
X67602631Y291532369D01*
X67626868Y291554337D01*
X67653143Y291573823D01*
X67681200Y291590641D01*
X67710771Y291604627D01*
X67741571Y291615647D01*
X67773302Y291623595D01*
X67805660Y291628395D01*
X67838332Y291630000D01*
X69321668Y291630000D01*
X69354340Y291628395D01*
X69354340Y291628395D01*
G37*
D19*
X68580000Y290830000D03*
G04 #@! TD*
D18*
G04 #@! TO.C,J6*
G36*
X56654340Y291628395D02*
X56686698Y291623595D01*
X56718429Y291615647D01*
X56749229Y291604627D01*
X56778800Y291590641D01*
X56806857Y291573823D01*
X56833132Y291554337D01*
X56857369Y291532369D01*
X56879337Y291508132D01*
X56898823Y291481857D01*
X56915641Y291453800D01*
X56929627Y291424229D01*
X56940647Y291393429D01*
X56948595Y291361698D01*
X56953395Y291329340D01*
X56955000Y291296668D01*
X56955000Y290363332D01*
X56953395Y290330660D01*
X56948595Y290298302D01*
X56940647Y290266571D01*
X56929627Y290235771D01*
X56915641Y290206200D01*
X56898823Y290178143D01*
X56879337Y290151868D01*
X56857369Y290127631D01*
X56833132Y290105663D01*
X56806857Y290086177D01*
X56778800Y290069359D01*
X56749229Y290055373D01*
X56718429Y290044353D01*
X56686698Y290036405D01*
X56654340Y290031605D01*
X56621668Y290030000D01*
X55138332Y290030000D01*
X55105660Y290031605D01*
X55073302Y290036405D01*
X55041571Y290044353D01*
X55010771Y290055373D01*
X54981200Y290069359D01*
X54953143Y290086177D01*
X54926868Y290105663D01*
X54902631Y290127631D01*
X54880663Y290151868D01*
X54861177Y290178143D01*
X54844359Y290206200D01*
X54830373Y290235771D01*
X54819353Y290266571D01*
X54811405Y290298302D01*
X54806605Y290330660D01*
X54805000Y290363332D01*
X54805000Y291296668D01*
X54806605Y291329340D01*
X54811405Y291361698D01*
X54819353Y291393429D01*
X54830373Y291424229D01*
X54844359Y291453800D01*
X54861177Y291481857D01*
X54880663Y291508132D01*
X54902631Y291532369D01*
X54926868Y291554337D01*
X54953143Y291573823D01*
X54981200Y291590641D01*
X55010771Y291604627D01*
X55041571Y291615647D01*
X55073302Y291623595D01*
X55105660Y291628395D01*
X55138332Y291630000D01*
X56621668Y291630000D01*
X56654340Y291628395D01*
X56654340Y291628395D01*
G37*
D19*
X55880000Y290830000D03*
D17*
X55880000Y288830000D03*
X55880000Y286830000D03*
X55880000Y284830000D03*
G04 #@! TD*
D18*
G04 #@! TO.C,J3*
G36*
X63004340Y291628395D02*
X63036698Y291623595D01*
X63068429Y291615647D01*
X63099229Y291604627D01*
X63128800Y291590641D01*
X63156857Y291573823D01*
X63183132Y291554337D01*
X63207369Y291532369D01*
X63229337Y291508132D01*
X63248823Y291481857D01*
X63265641Y291453800D01*
X63279627Y291424229D01*
X63290647Y291393429D01*
X63298595Y291361698D01*
X63303395Y291329340D01*
X63305000Y291296668D01*
X63305000Y290363332D01*
X63303395Y290330660D01*
X63298595Y290298302D01*
X63290647Y290266571D01*
X63279627Y290235771D01*
X63265641Y290206200D01*
X63248823Y290178143D01*
X63229337Y290151868D01*
X63207369Y290127631D01*
X63183132Y290105663D01*
X63156857Y290086177D01*
X63128800Y290069359D01*
X63099229Y290055373D01*
X63068429Y290044353D01*
X63036698Y290036405D01*
X63004340Y290031605D01*
X62971668Y290030000D01*
X61488332Y290030000D01*
X61455660Y290031605D01*
X61423302Y290036405D01*
X61391571Y290044353D01*
X61360771Y290055373D01*
X61331200Y290069359D01*
X61303143Y290086177D01*
X61276868Y290105663D01*
X61252631Y290127631D01*
X61230663Y290151868D01*
X61211177Y290178143D01*
X61194359Y290206200D01*
X61180373Y290235771D01*
X61169353Y290266571D01*
X61161405Y290298302D01*
X61156605Y290330660D01*
X61155000Y290363332D01*
X61155000Y291296668D01*
X61156605Y291329340D01*
X61161405Y291361698D01*
X61169353Y291393429D01*
X61180373Y291424229D01*
X61194359Y291453800D01*
X61211177Y291481857D01*
X61230663Y291508132D01*
X61252631Y291532369D01*
X61276868Y291554337D01*
X61303143Y291573823D01*
X61331200Y291590641D01*
X61360771Y291604627D01*
X61391571Y291615647D01*
X61423302Y291623595D01*
X61455660Y291628395D01*
X61488332Y291630000D01*
X62971668Y291630000D01*
X63004340Y291628395D01*
X63004340Y291628395D01*
G37*
D19*
X62230000Y290830000D03*
D17*
X62230000Y288830000D03*
X62230000Y286830000D03*
X62230000Y284830000D03*
G04 #@! TD*
D20*
G04 #@! TO.C,SW1*
X66090000Y268560000D03*
D21*
X68580000Y269820000D03*
X68580000Y274320000D03*
D20*
X66090000Y275570000D03*
G04 #@! TD*
D22*
G04 #@! TO.C,U1*
X38100000Y259080000D03*
X40640000Y259080000D03*
X43180000Y259080000D03*
X45720000Y259080000D03*
X35560000Y259080000D03*
X33020000Y259080000D03*
X30480000Y259080000D03*
X48260000Y259080000D03*
X50800000Y259080000D03*
X53340000Y259080000D03*
X55880000Y259080000D03*
X43180000Y261620000D03*
X43180000Y264160000D03*
X43180000Y266700000D03*
X43180000Y269240000D03*
X43180000Y271780000D03*
X55880000Y274320000D03*
X53340000Y274320000D03*
X50800000Y274320000D03*
X48260000Y274320000D03*
X45720000Y274320000D03*
X43180000Y274320000D03*
X40640000Y274320000D03*
X38100000Y274320000D03*
X27940000Y259080000D03*
X25400000Y259080000D03*
X22860000Y259080000D03*
X20320000Y259080000D03*
X17780000Y259080000D03*
X15240000Y259080000D03*
X12700000Y259080000D03*
X10160000Y259080000D03*
X7620000Y259080000D03*
X5080000Y259080000D03*
X2540000Y259080000D03*
X0Y259080000D03*
D23*
X-2540000Y259080000D03*
D22*
X35560000Y274320000D03*
X33020000Y274320000D03*
X30480000Y274320000D03*
X27940000Y274320000D03*
X25400000Y274320000D03*
X22860000Y274320000D03*
X20320000Y274320000D03*
X17780000Y274320000D03*
X15240000Y274320000D03*
X12700000Y274320000D03*
X10160000Y274320000D03*
X7620000Y274320000D03*
X5080000Y274320000D03*
X2540000Y274320000D03*
X0Y274320000D03*
X-2540000Y274320000D03*
X0Y271780000D03*
X3810000Y262080000D03*
X6350000Y262080000D03*
X8890000Y262080000D03*
X11430000Y262080000D03*
X13970000Y262080000D03*
G04 #@! TD*
D24*
G04 #@! TO.C,H5*
X1697056Y237917056D03*
X0Y238620000D03*
X-1697056Y237917056D03*
X-2400000Y236220000D03*
X-1697056Y234522944D03*
X0Y233820000D03*
X1697056Y234522944D03*
X2400000Y236220000D03*
D25*
X0Y236220000D03*
G04 #@! TD*
G04 #@! TO.C,H6*
X66040000Y330200000D03*
D24*
X68440000Y330200000D03*
X67737056Y328502944D03*
X66040000Y327800000D03*
X64342944Y328502944D03*
X63640000Y330200000D03*
X64342944Y331897056D03*
X66040000Y332600000D03*
X67737056Y331897056D03*
G04 #@! TD*
G04 #@! TO.C,H7*
X1697056Y331897056D03*
X0Y332600000D03*
X-1697056Y331897056D03*
X-2400000Y330200000D03*
X-1697056Y328502944D03*
X0Y327800000D03*
X1697056Y328502944D03*
X2400000Y330200000D03*
D25*
X0Y330200000D03*
G04 #@! TD*
G04 #@! TO.C,H8*
X66040000Y236220000D03*
D24*
X68440000Y236220000D03*
X67737056Y234522944D03*
X66040000Y233820000D03*
X64342944Y234522944D03*
X63640000Y236220000D03*
X64342944Y237917056D03*
X66040000Y238620000D03*
X67737056Y237917056D03*
G04 #@! TD*
D26*
G04 #@! TO.C,D2*
X67310000Y264160000D03*
D27*
X67310000Y256540000D03*
G04 #@! TD*
G04 #@! TO.C,D3*
X63500000Y256540000D03*
D26*
X63500000Y264160000D03*
G04 #@! TD*
D28*
G04 #@! TO.C,J2*
X7620000Y332740000D03*
D29*
X10160000Y332740000D03*
X12700000Y332740000D03*
X15240000Y332740000D03*
X17780000Y332740000D03*
X20320000Y332740000D03*
X22860000Y332740000D03*
X25400000Y332740000D03*
X27940000Y332740000D03*
X30480000Y332740000D03*
X33020000Y332740000D03*
X35560000Y332740000D03*
X38100000Y332740000D03*
X40640000Y332740000D03*
X43180000Y332740000D03*
X45720000Y332740000D03*
X48260000Y332740000D03*
X50800000Y332740000D03*
X53340000Y332740000D03*
X55880000Y332740000D03*
G04 #@! TD*
G04 #@! TO.C,J4*
X55880000Y233680000D03*
X53340000Y233680000D03*
X50800000Y233680000D03*
X48260000Y233680000D03*
X45720000Y233680000D03*
X43180000Y233680000D03*
X40640000Y233680000D03*
X38100000Y233680000D03*
X35560000Y233680000D03*
X33020000Y233680000D03*
X30480000Y233680000D03*
X27940000Y233680000D03*
X25400000Y233680000D03*
X22860000Y233680000D03*
X20320000Y233680000D03*
X17780000Y233680000D03*
X15240000Y233680000D03*
X12700000Y233680000D03*
X10160000Y233680000D03*
D28*
X7620000Y233680000D03*
G04 #@! TD*
D18*
G04 #@! TO.C,J9*
G36*
X50304340Y291628395D02*
X50336698Y291623595D01*
X50368429Y291615647D01*
X50399229Y291604627D01*
X50428800Y291590641D01*
X50456857Y291573823D01*
X50483132Y291554337D01*
X50507369Y291532369D01*
X50529337Y291508132D01*
X50548823Y291481857D01*
X50565641Y291453800D01*
X50579627Y291424229D01*
X50590647Y291393429D01*
X50598595Y291361698D01*
X50603395Y291329340D01*
X50605000Y291296668D01*
X50605000Y290363332D01*
X50603395Y290330660D01*
X50598595Y290298302D01*
X50590647Y290266571D01*
X50579627Y290235771D01*
X50565641Y290206200D01*
X50548823Y290178143D01*
X50529337Y290151868D01*
X50507369Y290127631D01*
X50483132Y290105663D01*
X50456857Y290086177D01*
X50428800Y290069359D01*
X50399229Y290055373D01*
X50368429Y290044353D01*
X50336698Y290036405D01*
X50304340Y290031605D01*
X50271668Y290030000D01*
X48788332Y290030000D01*
X48755660Y290031605D01*
X48723302Y290036405D01*
X48691571Y290044353D01*
X48660771Y290055373D01*
X48631200Y290069359D01*
X48603143Y290086177D01*
X48576868Y290105663D01*
X48552631Y290127631D01*
X48530663Y290151868D01*
X48511177Y290178143D01*
X48494359Y290206200D01*
X48480373Y290235771D01*
X48469353Y290266571D01*
X48461405Y290298302D01*
X48456605Y290330660D01*
X48455000Y290363332D01*
X48455000Y291296668D01*
X48456605Y291329340D01*
X48461405Y291361698D01*
X48469353Y291393429D01*
X48480373Y291424229D01*
X48494359Y291453800D01*
X48511177Y291481857D01*
X48530663Y291508132D01*
X48552631Y291532369D01*
X48576868Y291554337D01*
X48603143Y291573823D01*
X48631200Y291590641D01*
X48660771Y291604627D01*
X48691571Y291615647D01*
X48723302Y291623595D01*
X48755660Y291628395D01*
X48788332Y291630000D01*
X50271668Y291630000D01*
X50304340Y291628395D01*
X50304340Y291628395D01*
G37*
D19*
X49530000Y290830000D03*
D17*
X49530000Y288830000D03*
X49530000Y286830000D03*
X49530000Y284830000D03*
G04 #@! TD*
D30*
G04 #@! TO.C,J10*
X7620000Y282450000D03*
X7620000Y284990000D03*
X7620000Y287020000D03*
X7620000Y289560000D03*
D31*
X4950000Y279400000D03*
X4950000Y293120000D03*
G04 #@! TD*
D28*
G04 #@! TO.C,J11*
X13970000Y280670000D03*
D29*
X13970000Y283210000D03*
X13970000Y285750000D03*
X13970000Y288290000D03*
X13970000Y290830000D03*
G04 #@! TD*
D32*
G04 #@! TO.C,JP1*
X33670000Y290830000D03*
D18*
G36*
X33130982Y289883843D02*
X33093463Y289895224D01*
X33058886Y289913706D01*
X33028579Y289938579D01*
X33003706Y289968886D01*
X32985224Y290003463D01*
X32973843Y290040982D01*
X32970000Y290080000D01*
X32970000Y290330000D01*
X32770000Y290330000D01*
X32730982Y290333843D01*
X32693463Y290345224D01*
X32658886Y290363706D01*
X32628579Y290388579D01*
X32603706Y290418886D01*
X32585224Y290453463D01*
X32573843Y290490982D01*
X32570000Y290530000D01*
X32570000Y291130000D01*
X32573843Y291169018D01*
X32585224Y291206537D01*
X32603706Y291241114D01*
X32628579Y291271421D01*
X32658886Y291296294D01*
X32693463Y291314776D01*
X32730982Y291326157D01*
X32770000Y291330000D01*
X32970000Y291330000D01*
X32970000Y291580000D01*
X32973843Y291619018D01*
X32985224Y291656537D01*
X33003706Y291691114D01*
X33028579Y291721421D01*
X33058886Y291746294D01*
X33093463Y291764776D01*
X33130982Y291776157D01*
X33170000Y291780000D01*
X33670000Y291780000D01*
X33676112Y291779398D01*
X33694534Y291779398D01*
X33714140Y291778435D01*
X33762971Y291773625D01*
X33782380Y291770746D01*
X33830505Y291761174D01*
X33849548Y291756404D01*
X33896503Y291742160D01*
X33914980Y291735549D01*
X33960313Y291716772D01*
X33978061Y291708377D01*
X34021334Y291685246D01*
X34038162Y291675160D01*
X34078961Y291647900D01*
X34094730Y291636205D01*
X34132659Y291605077D01*
X34147200Y291591897D01*
X34181897Y291557200D01*
X34195077Y291542659D01*
X34226205Y291504730D01*
X34237900Y291488961D01*
X34265160Y291448162D01*
X34275246Y291431334D01*
X34298377Y291388061D01*
X34306772Y291370313D01*
X34325549Y291324980D01*
X34332160Y291306503D01*
X34346404Y291259548D01*
X34351174Y291240505D01*
X34360746Y291192380D01*
X34363625Y291172971D01*
X34368435Y291124140D01*
X34369398Y291104534D01*
X34369398Y291086112D01*
X34370000Y291080000D01*
X34370000Y290580000D01*
X34369398Y290573888D01*
X34369398Y290555466D01*
X34368435Y290535860D01*
X34363625Y290487029D01*
X34360746Y290467620D01*
X34351174Y290419495D01*
X34346404Y290400452D01*
X34332160Y290353497D01*
X34325549Y290335020D01*
X34306772Y290289687D01*
X34298377Y290271939D01*
X34275246Y290228666D01*
X34265160Y290211838D01*
X34237900Y290171039D01*
X34226205Y290155270D01*
X34195077Y290117341D01*
X34181897Y290102800D01*
X34147200Y290068103D01*
X34132659Y290054923D01*
X34094730Y290023795D01*
X34078961Y290012100D01*
X34038162Y289984840D01*
X34021334Y289974754D01*
X33978061Y289951623D01*
X33960313Y289943228D01*
X33914980Y289924451D01*
X33896503Y289917840D01*
X33849548Y289903596D01*
X33830505Y289898826D01*
X33782380Y289889254D01*
X33762971Y289886375D01*
X33714140Y289881565D01*
X33694534Y289880602D01*
X33676112Y289880602D01*
X33670000Y289880000D01*
X33170000Y289880000D01*
X33130982Y289883843D01*
X33130982Y289883843D01*
G37*
D32*
X32370000Y290830000D03*
D18*
G36*
X32363888Y289880602D02*
X32345466Y289880602D01*
X32325860Y289881565D01*
X32277029Y289886375D01*
X32257620Y289889254D01*
X32209495Y289898826D01*
X32190452Y289903596D01*
X32143497Y289917840D01*
X32125020Y289924451D01*
X32079687Y289943228D01*
X32061939Y289951623D01*
X32018666Y289974754D01*
X32001838Y289984840D01*
X31961039Y290012100D01*
X31945270Y290023795D01*
X31907341Y290054923D01*
X31892800Y290068103D01*
X31858103Y290102800D01*
X31844923Y290117341D01*
X31813795Y290155270D01*
X31802100Y290171039D01*
X31774840Y290211838D01*
X31764754Y290228666D01*
X31741623Y290271939D01*
X31733228Y290289687D01*
X31714451Y290335020D01*
X31707840Y290353497D01*
X31693596Y290400452D01*
X31688826Y290419495D01*
X31679254Y290467620D01*
X31676375Y290487029D01*
X31671565Y290535860D01*
X31670602Y290555466D01*
X31670602Y290573888D01*
X31670000Y290580000D01*
X31670000Y291080000D01*
X31670602Y291086112D01*
X31670602Y291104534D01*
X31671565Y291124140D01*
X31676375Y291172971D01*
X31679254Y291192380D01*
X31688826Y291240505D01*
X31693596Y291259548D01*
X31707840Y291306503D01*
X31714451Y291324980D01*
X31733228Y291370313D01*
X31741623Y291388061D01*
X31764754Y291431334D01*
X31774840Y291448162D01*
X31802100Y291488961D01*
X31813795Y291504730D01*
X31844923Y291542659D01*
X31858103Y291557200D01*
X31892800Y291591897D01*
X31907341Y291605077D01*
X31945270Y291636205D01*
X31961039Y291647900D01*
X32001838Y291675160D01*
X32018666Y291685246D01*
X32061939Y291708377D01*
X32079687Y291716772D01*
X32125020Y291735549D01*
X32143497Y291742160D01*
X32190452Y291756404D01*
X32209495Y291761174D01*
X32257620Y291770746D01*
X32277029Y291773625D01*
X32325860Y291778435D01*
X32345466Y291779398D01*
X32363888Y291779398D01*
X32370000Y291780000D01*
X32870000Y291780000D01*
X32909018Y291776157D01*
X32946537Y291764776D01*
X32981114Y291746294D01*
X33011421Y291721421D01*
X33036294Y291691114D01*
X33054776Y291656537D01*
X33066157Y291619018D01*
X33070000Y291580000D01*
X33070000Y290080000D01*
X33066157Y290040982D01*
X33054776Y290003463D01*
X33036294Y289968886D01*
X33011421Y289938579D01*
X32981114Y289913706D01*
X32946537Y289895224D01*
X32909018Y289883843D01*
X32870000Y289880000D01*
X32370000Y289880000D01*
X32363888Y289880602D01*
X32363888Y289880602D01*
G37*
G04 #@! TD*
D32*
G04 #@! TO.C,JP2*
X33670000Y287020000D03*
D18*
G36*
X33130982Y286073843D02*
X33093463Y286085224D01*
X33058886Y286103706D01*
X33028579Y286128579D01*
X33003706Y286158886D01*
X32985224Y286193463D01*
X32973843Y286230982D01*
X32970000Y286270000D01*
X32970000Y286520000D01*
X32770000Y286520000D01*
X32730982Y286523843D01*
X32693463Y286535224D01*
X32658886Y286553706D01*
X32628579Y286578579D01*
X32603706Y286608886D01*
X32585224Y286643463D01*
X32573843Y286680982D01*
X32570000Y286720000D01*
X32570000Y287320000D01*
X32573843Y287359018D01*
X32585224Y287396537D01*
X32603706Y287431114D01*
X32628579Y287461421D01*
X32658886Y287486294D01*
X32693463Y287504776D01*
X32730982Y287516157D01*
X32770000Y287520000D01*
X32970000Y287520000D01*
X32970000Y287770000D01*
X32973843Y287809018D01*
X32985224Y287846537D01*
X33003706Y287881114D01*
X33028579Y287911421D01*
X33058886Y287936294D01*
X33093463Y287954776D01*
X33130982Y287966157D01*
X33170000Y287970000D01*
X33670000Y287970000D01*
X33676112Y287969398D01*
X33694534Y287969398D01*
X33714140Y287968435D01*
X33762971Y287963625D01*
X33782380Y287960746D01*
X33830505Y287951174D01*
X33849548Y287946404D01*
X33896503Y287932160D01*
X33914980Y287925549D01*
X33960313Y287906772D01*
X33978061Y287898377D01*
X34021334Y287875246D01*
X34038162Y287865160D01*
X34078961Y287837900D01*
X34094730Y287826205D01*
X34132659Y287795077D01*
X34147200Y287781897D01*
X34181897Y287747200D01*
X34195077Y287732659D01*
X34226205Y287694730D01*
X34237900Y287678961D01*
X34265160Y287638162D01*
X34275246Y287621334D01*
X34298377Y287578061D01*
X34306772Y287560313D01*
X34325549Y287514980D01*
X34332160Y287496503D01*
X34346404Y287449548D01*
X34351174Y287430505D01*
X34360746Y287382380D01*
X34363625Y287362971D01*
X34368435Y287314140D01*
X34369398Y287294534D01*
X34369398Y287276112D01*
X34370000Y287270000D01*
X34370000Y286770000D01*
X34369398Y286763888D01*
X34369398Y286745466D01*
X34368435Y286725860D01*
X34363625Y286677029D01*
X34360746Y286657620D01*
X34351174Y286609495D01*
X34346404Y286590452D01*
X34332160Y286543497D01*
X34325549Y286525020D01*
X34306772Y286479687D01*
X34298377Y286461939D01*
X34275246Y286418666D01*
X34265160Y286401838D01*
X34237900Y286361039D01*
X34226205Y286345270D01*
X34195077Y286307341D01*
X34181897Y286292800D01*
X34147200Y286258103D01*
X34132659Y286244923D01*
X34094730Y286213795D01*
X34078961Y286202100D01*
X34038162Y286174840D01*
X34021334Y286164754D01*
X33978061Y286141623D01*
X33960313Y286133228D01*
X33914980Y286114451D01*
X33896503Y286107840D01*
X33849548Y286093596D01*
X33830505Y286088826D01*
X33782380Y286079254D01*
X33762971Y286076375D01*
X33714140Y286071565D01*
X33694534Y286070602D01*
X33676112Y286070602D01*
X33670000Y286070000D01*
X33170000Y286070000D01*
X33130982Y286073843D01*
X33130982Y286073843D01*
G37*
D32*
X32370000Y287020000D03*
D18*
G36*
X32363888Y286070602D02*
X32345466Y286070602D01*
X32325860Y286071565D01*
X32277029Y286076375D01*
X32257620Y286079254D01*
X32209495Y286088826D01*
X32190452Y286093596D01*
X32143497Y286107840D01*
X32125020Y286114451D01*
X32079687Y286133228D01*
X32061939Y286141623D01*
X32018666Y286164754D01*
X32001838Y286174840D01*
X31961039Y286202100D01*
X31945270Y286213795D01*
X31907341Y286244923D01*
X31892800Y286258103D01*
X31858103Y286292800D01*
X31844923Y286307341D01*
X31813795Y286345270D01*
X31802100Y286361039D01*
X31774840Y286401838D01*
X31764754Y286418666D01*
X31741623Y286461939D01*
X31733228Y286479687D01*
X31714451Y286525020D01*
X31707840Y286543497D01*
X31693596Y286590452D01*
X31688826Y286609495D01*
X31679254Y286657620D01*
X31676375Y286677029D01*
X31671565Y286725860D01*
X31670602Y286745466D01*
X31670602Y286763888D01*
X31670000Y286770000D01*
X31670000Y287270000D01*
X31670602Y287276112D01*
X31670602Y287294534D01*
X31671565Y287314140D01*
X31676375Y287362971D01*
X31679254Y287382380D01*
X31688826Y287430505D01*
X31693596Y287449548D01*
X31707840Y287496503D01*
X31714451Y287514980D01*
X31733228Y287560313D01*
X31741623Y287578061D01*
X31764754Y287621334D01*
X31774840Y287638162D01*
X31802100Y287678961D01*
X31813795Y287694730D01*
X31844923Y287732659D01*
X31858103Y287747200D01*
X31892800Y287781897D01*
X31907341Y287795077D01*
X31945270Y287826205D01*
X31961039Y287837900D01*
X32001838Y287865160D01*
X32018666Y287875246D01*
X32061939Y287898377D01*
X32079687Y287906772D01*
X32125020Y287925549D01*
X32143497Y287932160D01*
X32190452Y287946404D01*
X32209495Y287951174D01*
X32257620Y287960746D01*
X32277029Y287963625D01*
X32325860Y287968435D01*
X32345466Y287969398D01*
X32363888Y287969398D01*
X32370000Y287970000D01*
X32870000Y287970000D01*
X32909018Y287966157D01*
X32946537Y287954776D01*
X32981114Y287936294D01*
X33011421Y287911421D01*
X33036294Y287881114D01*
X33054776Y287846537D01*
X33066157Y287809018D01*
X33070000Y287770000D01*
X33070000Y286270000D01*
X33066157Y286230982D01*
X33054776Y286193463D01*
X33036294Y286158886D01*
X33011421Y286128579D01*
X32981114Y286103706D01*
X32946537Y286085224D01*
X32909018Y286073843D01*
X32870000Y286070000D01*
X32370000Y286070000D01*
X32363888Y286070602D01*
X32363888Y286070602D01*
G37*
G04 #@! TD*
D32*
G04 #@! TO.C,JP3*
X33670000Y283210000D03*
D18*
G36*
X33676112Y284159398D02*
X33694534Y284159398D01*
X33714140Y284158435D01*
X33762971Y284153625D01*
X33782380Y284150746D01*
X33830505Y284141174D01*
X33849548Y284136404D01*
X33896503Y284122160D01*
X33914980Y284115549D01*
X33960313Y284096772D01*
X33978061Y284088377D01*
X34021334Y284065246D01*
X34038162Y284055160D01*
X34078961Y284027900D01*
X34094730Y284016205D01*
X34132659Y283985077D01*
X34147200Y283971897D01*
X34181897Y283937200D01*
X34195077Y283922659D01*
X34226205Y283884730D01*
X34237900Y283868961D01*
X34265160Y283828162D01*
X34275246Y283811334D01*
X34298377Y283768061D01*
X34306772Y283750313D01*
X34325549Y283704980D01*
X34332160Y283686503D01*
X34346404Y283639548D01*
X34351174Y283620505D01*
X34360746Y283572380D01*
X34363625Y283552971D01*
X34368435Y283504140D01*
X34369398Y283484534D01*
X34369398Y283466112D01*
X34370000Y283460000D01*
X34370000Y282960000D01*
X34369398Y282953888D01*
X34369398Y282935466D01*
X34368435Y282915860D01*
X34363625Y282867029D01*
X34360746Y282847620D01*
X34351174Y282799495D01*
X34346404Y282780452D01*
X34332160Y282733497D01*
X34325549Y282715020D01*
X34306772Y282669687D01*
X34298377Y282651939D01*
X34275246Y282608666D01*
X34265160Y282591838D01*
X34237900Y282551039D01*
X34226205Y282535270D01*
X34195077Y282497341D01*
X34181897Y282482800D01*
X34147200Y282448103D01*
X34132659Y282434923D01*
X34094730Y282403795D01*
X34078961Y282392100D01*
X34038162Y282364840D01*
X34021334Y282354754D01*
X33978061Y282331623D01*
X33960313Y282323228D01*
X33914980Y282304451D01*
X33896503Y282297840D01*
X33849548Y282283596D01*
X33830505Y282278826D01*
X33782380Y282269254D01*
X33762971Y282266375D01*
X33714140Y282261565D01*
X33694534Y282260602D01*
X33676112Y282260602D01*
X33670000Y282260000D01*
X33170000Y282260000D01*
X33130982Y282263843D01*
X33093463Y282275224D01*
X33058886Y282293706D01*
X33028579Y282318579D01*
X33003706Y282348886D01*
X32985224Y282383463D01*
X32973843Y282420982D01*
X32970000Y282460000D01*
X32970000Y283960000D01*
X32973843Y283999018D01*
X32985224Y284036537D01*
X33003706Y284071114D01*
X33028579Y284101421D01*
X33058886Y284126294D01*
X33093463Y284144776D01*
X33130982Y284156157D01*
X33170000Y284160000D01*
X33670000Y284160000D01*
X33676112Y284159398D01*
X33676112Y284159398D01*
G37*
D32*
X32370000Y283210000D03*
D18*
G36*
X32909018Y284156157D02*
X32946537Y284144776D01*
X32981114Y284126294D01*
X33011421Y284101421D01*
X33036294Y284071114D01*
X33054776Y284036537D01*
X33066157Y283999018D01*
X33070000Y283960000D01*
X33070000Y283710000D01*
X33270000Y283710000D01*
X33309018Y283706157D01*
X33346537Y283694776D01*
X33381114Y283676294D01*
X33411421Y283651421D01*
X33436294Y283621114D01*
X33454776Y283586537D01*
X33466157Y283549018D01*
X33470000Y283510000D01*
X33470000Y282910000D01*
X33466157Y282870982D01*
X33454776Y282833463D01*
X33436294Y282798886D01*
X33411421Y282768579D01*
X33381114Y282743706D01*
X33346537Y282725224D01*
X33309018Y282713843D01*
X33270000Y282710000D01*
X33070000Y282710000D01*
X33070000Y282460000D01*
X33066157Y282420982D01*
X33054776Y282383463D01*
X33036294Y282348886D01*
X33011421Y282318579D01*
X32981114Y282293706D01*
X32946537Y282275224D01*
X32909018Y282263843D01*
X32870000Y282260000D01*
X32370000Y282260000D01*
X32363888Y282260602D01*
X32345466Y282260602D01*
X32325860Y282261565D01*
X32277029Y282266375D01*
X32257620Y282269254D01*
X32209495Y282278826D01*
X32190452Y282283596D01*
X32143497Y282297840D01*
X32125020Y282304451D01*
X32079687Y282323228D01*
X32061939Y282331623D01*
X32018666Y282354754D01*
X32001838Y282364840D01*
X31961039Y282392100D01*
X31945270Y282403795D01*
X31907341Y282434923D01*
X31892800Y282448103D01*
X31858103Y282482800D01*
X31844923Y282497341D01*
X31813795Y282535270D01*
X31802100Y282551039D01*
X31774840Y282591838D01*
X31764754Y282608666D01*
X31741623Y282651939D01*
X31733228Y282669687D01*
X31714451Y282715020D01*
X31707840Y282733497D01*
X31693596Y282780452D01*
X31688826Y282799495D01*
X31679254Y282847620D01*
X31676375Y282867029D01*
X31671565Y282915860D01*
X31670602Y282935466D01*
X31670602Y282953888D01*
X31670000Y282960000D01*
X31670000Y283460000D01*
X31670602Y283466112D01*
X31670602Y283484534D01*
X31671565Y283504140D01*
X31676375Y283552971D01*
X31679254Y283572380D01*
X31688826Y283620505D01*
X31693596Y283639548D01*
X31707840Y283686503D01*
X31714451Y283704980D01*
X31733228Y283750313D01*
X31741623Y283768061D01*
X31764754Y283811334D01*
X31774840Y283828162D01*
X31802100Y283868961D01*
X31813795Y283884730D01*
X31844923Y283922659D01*
X31858103Y283937200D01*
X31892800Y283971897D01*
X31907341Y283985077D01*
X31945270Y284016205D01*
X31961039Y284027900D01*
X32001838Y284055160D01*
X32018666Y284065246D01*
X32061939Y284088377D01*
X32079687Y284096772D01*
X32125020Y284115549D01*
X32143497Y284122160D01*
X32190452Y284136404D01*
X32209495Y284141174D01*
X32257620Y284150746D01*
X32277029Y284153625D01*
X32325860Y284158435D01*
X32345466Y284159398D01*
X32363888Y284159398D01*
X32370000Y284160000D01*
X32870000Y284160000D01*
X32909018Y284156157D01*
X32909018Y284156157D01*
G37*
G04 #@! TD*
M02*
