G04 #@! TF.GenerationSoftware,KiCad,Pcbnew,5.0.0+dfsg1-2~bpo9+1*
G04 #@! TF.CreationDate,2018-12-03T09:47:35+00:00*
G04 #@! TF.ProjectId,chordboard,63686F7264626F6172642E6B69636164,rev?*
G04 #@! TF.SameCoordinates,Original*
G04 #@! TF.FileFunction,Copper,L1,Top,Signal*
G04 #@! TF.FilePolarity,Positive*
%FSLAX46Y46*%
G04 Gerber Fmt 4.6, Leading zero omitted, Abs format (unit mm)*
G04 Created by KiCad (PCBNEW 5.0.0+dfsg1-2~bpo9+1) date Mon Dec  3 09:47:35 2018*
%MOMM*%
%LPD*%
G01*
G04 APERTURE LIST*
G04 #@! TA.AperFunction,ComponentPad*
%ADD10C,1.524000*%
G04 #@! TD*
G04 #@! TA.AperFunction,ComponentPad*
%ADD11R,1.800000X1.800000*%
G04 #@! TD*
G04 #@! TA.AperFunction,ComponentPad*
%ADD12C,1.800000*%
G04 #@! TD*
G04 #@! TA.AperFunction,ComponentPad*
%ADD13R,2.400000X2.400000*%
G04 #@! TD*
G04 #@! TA.AperFunction,ComponentPad*
%ADD14C,2.400000*%
G04 #@! TD*
G04 #@! TA.AperFunction,ComponentPad*
%ADD15C,1.400000*%
G04 #@! TD*
G04 #@! TA.AperFunction,ComponentPad*
%ADD16O,1.400000X1.400000*%
G04 #@! TD*
G04 #@! TA.AperFunction,ComponentPad*
%ADD17O,1.750000X1.200000*%
G04 #@! TD*
G04 #@! TA.AperFunction,Conductor*
%ADD18C,0.100000*%
G04 #@! TD*
G04 #@! TA.AperFunction,ComponentPad*
%ADD19C,1.200000*%
G04 #@! TD*
G04 #@! TA.AperFunction,ComponentPad*
%ADD20C,2.100000*%
G04 #@! TD*
G04 #@! TA.AperFunction,ComponentPad*
%ADD21C,1.750000*%
G04 #@! TD*
G04 #@! TA.AperFunction,ComponentPad*
%ADD22C,1.600000*%
G04 #@! TD*
G04 #@! TA.AperFunction,ComponentPad*
%ADD23R,1.600000X1.600000*%
G04 #@! TD*
G04 #@! TA.AperFunction,ComponentPad*
%ADD24C,0.800000*%
G04 #@! TD*
G04 #@! TA.AperFunction,ComponentPad*
%ADD25C,6.400000*%
G04 #@! TD*
G04 #@! TA.AperFunction,ComponentPad*
%ADD26R,2.200000X2.200000*%
G04 #@! TD*
G04 #@! TA.AperFunction,ComponentPad*
%ADD27O,2.200000X2.200000*%
G04 #@! TD*
G04 #@! TA.AperFunction,ComponentPad*
%ADD28R,1.700000X1.700000*%
G04 #@! TD*
G04 #@! TA.AperFunction,ComponentPad*
%ADD29O,1.700000X1.700000*%
G04 #@! TD*
G04 #@! TA.AperFunction,ComponentPad*
%ADD30C,1.500000*%
G04 #@! TD*
G04 #@! TA.AperFunction,ComponentPad*
%ADD31C,3.000000*%
G04 #@! TD*
G04 #@! TA.AperFunction,SMDPad,CuDef*
%ADD32C,0.500000*%
G04 #@! TD*
G04 #@! TA.AperFunction,ViaPad*
%ADD33C,0.800000*%
G04 #@! TD*
G04 #@! TA.AperFunction,Conductor*
%ADD34C,0.400000*%
G04 #@! TD*
G04 APERTURE END LIST*
D10*
G04 #@! TO.P,esp1,34*
G04 #@! TO.N,/ESP_GND*
X55880000Y299720000D03*
G04 #@! TO.P,esp1,33*
G04 #@! TO.N,N/C*
X53340000Y299720000D03*
G04 #@! TO.P,esp1,32*
X50800000Y299720000D03*
G04 #@! TO.P,esp1,31*
G04 #@! TO.N,/ESP_TX0*
X48260000Y299720000D03*
G04 #@! TO.P,esp1,30*
G04 #@! TO.N,/ESP_RX0*
X45720000Y299720000D03*
G04 #@! TO.P,esp1,29*
G04 #@! TO.N,N/C*
X43180000Y299720000D03*
G04 #@! TO.P,esp1,28*
X40640000Y299720000D03*
G04 #@! TO.P,esp1,27*
X38100000Y299720000D03*
G04 #@! TO.P,esp1,26*
G04 #@! TO.N,Net-(J2-Pad15)*
X35560000Y299720000D03*
G04 #@! TO.P,esp1,25*
G04 #@! TO.N,Net-(J2-Pad14)*
X33020000Y299720000D03*
G04 #@! TO.P,esp1,24*
G04 #@! TO.N,/ESP_D0*
X30480000Y299720000D03*
G04 #@! TO.P,esp1,23*
G04 #@! TO.N,Net-(J2-Pad12)*
X27940000Y299720000D03*
G04 #@! TO.P,esp1,22*
G04 #@! TO.N,Net-(J2-Pad11)*
X25400000Y299720000D03*
G04 #@! TO.P,esp1,21*
G04 #@! TO.N,/ESP_GND*
X22860000Y299720000D03*
G04 #@! TO.P,esp1,20*
G04 #@! TO.N,/ESP_5V*
X20320000Y299720000D03*
G04 #@! TO.P,esp1,19*
G04 #@! TO.N,N/C*
X17780000Y299720000D03*
G04 #@! TO.P,esp1,18*
G04 #@! TO.N,/ESP_3V3*
X15240000Y299720000D03*
G04 #@! TO.P,esp1,17*
G04 #@! TO.N,/ESP_GND*
X15240000Y322580000D03*
G04 #@! TO.P,esp1,16*
G04 #@! TO.N,N/C*
X17780000Y322580000D03*
G04 #@! TO.P,esp1,15*
G04 #@! TO.N,/ESP_GND*
X20320000Y322580000D03*
G04 #@! TO.P,esp1,14*
G04 #@! TO.N,/ESP_TX2*
X22860000Y322580000D03*
G04 #@! TO.P,esp1,13*
G04 #@! TO.N,/ESP_RX2*
X25400000Y322580000D03*
G04 #@! TO.P,esp1,12*
G04 #@! TO.N,Net-(J2-Pad10)*
X27940000Y322580000D03*
G04 #@! TO.P,esp1,11*
G04 #@! TO.N,Net-(J2-Pad9)*
X30480000Y322580000D03*
G04 #@! TO.P,esp1,10*
G04 #@! TO.N,Net-(J2-Pad8)*
X33020000Y322580000D03*
G04 #@! TO.P,esp1,9*
G04 #@! TO.N,Net-(J2-Pad7)*
X35560000Y322580000D03*
G04 #@! TO.P,esp1,8*
G04 #@! TO.N,Net-(J2-Pad6)*
X38100000Y322580000D03*
G04 #@! TO.P,esp1,7*
G04 #@! TO.N,Net-(J2-Pad5)*
X40640000Y322580000D03*
G04 #@! TO.P,esp1,6*
G04 #@! TO.N,Net-(J2-Pad4)*
X43180000Y322580000D03*
G04 #@! TO.P,esp1,5*
G04 #@! TO.N,Net-(J2-Pad3)*
X45720000Y322580000D03*
G04 #@! TO.P,esp1,4*
G04 #@! TO.N,N/C*
X48260000Y322580000D03*
G04 #@! TO.P,esp1,3*
X50800000Y322580000D03*
G04 #@! TO.P,esp1,1*
G04 #@! TO.N,/ESP_3V3*
X55880000Y322580000D03*
G04 #@! TO.P,esp1,2*
G04 #@! TO.N,/ESP_RST*
X53340000Y322580000D03*
G04 #@! TD*
D11*
G04 #@! TO.P,D1,1*
G04 #@! TO.N,/TEE_GND*
X60960000Y240030000D03*
D12*
G04 #@! TO.P,D1,2*
G04 #@! TO.N,Net-(D1-Pad2)*
X58420000Y240030000D03*
G04 #@! TD*
D13*
G04 #@! TO.P,J1,1*
G04 #@! TO.N,Net-(D2-Pad2)*
X66040000Y246380000D03*
D14*
G04 #@! TO.P,J1,2*
G04 #@! TO.N,/TEE_GND*
X66040000Y249880000D03*
G04 #@! TD*
D15*
G04 #@! TO.P,R1,1*
G04 #@! TO.N,Net-(D1-Pad2)*
X58420000Y243840000D03*
D16*
G04 #@! TO.P,R1,2*
G04 #@! TO.N,Net-(D2-Pad2)*
X58420000Y251460000D03*
G04 #@! TD*
D17*
G04 #@! TO.P,J5,4*
G04 #@! TO.N,/TEE_GND*
X68580000Y284830000D03*
G04 #@! TO.P,J5,3*
G04 #@! TO.N,/TEE_3V3*
X68580000Y286830000D03*
G04 #@! TO.P,J5,2*
G04 #@! TO.N,/TEE_SDA1*
X68580000Y288830000D03*
D18*
G04 #@! TD*
G04 #@! TO.N,/TEE_SCL1*
G04 #@! TO.C,J5*
G36*
X69229505Y291428796D02*
X69253773Y291425196D01*
X69277572Y291419235D01*
X69300671Y291410970D01*
X69322850Y291400480D01*
X69343893Y291387868D01*
X69363599Y291373253D01*
X69381777Y291356777D01*
X69398253Y291338599D01*
X69412868Y291318893D01*
X69425480Y291297850D01*
X69435970Y291275671D01*
X69444235Y291252572D01*
X69450196Y291228773D01*
X69453796Y291204505D01*
X69455000Y291180001D01*
X69455000Y290479999D01*
X69453796Y290455495D01*
X69450196Y290431227D01*
X69444235Y290407428D01*
X69435970Y290384329D01*
X69425480Y290362150D01*
X69412868Y290341107D01*
X69398253Y290321401D01*
X69381777Y290303223D01*
X69363599Y290286747D01*
X69343893Y290272132D01*
X69322850Y290259520D01*
X69300671Y290249030D01*
X69277572Y290240765D01*
X69253773Y290234804D01*
X69229505Y290231204D01*
X69205001Y290230000D01*
X67954999Y290230000D01*
X67930495Y290231204D01*
X67906227Y290234804D01*
X67882428Y290240765D01*
X67859329Y290249030D01*
X67837150Y290259520D01*
X67816107Y290272132D01*
X67796401Y290286747D01*
X67778223Y290303223D01*
X67761747Y290321401D01*
X67747132Y290341107D01*
X67734520Y290362150D01*
X67724030Y290384329D01*
X67715765Y290407428D01*
X67709804Y290431227D01*
X67706204Y290455495D01*
X67705000Y290479999D01*
X67705000Y291180001D01*
X67706204Y291204505D01*
X67709804Y291228773D01*
X67715765Y291252572D01*
X67724030Y291275671D01*
X67734520Y291297850D01*
X67747132Y291318893D01*
X67761747Y291338599D01*
X67778223Y291356777D01*
X67796401Y291373253D01*
X67816107Y291387868D01*
X67837150Y291400480D01*
X67859329Y291410970D01*
X67882428Y291419235D01*
X67906227Y291425196D01*
X67930495Y291428796D01*
X67954999Y291430000D01*
X69205001Y291430000D01*
X69229505Y291428796D01*
X69229505Y291428796D01*
G37*
D19*
G04 #@! TO.P,J5,1*
G04 #@! TO.N,/TEE_SCL1*
X68580000Y290830000D03*
G04 #@! TD*
D18*
G04 #@! TO.N,/TEE_TX1*
G04 #@! TO.C,J6*
G36*
X56529505Y291428796D02*
X56553773Y291425196D01*
X56577572Y291419235D01*
X56600671Y291410970D01*
X56622850Y291400480D01*
X56643893Y291387868D01*
X56663599Y291373253D01*
X56681777Y291356777D01*
X56698253Y291338599D01*
X56712868Y291318893D01*
X56725480Y291297850D01*
X56735970Y291275671D01*
X56744235Y291252572D01*
X56750196Y291228773D01*
X56753796Y291204505D01*
X56755000Y291180001D01*
X56755000Y290479999D01*
X56753796Y290455495D01*
X56750196Y290431227D01*
X56744235Y290407428D01*
X56735970Y290384329D01*
X56725480Y290362150D01*
X56712868Y290341107D01*
X56698253Y290321401D01*
X56681777Y290303223D01*
X56663599Y290286747D01*
X56643893Y290272132D01*
X56622850Y290259520D01*
X56600671Y290249030D01*
X56577572Y290240765D01*
X56553773Y290234804D01*
X56529505Y290231204D01*
X56505001Y290230000D01*
X55254999Y290230000D01*
X55230495Y290231204D01*
X55206227Y290234804D01*
X55182428Y290240765D01*
X55159329Y290249030D01*
X55137150Y290259520D01*
X55116107Y290272132D01*
X55096401Y290286747D01*
X55078223Y290303223D01*
X55061747Y290321401D01*
X55047132Y290341107D01*
X55034520Y290362150D01*
X55024030Y290384329D01*
X55015765Y290407428D01*
X55009804Y290431227D01*
X55006204Y290455495D01*
X55005000Y290479999D01*
X55005000Y291180001D01*
X55006204Y291204505D01*
X55009804Y291228773D01*
X55015765Y291252572D01*
X55024030Y291275671D01*
X55034520Y291297850D01*
X55047132Y291318893D01*
X55061747Y291338599D01*
X55078223Y291356777D01*
X55096401Y291373253D01*
X55116107Y291387868D01*
X55137150Y291400480D01*
X55159329Y291410970D01*
X55182428Y291419235D01*
X55206227Y291425196D01*
X55230495Y291428796D01*
X55254999Y291430000D01*
X56505001Y291430000D01*
X56529505Y291428796D01*
X56529505Y291428796D01*
G37*
D19*
G04 #@! TD*
G04 #@! TO.P,J6,1*
G04 #@! TO.N,/TEE_TX1*
X55880000Y290830000D03*
D17*
G04 #@! TO.P,J6,2*
G04 #@! TO.N,/TEE_RX1*
X55880000Y288830000D03*
G04 #@! TO.P,J6,3*
G04 #@! TO.N,/TEE_5V*
X55880000Y286830000D03*
G04 #@! TO.P,J6,4*
G04 #@! TO.N,/TEE_GND*
X55880000Y284830000D03*
G04 #@! TD*
D18*
G04 #@! TO.N,/TEE_SCL2*
G04 #@! TO.C,J3*
G36*
X62879505Y291428796D02*
X62903773Y291425196D01*
X62927572Y291419235D01*
X62950671Y291410970D01*
X62972850Y291400480D01*
X62993893Y291387868D01*
X63013599Y291373253D01*
X63031777Y291356777D01*
X63048253Y291338599D01*
X63062868Y291318893D01*
X63075480Y291297850D01*
X63085970Y291275671D01*
X63094235Y291252572D01*
X63100196Y291228773D01*
X63103796Y291204505D01*
X63105000Y291180001D01*
X63105000Y290479999D01*
X63103796Y290455495D01*
X63100196Y290431227D01*
X63094235Y290407428D01*
X63085970Y290384329D01*
X63075480Y290362150D01*
X63062868Y290341107D01*
X63048253Y290321401D01*
X63031777Y290303223D01*
X63013599Y290286747D01*
X62993893Y290272132D01*
X62972850Y290259520D01*
X62950671Y290249030D01*
X62927572Y290240765D01*
X62903773Y290234804D01*
X62879505Y290231204D01*
X62855001Y290230000D01*
X61604999Y290230000D01*
X61580495Y290231204D01*
X61556227Y290234804D01*
X61532428Y290240765D01*
X61509329Y290249030D01*
X61487150Y290259520D01*
X61466107Y290272132D01*
X61446401Y290286747D01*
X61428223Y290303223D01*
X61411747Y290321401D01*
X61397132Y290341107D01*
X61384520Y290362150D01*
X61374030Y290384329D01*
X61365765Y290407428D01*
X61359804Y290431227D01*
X61356204Y290455495D01*
X61355000Y290479999D01*
X61355000Y291180001D01*
X61356204Y291204505D01*
X61359804Y291228773D01*
X61365765Y291252572D01*
X61374030Y291275671D01*
X61384520Y291297850D01*
X61397132Y291318893D01*
X61411747Y291338599D01*
X61428223Y291356777D01*
X61446401Y291373253D01*
X61466107Y291387868D01*
X61487150Y291400480D01*
X61509329Y291410970D01*
X61532428Y291419235D01*
X61556227Y291425196D01*
X61580495Y291428796D01*
X61604999Y291430000D01*
X62855001Y291430000D01*
X62879505Y291428796D01*
X62879505Y291428796D01*
G37*
D19*
G04 #@! TD*
G04 #@! TO.P,J3,1*
G04 #@! TO.N,/TEE_SCL2*
X62230000Y290830000D03*
D17*
G04 #@! TO.P,J3,2*
G04 #@! TO.N,/TEE_SDA2*
X62230000Y288830000D03*
G04 #@! TO.P,J3,3*
G04 #@! TO.N,/TEE_3V3*
X62230000Y286830000D03*
G04 #@! TO.P,J3,4*
G04 #@! TO.N,/TEE_GND*
X62230000Y284830000D03*
G04 #@! TD*
D20*
G04 #@! TO.P,SW1,*
G04 #@! TO.N,*
X66090000Y268560000D03*
D21*
G04 #@! TO.P,SW1,2*
G04 #@! TO.N,Net-(SW1-Pad2)*
X68580000Y269820000D03*
G04 #@! TO.P,SW1,1*
G04 #@! TO.N,/TEE_GND*
X68580000Y274320000D03*
D20*
G04 #@! TO.P,SW1,*
G04 #@! TO.N,*
X66090000Y275570000D03*
G04 #@! TD*
D22*
G04 #@! TO.P,U1,17*
G04 #@! TO.N,Net-(J4-Pad5)*
X38100000Y259080000D03*
G04 #@! TO.P,U1,18*
G04 #@! TO.N,Net-(J4-Pad6)*
X40640000Y259080000D03*
G04 #@! TO.P,U1,19*
G04 #@! TO.N,Net-(J4-Pad7)*
X43180000Y259080000D03*
G04 #@! TO.P,U1,20*
G04 #@! TO.N,Net-(J4-Pad8)*
X45720000Y259080000D03*
G04 #@! TO.P,U1,16*
G04 #@! TO.N,Net-(J4-Pad4)*
X35560000Y259080000D03*
G04 #@! TO.P,U1,15*
G04 #@! TO.N,N/C*
X33020000Y259080000D03*
G04 #@! TO.P,U1,14*
X30480000Y259080000D03*
G04 #@! TO.P,U1,21*
G04 #@! TO.N,Net-(J4-Pad9)*
X48260000Y259080000D03*
G04 #@! TO.P,U1,22*
G04 #@! TO.N,Net-(J4-Pad10)*
X50800000Y259080000D03*
G04 #@! TO.P,U1,23*
G04 #@! TO.N,/TEE_RX4*
X53340000Y259080000D03*
G04 #@! TO.P,U1,24*
G04 #@! TO.N,/TEE_TX4*
X55880000Y259080000D03*
G04 #@! TO.P,U1,25*
G04 #@! TO.N,N/C*
X43180000Y261620000D03*
G04 #@! TO.P,U1,26*
G04 #@! TO.N,/TEE_3V3*
X43180000Y264160000D03*
G04 #@! TO.P,U1,27*
G04 #@! TO.N,/TEE_GND*
X43180000Y266700000D03*
G04 #@! TO.P,U1,28*
G04 #@! TO.N,Net-(SW1-Pad2)*
X43180000Y269240000D03*
G04 #@! TO.P,U1,29*
G04 #@! TO.N,N/C*
X43180000Y271780000D03*
G04 #@! TO.P,U1,30*
G04 #@! TO.N,/TEE_TX5*
X55880000Y274320000D03*
G04 #@! TO.P,U1,31*
G04 #@! TO.N,/TEE_RX5*
X53340000Y274320000D03*
G04 #@! TO.P,U1,32*
G04 #@! TO.N,Net-(J4-Pad11)*
X50800000Y274320000D03*
G04 #@! TO.P,U1,33*
G04 #@! TO.N,Net-(J4-Pad12)*
X48260000Y274320000D03*
G04 #@! TO.P,U1,34*
G04 #@! TO.N,/TEE_SCL1*
X45720000Y274320000D03*
G04 #@! TO.P,U1,35*
G04 #@! TO.N,/TEE_SDA1*
X43180000Y274320000D03*
G04 #@! TO.P,U1,36*
G04 #@! TO.N,Net-(J4-Pad13)*
X40640000Y274320000D03*
G04 #@! TO.P,U1,37*
G04 #@! TO.N,Net-(J4-Pad14)*
X38100000Y274320000D03*
G04 #@! TO.P,U1,13*
G04 #@! TO.N,N/C*
X27940000Y259080000D03*
G04 #@! TO.P,U1,12*
X25400000Y259080000D03*
G04 #@! TO.P,U1,11*
X22860000Y259080000D03*
G04 #@! TO.P,U1,10*
G04 #@! TO.N,Net-(J4-Pad3)*
X20320000Y259080000D03*
G04 #@! TO.P,U1,9*
G04 #@! TO.N,N/C*
X17780000Y259080000D03*
G04 #@! TO.P,U1,8*
X15240000Y259080000D03*
G04 #@! TO.P,U1,7*
G04 #@! TO.N,Net-(J4-Pad2)*
X12700000Y259080000D03*
G04 #@! TO.P,U1,6*
G04 #@! TO.N,/TEE_SDA2*
X10160000Y259080000D03*
G04 #@! TO.P,U1,5*
G04 #@! TO.N,/TEE_SCL2*
X7620000Y259080000D03*
G04 #@! TO.P,U1,4*
G04 #@! TO.N,Net-(J4-Pad1)*
X5080000Y259080000D03*
G04 #@! TO.P,U1,3*
G04 #@! TO.N,/TEE_TX1*
X2540000Y259080000D03*
G04 #@! TO.P,U1,2*
G04 #@! TO.N,/TEE_RX1*
X0Y259080000D03*
D23*
G04 #@! TO.P,U1,1*
G04 #@! TO.N,/TEE_GND*
X-2540000Y259080000D03*
D22*
G04 #@! TO.P,U1,38*
G04 #@! TO.N,Net-(J4-Pad15)*
X35560000Y274320000D03*
G04 #@! TO.P,U1,39*
G04 #@! TO.N,/TEE_GND*
X33020000Y274320000D03*
G04 #@! TO.P,U1,40*
G04 #@! TO.N,N/C*
X30480000Y274320000D03*
G04 #@! TO.P,U1,41*
X27940000Y274320000D03*
G04 #@! TO.P,U1,42*
X25400000Y274320000D03*
G04 #@! TO.P,U1,43*
X22860000Y274320000D03*
G04 #@! TO.P,U1,44*
G04 #@! TO.N,Net-(J4-Pad16)*
X20320000Y274320000D03*
G04 #@! TO.P,U1,45*
G04 #@! TO.N,N/C*
X17780000Y274320000D03*
G04 #@! TO.P,U1,46*
X15240000Y274320000D03*
G04 #@! TO.P,U1,47*
G04 #@! TO.N,/ESP_D0*
X12700000Y274320000D03*
G04 #@! TO.P,U1,48*
G04 #@! TO.N,/ESP_RST*
X10160000Y274320000D03*
G04 #@! TO.P,U1,49*
G04 #@! TO.N,N/C*
X7620000Y274320000D03*
G04 #@! TO.P,U1,50*
X5080000Y274320000D03*
G04 #@! TO.P,U1,51*
X2540000Y274320000D03*
G04 #@! TO.P,U1,52*
G04 #@! TO.N,/TEE_AGND*
X0Y274320000D03*
G04 #@! TO.P,U1,53*
G04 #@! TO.N,/TEE_5V*
X-2540000Y274320000D03*
G04 #@! TO.P,U1,54*
G04 #@! TO.N,N/C*
X0Y271780000D03*
G04 #@! TO.P,U1,58*
G04 #@! TO.N,Net-(J10-Pad1)*
X3810000Y262080000D03*
G04 #@! TO.P,U1,59*
G04 #@! TO.N,Net-(J10-Pad2)*
X6350000Y262080000D03*
G04 #@! TO.P,U1,60*
G04 #@! TO.N,Net-(J10-Pad3)*
X8890000Y262080000D03*
G04 #@! TO.P,U1,61*
G04 #@! TO.N,Net-(J10-Pad4)*
X11430000Y262080000D03*
G04 #@! TO.P,U1,62*
G04 #@! TO.N,Net-(J11-Pad1)*
X13970000Y262080000D03*
G04 #@! TD*
D24*
G04 #@! TO.P,H5,1*
G04 #@! TO.N,N/C*
X1697056Y237917056D03*
X0Y238620000D03*
X-1697056Y237917056D03*
X-2400000Y236220000D03*
X-1697056Y234522944D03*
X0Y233820000D03*
X1697056Y234522944D03*
X2400000Y236220000D03*
D25*
X0Y236220000D03*
G04 #@! TD*
G04 #@! TO.P,H6,1*
G04 #@! TO.N,N/C*
X66040000Y330200000D03*
D24*
X68440000Y330200000D03*
X67737056Y328502944D03*
X66040000Y327800000D03*
X64342944Y328502944D03*
X63640000Y330200000D03*
X64342944Y331897056D03*
X66040000Y332600000D03*
X67737056Y331897056D03*
G04 #@! TD*
G04 #@! TO.P,H7,1*
G04 #@! TO.N,N/C*
X1697056Y331897056D03*
X0Y332600000D03*
X-1697056Y331897056D03*
X-2400000Y330200000D03*
X-1697056Y328502944D03*
X0Y327800000D03*
X1697056Y328502944D03*
X2400000Y330200000D03*
D25*
X0Y330200000D03*
G04 #@! TD*
G04 #@! TO.P,H8,1*
G04 #@! TO.N,N/C*
X66040000Y236220000D03*
D24*
X68440000Y236220000D03*
X67737056Y234522944D03*
X66040000Y233820000D03*
X64342944Y234522944D03*
X63640000Y236220000D03*
X64342944Y237917056D03*
X66040000Y238620000D03*
X67737056Y237917056D03*
G04 #@! TD*
D26*
G04 #@! TO.P,D2,1*
G04 #@! TO.N,/ESP_5V*
X67310000Y264160000D03*
D27*
G04 #@! TO.P,D2,2*
G04 #@! TO.N,Net-(D2-Pad2)*
X67310000Y256540000D03*
G04 #@! TD*
G04 #@! TO.P,D3,2*
G04 #@! TO.N,Net-(D2-Pad2)*
X63500000Y256540000D03*
D26*
G04 #@! TO.P,D3,1*
G04 #@! TO.N,/TEE_5V*
X63500000Y264160000D03*
G04 #@! TD*
D28*
G04 #@! TO.P,J2,1*
G04 #@! TO.N,/ESP_3V3*
X7620000Y332740000D03*
D29*
G04 #@! TO.P,J2,2*
G04 #@! TO.N,/ESP_RST*
X10160000Y332740000D03*
G04 #@! TO.P,J2,3*
G04 #@! TO.N,Net-(J2-Pad3)*
X12700000Y332740000D03*
G04 #@! TO.P,J2,4*
G04 #@! TO.N,Net-(J2-Pad4)*
X15240000Y332740000D03*
G04 #@! TO.P,J2,5*
G04 #@! TO.N,Net-(J2-Pad5)*
X17780000Y332740000D03*
G04 #@! TO.P,J2,6*
G04 #@! TO.N,Net-(J2-Pad6)*
X20320000Y332740000D03*
G04 #@! TO.P,J2,7*
G04 #@! TO.N,Net-(J2-Pad7)*
X22860000Y332740000D03*
G04 #@! TO.P,J2,8*
G04 #@! TO.N,Net-(J2-Pad8)*
X25400000Y332740000D03*
G04 #@! TO.P,J2,9*
G04 #@! TO.N,Net-(J2-Pad9)*
X27940000Y332740000D03*
G04 #@! TO.P,J2,10*
G04 #@! TO.N,Net-(J2-Pad10)*
X30480000Y332740000D03*
G04 #@! TO.P,J2,11*
G04 #@! TO.N,Net-(J2-Pad11)*
X33020000Y332740000D03*
G04 #@! TO.P,J2,12*
G04 #@! TO.N,Net-(J2-Pad12)*
X35560000Y332740000D03*
G04 #@! TO.P,J2,13*
G04 #@! TO.N,/ESP_D0*
X38100000Y332740000D03*
G04 #@! TO.P,J2,14*
G04 #@! TO.N,Net-(J2-Pad14)*
X40640000Y332740000D03*
G04 #@! TO.P,J2,15*
G04 #@! TO.N,Net-(J2-Pad15)*
X43180000Y332740000D03*
G04 #@! TO.P,J2,16*
G04 #@! TO.N,/ESP_TX0*
X45720000Y332740000D03*
G04 #@! TO.P,J2,17*
G04 #@! TO.N,/ESP_RX0*
X48260000Y332740000D03*
G04 #@! TO.P,J2,18*
G04 #@! TO.N,N/C*
X50800000Y332740000D03*
G04 #@! TO.P,J2,19*
G04 #@! TO.N,/ESP_5V*
X53340000Y332740000D03*
G04 #@! TO.P,J2,20*
G04 #@! TO.N,/ESP_GND*
X55880000Y332740000D03*
G04 #@! TD*
G04 #@! TO.P,J4,20*
G04 #@! TO.N,/TEE_GND*
X55880000Y233680000D03*
G04 #@! TO.P,J4,19*
G04 #@! TO.N,/TEE_5V*
X53340000Y233680000D03*
G04 #@! TO.P,J4,18*
G04 #@! TO.N,/TEE_3V3*
X50800000Y233680000D03*
G04 #@! TO.P,J4,17*
G04 #@! TO.N,/TEE_AGND*
X48260000Y233680000D03*
G04 #@! TO.P,J4,16*
G04 #@! TO.N,Net-(J4-Pad16)*
X45720000Y233680000D03*
G04 #@! TO.P,J4,15*
G04 #@! TO.N,Net-(J4-Pad15)*
X43180000Y233680000D03*
G04 #@! TO.P,J4,14*
G04 #@! TO.N,Net-(J4-Pad14)*
X40640000Y233680000D03*
G04 #@! TO.P,J4,13*
G04 #@! TO.N,Net-(J4-Pad13)*
X38100000Y233680000D03*
G04 #@! TO.P,J4,12*
G04 #@! TO.N,Net-(J4-Pad12)*
X35560000Y233680000D03*
G04 #@! TO.P,J4,11*
G04 #@! TO.N,Net-(J4-Pad11)*
X33020000Y233680000D03*
G04 #@! TO.P,J4,10*
G04 #@! TO.N,Net-(J4-Pad10)*
X30480000Y233680000D03*
G04 #@! TO.P,J4,9*
G04 #@! TO.N,Net-(J4-Pad9)*
X27940000Y233680000D03*
G04 #@! TO.P,J4,8*
G04 #@! TO.N,Net-(J4-Pad8)*
X25400000Y233680000D03*
G04 #@! TO.P,J4,7*
G04 #@! TO.N,Net-(J4-Pad7)*
X22860000Y233680000D03*
G04 #@! TO.P,J4,6*
G04 #@! TO.N,Net-(J4-Pad6)*
X20320000Y233680000D03*
G04 #@! TO.P,J4,5*
G04 #@! TO.N,Net-(J4-Pad5)*
X17780000Y233680000D03*
G04 #@! TO.P,J4,4*
G04 #@! TO.N,Net-(J4-Pad4)*
X15240000Y233680000D03*
G04 #@! TO.P,J4,3*
G04 #@! TO.N,Net-(J4-Pad3)*
X12700000Y233680000D03*
G04 #@! TO.P,J4,2*
G04 #@! TO.N,Net-(J4-Pad2)*
X10160000Y233680000D03*
D28*
G04 #@! TO.P,J4,1*
G04 #@! TO.N,Net-(J4-Pad1)*
X7620000Y233680000D03*
G04 #@! TD*
D18*
G04 #@! TO.N,/TEE_TX4*
G04 #@! TO.C,J9*
G36*
X50179505Y291428796D02*
X50203773Y291425196D01*
X50227572Y291419235D01*
X50250671Y291410970D01*
X50272850Y291400480D01*
X50293893Y291387868D01*
X50313599Y291373253D01*
X50331777Y291356777D01*
X50348253Y291338599D01*
X50362868Y291318893D01*
X50375480Y291297850D01*
X50385970Y291275671D01*
X50394235Y291252572D01*
X50400196Y291228773D01*
X50403796Y291204505D01*
X50405000Y291180001D01*
X50405000Y290479999D01*
X50403796Y290455495D01*
X50400196Y290431227D01*
X50394235Y290407428D01*
X50385970Y290384329D01*
X50375480Y290362150D01*
X50362868Y290341107D01*
X50348253Y290321401D01*
X50331777Y290303223D01*
X50313599Y290286747D01*
X50293893Y290272132D01*
X50272850Y290259520D01*
X50250671Y290249030D01*
X50227572Y290240765D01*
X50203773Y290234804D01*
X50179505Y290231204D01*
X50155001Y290230000D01*
X48904999Y290230000D01*
X48880495Y290231204D01*
X48856227Y290234804D01*
X48832428Y290240765D01*
X48809329Y290249030D01*
X48787150Y290259520D01*
X48766107Y290272132D01*
X48746401Y290286747D01*
X48728223Y290303223D01*
X48711747Y290321401D01*
X48697132Y290341107D01*
X48684520Y290362150D01*
X48674030Y290384329D01*
X48665765Y290407428D01*
X48659804Y290431227D01*
X48656204Y290455495D01*
X48655000Y290479999D01*
X48655000Y291180001D01*
X48656204Y291204505D01*
X48659804Y291228773D01*
X48665765Y291252572D01*
X48674030Y291275671D01*
X48684520Y291297850D01*
X48697132Y291318893D01*
X48711747Y291338599D01*
X48728223Y291356777D01*
X48746401Y291373253D01*
X48766107Y291387868D01*
X48787150Y291400480D01*
X48809329Y291410970D01*
X48832428Y291419235D01*
X48856227Y291425196D01*
X48880495Y291428796D01*
X48904999Y291430000D01*
X50155001Y291430000D01*
X50179505Y291428796D01*
X50179505Y291428796D01*
G37*
D19*
G04 #@! TD*
G04 #@! TO.P,J9,1*
G04 #@! TO.N,/TEE_TX4*
X49530000Y290830000D03*
D17*
G04 #@! TO.P,J9,2*
G04 #@! TO.N,/TEE_RX4*
X49530000Y288830000D03*
G04 #@! TO.P,J9,3*
G04 #@! TO.N,/TEE_5V*
X49530000Y286830000D03*
G04 #@! TO.P,J9,4*
G04 #@! TO.N,/TEE_GND*
X49530000Y284830000D03*
G04 #@! TD*
D30*
G04 #@! TO.P,J10,4*
G04 #@! TO.N,Net-(J10-Pad4)*
X7620000Y282450000D03*
G04 #@! TO.P,J10,3*
G04 #@! TO.N,Net-(J10-Pad3)*
X7620000Y284990000D03*
G04 #@! TO.P,J10,2*
G04 #@! TO.N,Net-(J10-Pad2)*
X7620000Y287020000D03*
G04 #@! TO.P,J10,1*
G04 #@! TO.N,Net-(J10-Pad1)*
X7620000Y289560000D03*
D31*
G04 #@! TO.P,J10,5*
G04 #@! TO.N,Net-(J10-Pad5)*
X4950000Y279400000D03*
X4950000Y293120000D03*
G04 #@! TD*
D28*
G04 #@! TO.P,J11,1*
G04 #@! TO.N,Net-(J11-Pad1)*
X13970000Y280670000D03*
D29*
G04 #@! TO.P,J11,2*
G04 #@! TO.N,Net-(J10-Pad4)*
X13970000Y283210000D03*
G04 #@! TO.P,J11,3*
G04 #@! TO.N,Net-(J10-Pad3)*
X13970000Y285750000D03*
G04 #@! TO.P,J11,4*
G04 #@! TO.N,Net-(J10-Pad2)*
X13970000Y288290000D03*
G04 #@! TO.P,J11,5*
G04 #@! TO.N,Net-(J10-Pad1)*
X13970000Y290830000D03*
G04 #@! TD*
D32*
G04 #@! TO.P,JP1,1*
G04 #@! TO.N,/TEE_TX5*
X33670000Y290830000D03*
D18*
G04 #@! TD*
G04 #@! TO.N,/TEE_TX5*
G04 #@! TO.C,JP1*
G36*
X33170000Y290530000D02*
X32770000Y290530000D01*
X32770000Y291130000D01*
X33170000Y291130000D01*
X33170000Y291580000D01*
X33670000Y291580000D01*
X33670000Y291579398D01*
X33694534Y291579398D01*
X33743365Y291574588D01*
X33791490Y291565016D01*
X33838445Y291550772D01*
X33883778Y291531995D01*
X33927051Y291508864D01*
X33967850Y291481604D01*
X34005779Y291450476D01*
X34040476Y291415779D01*
X34071604Y291377850D01*
X34098864Y291337051D01*
X34121995Y291293778D01*
X34140772Y291248445D01*
X34155016Y291201490D01*
X34164588Y291153365D01*
X34169398Y291104534D01*
X34169398Y291080000D01*
X34170000Y291080000D01*
X34170000Y290580000D01*
X34169398Y290580000D01*
X34169398Y290555466D01*
X34164588Y290506635D01*
X34155016Y290458510D01*
X34140772Y290411555D01*
X34121995Y290366222D01*
X34098864Y290322949D01*
X34071604Y290282150D01*
X34040476Y290244221D01*
X34005779Y290209524D01*
X33967850Y290178396D01*
X33927051Y290151136D01*
X33883778Y290128005D01*
X33838445Y290109228D01*
X33791490Y290094984D01*
X33743365Y290085412D01*
X33694534Y290080602D01*
X33670000Y290080602D01*
X33670000Y290080000D01*
X33170000Y290080000D01*
X33170000Y290530000D01*
X33170000Y290530000D01*
G37*
D32*
G04 #@! TO.P,JP1,2*
G04 #@! TO.N,/ESP_RX2*
X32370000Y290830000D03*
D18*
G04 #@! TD*
G04 #@! TO.N,/ESP_RX2*
G04 #@! TO.C,JP1*
G36*
X32370000Y290080602D02*
X32345466Y290080602D01*
X32296635Y290085412D01*
X32248510Y290094984D01*
X32201555Y290109228D01*
X32156222Y290128005D01*
X32112949Y290151136D01*
X32072150Y290178396D01*
X32034221Y290209524D01*
X31999524Y290244221D01*
X31968396Y290282150D01*
X31941136Y290322949D01*
X31918005Y290366222D01*
X31899228Y290411555D01*
X31884984Y290458510D01*
X31875412Y290506635D01*
X31870602Y290555466D01*
X31870602Y290580000D01*
X31870000Y290580000D01*
X31870000Y291080000D01*
X31870602Y291080000D01*
X31870602Y291104534D01*
X31875412Y291153365D01*
X31884984Y291201490D01*
X31899228Y291248445D01*
X31918005Y291293778D01*
X31941136Y291337051D01*
X31968396Y291377850D01*
X31999524Y291415779D01*
X32034221Y291450476D01*
X32072150Y291481604D01*
X32112949Y291508864D01*
X32156222Y291531995D01*
X32201555Y291550772D01*
X32248510Y291565016D01*
X32296635Y291574588D01*
X32345466Y291579398D01*
X32370000Y291579398D01*
X32370000Y291580000D01*
X32870000Y291580000D01*
X32870000Y290080000D01*
X32370000Y290080000D01*
X32370000Y290080602D01*
X32370000Y290080602D01*
G37*
D32*
G04 #@! TO.P,JP2,1*
G04 #@! TO.N,/TEE_RX5*
X33670000Y287020000D03*
D18*
G04 #@! TD*
G04 #@! TO.N,/TEE_RX5*
G04 #@! TO.C,JP2*
G36*
X33170000Y286720000D02*
X32770000Y286720000D01*
X32770000Y287320000D01*
X33170000Y287320000D01*
X33170000Y287770000D01*
X33670000Y287770000D01*
X33670000Y287769398D01*
X33694534Y287769398D01*
X33743365Y287764588D01*
X33791490Y287755016D01*
X33838445Y287740772D01*
X33883778Y287721995D01*
X33927051Y287698864D01*
X33967850Y287671604D01*
X34005779Y287640476D01*
X34040476Y287605779D01*
X34071604Y287567850D01*
X34098864Y287527051D01*
X34121995Y287483778D01*
X34140772Y287438445D01*
X34155016Y287391490D01*
X34164588Y287343365D01*
X34169398Y287294534D01*
X34169398Y287270000D01*
X34170000Y287270000D01*
X34170000Y286770000D01*
X34169398Y286770000D01*
X34169398Y286745466D01*
X34164588Y286696635D01*
X34155016Y286648510D01*
X34140772Y286601555D01*
X34121995Y286556222D01*
X34098864Y286512949D01*
X34071604Y286472150D01*
X34040476Y286434221D01*
X34005779Y286399524D01*
X33967850Y286368396D01*
X33927051Y286341136D01*
X33883778Y286318005D01*
X33838445Y286299228D01*
X33791490Y286284984D01*
X33743365Y286275412D01*
X33694534Y286270602D01*
X33670000Y286270602D01*
X33670000Y286270000D01*
X33170000Y286270000D01*
X33170000Y286720000D01*
X33170000Y286720000D01*
G37*
D32*
G04 #@! TO.P,JP2,2*
G04 #@! TO.N,/ESP_TX2*
X32370000Y287020000D03*
D18*
G04 #@! TD*
G04 #@! TO.N,/ESP_TX2*
G04 #@! TO.C,JP2*
G36*
X32370000Y286270602D02*
X32345466Y286270602D01*
X32296635Y286275412D01*
X32248510Y286284984D01*
X32201555Y286299228D01*
X32156222Y286318005D01*
X32112949Y286341136D01*
X32072150Y286368396D01*
X32034221Y286399524D01*
X31999524Y286434221D01*
X31968396Y286472150D01*
X31941136Y286512949D01*
X31918005Y286556222D01*
X31899228Y286601555D01*
X31884984Y286648510D01*
X31875412Y286696635D01*
X31870602Y286745466D01*
X31870602Y286770000D01*
X31870000Y286770000D01*
X31870000Y287270000D01*
X31870602Y287270000D01*
X31870602Y287294534D01*
X31875412Y287343365D01*
X31884984Y287391490D01*
X31899228Y287438445D01*
X31918005Y287483778D01*
X31941136Y287527051D01*
X31968396Y287567850D01*
X31999524Y287605779D01*
X32034221Y287640476D01*
X32072150Y287671604D01*
X32112949Y287698864D01*
X32156222Y287721995D01*
X32201555Y287740772D01*
X32248510Y287755016D01*
X32296635Y287764588D01*
X32345466Y287769398D01*
X32370000Y287769398D01*
X32370000Y287770000D01*
X32870000Y287770000D01*
X32870000Y286270000D01*
X32370000Y286270000D01*
X32370000Y286270602D01*
X32370000Y286270602D01*
G37*
D32*
G04 #@! TO.P,JP3,2*
G04 #@! TO.N,/TEE_GND*
X33670000Y283210000D03*
D18*
G04 #@! TD*
G04 #@! TO.N,/TEE_GND*
G04 #@! TO.C,JP3*
G36*
X33670000Y283959398D02*
X33694534Y283959398D01*
X33743365Y283954588D01*
X33791490Y283945016D01*
X33838445Y283930772D01*
X33883778Y283911995D01*
X33927051Y283888864D01*
X33967850Y283861604D01*
X34005779Y283830476D01*
X34040476Y283795779D01*
X34071604Y283757850D01*
X34098864Y283717051D01*
X34121995Y283673778D01*
X34140772Y283628445D01*
X34155016Y283581490D01*
X34164588Y283533365D01*
X34169398Y283484534D01*
X34169398Y283460000D01*
X34170000Y283460000D01*
X34170000Y282960000D01*
X34169398Y282960000D01*
X34169398Y282935466D01*
X34164588Y282886635D01*
X34155016Y282838510D01*
X34140772Y282791555D01*
X34121995Y282746222D01*
X34098864Y282702949D01*
X34071604Y282662150D01*
X34040476Y282624221D01*
X34005779Y282589524D01*
X33967850Y282558396D01*
X33927051Y282531136D01*
X33883778Y282508005D01*
X33838445Y282489228D01*
X33791490Y282474984D01*
X33743365Y282465412D01*
X33694534Y282460602D01*
X33670000Y282460602D01*
X33670000Y282460000D01*
X33170000Y282460000D01*
X33170000Y283960000D01*
X33670000Y283960000D01*
X33670000Y283959398D01*
X33670000Y283959398D01*
G37*
D32*
G04 #@! TO.P,JP3,1*
G04 #@! TO.N,/ESP_GND*
X32370000Y283210000D03*
D18*
G04 #@! TD*
G04 #@! TO.N,/ESP_GND*
G04 #@! TO.C,JP3*
G36*
X32870000Y283510000D02*
X33270000Y283510000D01*
X33270000Y282910000D01*
X32870000Y282910000D01*
X32870000Y282460000D01*
X32370000Y282460000D01*
X32370000Y282460602D01*
X32345466Y282460602D01*
X32296635Y282465412D01*
X32248510Y282474984D01*
X32201555Y282489228D01*
X32156222Y282508005D01*
X32112949Y282531136D01*
X32072150Y282558396D01*
X32034221Y282589524D01*
X31999524Y282624221D01*
X31968396Y282662150D01*
X31941136Y282702949D01*
X31918005Y282746222D01*
X31899228Y282791555D01*
X31884984Y282838510D01*
X31875412Y282886635D01*
X31870602Y282935466D01*
X31870602Y282960000D01*
X31870000Y282960000D01*
X31870000Y283460000D01*
X31870602Y283460000D01*
X31870602Y283484534D01*
X31875412Y283533365D01*
X31884984Y283581490D01*
X31899228Y283628445D01*
X31918005Y283673778D01*
X31941136Y283717051D01*
X31968396Y283757850D01*
X31999524Y283795779D01*
X32034221Y283830476D01*
X32072150Y283861604D01*
X32112949Y283888864D01*
X32156222Y283911995D01*
X32201555Y283930772D01*
X32248510Y283945016D01*
X32296635Y283954588D01*
X32345466Y283959398D01*
X32370000Y283959398D01*
X32370000Y283960000D01*
X32870000Y283960000D01*
X32870000Y283510000D01*
X32870000Y283510000D01*
G37*
D33*
G04 #@! TO.N,/ESP_D0*
X28956000Y292862000D03*
X28956000Y296799000D03*
G04 #@! TO.N,/ESP_TX2*
X28702000Y289179000D03*
G04 #@! TO.N,/ESP_RX2*
X28702000Y290703000D03*
G04 #@! TO.N,/ESP_RST*
X30353000Y312928000D03*
X2413000Y282829000D03*
X2413000Y289687000D03*
G04 #@! TO.N,/TEE_SCL2*
X56261000Y267462000D03*
X59762351Y269582990D03*
G04 #@! TO.N,/TEE_SDA2*
X56134000Y265557000D03*
X59292170Y268700407D03*
G04 #@! TO.N,/TEE_3V3*
X42037000Y244602000D03*
X56515000Y271907000D03*
X64008000Y283845000D03*
X65904979Y286766000D03*
G04 #@! TO.N,/TEE_GND*
X35814000Y283210000D03*
G04 #@! TO.N,Net-(SW1-Pad2)*
X64643000Y266700000D03*
X46990000Y269113000D03*
G04 #@! TO.N,/TEE_5V*
X61976000Y272542000D03*
X59436000Y275336000D03*
X37592000Y270510000D03*
X34671000Y270510000D03*
X26035000Y270509994D03*
X40894000Y270510000D03*
G04 #@! TO.N,/ESP_GND*
X30480000Y283210000D03*
G04 #@! TO.N,/ESP_3V3*
X49657000Y313182000D03*
X18161000Y302514000D03*
X30352996Y311912000D03*
G04 #@! TO.N,Net-(J2-Pad8)*
X30353000Y320040000D03*
G04 #@! TO.N,Net-(J2-Pad7)*
X30353000Y318897000D03*
G04 #@! TO.N,Net-(J2-Pad6)*
X30353000Y317754000D03*
G04 #@! TO.N,Net-(J2-Pad5)*
X30353000Y316484000D03*
G04 #@! TO.N,Net-(J2-Pad4)*
X30353000Y315341000D03*
G04 #@! TO.N,Net-(J2-Pad3)*
X30353000Y314198000D03*
G04 #@! TO.N,/TEE_AGND*
X2159000Y272288000D03*
G04 #@! TO.N,Net-(J4-Pad16)*
X39243000Y240919000D03*
X34544000Y267589000D03*
G04 #@! TO.N,Net-(J4-Pad15)*
X35560000Y264668000D03*
G04 #@! TO.N,Net-(J4-Pad14)*
X36703000Y265430000D03*
G04 #@! TO.N,Net-(J4-Pad13)*
X37846000Y266573000D03*
G04 #@! TO.N,Net-(J4-Pad12)*
X46990000Y264541000D03*
X43688000Y248412000D03*
G04 #@! TO.N,Net-(J4-Pad11)*
X49149000Y255524000D03*
X48132998Y264541000D03*
G04 #@! TO.N,/TEE_SDA1*
X56388000Y277241000D03*
X62344076Y280385844D03*
G04 #@! TO.N,/TEE_SCL1*
X55245000Y276225000D03*
X63119000Y281305000D03*
G04 #@! TO.N,Net-(J10-Pad4)*
X10541000Y264541000D03*
X11430000Y272415000D03*
X9271000Y277622000D03*
X10414000Y280797000D03*
G04 #@! TO.N,Net-(J10-Pad2)*
X8890000Y272415000D03*
X7747000Y277495000D03*
G04 #@! TO.N,Net-(J10-Pad1)*
X6350000Y272542000D03*
X6858000Y276606000D03*
G04 #@! TO.N,Net-(J11-Pad1)*
X13970000Y272415000D03*
X14097000Y264541000D03*
G04 #@! TO.N,/TEE_TX5*
X51943000Y278257000D03*
G04 #@! TO.N,/TEE_RX5*
X49657000Y278130000D03*
G04 #@! TD*
D34*
G04 #@! TO.N,/ESP_D0*
X31241999Y300481999D02*
X30480000Y299720000D01*
X36722001Y305962001D02*
X31241999Y300481999D01*
X36722001Y331362001D02*
X36722001Y305962001D01*
X38100000Y332740000D02*
X36722001Y331362001D01*
X12700000Y274320000D02*
X12700000Y276606000D01*
X12700000Y276606000D02*
X28956000Y292862000D01*
X29355999Y297198999D02*
X28956000Y296799000D01*
X30480000Y299720000D02*
X30480000Y298323000D01*
X30480000Y298323000D02*
X29355999Y297198999D01*
G04 #@! TO.N,/ESP_TX2*
X32370000Y287020000D02*
X30861000Y287020000D01*
X30861000Y287020000D02*
X28702000Y289179000D01*
G04 #@! TO.N,/ESP_RX2*
X32370000Y290830000D02*
X28829000Y290830000D01*
X28829000Y290830000D02*
X28702000Y290703000D01*
G04 #@! TO.N,/ESP_RST*
X10160000Y324243154D02*
X10160000Y331537919D01*
X10160000Y331537919D02*
X10160000Y332740000D01*
X21475154Y312928000D02*
X10160000Y324243154D01*
X30353000Y312928000D02*
X21475154Y312928000D01*
X16617999Y308070845D02*
X21475154Y312928000D01*
X16617999Y299378237D02*
X16617999Y308070845D01*
X15797761Y298557999D02*
X16617999Y299378237D01*
X7575997Y298557999D02*
X15797761Y298557999D01*
X2413000Y293395002D02*
X7575997Y298557999D01*
X2413000Y289687000D02*
X2413000Y293395002D01*
X8959999Y275520001D02*
X4768999Y275520001D01*
X2413000Y277876000D02*
X2413000Y282829000D01*
X10160000Y274320000D02*
X8959999Y275520001D01*
X4768999Y275520001D02*
X2413000Y277876000D01*
G04 #@! TO.N,Net-(D1-Pad2)*
X58420000Y243840000D02*
X58420000Y240030000D01*
G04 #@! TO.N,Net-(D2-Pad2)*
X63500000Y246380000D02*
X58420000Y251460000D01*
X66040000Y246380000D02*
X63500000Y246380000D01*
X58420000Y251460000D02*
X63500000Y256540000D01*
X63500000Y256540000D02*
X67310000Y256540000D01*
G04 #@! TO.N,/ESP_TX0*
X46970001Y333990001D02*
X46569999Y333589999D01*
X48860001Y333990001D02*
X46970001Y333990001D01*
X49510001Y322110239D02*
X49510001Y333340001D01*
X49510001Y333340001D02*
X48860001Y333990001D01*
X48260000Y320860238D02*
X49510001Y322110239D01*
X46569999Y333589999D02*
X45720000Y332740000D01*
X48260000Y299720000D02*
X48260000Y320860238D01*
G04 #@! TO.N,/ESP_RX0*
X47410001Y331890001D02*
X48260000Y332740000D01*
X47097999Y322238237D02*
X47097999Y331577999D01*
X47097999Y331577999D02*
X47410001Y331890001D01*
X45720000Y320860238D02*
X47097999Y322238237D01*
X45720000Y299720000D02*
X45720000Y320860238D01*
G04 #@! TO.N,/TEE_RX1*
X-799999Y259879999D02*
X0Y259080000D01*
X-1200001Y283914999D02*
X-1200001Y260280001D01*
X56166000Y288830000D02*
X57531000Y290195000D01*
X57531000Y290195000D02*
X57531000Y293370000D01*
X57531000Y293370000D02*
X56261000Y294640000D01*
X55880000Y288830000D02*
X56166000Y288830000D01*
X56261000Y294640000D02*
X9525000Y294640000D01*
X-1200001Y260280001D02*
X-799999Y259879999D01*
X9525000Y294640000D02*
X-1200001Y283914999D01*
G04 #@! TO.N,/TEE_TX1*
X1200001Y260419999D02*
X2540000Y259080000D01*
X1200001Y284842003D02*
X1200001Y260419999D01*
X53405000Y294005000D02*
X10362998Y294005000D01*
X55880000Y291530000D02*
X53405000Y294005000D01*
X10362998Y294005000D02*
X1200001Y284842003D01*
X55880000Y290830000D02*
X55880000Y291530000D01*
G04 #@! TO.N,/TEE_SCL2*
X59762351Y270148675D02*
X59762351Y269582990D01*
X60325000Y270711324D02*
X59762351Y270148675D01*
X62230000Y290830000D02*
X60325000Y288925000D01*
X60325000Y288925000D02*
X60325000Y270711324D01*
X51758999Y262959999D02*
X55861001Y267062001D01*
X42603999Y262959999D02*
X51758999Y262959999D01*
X10229999Y262656001D02*
X11225998Y263652000D01*
X11225998Y263652000D02*
X41911998Y263652000D01*
X41911998Y263652000D02*
X42603999Y262959999D01*
X10229999Y261689999D02*
X10229999Y262656001D01*
X55861001Y267062001D02*
X56261000Y267462000D01*
X7620000Y259080000D02*
X10229999Y261689999D01*
G04 #@! TO.N,/TEE_SDA2*
X62230000Y288830000D02*
X61955000Y288830000D01*
X60954990Y269591627D02*
X60063770Y268700407D01*
X60954990Y287829990D02*
X60954990Y269591627D01*
X61955000Y288830000D02*
X60954990Y287829990D01*
X59857855Y268700407D02*
X59292170Y268700407D01*
X60063770Y268700407D02*
X59857855Y268700407D01*
X52689001Y260419999D02*
X11499999Y260419999D01*
X56134000Y263864998D02*
X52689001Y260419999D01*
X11499999Y260419999D02*
X10959999Y259879999D01*
X56134000Y265557000D02*
X56134000Y263864998D01*
X10959999Y259879999D02*
X10160000Y259080000D01*
G04 #@! TO.N,/TEE_3V3*
X50800000Y235839000D02*
X50800000Y233680000D01*
X42037000Y244602000D02*
X50800000Y235839000D01*
X56515000Y271739000D02*
X56515000Y271907000D01*
X48516999Y263740999D02*
X56515000Y271739000D01*
X44730371Y263740999D02*
X48516999Y263740999D01*
X43180000Y264160000D02*
X44311370Y264160000D01*
X44311370Y264160000D02*
X44730371Y263740999D01*
X64008000Y285052000D02*
X62230000Y286830000D01*
X64008000Y283845000D02*
X64008000Y285052000D01*
X62294000Y286766000D02*
X62230000Y286830000D01*
X65904979Y286766000D02*
X62294000Y286766000D01*
G04 #@! TO.N,/TEE_GND*
X33670000Y283210000D02*
X35814000Y283210000D01*
G04 #@! TO.N,Net-(J4-Pad1)*
X7620000Y256540000D02*
X5080000Y259080000D01*
X7620000Y233680000D02*
X7620000Y256540000D01*
G04 #@! TO.N,Net-(SW1-Pad2)*
X66697436Y266700000D02*
X64643000Y266700000D01*
X68580000Y269820000D02*
X68580000Y268582564D01*
X68580000Y268582564D02*
X66697436Y266700000D01*
X43307000Y269113000D02*
X43180000Y269240000D01*
X46990000Y269113000D02*
X43307000Y269113000D01*
G04 #@! TO.N,/ESP_5V*
X54189999Y331890001D02*
X53340000Y332740000D01*
X69855010Y316224990D02*
X54189999Y331890001D01*
X67310000Y265660000D02*
X69855010Y268205010D01*
X67310000Y264160000D02*
X67310000Y265660000D01*
X67223000Y295240010D02*
X69855010Y292608000D01*
X20320000Y299720000D02*
X20320000Y298642370D01*
X20320000Y298642370D02*
X23722360Y295240010D01*
X69855010Y268205010D02*
X69855010Y292608000D01*
X23722360Y295240010D02*
X67223000Y295240010D01*
X69855010Y292608000D02*
X69855010Y316224990D01*
G04 #@! TO.N,/TEE_5V*
X63500000Y264160000D02*
X63500000Y271018000D01*
X63500000Y271018000D02*
X61976000Y272542000D01*
X57155000Y286830000D02*
X55880000Y286830000D01*
X59436000Y284549000D02*
X57155000Y286830000D01*
X59436000Y275336000D02*
X59436000Y284549000D01*
X48635754Y291830010D02*
X47625000Y290819256D01*
X50604990Y291830010D02*
X48635754Y291830010D01*
X55880000Y286830000D02*
X55605000Y286830000D01*
X55605000Y286830000D02*
X50604990Y291830010D01*
X47625000Y288460000D02*
X49255000Y286830000D01*
X49255000Y286830000D02*
X49530000Y286830000D01*
X47625000Y290819256D02*
X47625000Y288460000D01*
X53340000Y254000000D02*
X63500000Y264160000D01*
X53340000Y233680000D02*
X53340000Y254000000D01*
X34671000Y270510000D02*
X26035006Y270510000D01*
X26035006Y270510000D02*
X26035000Y270509994D01*
X37592000Y270510000D02*
X40894000Y270510000D01*
G04 #@! TO.N,/ESP_GND*
X32370000Y283210000D02*
X30480000Y283210000D01*
G04 #@! TO.N,Net-(J2-Pad15)*
X36321999Y300481999D02*
X35560000Y299720000D01*
X42017999Y306177999D02*
X36321999Y300481999D01*
X42017999Y331577999D02*
X42017999Y306177999D01*
X43180000Y332740000D02*
X42017999Y331577999D01*
G04 #@! TO.N,Net-(J2-Pad14)*
X39262001Y305962001D02*
X33781999Y300481999D01*
X33781999Y300481999D02*
X33020000Y299720000D01*
X39262001Y322921763D02*
X39262001Y305962001D01*
X40640000Y324299762D02*
X39262001Y322921763D01*
X40640000Y332740000D02*
X40640000Y324299762D01*
G04 #@! TO.N,Net-(J2-Pad12)*
X28701999Y300481999D02*
X27940000Y299720000D01*
X34182001Y305962001D02*
X28701999Y300481999D01*
X34182001Y331362001D02*
X34182001Y305962001D01*
X35560000Y332740000D02*
X34182001Y331362001D01*
G04 #@! TO.N,Net-(J2-Pad11)*
X31642001Y305962001D02*
X25400000Y299720000D01*
X33020000Y332740000D02*
X31642001Y331362001D01*
X31642001Y331362001D02*
X31642001Y305962001D01*
G04 #@! TO.N,/ESP_3V3*
X7620000Y307340000D02*
X15240000Y299720000D01*
X7620000Y332740000D02*
X7620000Y307340000D01*
X55880000Y322580000D02*
X55880000Y319405000D01*
X55880000Y319405000D02*
X49657000Y313182000D01*
X29787311Y311912000D02*
X30352996Y311912000D01*
X27559000Y311912000D02*
X29787311Y311912000D01*
X18161000Y302514000D02*
X27559000Y311912000D01*
G04 #@! TO.N,Net-(J2-Pad10)*
X30480000Y325120000D02*
X27940000Y322580000D01*
X30480000Y332740000D02*
X30480000Y325120000D01*
G04 #@! TO.N,Net-(J2-Pad9)*
X27940000Y331537919D02*
X26777999Y330375918D01*
X29718000Y321818000D02*
X30480000Y322580000D01*
X26777999Y330375918D02*
X26777999Y321964001D01*
X27940000Y332740000D02*
X27940000Y331537919D01*
X26777999Y321964001D02*
X27559000Y321183000D01*
X27559000Y321183000D02*
X29083000Y321183000D01*
X29083000Y321183000D02*
X29718000Y321818000D01*
G04 #@! TO.N,Net-(J2-Pad8)*
X24550001Y331890001D02*
X25400000Y332740000D01*
X24237999Y322022239D02*
X24237999Y331577999D01*
X26220238Y320040000D02*
X24237999Y322022239D01*
X24237999Y331577999D02*
X24550001Y331890001D01*
X30353000Y320040000D02*
X26220238Y320040000D01*
G04 #@! TO.N,Net-(J2-Pad7)*
X22010001Y331890001D02*
X22860000Y332740000D01*
X21697999Y322022239D02*
X21697999Y331577999D01*
X21697999Y331577999D02*
X22010001Y331890001D01*
X24823238Y318897000D02*
X21697999Y322022239D01*
X30353000Y318897000D02*
X24823238Y318897000D01*
G04 #@! TO.N,Net-(J2-Pad6)*
X19050000Y331470000D02*
X19470001Y331890001D01*
X19470001Y331890001D02*
X20320000Y332740000D01*
X23426238Y317754000D02*
X19050000Y322130238D01*
X19050000Y322130238D02*
X19050000Y331470000D01*
X30353000Y317754000D02*
X23426238Y317754000D01*
G04 #@! TO.N,Net-(J2-Pad5)*
X16930001Y331890001D02*
X17780000Y332740000D01*
X16617999Y331577999D02*
X16930001Y331890001D01*
X16617999Y322022239D02*
X16617999Y331577999D01*
X21486248Y317153990D02*
X16617999Y322022239D01*
X29683010Y317153990D02*
X21486248Y317153990D01*
X30353000Y316484000D02*
X29683010Y317153990D01*
G04 #@! TO.N,Net-(J2-Pad4)*
X14390001Y331890001D02*
X15240000Y332740000D01*
X14077999Y331577999D02*
X14390001Y331890001D01*
X14077999Y322022239D02*
X14077999Y331577999D01*
X20759238Y315341000D02*
X14077999Y322022239D01*
X30353000Y315341000D02*
X20759238Y315341000D01*
G04 #@! TO.N,Net-(J2-Pad3)*
X12700000Y331537919D02*
X12700000Y332740000D01*
X12700000Y322551696D02*
X12700000Y331537919D01*
X20510705Y314740991D02*
X12700000Y322551696D01*
X29810010Y314740990D02*
X20510705Y314740991D01*
X30353000Y314198000D02*
X29810010Y314740990D01*
G04 #@! TO.N,/TEE_AGND*
X47410001Y232830001D02*
X48260000Y233680000D01*
X47009999Y232429999D02*
X47410001Y232830001D01*
X3879999Y234999999D02*
X6449999Y232429999D01*
X6449999Y232429999D02*
X47009999Y232429999D01*
X3879999Y260233999D02*
X3879999Y234999999D01*
X2159000Y261954998D02*
X3879999Y260233999D01*
X2159000Y272288000D02*
X2159000Y261954998D01*
G04 #@! TO.N,Net-(J4-Pad16)*
X45720000Y233680000D02*
X39243000Y240157000D01*
X39243000Y240157000D02*
X39243000Y240919000D01*
X27051000Y267589000D02*
X20320000Y274320000D01*
X34544000Y267589000D02*
X27051000Y267589000D01*
G04 #@! TO.N,Net-(J4-Pad15)*
X35560000Y274320000D02*
X35560000Y264668000D01*
G04 #@! TO.N,Net-(J4-Pad14)*
X38100000Y274320000D02*
X36703000Y272923000D01*
X36703000Y265995685D02*
X36703000Y265430000D01*
X36703000Y272923000D02*
X36703000Y265995685D01*
G04 #@! TO.N,Net-(J4-Pad13)*
X40640000Y274320000D02*
X41694002Y273265998D01*
X41694002Y273265998D02*
X41694002Y269855317D01*
X41694002Y269855317D02*
X38411685Y266573000D01*
X38411685Y266573000D02*
X37846000Y266573000D01*
G04 #@! TO.N,Net-(J4-Pad12)*
X35560000Y240284000D02*
X43288001Y248012001D01*
X43288001Y248012001D02*
X43688000Y248412000D01*
X35560000Y233680000D02*
X35560000Y240284000D01*
X48260000Y265811000D02*
X47389999Y264940999D01*
X48260000Y274320000D02*
X48260000Y265811000D01*
X47389999Y264940999D02*
X46990000Y264541000D01*
G04 #@! TO.N,Net-(J4-Pad11)*
X33020000Y233680000D02*
X33020000Y239395000D01*
X33020000Y239395000D02*
X49149000Y255524000D01*
X48532997Y264940999D02*
X48132998Y264541000D01*
X50800000Y267208002D02*
X48532997Y264940999D01*
X50800000Y274320000D02*
X50800000Y267208002D01*
G04 #@! TO.N,Net-(J4-Pad10)*
X30480000Y238760000D02*
X30480000Y233680000D01*
X50800000Y259080000D02*
X30480000Y238760000D01*
G04 #@! TO.N,Net-(J4-Pad9)*
X27940000Y238760000D02*
X27940000Y233680000D01*
X48260000Y259080000D02*
X27940000Y238760000D01*
G04 #@! TO.N,Net-(J4-Pad8)*
X25400000Y238760000D02*
X25400000Y233680000D01*
X45720000Y259080000D02*
X25400000Y238760000D01*
G04 #@! TO.N,Net-(J4-Pad7)*
X22860000Y238760000D02*
X22860000Y233680000D01*
X43180000Y259080000D02*
X22860000Y238760000D01*
G04 #@! TO.N,Net-(J4-Pad6)*
X20320000Y238760000D02*
X20320000Y233680000D01*
X40640000Y259080000D02*
X20320000Y238760000D01*
G04 #@! TO.N,Net-(J4-Pad5)*
X17780000Y238760000D02*
X17780000Y233680000D01*
X38100000Y259080000D02*
X17780000Y238760000D01*
G04 #@! TO.N,Net-(J4-Pad4)*
X15240000Y238760000D02*
X15240000Y233680000D01*
X35560000Y259080000D02*
X15240000Y238760000D01*
G04 #@! TO.N,Net-(J4-Pad3)*
X12700000Y251460000D02*
X12700000Y233680000D01*
X20320000Y259080000D02*
X12700000Y251460000D01*
G04 #@! TO.N,Net-(J4-Pad2)*
X10160000Y256540000D02*
X10160000Y233680000D01*
X12700000Y259080000D02*
X10160000Y256540000D01*
G04 #@! TO.N,/TEE_SDA1*
X43180000Y274320000D02*
X46101000Y277241000D01*
X46101000Y277241000D02*
X56388000Y277241000D01*
X62909761Y280385844D02*
X62344076Y280385844D01*
X68305000Y288830000D02*
X67304990Y287829990D01*
X63383846Y280385844D02*
X62909761Y280385844D01*
X68580000Y288830000D02*
X68305000Y288830000D01*
X67304990Y287829990D02*
X67304990Y284306988D01*
X67304990Y284306988D02*
X63383846Y280385844D01*
G04 #@! TO.N,/TEE_SCL1*
X45720000Y274320000D02*
X47625000Y276225000D01*
X47625000Y276225000D02*
X55245000Y276225000D01*
X63518999Y281704999D02*
X63119000Y281305000D01*
X66704979Y284890979D02*
X63518999Y281704999D01*
X66704979Y288954979D02*
X66704979Y284890979D01*
X68580000Y290830000D02*
X66704979Y288954979D01*
G04 #@! TO.N,/TEE_TX4*
X58258010Y261458010D02*
X56679999Y259879999D01*
X58258010Y278124532D02*
X58258010Y261458010D01*
X52324000Y288036000D02*
X52324000Y284058542D01*
X52324000Y284058542D02*
X58258010Y278124532D01*
X49530000Y290830000D02*
X52324000Y288036000D01*
X56679999Y259879999D02*
X55880000Y259080000D01*
G04 #@! TO.N,/TEE_RX4*
X51723989Y286911011D02*
X49805000Y288830000D01*
X49805000Y288830000D02*
X49530000Y288830000D01*
X51723989Y283810010D02*
X51723989Y286911011D01*
X57657999Y277876000D02*
X51723989Y283810010D01*
X53340000Y259080000D02*
X57657999Y263397999D01*
X57657999Y263397999D02*
X57657999Y277876000D01*
G04 #@! TO.N,Net-(J10-Pad4)*
X10541000Y264541000D02*
X11430000Y265430000D01*
X11430000Y265430000D02*
X11430000Y272415000D01*
X9271000Y280799000D02*
X7620000Y282450000D01*
X9271000Y277622000D02*
X9271000Y280799000D01*
X9271000Y280799000D02*
X10412000Y280799000D01*
X10412000Y280799000D02*
X10414000Y280797000D01*
G04 #@! TO.N,Net-(J10-Pad3)*
X8369999Y284240001D02*
X7620000Y284990000D01*
X11360001Y281249999D02*
X8369999Y284240001D01*
X11360001Y273743999D02*
X11360001Y281249999D01*
X8890000Y271273998D02*
X11360001Y273743999D01*
X8890000Y262080000D02*
X8890000Y271273998D01*
X11360001Y283140001D02*
X13970000Y285750000D01*
X11360001Y281249999D02*
X11360001Y283140001D01*
G04 #@! TO.N,Net-(J10-Pad2)*
X6350000Y262080000D02*
X6350000Y269875000D01*
X6350000Y269875000D02*
X8890000Y272415000D01*
X5334000Y284734000D02*
X6870001Y286270001D01*
X5334000Y282702000D02*
X5334000Y284734000D01*
X6870001Y286270001D02*
X7620000Y287020000D01*
X7747000Y277495000D02*
X7747000Y280289000D01*
X7747000Y280289000D02*
X5334000Y282702000D01*
X8890000Y288290000D02*
X13970000Y288290000D01*
X7620000Y287020000D02*
X8890000Y288290000D01*
G04 #@! TO.N,Net-(J10-Pad1)*
X3810000Y262080000D02*
X3810000Y270002000D01*
X3810000Y270002000D02*
X6350000Y272542000D01*
X6858000Y277171685D02*
X6850001Y277179684D01*
X6870001Y288810001D02*
X7620000Y289560000D01*
X6850001Y280312001D02*
X4572000Y282590002D01*
X6850001Y277179684D02*
X6850001Y280312001D01*
X4572000Y282590002D02*
X4572000Y286512000D01*
X4572000Y286512000D02*
X6870001Y288810001D01*
X6858000Y276606000D02*
X6858000Y277171685D01*
X8890000Y290830000D02*
X13970000Y290830000D01*
X7620000Y289560000D02*
X8890000Y290830000D01*
G04 #@! TO.N,Net-(J11-Pad1)*
X14097000Y272288000D02*
X14097000Y264541000D01*
X13970000Y272415000D02*
X14097000Y272288000D01*
G04 #@! TO.N,/TEE_TX5*
X34270000Y290830000D02*
X33670000Y290830000D01*
X38354000Y290830000D02*
X34270000Y290830000D01*
X51943000Y278257000D02*
X50927000Y278257000D01*
X50927000Y278257000D02*
X38354000Y290830000D01*
G04 #@! TO.N,/TEE_RX5*
X41148000Y287020000D02*
X33670000Y287020000D01*
X49657000Y278130000D02*
X49657000Y278511000D01*
X49657000Y278511000D02*
X41148000Y287020000D01*
G04 #@! TD*
M02*
