EESchema Schematic File Version 2
LIBS:chordboard-rescue
LIBS:power
LIBS:device
LIBS:transistors
LIBS:conn
LIBS:linear
LIBS:regul
LIBS:74xx
LIBS:cmos4000
LIBS:adc-dac
LIBS:memory
LIBS:xilinx
LIBS:microcontrollers
LIBS:dsp
LIBS:microchip
LIBS:analog_switches
LIBS:motorola
LIBS:texas
LIBS:intel
LIBS:audio
LIBS:interface
LIBS:digital-audio
LIBS:philips
LIBS:display
LIBS:cypress
LIBS:siliconi
LIBS:opto
LIBS:atmel
LIBS:contrib
LIBS:valves
LIBS:teensy
LIBS:switches
LIBS:Symbols_DCDC-ACDC-Converter_RevC_20Jul2012
LIBS:Symbols_EN60617_13Mar2013
LIBS:Symbols_EN60617-10_HF-Radio_DRAFT_12Sep2013
LIBS:Symbols_ICs-Diskrete_RevD10
LIBS:Symbols_ICs-Opto_RevB_16Sep2013
LIBS:Symbols_Microcontroller_Philips-NXP_RevA_06Oct2013
LIBS:SymbolsSimilarEN60617+oldDIN617-RevE8
LIBS:Symbols_Socket-DIN41612_RevA
LIBS:Symbols_Transformer-Diskrete_RevA
LIBS:74xgxx
LIBS:ac-dc
LIBS:actel
LIBS:allegro
LIBS:Altera
LIBS:analog_devices
LIBS:battery_management
LIBS:bbd
LIBS:brooktre
LIBS:cmos_ieee
LIBS:dc-dc
LIBS:diode
LIBS:elec-unifil
LIBS:ESD_Protection
LIBS:ftdi
LIBS:gennum
LIBS:graphic
LIBS:hc11
LIBS:ir
LIBS:Lattice
LIBS:logo
LIBS:maxim
LIBS:mechanical
LIBS:microchip_dspic33dsc
LIBS:microchip_pic10mcu
LIBS:microchip_pic12mcu
LIBS:microchip_pic16mcu
LIBS:microchip_pic18mcu
LIBS:microchip_pic32mcu
LIBS:motor_drivers
LIBS:motors
LIBS:msp430
LIBS:nordicsemi
LIBS:nxp_armmcu
LIBS:onsemi
LIBS:Oscillators
LIBS:powerint
LIBS:Power_Management
LIBS:pspice
LIBS:references
LIBS:relays
LIBS:rfcom
LIBS:sensors
LIBS:silabs
LIBS:stm8
LIBS:stm32
LIBS:supertex
LIBS:transf
LIBS:ttl_ieee
LIBS:video
LIBS:wiznet
LIBS:Worldsemi
LIBS:Xicor
LIBS:zetex
LIBS:Zilog
LIBS:Rotary-Encoders
LIBS:eurocad
LIBS:afshar
LIBS:74hct125d
LIBS:74hct245
LIBS:4000-ic
LIBS:7400-ic
LIBS:75176
LIBS:Abracon
LIBS:ABS07-32.768KHZ-T
LIBS:acorn_electron_expansion_connector
LIBS:ActiveSemi
LIBS:akn_holtek
LIBS:akn_maxim
LIBS:akn_misc
LIBS:akn_transformers
LIBS:altera
LIBS:Amplifiers
LIBS:AMS
LIBS:analog-devices
LIBS:AnalogDevices
LIBS:analog-ic
LIBS:AOS
LIBS:arm-swd-header
LIBS:Atmel
LIBS:avr-mcu
LIBS:bluegiga
LIBS:Bosch
LIBS:Chipkit_Shield_Max32-cache
LIBS:Chipkit_Shield_uC-cache
LIBS:conn-2mm
LIBS:conn-100mil
LIBS:conn-amphenol
LIBS:conn-assmann
LIBS:conn-cui
LIBS:connector
LIBS:Connectors
LIBS:conn-fci
LIBS:conn-jae
LIBS:conn-linx
LIBS:conn_mics
LIBS:conn-molex
LIBS:conn-special-headers
LIBS:conn-tagconnect
LIBS:conn-te
LIBS:conn-test
LIBS:CubeSatKit_StackBoard-cache
LIBS:DataStorage
LIBS:diode-inc-ic
LIBS:Diodes
LIBS:DiodesInc
LIBS:EKB
LIBS:electomech-misc
LIBS:_electromech
LIBS:esp8266-esp-01
LIBS:esp8266-esp-03
LIBS:esp8266-esp-12e
LIBS:ESP8266
LIBS:Fairchild
LIBS:freescale-ic
LIBS:FTDI
LIBS:ftdi-ic
LIBS:hm-11
LIBS:Infineon
LIBS:Intersil
LIBS:iso15
LIBS:kbox
LIBS:kbox-cache
LIBS:KCDA02-123
LIBS:led
LIBS:_linear
LIBS:LinearTech
LIBS:Littelfuse
LIBS:_logic
LIBS:logic-4000
LIBS:logic-7400
LIBS:logic-7400-new
LIBS:LogicDevices
LIBS:lpc11u14fbd48
LIBS:lt
LIBS:MACOM
LIBS:Macrofab
LIBS:max
LIBS:maxim-ic
LIBS:mcp1700t-3302e-tt
LIBS:mcp73831t-2aci-ot
LIBS:micrel-ic
LIBS:Microchip
LIBS:microchip-ic
LIBS:Micron
LIBS:Microprocessors
LIBS:micro_usb_socket
LIBS:MiscellaneousDevices
LIBS:mke02z64vld2
LIBS:mke04z8vtg4
LIBS:Murata
LIBS:nrf24l01p_smd
LIBS:nrf51822-04
LIBS:nRF24L01+
LIBS:NXP
LIBS:nxp-ic
LIBS:OceanOptics
LIBS:on-semi-ic
LIBS:opamps
LIBS:_passive
LIBS:Passives
LIBS:pasv-BelFuse
LIBS:pasv-BiTech
LIBS:pasv-Bourns
LIBS:pasv-cap
LIBS:pasv-ind
LIBS:pasv-Murata
LIBS:pasv-res
LIBS:pasv-TDK
LIBS:pasv-xtal
LIBS:pcb
LIBS:PMOD
LIBS:PowerComponents
LIBS:pp_ws2812b
LIBS:random-mics
LIBS:Recom
LIBS:recom-r1se
LIBS:regulator
LIBS:relays-a
LIBS:RepeaterParts
LIBS:RF_OEM_Parts
LIBS:Richtek
LIBS:rohm
LIBS:_semi
LIBS:semi-diode-DiodesInc
LIBS:semi-diode-generic
LIBS:semi-diode-MCC
LIBS:semi-diode-NXP
LIBS:semi-diode-OnSemi
LIBS:semi-diode-Semtech
LIBS:semi-diode-ST
LIBS:semi-diode-Toshiba
LIBS:semi-opto-generic
LIBS:semi-opto-liteon
LIBS:semi-thyristor-generic
LIBS:semi-trans-AOS
LIBS:semi-trans-DiodesInc
LIBS:semi-trans-EPC
LIBS:semi-trans-Fairchild
LIBS:semi-trans-generic
LIBS:semi-trans-Infineon
LIBS:semi-trans-IRF
LIBS:semi-trans-IXYS
LIBS:semi-trans-NXP
LIBS:semi-trans-OnSemi
LIBS:semi-trans-Panasonic
LIBS:semi-trans-ST
LIBS:semi-trans-TI
LIBS:semi-trans-Toshiba
LIBS:semi-trans-Vishay
LIBS:Sensors
LIBS:sharp-relay
LIBS:skyworks
LIBS:Snickerdoodle
LIBS:sparkfun
LIBS:ST
LIBS:standard
LIBS:st_ic
LIBS:stm32f37xxx_48pin
LIBS:stm32f102xx_48pin
LIBS:stm32f103c8t6-module-china
LIBS:stm32f302xx_48pin
LIBS:stmicro-mcu
LIBS:symbol
LIBS:TexasInstruments
LIBS:ti
LIBS:ti-ic
LIBS:tinkerforge
LIBS:transistor
LIBS:TransistorParts
LIBS:transistors-mics
LIBS:txs2sa-relay
LIBS:uart_pp
LIBS:u-blox
LIBS:uln-ic
LIBS:usb_plug
LIBS:Vishay
LIBS:Winbond
LIBS:ws2812b
LIBS:Xilinx
LIBS:SparkFun-DigitalIC
LIBS:k66lqfp
LIBS:chordboard-cache
EELAYER 25 0
EELAYER END
$Descr A3 16535 11693
encoding utf-8
Sheet 1 2
Title ""
Date ""
Rev ""
Comp ""
Comment1 ""
Comment2 ""
Comment3 ""
Comment4 ""
$EndDescr
$Comp
L MCP23017 U4
U 1 1 59FC3D10
P 9400 3200
F 0 "U4" H 9700 3700 50  0000 R CNN
F 1 "MCP23017" H 9700 3800 50  0000 R CNN
F 2 "Housings_DIP:DIP-28_W7.62mm" H 9450 2250 50  0001 L CNN
F 3 "" H 9650 4200 50  0001 C CNN
	1    9400 3200
	-1   0    0    -1  
$EndComp
$Comp
L R R1
U 1 1 59FC6FE8
P 5500 5150
F 0 "R1" V 5400 5100 50  0000 C CNN
F 1 "4.7K" V 5500 5150 50  0000 C CNN
F 2 "Resistors_THT:R_Axial_DIN0207_L6.3mm_D2.5mm_P7.62mm_Horizontal" V 5430 5150 50  0001 C CNN
F 3 "" H 5500 5150 50  0000 C CNN
	1    5500 5150
	1    0    0    -1  
$EndComp
$Comp
L R R2
U 1 1 59FC7069
P 5600 5150
F 0 "R2" V 5700 5100 50  0000 C CNN
F 1 "4.7K" V 5600 5150 50  0000 C CNN
F 2 "Resistors_THT:R_Axial_DIN0207_L6.3mm_D2.5mm_P7.62mm_Horizontal" V 5530 5150 50  0001 C CNN
F 3 "" H 5600 5150 50  0000 C CNN
	1    5600 5150
	1    0    0    -1  
$EndComp
$Comp
L +3.3V #PWR01
U 1 1 59FC7113
P 5550 4000
F 0 "#PWR01" H 5550 3850 50  0001 C CNN
F 1 "+3.3V" H 5550 4140 50  0000 C CNN
F 2 "" H 5550 4000 50  0000 C CNN
F 3 "" H 5550 4000 50  0000 C CNN
	1    5550 4000
	1    0    0    -1  
$EndComp
$Comp
L Mounting_Hole MK2
U 1 1 59FCE2DE
P 13200 6600
F 0 "MK2" H 13200 6800 50  0000 C CNN
F 1 "Mounting_Hole" H 13200 6725 50  0000 C CNN
F 2 "Mounting_Holes:MountingHole_2.7mm_Pad_Via" H 13200 6600 60  0001 C CNN
F 3 "" H 13200 6600 60  0001 C CNN
	1    13200 6600
	1    0    0    -1  
$EndComp
$Comp
L Mounting_Hole MK3
U 1 1 59FCE3A1
P 13200 6900
F 0 "MK3" H 13200 7100 50  0000 C CNN
F 1 "Mounting_Hole" H 13200 7025 50  0000 C CNN
F 2 "Mounting_Holes:MountingHole_2.7mm_Pad_Via" H 13200 6900 60  0001 C CNN
F 3 "" H 13200 6900 60  0001 C CNN
	1    13200 6900
	1    0    0    -1  
$EndComp
$Comp
L Mounting_Hole MK4
U 1 1 59FCE461
P 13200 7200
F 0 "MK4" H 13200 7400 50  0000 C CNN
F 1 "Mounting_Hole" H 13200 7325 50  0000 C CNN
F 2 "Mounting_Holes:MountingHole_2.7mm_Pad_Via" H 13200 7200 60  0001 C CNN
F 3 "" H 13200 7200 60  0001 C CNN
	1    13200 7200
	1    0    0    -1  
$EndComp
$Comp
L GND #PWR02
U 1 1 59FE1F2D
P 2400 1300
F 0 "#PWR02" H 2400 1050 50  0001 C CNN
F 1 "GND" H 2400 1150 50  0000 C CNN
F 2 "" H 2400 1300 50  0000 C CNN
F 3 "" H 2400 1300 50  0000 C CNN
	1    2400 1300
	-1   0    0    1   
$EndComp
$Comp
L Teensy3.6 U2
U 1 1 59FC6CA8
P 3400 3800
F 0 "U2" H 3400 6100 60  0000 C CNN
F 1 "Teensy3.6" H 3400 1500 60  0000 C CNN
F 2 "teensy:Teensy35_36" H 3400 3800 60  0001 C CNN
F 3 "" H 3400 3800 60  0000 C CNN
	1    3400 3800
	1    0    0    -1  
$EndComp
$Comp
L Mounting_Hole MK5
U 1 1 59FE38DF
P 13200 6350
F 0 "MK5" H 13200 6550 50  0000 C CNN
F 1 "Mounting_Hole" H 13200 6475 50  0000 C CNN
F 2 "Mounting_Holes:MountingHole_2.7mm_Pad_Via" H 13200 6350 60  0001 C CNN
F 3 "" H 13200 6350 60  0001 C CNN
	1    13200 6350
	1    0    0    -1  
$EndComp
$Comp
L Mounting_Hole MK7
U 1 1 59FE3A7E
P 13550 6900
F 0 "MK7" H 13550 7100 50  0000 C CNN
F 1 "Mounting_Hole" H 13550 7025 50  0000 C CNN
F 2 "Mounting_Holes:MountingHole_2.7mm_Pad_Via" H 13550 6900 60  0001 C CNN
F 3 "" H 13550 6900 60  0001 C CNN
	1    13550 6900
	1    0    0    -1  
$EndComp
$Comp
L Mounting_Hole MK8
U 1 1 59FE3B4D
P 13550 7200
F 0 "MK8" H 13550 7400 50  0000 C CNN
F 1 "Mounting_Hole" H 13550 7325 50  0000 C CNN
F 2 "Mounting_Holes:MountingHole_2.7mm_Pad_Via" H 13550 7200 60  0001 C CNN
F 3 "" H 13550 7200 60  0001 C CNN
	1    13550 7200
	1    0    0    -1  
$EndComp
Text Label 5800 5700 0    60   ~ 0
SCL
Text Label 5800 5800 0    60   ~ 0
SDA
$Comp
L SW_SPST K17
U 1 1 5A13C12E
P 10100 2400
F 0 "K17" H 10100 2525 50  0000 C CNN
F 1 "SW_SPST" H 10100 2300 50  0000 C CNN
F 2 "Keyboard:CHERRY_PCB_100H" H 10100 2400 50  0001 C CNN
F 3 "" H 10100 2400 50  0000 C CNN
	1    10100 2400
	1    0    0    -1  
$EndComp
$Comp
L SW_SPST K32
U 1 1 5A13C1FE
P 10100 4000
F 0 "K32" H 10100 4125 50  0000 C CNN
F 1 "SW_SPST" H 10100 3900 50  0000 C CNN
F 2 "Keyboard:CHERRY_PCB_100H" H 10100 4000 50  0001 C CNN
F 3 "" H 10100 4000 50  0000 C CNN
	1    10100 4000
	1    0    0    -1  
$EndComp
$Comp
L SW_SPST K31
U 1 1 5A13C29B
P 10100 3900
F 0 "K31" H 10100 4025 50  0000 C CNN
F 1 "SW_SPST" H 10100 3800 50  0000 C CNN
F 2 "Keyboard:CHERRY_PCB_100H" H 10100 3900 50  0001 C CNN
F 3 "" H 10100 3900 50  0000 C CNN
	1    10100 3900
	1    0    0    -1  
$EndComp
$Comp
L SW_SPST K18
U 1 1 5A13C353
P 10100 2500
F 0 "K18" H 10100 2625 50  0000 C CNN
F 1 "SW_SPST" H 10100 2400 50  0000 C CNN
F 2 "Keyboard:CHERRY_PCB_100H" H 10100 2500 50  0001 C CNN
F 3 "" H 10100 2500 50  0000 C CNN
	1    10100 2500
	1    0    0    -1  
$EndComp
$Comp
L SW_SPST K19
U 1 1 5A13C3B4
P 10100 2600
F 0 "K19" H 10100 2725 50  0000 C CNN
F 1 "SW_SPST" H 10100 2500 50  0000 C CNN
F 2 "Keyboard:CHERRY_PCB_100H" H 10100 2600 50  0001 C CNN
F 3 "" H 10100 2600 50  0000 C CNN
	1    10100 2600
	1    0    0    -1  
$EndComp
$Comp
L SW_SPST K20
U 1 1 5A13C418
P 10100 2700
F 0 "K20" H 10100 2825 50  0000 C CNN
F 1 "SW_SPST" H 10100 2600 50  0000 C CNN
F 2 "Keyboard:CHERRY_PCB_100H" H 10100 2700 50  0001 C CNN
F 3 "" H 10100 2700 50  0000 C CNN
	1    10100 2700
	1    0    0    -1  
$EndComp
$Comp
L SW_SPST K21
U 1 1 5A13C4DE
P 10100 2800
F 0 "K21" H 10100 2925 50  0000 C CNN
F 1 "SW_SPST" H 10100 2700 50  0000 C CNN
F 2 "Keyboard:CHERRY_PCB_100H" H 10100 2800 50  0001 C CNN
F 3 "" H 10100 2800 50  0000 C CNN
	1    10100 2800
	1    0    0    -1  
$EndComp
$Comp
L SW_SPST K22
U 1 1 5A13C54C
P 10100 2900
F 0 "K22" H 10100 3025 50  0000 C CNN
F 1 "SW_SPST" H 10100 2800 50  0000 C CNN
F 2 "Keyboard:CHERRY_PCB_100H" H 10100 2900 50  0001 C CNN
F 3 "" H 10100 2900 50  0000 C CNN
	1    10100 2900
	1    0    0    -1  
$EndComp
$Comp
L SW_SPST K23
U 1 1 5A13C5B9
P 10100 3000
F 0 "K23" H 10100 3125 50  0000 C CNN
F 1 "SW_SPST" H 10100 2900 50  0000 C CNN
F 2 "Keyboard:CHERRY_PCB_100H" H 10100 3000 50  0001 C CNN
F 3 "" H 10100 3000 50  0000 C CNN
	1    10100 3000
	1    0    0    -1  
$EndComp
$Comp
L SW_SPST K24
U 1 1 5A13C629
P 10100 3100
F 0 "K24" H 10100 3225 50  0000 C CNN
F 1 "SW_SPST" H 10100 3000 50  0000 C CNN
F 2 "Keyboard:CHERRY_PCB_100H" H 10100 3100 50  0001 C CNN
F 3 "" H 10100 3100 50  0000 C CNN
	1    10100 3100
	1    0    0    -1  
$EndComp
$Comp
L SW_SPST K25
U 1 1 5A13C73A
P 10100 3300
F 0 "K25" H 10100 3425 50  0000 C CNN
F 1 "SW_SPST" H 10100 3200 50  0000 C CNN
F 2 "Keyboard:CHERRY_PCB_100H" H 10100 3300 50  0001 C CNN
F 3 "" H 10100 3300 50  0000 C CNN
	1    10100 3300
	1    0    0    -1  
$EndComp
$Comp
L SW_SPST K26
U 1 1 5A13C7D9
P 10100 3400
F 0 "K26" H 10100 3525 50  0000 C CNN
F 1 "SW_SPST" H 10100 3300 50  0000 C CNN
F 2 "Keyboard:CHERRY_PCB_100H" H 10100 3400 50  0001 C CNN
F 3 "" H 10100 3400 50  0000 C CNN
	1    10100 3400
	1    0    0    -1  
$EndComp
$Comp
L SW_SPST K27
U 1 1 5A13C87F
P 10100 3500
F 0 "K27" H 10100 3625 50  0000 C CNN
F 1 "SW_SPST" H 10100 3400 50  0000 C CNN
F 2 "Keyboard:CHERRY_PCB_100H" H 10100 3500 50  0001 C CNN
F 3 "" H 10100 3500 50  0000 C CNN
	1    10100 3500
	1    0    0    -1  
$EndComp
$Comp
L SW_SPST K28
U 1 1 5A13C92E
P 10100 3600
F 0 "K28" H 10100 3725 50  0000 C CNN
F 1 "SW_SPST" H 10100 3500 50  0000 C CNN
F 2 "Keyboard:CHERRY_PCB_100H" H 10100 3600 50  0001 C CNN
F 3 "" H 10100 3600 50  0000 C CNN
	1    10100 3600
	1    0    0    -1  
$EndComp
$Comp
L SW_SPST K29
U 1 1 5A13C9DC
P 10100 3700
F 0 "K29" H 10100 3825 50  0000 C CNN
F 1 "SW_SPST" H 10100 3600 50  0000 C CNN
F 2 "Keyboard:CHERRY_PCB_100H" H 10100 3700 50  0001 C CNN
F 3 "" H 10100 3700 50  0000 C CNN
	1    10100 3700
	1    0    0    -1  
$EndComp
$Comp
L SW_SPST K30
U 1 1 5A13CA8B
P 10100 3800
F 0 "K30" H 10100 3925 50  0000 C CNN
F 1 "SW_SPST" H 10100 3700 50  0000 C CNN
F 2 "Keyboard:CHERRY_PCB_100H" H 10100 3800 50  0001 C CNN
F 3 "" H 10100 3800 50  0000 C CNN
	1    10100 3800
	1    0    0    -1  
$EndComp
$Comp
L MCP23017 U3
U 1 1 5A142090
P 7800 3200
F 0 "U3" H 7800 3700 50  0000 R CNN
F 1 "MCP23017" H 8100 3800 50  0000 R CNN
F 2 "Housings_DIP:DIP-28_W7.62mm" H 7850 2250 50  0001 L CNN
F 3 "" H 8050 4200 50  0001 C CNN
	1    7800 3200
	1    0    0    -1  
$EndComp
$Comp
L GND #PWR03
U 1 1 5A142096
P 8600 4600
F 0 "#PWR03" H 8600 4350 50  0001 C CNN
F 1 "GND" H 8600 4450 50  0000 C CNN
F 2 "" H 8600 4600 50  0000 C CNN
F 3 "" H 8600 4600 50  0000 C CNN
	1    8600 4600
	-1   0    0    -1  
$EndComp
$Comp
L +3.3V #PWR04
U 1 1 5A14209C
P 8600 1350
F 0 "#PWR04" H 8600 1200 50  0001 C CNN
F 1 "+3.3V" H 8600 1490 50  0000 C CNN
F 2 "" H 8600 1350 50  0000 C CNN
F 3 "" H 8600 1350 50  0000 C CNN
	1    8600 1350
	-1   0    0    -1  
$EndComp
Text Label 8550 3600 2    60   ~ 0
SDA
Text Label 8550 3500 2    60   ~ 0
SCL
$Comp
L SW_SPST K1
U 1 1 5A1420CD
P 7100 2400
F 0 "K1" H 7250 2450 50  0000 C CNN
F 1 "SW_SPST" H 6950 2450 50  0000 C CNN
F 2 "Keyboard:CHERRY_PCB_100H" H 7100 2400 50  0001 C CNN
F 3 "" H 7100 2400 50  0000 C CNN
	1    7100 2400
	-1   0    0    -1  
$EndComp
$Comp
L SW_SPST K2
U 1 1 5A1420DF
P 7100 2500
F 0 "K2" H 7250 2550 50  0000 C CNN
F 1 "SW_SPST" H 6950 2550 50  0000 C CNN
F 2 "Keyboard:CHERRY_PCB_100H" H 7100 2500 50  0001 C CNN
F 3 "" H 7100 2500 50  0000 C CNN
	1    7100 2500
	-1   0    0    -1  
$EndComp
$Comp
L SW_SPST K3
U 1 1 5A1420E5
P 7100 2600
F 0 "K3" H 7250 2650 50  0000 C CNN
F 1 "SW_SPST" H 6950 2650 50  0000 C CNN
F 2 "Keyboard:CHERRY_PCB_100H" H 7100 2600 50  0001 C CNN
F 3 "" H 7100 2600 50  0000 C CNN
	1    7100 2600
	-1   0    0    -1  
$EndComp
$Comp
L SW_SPST K4
U 1 1 5A1420EB
P 7100 2700
F 0 "K4" H 7250 2750 50  0000 C CNN
F 1 "SW_SPST" H 6950 2750 50  0000 C CNN
F 2 "Keyboard:CHERRY_PCB_100H" H 7100 2700 50  0001 C CNN
F 3 "" H 7100 2700 50  0000 C CNN
	1    7100 2700
	-1   0    0    -1  
$EndComp
$Comp
L SW_SPST K5
U 1 1 5A1420F1
P 7100 2800
F 0 "K5" H 7250 2850 50  0000 C CNN
F 1 "SW_SPST" H 6950 2850 50  0000 C CNN
F 2 "Keyboard:CHERRY_PCB_100H" H 7100 2800 50  0001 C CNN
F 3 "" H 7100 2800 50  0000 C CNN
	1    7100 2800
	-1   0    0    -1  
$EndComp
$Comp
L SW_SPST K6
U 1 1 5A1420F7
P 7100 2900
F 0 "K6" H 7250 2950 50  0000 C CNN
F 1 "SW_SPST" H 6950 2950 50  0000 C CNN
F 2 "Keyboard:CHERRY_PCB_100H" H 7100 2900 50  0001 C CNN
F 3 "" H 7100 2900 50  0000 C CNN
	1    7100 2900
	-1   0    0    -1  
$EndComp
$Comp
L SW_SPST K7
U 1 1 5A1420FD
P 7100 3000
F 0 "K7" H 7250 3050 50  0000 C CNN
F 1 "SW_SPST" H 6950 3050 50  0000 C CNN
F 2 "Keyboard:CHERRY_PCB_100H" H 7100 3000 50  0001 C CNN
F 3 "" H 7100 3000 50  0000 C CNN
	1    7100 3000
	-1   0    0    -1  
$EndComp
$Comp
L SW_SPST K8
U 1 1 5A142103
P 7100 3300
F 0 "K8" H 7250 3350 50  0000 C CNN
F 1 "SW_SPST" H 6950 3350 50  0000 C CNN
F 2 "Keyboard:CHERRY_PCB_100H" H 7100 3300 50  0001 C CNN
F 3 "" H 7100 3300 50  0000 C CNN
	1    7100 3300
	-1   0    0    -1  
$EndComp
$Comp
L SW_SPST K9
U 1 1 5A142109
P 7100 3400
F 0 "K9" H 7250 3450 50  0000 C CNN
F 1 "SW_SPST" H 6950 3450 50  0000 C CNN
F 2 "Keyboard:CHERRY_PCB_100H" H 7100 3400 50  0001 C CNN
F 3 "" H 7100 3400 50  0000 C CNN
	1    7100 3400
	-1   0    0    -1  
$EndComp
$Comp
L SW_SPST K10
U 1 1 5A14210F
P 7100 3500
F 0 "K10" H 7200 3550 50  0000 C CNN
F 1 "SW_SPST" H 7100 3400 50  0000 C CNN
F 2 "Keyboard:CHERRY_PCB_100H" H 7100 3500 50  0001 C CNN
F 3 "" H 7100 3500 50  0000 C CNN
	1    7100 3500
	-1   0    0    -1  
$EndComp
$Comp
L SW_SPST K11
U 1 1 5A142115
P 7100 3600
F 0 "K11" H 7200 3650 50  0000 C CNN
F 1 "SW_SPST" H 7100 3500 50  0000 C CNN
F 2 "Keyboard:CHERRY_PCB_100H" H 7100 3600 50  0001 C CNN
F 3 "" H 7100 3600 50  0000 C CNN
	1    7100 3600
	-1   0    0    -1  
$EndComp
$Comp
L SW_SPST K12
U 1 1 5A14211B
P 7100 3700
F 0 "K12" H 7100 3825 50  0000 C CNN
F 1 "SW_SPST" H 7100 3600 50  0000 C CNN
F 2 "Keyboard:CHERRY_PCB_100H" H 7100 3700 50  0001 C CNN
F 3 "" H 7100 3700 50  0000 C CNN
	1    7100 3700
	-1   0    0    -1  
$EndComp
$Comp
L SW_SPST K13
U 1 1 5A142121
P 7100 3800
F 0 "K13" H 7100 3925 50  0000 C CNN
F 1 "SW_SPST" H 7100 3700 50  0000 C CNN
F 2 "Keyboard:CHERRY_PCB_100H" H 7100 3800 50  0001 C CNN
F 3 "" H 7100 3800 50  0000 C CNN
	1    7100 3800
	-1   0    0    -1  
$EndComp
$Comp
L SW_SPST K14
U 1 1 5A142127
P 7100 3900
F 0 "K14" H 7100 4025 50  0000 C CNN
F 1 "SW_SPST" H 7100 3800 50  0000 C CNN
F 2 "Keyboard:CHERRY_PCB_100H" H 7100 3900 50  0001 C CNN
F 3 "" H 7100 3900 50  0000 C CNN
	1    7100 3900
	-1   0    0    -1  
$EndComp
$Comp
L C C4
U 1 1 5A15E7CA
P 7600 1850
F 0 "C4" H 7625 1950 50  0000 L CNN
F 1 "0.1uF" V 7700 1600 50  0000 L CNN
F 2 "Capacitors_THT:C_Disc_D4.3mm_W1.9mm_P5.00mm" H 7638 1700 50  0001 C CNN
F 3 "" H 7600 1850 50  0001 C CNN
	1    7600 1850
	1    0    0    -1  
$EndComp
$Comp
L C C5
U 1 1 5A15E8E7
P 9550 1850
F 0 "C5" H 9575 1950 50  0000 L CNN
F 1 "0.1uF" V 9500 1600 50  0000 L CNN
F 2 "Capacitors_THT:C_Disc_D4.3mm_W1.9mm_P5.00mm" H 9588 1700 50  0001 C CNN
F 3 "" H 9550 1850 50  0001 C CNN
	1    9550 1850
	1    0    0    -1  
$EndComp
$Comp
L GND #PWR05
U 1 1 5A15F4B6
P 9550 2050
F 0 "#PWR05" H 9550 1800 50  0001 C CNN
F 1 "GND" H 9550 1900 50  0000 C CNN
F 2 "" H 9550 2050 50  0001 C CNN
F 3 "" H 9550 2050 50  0001 C CNN
	1    9550 2050
	1    0    0    -1  
$EndComp
$Comp
L GND #PWR06
U 1 1 5A15FA29
P 7600 2050
F 0 "#PWR06" H 7600 1800 50  0001 C CNN
F 1 "GND" H 7600 1900 50  0000 C CNN
F 2 "" H 7600 2050 50  0001 C CNN
F 3 "" H 7600 2050 50  0001 C CNN
	1    7600 2050
	1    0    0    -1  
$EndComp
$Comp
L +3.3V #PWR07
U 1 1 5A170360
P 8800 3800
F 0 "#PWR07" H 8800 3650 50  0001 C CNN
F 1 "+3.3V" H 8800 3940 50  0000 C CNN
F 2 "" H 8800 3800 50  0001 C CNN
F 3 "" H 8800 3800 50  0001 C CNN
	1    8800 3800
	0    -1   -1   0   
$EndComp
Text Label 8300 2800 0    60   ~ 0
INT1B
Text Label 8300 2900 0    60   ~ 0
INT1A
Text Label 8900 2800 2    60   ~ 0
INT2B
Text Label 8900 2900 2    60   ~ 0
INT2A
$Comp
L CP C6
U 1 1 5A1A3374
P 9750 1850
F 0 "C6" H 9775 1950 50  0000 L CNN
F 1 "10uF" V 9700 1600 50  0000 L CNN
F 2 "Capacitors_THT:CP_Radial_D5.0mm_P2.00mm" H 9788 1700 50  0001 C CNN
F 3 "" H 9750 1850 50  0001 C CNN
	1    9750 1850
	-1   0    0    -1  
$EndComp
$Comp
L CP C3
U 1 1 5A1A34D9
P 7400 1850
F 0 "C3" H 7425 1950 50  0000 L CNN
F 1 "10uF" V 7450 1600 50  0000 L CNN
F 2 "Capacitors_THT:CP_Radial_D5.0mm_P2.00mm" H 7438 1700 50  0001 C CNN
F 3 "" H 7400 1850 50  0001 C CNN
	1    7400 1850
	-1   0    0    -1  
$EndComp
$Comp
L GND #PWR08
U 1 1 5A1A3C5D
P 7400 2050
F 0 "#PWR08" H 7400 1800 50  0001 C CNN
F 1 "GND" H 7400 1900 50  0000 C CNN
F 2 "" H 7400 2050 50  0001 C CNN
F 3 "" H 7400 2050 50  0001 C CNN
	1    7400 2050
	1    0    0    -1  
$EndComp
$Comp
L GND #PWR09
U 1 1 5A1A405F
P 9750 2050
F 0 "#PWR09" H 9750 1800 50  0001 C CNN
F 1 "GND" H 9750 1900 50  0000 C CNN
F 2 "" H 9750 2050 50  0001 C CNN
F 3 "" H 9750 2050 50  0001 C CNN
	1    9750 2050
	1    0    0    -1  
$EndComp
Text Label 2400 1900 2    60   ~ 0
UART_TX
Text Label 2400 1800 2    60   ~ 0
UART_RX
NoConn ~ 2400 4100
NoConn ~ 2400 5500
NoConn ~ 4400 5200
NoConn ~ 4400 5100
NoConn ~ 4400 5000
NoConn ~ 4400 4900
NoConn ~ 4400 4800
NoConn ~ 4400 4000
NoConn ~ 4400 3900
NoConn ~ 4400 3800
NoConn ~ 4400 3700
NoConn ~ 4400 3600
NoConn ~ 4400 3500
NoConn ~ 4400 3400
NoConn ~ 4400 3300
NoConn ~ 4400 3200
NoConn ~ 4400 3100
NoConn ~ 4400 3000
NoConn ~ 4400 2900
NoConn ~ 4400 2800
NoConn ~ 4400 2700
NoConn ~ 4400 2600
NoConn ~ 4400 2300
NoConn ~ 4400 2200
NoConn ~ 4400 2100
NoConn ~ 4400 2000
NoConn ~ 4400 1900
NoConn ~ 4400 1800
NoConn ~ 4400 1700
Text Label 2400 2900 2    60   ~ 0
MOSI
Text Label 2400 3000 2    60   ~ 0
MISO
Text Label 2400 2800 2    60   ~ 0
CS
Text Label 2400 2700 2    60   ~ 0
DC
Text Label 2400 5600 2    60   ~ 0
SCK
$Comp
L +3.3V #PWR010
U 1 1 5A1DD42C
P 12650 3150
F 0 "#PWR010" H 12650 3000 50  0001 C CNN
F 1 "+3.3V" H 12650 3290 50  0000 C CNN
F 2 "" H 12650 3150 50  0001 C CNN
F 3 "" H 12650 3150 50  0001 C CNN
	1    12650 3150
	-1   0    0    -1  
$EndComp
$Comp
L Mounting_Hole MK10
U 1 1 5A1F0B4D
P 13550 6600
F 0 "MK10" H 13550 6800 50  0000 C CNN
F 1 "Mounting_Hole" H 13550 6725 50  0000 C CNN
F 2 "Mounting_Holes:MountingHole_2.7mm_Pad_Via" H 13550 6600 60  0001 C CNN
F 3 "" H 13550 6600 60  0001 C CNN
	1    13550 6600
	1    0    0    -1  
$EndComp
$Comp
L Mounting_Hole MK11
U 1 1 5A1F0B53
P 13900 6600
F 0 "MK11" H 13900 6800 50  0000 C CNN
F 1 "Mounting_Hole" H 13900 6725 50  0000 C CNN
F 2 "Mounting_Holes:MountingHole_2.7mm_Pad_Via" H 13900 6600 60  0001 C CNN
F 3 "" H 13900 6600 60  0001 C CNN
	1    13900 6600
	1    0    0    -1  
$EndComp
$Comp
L Mounting_Hole MK12
U 1 1 5A1F0B59
P 13900 6900
F 0 "MK12" H 13900 7100 50  0000 C CNN
F 1 "Mounting_Hole" H 13900 7025 50  0000 C CNN
F 2 "Mounting_Holes:MountingHole_2.7mm_Pad_Via" H 13900 6900 60  0001 C CNN
F 3 "" H 13900 6900 60  0001 C CNN
	1    13900 6900
	1    0    0    -1  
$EndComp
$Comp
L Mounting_Hole MK13
U 1 1 5A1F0B5F
P 13550 6350
F 0 "MK13" H 13550 6550 50  0000 C CNN
F 1 "Mounting_Hole" H 13550 6475 50  0000 C CNN
F 2 "Mounting_Holes:MountingHole_2.7mm_Pad_Via" H 13550 6350 60  0001 C CNN
F 3 "" H 13550 6350 60  0001 C CNN
	1    13550 6350
	1    0    0    -1  
$EndComp
$Comp
L Mounting_Hole MK14
U 1 1 5A1F0B65
P 13900 6350
F 0 "MK14" H 13900 6550 50  0000 C CNN
F 1 "Mounting_Hole" H 13900 6475 50  0000 C CNN
F 2 "Mounting_Holes:MountingHole_2.7mm_Pad_Via" H 13900 6350 60  0001 C CNN
F 3 "" H 13900 6350 60  0001 C CNN
	1    13900 6350
	1    0    0    -1  
$EndComp
Text Label 2400 5000 2    60   ~ 0
A7
Text Label 2400 5100 2    60   ~ 0
A8
Text Label 2400 4600 2    60   ~ 0
A3
Text Label 2400 4700 2    60   ~ 0
A4
Text Label 2400 3900 2    60   ~ 0
A1
Text Label 2400 4000 2    60   ~ 0
A2
Text Label 2400 4800 2    60   ~ 0
A5
$Comp
L GND #PWR011
U 1 1 5A3AC09D
P 8650 7200
F 0 "#PWR011" H 8650 6950 50  0001 C CNN
F 1 "GND" H 8650 7050 50  0000 C CNN
F 2 "" H 8650 7200 50  0000 C CNN
F 3 "" H 8650 7200 50  0000 C CNN
	1    8650 7200
	1    0    0    -1  
$EndComp
$Comp
L +3.3V #PWR012
U 1 1 5A3AB563
P 8950 5950
F 0 "#PWR012" H 8950 5800 50  0001 C CNN
F 1 "+3.3V" H 8950 6090 50  0000 C CNN
F 2 "" H 8950 5950 50  0000 C CNN
F 3 "" H 8950 5950 50  0000 C CNN
	1    8950 5950
	1    0    0    -1  
$EndComp
Text Label 7750 6400 1    60   ~ 0
A3
Text Label 7400 6400 1    60   ~ 0
A2
Text Label 7050 6400 1    60   ~ 0
A1
$Comp
L POT RV1
U 1 1 5A3A1A65
P 7050 6550
F 0 "RV1" H 7000 6650 50  0000 R CNN
F 1 "POT_KEY" H 7000 6450 50  0000 R CNN
F 2 "Potentiometers:Potentiometer_Bourns_PTV09A-1_Horizontal" H 7050 6550 50  0001 C CNN
F 3 "" H 7050 6550 50  0001 C CNN
	1    7050 6550
	0    -1   -1   0   
$EndComp
$Comp
L POT RV2
U 1 1 5A3A1951
P 7400 6550
F 0 "RV2" H 7350 6650 50  0000 R CNN
F 1 "POT_MODE" H 7150 6450 50  0000 C CNN
F 2 "Potentiometers:Potentiometer_Bourns_PTV09A-1_Horizontal" H 7400 6550 50  0001 C CNN
F 3 "" H 7400 6550 50  0001 C CNN
	1    7400 6550
	0    -1   -1   0   
$EndComp
$Comp
L POT RV3
U 1 1 5A3A1844
P 7750 6550
F 0 "RV3" H 7700 6650 50  0000 R CNN
F 1 "POT_LOCT" H 7700 6450 50  0000 R CNN
F 2 "Potentiometers:Potentiometer_Bourns_PTV09A-1_Horizontal" H 7750 6550 50  0001 C CNN
F 3 "" H 7750 6550 50  0001 C CNN
	1    7750 6550
	0    -1   -1   0   
$EndComp
Text Label 9150 6400 1    60   ~ 0
A7
Text Label 8800 6400 1    60   ~ 0
A6
Text Label 8450 6400 1    60   ~ 0
A5
Text Label 8100 6400 1    60   ~ 0
A4
$Comp
L POT RV4
U 1 1 5A46D5C9
P 8100 6550
F 0 "RV4" H 8050 6650 50  0000 R CNN
F 1 "POT_ROCT" H 8050 6450 50  0000 R CNN
F 2 "Potentiometers:Potentiometer_Bourns_PTV09A-1_Horizontal" H 8100 6550 50  0001 C CNN
F 3 "" H 8100 6550 50  0001 C CNN
	1    8100 6550
	0    -1   -1   0   
$EndComp
$Comp
L POT RV5
U 1 1 5A46D5CF
P 8450 6550
F 0 "RV5" H 8400 6650 50  0000 R CNN
F 1 "POT_TEMP" H 8400 6450 50  0000 R CNN
F 2 "Potentiometers:Potentiometer_Bourns_PTV09A-1_Horizontal" H 8450 6550 50  0001 C CNN
F 3 "" H 8450 6550 50  0001 C CNN
	1    8450 6550
	0    -1   -1   0   
$EndComp
$Comp
L POT RV6
U 1 1 5A46D5D5
P 8800 6550
F 0 "RV6" H 8600 6650 50  0000 L CNN
F 1 "POT_LOOP" H 8550 6450 50  0000 C CNN
F 2 "Potentiometers:Potentiometer_Bourns_PTV09A-1_Horizontal" H 8800 6550 50  0001 C CNN
F 3 "" H 8800 6550 50  0001 C CNN
	1    8800 6550
	0    -1   -1   0   
$EndComp
$Comp
L POT RV7
U 1 1 5A46D5DB
P 9150 6550
F 0 "RV7" H 8950 6650 50  0000 C CNN
F 1 "POT" V 9050 6550 50  0000 C CNN
F 2 "Potentiometers:Potentiometer_Bourns_PTV09A-1_Horizontal" H 9150 6550 50  0001 C CNN
F 3 "" H 9150 6550 50  0001 C CNN
	1    9150 6550
	0    -1   -1   0   
$EndComp
$Comp
L SW_SPST CORE_SW2
U 1 1 5A489629
P 1700 4500
F 0 "CORE_SW2" H 1550 4550 50  0000 C CNN
F 1 "SW_RST" H 1900 4550 50  0000 C CNN
F 2 "Buttons_Switches_THT:SW_CuK_OS102011MA1QN1_SPDT_Angled" H 1700 4500 50  0001 C CNN
F 3 "" H 1700 4500 50  0001 C CNN
	1    1700 4500
	1    0    0    -1  
$EndComp
$Comp
L SW_SPST CORE_SW1
U 1 1 5A4897A5
P 1700 4400
F 0 "CORE_SW1" H 1550 4450 50  0000 C CNN
F 1 "SW_PGM" H 1900 4450 50  0000 C CNN
F 2 "Buttons_Switches_THT:SW_Tactile_SPST_Angled_PTS645Vx58-2LFS" H 1700 4400 50  0001 C CNN
F 3 "" H 1700 4400 50  0001 C CNN
	1    1700 4400
	1    0    0    -1  
$EndComp
Text Label 1200 3200 2    60   ~ 0
JSW1
Text Label 1200 3300 2    60   ~ 0
JSW2
Text Label 2400 4900 2    60   ~ 0
A6
Text Label 2400 5800 2    60   ~ 0
A11
Text Label 2400 5200 2    60   ~ 0
A9
Text Label 2400 5700 2    60   ~ 0
A10
Text Label 2400 5900 2    60   ~ 0
A12
Text Label 4400 5900 0    60   ~ 0
A13
Text Label 4400 5600 0    60   ~ 0
A14
$Comp
L GND #PWR013
U 1 1 5A4BC558
P 1200 4600
F 0 "#PWR013" H 1200 4350 50  0001 C CNN
F 1 "GND" H 1200 4450 50  0000 C CNN
F 2 "" H 1200 4600 50  0000 C CNN
F 3 "" H 1200 4600 50  0000 C CNN
	1    1200 4600
	1    0    0    -1  
$EndComp
$Comp
L USB_A_afshar J1
U 1 1 5A4E4CD3
P 5100 4300
F 0 "J1" H 4900 4750 50  0000 L CNN
F 1 "USB_A_afshar" H 4900 4650 50  0000 L CNN
F 2 "Connectors:USB_A" H 5250 4250 50  0001 C CNN
F 3 "" H 5250 4250 50  0001 C CNN
	1    5100 4300
	-1   0    0    -1  
$EndComp
$Comp
L JOYSTICK_BUTTON JS1
U 1 1 5A4E691B
P 11750 3650
F 0 "JS1" H 11350 4200 60  0000 C CNN
F 1 "JOYSTICK_LEFT" H 11750 3200 60  0000 C CNN
F 2 "SparkFun-Electromechanical:JOYSTICK" H 11750 3650 60  0001 C CNN
F 3 "" H 11750 3650 60  0000 C CNN
	1    11750 3650
	-1   0    0    -1  
$EndComp
$Comp
L JOYSTICK_BUTTON JS2
U 1 1 5A4E73CC
P 13650 3650
F 0 "JS2" H 13250 4200 60  0000 C CNN
F 1 "JOYSTICK_RIGHT" H 13650 3200 60  0000 C CNN
F 2 "SparkFun-Electromechanical:JOYSTICK" H 13650 3650 60  0001 C CNN
F 3 "" H 13650 3650 60  0000 C CNN
	1    13650 3650
	1    0    0    -1  
$EndComp
Wire Wire Line
	10300 4250 10300 2400
Connection ~ 10300 2500
Connection ~ 10300 2600
Connection ~ 10300 2700
Connection ~ 10300 2800
Connection ~ 10300 2900
Connection ~ 10300 3000
Connection ~ 10300 3100
Connection ~ 10300 3300
Connection ~ 10300 3400
Connection ~ 10300 3500
Connection ~ 10300 3600
Connection ~ 10300 3700
Connection ~ 10300 3800
Connection ~ 10300 3900
Wire Wire Line
	5500 5800 5500 5300
Connection ~ 5500 5800
Wire Wire Line
	5600 5700 5600 5300
Connection ~ 5600 5700
Wire Wire Line
	5500 5000 5600 5000
Wire Wire Line
	5550 5000 5550 4000
Connection ~ 5550 5000
Connection ~ 10300 4000
Wire Wire Line
	8300 4000 8900 4000
Connection ~ 8600 4000
Wire Wire Line
	8300 3900 8900 3900
Connection ~ 8600 3900
Wire Wire Line
	4400 5700 5800 5700
Wire Wire Line
	4400 5800 5800 5800
Wire Wire Line
	9400 1600 9400 2200
Wire Wire Line
	8900 2400 8800 2400
Wire Wire Line
	8800 2400 8800 1600
Connection ~ 8800 1600
Wire Wire Line
	8600 3800 8600 4600
Wire Wire Line
	9400 4250 9400 4200
Connection ~ 9400 4250
Wire Wire Line
	6900 2400 6900 4250
Connection ~ 6900 2500
Connection ~ 6900 2600
Connection ~ 6900 2700
Connection ~ 6900 2800
Connection ~ 6900 2900
Connection ~ 6900 3000
Connection ~ 6900 3100
Connection ~ 6900 3300
Connection ~ 6900 3400
Connection ~ 6900 3500
Connection ~ 6900 3600
Connection ~ 6900 3700
Connection ~ 6900 3800
Connection ~ 6900 3900
Connection ~ 6900 4000
Wire Wire Line
	8600 3800 8300 3800
Wire Wire Line
	7800 1600 7800 2200
Connection ~ 8400 1600
Wire Wire Line
	8400 2400 8300 2400
Wire Wire Line
	8400 1600 8400 2400
Connection ~ 8600 4250
Wire Wire Line
	7800 4200 7800 4250
Connection ~ 7800 4250
Wire Wire Line
	8900 3500 8300 3500
Wire Wire Line
	8900 3600 8300 3600
Wire Wire Line
	2400 1700 2400 1300
Wire Wire Line
	7600 1600 7600 1700
Connection ~ 7800 1600
Wire Wire Line
	9550 1600 9550 1700
Connection ~ 9550 1600
Wire Wire Line
	9550 2000 9550 2050
Wire Wire Line
	7600 2000 7600 2050
Wire Wire Line
	8800 3800 8900 3800
Wire Wire Line
	6900 4250 10300 4250
Wire Wire Line
	8600 1600 8600 1350
Connection ~ 8600 1600
Connection ~ 9400 1600
Wire Wire Line
	7400 1600 9750 1600
Connection ~ 7600 1600
Wire Wire Line
	9750 1600 9750 1700
Wire Wire Line
	7400 1600 7400 1700
Wire Wire Line
	7400 2000 7400 2050
Wire Wire Line
	9750 2000 9750 2050
Wire Wire Line
	1200 3100 2400 3100
Wire Wire Line
	1200 3200 2400 3200
Wire Wire Line
	2400 3300 1200 3300
Connection ~ 6900 7050
Wire Wire Line
	6900 6550 6900 7050
Connection ~ 7250 7050
Wire Wire Line
	7250 7050 7250 6550
Connection ~ 7600 7050
Wire Wire Line
	7600 7050 7600 6550
Wire Wire Line
	9000 7050 9000 6550
Connection ~ 7900 6100
Wire Wire Line
	7900 6100 7900 6550
Connection ~ 7550 6100
Wire Wire Line
	7550 6100 7550 6550
Connection ~ 7200 6100
Wire Wire Line
	7200 6550 7200 6100
Wire Wire Line
	7200 6100 10000 6100
Wire Wire Line
	9300 6100 9300 6550
Wire Wire Line
	8300 7050 8300 6550
Wire Wire Line
	8650 6550 8650 7200
Wire Wire Line
	7950 7050 7950 6550
Wire Wire Line
	8950 5950 8950 6550
Wire Wire Line
	8600 6550 8600 6100
Wire Wire Line
	8250 6100 8250 6550
Connection ~ 8250 6100
Connection ~ 8600 6100
Connection ~ 8950 6100
Connection ~ 9300 6100
Connection ~ 9000 7050
Connection ~ 8650 7050
Connection ~ 8300 7050
Connection ~ 7950 7050
Wire Wire Line
	1900 4400 2400 4400
Wire Wire Line
	1900 4500 2400 4500
Wire Wire Line
	1200 4400 1500 4400
Wire Wire Line
	1200 4500 1500 4500
Wire Wire Line
	1200 3400 1200 4600
Connection ~ 1200 4500
Wire Wire Line
	2400 4300 1200 4300
Connection ~ 1200 4400
Wire Wire Line
	4400 4100 4800 4100
Wire Wire Line
	4800 4200 4400 4200
Wire Wire Line
	4400 4300 4800 4300
Wire Wire Line
	4400 4400 4800 4400
Wire Wire Line
	4400 4500 4800 4500
Wire Wire Line
	6900 7050 9700 7050
$Comp
L WS2812B_afshar LED1
U 1 1 5A545529
P 3900 8650
F 0 "LED1" H 3700 8450 50  0000 C CNN
F 1 "WS2812B_afshar" H 3800 8750 50  0000 C CNN
F 2 "afshar-kicad-lib:LED_D8.0mm-Neopixel" H 3900 8350 50  0000 C CNN
F 3 "" H 3900 8600 50  0000 C CNN
	1    3900 8650
	1    0    0    -1  
$EndComp
$Comp
L WS2812B_afshar LED2
U 1 1 5A5458FA
P 4750 8650
F 0 "LED2" H 4550 8450 50  0000 C CNN
F 1 "WS2812B_afshar" H 4650 8750 50  0000 C CNN
F 2 "afshar-kicad-lib:LED_D8.0mm-Neopixel" H 4750 8350 50  0000 C CNN
F 3 "" H 4750 8600 50  0000 C CNN
	1    4750 8650
	1    0    0    -1  
$EndComp
$Comp
L WS2812B_afshar LED3
U 1 1 5A5459F2
P 5600 8650
F 0 "LED3" H 5400 8450 50  0000 C CNN
F 1 "WS2812B_afshar" H 5500 8750 50  0000 C CNN
F 2 "afshar-kicad-lib:LED_D8.0mm-Neopixel" H 5600 8350 50  0000 C CNN
F 3 "" H 5600 8600 50  0000 C CNN
	1    5600 8650
	1    0    0    -1  
$EndComp
$Comp
L WS2812B_afshar LED4
U 1 1 5A545D68
P 6450 8650
F 0 "LED4" H 6250 8450 50  0000 C CNN
F 1 "WS2812B_afshar" H 6350 8750 50  0000 C CNN
F 2 "afshar-kicad-lib:LED_D8.0mm-Neopixel" H 6450 8350 50  0000 C CNN
F 3 "" H 6450 8600 50  0000 C CNN
	1    6450 8650
	1    0    0    -1  
$EndComp
$Comp
L WS2812B_afshar LED5
U 1 1 5A545E6E
P 7300 8650
F 0 "LED5" H 7100 8450 50  0000 C CNN
F 1 "WS2812B_afshar" H 7200 8750 50  0000 C CNN
F 2 "afshar-kicad-lib:LED_D8.0mm-Neopixel" H 7300 8350 50  0000 C CNN
F 3 "" H 7300 8600 50  0000 C CNN
	1    7300 8650
	1    0    0    -1  
$EndComp
$Comp
L WS2812B_afshar LED6
U 1 1 5A545FFD
P 8150 8650
F 0 "LED6" H 7950 8450 50  0000 C CNN
F 1 "WS2812B_afshar" H 8050 8750 50  0000 C CNN
F 2 "afshar-kicad-lib:LED_D8.0mm-Neopixel" H 8150 8350 50  0000 C CNN
F 3 "" H 8150 8600 50  0000 C CNN
	1    8150 8650
	1    0    0    -1  
$EndComp
$Comp
L WS2812B_afshar LED7
U 1 1 5A5460FB
P 9000 8650
F 0 "LED7" H 8800 8450 50  0000 C CNN
F 1 "WS2812B_afshar" H 8900 8750 50  0000 C CNN
F 2 "afshar-kicad-lib:LED_D8.0mm-Neopixel" H 9000 8350 50  0000 C CNN
F 3 "" H 9000 8600 50  0000 C CNN
	1    9000 8650
	1    0    0    -1  
$EndComp
$Comp
L WS2812B_afshar LED8
U 1 1 5A546204
P 9850 8650
F 0 "LED8" H 9650 8450 50  0000 C CNN
F 1 "WS2812B_afshar" H 9750 8750 50  0000 C CNN
F 2 "afshar-kicad-lib:LED_D8.0mm-Neopixel" H 9850 8350 50  0000 C CNN
F 3 "" H 9850 8600 50  0000 C CNN
	1    9850 8650
	1    0    0    -1  
$EndComp
$Comp
L WS2812B_afshar LED9
U 1 1 5A546310
P 10700 8650
F 0 "LED9" H 10500 8450 50  0000 C CNN
F 1 "WS2812B_afshar" H 10600 8750 50  0000 C CNN
F 2 "afshar-kicad-lib:LED_D8.0mm-Neopixel" H 10700 8350 50  0000 C CNN
F 3 "" H 10700 8600 50  0000 C CNN
	1    10700 8650
	1    0    0    -1  
$EndComp
$Comp
L WS2812B_afshar LED10
U 1 1 5A54642D
P 11550 8650
F 0 "LED10" H 11350 8450 50  0000 C CNN
F 1 "WS2812B_afshar" H 11450 8750 50  0000 C CNN
F 2 "afshar-kicad-lib:LED_D8.0mm-Neopixel" H 11550 8350 50  0000 C CNN
F 3 "" H 11550 8600 50  0000 C CNN
	1    11550 8650
	1    0    0    -1  
$EndComp
$Comp
L WS2812B_afshar LED11
U 1 1 5A54653D
P 12400 8650
F 0 "LED11" H 12200 8450 50  0000 C CNN
F 1 "WS2812B_afshar" H 12300 8750 50  0000 C CNN
F 2 "afshar-kicad-lib:LED_D8.0mm-Neopixel" H 12400 8350 50  0000 C CNN
F 3 "" H 12400 8600 50  0000 C CNN
	1    12400 8650
	1    0    0    -1  
$EndComp
$Comp
L WS2812B_afshar LED12
U 1 1 5A54664C
P 13250 8650
F 0 "LED12" H 13050 8450 50  0000 C CNN
F 1 "WS2812B_afshar" H 13150 8750 50  0000 C CNN
F 2 "afshar-kicad-lib:LED_D8.0mm-Neopixel" H 13250 8350 50  0000 C CNN
F 3 "" H 13250 8600 50  0000 C CNN
	1    13250 8650
	1    0    0    -1  
$EndComp
$Comp
L POT RV8
U 1 1 5A54A2AF
P 9500 6550
F 0 "RV8" H 9300 6650 50  0000 C CNN
F 1 "POT" V 9400 6550 50  0000 C CNN
F 2 "Potentiometers:Potentiometer_Bourns_PTV09A-1_Horizontal" H 9500 6550 50  0001 C CNN
F 3 "" H 9500 6550 50  0001 C CNN
	1    9500 6550
	0    -1   -1   0   
$EndComp
$Comp
L POT RV9
U 1 1 5A54A3CB
P 9850 6550
F 0 "RV9" H 9650 6650 50  0000 C CNN
F 1 "POT" V 9750 6550 50  0000 C CNN
F 2 "Potentiometers:Potentiometer_Bourns_PTV09A-1_Horizontal" H 9850 6550 50  0001 C CNN
F 3 "" H 9850 6550 50  0001 C CNN
	1    9850 6550
	0    -1   -1   0   
$EndComp
Wire Wire Line
	9350 7050 9350 6550
Wire Wire Line
	9650 6100 9650 6550
Wire Wire Line
	10000 6100 10000 6550
Connection ~ 9650 6100
Wire Wire Line
	9700 7050 9700 6550
Connection ~ 9350 7050
Text Label 9500 6400 1    60   ~ 0
A8
Text Label 9850 6400 1    60   ~ 0
A9
$Comp
L SW_SPST CORE_SW4
U 1 1 5A54D2AD
P 1700 3500
F 0 "CORE_SW4" H 1550 3550 50  0000 C CNN
F 1 "SW_REC" H 1900 3550 50  0000 C CNN
F 2 "Buttons_Switches_THT:SW_PUSH_6mm_h13mm" H 1700 3500 50  0001 C CNN
F 3 "" H 1700 3500 50  0001 C CNN
	1    1700 3500
	1    0    0    -1  
$EndComp
$Comp
L SW_SPST CORE_SW3
U 1 1 5A54D2B3
P 1700 3400
F 0 "CORE_SW3" H 1550 3450 50  0000 C CNN
F 1 "SW_CFG" H 1900 3450 50  0000 C CNN
F 2 "Buttons_Switches_THT:SW_PUSH_6mm_h13mm" H 1700 3400 50  0001 C CNN
F 3 "" H 1700 3400 50  0001 C CNN
	1    1700 3400
	1    0    0    -1  
$EndComp
Wire Wire Line
	1900 3400 2400 3400
Wire Wire Line
	1900 3500 2400 3500
Wire Wire Line
	1500 3400 1200 3400
Wire Wire Line
	1200 3500 1500 3500
Connection ~ 1200 3500
Connection ~ 1200 3400
$Comp
L SW_SPST CORE_SW5
U 1 1 5A54D522
P 1700 3600
F 0 "CORE_SW5" H 1550 3650 50  0000 C CNN
F 1 "SW_PLAY" H 1900 3650 50  0000 C CNN
F 2 "Buttons_Switches_THT:SW_PUSH_6mm_h13mm" H 1700 3600 50  0001 C CNN
F 3 "" H 1700 3600 50  0001 C CNN
	1    1700 3600
	1    0    0    -1  
$EndComp
Wire Wire Line
	1900 3600 2400 3600
Wire Wire Line
	1500 3600 1200 3600
Connection ~ 1200 3700
Connection ~ 1200 3600
Connection ~ 1200 4300
$Comp
L WS2812B_afshar LED13
U 1 1 5A54F3D5
P 14100 8650
F 0 "LED13" H 13900 8450 50  0000 C CNN
F 1 "WS2812B_afshar" H 14000 8750 50  0000 C CNN
F 2 "afshar-kicad-lib:LED_D8.0mm-Neopixel" H 14100 8350 50  0000 C CNN
F 3 "" H 14100 8600 50  0000 C CNN
	1    14100 8650
	1    0    0    -1  
$EndComp
Text Label 12400 3350 0    60   ~ 0
A10
Text Label 12400 3700 0    60   ~ 0
A11
Text Label 13000 3350 2    60   ~ 0
A12
Text Label 13000 3700 2    60   ~ 0
A13
Text Label 12400 3950 0    60   ~ 0
JSW1
Text Label 13000 3950 2    60   ~ 0
JSW2
Wire Wire Line
	12650 3150 12650 3600
Wire Wire Line
	12400 3250 13000 3250
Connection ~ 12650 3250
Wire Wire Line
	12400 3600 13000 3600
Connection ~ 12650 3600
Wire Wire Line
	12400 3450 13000 3450
Wire Wire Line
	12750 3450 12750 4150
Wire Wire Line
	12400 3800 13000 3800
Connection ~ 12750 3450
Connection ~ 12750 3800
Wire Wire Line
	12400 4050 13000 4050
Connection ~ 12750 4050
$Comp
L GND #PWR014
U 1 1 5A554F88
P 12750 4150
F 0 "#PWR014" H 12750 3900 50  0001 C CNN
F 1 "GND" H 12750 4000 50  0000 C CNN
F 2 "" H 12750 4150 50  0000 C CNN
F 3 "" H 12750 4150 50  0000 C CNN
	1    12750 4150
	1    0    0    -1  
$EndComp
$Comp
L +3.3V #PWR015
U 1 1 5A5558C8
P 1200 3100
F 0 "#PWR015" H 1200 2950 50  0001 C CNN
F 1 "+3.3V" H 1200 3240 50  0000 C CNN
F 2 "" H 1200 3100 50  0001 C CNN
F 3 "" H 1200 3100 50  0001 C CNN
	1    1200 3100
	1    0    0    -1  
$EndComp
NoConn ~ 2400 4200
Text Label 2400 2000 2    60   ~ 0
PIXEL_IN
Text Label 1800 8700 2    60   ~ 0
PIXEL_IN
Wire Wire Line
	4050 8400 14250 8400
Connection ~ 4900 8400
Connection ~ 5750 8400
Connection ~ 6600 8400
Connection ~ 7450 8400
Connection ~ 8300 8400
Connection ~ 9150 8400
Connection ~ 10000 8400
Connection ~ 10850 8400
Connection ~ 11700 8400
Connection ~ 12550 8400
Connection ~ 13400 8400
NoConn ~ 14450 8700
Wire Wire Line
	4050 9000 14250 9000
Connection ~ 13400 9000
Connection ~ 11700 9000
Connection ~ 10850 9000
Connection ~ 10000 9000
Connection ~ 9150 9000
Connection ~ 8300 9000
Connection ~ 7450 9000
Connection ~ 6600 9000
Connection ~ 5750 9000
Connection ~ 4900 9000
$Comp
L GND #PWR016
U 1 1 5A558B5D
P 4050 9150
F 0 "#PWR016" H 4050 8900 50  0001 C CNN
F 1 "GND" H 4050 9000 50  0000 C CNN
F 2 "" H 4050 9150 50  0000 C CNN
F 3 "" H 4050 9150 50  0000 C CNN
	1    4050 9150
	1    0    0    -1  
$EndComp
Wire Wire Line
	4050 9000 4050 9150
Wire Wire Line
	4050 8400 4050 8250
$Comp
L +5V #PWR017
U 1 1 5A559358
P 4050 8250
F 0 "#PWR017" H 4050 8100 50  0001 C CNN
F 1 "+5V" H 4050 8390 50  0000 C CNN
F 2 "" H 4050 8250 50  0001 C CNN
F 3 "" H 4050 8250 50  0001 C CNN
	1    4050 8250
	1    0    0    -1  
$EndComp
Wire Wire Line
	4550 4500 4550 4000
Connection ~ 4550 4500
$Comp
L +5V #PWR018
U 1 1 5A559B8A
P 4550 4000
F 0 "#PWR018" H 4550 3850 50  0001 C CNN
F 1 "+5V" H 4550 4140 50  0000 C CNN
F 2 "" H 4550 4000 50  0001 C CNN
F 3 "" H 4550 4000 50  0001 C CNN
	1    4550 4000
	1    0    0    -1  
$EndComp
Wire Wire Line
	3300 8700 3500 8700
Wire Wire Line
	4300 8700 4350 8700
Wire Wire Line
	5150 8700 5200 8700
Wire Wire Line
	6000 8700 6050 8700
Wire Wire Line
	6850 8700 6900 8700
Wire Wire Line
	7700 8700 7750 8700
Wire Wire Line
	8550 8700 8600 8700
Wire Wire Line
	9400 8700 9450 8700
Wire Wire Line
	10250 8700 10300 8700
Wire Wire Line
	11100 8700 11150 8700
Wire Wire Line
	11950 8700 12000 8700
Wire Wire Line
	12800 8700 12850 8700
Wire Wire Line
	13650 8700 13700 8700
Wire Wire Line
	1800 8700 1900 8700
Wire Wire Line
	1750 9600 1900 9600
Wire Wire Line
	1750 9450 1750 9600
Wire Wire Line
	1900 9700 1750 9700
Wire Wire Line
	1750 9700 1750 10100
$Comp
L +5V #PWR019
U 1 1 5A55F0C4
P 1750 9450
F 0 "#PWR019" H 1750 9300 50  0001 C CNN
F 1 "+5V" H 1750 9590 50  0000 C CNN
F 2 "" H 1750 9450 50  0001 C CNN
F 3 "" H 1750 9450 50  0001 C CNN
	1    1750 9450
	1    0    0    -1  
$EndComp
$Comp
L C C1
U 1 1 5A55F630
P 1650 9650
F 0 "C1" H 1675 9750 50  0000 L CNN
F 1 "0.1uF" V 1750 9400 50  0000 L CNN
F 2 "Capacitors_THT:C_Disc_D4.3mm_W1.9mm_P5.00mm" H 1688 9500 50  0001 C CNN
F 3 "" H 1650 9650 50  0001 C CNN
	1    1650 9650
	1    0    0    -1  
$EndComp
Wire Wire Line
	1750 9500 1650 9500
Connection ~ 1750 9500
Wire Wire Line
	1750 9800 1650 9800
Connection ~ 1750 9800
$Comp
L 74LS245_aa U1
U 1 1 5A56E3CF
P 2600 9200
F 0 "U1" H 2700 9775 50  0000 L BNN
F 1 "74LS245_aa" H 2650 8625 50  0000 L TNN
F 2 "Housings_DIP:DIP-20_W7.62mm" H 2600 9200 50  0001 C CNN
F 3 "" H 2600 9200 50  0001 C CNN
	1    2600 9200
	1    0    0    -1  
$EndComp
$Comp
L +5V #PWR020
U 1 1 5A56E4F8
P 2600 8300
F 0 "#PWR020" H 2600 8150 50  0001 C CNN
F 1 "+5V" H 2600 8440 50  0000 C CNN
F 2 "" H 2600 8300 50  0001 C CNN
F 3 "" H 2600 8300 50  0001 C CNN
	1    2600 8300
	1    0    0    -1  
$EndComp
$Comp
L GND #PWR021
U 1 1 5A56E5F9
P 2600 10150
F 0 "#PWR021" H 2600 9900 50  0001 C CNN
F 1 "GND" H 2600 10000 50  0000 C CNN
F 2 "" H 2600 10150 50  0000 C CNN
F 3 "" H 2600 10150 50  0000 C CNN
	1    2600 10150
	1    0    0    -1  
$EndComp
Wire Wire Line
	2600 8350 2600 8300
Wire Wire Line
	2600 10050 2600 10150
Wire Wire Line
	1750 10100 2600 10100
Connection ~ 2600 10100
$Comp
L Mounting_Hole MK1
U 1 1 5A570F6D
P 13900 7200
F 0 "MK1" H 13900 7400 50  0000 C CNN
F 1 "Mounting_Hole" H 13900 7325 50  0000 C CNN
F 2 "Mounting_Holes:MountingHole_2.7mm_Pad_Via" H 13900 7200 60  0001 C CNN
F 3 "" H 13900 7200 60  0001 C CNN
	1    13900 7200
	1    0    0    -1  
$EndComp
$Comp
L Mounting_Hole MK6
U 1 1 5A57108E
P 14250 6350
F 0 "MK6" H 14250 6550 50  0000 C CNN
F 1 "Mounting_Hole" H 14250 6475 50  0000 C CNN
F 2 "Mounting_Holes:MountingHole_2.7mm_Pad_Via" H 14250 6350 60  0001 C CNN
F 3 "" H 14250 6350 60  0001 C CNN
	1    14250 6350
	1    0    0    -1  
$EndComp
$Comp
L Mounting_Hole MK9
U 1 1 5A5711AC
P 14250 6600
F 0 "MK9" H 14250 6800 50  0000 C CNN
F 1 "Mounting_Hole" H 14250 6725 50  0000 C CNN
F 2 "Mounting_Holes:MountingHole_2.7mm_Pad_Via" H 14250 6600 60  0001 C CNN
F 3 "" H 14250 6600 60  0001 C CNN
	1    14250 6600
	1    0    0    -1  
$EndComp
$Comp
L Mounting_Hole MK15
U 1 1 5A5712D5
P 14250 6900
F 0 "MK15" H 14250 7100 50  0000 C CNN
F 1 "Mounting_Hole" H 14250 7025 50  0000 C CNN
F 2 "Mounting_Holes:MountingHole_2.7mm_Pad_Via" H 14250 6900 60  0001 C CNN
F 3 "" H 14250 6900 60  0001 C CNN
	1    14250 6900
	1    0    0    -1  
$EndComp
$Comp
L Mounting_Hole MK16
U 1 1 5A5713F3
P 14250 7200
F 0 "MK16" H 14250 7400 50  0000 C CNN
F 1 "Mounting_Hole" H 14250 7325 50  0000 C CNN
F 2 "Mounting_Holes:MountingHole_2.7mm_Pad_Via" H 14250 7200 60  0001 C CNN
F 3 "" H 14250 7200 60  0001 C CNN
	1    14250 7200
	1    0    0    -1  
$EndComp
$Comp
L Jumper_NO_Small JP1
U 1 1 5A573B3D
P 3400 8500
F 0 "JP1" H 3400 8580 50  0000 C CNN
F 1 "Jumper_NO_Small" H 3410 8440 50  0000 C CNN
F 2 "Resistors_Universal:Resistor_SMD+THTuniversal_0805to1206_RM10_HandSoldering" H 3400 8500 50  0001 C CNN
F 3 "" H 3400 8500 50  0001 C CNN
	1    3400 8500
	0    1    1    0   
$EndComp
Wire Wire Line
	3400 8600 3400 8700
Connection ~ 3400 8700
Text Label 3400 8350 1    60   ~ 0
PIXEL_IN
Wire Wire Line
	3400 8350 3400 8400
$EndSCHEMATC
