G04 #@! TF.FileFunction,Profile,NP*
%FSLAX46Y46*%
G04 Gerber Fmt 4.6, Leading zero omitted, Abs format (unit mm)*
G04 Created by KiCad (PCBNEW 4.0.6+dfsg1-1) date Sat Mar 10 19:12:41 2018*
%MOMM*%
%LPD*%
G01*
G04 APERTURE LIST*
%ADD10C,0.100000*%
%ADD11C,0.150000*%
G04 APERTURE END LIST*
D10*
D11*
X76200000Y-131445000D02*
X311150000Y-131445000D01*
X311150000Y-55245000D02*
X76200000Y-55245000D01*
X71755000Y-59690000D02*
X71755000Y-127000000D01*
X315595000Y-59690000D02*
X315595000Y-127000000D01*
X315595000Y-59690000D02*
G75*
G03X311150000Y-55245000I-4445000J0D01*
G01*
X311150000Y-131445000D02*
G75*
G03X315595000Y-127000000I0J4445000D01*
G01*
X71755000Y-127000000D02*
G75*
G03X76200000Y-131445000I4445000J0D01*
G01*
X76200000Y-55245000D02*
G75*
G03X71755000Y-59690000I0J-4445000D01*
G01*
M02*
