<?xml version="1.0" standalone="no"?>
 <!DOCTYPE svg PUBLIC "-//W3C//DTD SVG 1.1//EN" 
 "http://www.w3.org/Graphics/SVG/1.1/DTD/svg11.dtd"> 
<svg xmlns="http://www.w3.org/2000/svg" version="1.1" 
    width="24.7828cm" height="9.03478cm" viewBox="0 0 97570 35570 ">
<title>SVG Picture created as chordboard-brd.svg date 2018/03/10 18:48:28 </title>
  <desc>Picture generated by PCBNEW </desc>
<g style="fill:#000000; fill-opacity:1;stroke:#000000; stroke-opacity:1;
stroke-linecap:round; stroke-linejoin:round; "
 transform="translate(0 0) scale(1 1)">
</g>
<g style="fill:#000000; fill-opacity:0.0; 
stroke:#000000; stroke-width:-0.000393701; stroke-opacity:1; 
stroke-linecap:round; stroke-linejoin:round;">
</g>
<g style="fill:#000000; fill-opacity:0.0; 
stroke:#000000; stroke-width:59.0551; stroke-opacity:1; 
stroke-linecap:round; stroke-linejoin:round;">
<circle cx="38539.4" cy="11289.4" r="500" /> 
<circle cx="12289.4" cy="11289.4" r="500" /> 
<circle cx="23539.4" cy="34039.4" r="500" /> 
<circle cx="49039.4" cy="34039.4" r="500" /> 
<circle cx="74539.4" cy="34039.4" r="500" /> 
<circle cx="74539.4" cy="1539.37" r="500" /> 
<circle cx="49039.4" cy="1539.37" r="500" /> 
<circle cx="23539.4" cy="1539.37" r="500" /> 
<circle cx="96039.4" cy="34039.4" r="500" /> 
<circle cx="1539.37" cy="34039.4" r="500" /> 
<circle cx="1539.37" cy="1539.37" r="500" /> 
<circle cx="96039.4" cy="1539.37" r="500" /> 
<path d="M95789 39
L1789 39
" />
<path d="M95789 35539
L1789 35539
" />
<path d="M39 33789
L39 1789
" />
<path d="M97539 1789
L97539 33789
" />
</g>
<g style="fill:#000000; fill-opacity:0.0; 
stroke:#000000; stroke-width:78.7402; stroke-opacity:1; 
stroke-linecap:round; stroke-linejoin:round;">
<path d="M95789.4 35539.4 A1750 1750 0.0 0 0 97539.4 33789.4 " />
<path d="M97539.4 1789.37 A1750 1750 0.0 0 0 95789.4 39.3705 " />
<path d="M39.3705 33789.4 A1750 1750 0.0 0 0 1789.37 35539.4 " />
<path d="M1789.37 39.3705 A1750 1750 0.0 0 0 39.3705 1789.37 " />
</g>
<g style="fill:#000000; fill-opacity:0.0; 
stroke:#000000; stroke-width:59.0551; stroke-opacity:1; 
stroke-linecap:round; stroke-linejoin:round;">
<path d="M86539 24539
L92539 24539
" />
<path d="M92539 24539
L92539 18539
" />
<path d="M92539 18539
L86539 18539
" />
<path d="M86539 18539
L86539 24539
" />
<path d="M5539 32039
L11539 32039
" />
<path d="M11539 32039
L11539 26039
" />
<path d="M11539 26039
L5539 26039
" />
<path d="M5539 26039
L5539 32039
" />
<path d="M50539 24539
L56539 24539
" />
<path d="M56539 24539
L56539 18539
" />
<path d="M56539 18539
L50539 18539
" />
<path d="M50539 18539
L50539 24539
" />
<path d="M43039 24539
L49039 24539
" />
<path d="M49039 24539
L49039 18539
" />
<path d="M49039 18539
L43039 18539
" />
<path d="M43039 18539
L43039 24539
" />
<path d="M35539 24539
L41539 24539
" />
<path d="M41539 24539
L41539 18539
" />
<path d="M41539 18539
L35539 18539
" />
<path d="M35539 18539
L35539 24539
" />
<path d="M28039 24539
L34039 24539
" />
<path d="M34039 24539
L34039 18539
" />
<path d="M34039 18539
L28039 18539
" />
<path d="M28039 18539
L28039 24539
" />
<path d="M20539 24539
L26539 24539
" />
<path d="M26539 24539
L26539 18539
" />
<path d="M26539 18539
L20539 18539
" />
<path d="M20539 18539
L20539 24539
" />
<path d="M50539 9539
L56539 9539
" />
<path d="M56539 9539
L56539 3539
" />
<path d="M56539 3539
L50539 3539
" />
<path d="M50539 3539
L50539 9539
" />
<path d="M43039 9539
L49039 9539
" />
<path d="M49039 9539
L49039 3539
" />
<path d="M49039 3539
L43039 3539
" />
<path d="M43039 3539
L43039 9539
" />
<path d="M64039 32039
L70039 32039
" />
<path d="M70039 32039
L70039 26039
" />
<path d="M70039 26039
L64039 26039
" />
<path d="M64039 26039
L64039 32039
" />
<path d="M71539 32039
L77539 32039
" />
<path d="M77539 32039
L77539 26039
" />
<path d="M77539 26039
L71539 26039
" />
<path d="M71539 26039
L71539 32039
" />
<path d="M64039 17039
L70039 17039
" />
<path d="M70039 17039
L70039 11039
" />
<path d="M70039 11039
L64039 11039
" />
<path d="M64039 11039
L64039 17039
" />
<path d="M79039 32039
L85039 32039
" />
<path d="M85039 32039
L85039 26039
" />
<path d="M85039 26039
L79039 26039
" />
<path d="M79039 26039
L79039 32039
" />
<path d="M71539 17039
L77539 17039
" />
<path d="M77539 17039
L77539 11039
" />
<path d="M77539 11039
L71539 11039
" />
<path d="M71539 11039
L71539 17039
" />
<path d="M86539 32039
L92539 32039
" />
<path d="M92539 32039
L92539 26039
" />
<path d="M92539 26039
L86539 26039
" />
<path d="M86539 26039
L86539 32039
" />
<path d="M79039 17039
L85039 17039
" />
<path d="M85039 17039
L85039 11039
" />
<path d="M85039 11039
L79039 11039
" />
<path d="M79039 11039
L79039 17039
" />
<path d="M86539 17039
L92539 17039
" />
<path d="M92539 17039
L92539 11039
" />
<path d="M92539 11039
L86539 11039
" />
<path d="M86539 11039
L86539 17039
" />
<path d="M71539 24539
L77539 24539
" />
<path d="M77539 24539
L77539 18539
" />
<path d="M77539 18539
L71539 18539
" />
<path d="M71539 18539
L71539 24539
" />
<path d="M64039 9539
L70039 9539
" />
<path d="M70039 9539
L70039 3539
" />
<path d="M70039 3539
L64039 3539
" />
<path d="M64039 3539
L64039 9539
" />
<path d="M79039 24539
L85039 24539
" />
<path d="M85039 24539
L85039 18539
" />
<path d="M85039 18539
L79039 18539
" />
<path d="M79039 18539
L79039 24539
" />
<path d="M71539 9539
L77539 9539
" />
<path d="M77539 9539
L77539 3539
" />
<path d="M77539 3539
L71539 3539
" />
<path d="M71539 3539
L71539 9539
" />
<path d="M86539 9539
L92539 9539
" />
<path d="M92539 9539
L92539 3539
" />
<path d="M92539 3539
L86539 3539
" />
<path d="M86539 3539
L86539 9539
" />
<path d="M50539 32039
L56539 32039
" />
<path d="M56539 32039
L56539 26039
" />
<path d="M56539 26039
L50539 26039
" />
<path d="M50539 26039
L50539 32039
" />
<path d="M43039 32039
L49039 32039
" />
<path d="M49039 32039
L49039 26039
" />
<path d="M49039 26039
L43039 26039
" />
<path d="M43039 26039
L43039 32039
" />
<path d="M35539 32039
L41539 32039
" />
<path d="M41539 32039
L41539 26039
" />
<path d="M41539 26039
L35539 26039
" />
<path d="M35539 26039
L35539 32039
" />
<path d="M28039 32039
L34039 32039
" />
<path d="M34039 32039
L34039 26039
" />
<path d="M34039 26039
L28039 26039
" />
<path d="M28039 26039
L28039 32039
" />
<path d="M20539 32039
L26539 32039
" />
<path d="M26539 32039
L26539 26039
" />
<path d="M26539 26039
L20539 26039
" />
<path d="M20539 26039
L20539 32039
" />
<path d="M13039 32039
L19039 32039
" />
<path d="M19039 32039
L19039 26039
" />
<path d="M19039 26039
L13039 26039
" />
<path d="M13039 26039
L13039 32039
" />
<path d="M79039 9539
L85039 9539
" />
<path d="M85039 9539
L85039 3539
" />
<path d="M85039 3539
L79039 3539
" />
<path d="M79039 3539
L79039 9539
" />
<path d="M64039 24539
L70039 24539
" />
<path d="M70039 24539
L70039 18539
" />
<path d="M70039 18539
L64039 18539
" />
<path d="M64039 18539
L64039 24539
" />
<path d="M13039 24539
L19039 24539
" />
<path d="M19039 24539
L19039 18539
" />
<path d="M19039 18539
L13039 18539
" />
<path d="M13039 18539
L13039 24539
" />
<path d="M5539 24539
L11539 24539
" />
<path d="M11539 24539
L11539 18539
" />
<path d="M11539 18539
L5539 18539
" />
<path d="M5539 18539
L5539 24539
" />
<circle cx="16068.9" cy="14175.2" r="1275.89" /> 
<circle cx="8568.9" cy="14175.2" r="1275.89" /> 
<circle cx="23568.9" cy="14175.2" r="1275.89" /> 
<circle cx="3289.37" cy="5539.37" r="807.087" /> 
</g>
<g style="fill:#000000; fill-opacity:0.0; 
stroke:#000000; stroke-width:19.685; stroke-opacity:1; 
stroke-linecap:round; stroke-linejoin:round;">
<path d="M4411 7015
L4411 4062
" />
<path d="M2167 7015
L4411 7015
" />
<path d="M2167 4062
L2167 7015
" />
<path d="M4411 4062
L2167 4062
" />
</g>
<g style="fill:#000000; fill-opacity:0.0; 
stroke:#000000; stroke-width:59.0551; stroke-opacity:1; 
stroke-linecap:round; stroke-linejoin:round;">
<circle cx="34139.4" cy="9039.37" r="807.087" /> 
</g>
<g style="fill:#000000; fill-opacity:0.0; 
stroke:#000000; stroke-width:19.685; stroke-opacity:1; 
stroke-linecap:round; stroke-linejoin:round;">
<path d="M35261 10515
L35261 7562
" />
<path d="M33017 10515
L35261 10515
" />
<path d="M33017 7562
L33017 10515
" />
<path d="M35261 7562
L33017 7562
" />
</g>
<g style="fill:#000000; fill-opacity:0.0; 
stroke:#000000; stroke-width:59.0551; stroke-opacity:1; 
stroke-linecap:round; stroke-linejoin:round;">
<circle cx="32939.4" cy="5539.37" r="807.087" /> 
</g>
<g style="fill:#000000; fill-opacity:0.0; 
stroke:#000000; stroke-width:19.685; stroke-opacity:1; 
stroke-linecap:round; stroke-linejoin:round;">
<path d="M34061 7015
L34061 4062
" />
<path d="M31817 7015
L34061 7015
" />
<path d="M31817 4062
L31817 7015
" />
<path d="M34061 4062
L31817 4062
" />
</g>
<g style="fill:#000000; fill-opacity:0.0; 
stroke:#000000; stroke-width:59.0551; stroke-opacity:1; 
stroke-linecap:round; stroke-linejoin:round;">
<circle cx="31839.4" cy="9039.37" r="807.087" /> 
</g>
<g style="fill:#000000; fill-opacity:0.0; 
stroke:#000000; stroke-width:19.685; stroke-opacity:1; 
stroke-linecap:round; stroke-linejoin:round;">
<path d="M32961 10515
L32961 7562
" />
<path d="M30717 10515
L32961 10515
" />
<path d="M30717 7562
L30717 10515
" />
<path d="M32961 7562
L30717 7562
" />
</g>
<g style="fill:#000000; fill-opacity:0.0; 
stroke:#000000; stroke-width:59.0551; stroke-opacity:1; 
stroke-linecap:round; stroke-linejoin:round;">
<circle cx="30639.4" cy="5539.37" r="807.087" /> 
</g>
<g style="fill:#000000; fill-opacity:0.0; 
stroke:#000000; stroke-width:19.685; stroke-opacity:1; 
stroke-linecap:round; stroke-linejoin:round;">
<path d="M31761 7015
L31761 4062
" />
<path d="M29517 7015
L31761 7015
" />
<path d="M29517 4062
L29517 7015
" />
<path d="M31761 4062
L29517 4062
" />
</g>
<g style="fill:#000000; fill-opacity:0.0; 
stroke:#000000; stroke-width:59.0551; stroke-opacity:1; 
stroke-linecap:round; stroke-linejoin:round;">
<circle cx="29539.4" cy="9039.37" r="807.087" /> 
</g>
<g style="fill:#000000; fill-opacity:0.0; 
stroke:#000000; stroke-width:19.685; stroke-opacity:1; 
stroke-linecap:round; stroke-linejoin:round;">
<path d="M30661 10515
L30661 7562
" />
<path d="M28417 10515
L30661 10515
" />
<path d="M28417 7562
L28417 10515
" />
<path d="M30661 7562
L28417 7562
" />
</g>
<g style="fill:#000000; fill-opacity:0.0; 
stroke:#000000; stroke-width:59.0551; stroke-opacity:1; 
stroke-linecap:round; stroke-linejoin:round;">
<circle cx="28339.4" cy="5539.37" r="807.087" /> 
</g>
<g style="fill:#000000; fill-opacity:0.0; 
stroke:#000000; stroke-width:19.685; stroke-opacity:1; 
stroke-linecap:round; stroke-linejoin:round;">
<path d="M29461 7015
L29461 4062
" />
<path d="M27217 7015
L29461 7015
" />
<path d="M27217 4062
L27217 7015
" />
<path d="M29461 4062
L27217 4062
" />
</g>
<g style="fill:#000000; fill-opacity:0.0; 
stroke:#000000; stroke-width:59.0551; stroke-opacity:1; 
stroke-linecap:round; stroke-linejoin:round;">
<circle cx="27239.4" cy="9039.37" r="807.087" /> 
</g>
<g style="fill:#000000; fill-opacity:0.0; 
stroke:#000000; stroke-width:19.685; stroke-opacity:1; 
stroke-linecap:round; stroke-linejoin:round;">
<path d="M28361 10515
L28361 7562
" />
<path d="M26117 10515
L28361 10515
" />
<path d="M26117 7562
L26117 10515
" />
<path d="M28361 7562
L26117 7562
" />
</g>
<g style="fill:#000000; fill-opacity:0.0; 
stroke:#000000; stroke-width:59.0551; stroke-opacity:1; 
stroke-linecap:round; stroke-linejoin:round;">
<circle cx="24939.4" cy="9039.37" r="807.087" /> 
</g>
<g style="fill:#000000; fill-opacity:0.0; 
stroke:#000000; stroke-width:19.685; stroke-opacity:1; 
stroke-linecap:round; stroke-linejoin:round;">
<path d="M26061 10515
L26061 7562
" />
<path d="M23817 10515
L26061 10515
" />
<path d="M23817 7562
L23817 10515
" />
<path d="M26061 7562
L23817 7562
" />
</g>
<g style="fill:#000000; fill-opacity:0.0; 
stroke:#000000; stroke-width:59.0551; stroke-opacity:1; 
stroke-linecap:round; stroke-linejoin:round;">
<circle cx="23739.4" cy="5539.37" r="807.087" /> 
</g>
<g style="fill:#000000; fill-opacity:0.0; 
stroke:#000000; stroke-width:19.685; stroke-opacity:1; 
stroke-linecap:round; stroke-linejoin:round;">
<path d="M24861 7015
L24861 4062
" />
<path d="M22617 7015
L24861 7015
" />
<path d="M22617 4062
L22617 7015
" />
<path d="M24861 4062
L22617 4062
" />
</g>
<g style="fill:#000000; fill-opacity:0.0; 
stroke:#000000; stroke-width:59.0551; stroke-opacity:1; 
stroke-linecap:round; stroke-linejoin:round;">
<circle cx="22639.4" cy="9039.37" r="807.087" /> 
</g>
<g style="fill:#000000; fill-opacity:0.0; 
stroke:#000000; stroke-width:19.685; stroke-opacity:1; 
stroke-linecap:round; stroke-linejoin:round;">
<path d="M23761 10515
L23761 7562
" />
<path d="M21517 10515
L23761 10515
" />
<path d="M21517 7562
L21517 10515
" />
<path d="M23761 7562
L21517 7562
" />
</g>
<g style="fill:#000000; fill-opacity:0.0; 
stroke:#000000; stroke-width:59.0551; stroke-opacity:1; 
stroke-linecap:round; stroke-linejoin:round;">
<circle cx="21439.4" cy="5539.37" r="807.087" /> 
</g>
<g style="fill:#000000; fill-opacity:0.0; 
stroke:#000000; stroke-width:19.685; stroke-opacity:1; 
stroke-linecap:round; stroke-linejoin:round;">
<path d="M22561 7015
L22561 4062
" />
<path d="M20317 7015
L22561 7015
" />
<path d="M20317 4062
L20317 7015
" />
<path d="M22561 4062
L20317 4062
" />
</g>
<g style="fill:#000000; fill-opacity:0.0; 
stroke:#000000; stroke-width:59.0551; stroke-opacity:1; 
stroke-linecap:round; stroke-linejoin:round;">
<circle cx="20339.4" cy="9039.37" r="807.087" /> 
</g>
<g style="fill:#000000; fill-opacity:0.0; 
stroke:#000000; stroke-width:19.685; stroke-opacity:1; 
stroke-linecap:round; stroke-linejoin:round;">
<path d="M21461 10515
L21461 7562
" />
<path d="M19217 10515
L21461 10515
" />
<path d="M19217 7562
L19217 10515
" />
<path d="M21461 7562
L19217 7562
" />
</g>
<g style="fill:#000000; fill-opacity:0.0; 
stroke:#000000; stroke-width:59.0551; stroke-opacity:1; 
stroke-linecap:round; stroke-linejoin:round;">
<circle cx="8539.37" cy="6539.37" r="1574.8" /> 
<circle cx="16039.4" cy="6539.37" r="1574.8" /> 
<circle cx="38539.4" cy="6539.37" r="1574.8" /> 
<circle cx="60318.9" cy="29425.2" r="1275.89" /> 
<path d="M2539 32789
L95039 32789
" />
<path d="M95039 2789
L2539 2789
" />
<path d="M789 4539
L789 31039
" />
<path d="M96789 4539
L96789 31039
" />
<path d="M96789.4 4539.37 A1750 1750 0.0 0 0 95039.4 2789.37 " />
<path d="M95039.4 32789.4 A1750 1750 0.0 0 0 96789.4 31039.4 " />
<path d="M789.37 31039.4 A1750 1750 0.0 0 0 2539.37 32789.4 " />
<path d="M2539.37 2789.37 A1750 1750 0.0 0 0 789.37 4539.37 " />
</g> 
</svg>
