EESchema Schematic File Version 2
LIBS:chordboard-rescue
LIBS:maxim
LIBS:chordboard-components
LIBS:power
LIBS:device
LIBS:transistors
LIBS:conn
LIBS:linear
LIBS:regul
LIBS:74xx
LIBS:cmos4000
LIBS:adc-dac
LIBS:memory
LIBS:xilinx
LIBS:microcontrollers
LIBS:dsp
LIBS:microchip
LIBS:analog_switches
LIBS:motorola
LIBS:texas
LIBS:intel
LIBS:audio
LIBS:interface
LIBS:digital-audio
LIBS:philips
LIBS:display
LIBS:cypress
LIBS:siliconi
LIBS:opto
LIBS:atmel
LIBS:contrib
LIBS:valves
LIBS:switches
LIBS:mechanical
LIBS:chordboard-cache
EELAYER 25 0
EELAYER END
$Descr A1 33110 23386
encoding utf-8
Sheet 1 1
Title ""
Date ""
Rev ""
Comp ""
Comment1 ""
Comment2 ""
Comment3 ""
Comment4 ""
$EndDescr
$Comp
L Mounting_Hole MK1
U 1 1 5A6D2DB1
P 23400 7100
F 0 "MK1" H 23400 7300 50  0000 C CNN
F 1 "Mounting_Hole" H 23400 7225 50  0000 C CNN
F 2 "chordboard-footprints:Mounting_Hole" H 23400 7100 50  0001 C CNN
F 3 "" H 23400 7100 50  0001 C CNN
	1    23400 7100
	1    0    0    -1  
$EndComp
$Comp
L Mounting_Hole MK3
U 1 1 5A6D2DE4
P 23600 7100
F 0 "MK3" H 23600 7300 50  0000 C CNN
F 1 "Mounting_Hole" H 23600 7225 50  0000 C CNN
F 2 "chordboard-footprints:Mounting_Hole" H 23600 7100 50  0001 C CNN
F 3 "" H 23600 7100 50  0001 C CNN
	1    23600 7100
	1    0    0    -1  
$EndComp
$Comp
L Mounting_Hole MK5
U 1 1 5A6D2E0D
P 23800 7100
F 0 "MK5" H 23800 7300 50  0000 C CNN
F 1 "Mounting_Hole" H 23800 7225 50  0000 C CNN
F 2 "chordboard-footprints:Mounting_Hole" H 23800 7100 50  0001 C CNN
F 3 "" H 23800 7100 50  0001 C CNN
	1    23800 7100
	1    0    0    -1  
$EndComp
$Comp
L Mounting_Hole MK7
U 1 1 5A6D2E39
P 24000 7100
F 0 "MK7" H 24000 7300 50  0000 C CNN
F 1 "Mounting_Hole" H 24000 7225 50  0000 C CNN
F 2 "chordboard-footprints:Mounting_Hole" H 24000 7100 50  0001 C CNN
F 3 "" H 24000 7100 50  0001 C CNN
	1    24000 7100
	1    0    0    -1  
$EndComp
$Comp
L Mounting_Hole MK2
U 1 1 5A6D2EC5
P 23400 7300
F 0 "MK2" H 23400 7500 50  0000 C CNN
F 1 "Mounting_Hole" H 23400 7425 50  0000 C CNN
F 2 "chordboard-footprints:Mounting_Hole" H 23400 7300 50  0001 C CNN
F 3 "" H 23400 7300 50  0001 C CNN
	1    23400 7300
	1    0    0    -1  
$EndComp
$Comp
L Mounting_Hole MK4
U 1 1 5A6D2ECB
P 23600 7300
F 0 "MK4" H 23600 7500 50  0000 C CNN
F 1 "Mounting_Hole" H 23600 7425 50  0000 C CNN
F 2 "chordboard-footprints:Mounting_Hole" H 23600 7300 50  0001 C CNN
F 3 "" H 23600 7300 50  0001 C CNN
	1    23600 7300
	1    0    0    -1  
$EndComp
$Comp
L Mounting_Hole MK6
U 1 1 5A6D2ED1
P 23800 7300
F 0 "MK6" H 23800 7500 50  0000 C CNN
F 1 "Mounting_Hole" H 23800 7425 50  0000 C CNN
F 2 "chordboard-footprints:Mounting_Hole" H 23800 7300 50  0001 C CNN
F 3 "" H 23800 7300 50  0001 C CNN
	1    23800 7300
	1    0    0    -1  
$EndComp
$Comp
L Mounting_Hole MK8
U 1 1 5A6D2ED7
P 24000 7300
F 0 "MK8" H 24000 7500 50  0000 C CNN
F 1 "Mounting_Hole" H 24000 7425 50  0000 C CNN
F 2 "chordboard-footprints:Mounting_Hole" H 24000 7300 50  0001 C CNN
F 3 "" H 24000 7300 50  0001 C CNN
	1    24000 7300
	1    0    0    -1  
$EndComp
$Comp
L R R2
U 1 1 5A87D710
P 23200 12400
F 0 "R2" V 23100 12350 50  0000 C CNN
F 1 "4.7K" V 23200 12400 50  0000 C CNN
F 2 "Resistors_SMD:R_1206_HandSoldering" V 23130 12400 50  0001 C CNN
F 3 "" H 23200 12400 50  0000 C CNN
	1    23200 12400
	1    0    0    -1  
$EndComp
$Comp
L R R3
U 1 1 5A87D711
P 23300 12400
F 0 "R3" V 23400 12350 50  0000 C CNN
F 1 "4.7K" V 23300 12400 50  0000 C CNN
F 2 "Resistors_SMD:R_1206_HandSoldering" V 23230 12400 50  0001 C CNN
F 3 "" H 23300 12400 50  0000 C CNN
	1    23300 12400
	1    0    0    -1  
$EndComp
$Comp
L +3.3V #PWR27
U 1 1 5A87D712
P 23250 11250
F 0 "#PWR27" H 23250 11100 50  0001 C CNN
F 1 "+3.3V" H 23250 11390 50  0000 C CNN
F 2 "" H 23250 11250 50  0000 C CNN
F 3 "" H 23250 11250 50  0000 C CNN
	1    23250 11250
	1    0    0    -1  
$EndComp
$Comp
L GND #PWR16
U 1 1 5A87D713
P 19400 8550
F 0 "#PWR16" H 19400 8300 50  0001 C CNN
F 1 "GND" H 19400 8400 50  0000 C CNN
F 2 "" H 19400 8550 50  0000 C CNN
F 3 "" H 19400 8550 50  0000 C CNN
	1    19400 8550
	-1   0    0    1   
$EndComp
NoConn ~ 19400 11350
NoConn ~ 21400 12450
NoConn ~ 21400 12050
NoConn ~ 21400 11250
NoConn ~ 21400 11150
NoConn ~ 21400 11050
NoConn ~ 21400 10950
NoConn ~ 21400 10150
NoConn ~ 21400 10050
Text Label 19400 10150 2    60   ~ 0
AU_MCLK
Text Label 19400 9950 2    60   ~ 0
AU_BCLK
$Comp
L SW_SPST CORE_SW1
U 1 1 5A87D715
P 18700 11650
F 0 "CORE_SW1" H 18550 11700 50  0000 C CNN
F 1 "PGM" H 18900 11700 50  0000 C CNN
F 2 "Buttons_Switches_THT:SW_Tactile_SPST_Angled_PTS645Vx58-2LFS" H 18700 11650 50  0001 C CNN
F 3 "" H 18700 11650 50  0001 C CNN
	1    18700 11650
	1    0    0    -1  
$EndComp
$Comp
L GND #PWR31
U 1 1 5A87D716
P 18200 13400
F 0 "#PWR31" H 18200 13150 50  0001 C CNN
F 1 "GND" H 18200 13250 50  0000 C CNN
F 2 "" H 18200 13400 50  0000 C CNN
F 3 "" H 18200 13400 50  0000 C CNN
	1    18200 13400
	1    0    0    -1  
$EndComp
NoConn ~ 19400 11450
Text Label 19400 12850 2    60   ~ 0
AU_RX
Text Label 21400 12550 0    60   ~ 0
AU_LRCLK
Text Label 21400 12650 0    60   ~ 0
AU_TX
$Comp
L Teensy_Audio_Board U4
U 1 1 5A87D719
P 28850 10650
F 0 "U4" H 28650 11800 60  0000 C CNN
F 1 "Teensy_Audio_Board" H 28850 10100 60  0000 C CNN
F 2 "afshar-kicad-lib:Teensy_Audio_Board" H 28650 10100 60  0001 C CNN
F 3 "" H 28650 10100 60  0000 C CNN
	1    28850 10650
	1    0    0    -1  
$EndComp
Text Label 28100 10950 2    60   ~ 0
AU_MCLK
Text Label 28100 10750 2    60   ~ 0
AU_BCLK
Text Label 29550 11050 0    60   ~ 0
AU_RX
Text Label 29550 10450 0    60   ~ 0
SCL
Text Label 29550 10550 0    60   ~ 0
SDA
$Comp
L GND #PWR19
U 1 1 5A87D71A
P 27750 9900
F 0 "#PWR19" H 27750 9650 50  0001 C CNN
F 1 "GND" H 27750 9750 50  0000 C CNN
F 2 "" H 27750 9900 50  0000 C CNN
F 3 "" H 27750 9900 50  0000 C CNN
	1    27750 9900
	1    0    0    -1  
$EndComp
Text Label 29550 10150 0    60   ~ 0
AU_TX
Text Label 29550 10050 0    60   ~ 0
AU_LRCLK
$Comp
L +3.3V #PWR17
U 1 1 5A87D71B
P 30050 9400
F 0 "#PWR17" H 30050 9250 50  0001 C CNN
F 1 "+3.3V" H 30050 9540 50  0000 C CNN
F 2 "" H 30050 9400 50  0001 C CNN
F 3 "" H 30050 9400 50  0001 C CNN
	1    30050 9400
	1    0    0    -1  
$EndComp
Text Label 28100 11050 2    60   ~ 0
MISO
Text Label 19400 12950 2    60   ~ 0
SCK
Text Label 29550 10950 0    60   ~ 0
SCK
Text Label 28100 10850 2    60   ~ 0
AUSD_CS
Text Label 28100 10550 2    60   ~ 0
MOSI
Text Label 28100 10450 2    60   ~ 0
AUMEM_CS
NoConn ~ 21400 11850
NoConn ~ 21400 11950
$Comp
L +5V #PWR28
U 1 1 5A87D71D
P 22250 12150
F 0 "#PWR28" H 22250 12000 50  0001 C CNN
F 1 "+5V" H 22250 12290 50  0000 C CNN
F 2 "" H 22250 12150 50  0001 C CNN
F 3 "" H 22250 12150 50  0001 C CNN
	1    22250 12150
	1    0    0    -1  
$EndComp
$Comp
L Teensy3.6 U2
U 1 1 5A87D71E
P 20400 11050
F 0 "U2" H 20400 13350 60  0000 C CNN
F 1 "Teensy3.6" H 20400 8750 60  0000 C CNN
F 2 "chordboard-footprints:Teensy35_36_external_pins" H 20400 11050 60  0001 C CNN
F 3 "" H 20400 11050 60  0000 C CNN
	1    20400 11050
	1    0    0    -1  
$EndComp
Text Label 19400 13150 2    60   ~ 0
WIFI_RST
Text Label 21400 13150 0    60   ~ 0
WIFI_PGM
$Comp
L +3.3V #PWR20
U 1 1 5A87D71F
P 18200 10350
F 0 "#PWR20" H 18200 10200 50  0001 C CNN
F 1 "+3.3V" H 18200 10490 50  0000 C CNN
F 2 "" H 18200 10350 50  0001 C CNN
F 3 "" H 18200 10350 50  0001 C CNN
	1    18200 10350
	1    0    0    -1  
$EndComp
$Comp
L ROTARY_ENCODER_afshar ENC1
U 1 1 5A8858A7
P 7000 10450
F 0 "ENC1" H 7000 10850 60  0000 C CNN
F 1 "ROTARY_ENCODER" H 7050 10100 60  0000 C CNN
F 2 "chordboard-footprints:Rotary_Encoder_BI_EN12-HS22AF30" H 7000 10000 60  0000 C CNN
F 3 "" H 7000 10450 60  0000 C CNN
	1    7000 10450
	1    0    0    1   
$EndComp
$Comp
L C C2
U 1 1 5A8858A8
P 6750 10950
F 0 "C2" H 6760 11020 50  0000 L CNN
F 1 "0.1uF" H 6760 10870 50  0000 L CNN
F 2 "chordboard-footprints:C_0805_HandSoldering" H 6750 10950 50  0001 C CNN
F 3 "" H 6750 10950 50  0001 C CNN
	1    6750 10950
	1    0    0    -1  
$EndComp
$Comp
L C C1
U 1 1 5A8858A9
P 6250 10950
F 0 "C1" H 6260 11020 50  0000 L CNN
F 1 "0.1uF" H 6260 10870 50  0000 L CNN
F 2 "chordboard-footprints:C_0805_HandSoldering" H 6250 10950 50  0001 C CNN
F 3 "" H 6250 10950 50  0001 C CNN
	1    6250 10950
	1    0    0    -1  
$EndComp
$Comp
L GND #PWR21
U 1 1 5A8858AA
P 7500 10600
F 0 "#PWR21" H 7500 10350 50  0001 C CNN
F 1 "GND" H 7500 10450 50  0000 C CNN
F 2 "" H 7500 10600 50  0001 C CNN
F 3 "" H 7500 10600 50  0001 C CNN
	1    7500 10600
	1    0    0    -1  
$EndComp
$Comp
L GND #PWR24
U 1 1 5A8858AB
P 6500 11150
F 0 "#PWR24" H 6500 10900 50  0001 C CNN
F 1 "GND" H 6500 11000 50  0000 C CNN
F 2 "" H 6500 11150 50  0001 C CNN
F 3 "" H 6500 11150 50  0001 C CNN
	1    6500 11150
	1    0    0    -1  
$EndComp
Text Label 6750 10350 2    60   ~ 0
RE1_SW
$Comp
L ROTARY_ENCODER_afshar ENC2
U 1 1 5A8858B1
P 9200 10450
F 0 "ENC2" H 9200 10850 60  0000 C CNN
F 1 "ROTARY_ENCODER" H 9250 10100 60  0000 C CNN
F 2 "chordboard-footprints:Rotary_Encoder_BI_EN12-HS22AF30" H 9200 10000 60  0000 C CNN
F 3 "" H 9200 10450 60  0000 C CNN
	1    9200 10450
	1    0    0    1   
$EndComp
$Comp
L C C4
U 1 1 5A8858B2
P 8950 10950
F 0 "C4" H 8960 11020 50  0000 L CNN
F 1 "0.1uF" H 8960 10870 50  0000 L CNN
F 2 "chordboard-footprints:C_0805_HandSoldering" H 8950 10950 50  0001 C CNN
F 3 "" H 8950 10950 50  0001 C CNN
	1    8950 10950
	1    0    0    -1  
$EndComp
$Comp
L C C3
U 1 1 5A8858B3
P 8450 10950
F 0 "C3" H 8460 11020 50  0000 L CNN
F 1 "0.1uF" H 8460 10870 50  0000 L CNN
F 2 "chordboard-footprints:C_0805_HandSoldering" H 8450 10950 50  0001 C CNN
F 3 "" H 8450 10950 50  0001 C CNN
	1    8450 10950
	1    0    0    -1  
$EndComp
$Comp
L GND #PWR22
U 1 1 5A8858B4
P 9700 10600
F 0 "#PWR22" H 9700 10350 50  0001 C CNN
F 1 "GND" H 9700 10450 50  0000 C CNN
F 2 "" H 9700 10600 50  0001 C CNN
F 3 "" H 9700 10600 50  0001 C CNN
	1    9700 10600
	1    0    0    -1  
$EndComp
$Comp
L GND #PWR25
U 1 1 5A8858B5
P 8700 11150
F 0 "#PWR25" H 8700 10900 50  0001 C CNN
F 1 "GND" H 8700 11000 50  0000 C CNN
F 2 "" H 8700 11150 50  0001 C CNN
F 3 "" H 8700 11150 50  0001 C CNN
	1    8700 11150
	1    0    0    -1  
$EndComp
Text Label 8950 10350 2    60   ~ 0
RE2_SW
$Comp
L ROTARY_ENCODER_afshar ENC3
U 1 1 5A8858BB
P 11200 10450
F 0 "ENC3" H 11200 10850 60  0000 C CNN
F 1 "ROTARY_ENCODER" H 11250 10100 60  0000 C CNN
F 2 "chordboard-footprints:Rotary_Encoder_BI_EN12-HS22AF30" H 11200 10000 60  0000 C CNN
F 3 "" H 11200 10450 60  0000 C CNN
	1    11200 10450
	1    0    0    1   
$EndComp
$Comp
L C C6
U 1 1 5A8858BC
P 10950 10950
F 0 "C6" H 10960 11020 50  0000 L CNN
F 1 "0.1uF" H 10960 10870 50  0000 L CNN
F 2 "chordboard-footprints:C_0805_HandSoldering" H 10950 10950 50  0001 C CNN
F 3 "" H 10950 10950 50  0001 C CNN
	1    10950 10950
	1    0    0    -1  
$EndComp
$Comp
L C C5
U 1 1 5A8858BD
P 10450 10950
F 0 "C5" H 10460 11020 50  0000 L CNN
F 1 "0.1uF" H 10460 10870 50  0000 L CNN
F 2 "chordboard-footprints:C_0805_HandSoldering" H 10450 10950 50  0001 C CNN
F 3 "" H 10450 10950 50  0001 C CNN
	1    10450 10950
	1    0    0    -1  
$EndComp
$Comp
L GND #PWR23
U 1 1 5A8858BE
P 11700 10600
F 0 "#PWR23" H 11700 10350 50  0001 C CNN
F 1 "GND" H 11700 10450 50  0000 C CNN
F 2 "" H 11700 10600 50  0001 C CNN
F 3 "" H 11700 10600 50  0001 C CNN
	1    11700 10600
	1    0    0    -1  
$EndComp
$Comp
L GND #PWR26
U 1 1 5A8858BF
P 10700 11150
F 0 "#PWR26" H 10700 10900 50  0001 C CNN
F 1 "GND" H 10700 11000 50  0000 C CNN
F 2 "" H 10700 11150 50  0001 C CNN
F 3 "" H 10700 11150 50  0001 C CNN
	1    10700 11150
	1    0    0    -1  
$EndComp
Text Label 10950 10350 2    60   ~ 0
RE3_SW
Text Notes 6700 9700 0    60   ~ 0
Config: Key; Mode\nShift: Change Main mode
Text Notes 8350 9700 0    60   ~ 0
Config: Octave; spread; channel; etc.\nShift Config: change bank
Text Notes 10850 9750 0    60   ~ 0
Config: tempo\nPlay: tempo\nShift: change looper
Text Label 6250 10500 2    60   ~ 0
RE1_B
Text Label 6750 10700 2    60   ~ 0
RE1_A
Text Label 8450 10500 2    60   ~ 0
RE2_B
Text Label 8950 10700 2    60   ~ 0
RE2_A
Text Label 10950 10700 2    60   ~ 0
RE3_A
Text Label 10450 10500 2    60   ~ 0
RE3_B
Text Label 19400 11050 2    60   ~ 0
RE1_A
Text Label 19400 11150 2    60   ~ 0
RE1_B
Text Label 19400 10650 2    60   ~ 0
RE2_A
Text Label 19400 10750 2    60   ~ 0
RE2_B
Text Label 19400 11950 2    60   ~ 0
RE2_SW
Text Label 19400 10850 2    60   ~ 0
RE3_A
Text Label 19400 10950 2    60   ~ 0
RE3_B
Text Label 19400 11850 2    60   ~ 0
RE1_SW
Text Label 19400 12050 2    60   ~ 0
RE3_SW
$Comp
L KSW SW1
U 1 1 5A89A746
P 18750 12150
F 0 "SW1" H 18650 12200 60  0000 C CNN
F 1 "KSW" H 18900 12200 60  0000 C CNN
F 2 "chordboard-footprints:SW_PUSH_6mm" H 18750 12150 60  0001 C CNN
F 3 "" H 18750 12150 60  0001 C CNN
	1    18750 12150
	-1   0    0    -1  
$EndComp
$Comp
L KSW SW2
U 1 1 5A89A74C
P 18750 12250
F 0 "SW2" H 18650 12300 60  0000 C CNN
F 1 "KSW" H 18900 12300 60  0000 C CNN
F 2 "chordboard-footprints:SW_PUSH_6mm" H 19700 12300 60  0001 C CNN
F 3 "" H 18750 12250 60  0001 C CNN
	1    18750 12250
	-1   0    0    -1  
$EndComp
Text Label 23500 12950 0    60   ~ 0
SCL
Text Label 23500 13050 0    60   ~ 0
SDA
$Comp
L GNDA #PWR29
U 1 1 5A89E752
P 22250 12450
F 0 "#PWR29" H 22250 12200 50  0001 C CNN
F 1 "GNDA" H 22250 12300 50  0000 C CNN
F 2 "" H 22250 12450 50  0001 C CNN
F 3 "" H 22250 12450 50  0001 C CNN
	1    22250 12450
	1    0    0    -1  
$EndComp
$Comp
L GNDA #PWR18
U 1 1 5A89EB7E
P 29550 9850
F 0 "#PWR18" H 29550 9600 50  0001 C CNN
F 1 "GNDA" H 29550 9700 50  0000 C CNN
F 2 "" H 29550 9850 50  0001 C CNN
F 3 "" H 29550 9850 50  0001 C CNN
	1    29550 9850
	0    -1   -1   0   
$EndComp
Text Label 19400 9850 2    60   ~ 0
U3_TX
Text Label 16150 5900 2    60   ~ 0
U3_TX
Text Label 19400 9250 2    60   ~ 0
LED_DIN
Text Label 19400 9450 2    60   ~ 0
LED_LOAD
Text Label 19400 9350 2    60   ~ 0
LED_CLK
Text Label 18100 16700 0    60   ~ 0
SCL
Text Label 18100 16800 0    60   ~ 0
SDA
Text Label 19400 11750 2    60   ~ 0
CORE_RST
Text Label 19400 11650 2    60   ~ 0
CORE_PGM
Text Label 19400 13050 2    60   ~ 0
AU_VOL
Text Label 29550 10850 0    60   ~ 0
AU_VOL
Text Label 21400 11550 0    60   ~ 0
USBH_DP
Text Label 21400 11650 0    60   ~ 0
USBH_DM
$Comp
L USB_A J2
U 1 1 5A81EE8D
P 22700 11550
F 0 "J2" H 22500 12000 50  0000 L CNN
F 1 "USB_A" H 22500 11900 50  0000 L CNN
F 2 "Connectors:USB_A" H 22850 11500 50  0001 C CNN
F 3 "" H 22850 11500 50  0001 C CNN
	1    22700 11550
	-1   0    0    -1  
$EndComp
$Comp
L GND #PWR14
U 1 1 5A84B35E
P 15650 5700
F 0 "#PWR14" H 15650 5450 50  0001 C CNN
F 1 "GND" H 15650 5550 50  0000 C CNN
F 2 "" H 15650 5700 50  0001 C CNN
F 3 "" H 15650 5700 50  0001 C CNN
	1    15650 5700
	1    0    0    -1  
$EndComp
$Comp
L GROVE_I2C J4
U 1 1 5A84DEDC
P 16300 3800
F 0 "J4" H 16300 4050 50  0000 C CNN
F 1 "I2C" V 16550 3800 50  0000 C CNN
F 2 "Connectors_JST:JST_PH_S4B-PH-K_04x2.00mm_Angled" H 16300 3800 50  0001 C CNN
F 3 "" H 16300 3800 50  0001 C CNN
	1    16300 3800
	1    0    0    -1  
$EndComp
$Comp
L GROVE_I2C J5
U 1 1 5A84DFEA
P 16300 4350
F 0 "J5" H 16300 4600 50  0000 C CNN
F 1 "I2C" V 16550 4350 50  0000 C CNN
F 2 "Connectors_JST:JST_PH_S4B-PH-K_04x2.00mm_Angled" H 16300 4350 50  0001 C CNN
F 3 "" H 16300 4350 50  0001 C CNN
	1    16300 4350
	1    0    0    -1  
$EndComp
$Comp
L +3.3V #PWR3
U 1 1 5A84EEBA
P 15550 3250
F 0 "#PWR3" H 15550 3100 50  0001 C CNN
F 1 "+3.3V" H 15550 3390 50  0000 C CNN
F 2 "" H 15550 3250 50  0001 C CNN
F 3 "" H 15550 3250 50  0001 C CNN
	1    15550 3250
	1    0    0    -1  
$EndComp
Text Label 16100 3650 2    60   ~ 0
SCL
Text Label 16100 3750 2    60   ~ 0
SDA
Text Label 16100 4200 2    60   ~ 0
SCL
Text Label 16100 4300 2    60   ~ 0
SDA
$Comp
L Mounting_Hole MK9
U 1 1 5A853441
P 24200 7100
F 0 "MK9" H 24200 7300 50  0000 C CNN
F 1 "Mounting_Hole" H 24200 7225 50  0000 C CNN
F 2 "chordboard-footprints:Mounting_Hole" H 24200 7100 50  0001 C CNN
F 3 "" H 24200 7100 50  0001 C CNN
	1    24200 7100
	1    0    0    -1  
$EndComp
$Comp
L Mounting_Hole MK10
U 1 1 5A853447
P 24200 7300
F 0 "MK10" H 24200 7500 50  0000 C CNN
F 1 "Mounting_Hole" H 24200 7425 50  0000 C CNN
F 2 "chordboard-footprints:Mounting_Hole" H 24200 7300 50  0001 C CNN
F 3 "" H 24200 7300 50  0001 C CNN
	1    24200 7300
	1    0    0    -1  
$EndComp
$Comp
L MAX7219 U6
U 1 1 5A90E13D
P 8350 15000
F 0 "U6" H 8450 16350 60  0000 C CNN
F 1 "MAX7219" H 8900 15700 60  0000 C CNN
F 2 "Housings_DIP:DIP-24_W7.62mm" H 8350 14800 40  0001 L CIN
F 3 "https://datasheets.maximintegrated.com/en/ds/MAX7219-MAX7221.pdf" H 8350 14700 40  0001 L CIN
	1    8350 15000
	1    0    0    -1  
$EndComp
Text Label 9550 13900 0    60   ~ 0
X0
Text Label 8250 13900 2    60   ~ 0
Y0
$Comp
L +5V #PWR30
U 1 1 5A90E146
P 9050 12800
F 0 "#PWR30" H 9050 12650 50  0001 C CNN
F 1 "+5V" H 9050 12940 50  0000 C CNN
F 2 "" H 9050 12800 50  0001 C CNN
F 3 "" H 9050 12800 50  0001 C CNN
	1    9050 12800
	1    0    0    -1  
$EndComp
Text Label 9550 14600 0    60   ~ 0
X7
Text Label 9550 14500 0    60   ~ 0
X6
Text Label 9550 14400 0    60   ~ 0
X5
Text Label 9550 14300 0    60   ~ 0
X4
Text Label 9550 14200 0    60   ~ 0
X3
Text Label 9550 14100 0    60   ~ 0
X2
Text Label 9550 14000 0    60   ~ 0
X1
Text Label 8250 14000 2    60   ~ 0
Y1
Text Label 8250 14100 2    60   ~ 0
Y2
Text Label 8250 14200 2    60   ~ 0
Y3
Text Label 8250 14300 2    60   ~ 0
Y4
Text Label 8250 14400 2    60   ~ 0
Y5
Text Label 8250 14500 2    60   ~ 0
Y6
Text Label 8250 14600 2    60   ~ 0
Y7
$Comp
L GND #PWR37
U 1 1 5A90E15A
P 9100 15600
F 0 "#PWR37" H 9100 15350 50  0001 C CNN
F 1 "GND" H 9100 15450 50  0000 C CNN
F 2 "" H 9100 15600 50  0000 C CNN
F 3 "" H 9100 15600 50  0000 C CNN
	1    9100 15600
	1    0    0    -1  
$EndComp
$Comp
L C C10
U 1 1 5A90E167
P 10100 13700
F 0 "C10" H 10110 13770 50  0000 L CNN
F 1 "0.1uF" H 10110 13620 50  0000 L CNN
F 2 "chordboard-footprints:C_0805_HandSoldering" H 10100 13700 50  0001 C CNN
F 3 "" H 10100 13700 50  0001 C CNN
	1    10100 13700
	-1   0    0    -1  
$EndComp
$Comp
L GND #PWR32
U 1 1 5A90E16E
P 10100 14150
F 0 "#PWR32" H 10100 13900 50  0001 C CNN
F 1 "GND" H 10100 14000 50  0000 C CNN
F 2 "" H 10100 14150 50  0000 C CNN
F 3 "" H 10100 14150 50  0000 C CNN
	1    10100 14150
	1    0    0    -1  
$EndComp
$Comp
L CP CP1
U 1 1 5A9122F9
P 10350 13700
F 0 "CP1" H 10360 13770 50  0000 L CNN
F 1 "10uF" H 10360 13620 50  0000 L CNN
F 2 "Capacitors_SMD:c_elec_4x5.3" H 10350 13700 50  0001 C CNN
F 3 "" H 10350 13700 50  0001 C CNN
	1    10350 13700
	1    0    0    -1  
$EndComp
Text Label 19400 10250 2    60   ~ 0
MISO
Text Label 19400 9750 2    60   ~ 0
MOSI
Text Label 21450 12850 0    60   ~ 0
TFT_DC
Text Label 21450 12750 0    60   ~ 0
TFT_CS
Text Label 19400 9650 2    60   ~ 0
AUMEM_CS
NoConn ~ 21400 10850
NoConn ~ 21400 10750
NoConn ~ 21400 10650
NoConn ~ 21400 10550
NoConn ~ 21400 10450
NoConn ~ 21400 10350
NoConn ~ 21400 10250
NoConn ~ 21400 9950
NoConn ~ 21400 9850
NoConn ~ 21400 9750
NoConn ~ 21400 9650
NoConn ~ 21400 9550
NoConn ~ 21400 9450
NoConn ~ 21400 9350
NoConn ~ 21400 9250
NoConn ~ 21400 9150
NoConn ~ 21400 9050
NoConn ~ 21400 8950
Text Label 19400 10050 2    60   ~ 0
AUSD_CS
$Comp
L +3.3V #PWR33
U 1 1 5A954FEB
P 17400 14700
F 0 "#PWR33" H 17400 14550 50  0001 C CNN
F 1 "+3.3V" H 17400 14840 50  0000 C CNN
F 2 "" H 17400 14700 50  0000 C CNN
F 3 "" H 17400 14700 50  0000 C CNN
	1    17400 14700
	1    0    0    -1  
$EndComp
$Comp
L GND #PWR35
U 1 1 5A954FF1
P 18350 15250
F 0 "#PWR35" H 18350 15000 50  0001 C CNN
F 1 "GND" H 18350 15100 50  0000 C CNN
F 2 "" H 18350 15250 50  0001 C CNN
F 3 "" H 18350 15250 50  0001 C CNN
	1    18350 15250
	-1   0    0    -1  
$EndComp
$Comp
L GND #PWR41
U 1 1 5A954FF7
P 17400 18100
F 0 "#PWR41" H 17400 17850 50  0001 C CNN
F 1 "GND" H 17400 17950 50  0000 C CNN
F 2 "" H 17400 18100 50  0001 C CNN
F 3 "" H 17400 18100 50  0001 C CNN
	1    17400 18100
	-1   0    0    -1  
$EndComp
$Comp
L MCP23017 U7
U 1 1 5A954FFD
P 17400 16400
F 0 "U7" H 17300 17425 50  0000 R CNN
F 1 "MCP23017" H 17300 17350 50  0000 R CNN
F 2 "Housings_DIP:DIP-28_W7.62mm" H 17450 15450 50  0001 L CNN
F 3 "" H 17650 17400 50  0001 C CNN
	1    17400 16400
	1    0    0    -1  
$EndComp
$Comp
L KSW K1
U 1 1 5A955004
P 16700 15600
F 0 "K1" H 16600 15650 60  0000 C CNN
F 1 "KSW" H 16850 15650 60  0000 C CNN
F 2 "chordboard-footprints:CHERRY_PCB_100H" H 16700 15600 60  0001 C CNN
F 3 "" H 16700 15600 60  0001 C CNN
	1    16700 15600
	-1   0    0    -1  
$EndComp
$Comp
L KSW K2
U 1 1 5A95500B
P 16700 15700
F 0 "K2" H 16600 15750 60  0000 C CNN
F 1 "KSW" H 16850 15750 60  0000 C CNN
F 2 "chordboard-footprints:CHERRY_PCB_100H" H 17650 15750 60  0001 C CNN
F 3 "" H 16700 15700 60  0001 C CNN
	1    16700 15700
	-1   0    0    -1  
$EndComp
$Comp
L KSW K3
U 1 1 5A955012
P 16700 15800
F 0 "K3" H 16600 15850 60  0000 C CNN
F 1 "KSW" H 16850 15850 60  0000 C CNN
F 2 "chordboard-footprints:CHERRY_PCB_100H" H 17650 15850 60  0001 C CNN
F 3 "" H 16700 15800 60  0001 C CNN
	1    16700 15800
	-1   0    0    -1  
$EndComp
$Comp
L KSW K4
U 1 1 5A955019
P 16700 15900
F 0 "K4" H 16600 15950 60  0000 C CNN
F 1 "KSW" H 16850 15950 60  0000 C CNN
F 2 "chordboard-footprints:CHERRY_PCB_100H" H 17650 15950 60  0001 C CNN
F 3 "" H 16700 15900 60  0001 C CNN
	1    16700 15900
	-1   0    0    -1  
$EndComp
$Comp
L C C12
U 1 1 5A955020
P 18350 15050
F 0 "C12" H 18360 15120 50  0000 L CNN
F 1 "0.1uF" H 18360 14970 50  0000 L CNN
F 2 "chordboard-footprints:C_0805_HandSoldering" H 18350 15050 50  0001 C CNN
F 3 "" H 18350 15050 50  0001 C CNN
	1    18350 15050
	-1   0    0    -1  
$EndComp
$Comp
L KSW K5
U 1 1 5A955027
P 16700 16000
F 0 "K5" H 16600 16050 60  0000 C CNN
F 1 "KSW" H 16850 16050 60  0000 C CNN
F 2 "chordboard-footprints:CHERRY_PCB_100H" H 17650 16050 60  0001 C CNN
F 3 "" H 16700 16000 60  0001 C CNN
	1    16700 16000
	-1   0    0    -1  
$EndComp
$Comp
L KSW K6
U 1 1 5A95502E
P 16700 16100
F 0 "K6" H 16600 16150 60  0000 C CNN
F 1 "KSW" H 16850 16150 60  0000 C CNN
F 2 "chordboard-footprints:CHERRY_PCB_100H" H 17650 16150 60  0001 C CNN
F 3 "" H 16700 16100 60  0001 C CNN
	1    16700 16100
	-1   0    0    -1  
$EndComp
$Comp
L KSW K7
U 1 1 5A955035
P 16700 16200
F 0 "K7" H 16600 16250 60  0000 C CNN
F 1 "KSW" H 16850 16250 60  0000 C CNN
F 2 "chordboard-footprints:CHERRY_PCB_100H" H 17650 16250 60  0001 C CNN
F 3 "" H 16700 16200 60  0001 C CNN
	1    16700 16200
	-1   0    0    -1  
$EndComp
$Comp
L KSW K9
U 1 1 5A95503C
P 16700 16500
F 0 "K9" H 16600 16550 60  0000 C CNN
F 1 "KSW" H 16850 16550 60  0000 C CNN
F 2 "chordboard-footprints:CHERRY_PCB_100H" H 17650 16550 60  0001 C CNN
F 3 "" H 16700 16500 60  0001 C CNN
	1    16700 16500
	-1   0    0    -1  
$EndComp
$Comp
L KSW K10
U 1 1 5A955043
P 16700 16600
F 0 "K10" H 16600 16650 60  0000 C CNN
F 1 "KSW" H 16850 16650 60  0000 C CNN
F 2 "chordboard-footprints:CHERRY_PCB_100H" H 17650 16650 60  0001 C CNN
F 3 "" H 16700 16600 60  0001 C CNN
	1    16700 16600
	-1   0    0    -1  
$EndComp
$Comp
L KSW K11
U 1 1 5A95504A
P 16700 16700
F 0 "K11" H 16600 16750 60  0000 C CNN
F 1 "KSW" H 16850 16750 60  0000 C CNN
F 2 "chordboard-footprints:CHERRY_PCB_100H" H 17650 16750 60  0001 C CNN
F 3 "" H 16700 16700 60  0001 C CNN
	1    16700 16700
	-1   0    0    -1  
$EndComp
$Comp
L KSW K12
U 1 1 5A955051
P 16700 16800
F 0 "K12" H 16600 16850 60  0000 C CNN
F 1 "KSW" H 16850 16850 60  0000 C CNN
F 2 "chordboard-footprints:CHERRY_PCB_100H" H 17650 16850 60  0001 C CNN
F 3 "" H 16700 16800 60  0001 C CNN
	1    16700 16800
	-1   0    0    -1  
$EndComp
$Comp
L KSW K13
U 1 1 5A955058
P 16700 16900
F 0 "K13" H 16600 16950 60  0000 C CNN
F 1 "KSW" H 16850 16950 60  0000 C CNN
F 2 "chordboard-footprints:CHERRY_PCB_100H" H 17650 16950 60  0001 C CNN
F 3 "" H 16700 16900 60  0001 C CNN
	1    16700 16900
	-1   0    0    -1  
$EndComp
$Comp
L KSW K14
U 1 1 5A95505F
P 16700 17000
F 0 "K14" H 16600 17050 60  0000 C CNN
F 1 "KSW" H 16850 17050 60  0000 C CNN
F 2 "chordboard-footprints:CHERRY_PCB_100H" H 17650 17050 60  0001 C CNN
F 3 "" H 16700 17000 60  0001 C CNN
	1    16700 17000
	-1   0    0    -1  
$EndComp
$Comp
L KSW K8
U 1 1 5A955066
P 16700 16300
F 0 "K8" H 16600 16350 60  0000 C CNN
F 1 "KSW" H 16850 16350 60  0000 C CNN
F 2 "chordboard-footprints:CHERRY_PCB_100H" H 17650 16350 60  0001 C CNN
F 3 "" H 16700 16300 60  0001 C CNN
	1    16700 16300
	-1   0    0    -1  
$EndComp
$Comp
L KSW K15
U 1 1 5A95506D
P 16700 17100
F 0 "K15" H 16600 17150 60  0000 C CNN
F 1 "KSW" H 16850 17150 60  0000 C CNN
F 2 "chordboard-footprints:CHERRY_PCB_100H" H 17650 17150 60  0001 C CNN
F 3 "" H 16700 17100 60  0001 C CNN
	1    16700 17100
	-1   0    0    -1  
$EndComp
$Comp
L KSW K16
U 1 1 5A955074
P 16700 17200
F 0 "K16" H 16600 17250 60  0000 C CNN
F 1 "KSW" H 16850 17250 60  0000 C CNN
F 2 "chordboard-footprints:CHERRY_PCB_100H" H 17650 17250 60  0001 C CNN
F 3 "" H 16700 17200 60  0001 C CNN
	1    16700 17200
	-1   0    0    -1  
$EndComp
$Comp
L GND #PWR39
U 1 1 5A95507B
P 18100 17450
F 0 "#PWR39" H 18100 17200 50  0001 C CNN
F 1 "GND" H 18100 17300 50  0000 C CNN
F 2 "" H 18100 17450 50  0001 C CNN
F 3 "" H 18100 17450 50  0001 C CNN
	1    18100 17450
	-1   0    0    -1  
$EndComp
$Comp
L +3.3V #PWR34
U 1 1 5A955EFE
P 19900 14700
F 0 "#PWR34" H 19900 14550 50  0001 C CNN
F 1 "+3.3V" H 19900 14840 50  0000 C CNN
F 2 "" H 19900 14700 50  0000 C CNN
F 3 "" H 19900 14700 50  0000 C CNN
	1    19900 14700
	1    0    0    -1  
$EndComp
$Comp
L GND #PWR36
U 1 1 5A955F04
P 20850 15250
F 0 "#PWR36" H 20850 15000 50  0001 C CNN
F 1 "GND" H 20850 15100 50  0000 C CNN
F 2 "" H 20850 15250 50  0001 C CNN
F 3 "" H 20850 15250 50  0001 C CNN
	1    20850 15250
	-1   0    0    -1  
$EndComp
$Comp
L GND #PWR42
U 1 1 5A955F0A
P 19900 18100
F 0 "#PWR42" H 19900 17850 50  0001 C CNN
F 1 "GND" H 19900 17950 50  0000 C CNN
F 2 "" H 19900 18100 50  0001 C CNN
F 3 "" H 19900 18100 50  0001 C CNN
	1    19900 18100
	-1   0    0    -1  
$EndComp
$Comp
L MCP23017 U8
U 1 1 5A955F10
P 19900 16400
F 0 "U8" H 19800 17425 50  0000 R CNN
F 1 "MCP23017" H 19800 17350 50  0000 R CNN
F 2 "Housings_DIP:DIP-28_W7.62mm" H 19950 15450 50  0001 L CNN
F 3 "" H 20150 17400 50  0001 C CNN
	1    19900 16400
	1    0    0    -1  
$EndComp
$Comp
L KSW K17
U 1 1 5A955F17
P 19200 15600
F 0 "K17" H 19100 15650 60  0000 C CNN
F 1 "KSW" H 19350 15650 60  0000 C CNN
F 2 "chordboard-footprints:CHERRY_PCB_100H" H 19200 15600 60  0001 C CNN
F 3 "" H 19200 15600 60  0001 C CNN
	1    19200 15600
	-1   0    0    -1  
$EndComp
$Comp
L KSW K18
U 1 1 5A955F1E
P 19200 15700
F 0 "K18" H 19100 15750 60  0000 C CNN
F 1 "KSW" H 19350 15750 60  0000 C CNN
F 2 "chordboard-footprints:CHERRY_PCB_100H" H 20150 15750 60  0001 C CNN
F 3 "" H 19200 15700 60  0001 C CNN
	1    19200 15700
	-1   0    0    -1  
$EndComp
$Comp
L KSW K19
U 1 1 5A955F25
P 19200 15800
F 0 "K19" H 19100 15850 60  0000 C CNN
F 1 "KSW" H 19350 15850 60  0000 C CNN
F 2 "chordboard-footprints:CHERRY_PCB_100H" H 20150 15850 60  0001 C CNN
F 3 "" H 19200 15800 60  0001 C CNN
	1    19200 15800
	-1   0    0    -1  
$EndComp
$Comp
L KSW K20
U 1 1 5A955F2C
P 19200 15900
F 0 "K20" H 19100 15950 60  0000 C CNN
F 1 "KSW" H 19350 15950 60  0000 C CNN
F 2 "chordboard-footprints:CHERRY_PCB_100H" H 20150 15950 60  0001 C CNN
F 3 "" H 19200 15900 60  0001 C CNN
	1    19200 15900
	-1   0    0    -1  
$EndComp
$Comp
L C C13
U 1 1 5A955F33
P 20850 15050
F 0 "C13" H 20860 15120 50  0000 L CNN
F 1 "0.1uF" H 20860 14970 50  0000 L CNN
F 2 "chordboard-footprints:C_0805_HandSoldering" H 20850 15050 50  0001 C CNN
F 3 "" H 20850 15050 50  0001 C CNN
	1    20850 15050
	-1   0    0    -1  
$EndComp
$Comp
L KSW K21
U 1 1 5A955F3A
P 19200 16000
F 0 "K21" H 19100 16050 60  0000 C CNN
F 1 "KSW" H 19350 16050 60  0000 C CNN
F 2 "chordboard-footprints:CHERRY_PCB_100H" H 20150 16050 60  0001 C CNN
F 3 "" H 19200 16000 60  0001 C CNN
	1    19200 16000
	-1   0    0    -1  
$EndComp
$Comp
L KSW K22
U 1 1 5A955F41
P 19200 16100
F 0 "K22" H 19100 16150 60  0000 C CNN
F 1 "KSW" H 19350 16150 60  0000 C CNN
F 2 "chordboard-footprints:CHERRY_PCB_100H" H 20150 16150 60  0001 C CNN
F 3 "" H 19200 16100 60  0001 C CNN
	1    19200 16100
	-1   0    0    -1  
$EndComp
$Comp
L KSW K23
U 1 1 5A955F48
P 19200 16200
F 0 "K23" H 19100 16250 60  0000 C CNN
F 1 "KSW" H 19350 16250 60  0000 C CNN
F 2 "chordboard-footprints:CHERRY_PCB_100H" H 20150 16250 60  0001 C CNN
F 3 "" H 19200 16200 60  0001 C CNN
	1    19200 16200
	-1   0    0    -1  
$EndComp
$Comp
L KSW K25
U 1 1 5A955F4F
P 19200 16500
F 0 "K25" H 19100 16550 60  0000 C CNN
F 1 "KSW" H 19350 16550 60  0000 C CNN
F 2 "chordboard-footprints:CHERRY_PCB_100H" H 20150 16550 60  0001 C CNN
F 3 "" H 19200 16500 60  0001 C CNN
	1    19200 16500
	-1   0    0    -1  
$EndComp
$Comp
L KSW K26
U 1 1 5A955F56
P 19200 16600
F 0 "K26" H 19100 16650 60  0000 C CNN
F 1 "KSW" H 19350 16650 60  0000 C CNN
F 2 "chordboard-footprints:CHERRY_PCB_100H" H 20150 16650 60  0001 C CNN
F 3 "" H 19200 16600 60  0001 C CNN
	1    19200 16600
	-1   0    0    -1  
$EndComp
$Comp
L KSW K27
U 1 1 5A955F5D
P 19200 16700
F 0 "K27" H 19100 16750 60  0000 C CNN
F 1 "KSW" H 19350 16750 60  0000 C CNN
F 2 "chordboard-footprints:CHERRY_PCB_100H" H 20150 16750 60  0001 C CNN
F 3 "" H 19200 16700 60  0001 C CNN
	1    19200 16700
	-1   0    0    -1  
$EndComp
$Comp
L KSW K28
U 1 1 5A955F64
P 19200 16800
F 0 "K28" H 19100 16850 60  0000 C CNN
F 1 "KSW" H 19350 16850 60  0000 C CNN
F 2 "chordboard-footprints:CHERRY_PCB_100H" H 20150 16850 60  0001 C CNN
F 3 "" H 19200 16800 60  0001 C CNN
	1    19200 16800
	-1   0    0    -1  
$EndComp
$Comp
L KSW K29
U 1 1 5A955F6B
P 19200 16900
F 0 "K29" H 19100 16950 60  0000 C CNN
F 1 "KSW" H 19350 16950 60  0000 C CNN
F 2 "chordboard-footprints:CHERRY_PCB_100H" H 20150 16950 60  0001 C CNN
F 3 "" H 19200 16900 60  0001 C CNN
	1    19200 16900
	-1   0    0    -1  
$EndComp
$Comp
L KSW K30
U 1 1 5A955F72
P 19200 17000
F 0 "K30" H 19100 17050 60  0000 C CNN
F 1 "KSW" H 19350 17050 60  0000 C CNN
F 2 "chordboard-footprints:CHERRY_PCB_100H" H 20150 17050 60  0001 C CNN
F 3 "" H 19200 17000 60  0001 C CNN
	1    19200 17000
	-1   0    0    -1  
$EndComp
$Comp
L KSW K24
U 1 1 5A955F79
P 19200 16300
F 0 "K24" H 19100 16350 60  0000 C CNN
F 1 "KSW" H 19350 16350 60  0000 C CNN
F 2 "chordboard-footprints:CHERRY_PCB_100H" H 20150 16350 60  0001 C CNN
F 3 "" H 19200 16300 60  0001 C CNN
	1    19200 16300
	-1   0    0    -1  
$EndComp
$Comp
L KSW K31
U 1 1 5A955F80
P 19200 17100
F 0 "K31" H 19100 17150 60  0000 C CNN
F 1 "KSW" H 19350 17150 60  0000 C CNN
F 2 "chordboard-footprints:CHERRY_PCB_100H" H 20150 17150 60  0001 C CNN
F 3 "" H 19200 17100 60  0001 C CNN
	1    19200 17100
	-1   0    0    -1  
$EndComp
$Comp
L KSW K32
U 1 1 5A955F87
P 19200 17200
F 0 "K32" H 19100 17250 60  0000 C CNN
F 1 "KSW" H 19350 17250 60  0000 C CNN
F 2 "chordboard-footprints:CHERRY_PCB_100H" H 20150 17250 60  0001 C CNN
F 3 "" H 19200 17200 60  0001 C CNN
	1    19200 17200
	-1   0    0    -1  
$EndComp
$Comp
L GND #PWR40
U 1 1 5A955F8E
P 20600 17450
F 0 "#PWR40" H 20600 17200 50  0001 C CNN
F 1 "GND" H 20600 17300 50  0000 C CNN
F 2 "" H 20600 17450 50  0001 C CNN
F 3 "" H 20600 17450 50  0001 C CNN
	1    20600 17450
	-1   0    0    -1  
$EndComp
$Comp
L +3.3V #PWR38
U 1 1 5A9574B8
P 20600 17000
F 0 "#PWR38" H 20600 16850 50  0001 C CNN
F 1 "+3.3V" H 20600 17140 50  0000 C CNN
F 2 "" H 20600 17000 50  0000 C CNN
F 3 "" H 20600 17000 50  0000 C CNN
	1    20600 17000
	1    0    0    -1  
$EndComp
Text Label 20600 16700 0    60   ~ 0
SCL
Text Label 20600 16800 0    60   ~ 0
SDA
Text Label 8250 14750 2    60   ~ 0
LED_DIN
Text Label 8250 14850 2    60   ~ 0
LED_CLK
Text Label 8250 14950 2    60   ~ 0
LED_LOAD
$Comp
L CONN_01X04 J6
U 1 1 5A981267
P 16350 5300
F 0 "J6" H 16350 5550 50  0000 C CNN
F 1 "POWER" V 16450 5300 50  0000 C CNN
F 2 "Pin_Headers:Pin_Header_Straight_1x04_Pitch2.54mm" H 16350 5300 50  0001 C CNN
F 3 "" H 16350 5300 50  0001 C CNN
	1    16350 5300
	1    0    0    -1  
$EndComp
$Comp
L +5V #PWR13
U 1 1 5A983608
P 16050 5100
F 0 "#PWR13" H 16050 4950 50  0001 C CNN
F 1 "+5V" H 16050 5240 50  0000 C CNN
F 2 "" H 16050 5100 50  0001 C CNN
F 3 "" H 16050 5100 50  0001 C CNN
	1    16050 5100
	1    0    0    -1  
$EndComp
$Comp
L +3.3VA #PWR12
U 1 1 5A9851E8
P 15800 5100
F 0 "#PWR12" H 15800 4950 50  0001 C CNN
F 1 "+3.3VA" H 15800 5240 50  0000 C CNN
F 2 "" H 15800 5100 50  0001 C CNN
F 3 "" H 15800 5100 50  0001 C CNN
	1    15800 5100
	1    0    0    -1  
$EndComp
$Comp
L R RS2
U 1 1 5A98B18F
P 8850 13400
F 0 "RS2" V 8750 13350 50  0000 C CNN
F 1 "10K" V 8850 13400 50  0000 C CNN
F 2 "Resistors_SMD:R_1206_HandSoldering" V 8780 13400 50  0001 C CNN
F 3 "" H 8850 13400 50  0000 C CNN
	1    8850 13400
	0    1    1    0   
$EndComp
Text Label 19400 12550 2    60   ~ 0
DAC0
Text Label 19400 12650 2    60   ~ 0
DAC1
Text Label 19400 9050 2    60   ~ 0
U1_RX
Text Label 19400 9150 2    60   ~ 0
U1_TX
$Comp
L +3.3VA #PWR6
U 1 1 5A930C4A
P 20500 3800
F 0 "#PWR6" H 20500 3650 50  0001 C CNN
F 1 "+3.3VA" H 20500 3940 50  0000 C CNN
F 2 "" H 20500 3800 50  0001 C CNN
F 3 "" H 20500 3800 50  0001 C CNN
	1    20500 3800
	1    0    0    -1  
$EndComp
$Comp
L +3.3VA #PWR2
U 1 1 5A9309E8
P 22200 3100
F 0 "#PWR2" H 22200 2950 50  0001 C CNN
F 1 "+3.3VA" H 22200 3240 50  0000 C CNN
F 2 "" H 22200 3100 50  0001 C CNN
F 3 "" H 22200 3100 50  0001 C CNN
	1    22200 3100
	1    0    0    -1  
$EndComp
$Comp
L +3.3VA #PWR5
U 1 1 5A930686
P 28750 3700
F 0 "#PWR5" H 28750 3550 50  0001 C CNN
F 1 "+3.3VA" H 28750 3840 50  0000 C CNN
F 2 "" H 28750 3700 50  0001 C CNN
F 3 "" H 28750 3700 50  0001 C CNN
	1    28750 3700
	1    0    0    -1  
$EndComp
$Comp
L GND #PWR8
U 1 1 5A930010
P 28250 4550
F 0 "#PWR8" H 28250 4300 50  0001 C CNN
F 1 "GND" H 28250 4400 50  0000 C CNN
F 2 "" H 28250 4550 50  0001 C CNN
F 3 "" H 28250 4550 50  0001 C CNN
	1    28250 4550
	-1   0    0    -1  
$EndComp
$Comp
L +5V #PWR1
U 1 1 5A928AFF
P 27750 3050
F 0 "#PWR1" H 27750 2900 50  0001 C CNN
F 1 "+5V" H 27750 3190 50  0000 C CNN
F 2 "" H 27750 3050 50  0001 C CNN
F 3 "" H 27750 3050 50  0001 C CNN
	1    27750 3050
	1    0    0    -1  
$EndComp
$Comp
L C C14
U 1 1 5A921AE7
P 27750 4200
F 0 "C14" H 27760 4270 50  0000 L CNN
F 1 "0.1uF" H 27760 4120 50  0000 L CNN
F 2 "chordboard-footprints:C_0805_HandSoldering" H 27750 4200 50  0001 C CNN
F 3 "" H 27750 4200 50  0001 C CNN
	1    27750 4200
	1    0    0    -1  
$EndComp
$Comp
L C C16
U 1 1 5A921963
P 28750 4200
F 0 "C16" H 28760 4270 50  0000 L CNN
F 1 "10uF" H 28760 4120 50  0000 L CNN
F 2 "Capacitors_SMD:C_1206_HandSoldering" H 28750 4200 50  0001 C CNN
F 3 "" H 28750 4200 50  0001 C CNN
	1    28750 4200
	1    0    0    -1  
$EndComp
$Comp
L LD1117S33TR U9
U 1 1 5A920F67
P 28250 4050
F 0 "U9" H 28250 4300 50  0000 C CNN
F 1 "LD1117S33TR" H 28250 4250 50  0000 C CNN
F 2 "TO_SOT_Packages_SMD:SOT-223" H 28250 4150 50  0001 C CNN
F 3 "" H 28250 4050 50  0001 C CNN
	1    28250 4050
	1    0    0    -1  
$EndComp
$Comp
L GND #PWR4
U 1 1 5A855381
P 22950 3450
F 0 "#PWR4" H 22950 3200 50  0001 C CNN
F 1 "GND" H 22950 3300 50  0000 C CNN
F 2 "" H 22950 3450 50  0001 C CNN
F 3 "" H 22950 3450 50  0001 C CNN
	1    22950 3450
	1    0    0    -1  
$EndComp
$Comp
L C C15
U 1 1 5A85490B
P 22950 3300
F 0 "C15" H 22960 3370 50  0000 L CNN
F 1 "10uF" H 22960 3220 50  0000 L CNN
F 2 "Capacitors_SMD:C_1206_HandSoldering" H 22950 3300 50  0001 C CNN
F 3 "" H 22950 3300 50  0001 C CNN
	1    22950 3300
	1    0    0    -1  
$EndComp
$Comp
L GND #PWR7
U 1 1 5A8464C8
P 24150 4550
F 0 "#PWR7" H 24150 4300 50  0001 C CNN
F 1 "GND" H 24150 4400 50  0000 C CNN
F 2 "" H 24150 4550 50  0001 C CNN
F 3 "" H 24150 4550 50  0001 C CNN
	1    24150 4550
	1    0    0    -1  
$EndComp
Text Label 24250 3900 2    60   ~ 0
WIFI_RXD
Text Label 24250 3800 2    60   ~ 0
WIFI_TXD
Text Label 18800 4700 2    60   ~ 0
WIFI_RST
Text Label 18800 4450 2    60   ~ 0
WIFI_PGM
$Comp
L GND #PWR9
U 1 1 5A844C51
P 19350 4950
F 0 "#PWR9" H 19350 4700 50  0001 C CNN
F 1 "GND" H 19350 4800 50  0000 C CNN
F 2 "" H 19350 4950 50  0001 C CNN
F 3 "" H 19350 4950 50  0001 C CNN
	1    19350 4950
	1    0    0    -1  
$EndComp
$Comp
L GND #PWR10
U 1 1 5A84347D
P 20500 5000
F 0 "#PWR10" H 20500 4750 50  0001 C CNN
F 1 "GND" H 20500 4850 50  0000 C CNN
F 2 "" H 20500 5000 50  0001 C CNN
F 3 "" H 20500 5000 50  0001 C CNN
	1    20500 5000
	1    0    0    -1  
$EndComp
$Comp
L R RW5
U 1 1 5A842F76
P 20300 4700
F 0 "RW5" V 20350 4800 50  0000 L CNN
F 1 "10K" V 20300 4650 50  0000 L CNN
F 2 "Resistors_SMD:R_0805_HandSoldering" H 20300 4700 50  0001 C CNN
F 3 "" H 20300 4700 50  0001 C CNN
	1    20300 4700
	0    1    1    0   
$EndComp
$Comp
L R RW4
U 1 1 5A842E6E
P 20300 4550
F 0 "RW4" V 20350 4650 50  0000 L CNN
F 1 "10K" V 20300 4500 50  0000 L CNN
F 2 "Resistors_SMD:R_0805_HandSoldering" H 20300 4550 50  0001 C CNN
F 3 "" H 20300 4550 50  0001 C CNN
	1    20300 4550
	0    1    1    0   
$EndComp
$Comp
L R RW3
U 1 1 5A842D69
P 20300 4400
F 0 "RW3" V 20350 4500 50  0000 L CNN
F 1 "10K" V 20300 4350 50  0000 L CNN
F 2 "Resistors_SMD:R_0805_HandSoldering" H 20300 4400 50  0001 C CNN
F 3 "" H 20300 4400 50  0001 C CNN
	1    20300 4400
	0    1    1    0   
$EndComp
$Comp
L R RW2
U 1 1 5A842C5B
P 20300 4250
F 0 "RW2" V 20350 4350 50  0000 L CNN
F 1 "10K" V 20300 4200 50  0000 L CNN
F 2 "Resistors_SMD:R_0805_HandSoldering" H 20300 4250 50  0001 C CNN
F 3 "" H 20300 4250 50  0001 C CNN
	1    20300 4250
	0    1    1    0   
$EndComp
$Comp
L R RW1
U 1 1 5A8429DC
P 20300 4100
F 0 "RW1" V 20350 4200 50  0000 L CNN
F 1 "10K" V 20300 4050 50  0000 L CNN
F 2 "Resistors_SMD:R_0805_HandSoldering" H 20300 4100 50  0001 C CNN
F 3 "" H 20300 4100 50  0001 C CNN
	1    20300 4100
	0    1    1    0   
$EndComp
Text Label 20050 4700 2    60   ~ 0
WIFI_15
Text Label 20050 4550 2    60   ~ 0
WIFI_02
Text Label 20050 4400 2    60   ~ 0
WIFI_PGM
Text Label 23100 4400 0    60   ~ 0
WIFI_15
Text Label 23100 4300 0    60   ~ 0
WIFI_02
Text Label 20050 4100 2    60   ~ 0
WIFI_EN
Text Label 20050 4250 2    60   ~ 0
WIFI_RST
Text Label 21300 4000 2    60   ~ 0
WIFI_EN
$Comp
L CONN_01X06 J7
U 1 1 5A840328
P 24450 3950
F 0 "J7" H 24450 4300 50  0000 C CNN
F 1 "CONN_01X06" V 24550 3950 50  0000 C CNN
F 2 "Pin_Headers:Pin_Header_Straight_1x06_Pitch2.54mm" H 24450 3950 50  0001 C CNN
F 3 "" H 24450 3950 50  0001 C CNN
	1    24450 3950
	1    0    0    -1  
$EndComp
$Comp
L SPST S2
U 1 1 5A83FC56
P 19050 4700
F 0 "S2" H 19040 4785 60  0000 C CNN
F 1 "WRST" H 19050 4605 60  0000 C CNN
F 2 "Buttons_Switches_SMD:SW_SPST_B3U-1000P-B" H 19050 4700 60  0001 C CNN
F 3 "" H 19050 4700 60  0001 C CNN
	1    19050 4700
	-1   0    0    1   
$EndComp
$Comp
L SPST S1
U 1 1 5A83F558
P 19050 4450
F 0 "S1" H 19040 4535 60  0000 C CNN
F 1 "WPGM" H 19050 4355 60  0000 C CNN
F 2 "Buttons_Switches_SMD:SW_SPST_B3U-1000P-B" H 19050 4450 60  0001 C CNN
F 3 "" H 19050 4450 60  0001 C CNN
	1    19050 4450
	-1   0    0    1   
$EndComp
Text Label 23100 4100 0    60   ~ 0
WIFI_CMDOUT
Text Label 23100 4000 0    60   ~ 0
WIFI_CMDIN
Text Label 23100 4200 0    60   ~ 0
WIFI_PGM
Text Label 23100 3900 0    60   ~ 0
WIFI_RXD
Text Label 23100 3800 0    60   ~ 0
WIFI_TXD
Text Label 21300 3800 2    60   ~ 0
WIFI_RST
$Comp
L GND #PWR11
U 1 1 5A838D41
P 22200 5050
F 0 "#PWR11" H 22200 4800 50  0001 C CNN
F 1 "GND" H 22200 4900 50  0000 C CNN
F 2 "" H 22200 5050 50  0001 C CNN
F 3 "" H 22200 5050 50  0001 C CNN
	1    22200 5050
	1    0    0    -1  
$EndComp
$Comp
L ESP-12 U10
U 1 1 5A838D3F
P 22200 4100
F 0 "U10" H 22200 4000 50  0000 C CNN
F 1 "ESP-12" H 22200 4200 50  0000 C CNN
F 2 "chordboard-footprints:ESP-12_smd" H 22200 4100 50  0001 C CNN
F 3 "" H 22200 4100 50  0001 C CNN
	1    22200 4100
	1    0    0    -1  
$EndComp
Text Label 19000 3850 2    60   ~ 0
WIFI_TXD
Text Label 19000 3950 2    60   ~ 0
WIFI_RXD
$Comp
L KSW SW3
U 1 1 5A9EFB30
P 18750 12350
F 0 "SW3" H 18650 12400 60  0000 C CNN
F 1 "KSW" H 18900 12400 60  0000 C CNN
F 2 "chordboard-footprints:SW_PUSH_6mm" H 19700 12400 60  0001 C CNN
F 3 "" H 18750 12350 60  0001 C CNN
	1    18750 12350
	-1   0    0    -1  
$EndComp
$Comp
L LED LED1
U 1 1 5A9F9149
P 8850 4100
F 0 "LED1" H 9100 4050 60  0000 R CNN
F 1 "LED" H 8900 4150 60  0000 L CNN
F 2 "chordboard-footprints:LED_1.8mm" H 8850 4100 60  0001 C CNN
F 3 "" H 8850 4100 60  0001 C CNN
	1    8850 4100
	1    0    0    -1  
$EndComp
Text Label 8600 4200 2    60   ~ 0
X0
Text Label 8600 5600 2    60   ~ 0
X7
Text Label 8600 5400 2    60   ~ 0
X6
Text Label 8600 5200 2    60   ~ 0
X5
Text Label 8600 5000 2    60   ~ 0
X4
Text Label 8600 4800 2    60   ~ 0
X3
Text Label 8600 4600 2    60   ~ 0
X2
Text Label 8600 4400 2    60   ~ 0
X1
$Comp
L LED LED2
U 1 1 5A9F9158
P 9350 4100
F 0 "LED2" H 9600 4050 60  0000 R CNN
F 1 "LED" H 9400 4150 60  0000 L CNN
F 2 "chordboard-footprints:LED_1.8mm" H 9350 4100 60  0001 C CNN
F 3 "" H 9350 4100 60  0001 C CNN
	1    9350 4100
	1    0    0    -1  
$EndComp
$Comp
L LED LED3
U 1 1 5A9F915F
P 9850 4100
F 0 "LED3" H 10100 4050 60  0000 R CNN
F 1 "LED" H 9900 4150 60  0000 L CNN
F 2 "chordboard-footprints:LED_1.8mm" H 9850 4100 60  0001 C CNN
F 3 "" H 9850 4100 60  0001 C CNN
	1    9850 4100
	1    0    0    -1  
$EndComp
$Comp
L LED LED4
U 1 1 5A9F9166
P 10350 4100
F 0 "LED4" H 10600 4050 60  0000 R CNN
F 1 "LED" H 10400 4150 60  0000 L CNN
F 2 "chordboard-footprints:LED_1.8mm" H 10350 4100 60  0001 C CNN
F 3 "" H 10350 4100 60  0001 C CNN
	1    10350 4100
	1    0    0    -1  
$EndComp
$Comp
L LED LED5
U 1 1 5A9F916D
P 10850 4100
F 0 "LED5" H 11100 4050 60  0000 R CNN
F 1 "LED" H 10900 4150 60  0000 L CNN
F 2 "chordboard-footprints:LED_1.8mm" H 10850 4100 60  0001 C CNN
F 3 "" H 10850 4100 60  0001 C CNN
	1    10850 4100
	1    0    0    -1  
$EndComp
$Comp
L LED LED6
U 1 1 5A9F9174
P 11350 4100
F 0 "LED6" H 11600 4050 60  0000 R CNN
F 1 "LED" H 11400 4150 60  0000 L CNN
F 2 "chordboard-footprints:LED_1.8mm" H 11350 4100 60  0001 C CNN
F 3 "" H 11350 4100 60  0001 C CNN
	1    11350 4100
	1    0    0    -1  
$EndComp
$Comp
L LED LED7
U 1 1 5A9F917B
P 11850 4100
F 0 "LED7" H 12100 4050 60  0000 R CNN
F 1 "LED" H 11900 4150 60  0000 L CNN
F 2 "chordboard-footprints:LED_1.8mm" H 11850 4100 60  0001 C CNN
F 3 "" H 11850 4100 60  0001 C CNN
	1    11850 4100
	1    0    0    -1  
$EndComp
$Comp
L LED LED8
U 1 1 5A9F9182
P 12350 4100
F 0 "LED8" H 12600 4050 60  0000 R CNN
F 1 "LED" H 12400 4150 60  0000 L CNN
F 2 "chordboard-footprints:LED_1.8mm" H 12350 4100 60  0001 C CNN
F 3 "" H 12350 4100 60  0001 C CNN
	1    12350 4100
	1    0    0    -1  
$EndComp
$Comp
L LED LED9
U 1 1 5A9F9189
P 8850 4300
F 0 "LED9" H 9100 4250 60  0000 R CNN
F 1 "LED" H 8900 4350 60  0000 L CNN
F 2 "chordboard-footprints:LED_1.8mm" H 8850 4300 60  0001 C CNN
F 3 "" H 8850 4300 60  0001 C CNN
	1    8850 4300
	1    0    0    -1  
$EndComp
$Comp
L LED LED10
U 1 1 5A9F9190
P 9350 4300
F 0 "LED10" H 9600 4250 60  0000 R CNN
F 1 "LED" H 9400 4350 60  0000 L CNN
F 2 "chordboard-footprints:LED_1.8mm" H 9350 4300 60  0001 C CNN
F 3 "" H 9350 4300 60  0001 C CNN
	1    9350 4300
	1    0    0    -1  
$EndComp
$Comp
L LED LED11
U 1 1 5A9F9197
P 9850 4300
F 0 "LED11" H 10100 4250 60  0000 R CNN
F 1 "LED" H 9900 4350 60  0000 L CNN
F 2 "chordboard-footprints:LED_1.8mm" H 9850 4300 60  0001 C CNN
F 3 "" H 9850 4300 60  0001 C CNN
	1    9850 4300
	1    0    0    -1  
$EndComp
$Comp
L LED LED12
U 1 1 5A9F919E
P 10350 4300
F 0 "LED12" H 10600 4250 60  0000 R CNN
F 1 "LED" H 10400 4350 60  0000 L CNN
F 2 "chordboard-footprints:LED_1.8mm" H 10350 4300 60  0001 C CNN
F 3 "" H 10350 4300 60  0001 C CNN
	1    10350 4300
	1    0    0    -1  
$EndComp
$Comp
L LED LED13
U 1 1 5A9F91A5
P 10850 4300
F 0 "LED13" H 11100 4250 60  0000 R CNN
F 1 "LED" H 10900 4350 60  0000 L CNN
F 2 "chordboard-footprints:LED_1.8mm" H 10850 4300 60  0001 C CNN
F 3 "" H 10850 4300 60  0001 C CNN
	1    10850 4300
	1    0    0    -1  
$EndComp
$Comp
L LED LED14
U 1 1 5A9F91AC
P 11350 4300
F 0 "LED14" H 11600 4250 60  0000 R CNN
F 1 "LED" H 11400 4350 60  0000 L CNN
F 2 "chordboard-footprints:LED_1.8mm" H 11350 4300 60  0001 C CNN
F 3 "" H 11350 4300 60  0001 C CNN
	1    11350 4300
	1    0    0    -1  
$EndComp
$Comp
L LED LED15
U 1 1 5A9F91B3
P 11850 4300
F 0 "LED15" H 12100 4250 60  0000 R CNN
F 1 "LED" H 11900 4350 60  0000 L CNN
F 2 "chordboard-footprints:LED_1.8mm" H 11850 4300 60  0001 C CNN
F 3 "" H 11850 4300 60  0001 C CNN
	1    11850 4300
	1    0    0    -1  
$EndComp
$Comp
L LED LED16
U 1 1 5A9F91BA
P 12350 4300
F 0 "LED16" H 12600 4250 60  0000 R CNN
F 1 "LED" H 12400 4350 60  0000 L CNN
F 2 "chordboard-footprints:LED_1.8mm" H 12350 4300 60  0001 C CNN
F 3 "" H 12350 4300 60  0001 C CNN
	1    12350 4300
	1    0    0    -1  
$EndComp
$Comp
L LED LED17
U 1 1 5A9F91C1
P 8850 4500
F 0 "LED17" H 9100 4450 60  0000 R CNN
F 1 "LED" H 8900 4550 60  0000 L CNN
F 2 "chordboard-footprints:LED_1.8mm" H 8850 4500 60  0001 C CNN
F 3 "" H 8850 4500 60  0001 C CNN
	1    8850 4500
	1    0    0    -1  
$EndComp
$Comp
L LED LED18
U 1 1 5A9F91C8
P 9350 4500
F 0 "LED18" H 9600 4450 60  0000 R CNN
F 1 "LED" H 9400 4550 60  0000 L CNN
F 2 "chordboard-footprints:LED_1.8mm" H 9350 4500 60  0001 C CNN
F 3 "" H 9350 4500 60  0001 C CNN
	1    9350 4500
	1    0    0    -1  
$EndComp
$Comp
L LED LED19
U 1 1 5A9F91CF
P 9850 4500
F 0 "LED19" H 10100 4450 60  0000 R CNN
F 1 "LED" H 9900 4550 60  0000 L CNN
F 2 "chordboard-footprints:LED_1.8mm" H 9850 4500 60  0001 C CNN
F 3 "" H 9850 4500 60  0001 C CNN
	1    9850 4500
	1    0    0    -1  
$EndComp
$Comp
L LED LED20
U 1 1 5A9F91D6
P 10350 4500
F 0 "LED20" H 10600 4450 60  0000 R CNN
F 1 "LED" H 10400 4550 60  0000 L CNN
F 2 "chordboard-footprints:LED_1.8mm" H 10350 4500 60  0001 C CNN
F 3 "" H 10350 4500 60  0001 C CNN
	1    10350 4500
	1    0    0    -1  
$EndComp
$Comp
L LED LED21
U 1 1 5A9F91DD
P 10850 4500
F 0 "LED21" H 11100 4450 60  0000 R CNN
F 1 "LED" H 10900 4550 60  0000 L CNN
F 2 "chordboard-footprints:LED_1.8mm" H 10850 4500 60  0001 C CNN
F 3 "" H 10850 4500 60  0001 C CNN
	1    10850 4500
	1    0    0    -1  
$EndComp
$Comp
L LED LED22
U 1 1 5A9F91E4
P 11350 4500
F 0 "LED22" H 11600 4450 60  0000 R CNN
F 1 "LED" H 11400 4550 60  0000 L CNN
F 2 "chordboard-footprints:LED_1.8mm" H 11350 4500 60  0001 C CNN
F 3 "" H 11350 4500 60  0001 C CNN
	1    11350 4500
	1    0    0    -1  
$EndComp
$Comp
L LED LED23
U 1 1 5A9F91EB
P 11850 4500
F 0 "LED23" H 12100 4450 60  0000 R CNN
F 1 "LED" H 11900 4550 60  0000 L CNN
F 2 "chordboard-footprints:LED_1.8mm" H 11850 4500 60  0001 C CNN
F 3 "" H 11850 4500 60  0001 C CNN
	1    11850 4500
	1    0    0    -1  
$EndComp
$Comp
L LED LED24
U 1 1 5A9F91F2
P 12350 4500
F 0 "LED24" H 12600 4450 60  0000 R CNN
F 1 "LED" H 12400 4550 60  0000 L CNN
F 2 "chordboard-footprints:LED_1.8mm" H 12350 4500 60  0001 C CNN
F 3 "" H 12350 4500 60  0001 C CNN
	1    12350 4500
	1    0    0    -1  
$EndComp
$Comp
L LED LED25
U 1 1 5A9F91F9
P 8850 4700
F 0 "LED25" H 9100 4650 60  0000 R CNN
F 1 "LED" H 8900 4750 60  0000 L CNN
F 2 "chordboard-footprints:LED_1.8mm" H 8850 4700 60  0001 C CNN
F 3 "" H 8850 4700 60  0001 C CNN
	1    8850 4700
	1    0    0    -1  
$EndComp
$Comp
L LED LED26
U 1 1 5A9F9200
P 9350 4700
F 0 "LED26" H 9600 4650 60  0000 R CNN
F 1 "LED" H 9400 4750 60  0000 L CNN
F 2 "chordboard-footprints:LED_1.8mm" H 9350 4700 60  0001 C CNN
F 3 "" H 9350 4700 60  0001 C CNN
	1    9350 4700
	1    0    0    -1  
$EndComp
$Comp
L LED LED27
U 1 1 5A9F9207
P 9850 4700
F 0 "LED27" H 10100 4650 60  0000 R CNN
F 1 "LED" H 9900 4750 60  0000 L CNN
F 2 "chordboard-footprints:LED_1.8mm" H 9850 4700 60  0001 C CNN
F 3 "" H 9850 4700 60  0001 C CNN
	1    9850 4700
	1    0    0    -1  
$EndComp
$Comp
L LED LED28
U 1 1 5A9F920E
P 10350 4700
F 0 "LED28" H 10600 4650 60  0000 R CNN
F 1 "LED" H 10400 4750 60  0000 L CNN
F 2 "chordboard-footprints:LED_1.8mm" H 10350 4700 60  0001 C CNN
F 3 "" H 10350 4700 60  0001 C CNN
	1    10350 4700
	1    0    0    -1  
$EndComp
$Comp
L LED LED29
U 1 1 5A9F9215
P 10850 4700
F 0 "LED29" H 11100 4650 60  0000 R CNN
F 1 "LED" H 10900 4750 60  0000 L CNN
F 2 "chordboard-footprints:LED_1.8mm" H 10850 4700 60  0001 C CNN
F 3 "" H 10850 4700 60  0001 C CNN
	1    10850 4700
	1    0    0    -1  
$EndComp
$Comp
L LED LED30
U 1 1 5A9F921C
P 11350 4700
F 0 "LED30" H 11600 4650 60  0000 R CNN
F 1 "LED" H 11400 4750 60  0000 L CNN
F 2 "chordboard-footprints:LED_1.8mm" H 11350 4700 60  0001 C CNN
F 3 "" H 11350 4700 60  0001 C CNN
	1    11350 4700
	1    0    0    -1  
$EndComp
$Comp
L LED LED31
U 1 1 5A9F9223
P 11850 4700
F 0 "LED31" H 12100 4650 60  0000 R CNN
F 1 "LED" H 11900 4750 60  0000 L CNN
F 2 "chordboard-footprints:LED_1.8mm" H 11850 4700 60  0001 C CNN
F 3 "" H 11850 4700 60  0001 C CNN
	1    11850 4700
	1    0    0    -1  
$EndComp
$Comp
L LED LED32
U 1 1 5A9F922A
P 12350 4700
F 0 "LED32" H 12600 4650 60  0000 R CNN
F 1 "LED" H 12400 4750 60  0000 L CNN
F 2 "chordboard-footprints:LED_1.8mm" H 12350 4700 60  0001 C CNN
F 3 "" H 12350 4700 60  0001 C CNN
	1    12350 4700
	1    0    0    -1  
$EndComp
$Comp
L LED LED33
U 1 1 5A9F9231
P 8850 4900
F 0 "LED33" H 9100 4850 60  0000 R CNN
F 1 "LED" H 8900 4950 60  0000 L CNN
F 2 "chordboard-footprints:LED_1.8mm" H 8850 4900 60  0001 C CNN
F 3 "" H 8850 4900 60  0001 C CNN
	1    8850 4900
	1    0    0    -1  
$EndComp
$Comp
L LED LED34
U 1 1 5A9F9238
P 9350 4900
F 0 "LED34" H 9600 4850 60  0000 R CNN
F 1 "LED" H 9400 4950 60  0000 L CNN
F 2 "chordboard-footprints:LED_1.8mm" H 9350 4900 60  0001 C CNN
F 3 "" H 9350 4900 60  0001 C CNN
	1    9350 4900
	1    0    0    -1  
$EndComp
$Comp
L LED LED35
U 1 1 5A9F923F
P 9850 4900
F 0 "LED35" H 10100 4850 60  0000 R CNN
F 1 "LED" H 9900 4950 60  0000 L CNN
F 2 "chordboard-footprints:LED_1.8mm" H 9850 4900 60  0001 C CNN
F 3 "" H 9850 4900 60  0001 C CNN
	1    9850 4900
	1    0    0    -1  
$EndComp
$Comp
L LED LED36
U 1 1 5A9F9246
P 10350 4900
F 0 "LED36" H 10600 4850 60  0000 R CNN
F 1 "LED" H 10400 4950 60  0000 L CNN
F 2 "chordboard-footprints:LED_1.8mm" H 10350 4900 60  0001 C CNN
F 3 "" H 10350 4900 60  0001 C CNN
	1    10350 4900
	1    0    0    -1  
$EndComp
$Comp
L LED LED37
U 1 1 5A9F924D
P 10850 4900
F 0 "LED37" H 11100 4850 60  0000 R CNN
F 1 "LED" H 10900 4950 60  0000 L CNN
F 2 "chordboard-footprints:LED_1.8mm" H 10850 4900 60  0001 C CNN
F 3 "" H 10850 4900 60  0001 C CNN
	1    10850 4900
	1    0    0    -1  
$EndComp
$Comp
L LED LED38
U 1 1 5A9F9254
P 11350 4900
F 0 "LED38" H 11600 4850 60  0000 R CNN
F 1 "LED" H 11400 4950 60  0000 L CNN
F 2 "chordboard-footprints:LED_1.8mm" H 11350 4900 60  0001 C CNN
F 3 "" H 11350 4900 60  0001 C CNN
	1    11350 4900
	1    0    0    -1  
$EndComp
$Comp
L LED LED39
U 1 1 5A9F925B
P 11850 4900
F 0 "LED39" H 12100 4850 60  0000 R CNN
F 1 "LED" H 11900 4950 60  0000 L CNN
F 2 "chordboard-footprints:LED_1.8mm" H 11850 4900 60  0001 C CNN
F 3 "" H 11850 4900 60  0001 C CNN
	1    11850 4900
	1    0    0    -1  
$EndComp
$Comp
L LED LED40
U 1 1 5A9F9262
P 12350 4900
F 0 "LED40" H 12600 4850 60  0000 R CNN
F 1 "LED" H 12400 4950 60  0000 L CNN
F 2 "chordboard-footprints:LED_1.8mm" H 12350 4900 60  0001 C CNN
F 3 "" H 12350 4900 60  0001 C CNN
	1    12350 4900
	1    0    0    -1  
$EndComp
$Comp
L LED LED41
U 1 1 5A9F9269
P 8850 5100
F 0 "LED41" H 9100 5050 60  0000 R CNN
F 1 "LED" H 8900 5150 60  0000 L CNN
F 2 "chordboard-footprints:LED_1.8mm" H 8850 5100 60  0001 C CNN
F 3 "" H 8850 5100 60  0001 C CNN
	1    8850 5100
	1    0    0    -1  
$EndComp
$Comp
L LED LED42
U 1 1 5A9F9270
P 9350 5100
F 0 "LED42" H 9600 5050 60  0000 R CNN
F 1 "LED" H 9400 5150 60  0000 L CNN
F 2 "chordboard-footprints:LED_1.8mm" H 9350 5100 60  0001 C CNN
F 3 "" H 9350 5100 60  0001 C CNN
	1    9350 5100
	1    0    0    -1  
$EndComp
$Comp
L LED LED43
U 1 1 5A9F9277
P 9850 5100
F 0 "LED43" H 10100 5050 60  0000 R CNN
F 1 "LED" H 9900 5150 60  0000 L CNN
F 2 "chordboard-footprints:LED_1.8mm" H 9850 5100 60  0001 C CNN
F 3 "" H 9850 5100 60  0001 C CNN
	1    9850 5100
	1    0    0    -1  
$EndComp
$Comp
L LED LED44
U 1 1 5A9F927E
P 10350 5100
F 0 "LED44" H 10600 5050 60  0000 R CNN
F 1 "LED" H 10400 5150 60  0000 L CNN
F 2 "chordboard-footprints:LED_1.8mm" H 10350 5100 60  0001 C CNN
F 3 "" H 10350 5100 60  0001 C CNN
	1    10350 5100
	1    0    0    -1  
$EndComp
$Comp
L LED LED45
U 1 1 5A9F9285
P 10850 5100
F 0 "LED45" H 11100 5050 60  0000 R CNN
F 1 "LED" H 10900 5150 60  0000 L CNN
F 2 "chordboard-footprints:LED_1.8mm" H 10850 5100 60  0001 C CNN
F 3 "" H 10850 5100 60  0001 C CNN
	1    10850 5100
	1    0    0    -1  
$EndComp
$Comp
L LED LED46
U 1 1 5A9F928C
P 11350 5100
F 0 "LED46" H 11600 5050 60  0000 R CNN
F 1 "LED" H 11400 5150 60  0000 L CNN
F 2 "chordboard-footprints:LED_1.8mm" H 11350 5100 60  0001 C CNN
F 3 "" H 11350 5100 60  0001 C CNN
	1    11350 5100
	1    0    0    -1  
$EndComp
$Comp
L LED LED47
U 1 1 5A9F9293
P 11850 5100
F 0 "LED47" H 12100 5050 60  0000 R CNN
F 1 "LED" H 11900 5150 60  0000 L CNN
F 2 "chordboard-footprints:LED_1.8mm" H 11850 5100 60  0001 C CNN
F 3 "" H 11850 5100 60  0001 C CNN
	1    11850 5100
	1    0    0    -1  
$EndComp
$Comp
L LED LED48
U 1 1 5A9F929A
P 12350 5100
F 0 "LED48" H 12600 5050 60  0000 R CNN
F 1 "LED" H 12400 5150 60  0000 L CNN
F 2 "chordboard-footprints:LED_1.8mm" H 12350 5100 60  0001 C CNN
F 3 "" H 12350 5100 60  0001 C CNN
	1    12350 5100
	1    0    0    -1  
$EndComp
$Comp
L LED LED49
U 1 1 5A9F92A1
P 8850 5300
F 0 "LED49" H 9100 5250 60  0000 R CNN
F 1 "LED" H 8900 5350 60  0000 L CNN
F 2 "chordboard-footprints:LED_1.8mm" H 8850 5300 60  0001 C CNN
F 3 "" H 8850 5300 60  0001 C CNN
	1    8850 5300
	1    0    0    -1  
$EndComp
$Comp
L LED LED50
U 1 1 5A9F92A8
P 9350 5300
F 0 "LED50" H 9600 5250 60  0000 R CNN
F 1 "LED" H 9400 5350 60  0000 L CNN
F 2 "chordboard-footprints:LED_1.8mm" H 9350 5300 60  0001 C CNN
F 3 "" H 9350 5300 60  0001 C CNN
	1    9350 5300
	1    0    0    -1  
$EndComp
$Comp
L LED LED51
U 1 1 5A9F92AF
P 9850 5300
F 0 "LED51" H 10100 5250 60  0000 R CNN
F 1 "LED" H 9900 5350 60  0000 L CNN
F 2 "chordboard-footprints:LED_1.8mm" H 9850 5300 60  0001 C CNN
F 3 "" H 9850 5300 60  0001 C CNN
	1    9850 5300
	1    0    0    -1  
$EndComp
$Comp
L LED LED52
U 1 1 5A9F92B6
P 10350 5300
F 0 "LED52" H 10600 5250 60  0000 R CNN
F 1 "LED" H 10400 5350 60  0000 L CNN
F 2 "chordboard-footprints:LED_1.8mm" H 10350 5300 60  0001 C CNN
F 3 "" H 10350 5300 60  0001 C CNN
	1    10350 5300
	1    0    0    -1  
$EndComp
$Comp
L LED LED53
U 1 1 5A9F92BD
P 10850 5300
F 0 "LED53" H 11100 5250 60  0000 R CNN
F 1 "LED" H 10900 5350 60  0000 L CNN
F 2 "chordboard-footprints:LED_1.8mm" H 10850 5300 60  0001 C CNN
F 3 "" H 10850 5300 60  0001 C CNN
	1    10850 5300
	1    0    0    -1  
$EndComp
$Comp
L LED LED54
U 1 1 5A9F92C4
P 11350 5300
F 0 "LED54" H 11600 5250 60  0000 R CNN
F 1 "LED" H 11400 5350 60  0000 L CNN
F 2 "chordboard-footprints:LED_1.8mm" H 11350 5300 60  0001 C CNN
F 3 "" H 11350 5300 60  0001 C CNN
	1    11350 5300
	1    0    0    -1  
$EndComp
$Comp
L LED LED55
U 1 1 5A9F92CB
P 11850 5300
F 0 "LED55" H 12100 5250 60  0000 R CNN
F 1 "LED" H 11900 5350 60  0000 L CNN
F 2 "chordboard-footprints:LED_1.8mm" H 11850 5300 60  0001 C CNN
F 3 "" H 11850 5300 60  0001 C CNN
	1    11850 5300
	1    0    0    -1  
$EndComp
$Comp
L LED LED56
U 1 1 5A9F92D2
P 12350 5300
F 0 "LED56" H 12600 5250 60  0000 R CNN
F 1 "LED" H 12400 5350 60  0000 L CNN
F 2 "chordboard-footprints:LED_1.8mm" H 12350 5300 60  0001 C CNN
F 3 "" H 12350 5300 60  0001 C CNN
	1    12350 5300
	1    0    0    -1  
$EndComp
$Comp
L LED LED57
U 1 1 5A9F92D9
P 8850 5500
F 0 "LED57" H 9100 5450 60  0000 R CNN
F 1 "LED" H 8900 5550 60  0000 L CNN
F 2 "chordboard-footprints:LED_1.8mm" H 8850 5500 60  0001 C CNN
F 3 "" H 8850 5500 60  0001 C CNN
	1    8850 5500
	1    0    0    -1  
$EndComp
$Comp
L LED LED58
U 1 1 5A9F92E0
P 9350 5500
F 0 "LED58" H 9600 5450 60  0000 R CNN
F 1 "LED" H 9400 5550 60  0000 L CNN
F 2 "chordboard-footprints:LED_1.8mm" H 9350 5500 60  0001 C CNN
F 3 "" H 9350 5500 60  0001 C CNN
	1    9350 5500
	1    0    0    -1  
$EndComp
$Comp
L LED LED59
U 1 1 5A9F92E7
P 9850 5500
F 0 "LED59" H 10100 5450 60  0000 R CNN
F 1 "LED" H 9900 5550 60  0000 L CNN
F 2 "chordboard-footprints:LED_1.8mm" H 9850 5500 60  0001 C CNN
F 3 "" H 9850 5500 60  0001 C CNN
	1    9850 5500
	1    0    0    -1  
$EndComp
$Comp
L LED LED60
U 1 1 5A9F92EE
P 10350 5500
F 0 "LED60" H 10600 5450 60  0000 R CNN
F 1 "LED" H 10400 5550 60  0000 L CNN
F 2 "chordboard-footprints:LED_1.8mm" H 10350 5500 60  0001 C CNN
F 3 "" H 10350 5500 60  0001 C CNN
	1    10350 5500
	1    0    0    -1  
$EndComp
$Comp
L LED LED61
U 1 1 5A9F92F5
P 10850 5500
F 0 "LED61" H 11100 5450 60  0000 R CNN
F 1 "LED" H 10900 5550 60  0000 L CNN
F 2 "chordboard-footprints:LED_1.8mm" H 10850 5500 60  0001 C CNN
F 3 "" H 10850 5500 60  0001 C CNN
	1    10850 5500
	1    0    0    -1  
$EndComp
$Comp
L LED LED62
U 1 1 5A9F92FC
P 11350 5500
F 0 "LED62" H 11600 5450 60  0000 R CNN
F 1 "LED" H 11400 5550 60  0000 L CNN
F 2 "chordboard-footprints:LED_1.8mm" H 11350 5500 60  0001 C CNN
F 3 "" H 11350 5500 60  0001 C CNN
	1    11350 5500
	1    0    0    -1  
$EndComp
$Comp
L LED LED63
U 1 1 5A9F9303
P 11850 5500
F 0 "LED63" H 12100 5450 60  0000 R CNN
F 1 "LED" H 11900 5550 60  0000 L CNN
F 2 "chordboard-footprints:LED_1.8mm" H 11850 5500 60  0001 C CNN
F 3 "" H 11850 5500 60  0001 C CNN
	1    11850 5500
	1    0    0    -1  
$EndComp
$Comp
L LED LED64
U 1 1 5A9F930A
P 12350 5500
F 0 "LED64" H 12600 5450 60  0000 R CNN
F 1 "LED" H 12400 5550 60  0000 L CNN
F 2 "chordboard-footprints:LED_1.8mm" H 12350 5500 60  0001 C CNN
F 3 "" H 12350 5500 60  0001 C CNN
	1    12350 5500
	1    0    0    -1  
$EndComp
Text Label 9100 3900 1    60   ~ 0
Y0
Text Label 9600 3900 1    60   ~ 0
Y1
Text Label 10100 3900 1    60   ~ 0
Y2
Text Label 10600 3900 1    60   ~ 0
Y3
Text Label 11100 3900 1    60   ~ 0
Y4
Text Label 11600 3900 1    60   ~ 0
Y5
Text Label 12100 3900 1    60   ~ 0
Y6
Text Label 12600 3900 1    60   ~ 0
Y7
$Comp
L 74HC245 U5
U 1 1 5A9FAFC8
P 3250 19100
F 0 "U5" H 3350 19675 50  0000 L BNN
F 1 "74HC245" H 3300 18525 50  0000 L TNN
F 2 "Housings_DIP:DIP-20_W7.62mm" H 3250 19100 50  0001 C CNN
F 3 "" H 3250 19100 50  0001 C CNN
	1    3250 19100
	1    0    0    -1  
$EndComp
$Comp
L +5V #PWR43
U 1 1 5A9FB899
P 3250 18200
F 0 "#PWR43" H 3250 18050 50  0001 C CNN
F 1 "+5V" H 3250 18340 50  0000 C CNN
F 2 "" H 3250 18200 50  0001 C CNN
F 3 "" H 3250 18200 50  0001 C CNN
	1    3250 18200
	1    0    0    -1  
$EndComp
$Comp
L GND #PWR73
U 1 1 5A9FBE2F
P 3250 20050
F 0 "#PWR73" H 3250 19800 50  0001 C CNN
F 1 "GND" H 3250 19900 50  0000 C CNN
F 2 "" H 3250 20050 50  0000 C CNN
F 3 "" H 3250 20050 50  0000 C CNN
	1    3250 20050
	1    0    0    -1  
$EndComp
$Comp
L WS2812B LEDP1
U 1 1 5A9FC10B
P 4450 18500
F 0 "LEDP1" H 4450 18300 50  0000 C CNN
F 1 "WS2812B" H 4450 18600 50  0000 C CNN
F 2 "chordboard-footprints:LED_WS2812B-PLCC4-HandSolder" H 4450 18200 50  0001 C CNN
F 3 "" H 4450 18450 50  0001 C CNN
	1    4450 18500
	1    0    0    -1  
$EndComp
$Comp
L WS2812B LEDP2
U 1 1 5A9FC55E
P 5350 18500
F 0 "LEDP2" H 5350 18300 50  0000 C CNN
F 1 "WS2812B" H 5350 18600 50  0000 C CNN
F 2 "chordboard-footprints:LED_WS2812B-PLCC4-HandSolder" H 5350 18200 50  0001 C CNN
F 3 "" H 5350 18450 50  0001 C CNN
	1    5350 18500
	1    0    0    -1  
$EndComp
$Comp
L WS2812B LEDP3
U 1 1 5A9FC791
P 6250 18500
F 0 "LEDP3" H 6250 18300 50  0000 C CNN
F 1 "WS2812B" H 6250 18600 50  0000 C CNN
F 2 "chordboard-footprints:LED_WS2812B-PLCC4-HandSolder" H 6250 18200 50  0001 C CNN
F 3 "" H 6250 18450 50  0001 C CNN
	1    6250 18500
	1    0    0    -1  
$EndComp
$Comp
L WS2812B LEDP4
U 1 1 5A9FD4F5
P 7150 18500
F 0 "LEDP4" H 7150 18300 50  0000 C CNN
F 1 "WS2812B" H 7150 18600 50  0000 C CNN
F 2 "chordboard-footprints:LED_WS2812B-PLCC4-HandSolder" H 7150 18200 50  0001 C CNN
F 3 "" H 7150 18450 50  0001 C CNN
	1    7150 18500
	1    0    0    -1  
$EndComp
$Comp
L WS2812B LEDP5
U 1 1 5A9FD71A
P 8050 18500
F 0 "LEDP5" H 8050 18300 50  0000 C CNN
F 1 "WS2812B" H 8050 18600 50  0000 C CNN
F 2 "chordboard-footprints:LED_WS2812B-PLCC4-HandSolder" H 8050 18200 50  0001 C CNN
F 3 "" H 8050 18450 50  0001 C CNN
	1    8050 18500
	1    0    0    -1  
$EndComp
$Comp
L WS2812B LEDP6
U 1 1 5A9FD952
P 8950 18500
F 0 "LEDP6" H 8950 18300 50  0000 C CNN
F 1 "WS2812B" H 8950 18600 50  0000 C CNN
F 2 "chordboard-footprints:LED_WS2812B-PLCC4-HandSolder" H 8950 18200 50  0001 C CNN
F 3 "" H 8950 18450 50  0001 C CNN
	1    8950 18500
	1    0    0    -1  
$EndComp
$Comp
L WS2812B LEDP7
U 1 1 5A9FDC26
P 9850 18500
F 0 "LEDP7" H 9850 18300 50  0000 C CNN
F 1 "WS2812B" H 9850 18600 50  0000 C CNN
F 2 "chordboard-footprints:LED_WS2812B-PLCC4-HandSolder" H 9850 18200 50  0001 C CNN
F 3 "" H 9850 18450 50  0001 C CNN
	1    9850 18500
	1    0    0    -1  
$EndComp
$Comp
L WS2812B LEDP8
U 1 1 5A9FDE58
P 10750 18500
F 0 "LEDP8" H 10750 18300 50  0000 C CNN
F 1 "WS2812B" H 10750 18600 50  0000 C CNN
F 2 "chordboard-footprints:LED_WS2812B-PLCC4-HandSolder" H 10750 18200 50  0001 C CNN
F 3 "" H 10750 18450 50  0001 C CNN
	1    10750 18500
	1    0    0    -1  
$EndComp
$Comp
L WS2812B LEDP9
U 1 1 5A9FE08D
P 11650 18500
F 0 "LEDP9" H 11650 18300 50  0000 C CNN
F 1 "WS2812B" H 11650 18600 50  0000 C CNN
F 2 "chordboard-footprints:LED_WS2812B-PLCC4-HandSolder" H 11650 18200 50  0001 C CNN
F 3 "" H 11650 18450 50  0001 C CNN
	1    11650 18500
	1    0    0    -1  
$EndComp
$Comp
L WS2812B LEDP10
U 1 1 5A9FE2BB
P 12550 18500
F 0 "LEDP10" H 12550 18300 50  0000 C CNN
F 1 "WS2812B" H 12550 18600 50  0000 C CNN
F 2 "chordboard-footprints:LED_WS2812B-PLCC4-HandSolder" H 12550 18200 50  0001 C CNN
F 3 "" H 12550 18450 50  0001 C CNN
	1    12550 18500
	1    0    0    -1  
$EndComp
$Comp
L WS2812B LEDP11
U 1 1 5A9FE650
P 13450 18500
F 0 "LEDP11" H 13450 18300 50  0000 C CNN
F 1 "WS2812B" H 13450 18600 50  0000 C CNN
F 2 "chordboard-footprints:LED_WS2812B-PLCC4-HandSolder" H 13450 18200 50  0001 C CNN
F 3 "" H 13450 18450 50  0001 C CNN
	1    13450 18500
	1    0    0    -1  
$EndComp
$Comp
L WS2812B LEDP12
U 1 1 5A9FE8A6
P 14350 18500
F 0 "LEDP12" H 14350 18300 50  0000 C CNN
F 1 "WS2812B" H 14350 18600 50  0000 C CNN
F 2 "chordboard-footprints:LED_WS2812B-PLCC4-HandSolder" H 14350 18200 50  0001 C CNN
F 3 "" H 14350 18450 50  0001 C CNN
	1    14350 18500
	1    0    0    -1  
$EndComp
Text Label 19200 3850 0    60   ~ 0
U1_RX
Text Label 19200 3950 0    60   ~ 0
U1_TX
Text Label 19400 11250 2    60   ~ 0
PIXEL_DIN
Text Label 2550 18600 2    60   ~ 0
PIXEL_DIN
$Comp
L +5V #PWR71
U 1 1 5AA0FB52
P 2250 19250
F 0 "#PWR71" H 2250 19100 50  0001 C CNN
F 1 "+5V" H 2250 19390 50  0000 C CNN
F 2 "" H 2250 19250 50  0001 C CNN
F 3 "" H 2250 19250 50  0001 C CNN
	1    2250 19250
	1    0    0    -1  
$EndComp
$Comp
L C C11
U 1 1 5AA11193
P 2250 19700
F 0 "C11" H 2260 19770 50  0000 L CNN
F 1 "0.1uF" H 2260 19620 50  0000 L CNN
F 2 "chordboard-footprints:C_0805_HandSoldering" H 2250 19700 50  0001 C CNN
F 3 "" H 2250 19700 50  0001 C CNN
	1    2250 19700
	-1   0    0    -1  
$EndComp
$Comp
L WS2812B LEDP13
U 1 1 5AA15EEA
P 15250 18500
F 0 "LEDP13" H 15250 18300 50  0000 C CNN
F 1 "WS2812B" H 15250 18600 50  0000 C CNN
F 2 "chordboard-footprints:LED_WS2812B-PLCC4-HandSolder" H 15250 18200 50  0001 C CNN
F 3 "" H 15250 18450 50  0001 C CNN
	1    15250 18500
	1    0    0    -1  
$EndComp
$Comp
L Jumper JP2
U 1 1 5AA1F70F
P 27750 3600
F 0 "JP2" H 27700 3650 50  0000 R CNN
F 1 "JWTX" H 27800 3650 50  0000 L CNN
F 2 "Pin_Headers:Pin_Header_Straight_1x02_Pitch2.54mm" H 27750 3600 50  0001 C CNN
F 3 "" H 27750 3600 50  0001 C CNN
	1    27750 3600
	0    1    1    0   
$EndComp
$Comp
L Jumper JP4
U 1 1 5AA20FE6
P 19100 3950
F 0 "JP4" H 19050 4000 50  0000 R CNN
F 1 "JWTX" H 19150 4000 50  0000 L CNN
F 2 "Pin_Headers:Pin_Header_Straight_1x02_Pitch2.54mm" H 19100 3950 50  0001 C CNN
F 3 "" H 19100 3950 50  0001 C CNN
	1    19100 3950
	1    0    0    -1  
$EndComp
$Comp
L Jumper JP3
U 1 1 5AA21646
P 19100 3850
F 0 "JP3" H 19050 3900 50  0000 R CNN
F 1 "JWTX" H 19150 3900 50  0000 L CNN
F 2 "Pin_Headers:Pin_Header_Straight_1x02_Pitch2.54mm" H 19100 3850 50  0001 C CNN
F 3 "" H 19100 3850 50  0001 C CNN
	1    19100 3850
	1    0    0    -1  
$EndComp
Wire Wire Line
	22250 12350 22250 12450
Wire Wire Line
	22250 12250 22250 12150
Connection ~ 10100 13950
Wire Wire Line
	10100 13950 10550 13950
Wire Wire Line
	10350 13800 10350 13950
Connection ~ 10100 13400
Wire Wire Line
	10350 13400 10350 13600
Wire Wire Line
	10100 13800 10100 14150
Wire Wire Line
	10100 13400 10100 13600
Connection ~ 9050 13400
Wire Wire Line
	8650 13400 8750 13400
Wire Wire Line
	8650 13400 8650 13600
Connection ~ 9100 15250
Wire Wire Line
	9100 15250 9100 15600
Wire Wire Line
	9150 15250 9150 15100
Wire Wire Line
	9050 15250 9150 15250
Wire Wire Line
	9050 15100 9050 15250
Wire Wire Line
	9050 12800 9050 13600
Connection ~ 15650 4900
Connection ~ 15650 4500
Wire Wire Line
	15650 4500 16100 4500
Wire Wire Line
	15650 3950 16100 3950
Wire Wire Line
	15650 3950 15650 5700
Connection ~ 15550 3850
Wire Wire Line
	15550 4400 16100 4400
Wire Wire Line
	15550 3850 16100 3850
Wire Wire Line
	21400 11550 22400 11550
Wire Wire Line
	21400 11750 22400 11750
Wire Wire Line
	21400 11650 22400 11650
Wire Wire Line
	22400 11450 21400 11450
Wire Wire Line
	21400 11350 22400 11350
Wire Wire Line
	18200 11550 19400 11550
Wire Wire Line
	18200 11550 18200 13400
Wire Wire Line
	18900 11650 19400 11650
Wire Wire Line
	18200 10350 19400 10350
Wire Wire Line
	19400 8950 19400 8550
Wire Wire Line
	21400 13050 23500 13050
Wire Wire Line
	21400 12950 23500 12950
Connection ~ 23250 12250
Wire Wire Line
	23250 12250 23250 11250
Wire Wire Line
	23200 12250 23300 12250
Connection ~ 23300 12950
Wire Wire Line
	23300 12950 23300 12500
Connection ~ 23200 13050
Wire Wire Line
	23200 13050 23200 12500
Wire Wire Line
	18200 12750 19400 12750
Wire Wire Line
	27750 9750 28100 9750
Wire Wire Line
	27750 9750 27750 9900
Wire Wire Line
	30050 9950 30050 9400
Wire Wire Line
	21400 12850 21450 12850
Wire Wire Line
	21400 12750 21450 12750
Wire Wire Line
	29550 9950 30050 9950
Connection ~ 7300 10450
Wire Wire Line
	7500 10450 7300 10450
Wire Wire Line
	7300 10250 7300 10600
Wire Wire Line
	6750 10700 6750 10850
Wire Wire Line
	6750 10500 6250 10500
Wire Wire Line
	6250 10500 6250 10850
Wire Wire Line
	6250 11050 6750 11050
Wire Wire Line
	6500 11050 6500 11150
Connection ~ 6500 11050
Wire Wire Line
	7500 10450 7500 10600
Connection ~ 9500 10450
Wire Wire Line
	9700 10450 9500 10450
Wire Wire Line
	9500 10250 9500 10600
Wire Wire Line
	8950 10700 8950 10850
Wire Wire Line
	8950 10500 8450 10500
Wire Wire Line
	8450 10500 8450 10850
Wire Wire Line
	8450 11050 8950 11050
Wire Wire Line
	8700 11050 8700 11150
Connection ~ 8700 11050
Wire Wire Line
	9700 10450 9700 10600
Connection ~ 11500 10450
Wire Wire Line
	11700 10450 11500 10450
Wire Wire Line
	11500 10250 11500 10600
Wire Wire Line
	10950 10700 10950 10850
Wire Wire Line
	10950 10500 10450 10500
Wire Wire Line
	10450 10500 10450 10850
Wire Wire Line
	10450 11050 10950 11050
Wire Wire Line
	10700 11050 10700 11150
Connection ~ 10700 11050
Wire Wire Line
	11700 10450 11700 10600
Wire Wire Line
	18900 12150 19400 12150
Wire Wire Line
	18900 12250 19400 12250
Wire Wire Line
	18600 12150 18200 12150
Wire Wire Line
	18200 12250 18600 12250
Wire Wire Line
	18500 11650 18200 11650
Connection ~ 18200 11650
Wire Wire Line
	23200 12250 23200 12300
Wire Wire Line
	23300 12250 23300 12300
Wire Wire Line
	21400 12250 22250 12250
Wire Wire Line
	21400 12350 22250 12350
Wire Wire Line
	17900 16800 18100 16800
Wire Wire Line
	17900 16700 18100 16700
Wire Wire Line
	17400 17400 17400 18100
Wire Wire Line
	18000 14800 18000 15600
Wire Wire Line
	18000 15600 17900 15600
Wire Wire Line
	17400 14700 17400 15400
Connection ~ 16500 17000
Connection ~ 16500 16900
Connection ~ 16500 16800
Connection ~ 16500 16700
Connection ~ 16500 16600
Connection ~ 16500 16500
Connection ~ 16500 16300
Connection ~ 16500 16200
Connection ~ 16500 16100
Connection ~ 16500 16000
Connection ~ 16500 15900
Connection ~ 16500 15800
Connection ~ 16500 15700
Wire Wire Line
	16500 15600 16500 17450
Connection ~ 17400 14800
Wire Wire Line
	16500 17450 17400 17450
Connection ~ 17400 17450
Wire Wire Line
	18350 14800 18350 14950
Wire Wire Line
	18350 15150 18350 15250
Wire Wire Line
	16900 15600 16850 15600
Wire Wire Line
	16550 15600 16500 15600
Wire Wire Line
	16900 15700 16850 15700
Wire Wire Line
	16550 15700 16500 15700
Wire Wire Line
	16900 15800 16850 15800
Wire Wire Line
	16900 15900 16850 15900
Wire Wire Line
	16550 15800 16500 15800
Wire Wire Line
	16550 15900 16500 15900
Wire Wire Line
	16900 16000 16850 16000
Wire Wire Line
	16550 16000 16500 16000
Wire Wire Line
	16900 16100 16850 16100
Wire Wire Line
	16550 16100 16500 16100
Wire Wire Line
	16900 16200 16850 16200
Wire Wire Line
	16900 16300 16850 16300
Wire Wire Line
	16550 16200 16500 16200
Wire Wire Line
	16550 16300 16500 16300
Wire Wire Line
	16900 16500 16850 16500
Wire Wire Line
	16550 16500 16500 16500
Wire Wire Line
	16900 16600 16850 16600
Wire Wire Line
	16550 16600 16500 16600
Wire Wire Line
	16900 16700 16850 16700
Wire Wire Line
	16900 16800 16850 16800
Wire Wire Line
	16550 16700 16500 16700
Wire Wire Line
	16550 16800 16500 16800
Wire Wire Line
	16900 16900 16850 16900
Wire Wire Line
	16550 16900 16500 16900
Wire Wire Line
	16900 17000 16850 17000
Wire Wire Line
	16550 17000 16500 17000
Wire Wire Line
	16900 17100 16850 17100
Wire Wire Line
	16900 17200 16850 17200
Connection ~ 18000 14800
Wire Wire Line
	17900 17100 18100 17100
Wire Wire Line
	18100 17200 17900 17200
Wire Wire Line
	17400 14800 18350 14800
Wire Wire Line
	16550 17100 16500 17100
Connection ~ 16500 17100
Wire Wire Line
	16550 17200 16500 17200
Connection ~ 16500 17200
Connection ~ 18100 17200
Wire Wire Line
	17900 17000 18100 17000
Wire Wire Line
	18100 17000 18100 17450
Wire Wire Line
	20400 16800 20600 16800
Wire Wire Line
	20400 16700 20600 16700
Wire Wire Line
	19900 17400 19900 18100
Wire Wire Line
	20500 14800 20500 15600
Wire Wire Line
	20500 15600 20400 15600
Wire Wire Line
	19900 14700 19900 15400
Connection ~ 19000 17000
Connection ~ 19000 16900
Connection ~ 19000 16800
Connection ~ 19000 16700
Connection ~ 19000 16600
Connection ~ 19000 16500
Connection ~ 19000 16300
Connection ~ 19000 16200
Connection ~ 19000 16100
Connection ~ 19000 16000
Connection ~ 19000 15900
Connection ~ 19000 15800
Connection ~ 19000 15700
Wire Wire Line
	19000 15600 19000 17450
Connection ~ 19900 14800
Wire Wire Line
	19000 17450 19900 17450
Connection ~ 19900 17450
Wire Wire Line
	20850 14800 20850 14950
Wire Wire Line
	20850 15150 20850 15250
Wire Wire Line
	19400 15600 19350 15600
Wire Wire Line
	19050 15600 19000 15600
Wire Wire Line
	19400 15700 19350 15700
Wire Wire Line
	19050 15700 19000 15700
Wire Wire Line
	19400 15800 19350 15800
Wire Wire Line
	19400 15900 19350 15900
Wire Wire Line
	19050 15800 19000 15800
Wire Wire Line
	19050 15900 19000 15900
Wire Wire Line
	19400 16000 19350 16000
Wire Wire Line
	19050 16000 19000 16000
Wire Wire Line
	19400 16100 19350 16100
Wire Wire Line
	19050 16100 19000 16100
Wire Wire Line
	19400 16200 19350 16200
Wire Wire Line
	19400 16300 19350 16300
Wire Wire Line
	19050 16200 19000 16200
Wire Wire Line
	19050 16300 19000 16300
Wire Wire Line
	19400 16500 19350 16500
Wire Wire Line
	19050 16500 19000 16500
Wire Wire Line
	19400 16600 19350 16600
Wire Wire Line
	19050 16600 19000 16600
Wire Wire Line
	19400 16700 19350 16700
Wire Wire Line
	19400 16800 19350 16800
Wire Wire Line
	19050 16700 19000 16700
Wire Wire Line
	19050 16800 19000 16800
Wire Wire Line
	19400 16900 19350 16900
Wire Wire Line
	19050 16900 19000 16900
Wire Wire Line
	19400 17000 19350 17000
Wire Wire Line
	19050 17000 19000 17000
Wire Wire Line
	19400 17100 19350 17100
Wire Wire Line
	19400 17200 19350 17200
Connection ~ 20500 14800
Wire Wire Line
	20400 17100 20600 17100
Wire Wire Line
	20400 17200 20600 17200
Wire Wire Line
	19900 14800 20850 14800
Wire Wire Line
	19050 17100 19000 17100
Connection ~ 19000 17100
Wire Wire Line
	19050 17200 19000 17200
Connection ~ 19000 17200
Connection ~ 20600 17200
Wire Wire Line
	20400 17000 20600 17000
Wire Wire Line
	20600 17100 20600 17450
Connection ~ 18100 17100
Wire Wire Line
	15550 3250 15550 5150
Wire Wire Line
	15550 5150 16150 5150
Connection ~ 15550 4400
Wire Wire Line
	16150 5450 15650 5450
Connection ~ 15650 5450
Wire Wire Line
	16050 5250 16150 5250
Wire Wire Line
	16050 5100 16050 5250
Wire Wire Line
	15800 5100 15800 5350
Wire Wire Line
	15800 5350 16150 5350
Wire Wire Line
	8950 13400 10550 13400
Wire Wire Line
	27750 3050 27750 3500
Wire Wire Line
	22200 5000 22200 5050
Wire Wire Line
	22200 3100 22200 3200
Wire Wire Line
	20400 4700 20500 4700
Wire Wire Line
	20500 4700 20500 5000
Wire Wire Line
	20500 4550 20400 4550
Wire Wire Line
	20500 3800 20500 4550
Wire Wire Line
	20500 4400 20400 4400
Wire Wire Line
	20500 4250 20400 4250
Connection ~ 20500 4400
Wire Wire Line
	20500 4100 20400 4100
Connection ~ 20500 4250
Connection ~ 20500 4100
Wire Wire Line
	20050 4100 20200 4100
Wire Wire Line
	20050 4250 20200 4250
Wire Wire Line
	20050 4400 20200 4400
Wire Wire Line
	20050 4550 20200 4550
Wire Wire Line
	20050 4700 20200 4700
Wire Wire Line
	19200 4450 19350 4450
Wire Wire Line
	19350 4450 19350 4950
Wire Wire Line
	19350 4700 19200 4700
Connection ~ 19350 4700
Wire Wire Line
	18900 4450 18800 4450
Wire Wire Line
	18900 4700 18800 4700
Wire Wire Line
	24250 4200 24150 4200
Wire Wire Line
	24150 4200 24150 4550
Wire Wire Line
	22200 3150 22950 3150
Connection ~ 22200 3150
Wire Wire Line
	22950 3150 22950 3200
Wire Wire Line
	22950 3450 22950 3400
Wire Wire Line
	28750 4000 28650 4000
Wire Wire Line
	28750 3700 28750 4100
Wire Wire Line
	27850 4000 27750 4000
Wire Wire Line
	27750 3700 27750 4100
Wire Wire Line
	28250 4300 28250 4550
Wire Wire Line
	27750 4400 28750 4400
Wire Wire Line
	27750 4400 27750 4300
Wire Wire Line
	28750 4400 28750 4300
Connection ~ 28250 4400
Connection ~ 27750 4000
Connection ~ 28750 4000
Connection ~ 12600 4300
Connection ~ 12100 4300
Connection ~ 11600 4300
Connection ~ 11100 4300
Connection ~ 10600 4300
Connection ~ 10100 4300
Connection ~ 9600 4300
Connection ~ 9100 4300
Connection ~ 12600 4100
Connection ~ 12100 4100
Connection ~ 11600 4100
Connection ~ 11100 4100
Connection ~ 10600 4100
Connection ~ 10100 4100
Connection ~ 9600 4100
Connection ~ 9100 4100
Connection ~ 11700 4400
Connection ~ 11200 4400
Wire Wire Line
	12600 4300 12500 4300
Wire Wire Line
	12200 4400 12200 4300
Wire Wire Line
	12100 4300 12000 4300
Wire Wire Line
	11700 4400 11700 4300
Wire Wire Line
	11600 4300 11500 4300
Wire Wire Line
	11200 4400 11200 4300
Connection ~ 10700 4400
Connection ~ 10200 4400
Wire Wire Line
	10700 4400 10700 4300
Wire Wire Line
	11100 4300 11000 4300
Wire Wire Line
	10600 4300 10500 4300
Connection ~ 9700 4400
Wire Wire Line
	10200 4400 10200 4300
Wire Wire Line
	10100 4300 10000 4300
Connection ~ 9200 4400
Wire Wire Line
	9700 4400 9700 4300
Wire Wire Line
	9600 4300 9500 4300
Connection ~ 8700 4400
Wire Wire Line
	9200 4400 9200 4300
Wire Wire Line
	9100 4300 9000 4300
Wire Wire Line
	8700 4400 8700 4300
Wire Wire Line
	8600 4400 12200 4400
Connection ~ 11700 4200
Connection ~ 11200 4200
Wire Wire Line
	12600 3900 12600 5500
Wire Wire Line
	12500 4100 12600 4100
Wire Wire Line
	12200 4200 12200 4100
Wire Wire Line
	12100 3900 12100 5500
Wire Wire Line
	12000 4100 12100 4100
Wire Wire Line
	11700 4200 11700 4100
Wire Wire Line
	11600 3900 11600 5500
Wire Wire Line
	11500 4100 11600 4100
Wire Wire Line
	11200 4200 11200 4100
Connection ~ 10700 4200
Connection ~ 10200 4200
Wire Wire Line
	10700 4200 10700 4100
Wire Wire Line
	11100 3900 11100 5500
Wire Wire Line
	11000 4100 11100 4100
Wire Wire Line
	10600 3900 10600 5500
Wire Wire Line
	10500 4100 10600 4100
Connection ~ 9700 4200
Wire Wire Line
	10200 4200 10200 4100
Wire Wire Line
	10100 3900 10100 5500
Wire Wire Line
	10000 4100 10100 4100
Connection ~ 9200 4200
Wire Wire Line
	9700 4200 9700 4100
Wire Wire Line
	9600 3900 9600 5500
Wire Wire Line
	9500 4100 9600 4100
Connection ~ 8700 4200
Wire Wire Line
	9200 4200 9200 4100
Wire Wire Line
	9100 3900 9100 5500
Wire Wire Line
	9000 4100 9100 4100
Wire Wire Line
	8700 4200 8700 4100
Wire Wire Line
	8600 4200 12200 4200
Connection ~ 12600 4700
Connection ~ 12100 4700
Connection ~ 11600 4700
Connection ~ 11100 4700
Connection ~ 10600 4700
Connection ~ 10100 4700
Connection ~ 9600 4700
Connection ~ 9100 4700
Connection ~ 12600 4500
Connection ~ 12100 4500
Connection ~ 11600 4500
Connection ~ 11100 4500
Connection ~ 10600 4500
Connection ~ 10100 4500
Connection ~ 9600 4500
Connection ~ 9100 4500
Connection ~ 11700 4800
Connection ~ 11200 4800
Wire Wire Line
	12600 4700 12500 4700
Wire Wire Line
	12200 4800 12200 4700
Wire Wire Line
	12100 4700 12000 4700
Wire Wire Line
	11700 4800 11700 4700
Wire Wire Line
	11600 4700 11500 4700
Wire Wire Line
	11200 4800 11200 4700
Connection ~ 10700 4800
Connection ~ 10200 4800
Wire Wire Line
	10700 4800 10700 4700
Wire Wire Line
	11100 4700 11000 4700
Wire Wire Line
	10600 4700 10500 4700
Connection ~ 9700 4800
Wire Wire Line
	10200 4800 10200 4700
Wire Wire Line
	10100 4700 10000 4700
Connection ~ 9200 4800
Wire Wire Line
	9700 4800 9700 4700
Wire Wire Line
	9600 4700 9500 4700
Connection ~ 8700 4800
Wire Wire Line
	9200 4800 9200 4700
Wire Wire Line
	9100 4700 9000 4700
Wire Wire Line
	8700 4800 8700 4700
Wire Wire Line
	8600 4800 12200 4800
Connection ~ 11700 4600
Connection ~ 11200 4600
Wire Wire Line
	12600 4500 12500 4500
Wire Wire Line
	12200 4600 12200 4500
Wire Wire Line
	12100 4500 12000 4500
Wire Wire Line
	11700 4600 11700 4500
Wire Wire Line
	11600 4500 11500 4500
Wire Wire Line
	11200 4600 11200 4500
Connection ~ 10700 4600
Connection ~ 10200 4600
Wire Wire Line
	10700 4600 10700 4500
Wire Wire Line
	11100 4500 11000 4500
Wire Wire Line
	10600 4500 10500 4500
Connection ~ 9700 4600
Wire Wire Line
	10200 4600 10200 4500
Wire Wire Line
	10100 4500 10000 4500
Connection ~ 9200 4600
Wire Wire Line
	9700 4600 9700 4500
Wire Wire Line
	9600 4500 9500 4500
Connection ~ 8700 4600
Wire Wire Line
	9200 4600 9200 4500
Wire Wire Line
	9100 4500 9000 4500
Wire Wire Line
	8700 4600 8700 4500
Wire Wire Line
	8600 4600 12200 4600
Connection ~ 9100 4900
Wire Wire Line
	9100 4900 9000 4900
Wire Wire Line
	8700 5000 8700 4900
Connection ~ 9600 4900
Wire Wire Line
	9600 4900 9500 4900
Wire Wire Line
	9200 5000 9200 4900
Connection ~ 10100 4900
Wire Wire Line
	10100 4900 10000 4900
Wire Wire Line
	9700 5000 9700 4900
Connection ~ 10600 4900
Wire Wire Line
	10600 4900 10500 4900
Wire Wire Line
	10200 5000 10200 4900
Connection ~ 11100 4900
Wire Wire Line
	11100 4900 11000 4900
Wire Wire Line
	10700 5000 10700 4900
Connection ~ 11600 4900
Wire Wire Line
	11600 4900 11500 4900
Wire Wire Line
	11200 5000 11200 4900
Connection ~ 12100 4900
Wire Wire Line
	12100 4900 12000 4900
Wire Wire Line
	11700 5000 11700 4900
Connection ~ 12600 4900
Wire Wire Line
	12600 4900 12500 4900
Wire Wire Line
	12200 5000 12200 4900
Wire Wire Line
	8600 5000 12200 5000
Connection ~ 8700 5000
Connection ~ 9200 5000
Connection ~ 9700 5000
Connection ~ 10200 5000
Connection ~ 10700 5000
Connection ~ 11200 5000
Connection ~ 11700 5000
Wire Wire Line
	12600 4100 12600 5100
Wire Wire Line
	12100 4100 12100 5100
Wire Wire Line
	11600 4100 11600 5100
Wire Wire Line
	11100 4100 11100 5100
Wire Wire Line
	10600 4100 10600 5100
Wire Wire Line
	10100 4100 10100 5100
Wire Wire Line
	9600 4100 9600 5100
Wire Wire Line
	9100 4100 9100 5100
Connection ~ 9100 5100
Wire Wire Line
	9100 5100 9000 5100
Wire Wire Line
	8700 5200 8700 5100
Connection ~ 9600 5100
Wire Wire Line
	9600 5100 9500 5100
Wire Wire Line
	9200 5200 9200 5100
Connection ~ 10100 5100
Wire Wire Line
	10100 5100 10000 5100
Wire Wire Line
	9700 5200 9700 5100
Connection ~ 10600 5100
Wire Wire Line
	10600 5100 10500 5100
Wire Wire Line
	10200 5200 10200 5100
Connection ~ 11100 5100
Wire Wire Line
	11100 5100 11000 5100
Wire Wire Line
	10700 5200 10700 5100
Connection ~ 11600 5100
Wire Wire Line
	11600 5100 11500 5100
Wire Wire Line
	11200 5200 11200 5100
Connection ~ 12100 5100
Wire Wire Line
	12100 5100 12000 5100
Wire Wire Line
	11700 5200 11700 5100
Connection ~ 12600 5100
Wire Wire Line
	12600 5100 12500 5100
Wire Wire Line
	12200 5200 12200 5100
Wire Wire Line
	8600 5200 12200 5200
Connection ~ 8700 5200
Connection ~ 9200 5200
Connection ~ 9700 5200
Connection ~ 10200 5200
Connection ~ 10700 5200
Connection ~ 11200 5200
Connection ~ 11700 5200
Wire Wire Line
	12600 4300 12600 4700
Wire Wire Line
	12100 4300 12100 4700
Wire Wire Line
	11600 4300 11600 4700
Wire Wire Line
	11100 4300 11100 4700
Wire Wire Line
	10600 4300 10600 4700
Wire Wire Line
	10100 4300 10100 4700
Wire Wire Line
	9600 4300 9600 4700
Wire Wire Line
	9100 4300 9100 4700
Connection ~ 9100 5300
Wire Wire Line
	9100 5300 9000 5300
Wire Wire Line
	8700 5400 8700 5300
Connection ~ 9600 5300
Wire Wire Line
	9600 5300 9500 5300
Wire Wire Line
	9200 5400 9200 5300
Connection ~ 10100 5300
Wire Wire Line
	10100 5300 10000 5300
Wire Wire Line
	9700 5400 9700 5300
Connection ~ 10600 5300
Wire Wire Line
	10600 5300 10500 5300
Wire Wire Line
	10200 5400 10200 5300
Connection ~ 11100 5300
Wire Wire Line
	11100 5300 11000 5300
Wire Wire Line
	10700 5400 10700 5300
Connection ~ 11600 5300
Wire Wire Line
	11600 5300 11500 5300
Wire Wire Line
	11200 5400 11200 5300
Connection ~ 12100 5300
Wire Wire Line
	12100 5300 12000 5300
Wire Wire Line
	11700 5400 11700 5300
Connection ~ 12600 5300
Wire Wire Line
	12600 5300 12500 5300
Wire Wire Line
	12200 5400 12200 5300
Wire Wire Line
	8600 5400 12200 5400
Connection ~ 8700 5400
Connection ~ 9200 5400
Connection ~ 9700 5400
Connection ~ 10200 5400
Connection ~ 10700 5400
Connection ~ 11200 5400
Connection ~ 11700 5400
Connection ~ 9100 5500
Wire Wire Line
	9100 5500 9000 5500
Wire Wire Line
	8700 5600 8700 5500
Connection ~ 9600 5500
Wire Wire Line
	9600 5500 9500 5500
Wire Wire Line
	9200 5600 9200 5500
Connection ~ 10100 5500
Wire Wire Line
	10100 5500 10000 5500
Wire Wire Line
	9700 5600 9700 5500
Connection ~ 10600 5500
Wire Wire Line
	10600 5500 10500 5500
Wire Wire Line
	10200 5600 10200 5500
Connection ~ 11100 5500
Wire Wire Line
	11100 5500 11000 5500
Wire Wire Line
	10700 5600 10700 5500
Connection ~ 11600 5500
Wire Wire Line
	11600 5500 11500 5500
Wire Wire Line
	11200 5600 11200 5500
Connection ~ 12100 5500
Wire Wire Line
	12100 5500 12000 5500
Wire Wire Line
	11700 5600 11700 5500
Connection ~ 12600 5500
Wire Wire Line
	12600 5500 12500 5500
Wire Wire Line
	12200 5600 12200 5500
Wire Wire Line
	8600 5600 12200 5600
Connection ~ 8700 5600
Connection ~ 9200 5600
Connection ~ 9700 5600
Connection ~ 10200 5600
Connection ~ 10700 5600
Connection ~ 11200 5600
Connection ~ 11700 5600
Wire Wire Line
	3250 18200 3250 18250
Wire Wire Line
	3250 19950 3250 20050
Wire Wire Line
	3950 18600 4050 18600
Wire Wire Line
	4850 18500 4900 18500
Wire Wire Line
	4900 18500 4900 18600
Wire Wire Line
	4900 18600 4950 18600
Wire Wire Line
	5750 18500 5800 18500
Wire Wire Line
	5800 18500 5800 18600
Wire Wire Line
	5800 18600 5850 18600
Wire Wire Line
	6650 18500 6700 18500
Wire Wire Line
	6700 18500 6700 18600
Wire Wire Line
	6700 18600 6750 18600
Wire Wire Line
	7550 18500 7600 18500
Wire Wire Line
	7600 18500 7600 18600
Wire Wire Line
	7600 18600 7650 18600
Wire Wire Line
	8450 18500 8500 18500
Wire Wire Line
	8500 18500 8500 18600
Wire Wire Line
	8500 18600 8550 18600
Wire Wire Line
	9350 18500 9400 18500
Wire Wire Line
	9400 18500 9400 18600
Wire Wire Line
	9400 18600 9450 18600
Wire Wire Line
	10250 18500 10300 18500
Wire Wire Line
	10300 18500 10300 18600
Wire Wire Line
	10300 18600 10350 18600
Wire Wire Line
	11150 18500 11200 18500
Wire Wire Line
	11200 18500 11200 18600
Wire Wire Line
	11200 18600 11250 18600
Wire Wire Line
	12050 18500 12100 18500
Wire Wire Line
	12100 18500 12100 18600
Wire Wire Line
	12100 18600 12150 18600
Wire Wire Line
	12950 18500 13000 18500
Wire Wire Line
	13000 18500 13000 18600
Wire Wire Line
	13000 18600 13050 18600
Wire Wire Line
	13850 18500 13900 18500
Wire Wire Line
	13900 18500 13900 18600
Wire Wire Line
	13900 18600 13950 18600
Wire Wire Line
	2250 20000 3250 20000
Wire Wire Line
	2450 20000 2450 19600
Wire Wire Line
	2450 19600 2550 19600
Connection ~ 3250 20000
Wire Wire Line
	2550 19500 2250 19500
Wire Wire Line
	2250 19250 2250 19600
Wire Wire Line
	2250 19800 2250 20000
Connection ~ 2250 19500
Connection ~ 2450 20000
Wire Wire Line
	14750 18500 14800 18500
Wire Wire Line
	14800 18500 14800 18600
Wire Wire Line
	14800 18600 14850 18600
Wire Wire Line
	18600 12350 18200 12350
Connection ~ 18200 12350
Connection ~ 18200 12250
Connection ~ 18200 12150
Wire Wire Line
	18900 12350 19400 12350
Connection ~ 18200 12750
Wire Wire Line
	4050 18500 4050 18350
$Comp
L +5V #PWR44
U 1 1 5A9F4ED1
P 4050 18350
F 0 "#PWR44" H 4050 18200 50  0001 C CNN
F 1 "+5V" H 4050 18490 50  0000 C CNN
F 2 "" H 4050 18350 50  0001 C CNN
F 3 "" H 4050 18350 50  0001 C CNN
	1    4050 18350
	1    0    0    -1  
$EndComp
Wire Wire Line
	4950 18500 4950 18350
$Comp
L +5V #PWR45
U 1 1 5A9F50F9
P 4950 18350
F 0 "#PWR45" H 4950 18200 50  0001 C CNN
F 1 "+5V" H 4950 18490 50  0000 C CNN
F 2 "" H 4950 18350 50  0001 C CNN
F 3 "" H 4950 18350 50  0001 C CNN
	1    4950 18350
	1    0    0    -1  
$EndComp
Wire Wire Line
	5850 18500 5850 18350
$Comp
L +5V #PWR46
U 1 1 5A9F51B4
P 5850 18350
F 0 "#PWR46" H 5850 18200 50  0001 C CNN
F 1 "+5V" H 5850 18490 50  0000 C CNN
F 2 "" H 5850 18350 50  0001 C CNN
F 3 "" H 5850 18350 50  0001 C CNN
	1    5850 18350
	1    0    0    -1  
$EndComp
Wire Wire Line
	6750 18500 6750 18350
$Comp
L +5V #PWR47
U 1 1 5A9F526F
P 6750 18350
F 0 "#PWR47" H 6750 18200 50  0001 C CNN
F 1 "+5V" H 6750 18490 50  0000 C CNN
F 2 "" H 6750 18350 50  0001 C CNN
F 3 "" H 6750 18350 50  0001 C CNN
	1    6750 18350
	1    0    0    -1  
$EndComp
Wire Wire Line
	7650 18500 7650 18350
$Comp
L +5V #PWR48
U 1 1 5A9F532A
P 7650 18350
F 0 "#PWR48" H 7650 18200 50  0001 C CNN
F 1 "+5V" H 7650 18490 50  0000 C CNN
F 2 "" H 7650 18350 50  0001 C CNN
F 3 "" H 7650 18350 50  0001 C CNN
	1    7650 18350
	1    0    0    -1  
$EndComp
Wire Wire Line
	8550 18500 8550 18350
$Comp
L +5V #PWR49
U 1 1 5A9F53E5
P 8550 18350
F 0 "#PWR49" H 8550 18200 50  0001 C CNN
F 1 "+5V" H 8550 18490 50  0000 C CNN
F 2 "" H 8550 18350 50  0001 C CNN
F 3 "" H 8550 18350 50  0001 C CNN
	1    8550 18350
	1    0    0    -1  
$EndComp
Wire Wire Line
	9450 18500 9450 18350
$Comp
L +5V #PWR50
U 1 1 5A9F54A0
P 9450 18350
F 0 "#PWR50" H 9450 18200 50  0001 C CNN
F 1 "+5V" H 9450 18490 50  0000 C CNN
F 2 "" H 9450 18350 50  0001 C CNN
F 3 "" H 9450 18350 50  0001 C CNN
	1    9450 18350
	1    0    0    -1  
$EndComp
Wire Wire Line
	10350 18500 10350 18350
$Comp
L +5V #PWR51
U 1 1 5A9F555B
P 10350 18350
F 0 "#PWR51" H 10350 18200 50  0001 C CNN
F 1 "+5V" H 10350 18490 50  0000 C CNN
F 2 "" H 10350 18350 50  0001 C CNN
F 3 "" H 10350 18350 50  0001 C CNN
	1    10350 18350
	1    0    0    -1  
$EndComp
Wire Wire Line
	11250 18500 11250 18350
$Comp
L +5V #PWR52
U 1 1 5A9F5616
P 11250 18350
F 0 "#PWR52" H 11250 18200 50  0001 C CNN
F 1 "+5V" H 11250 18490 50  0000 C CNN
F 2 "" H 11250 18350 50  0001 C CNN
F 3 "" H 11250 18350 50  0001 C CNN
	1    11250 18350
	1    0    0    -1  
$EndComp
Wire Wire Line
	12150 18500 12150 18350
$Comp
L +5V #PWR53
U 1 1 5A9F5D13
P 12150 18350
F 0 "#PWR53" H 12150 18200 50  0001 C CNN
F 1 "+5V" H 12150 18490 50  0000 C CNN
F 2 "" H 12150 18350 50  0001 C CNN
F 3 "" H 12150 18350 50  0001 C CNN
	1    12150 18350
	1    0    0    -1  
$EndComp
Wire Wire Line
	13050 18500 13050 18350
$Comp
L +5V #PWR54
U 1 1 5A9F5DCE
P 13050 18350
F 0 "#PWR54" H 13050 18200 50  0001 C CNN
F 1 "+5V" H 13050 18490 50  0000 C CNN
F 2 "" H 13050 18350 50  0001 C CNN
F 3 "" H 13050 18350 50  0001 C CNN
	1    13050 18350
	1    0    0    -1  
$EndComp
Wire Wire Line
	13950 18500 13950 18350
$Comp
L +5V #PWR55
U 1 1 5A9F5E89
P 13950 18350
F 0 "#PWR55" H 13950 18200 50  0001 C CNN
F 1 "+5V" H 13950 18490 50  0000 C CNN
F 2 "" H 13950 18350 50  0001 C CNN
F 3 "" H 13950 18350 50  0001 C CNN
	1    13950 18350
	1    0    0    -1  
$EndComp
Wire Wire Line
	14850 18500 14850 18350
$Comp
L +5V #PWR56
U 1 1 5A9F5F44
P 14850 18350
F 0 "#PWR56" H 14850 18200 50  0001 C CNN
F 1 "+5V" H 14850 18490 50  0000 C CNN
F 2 "" H 14850 18350 50  0001 C CNN
F 3 "" H 14850 18350 50  0001 C CNN
	1    14850 18350
	1    0    0    -1  
$EndComp
Wire Wire Line
	15650 18600 15650 18750
$Comp
L GND #PWR69
U 1 1 5A9F634A
P 15650 18750
F 0 "#PWR69" H 15650 18500 50  0001 C CNN
F 1 "GND" H 15650 18600 50  0000 C CNN
F 2 "" H 15650 18750 50  0000 C CNN
F 3 "" H 15650 18750 50  0000 C CNN
	1    15650 18750
	1    0    0    -1  
$EndComp
Wire Wire Line
	14750 18600 14750 18750
$Comp
L GND #PWR68
U 1 1 5A9F6579
P 14750 18750
F 0 "#PWR68" H 14750 18500 50  0001 C CNN
F 1 "GND" H 14750 18600 50  0000 C CNN
F 2 "" H 14750 18750 50  0000 C CNN
F 3 "" H 14750 18750 50  0000 C CNN
	1    14750 18750
	1    0    0    -1  
$EndComp
Wire Wire Line
	13850 18600 13850 18750
$Comp
L GND #PWR67
U 1 1 5A9F6634
P 13850 18750
F 0 "#PWR67" H 13850 18500 50  0001 C CNN
F 1 "GND" H 13850 18600 50  0000 C CNN
F 2 "" H 13850 18750 50  0000 C CNN
F 3 "" H 13850 18750 50  0000 C CNN
	1    13850 18750
	1    0    0    -1  
$EndComp
Wire Wire Line
	12950 18600 12950 18750
$Comp
L GND #PWR66
U 1 1 5A9F66EF
P 12950 18750
F 0 "#PWR66" H 12950 18500 50  0001 C CNN
F 1 "GND" H 12950 18600 50  0000 C CNN
F 2 "" H 12950 18750 50  0000 C CNN
F 3 "" H 12950 18750 50  0000 C CNN
	1    12950 18750
	1    0    0    -1  
$EndComp
Wire Wire Line
	12050 18600 12050 18750
$Comp
L GND #PWR65
U 1 1 5A9F67AA
P 12050 18750
F 0 "#PWR65" H 12050 18500 50  0001 C CNN
F 1 "GND" H 12050 18600 50  0000 C CNN
F 2 "" H 12050 18750 50  0000 C CNN
F 3 "" H 12050 18750 50  0000 C CNN
	1    12050 18750
	1    0    0    -1  
$EndComp
Wire Wire Line
	11150 18600 11150 18750
$Comp
L GND #PWR64
U 1 1 5A9F6865
P 11150 18750
F 0 "#PWR64" H 11150 18500 50  0001 C CNN
F 1 "GND" H 11150 18600 50  0000 C CNN
F 2 "" H 11150 18750 50  0000 C CNN
F 3 "" H 11150 18750 50  0000 C CNN
	1    11150 18750
	1    0    0    -1  
$EndComp
Wire Wire Line
	10250 18600 10250 18750
$Comp
L GND #PWR63
U 1 1 5A9F6920
P 10250 18750
F 0 "#PWR63" H 10250 18500 50  0001 C CNN
F 1 "GND" H 10250 18600 50  0000 C CNN
F 2 "" H 10250 18750 50  0000 C CNN
F 3 "" H 10250 18750 50  0000 C CNN
	1    10250 18750
	1    0    0    -1  
$EndComp
Wire Wire Line
	9350 18600 9350 18750
$Comp
L GND #PWR62
U 1 1 5A9F6A8D
P 9350 18750
F 0 "#PWR62" H 9350 18500 50  0001 C CNN
F 1 "GND" H 9350 18600 50  0000 C CNN
F 2 "" H 9350 18750 50  0000 C CNN
F 3 "" H 9350 18750 50  0000 C CNN
	1    9350 18750
	1    0    0    -1  
$EndComp
Wire Wire Line
	8450 18600 8450 18750
$Comp
L GND #PWR61
U 1 1 5A9F6B48
P 8450 18750
F 0 "#PWR61" H 8450 18500 50  0001 C CNN
F 1 "GND" H 8450 18600 50  0000 C CNN
F 2 "" H 8450 18750 50  0000 C CNN
F 3 "" H 8450 18750 50  0000 C CNN
	1    8450 18750
	1    0    0    -1  
$EndComp
Wire Wire Line
	7550 18600 7550 18750
$Comp
L GND #PWR60
U 1 1 5A9F6C03
P 7550 18750
F 0 "#PWR60" H 7550 18500 50  0001 C CNN
F 1 "GND" H 7550 18600 50  0000 C CNN
F 2 "" H 7550 18750 50  0000 C CNN
F 3 "" H 7550 18750 50  0000 C CNN
	1    7550 18750
	1    0    0    -1  
$EndComp
Wire Wire Line
	5750 18600 5750 18750
$Comp
L GND #PWR58
U 1 1 5A9F6D70
P 5750 18750
F 0 "#PWR58" H 5750 18500 50  0001 C CNN
F 1 "GND" H 5750 18600 50  0000 C CNN
F 2 "" H 5750 18750 50  0000 C CNN
F 3 "" H 5750 18750 50  0000 C CNN
	1    5750 18750
	1    0    0    -1  
$EndComp
Wire Wire Line
	6650 18600 6650 18750
$Comp
L GND #PWR59
U 1 1 5A9F6E2B
P 6650 18750
F 0 "#PWR59" H 6650 18500 50  0001 C CNN
F 1 "GND" H 6650 18600 50  0000 C CNN
F 2 "" H 6650 18750 50  0000 C CNN
F 3 "" H 6650 18750 50  0000 C CNN
	1    6650 18750
	1    0    0    -1  
$EndComp
Wire Wire Line
	4850 18600 4850 18750
$Comp
L GND #PWR57
U 1 1 5A9F7103
P 4850 18750
F 0 "#PWR57" H 4850 18500 50  0001 C CNN
F 1 "GND" H 4850 18600 50  0000 C CNN
F 2 "" H 4850 18750 50  0000 C CNN
F 3 "" H 4850 18750 50  0000 C CNN
	1    4850 18750
	1    0    0    -1  
$EndComp
$Comp
L C C17
U 1 1 5A9FF722
P 4600 19400
F 0 "C17" H 4610 19470 50  0000 L CNN
F 1 "0.1uF" H 4610 19320 50  0000 L CNN
F 2 "chordboard-footprints:C_0805_HandSoldering" H 4600 19400 50  0001 C CNN
F 3 "" H 4600 19400 50  0001 C CNN
	1    4600 19400
	-1   0    0    -1  
$EndComp
$Comp
L C C18
U 1 1 5A9FFD01
P 4850 19400
F 0 "C18" H 4860 19470 50  0000 L CNN
F 1 "0.1uF" H 4860 19320 50  0000 L CNN
F 2 "chordboard-footprints:C_0805_HandSoldering" H 4850 19400 50  0001 C CNN
F 3 "" H 4850 19400 50  0001 C CNN
	1    4850 19400
	-1   0    0    -1  
$EndComp
Wire Wire Line
	4600 19300 7600 19300
Connection ~ 4850 19300
Wire Wire Line
	4600 19500 7600 19500
Connection ~ 4850 19500
$Comp
L C C19
U 1 1 5AA00E49
P 5100 19400
F 0 "C19" H 5110 19470 50  0000 L CNN
F 1 "0.1uF" H 5110 19320 50  0000 L CNN
F 2 "chordboard-footprints:C_0805_HandSoldering" H 5100 19400 50  0001 C CNN
F 3 "" H 5100 19400 50  0001 C CNN
	1    5100 19400
	-1   0    0    -1  
$EndComp
$Comp
L C C20
U 1 1 5AA00E4F
P 5350 19400
F 0 "C20" H 5360 19470 50  0000 L CNN
F 1 "0.1uF" H 5360 19320 50  0000 L CNN
F 2 "chordboard-footprints:C_0805_HandSoldering" H 5350 19400 50  0001 C CNN
F 3 "" H 5350 19400 50  0001 C CNN
	1    5350 19400
	-1   0    0    -1  
$EndComp
Connection ~ 5350 19300
Connection ~ 5350 19500
$Comp
L C C21
U 1 1 5AA0121D
P 5600 19400
F 0 "C21" H 5610 19470 50  0000 L CNN
F 1 "0.1uF" H 5610 19320 50  0000 L CNN
F 2 "chordboard-footprints:C_0805_HandSoldering" H 5600 19400 50  0001 C CNN
F 3 "" H 5600 19400 50  0001 C CNN
	1    5600 19400
	-1   0    0    -1  
$EndComp
$Comp
L C C22
U 1 1 5AA01223
P 5850 19400
F 0 "C22" H 5860 19470 50  0000 L CNN
F 1 "0.1uF" H 5860 19320 50  0000 L CNN
F 2 "chordboard-footprints:C_0805_HandSoldering" H 5850 19400 50  0001 C CNN
F 3 "" H 5850 19400 50  0001 C CNN
	1    5850 19400
	-1   0    0    -1  
$EndComp
Connection ~ 5850 19300
Connection ~ 5850 19500
$Comp
L C C23
U 1 1 5AA0122D
P 6100 19400
F 0 "C23" H 6110 19470 50  0000 L CNN
F 1 "0.1uF" H 6110 19320 50  0000 L CNN
F 2 "chordboard-footprints:C_0805_HandSoldering" H 6100 19400 50  0001 C CNN
F 3 "" H 6100 19400 50  0001 C CNN
	1    6100 19400
	-1   0    0    -1  
$EndComp
$Comp
L C C24
U 1 1 5AA01233
P 6350 19400
F 0 "C24" H 6360 19470 50  0000 L CNN
F 1 "0.1uF" H 6360 19320 50  0000 L CNN
F 2 "chordboard-footprints:C_0805_HandSoldering" H 6350 19400 50  0001 C CNN
F 3 "" H 6350 19400 50  0001 C CNN
	1    6350 19400
	-1   0    0    -1  
$EndComp
Connection ~ 6350 19300
Connection ~ 6350 19500
Connection ~ 5100 19300
Connection ~ 5100 19500
Connection ~ 5600 19300
Connection ~ 5600 19500
Connection ~ 6100 19300
Connection ~ 6100 19500
$Comp
L C C25
U 1 1 5AA013BD
P 6600 19400
F 0 "C25" H 6610 19470 50  0000 L CNN
F 1 "0.1uF" H 6610 19320 50  0000 L CNN
F 2 "chordboard-footprints:C_0805_HandSoldering" H 6600 19400 50  0001 C CNN
F 3 "" H 6600 19400 50  0001 C CNN
	1    6600 19400
	-1   0    0    -1  
$EndComp
$Comp
L C C26
U 1 1 5AA01604
P 6850 19400
F 0 "C26" H 6860 19470 50  0000 L CNN
F 1 "0.1uF" H 6860 19320 50  0000 L CNN
F 2 "chordboard-footprints:C_0805_HandSoldering" H 6850 19400 50  0001 C CNN
F 3 "" H 6850 19400 50  0001 C CNN
	1    6850 19400
	-1   0    0    -1  
$EndComp
$Comp
L C C27
U 1 1 5AA01A90
P 7100 19400
F 0 "C27" H 7110 19470 50  0000 L CNN
F 1 "0.1uF" H 7110 19320 50  0000 L CNN
F 2 "chordboard-footprints:C_0805_HandSoldering" H 7100 19400 50  0001 C CNN
F 3 "" H 7100 19400 50  0001 C CNN
	1    7100 19400
	-1   0    0    -1  
$EndComp
$Comp
L C C28
U 1 1 5AA01CE1
P 7350 19400
F 0 "C28" H 7360 19470 50  0000 L CNN
F 1 "0.1uF" H 7360 19320 50  0000 L CNN
F 2 "chordboard-footprints:C_0805_HandSoldering" H 7350 19400 50  0001 C CNN
F 3 "" H 7350 19400 50  0001 C CNN
	1    7350 19400
	-1   0    0    -1  
$EndComp
$Comp
L C C29
U 1 1 5AA01F35
P 7600 19400
F 0 "C29" H 7610 19470 50  0000 L CNN
F 1 "0.1uF" H 7610 19320 50  0000 L CNN
F 2 "chordboard-footprints:C_0805_HandSoldering" H 7600 19400 50  0001 C CNN
F 3 "" H 7600 19400 50  0001 C CNN
	1    7600 19400
	-1   0    0    -1  
$EndComp
Connection ~ 6600 19300
Connection ~ 6850 19300
Connection ~ 7100 19300
Connection ~ 7350 19300
Connection ~ 7350 19500
Connection ~ 7100 19500
Connection ~ 6600 19500
Connection ~ 6850 19500
Wire Wire Line
	4600 19300 4600 19150
$Comp
L +5V #PWR70
U 1 1 5AA03F7A
P 4600 19150
F 0 "#PWR70" H 4600 19000 50  0001 C CNN
F 1 "+5V" H 4600 19290 50  0000 C CNN
F 2 "" H 4600 19150 50  0001 C CNN
F 3 "" H 4600 19150 50  0001 C CNN
	1    4600 19150
	1    0    0    -1  
$EndComp
Connection ~ 4600 19300
Wire Wire Line
	4600 19500 4600 19650
$Comp
L GND #PWR72
U 1 1 5AA04283
P 4600 19650
F 0 "#PWR72" H 4600 19400 50  0001 C CNN
F 1 "GND" H 4600 19500 50  0000 C CNN
F 2 "" H 4600 19650 50  0000 C CNN
F 3 "" H 4600 19650 50  0000 C CNN
	1    4600 19650
	1    0    0    -1  
$EndComp
Connection ~ 4600 19500
$Comp
L GND #PWR15
U 1 1 5AA410B2
P 16050 6650
F 0 "#PWR15" H 16050 6400 50  0001 C CNN
F 1 "GND" H 16050 6500 50  0000 C CNN
F 2 "" H 16050 6650 50  0001 C CNN
F 3 "" H 16050 6650 50  0001 C CNN
	1    16050 6650
	1    0    0    -1  
$EndComp
$Comp
L CONN_01X06 J1
U 1 1 5AA410BA
P 16350 6050
F 0 "J1" H 16350 6400 50  0000 C CNN
F 1 "CONN_01X06" V 16450 6050 50  0000 C CNN
F 2 "Pin_Headers:Pin_Header_Straight_1x06_Pitch2.54mm" H 16350 6050 50  0001 C CNN
F 3 "" H 16350 6050 50  0001 C CNN
	1    16350 6050
	1    0    0    -1  
$EndComp
Wire Wire Line
	16150 6300 16050 6300
Wire Wire Line
	16050 6300 16050 6650
$Comp
L CP CP2
U 1 1 5AA437CF
P 10550 13700
F 0 "CP2" H 10560 13770 50  0000 L CNN
F 1 "10uF" H 10560 13620 50  0000 L CNN
F 2 "Capacitors_THT:CP_Radial_D4.0mm_P2.00mm" H 10550 13700 50  0001 C CNN
F 3 "" H 10550 13700 50  0001 C CNN
	1    10550 13700
	1    0    0    -1  
$EndComp
Wire Wire Line
	10550 13400 10550 13600
Connection ~ 10350 13400
Wire Wire Line
	10550 13950 10550 13800
Connection ~ 10350 13950
$Comp
L KSW SW4
U 1 1 5AA4D381
P 18750 12450
F 0 "SW4" H 18650 12500 60  0000 C CNN
F 1 "KSW" H 18900 12500 60  0000 C CNN
F 2 "chordboard-footprints:SW_PUSH_6mm" H 19700 12500 60  0001 C CNN
F 3 "" H 18750 12450 60  0001 C CNN
	1    18750 12450
	-1   0    0    -1  
$EndComp
Wire Wire Line
	18600 12450 18200 12450
Wire Wire Line
	18900 12450 19400 12450
Connection ~ 18200 12450
$EndSCHEMATC
