EESchema Schematic File Version 2
LIBS:chordboard-rescue
LIBS:maxim
LIBS:chordboard-components
LIBS:power
LIBS:device
LIBS:transistors
LIBS:conn
LIBS:linear
LIBS:regul
LIBS:74xx
LIBS:cmos4000
LIBS:adc-dac
LIBS:memory
LIBS:xilinx
LIBS:microcontrollers
LIBS:dsp
LIBS:microchip
LIBS:analog_switches
LIBS:motorola
LIBS:texas
LIBS:intel
LIBS:audio
LIBS:interface
LIBS:digital-audio
LIBS:philips
LIBS:display
LIBS:cypress
LIBS:siliconi
LIBS:opto
LIBS:atmel
LIBS:contrib
LIBS:valves
LIBS:switches
LIBS:mechanical
LIBS:chordboard-cache
EELAYER 25 0
EELAYER END
$Descr A4 11693 8268
encoding utf-8
Sheet 2 2
Title ""
Date ""
Rev ""
Comp ""
Comment1 ""
Comment2 ""
Comment3 ""
Comment4 ""
$EndDescr
Text Label 9050 3100 1    60   ~ 0
WIFI_RXD
Text Label 9150 3100 1    60   ~ 0
WIFI_TXD
$Comp
L ESP-12 U?
U 1 1 5A9639B7
P 3800 4100
F 0 "U?" H 3800 4000 50  0000 C CNN
F 1 "ESP-12" H 3800 4200 50  0000 C CNN
F 2 "chordboard-footprints:ESP-12_smd" H 3800 4100 50  0001 C CNN
F 3 "" H 3800 4100 50  0001 C CNN
	1    3800 4100
	1    0    0    -1  
$EndComp
$Comp
L GND #PWR?
U 1 1 5A9639BE
P 3800 5050
F 0 "#PWR?" H 3800 4800 50  0001 C CNN
F 1 "GND" H 3800 4900 50  0000 C CNN
F 2 "" H 3800 5050 50  0001 C CNN
F 3 "" H 3800 5050 50  0001 C CNN
	1    3800 5050
	1    0    0    -1  
$EndComp
Text Label 2900 3800 2    60   ~ 0
WIFI_RST
Text Label 4700 3800 0    60   ~ 0
WIFI_TXD
Text Label 4700 3900 0    60   ~ 0
WIFI_RXD
Text Label 4700 4200 0    60   ~ 0
WIFI_PGM
Text Label 4700 4000 0    60   ~ 0
WIFI_CMDIN
Text Label 4700 4100 0    60   ~ 0
WIFI_CMDOUT
$Comp
L SPST S?
U 1 1 5A9639CA
P 650 4450
F 0 "S?" H 640 4535 60  0000 C CNN
F 1 "WPGM" H 650 4355 60  0000 C CNN
F 2 "Buttons_Switches_THT:SW_PUSH_6mm_h5mm" H 650 4450 60  0001 C CNN
F 3 "" H 650 4450 60  0001 C CNN
	1    650  4450
	-1   0    0    1   
$EndComp
$Comp
L SPST S?
U 1 1 5A9639D1
P 650 4700
F 0 "S?" H 640 4785 60  0000 C CNN
F 1 "WRST" H 650 4605 60  0000 C CNN
F 2 "Buttons_Switches_THT:SW_PUSH_6mm_h5mm" H 650 4700 60  0001 C CNN
F 3 "" H 650 4700 60  0001 C CNN
	1    650  4700
	-1   0    0    1   
$EndComp
$Comp
L CONN_01X06 J?
U 1 1 5A9639D8
P 6050 3950
F 0 "J?" H 6050 4300 50  0000 C CNN
F 1 "CONN_01X06" V 6150 3950 50  0000 C CNN
F 2 "Pin_Headers:Pin_Header_Straight_1x06_Pitch2.54mm" H 6050 3950 50  0001 C CNN
F 3 "" H 6050 3950 50  0001 C CNN
	1    6050 3950
	1    0    0    -1  
$EndComp
Text Label 2900 4000 2    60   ~ 0
WIFI_EN
Text Label 1650 4250 2    60   ~ 0
WIFI_RST
Text Label 1650 4100 2    60   ~ 0
WIFI_EN
Text Label 4700 4300 0    60   ~ 0
WIFI_02
Text Label 4700 4400 0    60   ~ 0
WIFI_15
Text Label 1650 4400 2    60   ~ 0
WIFI_PGM
Text Label 1650 4550 2    60   ~ 0
WIFI_02
Text Label 1650 4700 2    60   ~ 0
WIFI_15
$Comp
L R R?
U 1 1 5A9639E7
P 1900 4100
F 0 "R?" V 1950 4200 50  0000 L CNN
F 1 "10K" V 1900 4050 50  0000 L CNN
F 2 "Resistors_SMD:R_1206_HandSoldering" H 1900 4100 50  0001 C CNN
F 3 "" H 1900 4100 50  0001 C CNN
	1    1900 4100
	0    1    1    0   
$EndComp
$Comp
L R R?
U 1 1 5A9639EE
P 1900 4250
F 0 "R?" V 1950 4350 50  0000 L CNN
F 1 "10K" V 1900 4200 50  0000 L CNN
F 2 "Resistors_SMD:R_1206_HandSoldering" H 1900 4250 50  0001 C CNN
F 3 "" H 1900 4250 50  0001 C CNN
	1    1900 4250
	0    1    1    0   
$EndComp
$Comp
L R R?
U 1 1 5A9639F5
P 1900 4400
F 0 "R?" V 1950 4500 50  0000 L CNN
F 1 "10K" V 1900 4350 50  0000 L CNN
F 2 "Resistors_SMD:R_1206_HandSoldering" H 1900 4400 50  0001 C CNN
F 3 "" H 1900 4400 50  0001 C CNN
	1    1900 4400
	0    1    1    0   
$EndComp
$Comp
L R R?
U 1 1 5A9639FC
P 1900 4550
F 0 "R?" V 1950 4650 50  0000 L CNN
F 1 "10K" V 1900 4500 50  0000 L CNN
F 2 "Resistors_SMD:R_1206_HandSoldering" H 1900 4550 50  0001 C CNN
F 3 "" H 1900 4550 50  0001 C CNN
	1    1900 4550
	0    1    1    0   
$EndComp
$Comp
L R R?
U 1 1 5A963A03
P 1900 4700
F 0 "R?" V 1950 4800 50  0000 L CNN
F 1 "10K" V 1900 4650 50  0000 L CNN
F 2 "Resistors_SMD:R_1206_HandSoldering" H 1900 4700 50  0001 C CNN
F 3 "" H 1900 4700 50  0001 C CNN
	1    1900 4700
	0    1    1    0   
$EndComp
$Comp
L GND #PWR?
U 1 1 5A963A0A
P 2100 5000
F 0 "#PWR?" H 2100 4750 50  0001 C CNN
F 1 "GND" H 2100 4850 50  0000 C CNN
F 2 "" H 2100 5000 50  0001 C CNN
F 3 "" H 2100 5000 50  0001 C CNN
	1    2100 5000
	1    0    0    -1  
$EndComp
$Comp
L GND #PWR?
U 1 1 5A963A10
P 950 4950
F 0 "#PWR?" H 950 4700 50  0001 C CNN
F 1 "GND" H 950 4800 50  0000 C CNN
F 2 "" H 950 4950 50  0001 C CNN
F 3 "" H 950 4950 50  0001 C CNN
	1    950  4950
	1    0    0    -1  
$EndComp
Text Label 400  4450 2    60   ~ 0
WIFI_PGM
Text Label 400  4700 2    60   ~ 0
WIFI_RST
Text Label 5850 3800 2    60   ~ 0
WIFI_TXD
Text Label 5850 3900 2    60   ~ 0
WIFI_RXD
$Comp
L GND #PWR?
U 1 1 5A963A1A
P 5750 4550
F 0 "#PWR?" H 5750 4300 50  0001 C CNN
F 1 "GND" H 5750 4400 50  0000 C CNN
F 2 "" H 5750 4550 50  0001 C CNN
F 3 "" H 5750 4550 50  0001 C CNN
	1    5750 4550
	1    0    0    -1  
$EndComp
$Comp
L C C?
U 1 1 5A963A20
P 4550 3300
F 0 "C?" H 4560 3370 50  0000 L CNN
F 1 "10uF" H 4560 3220 50  0000 L CNN
F 2 "Capacitors_SMD:C_1206_HandSoldering" H 4550 3300 50  0001 C CNN
F 3 "" H 4550 3300 50  0001 C CNN
	1    4550 3300
	1    0    0    -1  
$EndComp
$Comp
L GND #PWR?
U 1 1 5A963A27
P 4550 3450
F 0 "#PWR?" H 4550 3200 50  0001 C CNN
F 1 "GND" H 4550 3300 50  0000 C CNN
F 2 "" H 4550 3450 50  0001 C CNN
F 3 "" H 4550 3450 50  0001 C CNN
	1    4550 3450
	1    0    0    -1  
$EndComp
$Comp
L LD1117S33TR U?
U 1 1 5A963A2D
P 9850 4050
F 0 "U?" H 9850 4300 50  0000 C CNN
F 1 "LD1117S33TR" H 9850 4250 50  0000 C CNN
F 2 "TO_SOT_Packages_SMD:SOT-223" H 9850 4150 50  0001 C CNN
F 3 "" H 9850 4050 50  0001 C CNN
	1    9850 4050
	1    0    0    -1  
$EndComp
$Comp
L C C?
U 1 1 5A963A34
P 10350 4200
F 0 "C?" H 10360 4270 50  0000 L CNN
F 1 "10uF" H 10360 4120 50  0000 L CNN
F 2 "Capacitors_SMD:C_1206_HandSoldering" H 10350 4200 50  0001 C CNN
F 3 "" H 10350 4200 50  0001 C CNN
	1    10350 4200
	1    0    0    -1  
$EndComp
$Comp
L C C?
U 1 1 5A963A3B
P 9350 4200
F 0 "C?" H 9360 4270 50  0000 L CNN
F 1 "0.1uF" H 9360 4120 50  0000 L CNN
F 2 "chordboard-footprints:C_0805_HandSoldering" H 9350 4200 50  0001 C CNN
F 3 "" H 9350 4200 50  0001 C CNN
	1    9350 4200
	1    0    0    -1  
$EndComp
$Comp
L +5V #PWR?
U 1 1 5A963A42
P 9350 3050
F 0 "#PWR?" H 9350 2900 50  0001 C CNN
F 1 "+5V" H 9350 3190 50  0000 C CNN
F 2 "" H 9350 3050 50  0001 C CNN
F 3 "" H 9350 3050 50  0001 C CNN
	1    9350 3050
	1    0    0    -1  
$EndComp
$Comp
L GND #PWR?
U 1 1 5A963A48
P 9850 4550
F 0 "#PWR?" H 9850 4300 50  0001 C CNN
F 1 "GND" H 9850 4400 50  0000 C CNN
F 2 "" H 9850 4550 50  0001 C CNN
F 3 "" H 9850 4550 50  0001 C CNN
	1    9850 4550
	-1   0    0    -1  
$EndComp
$Comp
L +3.3VA #PWR?
U 1 1 5A963A4E
P 10350 3700
F 0 "#PWR?" H 10350 3550 50  0001 C CNN
F 1 "+3.3VA" H 10350 3840 50  0000 C CNN
F 2 "" H 10350 3700 50  0001 C CNN
F 3 "" H 10350 3700 50  0001 C CNN
	1    10350 3700
	1    0    0    -1  
$EndComp
$Comp
L +3.3VA #PWR?
U 1 1 5A963A54
P 3800 3100
F 0 "#PWR?" H 3800 2950 50  0001 C CNN
F 1 "+3.3VA" H 3800 3240 50  0000 C CNN
F 2 "" H 3800 3100 50  0001 C CNN
F 3 "" H 3800 3100 50  0001 C CNN
	1    3800 3100
	1    0    0    -1  
$EndComp
$Comp
L +3.3VA #PWR?
U 1 1 5A963A5A
P 2100 3800
F 0 "#PWR?" H 2100 3650 50  0001 C CNN
F 1 "+3.3VA" H 2100 3940 50  0000 C CNN
F 2 "" H 2100 3800 50  0001 C CNN
F 3 "" H 2100 3800 50  0001 C CNN
	1    2100 3800
	1    0    0    -1  
$EndComp
Connection ~ 10350 4000
Connection ~ 9350 4000
Connection ~ 9850 4400
Wire Wire Line
	10350 4400 10350 4300
Wire Wire Line
	9350 4400 9350 4300
Wire Wire Line
	9350 4400 10350 4400
Wire Wire Line
	9850 4300 9850 4550
Wire Wire Line
	9350 3700 9350 4100
Wire Wire Line
	9450 4000 9350 4000
Wire Wire Line
	10350 3700 10350 4100
Wire Wire Line
	10250 4000 10350 4000
Wire Wire Line
	4550 3450 4550 3400
Wire Wire Line
	4550 3150 4550 3200
Connection ~ 3800 3150
Wire Wire Line
	3800 3150 4550 3150
Wire Wire Line
	5750 4200 5750 4550
Wire Wire Line
	5850 4200 5750 4200
Wire Wire Line
	500  4700 400  4700
Wire Wire Line
	500  4450 400  4450
Connection ~ 950  4700
Wire Wire Line
	950  4700 800  4700
Wire Wire Line
	950  4450 950  4950
Wire Wire Line
	800  4450 950  4450
Wire Wire Line
	1650 4700 1800 4700
Wire Wire Line
	1650 4550 1800 4550
Wire Wire Line
	1650 4400 1800 4400
Wire Wire Line
	1650 4250 1800 4250
Wire Wire Line
	1650 4100 1800 4100
Connection ~ 2100 4100
Connection ~ 2100 4250
Wire Wire Line
	2100 4100 2000 4100
Connection ~ 2100 4400
Wire Wire Line
	2100 4250 2000 4250
Wire Wire Line
	2100 4400 2000 4400
Wire Wire Line
	2100 3800 2100 4550
Wire Wire Line
	2100 4550 2000 4550
Wire Wire Line
	2100 4700 2100 5000
Wire Wire Line
	2000 4700 2100 4700
Wire Wire Line
	3800 3100 3800 3200
Wire Wire Line
	3800 5000 3800 5050
$Comp
L Jumper JP?
U 1 1 5A963A88
P 10600 3800
F 0 "JP?" H 10550 3850 50  0000 R CNN
F 1 "J_WP2" H 10650 3850 50  0000 L CNN
F 2 "Pin_Headers:Pin_Header_Straight_1x02_Pitch2.54mm" H 10600 3800 50  0001 C CNN
F 3 "" H 10600 3800 50  0001 C CNN
	1    10600 3800
	-1   0    0    1   
$EndComp
Wire Wire Line
	10500 3800 10350 3800
Connection ~ 10350 3800
Wire Wire Line
	10700 3800 10850 3800
Wire Wire Line
	10850 3800 10850 3700
$Comp
L +3.3V #PWR?
U 1 1 5A963A93
P 10850 3700
F 0 "#PWR?" H 10850 3550 50  0001 C CNN
F 1 "+3.3V" H 10850 3840 50  0000 C CNN
F 2 "" H 10850 3700 50  0001 C CNN
F 3 "" H 10850 3700 50  0001 C CNN
	1    10850 3700
	1    0    0    -1  
$EndComp
$Comp
L SW_DIP_x04 SW?
U 1 1 5A963A99
P 9150 3400
F 0 "SW?" H 9150 3750 50  0000 C CNN
F 1 "SW_DIP_x04" H 9150 3150 50  0000 C CNN
F 2 "Buttons_Switches_THT:SW_DIP_x3_W7.62mm_Slide" H 9150 3400 50  0001 C CNN
F 3 "" H 9150 3400 50  0000 C CNN
	1    9150 3400
	0    1    1    0   
$EndComp
$Comp
L +3.3VA #PWR?
U 1 1 5A963AA0
P 9250 2950
F 0 "#PWR?" H 9250 2800 50  0001 C CNN
F 1 "+3.3VA" H 9250 3090 50  0000 C CNN
F 2 "" H 9250 2950 50  0001 C CNN
F 3 "" H 9250 2950 50  0001 C CNN
	1    9250 2950
	1    0    0    -1  
$EndComp
Wire Wire Line
	9250 2950 9250 3100
Wire Wire Line
	9350 3050 9350 3100
$Comp
L +3.3V #PWR?
U 1 1 5A963AA8
P 9250 3750
F 0 "#PWR?" H 9250 3600 50  0001 C CNN
F 1 "+3.3V" H 9250 3890 50  0000 C CNN
F 2 "" H 9250 3750 50  0001 C CNN
F 3 "" H 9250 3750 50  0001 C CNN
	1    9250 3750
	-1   0    0    1   
$EndComp
Wire Wire Line
	9250 3750 9250 3700
Text Label 9150 3700 3    60   ~ 0
U1_RX
Text Label 9050 3700 3    60   ~ 0
U1_TX
$EndSCHEMATC
