EESchema Schematic File Version 4
LIBS:chordboard-cache
EELAYER 26 0
EELAYER END
$Descr A0 46811 33110
encoding utf-8
Sheet 1 1
Title ""
Date ""
Rev ""
Comp ""
Comment1 ""
Comment2 ""
Comment3 ""
Comment4 ""
$EndDescr
$Comp
L chordboard-components:Teensy3.6 U1
U 1 1 5BF71C9C
P 10750 10800
F 0 "U1" H 10750 13187 60  0000 C CNN
F 1 "Teensy3.6" H 10750 13081 60  0000 C CNN
F 2 "chordboard-footprints:Teensy35_36_external_pins" H 10750 10800 60  0001 C CNN
F 3 "" H 10750 10800 60  0000 C CNN
	1    10750 10800
	1    0    0    -1  
$EndComp
$Comp
L Switch:SW_SPST SW1
U 1 1 5CC03083
P 9550 11400
F 0 "SW1" H 9550 11635 50  0000 C CNN
F 1 "SW_SPST" H 9550 11544 50  0000 C CNN
F 2 "Button_Switch_THT:SW_Tactile_SPST_Angled_PTS645Vx58-2LFS" H 9550 11400 50  0001 C CNN
F 3 "" H 9550 11400 50  0001 C CNN
	1    9550 11400
	1    0    0    -1  
$EndComp
Wire Wire Line
	9350 11400 9250 11400
Wire Wire Line
	9250 11400 9250 11300
Wire Wire Line
	9250 11300 9750 11300
Text Label 9750 11700 2    50   ~ 0
TEE_RX5
Text Label 9750 11600 2    50   ~ 0
TEE_TX5
Wire Wire Line
	9750 12500 9000 12500
NoConn ~ 9750 9400
NoConn ~ 9750 9500
NoConn ~ 9750 9700
NoConn ~ 9750 9800
NoConn ~ 9750 9900
NoConn ~ 9750 10000
NoConn ~ 9750 12600
NoConn ~ 9750 12700
NoConn ~ 11750 12400
NoConn ~ 11750 12300
Text Label 11750 12200 0    50   ~ 0
AU_3V3
Text Label 11750 12300 0    50   ~ 0
AU_LRCK
NoConn ~ 11750 12200
Text Label 9750 9400 2    50   ~ 0
AU_MEMCS
Text Label 9750 9500 2    50   ~ 0
AU_MOSI
Text Label 9750 9700 2    50   ~ 0
AU_BCK
Text Label 9750 9800 2    50   ~ 0
AU_SDCS
Text Label 9750 9900 2    50   ~ 0
AU_MCK
Text Label 9750 10000 2    50   ~ 0
AU_MISO
Text Label 11750 12400 0    50   ~ 0
AU_TXD
Text Label 9750 12800 2    50   ~ 0
AU_AN
Text Label 9750 12700 2    50   ~ 0
AU_SCK
Text Label 9750 12600 2    50   ~ 0
AU_RXD
NoConn ~ 9750 12800
$Comp
L chordboard-components:esp32-ttgo-1.8 esp1
U 1 1 67265F97
P 16550 8800
F 0 "esp1" H 16525 9565 50  0000 C CNN
F 1 "esp32-ttgo-1.8" H 16525 9474 50  0000 C CNN
F 2 "chordboard-footprints:esp32-ttgo-1.8" H 16550 8800 50  0001 C CNN
F 3 "" H 16550 8800 50  0001 C CNN
	1    16550 8800
	1    0    0    -1  
$EndComp
Text Label 17100 9700 0    50   ~ 0
ESP_5V
Wire Wire Line
	15950 9900 15750 9900
Wire Wire Line
	15750 9900 15750 10150
Text Label 15950 9500 2    50   ~ 0
ESP_RX2
Text Label 15950 9600 2    50   ~ 0
ESP_TX2
Text Label 17100 8600 0    50   ~ 0
ESP_TX0
Text Label 17100 8700 0    50   ~ 0
ESP_RX0
Text Label 17100 9300 0    50   ~ 0
ESP_D0
Text Label 15950 8400 2    50   ~ 0
ESP_RST
Wire Wire Line
	15950 9700 15750 9700
Wire Wire Line
	15750 9700 15750 9900
Connection ~ 15750 9900
Text Label 11750 12000 0    50   ~ 0
TEE_5V
Text Label 11750 12600 0    50   ~ 0
ESP_D0
Text Label 11750 12500 0    50   ~ 0
ESP_RST
Wire Wire Line
	15950 9500 15650 9500
Wire Wire Line
	15950 9600 15650 9600
Text Label 15250 9500 2    50   ~ 0
TEE_TX5
Text Label 15250 9600 2    50   ~ 0
TEE_RX5
Text Label 15950 8300 2    50   ~ 0
ESP_3V3
$Comp
L Connector:Screw_Terminal_01x02 J1
U 1 1 5C0AB2FB
P 13650 6550
F 0 "J1" H 13730 6542 50  0000 L CNN
F 1 "Screw_Terminal_01x02" H 13730 6451 50  0000 L CNN
F 2 "TerminalBlock_Phoenix:TerminalBlock_Phoenix_PT-1,5-2-3.5-H_1x02_P3.50mm_Horizontal" H 13650 6550 50  0001 C CNN
F 3 "~" H 13650 6550 50  0001 C CNN
	1    13650 6550
	1    0    0    -1  
$EndComp
Wire Wire Line
	13450 6550 13300 6550
Wire Wire Line
	13300 6550 13300 6350
Wire Wire Line
	13450 6650 13300 6650
Wire Wire Line
	13300 6650 13300 6850
Wire Wire Line
	13300 6350 12850 6350
Connection ~ 13300 6350
Wire Wire Line
	13300 6350 13300 6000
$Comp
L Device:R R1
U 1 1 5C0B4702
P 12700 6350
F 0 "R1" V 12493 6350 50  0000 C CNN
F 1 "R" V 12584 6350 50  0000 C CNN
F 2 "Resistor_THT:R_Axial_DIN0204_L3.6mm_D1.6mm_P7.62mm_Horizontal" V 12630 6350 50  0001 C CNN
F 3 "~" H 12700 6350 50  0001 C CNN
	1    12700 6350
	0    -1   -1   0   
$EndComp
$Comp
L Device:LED D1
U 1 1 5C0B4918
P 12400 6350
F 0 "D1" H 12391 6566 50  0000 C CNN
F 1 "LED" H 12391 6475 50  0000 C CNN
F 2 "LED_THT:LED_D1.8mm_W3.3mm_H2.4mm" H 12400 6350 50  0001 C CNN
F 3 "~" H 12400 6350 50  0001 C CNN
	1    12400 6350
	1    0    0    -1  
$EndComp
Wire Wire Line
	12250 6350 12000 6350
Wire Wire Line
	9750 8700 8900 8700
Text Label 9750 12900 2    50   ~ 0
IO_SS1
Text Label 11750 12700 0    50   ~ 0
AU_SCL
NoConn ~ 11750 12700
NoConn ~ 11750 12800
Text Label 11750 12800 0    50   ~ 0
AU_SDA
Text Label 9750 9100 2    50   ~ 0
TEE_SCL2
Text Label 9750 9200 2    50   ~ 0
TEE_SDA2
$Comp
L chordboard-components:GROVE_I2C J5
U 1 1 5C0556A1
P 5150 9600
F 0 "J5" H 5477 9651 50  0000 L CNN
F 1 "GROVE_I2C" H 5477 9560 50  0000 L CNN
F 2 "Connector_JST:JST_PH_B4B-PH-K_1x04_P2.00mm_Vertical" H 5150 9600 50  0001 C CNN
F 3 "" H 5150 9600 50  0001 C CNN
	1    5150 9600
	1    0    0    -1  
$EndComp
Text Label 4950 9450 2    50   ~ 0
TEE_SCL1
Text Label 4950 9550 2    50   ~ 0
TEE_SDA1
$Comp
L chordboard-components:GROVE_I2C J3
U 1 1 5C05F809
P 5150 9100
F 0 "J3" H 5477 9151 50  0000 L CNN
F 1 "GROVE_I2C" H 5477 9060 50  0000 L CNN
F 2 "Connector_JST:JST_PH_B4B-PH-K_1x04_P2.00mm_Vertical" H 5150 9100 50  0001 C CNN
F 3 "" H 5150 9100 50  0001 C CNN
	1    5150 9100
	1    0    0    -1  
$EndComp
Text Label 4950 8950 2    50   ~ 0
TEE_SCL2
Text Label 4950 9050 2    50   ~ 0
TEE_SDA2
Text Label 4950 9150 2    50   ~ 0
TEE_3V3
Text Label 4950 9250 2    50   ~ 0
TEE_GND
Text Label 4950 9650 2    50   ~ 0
TEE_3V3
Text Label 4950 9750 2    50   ~ 0
TEE_GND
$Comp
L chordboard-components:GROVE_I2C J6
U 1 1 5C069D6D
P 5150 10100
F 0 "J6" H 5477 10151 50  0000 L CNN
F 1 "GROVE_I2C" H 5477 10060 50  0000 L CNN
F 2 "Connector_JST:JST_PH_B4B-PH-K_1x04_P2.00mm_Vertical" H 5150 10100 50  0001 C CNN
F 3 "" H 5150 10100 50  0001 C CNN
	1    5150 10100
	1    0    0    -1  
$EndComp
Text Label 4950 10250 2    50   ~ 0
TEE_GND
$Comp
L Mechanical:MountingHole H5
U 1 1 5C0D7422
P 10200 5750
F 0 "H5" H 10300 5796 50  0000 L CNN
F 1 "MountingHole" H 10300 5705 50  0000 L CNN
F 2 "MountingHole:MountingHole_3.2mm_M3_Pad_Via" H 10200 5750 50  0001 C CNN
F 3 "~" H 10200 5750 50  0001 C CNN
	1    10200 5750
	1    0    0    -1  
$EndComp
$Comp
L Mechanical:MountingHole H6
U 1 1 5C0D7428
P 10200 5950
F 0 "H6" H 10300 5996 50  0000 L CNN
F 1 "MountingHole" H 10300 5905 50  0000 L CNN
F 2 "MountingHole:MountingHole_3.2mm_M3_Pad_Via" H 10200 5950 50  0001 C CNN
F 3 "~" H 10200 5950 50  0001 C CNN
	1    10200 5950
	1    0    0    -1  
$EndComp
$Comp
L Mechanical:MountingHole H7
U 1 1 5C0D742E
P 10200 6150
F 0 "H7" H 10300 6196 50  0000 L CNN
F 1 "MountingHole" H 10300 6105 50  0000 L CNN
F 2 "MountingHole:MountingHole_3.2mm_M3_Pad_Via" H 10200 6150 50  0001 C CNN
F 3 "~" H 10200 6150 50  0001 C CNN
	1    10200 6150
	1    0    0    -1  
$EndComp
$Comp
L Mechanical:MountingHole H8
U 1 1 5C0D7434
P 10200 6350
F 0 "H8" H 10300 6396 50  0000 L CNN
F 1 "MountingHole" H 10300 6305 50  0000 L CNN
F 2 "MountingHole:MountingHole_3.2mm_M3_Pad_Via" H 10200 6350 50  0001 C CNN
F 3 "~" H 10200 6350 50  0001 C CNN
	1    10200 6350
	1    0    0    -1  
$EndComp
Text Label 9750 8900 2    50   ~ 0
TEE_TX1
Text Label 9750 8800 2    50   ~ 0
TEE_RX1
Text Label 9750 12000 2    50   ~ 0
TEE_SCL1
Text Label 9750 12100 2    50   ~ 0
TEE_SDA1
Text Label 9750 10900 2    50   ~ 0
TEE_RX4
Text Label 9750 11000 2    50   ~ 0
TEE_TX4
Text Label 8900 8700 2    50   ~ 0
TEE_GND
Text Label 4950 9950 2    50   ~ 0
TEE_TX1
Text Label 4950 10050 2    50   ~ 0
TEE_RX1
Text Label 4950 10550 2    50   ~ 0
TEE_RX4
Text Label 4950 10150 2    50   ~ 0
TEE_5V
$Comp
L chordboard-components:GROVE_I2C J9
U 1 1 5C0FEC75
P 5150 10600
F 0 "J9" H 5477 10651 50  0000 L CNN
F 1 "GROVE_I2C" H 5477 10560 50  0000 L CNN
F 2 "Connector_JST:JST_PH_B4B-PH-K_1x04_P2.00mm_Vertical" H 5150 10600 50  0001 C CNN
F 3 "" H 5150 10600 50  0001 C CNN
	1    5150 10600
	1    0    0    -1  
$EndComp
Text Label 4950 10750 2    50   ~ 0
TEE_GND
Text Label 4950 10650 2    50   ~ 0
TEE_5V
Text Label 4950 10450 2    50   ~ 0
TEE_TX4
Wire Wire Line
	13300 6350 14350 6350
$Comp
L Device:D D3
U 1 1 5C1084FD
P 14500 6350
F 0 "D3" H 14500 6134 50  0000 C CNN
F 1 "D" H 14500 6225 50  0000 C CNN
F 2 "Diode_THT:D_DO-41_SOD81_P7.62mm_Horizontal" H 14500 6350 50  0001 C CNN
F 3 "~" H 14500 6350 50  0001 C CNN
	1    14500 6350
	-1   0    0    1   
$EndComp
Wire Wire Line
	14650 6350 15000 6350
Text Label 15000 6350 0    50   ~ 0
TEE_5V
Wire Wire Line
	13300 6000 14350 6000
$Comp
L Device:D D2
U 1 1 5C10DC0A
P 14500 6000
F 0 "D2" H 14500 5784 50  0000 C CNN
F 1 "D" H 14500 5875 50  0000 C CNN
F 2 "Diode_THT:D_DO-41_SOD81_P7.62mm_Horizontal" H 14500 6000 50  0001 C CNN
F 3 "~" H 14500 6000 50  0001 C CNN
	1    14500 6000
	-1   0    0    1   
$EndComp
Wire Wire Line
	14650 6000 15000 6000
Text Label 15000 6000 0    50   ~ 0
ESP_5V
Wire Wire Line
	9250 11300 9100 11300
Connection ~ 9250 11300
Text Label 9100 11300 2    50   ~ 0
TEE_GND
Text Label 9000 12500 2    50   ~ 0
TEE_GND
Text Label 15750 10150 2    50   ~ 0
ESP_GND
$Comp
L Connector_Generic:Conn_01x20 J4
U 1 1 5C11A12E
P 6900 9900
F 0 "J4" H 6820 11017 50  0000 C CNN
F 1 "Conn_01x20" H 6820 10926 50  0000 C CNN
F 2 "Connector_PinSocket_2.54mm:PinSocket_1x20_P2.54mm_Vertical" H 6900 9900 50  0001 C CNN
F 3 "~" H 6900 9900 50  0001 C CNN
	1    6900 9900
	-1   0    0    -1  
$EndComp
$Comp
L Jumper:Jumper_2_Bridged JP3
U 1 1 5C11A3EA
P 12650 6850
F 0 "JP3" H 12650 7045 50  0000 C CNN
F 1 "Jumper_2_Bridged" H 12650 6954 50  0000 C CNN
F 2 "Jumper:SolderJumper-2_P1.3mm_Bridged_RoundedPad1.0x1.5mm" H 12650 6850 50  0001 C CNN
F 3 "~" H 12650 6850 50  0001 C CNN
	1    12650 6850
	1    0    0    -1  
$EndComp
Wire Wire Line
	15750 10150 15650 10150
Wire Wire Line
	12450 6850 12400 6850
Wire Wire Line
	9750 9000 7100 9000
Wire Wire Line
	9750 9300 9350 9300
Wire Wire Line
	9350 9300 9350 9100
Wire Wire Line
	9350 9100 7100 9100
Wire Wire Line
	9750 9600 9250 9600
Wire Wire Line
	9250 9600 9250 9200
Wire Wire Line
	9250 9200 7100 9200
Wire Wire Line
	9750 10200 9150 10200
Wire Wire Line
	9150 10200 9150 9300
Wire Wire Line
	9150 9300 7100 9300
Wire Wire Line
	9750 10300 9050 10300
Wire Wire Line
	9050 10300 9050 9400
Wire Wire Line
	9050 9400 7100 9400
Wire Wire Line
	7100 9500 8950 9500
Wire Wire Line
	8950 9500 8950 10400
Wire Wire Line
	8950 10400 9750 10400
Wire Wire Line
	9750 10500 8850 10500
Wire Wire Line
	8850 10500 8850 9600
Wire Wire Line
	8850 9600 7100 9600
Wire Wire Line
	7100 9700 8750 9700
Wire Wire Line
	8750 9700 8750 10600
Wire Wire Line
	8750 10600 9750 10600
Wire Wire Line
	9750 10700 8650 10700
Wire Wire Line
	8650 10700 8650 9800
Wire Wire Line
	8650 9800 7100 9800
Wire Wire Line
	9750 10800 8550 10800
Wire Wire Line
	8550 10800 8550 9900
Wire Wire Line
	8550 9900 7100 9900
Wire Wire Line
	9750 11800 8250 11800
Wire Wire Line
	8250 11800 8250 10000
Wire Wire Line
	8250 10000 7100 10000
Wire Wire Line
	9750 11900 8150 11900
Wire Wire Line
	8150 11900 8150 10100
Wire Wire Line
	8150 10100 7100 10100
Wire Wire Line
	9750 12200 8050 12200
Wire Wire Line
	8050 12200 8050 10200
Wire Wire Line
	8050 10200 7100 10200
Wire Wire Line
	9750 12300 7950 12300
Wire Wire Line
	7950 12300 7950 10300
Wire Wire Line
	7950 10300 7100 10300
Wire Wire Line
	9750 12400 7850 12400
Wire Wire Line
	7850 12400 7850 10400
Wire Wire Line
	7850 10400 7100 10400
Wire Wire Line
	11750 12900 11750 13050
Wire Wire Line
	11750 13050 7750 13050
Wire Wire Line
	7750 13050 7750 10500
Wire Wire Line
	7750 10500 7100 10500
$Comp
L chordboard-components:USB_A J10
U 1 1 5C171AD9
P 12700 11300
F 0 "J10" H 12470 11346 50  0000 R CNN
F 1 "USB_A" H 12470 11255 50  0000 R CNN
F 2 "chordboard-footprints:USB_A_SOCKET" H 12850 11250 50  0001 C CNN
F 3 "" H 12850 11250 50  0001 C CNN
	1    12700 11300
	-1   0    0    -1  
$EndComp
Wire Wire Line
	11750 11200 11950 11200
Wire Wire Line
	12400 11300 11950 11300
Wire Wire Line
	11750 11400 11950 11400
Wire Wire Line
	12400 11500 11950 11500
Text Label 7100 10900 0    50   ~ 0
TEE_GND
Text Label 7100 10800 0    50   ~ 0
TEE_5V
Text Label 7100 10700 0    50   ~ 0
TEE_3V3
Text Label 9750 11200 2    50   ~ 0
TEE_3V3
Wire Wire Line
	15950 9400 13200 9400
Wire Wire Line
	13200 9300 15950 9300
Wire Wire Line
	15950 9200 13200 9200
Wire Wire Line
	13200 9100 15950 9100
Wire Wire Line
	15950 9000 13200 9000
Wire Wire Line
	13200 8900 15950 8900
Wire Wire Line
	15950 8800 13200 8800
Wire Wire Line
	13200 8700 15950 8700
$Comp
L Jumper:Jumper_2_Bridged JP1
U 1 1 5C1BF6F2
P 15450 9500
F 0 "JP1" H 15450 9695 50  0000 C CNN
F 1 "Jumper_2_Bridged" H 15450 9604 50  0000 C CNN
F 2 "Jumper:SolderJumper-2_P1.3mm_Bridged_RoundedPad1.0x1.5mm" H 15450 9500 50  0001 C CNN
F 3 "~" H 15450 9500 50  0001 C CNN
	1    15450 9500
	1    0    0    -1  
$EndComp
$Comp
L Jumper:Jumper_2_Bridged JP2
U 1 1 5C1CA589
P 15450 9600
F 0 "JP2" H 15450 9795 50  0000 C CNN
F 1 "Jumper_2_Bridged" H 15450 9704 50  0000 C CNN
F 2 "Jumper:SolderJumper-2_P1.3mm_Bridged_RoundedPad1.0x1.5mm" H 15450 9600 50  0001 C CNN
F 3 "~" H 15450 9600 50  0001 C CNN
	1    15450 9600
	1    0    0    -1  
$EndComp
$Comp
L Connector_Generic:Conn_01x20 J2
U 1 1 5C1D02BC
P 13000 9400
F 0 "J2" H 12920 10517 50  0000 C CNN
F 1 "Conn_01x20" H 12920 10426 50  0000 C CNN
F 2 "Connector_PinSocket_2.54mm:PinSocket_1x20_P2.54mm_Vertical" H 13000 9400 50  0001 C CNN
F 3 "~" H 13000 9400 50  0001 C CNN
	1    13000 9400
	-1   0    0    -1  
$EndComp
Wire Wire Line
	13200 8600 15700 8600
Wire Wire Line
	15700 8600 15700 8400
Wire Wire Line
	15700 8400 15950 8400
Wire Wire Line
	15950 8300 15600 8300
Text Label 17100 9600 0    50   ~ 0
ESP_GND
Text Label 13200 10400 0    50   ~ 0
ESP_GND
Text Label 17100 8300 0    50   ~ 0
ESP_GND
Text Label 13200 10300 0    50   ~ 0
ESP_5V
Text Label 17100 9900 0    50   ~ 0
ESP_3V3
Text Label 13300 6850 2    50   ~ 0
TEE_GND
Wire Wire Line
	17100 9500 17600 9500
Wire Wire Line
	17600 9500 17600 10300
Wire Wire Line
	17600 10300 14850 10300
Wire Wire Line
	14850 10300 14850 9500
Wire Wire Line
	14850 9500 13200 9500
Wire Wire Line
	17100 9400 17700 9400
Wire Wire Line
	17700 9400 17700 10400
Wire Wire Line
	17700 10400 14750 10400
Wire Wire Line
	14750 10400 14750 9600
Wire Wire Line
	14750 9600 13200 9600
Wire Wire Line
	13200 9700 14650 9700
Wire Wire Line
	14650 9700 14650 10500
Wire Wire Line
	14650 10500 17800 10500
Wire Wire Line
	17800 9300 17100 9300
Wire Wire Line
	17800 9300 17800 10500
Wire Wire Line
	17100 9200 17900 9200
Wire Wire Line
	17900 9200 17900 10600
Wire Wire Line
	17900 10600 14550 10600
Wire Wire Line
	14550 10600 14550 9800
Wire Wire Line
	14550 9800 13200 9800
Wire Wire Line
	13200 9900 14450 9900
Wire Wire Line
	14450 9900 14450 10700
Wire Wire Line
	14450 10700 18000 10700
Wire Wire Line
	18000 10700 18000 9100
Wire Wire Line
	18000 9100 17100 9100
Text Label 13200 10000 0    50   ~ 0
ESP_TX0
Text Label 13200 10100 0    50   ~ 0
ESP_RX0
$Comp
L Connector_Generic:Conn_01x05 J11
U 1 1 5C253C9F
P 12150 11300
F 0 "J11" H 12230 11342 50  0000 L CNN
F 1 "Conn_01x05" H 12230 11251 50  0000 L CNN
F 2 "Connector_PinHeader_2.54mm:PinHeader_1x05_P2.54mm_Vertical" H 12150 11300 50  0001 C CNN
F 3 "~" H 12150 11300 50  0001 C CNN
	1    12150 11300
	1    0    0    -1  
$EndComp
Connection ~ 11950 11200
Wire Wire Line
	11950 11200 12400 11200
Connection ~ 11950 11300
Wire Wire Line
	11950 11300 11750 11300
Connection ~ 11950 11400
Wire Wire Line
	11950 11400 12400 11400
Connection ~ 11950 11500
Wire Wire Line
	11950 11500 11750 11500
Wire Wire Line
	11750 11100 11950 11100
Text Label 12000 6350 2    50   ~ 0
TEE_GND
NoConn ~ 11750 12100
Text Label 11750 12100 0    50   ~ 0
TEE_AGND
Text Label 7100 10600 0    50   ~ 0
TEE_AGND
Text Label 12400 6850 2    50   ~ 0
ESP_GND
Wire Wire Line
	12850 6850 13300 6850
Wire Wire Line
	15600 8300 15600 8500
Wire Wire Line
	15600 8500 13200 8500
$EndSCHEMATC
