EESchema Schematic File Version 4
LIBS:chordboard-cache
EELAYER 26 0
EELAYER END
$Descr A0 46811 33110
encoding utf-8
Sheet 1 1
Title ""
Date ""
Rev ""
Comp ""
Comment1 ""
Comment2 ""
Comment3 ""
Comment4 ""
$EndDescr
$Comp
L Mechanical:MountingHole H1
U 1 1 671782C8
P 9750 1650
F 0 "H1" H 9850 1696 50  0000 L CNN
F 1 "MountingHole" H 9850 1605 50  0000 L CNN
F 2 "MountingHole:MountingHole_3.2mm_M3_Pad_Via" H 9750 1650 50  0001 C CNN
F 3 "~" H 9750 1650 50  0001 C CNN
	1    9750 1650
	1    0    0    -1  
$EndComp
$Comp
L Mechanical:MountingHole H2
U 1 1 671782CE
P 9750 1850
F 0 "H2" H 9850 1896 50  0000 L CNN
F 1 "MountingHole" H 9850 1805 50  0000 L CNN
F 2 "MountingHole:MountingHole_3.2mm_M3_Pad_Via" H 9750 1850 50  0001 C CNN
F 3 "~" H 9750 1850 50  0001 C CNN
	1    9750 1850
	1    0    0    -1  
$EndComp
$Comp
L Mechanical:MountingHole H3
U 1 1 671782D4
P 9750 2050
F 0 "H3" H 9850 2096 50  0000 L CNN
F 1 "MountingHole" H 9850 2005 50  0000 L CNN
F 2 "MountingHole:MountingHole_3.2mm_M3_Pad_Via" H 9750 2050 50  0001 C CNN
F 3 "~" H 9750 2050 50  0001 C CNN
	1    9750 2050
	1    0    0    -1  
$EndComp
$Comp
L Mechanical:MountingHole H4
U 1 1 671782DA
P 9750 2250
F 0 "H4" H 9850 2296 50  0000 L CNN
F 1 "MountingHole" H 9850 2205 50  0000 L CNN
F 2 "MountingHole:MountingHole_3.2mm_M3_Pad_Via" H 9750 2250 50  0001 C CNN
F 3 "~" H 9750 2250 50  0001 C CNN
	1    9750 2250
	1    0    0    -1  
$EndComp
$Comp
L chordboard-components:GROVE_I2C J5
U 1 1 5C0C8156
P 10850 5200
F 0 "J5" H 11177 5251 50  0000 L CNN
F 1 "GROVE_I2C" H 11177 5160 50  0000 L CNN
F 2 "Connector_JST:JST_PH_S4B-PH-K_1x04_P2.00mm_Horizontal" H 10850 5200 50  0001 C CNN
F 3 "" H 10850 5200 50  0001 C CNN
	1    10850 5200
	1    0    0    -1  
$EndComp
Text Label 10650 5050 2    50   ~ 0
SCL
Text Label 10650 5150 2    50   ~ 0
SDA
$Comp
L chordboard-components:GROVE_I2C J1
U 1 1 5C053B49
P 10850 4600
F 0 "J1" H 11177 4651 50  0000 L CNN
F 1 "GROVE_I2C" H 11177 4560 50  0000 L CNN
F 2 "Connector_JST:JST_PH_S4B-PH-K_1x04_P2.00mm_Horizontal" H 10850 4600 50  0001 C CNN
F 3 "" H 10850 4600 50  0001 C CNN
	1    10850 4600
	1    0    0    -1  
$EndComp
Text Label 10650 4450 2    50   ~ 0
SCL
Text Label 10650 4550 2    50   ~ 0
SDA
$Comp
L Device:C C1
U 1 1 5C79B23F
P 6000 2650
F 0 "C1" H 6115 2696 50  0000 L CNN
F 1 "C" H 6115 2605 50  0000 L CNN
F 2 "Capacitor_THT:C_Disc_D3.0mm_W1.6mm_P2.50mm" H 6038 2500 50  0001 C CNN
F 3 "~" H 6000 2650 50  0001 C CNN
	1    6000 2650
	1    0    0    -1  
$EndComp
$Comp
L Device:CP C2
U 1 1 5C79B57A
P 6250 2650
F 0 "C2" H 6368 2696 50  0000 L CNN
F 1 "CP" H 6368 2605 50  0000 L CNN
F 2 "Capacitor_THT:CP_Radial_D5.0mm_P2.00mm" H 6288 2500 50  0001 C CNN
F 3 "~" H 6250 2650 50  0001 C CNN
	1    6250 2650
	1    0    0    -1  
$EndComp
Wire Wire Line
	5850 2500 6000 2500
Connection ~ 6000 2500
Wire Wire Line
	6000 2500 6250 2500
Wire Wire Line
	6250 2800 6000 2800
Connection ~ 6000 2800
Wire Wire Line
	6000 2800 5850 2800
$Comp
L Interface_Expansion:MCP23017_SP U1
U 1 1 5C191621
P 3500 4550
F 0 "U1" H 3500 5828 50  0000 C CNN
F 1 "MCP23017_SP" H 3500 5737 50  0000 C CNN
F 2 "Package_DIP:DIP-28_W7.62mm" H 3700 3550 50  0001 L CNN
F 3 "http://ww1.microchip.com/downloads/en/DeviceDoc/20001952C.pdf" H 3700 3450 50  0001 L CNN
	1    3500 4550
	1    0    0    -1  
$EndComp
$Comp
L Interface_Expansion:MCP23017_SP U2
U 1 1 5C191A3D
P 7700 4550
F 0 "U2" H 7700 5828 50  0000 C CNN
F 1 "MCP23017_SP" H 7700 5737 50  0000 C CNN
F 2 "Package_DIP:DIP-28_W7.62mm" H 7900 3550 50  0001 L CNN
F 3 "http://ww1.microchip.com/downloads/en/DeviceDoc/20001952C.pdf" H 7900 3450 50  0001 L CNN
	1    7700 4550
	1    0    0    -1  
$EndComp
$Comp
L Device:LED LED1
U 1 1 5C192127
P 4500 3750
F 0 "LED1" H 4300 3800 50  0000 C CNN
F 1 "LED_RED" H 4900 3800 50  0000 R CNN
F 2 "LED_THT:LED_D1.8mm_W3.3mm_H2.4mm" H 4500 3750 50  0001 C CNN
F 3 "~" H 4500 3750 50  0001 C CNN
	1    4500 3750
	1    0    0    -1  
$EndComp
Wire Wire Line
	3500 3450 3500 3100
Wire Wire Line
	10200 4650 10650 4650
Wire Wire Line
	10650 4750 10200 4750
$Comp
L power:GND #PWR0101
U 1 1 5C30D809
P 10200 4750
F 0 "#PWR0101" H 10200 4500 50  0001 C CNN
F 1 "GND" H 10205 4577 50  0000 C CNN
F 2 "" H 10200 4750 50  0001 C CNN
F 3 "" H 10200 4750 50  0001 C CNN
	1    10200 4750
	1    0    0    -1  
$EndComp
Wire Wire Line
	10200 5250 10650 5250
Wire Wire Line
	10650 5350 10200 5350
$Comp
L power:GND #PWR0102
U 1 1 5C30DB33
P 10200 5350
F 0 "#PWR0102" H 10200 5100 50  0001 C CNN
F 1 "GND" H 10205 5177 50  0000 C CNN
F 2 "" H 10200 5350 50  0001 C CNN
F 3 "" H 10200 5350 50  0001 C CNN
	1    10200 5350
	1    0    0    -1  
$EndComp
$Comp
L chordboard-rescue:R- R1
U 1 1 5C38EA8B
P 5250 3750
F 0 "R1" V 5300 3850 50  0000 L CNN
F 1 "100r" V 5350 3650 50  0000 L CNN
F 2 "Resistor_THT:R_Axial_DIN0204_L3.6mm_D1.6mm_P7.62mm_Horizontal" H 5250 3750 50  0001 C CNN
F 3 "" H 5250 3750 50  0001 C CNN
	1    5250 3750
	0    -1   -1   0   
$EndComp
Wire Wire Line
	4650 3750 5150 3750
Wire Wire Line
	5350 3750 5450 3750
Wire Wire Line
	4350 3750 4200 3750
$Comp
L power:GND #PWR0103
U 1 1 5C48F188
P 5850 2900
F 0 "#PWR0103" H 5850 2650 50  0001 C CNN
F 1 "GND" H 5855 2727 50  0000 C CNN
F 2 "" H 5850 2900 50  0001 C CNN
F 3 "" H 5850 2900 50  0001 C CNN
	1    5850 2900
	1    0    0    -1  
$EndComp
$Comp
L power:GND #PWR0104
U 1 1 5C518F1C
P 3500 5700
F 0 "#PWR0104" H 3500 5450 50  0001 C CNN
F 1 "GND" H 3505 5527 50  0000 C CNN
F 2 "" H 3500 5700 50  0001 C CNN
F 3 "" H 3500 5700 50  0001 C CNN
	1    3500 5700
	1    0    0    -1  
$EndComp
Wire Wire Line
	3500 5700 3500 5650
$Comp
L Switch:SW_SPST SW1
U 1 1 5C5194D7
P 8700 3750
F 0 "SW1" H 8700 3985 50  0000 C CNN
F 1 "SW_SPST" H 8700 3894 50  0000 C CNN
F 2 "chordboard-footprints:CHERRY_PCB_100H" H 8700 3750 50  0001 C CNN
F 3 "" H 8700 3750 50  0001 C CNN
	1    8700 3750
	1    0    0    -1  
$EndComp
Wire Wire Line
	8500 3750 8400 3750
Wire Wire Line
	8900 3750 9000 3750
$Comp
L Device:LED LED2
U 1 1 5C51A4B8
P 4500 3850
F 0 "LED2" H 4300 3900 50  0000 C CNN
F 1 "LED_RED" H 4900 3900 50  0000 R CNN
F 2 "LED_THT:LED_D1.8mm_W3.3mm_H2.4mm" H 4500 3850 50  0001 C CNN
F 3 "~" H 4500 3850 50  0001 C CNN
	1    4500 3850
	1    0    0    -1  
$EndComp
$Comp
L chordboard-rescue:R- R2
U 1 1 5C51A4BF
P 5250 3850
F 0 "R2" V 5300 3950 50  0000 L CNN
F 1 "100r" V 5350 3750 50  0000 L CNN
F 2 "Resistor_THT:R_Axial_DIN0204_L3.6mm_D1.6mm_P7.62mm_Horizontal" H 5250 3850 50  0001 C CNN
F 3 "" H 5250 3850 50  0001 C CNN
	1    5250 3850
	0    -1   -1   0   
$EndComp
Wire Wire Line
	4650 3850 5150 3850
Wire Wire Line
	5350 3850 5450 3850
Wire Wire Line
	4350 3850 4200 3850
$Comp
L Device:LED LED3
U 1 1 5C51A6FE
P 4500 3950
F 0 "LED3" H 4300 4000 50  0000 C CNN
F 1 "LED_RED" H 4900 4000 50  0000 R CNN
F 2 "LED_THT:LED_D1.8mm_W3.3mm_H2.4mm" H 4500 3950 50  0001 C CNN
F 3 "~" H 4500 3950 50  0001 C CNN
	1    4500 3950
	1    0    0    -1  
$EndComp
$Comp
L chordboard-rescue:R- R3
U 1 1 5C51A705
P 5250 3950
F 0 "R3" V 5300 4050 50  0000 L CNN
F 1 "100r" V 5350 3850 50  0000 L CNN
F 2 "Resistor_THT:R_Axial_DIN0204_L3.6mm_D1.6mm_P7.62mm_Horizontal" H 5250 3950 50  0001 C CNN
F 3 "" H 5250 3950 50  0001 C CNN
	1    5250 3950
	0    -1   -1   0   
$EndComp
Wire Wire Line
	4650 3950 5150 3950
Wire Wire Line
	5350 3950 5450 3950
Wire Wire Line
	4350 3950 4200 3950
$Comp
L Device:LED LED4
U 1 1 5C51AA3B
P 4500 4050
F 0 "LED4" H 4300 4100 50  0000 C CNN
F 1 "LED_RED" H 4900 4100 50  0000 R CNN
F 2 "LED_THT:LED_D1.8mm_W3.3mm_H2.4mm" H 4500 4050 50  0001 C CNN
F 3 "~" H 4500 4050 50  0001 C CNN
	1    4500 4050
	1    0    0    -1  
$EndComp
$Comp
L chordboard-rescue:R- R4
U 1 1 5C51AA42
P 5250 4050
F 0 "R4" V 5300 4150 50  0000 L CNN
F 1 "100r" V 5350 3950 50  0000 L CNN
F 2 "Resistor_THT:R_Axial_DIN0204_L3.6mm_D1.6mm_P7.62mm_Horizontal" H 5250 4050 50  0001 C CNN
F 3 "" H 5250 4050 50  0001 C CNN
	1    5250 4050
	0    -1   -1   0   
$EndComp
Wire Wire Line
	4650 4050 5150 4050
Wire Wire Line
	5350 4050 5450 4050
Wire Wire Line
	4350 4050 4200 4050
$Comp
L Device:LED LED5
U 1 1 5C51AE93
P 4500 4150
F 0 "LED5" H 4300 4200 50  0000 C CNN
F 1 "LED_RED" H 4900 4200 50  0000 R CNN
F 2 "LED_THT:LED_D1.8mm_W3.3mm_H2.4mm" H 4500 4150 50  0001 C CNN
F 3 "~" H 4500 4150 50  0001 C CNN
	1    4500 4150
	1    0    0    -1  
$EndComp
$Comp
L chordboard-rescue:R- R5
U 1 1 5C51AE9A
P 5250 4150
F 0 "R5" V 5300 4250 50  0000 L CNN
F 1 "100r" V 5350 4050 50  0000 L CNN
F 2 "Resistor_THT:R_Axial_DIN0204_L3.6mm_D1.6mm_P7.62mm_Horizontal" H 5250 4150 50  0001 C CNN
F 3 "" H 5250 4150 50  0001 C CNN
	1    5250 4150
	0    -1   -1   0   
$EndComp
Wire Wire Line
	4650 4150 5150 4150
Wire Wire Line
	5350 4150 5450 4150
Wire Wire Line
	4350 4150 4200 4150
$Comp
L Device:LED LED6
U 1 1 5C51B42E
P 4500 4250
F 0 "LED6" H 4300 4300 50  0000 C CNN
F 1 "LED_RED" H 4900 4300 50  0000 R CNN
F 2 "LED_THT:LED_D1.8mm_W3.3mm_H2.4mm" H 4500 4250 50  0001 C CNN
F 3 "~" H 4500 4250 50  0001 C CNN
	1    4500 4250
	1    0    0    -1  
$EndComp
$Comp
L chordboard-rescue:R- R6
U 1 1 5C51B435
P 5250 4250
F 0 "R6" V 5300 4350 50  0000 L CNN
F 1 "100r" V 5350 4150 50  0000 L CNN
F 2 "Resistor_THT:R_Axial_DIN0204_L3.6mm_D1.6mm_P7.62mm_Horizontal" H 5250 4250 50  0001 C CNN
F 3 "" H 5250 4250 50  0001 C CNN
	1    5250 4250
	0    -1   -1   0   
$EndComp
Wire Wire Line
	4650 4250 5150 4250
Wire Wire Line
	5350 4250 5450 4250
Wire Wire Line
	4350 4250 4200 4250
$Comp
L Device:LED LED7
U 1 1 5C51BB28
P 4500 4350
F 0 "LED7" H 4300 4400 50  0000 C CNN
F 1 "LED_RED" H 4900 4400 50  0000 R CNN
F 2 "LED_THT:LED_D1.8mm_W3.3mm_H2.4mm" H 4500 4350 50  0001 C CNN
F 3 "~" H 4500 4350 50  0001 C CNN
	1    4500 4350
	1    0    0    -1  
$EndComp
$Comp
L chordboard-rescue:R- R7
U 1 1 5C51BB2F
P 5250 4350
F 0 "R7" V 5300 4450 50  0000 L CNN
F 1 "100r" V 5350 4250 50  0000 L CNN
F 2 "Resistor_THT:R_Axial_DIN0204_L3.6mm_D1.6mm_P7.62mm_Horizontal" H 5250 4350 50  0001 C CNN
F 3 "" H 5250 4350 50  0001 C CNN
	1    5250 4350
	0    -1   -1   0   
$EndComp
Wire Wire Line
	4650 4350 5150 4350
Wire Wire Line
	5350 4350 5450 4350
Wire Wire Line
	4350 4350 4200 4350
$Comp
L Device:LED LED8
U 1 1 5C51C3B1
P 4500 4450
F 0 "LED8" H 4300 4500 50  0000 C CNN
F 1 "LED_RED" H 4900 4500 50  0000 R CNN
F 2 "LED_THT:LED_D1.8mm_W3.3mm_H2.4mm" H 4500 4450 50  0001 C CNN
F 3 "~" H 4500 4450 50  0001 C CNN
	1    4500 4450
	1    0    0    -1  
$EndComp
$Comp
L chordboard-rescue:R- R8
U 1 1 5C51C3B8
P 5250 4450
F 0 "R8" V 5300 4550 50  0000 L CNN
F 1 "100r" V 5350 4350 50  0000 L CNN
F 2 "Resistor_THT:R_Axial_DIN0204_L3.6mm_D1.6mm_P7.62mm_Horizontal" H 5250 4450 50  0001 C CNN
F 3 "" H 5250 4450 50  0001 C CNN
	1    5250 4450
	0    -1   -1   0   
$EndComp
Wire Wire Line
	4650 4450 5150 4450
Wire Wire Line
	5350 4450 5450 4450
Wire Wire Line
	4350 4450 4200 4450
$Comp
L Device:LED LED9
U 1 1 5C51CF67
P 4500 4650
F 0 "LED9" H 4300 4700 50  0000 C CNN
F 1 "LED_RED" H 4900 4700 50  0000 R CNN
F 2 "LED_THT:LED_D1.8mm_W3.3mm_H2.4mm" H 4500 4650 50  0001 C CNN
F 3 "~" H 4500 4650 50  0001 C CNN
	1    4500 4650
	1    0    0    -1  
$EndComp
$Comp
L chordboard-rescue:R- R9
U 1 1 5C51CF6E
P 5250 4650
F 0 "R9" V 5300 4750 50  0000 L CNN
F 1 "100r" V 5350 4550 50  0000 L CNN
F 2 "Resistor_THT:R_Axial_DIN0204_L3.6mm_D1.6mm_P7.62mm_Horizontal" H 5250 4650 50  0001 C CNN
F 3 "" H 5250 4650 50  0001 C CNN
	1    5250 4650
	0    -1   -1   0   
$EndComp
Wire Wire Line
	4650 4650 5150 4650
Wire Wire Line
	5350 4650 5450 4650
Wire Wire Line
	4350 4650 4200 4650
$Comp
L Device:LED LED10
U 1 1 5C51DB72
P 4500 4750
F 0 "LED10" H 4300 4800 50  0000 C CNN
F 1 "LED_RED" H 4900 4800 50  0000 R CNN
F 2 "LED_THT:LED_D1.8mm_W3.3mm_H2.4mm" H 4500 4750 50  0001 C CNN
F 3 "~" H 4500 4750 50  0001 C CNN
	1    4500 4750
	1    0    0    -1  
$EndComp
$Comp
L chordboard-rescue:R- R10
U 1 1 5C51DB79
P 5250 4750
F 0 "R10" V 5300 4850 50  0000 L CNN
F 1 "100r" V 5350 4650 50  0000 L CNN
F 2 "Resistor_THT:R_Axial_DIN0204_L3.6mm_D1.6mm_P7.62mm_Horizontal" H 5250 4750 50  0001 C CNN
F 3 "" H 5250 4750 50  0001 C CNN
	1    5250 4750
	0    -1   -1   0   
$EndComp
Wire Wire Line
	4650 4750 5150 4750
Wire Wire Line
	5350 4750 5450 4750
Wire Wire Line
	4350 4750 4200 4750
$Comp
L Device:LED LED11
U 1 1 5C51E970
P 4500 4850
F 0 "LED11" H 4300 4900 50  0000 C CNN
F 1 "LED_RED" H 4900 4900 50  0000 R CNN
F 2 "LED_THT:LED_D1.8mm_W3.3mm_H2.4mm" H 4500 4850 50  0001 C CNN
F 3 "~" H 4500 4850 50  0001 C CNN
	1    4500 4850
	1    0    0    -1  
$EndComp
$Comp
L chordboard-rescue:R- R11
U 1 1 5C51E977
P 5250 4850
F 0 "R11" V 5300 4950 50  0000 L CNN
F 1 "100r" V 5350 4750 50  0000 L CNN
F 2 "Resistor_THT:R_Axial_DIN0204_L3.6mm_D1.6mm_P7.62mm_Horizontal" H 5250 4850 50  0001 C CNN
F 3 "" H 5250 4850 50  0001 C CNN
	1    5250 4850
	0    -1   -1   0   
$EndComp
Wire Wire Line
	4650 4850 5150 4850
Wire Wire Line
	5350 4850 5450 4850
Wire Wire Line
	4350 4850 4200 4850
$Comp
L Device:LED LED12
U 1 1 5C51F975
P 4500 4950
F 0 "LED12" H 4300 5000 50  0000 C CNN
F 1 "LED_RED" H 4900 5000 50  0000 R CNN
F 2 "LED_THT:LED_D1.8mm_W3.3mm_H2.4mm" H 4500 4950 50  0001 C CNN
F 3 "~" H 4500 4950 50  0001 C CNN
	1    4500 4950
	1    0    0    -1  
$EndComp
$Comp
L chordboard-rescue:R- R12
U 1 1 5C51F97C
P 5250 4950
F 0 "R12" V 5300 5050 50  0000 L CNN
F 1 "100r" V 5350 4850 50  0000 L CNN
F 2 "Resistor_THT:R_Axial_DIN0204_L3.6mm_D1.6mm_P7.62mm_Horizontal" H 5250 4950 50  0001 C CNN
F 3 "" H 5250 4950 50  0001 C CNN
	1    5250 4950
	0    -1   -1   0   
$EndComp
Wire Wire Line
	4650 4950 5150 4950
Wire Wire Line
	5350 4950 5450 4950
Wire Wire Line
	4350 4950 4200 4950
$Comp
L Device:LED LED13
U 1 1 5C520BB5
P 4500 5050
F 0 "LED13" H 4300 5100 50  0000 C CNN
F 1 "LED_RED" H 4900 5100 50  0000 R CNN
F 2 "LED_THT:LED_D1.8mm_W3.3mm_H2.4mm" H 4500 5050 50  0001 C CNN
F 3 "~" H 4500 5050 50  0001 C CNN
	1    4500 5050
	1    0    0    -1  
$EndComp
$Comp
L chordboard-rescue:R- R13
U 1 1 5C520BBC
P 5250 5050
F 0 "R13" V 5300 5150 50  0000 L CNN
F 1 "100r" V 5350 4950 50  0000 L CNN
F 2 "Resistor_THT:R_Axial_DIN0204_L3.6mm_D1.6mm_P7.62mm_Horizontal" H 5250 5050 50  0001 C CNN
F 3 "" H 5250 5050 50  0001 C CNN
	1    5250 5050
	0    -1   -1   0   
$EndComp
Wire Wire Line
	4650 5050 5150 5050
Wire Wire Line
	5350 5050 5450 5050
Wire Wire Line
	4350 5050 4200 5050
$Comp
L Device:LED LED14
U 1 1 5C52205C
P 4500 5150
F 0 "LED14" H 4300 5200 50  0000 C CNN
F 1 "LED_RED" H 4900 5200 50  0000 R CNN
F 2 "LED_THT:LED_D1.8mm_W3.3mm_H2.4mm" H 4500 5150 50  0001 C CNN
F 3 "~" H 4500 5150 50  0001 C CNN
	1    4500 5150
	1    0    0    -1  
$EndComp
$Comp
L chordboard-rescue:R- R14
U 1 1 5C522063
P 5250 5150
F 0 "R14" V 5300 5250 50  0000 L CNN
F 1 "100r" V 5350 5050 50  0000 L CNN
F 2 "Resistor_THT:R_Axial_DIN0204_L3.6mm_D1.6mm_P7.62mm_Horizontal" H 5250 5150 50  0001 C CNN
F 3 "" H 5250 5150 50  0001 C CNN
	1    5250 5150
	0    -1   -1   0   
$EndComp
Wire Wire Line
	4650 5150 5150 5150
Wire Wire Line
	5350 5150 5450 5150
Wire Wire Line
	4350 5150 4200 5150
Connection ~ 5450 3750
Wire Wire Line
	5450 3750 5450 3450
Connection ~ 5450 3850
Wire Wire Line
	5450 3850 5450 3750
Connection ~ 5450 3950
Wire Wire Line
	5450 3950 5450 3850
Connection ~ 5450 4050
Wire Wire Line
	5450 4050 5450 3950
Connection ~ 5450 4150
Wire Wire Line
	5450 4150 5450 4050
Connection ~ 5450 4250
Wire Wire Line
	5450 4250 5450 4150
Connection ~ 5450 4350
Wire Wire Line
	5450 4350 5450 4250
Connection ~ 5450 4450
Wire Wire Line
	5450 4450 5450 4350
Connection ~ 5450 4650
Wire Wire Line
	5450 4650 5450 4450
Connection ~ 5450 4750
Wire Wire Line
	5450 4750 5450 4650
Connection ~ 5450 4850
Wire Wire Line
	5450 4850 5450 4750
Connection ~ 5450 4950
Wire Wire Line
	5450 4950 5450 4850
Connection ~ 5450 5050
Wire Wire Line
	5450 5050 5450 4950
Wire Wire Line
	5450 5150 5450 5050
Wire Wire Line
	5850 2900 5850 2800
Wire Wire Line
	5850 2400 5850 2500
$Comp
L Device:C C3
U 1 1 5C52CABD
P 6700 2650
F 0 "C3" H 6815 2696 50  0000 L CNN
F 1 "C" H 6815 2605 50  0000 L CNN
F 2 "Capacitor_THT:C_Disc_D3.0mm_W1.6mm_P2.50mm" H 6738 2500 50  0001 C CNN
F 3 "~" H 6700 2650 50  0001 C CNN
	1    6700 2650
	1    0    0    -1  
$EndComp
$Comp
L Device:CP C4
U 1 1 5C52CAC4
P 6950 2650
F 0 "C4" H 7068 2696 50  0000 L CNN
F 1 "CP" H 7068 2605 50  0000 L CNN
F 2 "Capacitor_THT:CP_Radial_D5.0mm_P2.00mm" H 6988 2500 50  0001 C CNN
F 3 "~" H 6950 2650 50  0001 C CNN
	1    6950 2650
	1    0    0    -1  
$EndComp
Wire Wire Line
	6550 2500 6700 2500
Connection ~ 6700 2500
Wire Wire Line
	6700 2500 6950 2500
Wire Wire Line
	6950 2800 6700 2800
Connection ~ 6700 2800
Wire Wire Line
	6700 2800 6550 2800
$Comp
L power:GND #PWR0105
U 1 1 5C52CAD1
P 6550 2900
F 0 "#PWR0105" H 6550 2650 50  0001 C CNN
F 1 "GND" H 6555 2727 50  0000 C CNN
F 2 "" H 6550 2900 50  0001 C CNN
F 3 "" H 6550 2900 50  0001 C CNN
	1    6550 2900
	1    0    0    -1  
$EndComp
Wire Wire Line
	6550 2900 6550 2800
Wire Wire Line
	6550 2400 6550 2500
Text Label 2800 3750 2    50   ~ 0
SDA
Text Label 2800 3850 2    50   ~ 0
SCL
Text Label 7000 3750 2    50   ~ 0
SDA
Text Label 7000 3850 2    50   ~ 0
SCL
Wire Wire Line
	2800 4650 2600 4650
Wire Wire Line
	2600 4650 2600 4500
Wire Wire Line
	7700 3450 7700 3100
$Comp
L Switch:SW_SPST SW2
U 1 1 5C53BFEA
P 8700 3850
F 0 "SW2" H 8700 4085 50  0000 C CNN
F 1 "SW_SPST" H 8700 3994 50  0000 C CNN
F 2 "chordboard-footprints:CHERRY_PCB_100H" H 8700 3850 50  0001 C CNN
F 3 "" H 8700 3850 50  0001 C CNN
	1    8700 3850
	1    0    0    -1  
$EndComp
Wire Wire Line
	8500 3850 8400 3850
Wire Wire Line
	8900 3850 9000 3850
$Comp
L Switch:SW_SPST SW3
U 1 1 5C53E793
P 8700 3950
F 0 "SW3" H 8700 4185 50  0000 C CNN
F 1 "SW_SPST" H 8700 4094 50  0000 C CNN
F 2 "chordboard-footprints:CHERRY_PCB_100H" H 8700 3950 50  0001 C CNN
F 3 "" H 8700 3950 50  0001 C CNN
	1    8700 3950
	1    0    0    -1  
$EndComp
Wire Wire Line
	8500 3950 8400 3950
Wire Wire Line
	8900 3950 9000 3950
$Comp
L Switch:SW_SPST SW4
U 1 1 5C5410E1
P 8700 4050
F 0 "SW4" H 8700 4285 50  0000 C CNN
F 1 "SW_SPST" H 8700 4194 50  0000 C CNN
F 2 "chordboard-footprints:CHERRY_PCB_100H" H 8700 4050 50  0001 C CNN
F 3 "" H 8700 4050 50  0001 C CNN
	1    8700 4050
	1    0    0    -1  
$EndComp
Wire Wire Line
	8500 4050 8400 4050
Wire Wire Line
	8900 4050 9000 4050
$Comp
L Switch:SW_SPST SW5
U 1 1 5C543BE7
P 8700 4150
F 0 "SW5" H 8700 4385 50  0000 C CNN
F 1 "SW_SPST" H 8700 4294 50  0000 C CNN
F 2 "chordboard-footprints:CHERRY_PCB_100H" H 8700 4150 50  0001 C CNN
F 3 "" H 8700 4150 50  0001 C CNN
	1    8700 4150
	1    0    0    -1  
$EndComp
Wire Wire Line
	8500 4150 8400 4150
Wire Wire Line
	8900 4150 9000 4150
$Comp
L Switch:SW_SPST SW6
U 1 1 5C5468B4
P 8700 4250
F 0 "SW6" H 8700 4485 50  0000 C CNN
F 1 "SW_SPST" H 8700 4394 50  0000 C CNN
F 2 "chordboard-footprints:CHERRY_PCB_100H" H 8700 4250 50  0001 C CNN
F 3 "" H 8700 4250 50  0001 C CNN
	1    8700 4250
	1    0    0    -1  
$EndComp
Wire Wire Line
	8500 4250 8400 4250
Wire Wire Line
	8900 4250 9000 4250
$Comp
L Switch:SW_SPST SW7
U 1 1 5C549757
P 8700 4350
F 0 "SW7" H 8700 4585 50  0000 C CNN
F 1 "SW_SPST" H 8700 4494 50  0000 C CNN
F 2 "chordboard-footprints:CHERRY_PCB_100H" H 8700 4350 50  0001 C CNN
F 3 "" H 8700 4350 50  0001 C CNN
	1    8700 4350
	1    0    0    -1  
$EndComp
Wire Wire Line
	8500 4350 8400 4350
Wire Wire Line
	8900 4350 9000 4350
$Comp
L Switch:SW_SPST SW8
U 1 1 5C54C7E7
P 8700 4450
F 0 "SW8" H 8700 4685 50  0000 C CNN
F 1 "SW_SPST" H 8700 4594 50  0000 C CNN
F 2 "chordboard-footprints:CHERRY_PCB_100H" H 8700 4450 50  0001 C CNN
F 3 "" H 8700 4450 50  0001 C CNN
	1    8700 4450
	1    0    0    -1  
$EndComp
Wire Wire Line
	8500 4450 8400 4450
Wire Wire Line
	8900 4450 9000 4450
$Comp
L Switch:SW_SPST SW9
U 1 1 5C54FA6B
P 8700 4650
F 0 "SW9" H 8700 4885 50  0000 C CNN
F 1 "SW_SPST" H 8700 4794 50  0000 C CNN
F 2 "chordboard-footprints:CHERRY_PCB_100H" H 8700 4650 50  0001 C CNN
F 3 "" H 8700 4650 50  0001 C CNN
	1    8700 4650
	1    0    0    -1  
$EndComp
Wire Wire Line
	8500 4650 8400 4650
Wire Wire Line
	8900 4650 9000 4650
$Comp
L Switch:SW_SPST SW10
U 1 1 5C552EEA
P 8700 4750
F 0 "SW10" H 8700 4985 50  0000 C CNN
F 1 "SW_SPST" H 8700 4894 50  0000 C CNN
F 2 "chordboard-footprints:CHERRY_PCB_100H" H 8700 4750 50  0001 C CNN
F 3 "" H 8700 4750 50  0001 C CNN
	1    8700 4750
	1    0    0    -1  
$EndComp
Wire Wire Line
	8500 4750 8400 4750
Wire Wire Line
	8900 4750 9000 4750
$Comp
L Switch:SW_SPST SW11
U 1 1 5C55657B
P 8700 4850
F 0 "SW11" H 8700 5085 50  0000 C CNN
F 1 "SW_SPST" H 8700 4994 50  0000 C CNN
F 2 "chordboard-footprints:CHERRY_PCB_100H" H 8700 4850 50  0001 C CNN
F 3 "" H 8700 4850 50  0001 C CNN
	1    8700 4850
	1    0    0    -1  
$EndComp
Wire Wire Line
	8500 4850 8400 4850
Wire Wire Line
	8900 4850 9000 4850
$Comp
L Switch:SW_SPST SW12
U 1 1 5C559E2D
P 8700 4950
F 0 "SW12" H 8700 5185 50  0000 C CNN
F 1 "SW_SPST" H 8700 5094 50  0000 C CNN
F 2 "chordboard-footprints:CHERRY_PCB_100H" H 8700 4950 50  0001 C CNN
F 3 "" H 8700 4950 50  0001 C CNN
	1    8700 4950
	1    0    0    -1  
$EndComp
Wire Wire Line
	8500 4950 8400 4950
Wire Wire Line
	8900 4950 9000 4950
$Comp
L Switch:SW_SPST SW13
U 1 1 5C55D90F
P 8700 5050
F 0 "SW13" H 8700 5285 50  0000 C CNN
F 1 "SW_SPST" H 8700 5194 50  0000 C CNN
F 2 "chordboard-footprints:CHERRY_PCB_100H" H 8700 5050 50  0001 C CNN
F 3 "" H 8700 5050 50  0001 C CNN
	1    8700 5050
	1    0    0    -1  
$EndComp
Wire Wire Line
	8500 5050 8400 5050
Wire Wire Line
	8900 5050 9000 5050
$Comp
L Switch:SW_SPST SW14
U 1 1 5C561630
P 8700 5150
F 0 "SW14" H 8700 5385 50  0000 C CNN
F 1 "SW_SPST" H 8700 5294 50  0000 C CNN
F 2 "chordboard-footprints:CHERRY_PCB_100H" H 8700 5150 50  0001 C CNN
F 3 "" H 8700 5150 50  0001 C CNN
	1    8700 5150
	1    0    0    -1  
$EndComp
Wire Wire Line
	8500 5150 8400 5150
Wire Wire Line
	8900 5150 9000 5150
Wire Wire Line
	9000 3750 9000 3850
Connection ~ 9000 3850
Wire Wire Line
	9000 3850 9000 3950
Connection ~ 9000 3950
Wire Wire Line
	9000 3950 9000 4050
Connection ~ 9000 4050
Wire Wire Line
	9000 4050 9000 4150
Connection ~ 9000 4150
Wire Wire Line
	9000 4150 9000 4250
Connection ~ 9000 4250
Wire Wire Line
	9000 4250 9000 4350
Connection ~ 9000 4350
Wire Wire Line
	9000 4350 9000 4450
Connection ~ 9000 4450
Wire Wire Line
	9000 4450 9000 4650
Connection ~ 9000 4650
Wire Wire Line
	9000 4650 9000 4750
Connection ~ 9000 4750
Wire Wire Line
	9000 4750 9000 4850
Connection ~ 9000 4850
Wire Wire Line
	9000 4850 9000 4950
Connection ~ 9000 4950
Wire Wire Line
	9000 4950 9000 5050
Connection ~ 9000 5050
Wire Wire Line
	9000 5050 9000 5150
Connection ~ 9000 5150
Wire Wire Line
	7700 5650 7700 5750
$Comp
L power:GND #PWR0112
U 1 1 5C576A4A
P 7700 5750
F 0 "#PWR0112" H 7700 5500 50  0001 C CNN
F 1 "GND" H 7705 5577 50  0000 C CNN
F 2 "" H 7700 5750 50  0001 C CNN
F 3 "" H 7700 5750 50  0001 C CNN
	1    7700 5750
	1    0    0    -1  
$EndComp
$Comp
L power:GND #PWR0113
U 1 1 5C576AD1
P 9000 5700
F 0 "#PWR0113" H 9000 5450 50  0001 C CNN
F 1 "GND" H 9005 5527 50  0000 C CNN
F 2 "" H 9000 5700 50  0001 C CNN
F 3 "" H 9000 5700 50  0001 C CNN
	1    9000 5700
	1    0    0    -1  
$EndComp
Wire Wire Line
	7000 4650 6800 4650
Wire Wire Line
	6800 4650 6800 4500
$Comp
L power:GND #PWR0116
U 1 1 5C5808D4
P 2800 5350
F 0 "#PWR0116" H 2800 5100 50  0001 C CNN
F 1 "GND" V 2805 5222 50  0000 R CNN
F 2 "" H 2800 5350 50  0001 C CNN
F 3 "" H 2800 5350 50  0001 C CNN
	1    2800 5350
	0    1    1    0   
$EndComp
$Comp
L chordboard-rescue:R- R17
U 1 1 5C5B14E5
P 2250 5150
F 0 "R17" V 2300 5250 50  0000 L CNN
F 1 "10K" V 2350 5050 50  0000 L CNN
F 2 "Resistor_THT:R_Axial_DIN0204_L3.6mm_D1.6mm_P7.62mm_Horizontal" H 2250 5150 50  0001 C CNN
F 3 "" H 2250 5150 50  0001 C CNN
	1    2250 5150
	0    -1   -1   0   
$EndComp
$Comp
L chordboard-rescue:R- R18
U 1 1 5C5B15F9
P 2250 5250
F 0 "R18" V 2300 5350 50  0000 L CNN
F 1 "10K" V 2350 5150 50  0000 L CNN
F 2 "Resistor_THT:R_Axial_DIN0204_L3.6mm_D1.6mm_P7.62mm_Horizontal" H 2250 5250 50  0001 C CNN
F 3 "" H 2250 5250 50  0001 C CNN
	1    2250 5250
	0    -1   -1   0   
$EndComp
$Comp
L Jumper:Jumper_2_Open JP1
U 1 1 5C5B178E
P 2400 4900
F 0 "JP1" V 2354 4998 50  0000 L CNN
F 1 "Jumper_2_Open" V 2445 4998 50  0000 L CNN
F 2 "Jumper:SolderJumper-2_P1.3mm_Open_Pad1.0x1.5mm" H 2400 4900 50  0001 C CNN
F 3 "~" H 2400 4900 50  0001 C CNN
	1    2400 4900
	0    1    1    0   
$EndComp
$Comp
L Jumper:Jumper_2_Open JP2
U 1 1 5C5B18E6
P 2500 4900
F 0 "JP2" V 2454 4998 50  0000 L CNN
F 1 "Jumper_2_Open" V 2545 4998 50  0000 L CNN
F 2 "Jumper:SolderJumper-2_P1.3mm_Open_Pad1.0x1.5mm" H 2500 4900 50  0001 C CNN
F 3 "~" H 2500 4900 50  0001 C CNN
	1    2500 4900
	0    1    1    0   
$EndComp
Wire Wire Line
	2800 5250 2400 5250
Wire Wire Line
	2150 5150 2150 5250
Connection ~ 2150 5250
Wire Wire Line
	2150 5250 2150 5400
$Comp
L power:GND #PWR0119
U 1 1 5C5C2782
P 2150 5400
F 0 "#PWR0119" H 2150 5150 50  0001 C CNN
F 1 "GND" H 2155 5227 50  0000 C CNN
F 2 "" H 2150 5400 50  0001 C CNN
F 3 "" H 2150 5400 50  0001 C CNN
	1    2150 5400
	1    0    0    -1  
$EndComp
Wire Wire Line
	2500 4700 2400 4700
Wire Wire Line
	2150 4700 2150 4550
Connection ~ 2400 4700
Wire Wire Line
	2400 4700 2150 4700
Wire Wire Line
	2350 5150 2500 5150
Wire Wire Line
	2500 5100 2500 5150
Connection ~ 2500 5150
Wire Wire Line
	2500 5150 2800 5150
Wire Wire Line
	2400 5100 2400 5250
Connection ~ 2400 5250
Wire Wire Line
	2400 5250 2350 5250
$Comp
L chordboard-rescue:R- R19
U 1 1 5C5EE427
P 6450 5150
F 0 "R19" V 6500 5250 50  0000 L CNN
F 1 "10K" V 6550 5050 50  0000 L CNN
F 2 "Resistor_THT:R_Axial_DIN0204_L3.6mm_D1.6mm_P7.62mm_Horizontal" H 6450 5150 50  0001 C CNN
F 3 "" H 6450 5150 50  0001 C CNN
	1    6450 5150
	0    -1   -1   0   
$EndComp
$Comp
L chordboard-rescue:R- R20
U 1 1 5C5EE42E
P 6450 5250
F 0 "R20" V 6500 5350 50  0000 L CNN
F 1 "10K" V 6550 5150 50  0000 L CNN
F 2 "Resistor_THT:R_Axial_DIN0204_L3.6mm_D1.6mm_P7.62mm_Horizontal" H 6450 5250 50  0001 C CNN
F 3 "" H 6450 5250 50  0001 C CNN
	1    6450 5250
	0    -1   -1   0   
$EndComp
$Comp
L Jumper:Jumper_2_Open JP3
U 1 1 5C5EE435
P 6600 4900
F 0 "JP3" V 6554 4998 50  0000 L CNN
F 1 "Jumper_2_Open" V 6645 4998 50  0000 L CNN
F 2 "Jumper:SolderJumper-2_P1.3mm_Open_Pad1.0x1.5mm" H 6600 4900 50  0001 C CNN
F 3 "~" H 6600 4900 50  0001 C CNN
	1    6600 4900
	0    1    1    0   
$EndComp
$Comp
L Jumper:Jumper_2_Open JP4
U 1 1 5C5EE43C
P 6700 4900
F 0 "JP4" V 6654 4998 50  0000 L CNN
F 1 "Jumper_2_Open" V 6745 4998 50  0000 L CNN
F 2 "Jumper:SolderJumper-2_P1.3mm_Open_Pad1.0x1.5mm" H 6700 4900 50  0001 C CNN
F 3 "~" H 6700 4900 50  0001 C CNN
	1    6700 4900
	0    1    1    0   
$EndComp
Wire Wire Line
	7000 5250 6600 5250
Wire Wire Line
	6350 5150 6350 5250
Connection ~ 6350 5250
Wire Wire Line
	6350 5250 6350 5400
$Comp
L power:GND #PWR0121
U 1 1 5C5EE447
P 6350 5400
F 0 "#PWR0121" H 6350 5150 50  0001 C CNN
F 1 "GND" H 6355 5227 50  0000 C CNN
F 2 "" H 6350 5400 50  0001 C CNN
F 3 "" H 6350 5400 50  0001 C CNN
	1    6350 5400
	1    0    0    -1  
$EndComp
Wire Wire Line
	6700 4700 6600 4700
Wire Wire Line
	6350 4700 6350 4550
Connection ~ 6600 4700
Wire Wire Line
	6600 4700 6350 4700
Wire Wire Line
	6550 5150 6700 5150
Wire Wire Line
	6700 5100 6700 5150
Connection ~ 6700 5150
Wire Wire Line
	6700 5150 7000 5150
Wire Wire Line
	6600 5100 6600 5250
Connection ~ 6600 5250
Wire Wire Line
	6600 5250 6550 5250
Wire Wire Line
	9000 5150 9000 5700
NoConn ~ 8400 5250
NoConn ~ 8400 5350
NoConn ~ 4200 5250
NoConn ~ 4200 5350
$Comp
L chordboard-components:GROVE_I2C J?
U 1 1 5C613A94
P 10850 3950
F 0 "J?" H 11177 4001 50  0000 L CNN
F 1 "GROVE_I2C" H 11177 3910 50  0000 L CNN
F 2 "Connector_JST:JST_PH_S4B-PH-K_1x04_P2.00mm_Horizontal" H 10850 3950 50  0001 C CNN
F 3 "" H 10850 3950 50  0001 C CNN
	1    10850 3950
	1    0    0    -1  
$EndComp
Text Label 10650 3800 2    50   ~ 0
SCL
Text Label 10650 3900 2    50   ~ 0
SDA
$Comp
L chordboard-components:GROVE_I2C J?
U 1 1 5C613A9D
P 10850 3350
F 0 "J?" H 11177 3401 50  0000 L CNN
F 1 "GROVE_I2C" H 11177 3310 50  0000 L CNN
F 2 "Connector_JST:JST_PH_S4B-PH-K_1x04_P2.00mm_Horizontal" H 10850 3350 50  0001 C CNN
F 3 "" H 10850 3350 50  0001 C CNN
	1    10850 3350
	1    0    0    -1  
$EndComp
Text Label 10650 3200 2    50   ~ 0
SCL
Text Label 10650 3300 2    50   ~ 0
SDA
Wire Wire Line
	10200 3400 10650 3400
Wire Wire Line
	10650 3500 10200 3500
$Comp
L power:GND #PWR?
U 1 1 5C613AA8
P 10200 3500
F 0 "#PWR?" H 10200 3250 50  0001 C CNN
F 1 "GND" H 10205 3327 50  0000 C CNN
F 2 "" H 10200 3500 50  0001 C CNN
F 3 "" H 10200 3500 50  0001 C CNN
	1    10200 3500
	1    0    0    -1  
$EndComp
Wire Wire Line
	10200 4000 10650 4000
Wire Wire Line
	10650 4100 10200 4100
$Comp
L power:GND #PWR?
U 1 1 5C613AB0
P 10200 4100
F 0 "#PWR?" H 10200 3850 50  0001 C CNN
F 1 "GND" H 10205 3927 50  0000 C CNN
F 2 "" H 10200 4100 50  0001 C CNN
F 3 "" H 10200 4100 50  0001 C CNN
	1    10200 4100
	1    0    0    -1  
$EndComp
$Comp
L power:+5V #PWR?
U 1 1 5C61A450
P 10200 3400
F 0 "#PWR?" H 10200 3250 50  0001 C CNN
F 1 "+5V" H 10215 3573 50  0000 C CNN
F 2 "" H 10200 3400 50  0001 C CNN
F 3 "" H 10200 3400 50  0001 C CNN
	1    10200 3400
	1    0    0    -1  
$EndComp
$Comp
L power:+5V #PWR?
U 1 1 5C61A523
P 10200 4000
F 0 "#PWR?" H 10200 3850 50  0001 C CNN
F 1 "+5V" H 10215 4173 50  0000 C CNN
F 2 "" H 10200 4000 50  0001 C CNN
F 3 "" H 10200 4000 50  0001 C CNN
	1    10200 4000
	1    0    0    -1  
$EndComp
$Comp
L power:+5V #PWR?
U 1 1 5C61A62F
P 10200 4650
F 0 "#PWR?" H 10200 4500 50  0001 C CNN
F 1 "+5V" H 10215 4823 50  0000 C CNN
F 2 "" H 10200 4650 50  0001 C CNN
F 3 "" H 10200 4650 50  0001 C CNN
	1    10200 4650
	1    0    0    -1  
$EndComp
$Comp
L power:+5V #PWR?
U 1 1 5C61A6FB
P 10200 5250
F 0 "#PWR?" H 10200 5100 50  0001 C CNN
F 1 "+5V" H 10215 5423 50  0000 C CNN
F 2 "" H 10200 5250 50  0001 C CNN
F 3 "" H 10200 5250 50  0001 C CNN
	1    10200 5250
	1    0    0    -1  
$EndComp
$Comp
L power:+5V #PWR?
U 1 1 5C61A90A
P 7700 3100
F 0 "#PWR?" H 7700 2950 50  0001 C CNN
F 1 "+5V" H 7715 3273 50  0000 C CNN
F 2 "" H 7700 3100 50  0001 C CNN
F 3 "" H 7700 3100 50  0001 C CNN
	1    7700 3100
	1    0    0    -1  
$EndComp
$Comp
L power:+5V #PWR?
U 1 1 5C61A995
P 3500 3100
F 0 "#PWR?" H 3500 2950 50  0001 C CNN
F 1 "+5V" H 3515 3273 50  0000 C CNN
F 2 "" H 3500 3100 50  0001 C CNN
F 3 "" H 3500 3100 50  0001 C CNN
	1    3500 3100
	1    0    0    -1  
$EndComp
$Comp
L power:+5V #PWR?
U 1 1 5C61AA60
P 5850 2400
F 0 "#PWR?" H 5850 2250 50  0001 C CNN
F 1 "+5V" H 5865 2573 50  0000 C CNN
F 2 "" H 5850 2400 50  0001 C CNN
F 3 "" H 5850 2400 50  0001 C CNN
	1    5850 2400
	1    0    0    -1  
$EndComp
$Comp
L power:+5V #PWR?
U 1 1 5C61AAEB
P 6550 2400
F 0 "#PWR?" H 6550 2250 50  0001 C CNN
F 1 "+5V" H 6565 2573 50  0000 C CNN
F 2 "" H 6550 2400 50  0001 C CNN
F 3 "" H 6550 2400 50  0001 C CNN
	1    6550 2400
	1    0    0    -1  
$EndComp
$Comp
L power:+5V #PWR?
U 1 1 5C61AC75
P 2150 4550
F 0 "#PWR?" H 2150 4400 50  0001 C CNN
F 1 "+5V" H 2165 4723 50  0000 C CNN
F 2 "" H 2150 4550 50  0001 C CNN
F 3 "" H 2150 4550 50  0001 C CNN
	1    2150 4550
	1    0    0    -1  
$EndComp
$Comp
L power:+5V #PWR?
U 1 1 5C61AF8C
P 2600 4500
F 0 "#PWR?" H 2600 4350 50  0001 C CNN
F 1 "+5V" H 2615 4673 50  0000 C CNN
F 2 "" H 2600 4500 50  0001 C CNN
F 3 "" H 2600 4500 50  0001 C CNN
	1    2600 4500
	1    0    0    -1  
$EndComp
$Comp
L power:+5V #PWR?
U 1 1 5C61B39A
P 6350 4550
F 0 "#PWR?" H 6350 4400 50  0001 C CNN
F 1 "+5V" H 6365 4723 50  0000 C CNN
F 2 "" H 6350 4550 50  0001 C CNN
F 3 "" H 6350 4550 50  0001 C CNN
	1    6350 4550
	1    0    0    -1  
$EndComp
$Comp
L power:+5V #PWR?
U 1 1 5C61B425
P 6800 4500
F 0 "#PWR?" H 6800 4350 50  0001 C CNN
F 1 "+5V" H 6815 4673 50  0000 C CNN
F 2 "" H 6800 4500 50  0001 C CNN
F 3 "" H 6800 4500 50  0001 C CNN
	1    6800 4500
	1    0    0    -1  
$EndComp
$Comp
L power:+5V #PWR?
U 1 1 5C61B7AF
P 5450 3450
F 0 "#PWR?" H 5450 3300 50  0001 C CNN
F 1 "+5V" H 5465 3623 50  0000 C CNN
F 2 "" H 5450 3450 50  0001 C CNN
F 3 "" H 5450 3450 50  0001 C CNN
	1    5450 3450
	1    0    0    -1  
$EndComp
$Comp
L power:+5V #PWR?
U 1 1 5C61B93B
P 7000 5350
F 0 "#PWR?" H 7000 5200 50  0001 C CNN
F 1 "+5V" V 7015 5478 50  0000 L CNN
F 2 "" H 7000 5350 50  0001 C CNN
F 3 "" H 7000 5350 50  0001 C CNN
	1    7000 5350
	0    -1   -1   0   
$EndComp
$EndSCHEMATC
