EESchema Schematic File Version 4
LIBS:chordboard-cache
EELAYER 26 0
EELAYER END
$Descr A1 33110 23386
encoding utf-8
Sheet 1 1
Title ""
Date ""
Rev ""
Comp ""
Comment1 ""
Comment2 ""
Comment3 ""
Comment4 ""
$EndDescr
Text Label 10850 2500 2    50   ~ 0
T_GND
Text Label 10850 2600 2    50   ~ 0
T_RX1
Text Label 10850 2700 2    50   ~ 0
T_TX1
NoConn ~ 11850 3200
Text Label 10850 3500 2    50   ~ 0
AUDIO_BCLK
Text Label 10850 3700 2    50   ~ 0
AUDIO_MCLK
NoConn ~ 11850 3400
Text Label 13050 3800 0    50   ~ 0
AUDIO_RXD0
Text Label 13050 2900 0    50   ~ 0
AUDIO_TXD0
Text Label 13050 2800 0    50   ~ 0
AUDIO_LRCLK
Text Label 13050 3200 0    50   ~ 0
T_SCL
Text Label 13050 3300 0    50   ~ 0
T_SDA
Text Label 13050 2600 0    50   ~ 0
T_AGND
Text Label 13050 2500 0    50   ~ 0
T_5V
Text Label 10850 2800 2    50   ~ 0
MEMCARD_CS1
Text Label 10850 2900 2    50   ~ 0
MEMCARD_CS2
Text Label 10850 3000 2    50   ~ 0
MEMCARD_CS3
Text Label 10850 4700 2    50   ~ 0
T_RX4
Text Label 10850 4800 2    50   ~ 0
T_TX4
Text Label 10850 4400 2    50   ~ 0
LED_DAT
Text Label 10850 4500 2    50   ~ 0
LED_CLK
Text Label 10850 4600 2    50   ~ 0
LED_CS
Wire Wire Line
	13050 3200 14400 3200
Wire Wire Line
	13050 3300 14600 3300
$Comp
L chordboard-components:R R4
U 1 1 5C5B1932
P 14400 3000
F 0 "R4" V 14450 3150 50  0000 R CNN
F 1 "4.7K" V 14450 2900 50  0000 R CNN
F 2 "Resistor_THT:R_Axial_DIN0204_L3.6mm_D1.6mm_P5.08mm_Horizontal" H 14400 3000 50  0001 C CNN
F 3 "" H 14400 3000 50  0001 C CNN
	1    14400 3000
	-1   0    0    1   
$EndComp
$Comp
L chordboard-components:R R5
U 1 1 5C5B1BDE
P 14600 3000
F 0 "R5" V 14650 3150 50  0000 R CNN
F 1 "4.7K" V 14650 2900 50  0000 R CNN
F 2 "Resistor_THT:R_Axial_DIN0204_L3.6mm_D1.6mm_P5.08mm_Horizontal" H 14600 3000 50  0001 C CNN
F 3 "" H 14600 3000 50  0001 C CNN
	1    14600 3000
	-1   0    0    1   
$EndComp
Wire Wire Line
	14400 3200 14400 3100
Wire Wire Line
	14600 3300 14600 3100
Wire Wire Line
	14400 2900 14400 2700
Wire Wire Line
	14400 2700 14600 2700
Wire Wire Line
	14600 2700 14600 2900
Text Label 14600 2650 0    50   ~ 0
T_3V3
Wire Wire Line
	14600 2650 14600 2700
Connection ~ 14600 2700
Text Label 10850 3300 2    50   ~ 0
MEMCARD_MOSI
Text Label 10850 3800 2    50   ~ 0
MEMCARD_MISO
Text Label 13050 3700 0    50   ~ 0
MEMCARD_SCK
Text Label 17950 3550 2    50   ~ 0
MEMCARD_MISO
Text Label 18850 3750 0    50   ~ 0
MEMCARD_MOSI
Text Label 18850 3650 0    50   ~ 0
MEMCARD_SCK
Text Label 17950 3650 2    50   ~ 0
T_3V3
Text Label 18850 3550 0    50   ~ 0
T_3V3
Text Label 18850 3450 0    50   ~ 0
T_3V3
Text Label 17950 3750 2    50   ~ 0
T_GND
Text Label 17950 3450 2    50   ~ 0
MEMCARD_CS1
Text Label 17950 4050 2    50   ~ 0
MEMCARD_CS2
Text Label 17950 4650 2    50   ~ 0
MEMCARD_CS3
Text Label 17950 4150 2    50   ~ 0
MEMCARD_MISO
Text Label 18850 4350 0    50   ~ 0
MEMCARD_MOSI
Text Label 18850 4250 0    50   ~ 0
MEMCARD_SCK
Text Label 17950 4250 2    50   ~ 0
T_3V3
Text Label 18850 4150 0    50   ~ 0
T_3V3
Text Label 18850 4050 0    50   ~ 0
T_3V3
Text Label 17950 4350 2    50   ~ 0
T_GND
Text Label 17950 4750 2    50   ~ 0
MEMCARD_MISO
Text Label 18850 4950 0    50   ~ 0
MEMCARD_MOSI
Text Label 18850 4850 0    50   ~ 0
MEMCARD_SCK
Text Label 17950 4850 2    50   ~ 0
T_3V3
Text Label 18850 4750 0    50   ~ 0
T_3V3
Text Label 18850 4650 0    50   ~ 0
T_3V3
Text Label 17950 4950 2    50   ~ 0
T_GND
Text Label 10850 3100 2    50   ~ 0
MEMCARD_CS4
Text Label 17950 5250 2    50   ~ 0
MEMCARD_CS4
Text Label 17950 5350 2    50   ~ 0
MEMCARD_MISO
Text Label 18850 5550 0    50   ~ 0
MEMCARD_MOSI
Text Label 18850 5450 0    50   ~ 0
MEMCARD_SCK
Text Label 17950 5450 2    50   ~ 0
T_3V3
Text Label 18850 5350 0    50   ~ 0
T_3V3
Text Label 18850 5250 0    50   ~ 0
T_3V3
Text Label 17950 5550 2    50   ~ 0
T_GND
Wire Wire Line
	18850 3450 19600 3450
$Comp
L Device:C_Small C5
U 1 1 626F238A
P 19600 3600
F 0 "C5" H 19692 3646 50  0000 L CNN
F 1 "C_Small" H 19692 3555 50  0000 L CNN
F 2 "Capacitor_THT:C_Disc_D3.0mm_W2.0mm_P2.50mm" H 19600 3600 50  0001 C CNN
F 3 "~" H 19600 3600 50  0001 C CNN
	1    19600 3600
	1    0    0    -1  
$EndComp
$Comp
L Device:CP_Small C6
U 1 1 626F2391
P 19800 3600
F 0 "C6" H 19888 3646 50  0000 L CNN
F 1 "CP_Small" H 19888 3555 50  0000 L CNN
F 2 "Capacitor_THT:CP_Radial_D5.0mm_P2.00mm" H 19800 3600 50  0001 C CNN
F 3 "~" H 19800 3600 50  0001 C CNN
	1    19800 3600
	1    0    0    -1  
$EndComp
Wire Wire Line
	19600 3500 19600 3450
Wire Wire Line
	19600 3450 19800 3450
Wire Wire Line
	19800 3450 19800 3500
Connection ~ 19600 3450
Wire Wire Line
	19600 3700 19600 3750
Wire Wire Line
	19600 3750 19800 3750
Wire Wire Line
	19800 3750 19800 3700
Text Label 19850 3750 0    50   ~ 0
T_GND
Wire Wire Line
	19850 3750 19800 3750
Connection ~ 19800 3750
Wire Wire Line
	18850 4050 19600 4050
$Comp
L Device:C_Small C7
U 1 1 628B970C
P 19600 4200
F 0 "C7" H 19692 4246 50  0000 L CNN
F 1 "C_Small" H 19692 4155 50  0000 L CNN
F 2 "Capacitor_THT:C_Disc_D3.0mm_W2.0mm_P2.50mm" H 19600 4200 50  0001 C CNN
F 3 "~" H 19600 4200 50  0001 C CNN
	1    19600 4200
	1    0    0    -1  
$EndComp
$Comp
L Device:CP_Small C8
U 1 1 628B9713
P 19800 4200
F 0 "C8" H 19888 4246 50  0000 L CNN
F 1 "CP_Small" H 19888 4155 50  0000 L CNN
F 2 "Capacitor_THT:CP_Radial_D5.0mm_P2.00mm" H 19800 4200 50  0001 C CNN
F 3 "~" H 19800 4200 50  0001 C CNN
	1    19800 4200
	1    0    0    -1  
$EndComp
Wire Wire Line
	19600 4100 19600 4050
Wire Wire Line
	19600 4050 19800 4050
Wire Wire Line
	19800 4050 19800 4100
Connection ~ 19600 4050
Wire Wire Line
	19600 4300 19600 4350
Wire Wire Line
	19600 4350 19800 4350
Wire Wire Line
	19800 4350 19800 4300
Text Label 19850 4350 0    50   ~ 0
T_GND
Wire Wire Line
	19850 4350 19800 4350
Connection ~ 19800 4350
Wire Wire Line
	18850 4650 19600 4650
$Comp
L Device:C_Small C9
U 1 1 629A317E
P 19600 4800
F 0 "C9" H 19692 4846 50  0000 L CNN
F 1 "C_Small" H 19692 4755 50  0000 L CNN
F 2 "Capacitor_THT:C_Disc_D3.0mm_W2.0mm_P2.50mm" H 19600 4800 50  0001 C CNN
F 3 "~" H 19600 4800 50  0001 C CNN
	1    19600 4800
	1    0    0    -1  
$EndComp
$Comp
L Device:CP_Small C10
U 1 1 5CB271DF
P 19800 4800
F 0 "C10" H 19888 4846 50  0000 L CNN
F 1 "CP_Small" H 19888 4755 50  0000 L CNN
F 2 "Capacitor_THT:CP_Radial_D5.0mm_P2.00mm" H 19800 4800 50  0001 C CNN
F 3 "~" H 19800 4800 50  0001 C CNN
	1    19800 4800
	1    0    0    -1  
$EndComp
Wire Wire Line
	19600 4700 19600 4650
Wire Wire Line
	19600 4650 19800 4650
Wire Wire Line
	19800 4650 19800 4700
Connection ~ 19600 4650
Wire Wire Line
	19600 4900 19600 4950
Wire Wire Line
	19600 4950 19800 4950
Wire Wire Line
	19800 4950 19800 4900
Text Label 19850 4950 0    50   ~ 0
T_GND
Wire Wire Line
	19850 4950 19800 4950
Connection ~ 19800 4950
Wire Wire Line
	18850 5250 19600 5250
$Comp
L Device:C_Small C11
U 1 1 5CB271E0
P 19600 5400
F 0 "C11" H 19692 5446 50  0000 L CNN
F 1 "C_Small" H 19692 5355 50  0000 L CNN
F 2 "Capacitor_THT:C_Disc_D3.0mm_W2.0mm_P2.50mm" H 19600 5400 50  0001 C CNN
F 3 "~" H 19600 5400 50  0001 C CNN
	1    19600 5400
	1    0    0    -1  
$EndComp
$Comp
L Device:CP_Small C12
U 1 1 5CB271E1
P 19800 5400
F 0 "C12" H 19888 5446 50  0000 L CNN
F 1 "CP_Small" H 19888 5355 50  0000 L CNN
F 2 "Capacitor_THT:CP_Radial_D5.0mm_P2.00mm" H 19800 5400 50  0001 C CNN
F 3 "~" H 19800 5400 50  0001 C CNN
	1    19800 5400
	1    0    0    -1  
$EndComp
Wire Wire Line
	19600 5300 19600 5250
Wire Wire Line
	19600 5250 19800 5250
Wire Wire Line
	19800 5250 19800 5300
Connection ~ 19600 5250
Wire Wire Line
	19600 5500 19600 5550
Wire Wire Line
	19600 5550 19800 5550
Wire Wire Line
	19800 5550 19800 5500
Text Label 19850 5550 0    50   ~ 0
T_GND
Wire Wire Line
	19850 5550 19800 5550
Connection ~ 19800 5550
$Comp
L chordboard-components:23LC1024 MEM1
U 1 1 5CB271EC
P 18400 3650
F 0 "MEM1" H 18550 4000 50  0000 C CNN
F 1 "23LC1024" H 18150 4000 50  0000 C CNN
F 2 "Package_DIP:DIP-8_W7.62mm" H 18400 3650 50  0001 C CNN
F 3 "" H 18400 3650 50  0001 C CNN
	1    18400 3650
	1    0    0    -1  
$EndComp
$Comp
L chordboard-components:23LC1024 MEM2
U 1 1 5CB271ED
P 18400 4250
F 0 "MEM2" H 18550 4600 50  0000 C CNN
F 1 "23LC1024" H 18150 4600 50  0000 C CNN
F 2 "Package_DIP:DIP-8_W7.62mm" H 18400 4250 50  0001 C CNN
F 3 "" H 18400 4250 50  0001 C CNN
	1    18400 4250
	1    0    0    -1  
$EndComp
$Comp
L chordboard-components:23LC1024 MEM3
U 1 1 64CE8B73
P 18400 4850
F 0 "MEM3" H 18550 5200 50  0000 C CNN
F 1 "23LC1024" H 18150 5200 50  0000 C CNN
F 2 "Package_DIP:DIP-8_W7.62mm" H 18400 4850 50  0001 C CNN
F 3 "" H 18400 4850 50  0001 C CNN
	1    18400 4850
	1    0    0    -1  
$EndComp
$Comp
L chordboard-components:23LC1024 MEM4
U 1 1 64CE8D6D
P 18400 5450
F 0 "MEM4" H 18550 5800 50  0000 C CNN
F 1 "23LC1024" H 18150 5800 50  0000 C CNN
F 2 "Package_DIP:DIP-8_W7.62mm" H 18400 5450 50  0001 C CNN
F 3 "" H 18400 5450 50  0001 C CNN
	1    18400 5450
	1    0    0    -1  
$EndComp
Text Label 13050 3600 0    50   ~ 0
AUDIO_VOL
$Comp
L chordboard-components:R R3
U 1 1 659E2740
P 13350 3000
F 0 "R3" V 13300 3150 50  0000 C CNN
F 1 "200" V 13350 3000 50  0000 C CNN
F 2 "Resistor_THT:R_Axial_DIN0204_L3.6mm_D1.6mm_P5.08mm_Horizontal" H 13350 3000 50  0001 C CNN
F 3 "" H 13350 3000 50  0001 C CNN
	1    13350 3000
	0    -1   1    0   
$EndComp
Wire Wire Line
	13050 3000 13250 3000
Wire Wire Line
	13450 3000 13550 3000
$Comp
L Device:LED HLED1
U 1 1 65C37CAB
P 13700 3000
F 0 "HLED1" H 13700 2950 50  0000 C CNN
F 1 "T_HEARTBEAT" H 13700 3100 50  0000 C CNN
F 2 "LED_THT:LED_D1.8mm_W3.3mm_H2.4mm" H 13700 3000 50  0001 C CNN
F 3 "~" H 13700 3000 50  0001 C CNN
	1    13700 3000
	-1   0    0    -1  
$EndComp
Wire Wire Line
	13850 3000 13950 3000
Text Label 13950 3000 0    50   ~ 0
T_GND
Text Label 12050 5100 0    50   ~ 0
T_PGM
$Comp
L Switch:SW_Push RSW2
U 1 1 5CB271F3
P 12250 5450
F 0 "RSW2" H 12050 5500 50  0000 C CNN
F 1 "T_PGM" H 12050 5400 50  0000 C CNN
F 2 "Button_Switch_THT:SW_Tactile_SPST_Angled_PTS645Vx58-2LFS" H 12250 5650 50  0001 C CNN
F 3 "" H 12250 5650 50  0001 C CNN
	1    12250 5450
	-1   0    0    -1  
$EndComp
Text Label 12600 5450 0    50   ~ 0
T_GND
$Comp
L chordboard-components:FTDI_MCU J1
U 1 1 5CB271F4
P 9850 2500
F 0 "J1" H 10020 2925 50  0000 C CNN
F 1 "T_UART0" H 10020 2834 50  0000 C CNN
F 2 "Connector_PinHeader_2.54mm:PinHeader_1x06_P2.54mm_Vertical" H 9850 2500 50  0001 C CNN
F 3 "~" H 9850 2500 50  0001 C CNN
	1    9850 2500
	-1   0    0    -1  
$EndComp
Text Label 10050 2300 0    50   ~ 0
T_GND
Text Label 10050 2600 0    50   ~ 0
T_RX1
Text Label 10050 2700 0    50   ~ 0
T_TX1
$Comp
L chordboard-components:GROVE_I2C J2
U 1 1 66B9ECBA
P 15250 3350
F 0 "J2" H 15577 3401 50  0000 L CNN
F 1 "T_I2C0" H 15577 3310 50  0000 L CNN
F 2 "Connector_JST:JST_PH_B4B-PH-K_1x04_P2.00mm_Vertical" H 15250 3350 50  0001 C CNN
F 3 "" H 15250 3350 50  0001 C CNN
	1    15250 3350
	1    0    0    -1  
$EndComp
Wire Wire Line
	14400 3200 15050 3200
Connection ~ 14400 3200
Wire Wire Line
	14600 3300 15050 3300
Connection ~ 14600 3300
Text Label 15050 3500 2    50   ~ 0
T_GND
$Comp
L chordboard-components:GROVE_UART J5
U 1 1 5CB271F5
P 14100 4850
F 0 "J5" H 14427 4901 50  0000 L CNN
F 1 "T_UART5" H 14427 4810 50  0000 L CNN
F 2 "Connector_JST:JST_PH_B4B-PH-K_1x04_P2.00mm_Vertical" H 14100 4850 50  0001 C CNN
F 3 "" H 14100 4850 50  0001 C CNN
	1    14100 4850
	1    0    0    -1  
$EndComp
Text Label 13200 9050 0    50   ~ 0
ESP_TX0
Text Label 13200 9150 0    50   ~ 0
ESP_RX0
$Comp
L Jumper:Jumper_2_Bridged JP3
U 1 1 5CB271F6
P 11450 8200
F 0 "JP3" H 11450 8395 50  0000 C CNN
F 1 "Jumper_2_Bridged" H 11450 8304 50  0000 C CNN
F 2 "Jumper:SolderJumper-2_P1.3mm_Bridged2Bar_Pad1.0x1.5mm" H 11450 8200 50  0001 C CNN
F 3 "~" H 11450 8200 50  0001 C CNN
	1    11450 8200
	0    1    1    0   
$EndComp
$Comp
L esp32-wrover:ESP32-WROVER U2
U 1 1 774925CF
P 12350 9400
F 0 "U2" H 12325 10737 60  0000 C CNN
F 1 "ESP32-WROVER" H 12325 10631 60  0000 C CNN
F 2 "esp32-wrover:ESP32-WROVER" H 12800 9100 60  0001 C CNN
F 3 "" H 12800 9100 60  0001 C CNN
	1    12350 9400
	1    0    0    -1  
$EndComp
Text Label 13200 10050 0    50   ~ 0
ESP_D0
Text Label 11450 8850 2    50   ~ 0
ESP_RST
Text Label 11450 8750 2    50   ~ 0
ESP_3V3
Text Label 11450 8650 2    50   ~ 0
ESP_GND
$Comp
L Jumper:Jumper_2_Bridged JP5
U 1 1 5CB271F8
P 10700 8750
F 0 "JP5" H 10700 8945 50  0000 C CNN
F 1 "J_ESP_3V3" H 10700 8854 50  0000 C CNN
F 2 "Jumper:SolderJumper-2_P1.3mm_Bridged2Bar_Pad1.0x1.5mm" H 10700 8750 50  0001 C CNN
F 3 "~" H 10700 8750 50  0001 C CNN
	1    10700 8750
	1    0    0    -1  
$EndComp
Wire Wire Line
	10900 8750 11450 8750
NoConn ~ 11450 10250
NoConn ~ 11450 10350
NoConn ~ 11450 10450
NoConn ~ 13200 10550
NoConn ~ 13200 10450
NoConn ~ 13200 10350
Text Label 13200 9250 0    50   ~ 0
ESP_SDA
Text Label 13200 8950 0    50   ~ 0
ESP_SCL
Text Label 13200 8750 0    50   ~ 0
ESP_GND
NoConn ~ 13200 8650
Wire Wire Line
	10400 8750 10500 8750
Wire Wire Line
	11450 8850 9950 8850
$Comp
L Device:R R8
U 1 1 774925F3
P 9950 8600
F 0 "R8" V 9743 8600 50  0000 C CNN
F 1 "10K" V 9834 8600 50  0000 C CNN
F 2 "Resistor_THT:R_Axial_DIN0204_L3.6mm_D1.6mm_P5.08mm_Horizontal" V 9880 8600 50  0001 C CNN
F 3 "~" H 9950 8600 50  0001 C CNN
	1    9950 8600
	-1   0    0    1   
$EndComp
$Comp
L Device:R R12
U 1 1 5CB271FA
P 13850 10050
F 0 "R12" V 13643 10050 50  0000 C CNN
F 1 "10K" V 13734 10050 50  0000 C CNN
F 2 "Resistor_THT:R_Axial_DIN0204_L3.6mm_D1.6mm_P5.08mm_Horizontal" V 13780 10050 50  0001 C CNN
F 3 "~" H 13850 10050 50  0001 C CNN
	1    13850 10050
	0    1    1    0   
$EndComp
Wire Wire Line
	13200 10050 13700 10050
Text Label 9950 8450 2    50   ~ 0
ESP_3V3
Text Label 14100 10050 0    50   ~ 0
ESP_3V3
Wire Wire Line
	9950 8750 9950 8850
$Comp
L Device:R R10
U 1 1 5CB271FB
P 13650 9250
F 0 "R10" V 13600 9400 50  0000 C CNN
F 1 "4.7K" V 13600 9000 50  0000 C CNN
F 2 "Resistor_THT:R_Axial_DIN0204_L3.6mm_D1.6mm_P5.08mm_Horizontal" V 13580 9250 50  0001 C CNN
F 3 "~" H 13650 9250 50  0001 C CNN
	1    13650 9250
	0    -1   -1   0   
$EndComp
Wire Wire Line
	13200 9250 13500 9250
Wire Wire Line
	13800 9250 13850 9250
Text Label 13850 9250 0    50   ~ 0
ESP_3V3
$Comp
L Device:R R9
U 1 1 5CB271FC
P 13650 8950
F 0 "R9" V 13600 9100 50  0000 C CNN
F 1 "4.7K" V 13600 8700 50  0000 C CNN
F 2 "Resistor_THT:R_Axial_DIN0204_L3.6mm_D1.6mm_P5.08mm_Horizontal" V 13580 8950 50  0001 C CNN
F 3 "~" H 13650 8950 50  0001 C CNN
	1    13650 8950
	0    -1   -1   0   
$EndComp
Wire Wire Line
	13200 8950 13500 8950
Text Label 13800 8950 0    50   ~ 0
ESP_3V3
Text Label 11450 10050 2    50   ~ 0
ESP_GND
Text Label 11450 9950 2    50   ~ 0
ESP_RX2
Text Label 11450 10150 2    50   ~ 0
ESP_TX2
$Comp
L Device:C C22
U 1 1 5CB271FE
P 11050 8500
F 0 "C22" H 11165 8546 50  0000 L CNN
F 1 "C" H 11165 8455 50  0000 L CNN
F 2 "Capacitor_THT:C_Disc_D3.0mm_W1.6mm_P2.50mm" H 11088 8350 50  0001 C CNN
F 3 "~" H 11050 8500 50  0001 C CNN
	1    11050 8500
	1    0    0    -1  
$EndComp
Wire Wire Line
	11450 8650 11050 8650
Text Label 11050 8350 0    50   ~ 0
ESP_3V3
$Comp
L chordboard-components:FTDI_MCU J8
U 1 1 5CB271FF
P 12900 6600
F 0 "J8" H 13250 6500 50  0000 L CNN
F 1 "E_UART0" H 13250 6600 50  0000 L CNN
F 2 "Connector_PinHeader_2.54mm:PinHeader_1x06_P2.54mm_Vertical" H 12900 6600 50  0001 C CNN
F 3 "~" H 12900 6600 50  0001 C CNN
	1    12900 6600
	1    0    0    -1  
$EndComp
Text Label 12700 6400 2    50   ~ 0
ESP_GND
Text Label 12700 6800 2    50   ~ 0
ESP_TX0
Text Label 12700 6700 2    50   ~ 0
ESP_RX0
$Comp
L Device:C C21
U 1 1 5CB27201
P 10850 8500
F 0 "C21" H 10965 8546 50  0000 L CNN
F 1 "C" H 10965 8455 50  0000 L CNN
F 2 "Capacitor_THT:C_Disc_D3.0mm_W1.6mm_P2.50mm" H 10888 8350 50  0001 C CNN
F 3 "~" H 10850 8500 50  0001 C CNN
	1    10850 8500
	1    0    0    -1  
$EndComp
Wire Wire Line
	11050 8650 10850 8650
Connection ~ 11050 8650
Wire Wire Line
	10850 8350 11050 8350
Text Label 13200 8850 0    50   ~ 0
ESP_MOSI
Text Label 13200 9650 0    50   ~ 0
ESP_CS
Text Label 13200 9550 0    50   ~ 0
ESP_SCK
Text Label 13200 9450 0    50   ~ 0
ESP_MISO
Text Label 10400 8750 2    50   ~ 0
T_3V3
Text Label 11450 8000 2    50   ~ 0
T_GND
Wire Wire Line
	10850 4000 10600 4000
Text Label 14800 7200 2    50   ~ 0
ESP_RST
Text Label 14800 7300 2    50   ~ 0
ESP_D0
Text Label 9100 9950 2    50   ~ 0
T_TX4
Text Label 9100 10150 2    50   ~ 0
T_RX4
Text Label 15400 7200 0    50   ~ 0
ESP_GND
Text Label 15400 7300 0    50   ~ 0
ESP_GND
Wire Wire Line
	11450 8400 11450 8650
Connection ~ 11450 8650
$Comp
L chordboard-components:R R11
U 1 1 774926C8
P 11250 9850
F 0 "R11" V 11054 9850 50  0000 C CNN
F 1 "200" V 11145 9850 50  0000 C CNN
F 2 "Resistor_THT:R_Axial_DIN0204_L3.6mm_D1.6mm_P5.08mm_Horizontal" H 11250 9850 50  0001 C CNN
F 3 "" H 11250 9850 50  0001 C CNN
	1    11250 9850
	0    1    1    0   
$EndComp
Wire Wire Line
	11150 9850 10650 9850
$Comp
L Device:LED HLED2
U 1 1 774926D0
P 10500 9850
F 0 "HLED2" H 10700 9800 50  0000 C CNN
F 1 "E_HEARTBEAT" H 10650 9900 50  0000 C CNN
F 2 "LED_THT:LED_D1.8mm_W3.3mm_H2.4mm" H 10500 9850 50  0001 C CNN
F 3 "~" H 10500 9850 50  0001 C CNN
	1    10500 9850
	1    0    0    -1  
$EndComp
Wire Wire Line
	10350 9850 10250 9850
Wire Wire Line
	11350 9850 11450 9850
Text Label 10250 9850 2    50   ~ 0
ESP_GND
$Comp
L Switch:SW_Push RSW1
U 1 1 5CB2720E
P 10400 4000
F 0 "RSW1" H 10200 4050 50  0000 C CNN
F 1 "E_PGM" H 10700 4050 50  0000 C CNN
F 2 "Button_Switch_THT:SW_Tactile_SPST_Angled_PTS645Vx58-2LFS" H 10400 4200 50  0001 C CNN
F 3 "" H 10400 4200 50  0001 C CNN
	1    10400 4000
	-1   0    0    -1  
$EndComp
Text Label 13050 4500 0    50   ~ 0
T_ROTARY_INTA
Text Label 13050 4600 0    50   ~ 0
T_ROTARY_INTB
$Comp
L Mechanical:MountingHole H1
U 1 1 68454DB9
P 20600 4050
F 0 "H1" H 20700 4096 50  0000 L CNN
F 1 "MountingHole" H 20700 4005 50  0000 L CNN
F 2 "MountingHole:MountingHole_2.7mm_M2.5_Pad_Via" H 20600 4050 50  0001 C CNN
F 3 "~" H 20600 4050 50  0001 C CNN
	1    20600 4050
	1    0    0    -1  
$EndComp
$Comp
L Mechanical:MountingHole H2
U 1 1 68454DBF
P 20600 4250
F 0 "H2" H 20700 4296 50  0000 L CNN
F 1 "MountingHole" H 20700 4205 50  0000 L CNN
F 2 "MountingHole:MountingHole_2.7mm_M2.5_Pad_Via" H 20600 4250 50  0001 C CNN
F 3 "~" H 20600 4250 50  0001 C CNN
	1    20600 4250
	1    0    0    -1  
$EndComp
$Comp
L Mechanical:MountingHole H3
U 1 1 68454DC5
P 20600 4450
F 0 "H3" H 20700 4496 50  0000 L CNN
F 1 "MountingHole" H 20700 4405 50  0000 L CNN
F 2 "MountingHole:MountingHole_2.7mm_M2.5_Pad_Via" H 20600 4450 50  0001 C CNN
F 3 "~" H 20600 4450 50  0001 C CNN
	1    20600 4450
	1    0    0    -1  
$EndComp
$Comp
L Mechanical:MountingHole H4
U 1 1 68454DCB
P 20600 4650
F 0 "H4" H 20700 4696 50  0000 L CNN
F 1 "MountingHole" H 20700 4605 50  0000 L CNN
F 2 "MountingHole:MountingHole_2.7mm_M2.5_Pad_Via" H 20600 4650 50  0001 C CNN
F 3 "~" H 20600 4650 50  0001 C CNN
	1    20600 4650
	1    0    0    -1  
$EndComp
Text Label 13900 8850 0    50   ~ 0
E_LED_DAT
Text Label 14300 9550 0    50   ~ 0
E_LED_CLK
Text Label 14300 9650 0    50   ~ 0
E_LED_CS
Wire Wire Line
	14000 10050 14100 10050
Wire Wire Line
	13900 8850 13200 8850
Wire Wire Line
	14300 9550 13200 9550
Wire Wire Line
	13200 9650 14300 9650
Text Label 11450 9650 2    50   ~ 0
E_ROTARY_INTA
Text Label 11450 9750 2    50   ~ 0
E_ROTARY_INTB
$Comp
L Switch:SW_DIP_x02 DIPSW1
U 1 1 5C552149
P 15100 7300
F 0 "DIPSW1" H 15100 7667 50  0000 C CNN
F 1 "E_BOOTOPTS" H 15100 7576 50  0000 C CNN
F 2 "Button_Switch_THT:SW_DIP_SPSTx02_Slide_9.78x7.26mm_W7.62mm_P2.54mm" H 15100 7300 50  0001 C CNN
F 3 "" H 15100 7300 50  0001 C CNN
	1    15100 7300
	1    0    0    -1  
$EndComp
$Comp
L Jumper:Jumper_2_Bridged JP7
U 1 1 5C561870
P 9650 9950
F 0 "JP7" H 9850 10000 50  0000 C CNN
F 1 "J_ESP_RX2" H 9350 10000 50  0000 C CNN
F 2 "Jumper:SolderJumper-2_P1.3mm_Bridged2Bar_Pad1.0x1.5mm" H 9650 9950 50  0001 C CNN
F 3 "~" H 9650 9950 50  0001 C CNN
	1    9650 9950
	1    0    0    -1  
$EndComp
$Comp
L Jumper:Jumper_2_Bridged JP8
U 1 1 5C561EFF
P 9650 10150
F 0 "JP8" H 9850 10200 50  0000 C CNN
F 1 "J_ESP_TX2" H 9350 10200 50  0000 C CNN
F 2 "Jumper:SolderJumper-2_P1.3mm_Bridged2Bar_Pad1.0x1.5mm" H 9650 10150 50  0001 C CNN
F 3 "~" H 9650 10150 50  0001 C CNN
	1    9650 10150
	1    0    0    -1  
$EndComp
Wire Wire Line
	9100 9950 9450 9950
Wire Wire Line
	9100 10150 9450 10150
Wire Wire Line
	9850 9950 11450 9950
Wire Wire Line
	11450 10150 9850 10150
Text Label 11850 5100 3    50   ~ 0
T_3V3
Text Label 15050 3400 2    50   ~ 0
T_3V3
$Comp
L Connector_Generic:Conn_01x07 J4
U 1 1 5C5789FD
P 16300 4400
F 0 "J4" H 16220 4917 50  0000 C CNN
F 1 "Conn_01x07" H 16220 4826 50  0000 C CNN
F 2 "Connector_PinHeader_2.54mm:PinHeader_1x07_P2.54mm_Vertical" H 16300 4400 50  0001 C CNN
F 3 "~" H 16300 4400 50  0001 C CNN
	1    16300 4400
	-1   0    0    -1  
$EndComp
Text Label 16500 4600 0    50   ~ 0
MEMCARD_MISO
Text Label 16500 4100 0    50   ~ 0
MEMCARD_CS1
Text Label 16500 4200 0    50   ~ 0
MEMCARD_CS2
Text Label 16500 4300 0    50   ~ 0
MEMCARD_CS3
Text Label 16500 4400 0    50   ~ 0
MEMCARD_CS4
Text Label 16500 4500 0    50   ~ 0
MEMCARD_MOSI
Text Label 16500 4700 0    50   ~ 0
MEMCARD_SCK
$Comp
L teensy-36-components:Teensy3.6 TEE1
U 1 1 5C5A5732
P 11950 3650
F 0 "TEE1" H 11950 5087 60  0000 C CNN
F 1 "Teensy3.6" H 11950 4981 60  0000 C CNN
F 2 "teensy36-footprint:teensy36" H 12400 4350 60  0001 C CNN
F 3 "" H 12400 4350 60  0000 C CNN
	1    11950 3650
	1    0    0    -1  
$EndComp
Text Label 12050 5100 3    50   ~ 0
T_PGM
Wire Wire Line
	13050 4700 13900 4700
Wire Wire Line
	13900 4800 13050 4800
Text Label 13900 5000 2    50   ~ 0
T_GND
Text Label 13900 4900 2    50   ~ 0
T_3V3
Wire Wire Line
	10850 2700 10050 2700
Wire Wire Line
	10050 2600 10850 2600
Wire Wire Line
	12600 5450 12450 5450
Wire Wire Line
	12050 5100 12050 5450
NoConn ~ 10850 3300
NoConn ~ 10850 3500
NoConn ~ 10850 3700
NoConn ~ 10850 3800
NoConn ~ 13050 3600
NoConn ~ 13050 3700
NoConn ~ 13050 3800
Text Label 10200 4000 2    50   ~ 0
T_GND
Text Label 10450 4100 2    50   ~ 0
ESP_RST
Text Label 10450 4200 2    50   ~ 0
ESP_D0
$Comp
L Jumper:Jumper_2_Bridged JP2
U 1 1 7749269D
P 10650 4200
F 0 "JP2" H 10950 4250 50  0000 C CNN
F 1 "J_ESP_D0" H 10650 4250 50  0000 C CNN
F 2 "Jumper:SolderJumper-2_P1.3mm_Bridged2Bar_Pad1.0x1.5mm" H 10650 4200 50  0001 C CNN
F 3 "~" H 10650 4200 50  0001 C CNN
	1    10650 4200
	-1   0    0    -1  
$EndComp
$Comp
L Jumper:Jumper_2_Bridged JP1
U 1 1 5CB27208
P 10650 4100
F 0 "JP1" H 10950 4150 50  0000 C CNN
F 1 "J_ESP_RST" H 10650 4150 50  0000 C CNN
F 2 "Jumper:SolderJumper-2_P1.3mm_Bridged2Bar_Pad1.0x1.5mm" H 10650 4100 50  0001 C CNN
F 3 "~" H 10650 4100 50  0001 C CNN
	1    10650 4100
	-1   0    0    -1  
$EndComp
Text Label 11500 6500 0    50   ~ 0
ESP_SDA
Text Label 11500 6400 0    50   ~ 0
ESP_SCL
Text Label 11500 6700 0    50   ~ 0
ESP_GND
Text Label 11500 6600 0    50   ~ 0
ESP_3V3
$Comp
L chordboard-components:GROVE_I2C J7
U 1 1 5CB27202
P 11300 6550
F 0 "J7" H 11627 6601 50  0000 L CNN
F 1 "E_I2C0" H 11627 6510 50  0000 L CNN
F 2 "Connector_JST:JST_PH_B4B-PH-K_1x04_P2.00mm_Vertical" H 11300 6550 50  0001 C CNN
F 3 "" H 11300 6550 50  0001 C CNN
	1    11300 6550
	-1   0    0    -1  
$EndComp
$Comp
L Interface_Expansion:MCP23017_SP MCP3
U 1 1 5C7FDD06
P 23550 11750
F 0 "MCP3" H 23550 13028 50  0000 C CNN
F 1 "MCP23017_SP" H 23550 12937 50  0000 C CNN
F 2 "Package_DIP:DIP-28_W7.62mm" H 23750 10750 50  0001 L CNN
F 3 "http://ww1.microchip.com/downloads/en/DeviceDoc/20001952C.pdf" H 23750 10650 50  0001 L CNN
	1    23550 11750
	1    0    0    -1  
$EndComp
$Comp
L chordboard-components:MAX7219 MAX3
U 1 1 5C7FDD0D
P 22500 7000
F 0 "MAX3" H 22500 6900 60  0000 C CNN
F 1 "MAX7219" H 23050 7650 60  0000 C CNN
F 2 "Package_DIP:DIP-24_W7.62mm" H 22500 6800 40  0001 L CIN
F 3 "https://datasheets.maximintegrated.com/en/ds/MAX7219-MAX7221.pdf" H 22500 6700 40  0001 L CIN
	1    22500 7000
	1    0    0    -1  
$EndComp
Text Label 22850 11050 2    50   ~ 0
T_SCL
Text Label 22850 10950 2    50   ~ 0
T_SDA
Text Label 23550 10400 0    50   ~ 0
T_3V3
Text Label 23550 12850 0    50   ~ 0
T_GND
Text Label 23200 5400 0    50   ~ 0
T_5V
Wire Wire Line
	22800 5600 22800 5500
$Comp
L chordboard-components:R R6
U 1 1 5C7FDD1A
P 23000 5500
F 0 "R6" V 22804 5500 50  0000 C CNN
F 1 "R" V 22895 5500 50  0000 C CNN
F 2 "Resistor_THT:R_Axial_DIN0204_L3.6mm_D1.6mm_P5.08mm_Horizontal" H 23000 5500 50  0001 C CNN
F 3 "" H 23000 5500 50  0001 C CNN
	1    23000 5500
	0    1    1    0   
$EndComp
Wire Wire Line
	23200 7100 23200 7150
Wire Wire Line
	23300 7150 23300 7100
Text Label 23100 7150 2    50   ~ 0
T_GND
Wire Wire Line
	23200 7150 23300 7150
Wire Wire Line
	23200 7150 23100 7150
Connection ~ 23200 7150
Wire Wire Line
	23200 5400 23200 5500
Wire Wire Line
	22400 5900 22350 5900
Wire Wire Line
	22350 5900 22350 5200
Wire Wire Line
	22350 5200 24700 5200
Wire Wire Line
	22400 6000 22300 6000
Wire Wire Line
	22300 6000 22300 5150
Wire Wire Line
	22300 5150 24750 5150
Wire Wire Line
	22400 6100 22250 6100
Wire Wire Line
	22250 6100 22250 5100
Wire Wire Line
	22250 5100 24800 5100
Wire Wire Line
	22400 6200 22200 6200
Wire Wire Line
	22200 6200 22200 5050
Wire Wire Line
	22150 5000 22150 6300
Wire Wire Line
	22150 6300 22400 6300
Wire Wire Line
	22400 6400 22100 6400
Wire Wire Line
	22100 6400 22100 4950
Wire Wire Line
	22800 5500 22900 5500
Wire Wire Line
	23100 5500 23200 5500
Connection ~ 23200 5500
Wire Wire Line
	23200 5500 23200 5600
Text Label 30300 4200 0    50   ~ 0
LED_DAT
Text Label 22400 6850 2    50   ~ 0
LED_CLK
$Comp
L chordboard-components:MAX7219 MAX4
U 1 1 5C7FDD3D
P 30250 7000
F 0 "MAX4" H 30250 6900 60  0000 C CNN
F 1 "MAX7219" H 30800 7650 60  0000 C CNN
F 2 "Package_DIP:DIP-24_W7.62mm" H 30250 6800 40  0001 L CIN
F 3 "https://datasheets.maximintegrated.com/en/ds/MAX7219-MAX7221.pdf" H 30250 6700 40  0001 L CIN
	1    30250 7000
	-1   0    0    -1  
$EndComp
Text Label 29550 5400 2    50   ~ 0
T_5V
Wire Wire Line
	29950 5600 29950 5500
$Comp
L chordboard-components:R R7
U 1 1 5C7FDD46
P 29750 5500
F 0 "R7" V 29554 5500 50  0000 C CNN
F 1 "R" V 29645 5500 50  0000 C CNN
F 2 "Resistor_THT:R_Axial_DIN0204_L3.6mm_D1.6mm_P5.08mm_Horizontal" H 29750 5500 50  0001 C CNN
F 3 "" H 29750 5500 50  0001 C CNN
	1    29750 5500
	0    -1   1    0   
$EndComp
Wire Wire Line
	29550 7100 29550 7150
Wire Wire Line
	29450 7150 29450 7100
Text Label 29650 7150 0    50   ~ 0
T_GND
Wire Wire Line
	29550 7150 29450 7150
Wire Wire Line
	29550 7150 29650 7150
Connection ~ 29550 7150
Wire Wire Line
	29550 5400 29550 5500
Wire Wire Line
	30350 5900 30400 5900
Wire Wire Line
	30400 5900 30400 5200
Wire Wire Line
	30400 5200 28000 5200
Wire Wire Line
	30350 6000 30450 6000
Wire Wire Line
	30450 6000 30450 5150
Wire Wire Line
	30450 5150 27950 5150
Wire Wire Line
	30350 6100 30500 6100
Wire Wire Line
	30500 6100 30500 5100
Wire Wire Line
	30500 5100 27900 5100
Wire Wire Line
	30350 6200 30550 6200
Wire Wire Line
	30550 6200 30550 5050
Wire Wire Line
	30550 5050 27850 5050
Wire Wire Line
	30600 5000 30600 6300
Wire Wire Line
	30600 6300 30350 6300
Wire Wire Line
	30350 6400 30650 6400
Wire Wire Line
	30650 6400 30650 4950
Wire Wire Line
	30650 4950 27750 4950
Wire Wire Line
	29950 5500 29850 5500
Wire Wire Line
	29650 5500 29550 5500
Connection ~ 29550 5500
Wire Wire Line
	29550 5500 29550 5600
Text Label 30350 6850 0    50   ~ 0
LED_CLK
$Comp
L Interface_Expansion:MCP23017_SP MCP2
U 1 1 5C7FDD6A
P 28900 9050
F 0 "MCP2" H 28900 10328 50  0000 C CNN
F 1 "MCP23017_SP" H 28900 10237 50  0000 C CNN
F 2 "Package_DIP:DIP-28_W7.62mm" H 29100 8050 50  0001 L CNN
F 3 "http://ww1.microchip.com/downloads/en/DeviceDoc/20001952C.pdf" H 29100 7950 50  0001 L CNN
	1    28900 9050
	-1   0    0    -1  
$EndComp
Text Label 29600 8350 0    50   ~ 0
T_SCL
Text Label 29600 8250 0    50   ~ 0
T_SDA
Text Label 28900 7950 2    50   ~ 0
T_3V3
Text Label 28900 10150 2    50   ~ 0
T_GND
$Comp
L Interface_Expansion:MCP23017_SP MCP4
U 1 1 5C7FDD75
P 28900 11750
F 0 "MCP4" H 28900 13028 50  0000 C CNN
F 1 "MCP23017_SP" H 28900 12937 50  0000 C CNN
F 2 "Package_DIP:DIP-28_W7.62mm" H 29100 10750 50  0001 L CNN
F 3 "http://ww1.microchip.com/downloads/en/DeviceDoc/20001952C.pdf" H 29100 10650 50  0001 L CNN
	1    28900 11750
	-1   0    0    -1  
$EndComp
Text Label 29600 11050 0    50   ~ 0
T_SCL
Text Label 29600 10950 0    50   ~ 0
T_SDA
Text Label 28900 10650 2    50   ~ 0
T_3V3
Text Label 28900 12850 2    50   ~ 0
T_GND
Text Label 22850 11850 2    50   ~ 0
T_3V3
Text Label 29600 9150 0    50   ~ 0
T_3V3
Text Label 29600 11850 0    50   ~ 0
T_3V3
Text Label 30300 4300 0    50   ~ 0
LED_CLK
Wire Wire Line
	29500 2950 29500 3050
Wire Wire Line
	29600 2950 29500 2950
Wire Wire Line
	29900 2950 29800 2950
Wire Wire Line
	30600 3850 30600 2400
Wire Wire Line
	30300 3850 30600 3850
Wire Wire Line
	30550 3750 30300 3750
Wire Wire Line
	30550 2450 30550 3750
Wire Wire Line
	30500 3650 30500 2500
Wire Wire Line
	30300 3650 30500 3650
Wire Wire Line
	30450 3550 30450 2550
Wire Wire Line
	30300 3550 30450 3550
Wire Wire Line
	30400 3450 30400 2600
Wire Wire Line
	30300 3450 30400 3450
Wire Wire Line
	30350 3350 30350 2650
Wire Wire Line
	30300 3350 30350 3350
Connection ~ 29500 2950
Wire Wire Line
	29500 2850 29500 2950
Text Label 29600 4600 0    50   ~ 0
T_GND
Wire Wire Line
	29400 4600 29400 4550
Wire Wire Line
	29500 4600 29600 4600
Wire Wire Line
	29500 4600 29400 4600
Connection ~ 29500 4600
Wire Wire Line
	29500 4550 29500 4600
$Comp
L chordboard-components:R R2
U 1 1 5C7FDD9B
P 29700 2950
F 0 "R2" V 29504 2950 50  0000 C CNN
F 1 "R" V 29595 2950 50  0000 C CNN
F 2 "Resistor_THT:R_Axial_DIN0204_L3.6mm_D1.6mm_P5.08mm_Horizontal" H 29700 2950 50  0001 C CNN
F 3 "" H 29700 2950 50  0001 C CNN
	1    29700 2950
	0    -1   1    0   
$EndComp
Wire Wire Line
	29900 3050 29900 2950
Text Label 29500 2850 2    50   ~ 0
T_5V
$Comp
L chordboard-components:MAX7219 MAX2
U 1 1 5C7FDDA4
P 30200 4450
F 0 "MAX2" H 30200 4350 60  0000 C CNN
F 1 "MAX7219" H 30750 5100 60  0000 C CNN
F 2 "Package_DIP:DIP-24_W7.62mm" H 30200 4250 40  0001 L CIN
F 3 "https://datasheets.maximintegrated.com/en/ds/MAX7219-MAX7221.pdf" H 30200 4150 40  0001 L CIN
	1    30200 4450
	-1   0    0    -1  
$EndComp
Wire Wire Line
	29500 2950 28900 2950
$Comp
L Device:C_Small C4
U 1 1 5C7FDDAC
P 28900 3100
F 0 "C4" H 28992 3146 50  0000 L CNN
F 1 "C_Small" H 28992 3055 50  0000 L CNN
F 2 "Capacitor_THT:C_Disc_D3.0mm_W2.0mm_P2.50mm" H 28900 3100 50  0001 C CNN
F 3 "~" H 28900 3100 50  0001 C CNN
	1    28900 3100
	-1   0    0    -1  
$EndComp
$Comp
L Device:CP_Small C3
U 1 1 5C7FDDB3
P 28700 3100
F 0 "C3" H 28788 3146 50  0000 L CNN
F 1 "CP_Small" H 28788 3055 50  0000 L CNN
F 2 "Capacitor_THT:CP_Radial_D5.0mm_P2.00mm" H 28700 3100 50  0001 C CNN
F 3 "~" H 28700 3100 50  0001 C CNN
	1    28700 3100
	-1   0    0    -1  
$EndComp
Wire Wire Line
	28900 3000 28900 2950
Wire Wire Line
	28900 2950 28700 2950
Wire Wire Line
	28700 2950 28700 3000
Connection ~ 28900 2950
Wire Wire Line
	28900 3200 28900 3250
Wire Wire Line
	28900 3250 28700 3250
Wire Wire Line
	28700 3250 28700 3200
Text Label 28650 3250 2    50   ~ 0
T_GND
Wire Wire Line
	28650 3250 28700 3250
Connection ~ 28700 3250
Wire Wire Line
	29550 5500 28950 5500
$Comp
L Device:C_Small C16
U 1 1 5C7FDDC5
P 28950 5650
F 0 "C16" H 29042 5696 50  0000 L CNN
F 1 "C_Small" H 29042 5605 50  0000 L CNN
F 2 "Capacitor_THT:C_Disc_D3.0mm_W2.0mm_P2.50mm" H 28950 5650 50  0001 C CNN
F 3 "~" H 28950 5650 50  0001 C CNN
	1    28950 5650
	-1   0    0    -1  
$EndComp
$Comp
L Device:CP_Small C15
U 1 1 5C7FDDCC
P 28750 5650
F 0 "C15" H 28838 5696 50  0000 L CNN
F 1 "CP_Small" H 28838 5605 50  0000 L CNN
F 2 "Capacitor_THT:CP_Radial_D5.0mm_P2.00mm" H 28750 5650 50  0001 C CNN
F 3 "~" H 28750 5650 50  0001 C CNN
	1    28750 5650
	-1   0    0    -1  
$EndComp
Wire Wire Line
	28950 5550 28950 5500
Wire Wire Line
	28950 5500 28750 5500
Wire Wire Line
	28750 5500 28750 5550
Connection ~ 28950 5500
Wire Wire Line
	28950 5750 28950 5800
Wire Wire Line
	28950 5800 28750 5800
Wire Wire Line
	28750 5800 28750 5750
Text Label 28700 5800 2    50   ~ 0
T_GND
Wire Wire Line
	28700 5800 28750 5800
Connection ~ 28750 5800
Wire Wire Line
	23200 5500 23800 5500
$Comp
L Device:C_Small C13
U 1 1 5C7FDDDE
P 23800 5650
F 0 "C13" H 23892 5696 50  0000 L CNN
F 1 "C_Small" H 23892 5605 50  0000 L CNN
F 2 "Capacitor_THT:C_Disc_D3.0mm_W2.0mm_P2.50mm" H 23800 5650 50  0001 C CNN
F 3 "~" H 23800 5650 50  0001 C CNN
	1    23800 5650
	1    0    0    -1  
$EndComp
$Comp
L Device:CP_Small C14
U 1 1 5C7FDDE5
P 24000 5650
F 0 "C14" H 24088 5696 50  0000 L CNN
F 1 "CP_Small" H 24088 5605 50  0000 L CNN
F 2 "Capacitor_THT:CP_Radial_D5.0mm_P2.00mm" H 24000 5650 50  0001 C CNN
F 3 "~" H 24000 5650 50  0001 C CNN
	1    24000 5650
	1    0    0    -1  
$EndComp
Wire Wire Line
	23800 5550 23800 5500
Wire Wire Line
	23800 5500 24000 5500
Wire Wire Line
	24000 5500 24000 5550
Connection ~ 23800 5500
Wire Wire Line
	23800 5750 23800 5800
Wire Wire Line
	23800 5800 24000 5800
Wire Wire Line
	24000 5800 24000 5750
Text Label 24050 5800 0    50   ~ 0
T_GND
Wire Wire Line
	24050 5800 24000 5800
Connection ~ 24000 5800
Wire Wire Line
	23550 10400 23550 10450
Text Label 28900 7700 2    50   ~ 0
T_3V3
Text Label 28900 10400 2    50   ~ 0
T_3V3
Wire Wire Line
	28900 10400 28900 10450
Wire Wire Line
	23550 10450 24150 10450
$Comp
L Device:C_Small C25
U 1 1 5C7FDDFB
P 24150 10600
F 0 "C25" H 24242 10646 50  0000 L CNN
F 1 "C_Small" H 24242 10555 50  0000 L CNN
F 2 "Capacitor_THT:C_Disc_D3.0mm_W2.0mm_P2.50mm" H 24150 10600 50  0001 C CNN
F 3 "~" H 24150 10600 50  0001 C CNN
	1    24150 10600
	1    0    0    -1  
$EndComp
$Comp
L Device:CP_Small C26
U 1 1 5C7FDE02
P 24350 10600
F 0 "C26" H 24438 10646 50  0000 L CNN
F 1 "CP_Small" H 24438 10555 50  0000 L CNN
F 2 "Capacitor_THT:CP_Radial_D5.0mm_P2.00mm" H 24350 10600 50  0001 C CNN
F 3 "~" H 24350 10600 50  0001 C CNN
	1    24350 10600
	1    0    0    -1  
$EndComp
Wire Wire Line
	24150 10500 24150 10450
Wire Wire Line
	24150 10450 24350 10450
Wire Wire Line
	24350 10450 24350 10500
Connection ~ 24150 10450
Wire Wire Line
	24150 10700 24150 10750
Wire Wire Line
	24150 10750 24350 10750
Wire Wire Line
	24350 10750 24350 10700
Text Label 24400 10750 0    50   ~ 0
T_GND
Wire Wire Line
	24400 10750 24350 10750
Connection ~ 24350 10750
Connection ~ 23550 10450
Wire Wire Line
	23550 10450 23550 10650
Wire Wire Line
	28900 7700 28900 7750
Wire Wire Line
	28900 7750 28300 7750
$Comp
L Device:C_Small C20
U 1 1 5C7FDE17
P 28300 7900
F 0 "C20" H 28392 7946 50  0000 L CNN
F 1 "C_Small" H 28392 7855 50  0000 L CNN
F 2 "Capacitor_THT:C_Disc_D3.0mm_W2.0mm_P2.50mm" H 28300 7900 50  0001 C CNN
F 3 "~" H 28300 7900 50  0001 C CNN
	1    28300 7900
	-1   0    0    -1  
$EndComp
$Comp
L Device:CP_Small C19
U 1 1 5C7FDE1E
P 28100 7900
F 0 "C19" H 28188 7946 50  0000 L CNN
F 1 "CP_Small" H 28188 7855 50  0000 L CNN
F 2 "Capacitor_THT:CP_Radial_D5.0mm_P2.00mm" H 28100 7900 50  0001 C CNN
F 3 "~" H 28100 7900 50  0001 C CNN
	1    28100 7900
	-1   0    0    -1  
$EndComp
Wire Wire Line
	28300 7800 28300 7750
Wire Wire Line
	28300 7750 28100 7750
Wire Wire Line
	28100 7750 28100 7800
Connection ~ 28300 7750
Wire Wire Line
	28300 8000 28300 8050
Wire Wire Line
	28300 8050 28100 8050
Wire Wire Line
	28100 8050 28100 8000
Text Label 28050 8050 2    50   ~ 0
T_GND
Wire Wire Line
	28050 8050 28100 8050
Connection ~ 28100 8050
Connection ~ 28900 7750
Wire Wire Line
	28900 7750 28900 7950
Wire Wire Line
	28900 10450 28300 10450
$Comp
L Device:C_Small C28
U 1 1 5C7FDE32
P 28300 10600
F 0 "C28" H 28392 10646 50  0000 L CNN
F 1 "C_Small" H 28392 10555 50  0000 L CNN
F 2 "Capacitor_THT:C_Disc_D3.0mm_W2.0mm_P2.50mm" H 28300 10600 50  0001 C CNN
F 3 "~" H 28300 10600 50  0001 C CNN
	1    28300 10600
	-1   0    0    -1  
$EndComp
$Comp
L Device:CP_Small C27
U 1 1 5C7FDE39
P 28100 10600
F 0 "C27" H 28188 10646 50  0000 L CNN
F 1 "CP_Small" H 28188 10555 50  0000 L CNN
F 2 "Capacitor_THT:CP_Radial_D5.0mm_P2.00mm" H 28100 10600 50  0001 C CNN
F 3 "~" H 28100 10600 50  0001 C CNN
	1    28100 10600
	-1   0    0    -1  
$EndComp
Wire Wire Line
	28300 10500 28300 10450
Wire Wire Line
	28300 10450 28100 10450
Wire Wire Line
	28100 10450 28100 10500
Connection ~ 28300 10450
Wire Wire Line
	28300 10700 28300 10750
Wire Wire Line
	28300 10750 28100 10750
Wire Wire Line
	28100 10750 28100 10700
Text Label 28050 10750 2    50   ~ 0
T_GND
Wire Wire Line
	28050 10750 28100 10750
Connection ~ 28100 10750
Connection ~ 28900 10450
Wire Wire Line
	28900 10450 28900 10650
Text Label 22400 6950 2    50   ~ 0
LED_CS
Text Label 30350 6950 0    50   ~ 0
LED_CS
Text Label 30300 4400 0    50   ~ 0
LED_CS
Text Label 29000 4200 2    50   ~ 0
LED1_OUT
Text Label 29050 6750 2    50   ~ 0
LED2_OUT
Wire Wire Line
	27700 4900 30700 4900
Wire Wire Line
	30700 4900 30700 6500
Wire Wire Line
	30700 6500 30350 6500
Wire Wire Line
	30350 6600 30750 6600
Wire Wire Line
	30750 6600 30750 4850
Wire Wire Line
	30750 4850 27650 4850
Wire Wire Line
	30300 3950 30650 3950
Wire Wire Line
	30650 3950 30650 2350
Wire Wire Line
	30650 2350 26900 2350
Wire Wire Line
	26850 2300 30700 2300
Wire Wire Line
	30700 2300 30700 4050
Wire Wire Line
	30700 4050 30300 4050
Wire Wire Line
	22050 4900 22050 6500
Wire Wire Line
	22050 6500 22400 6500
Wire Wire Line
	22000 4850 22000 6600
Wire Wire Line
	22000 6600 22400 6600
$Comp
L Connector_Generic:Conn_02x32_Odd_Even J6
U 1 1 5C7FDE64
P 26300 5000
F 0 "J6" H 26350 6717 50  0000 C CNN
F 1 "Conn_02x32_Odd_Even" H 26350 6626 50  0000 C CNN
F 2 "Connector_PinHeader_2.54mm:PinHeader_2x32_P2.54mm_Vertical" H 26300 5000 50  0001 C CNN
F 3 "~" H 26300 5000 50  0001 C CNN
	1    26300 5000
	1    0    0    -1  
$EndComp
$Comp
L Connector_Generic:Conn_02x32_Odd_Even J11
U 1 1 5C7FDE6B
P 26150 10950
F 0 "J11" H 26200 12667 50  0000 C CNN
F 1 "Conn_02x32_Odd_Even" H 26200 12576 50  0000 C CNN
F 2 "Connector_PinHeader_2.54mm:PinHeader_2x32_P2.54mm_Vertical" H 26150 10950 50  0001 C CNN
F 3 "~" H 26150 10950 50  0001 C CNN
	1    26150 10950
	1    0    0    -1  
$EndComp
Wire Wire Line
	29050 6600 26600 6600
Wire Wire Line
	26600 6500 29050 6500
Wire Wire Line
	29050 6400 26600 6400
Wire Wire Line
	26600 6300 29050 6300
Wire Wire Line
	29050 6200 26600 6200
Wire Wire Line
	26600 6100 29050 6100
Wire Wire Line
	29050 6000 26600 6000
Wire Wire Line
	26600 5900 29050 5900
Wire Wire Line
	28000 5200 28000 5800
Wire Wire Line
	28000 5800 26600 5800
Wire Wire Line
	27950 5150 27950 5700
Wire Wire Line
	27950 5700 26600 5700
Wire Wire Line
	26600 5600 27900 5600
Wire Wire Line
	27900 5600 27900 5100
Wire Wire Line
	27850 5050 27850 5500
Wire Wire Line
	27850 5500 26600 5500
Wire Wire Line
	27800 5000 30600 5000
Wire Wire Line
	27800 5000 27800 5400
Wire Wire Line
	27800 5400 26600 5400
Wire Wire Line
	27750 4950 27750 5300
Wire Wire Line
	27750 5300 26600 5300
Wire Wire Line
	27700 4900 27700 5200
Wire Wire Line
	27700 5200 26600 5200
Wire Wire Line
	27650 4850 27650 5100
Wire Wire Line
	27650 5100 26600 5100
Wire Wire Line
	26600 5000 27600 5000
Wire Wire Line
	27600 5000 27600 4050
Wire Wire Line
	27600 4050 29000 4050
Wire Wire Line
	29000 3950 27550 3950
Wire Wire Line
	27550 3950 27550 4900
Wire Wire Line
	27550 4900 26600 4900
Wire Wire Line
	26600 4800 27500 4800
Wire Wire Line
	27500 4800 27500 3850
Wire Wire Line
	27500 3850 29000 3850
Wire Wire Line
	29000 3750 27450 3750
Wire Wire Line
	27450 3750 27450 4700
Wire Wire Line
	27450 4700 26600 4700
Wire Wire Line
	26600 4600 27400 4600
Wire Wire Line
	27400 4600 27400 3650
Wire Wire Line
	27400 3650 29000 3650
Wire Wire Line
	29000 3550 27350 3550
Wire Wire Line
	27350 3550 27350 4500
Wire Wire Line
	27350 4500 26600 4500
Wire Wire Line
	26600 4400 27300 4400
Wire Wire Line
	27300 4400 27300 3450
Wire Wire Line
	27300 3450 29000 3450
Wire Wire Line
	29000 3350 27250 3350
Wire Wire Line
	27250 3350 27250 4300
Wire Wire Line
	27250 4300 26600 4300
Wire Wire Line
	27200 2650 27200 4200
Wire Wire Line
	27200 4200 26600 4200
Wire Wire Line
	27200 2650 30350 2650
Wire Wire Line
	27150 2600 27150 4100
Wire Wire Line
	27150 4100 26600 4100
Wire Wire Line
	27150 2600 30400 2600
Wire Wire Line
	26600 4000 27100 4000
Wire Wire Line
	27100 4000 27100 2550
Wire Wire Line
	27100 2550 30450 2550
Wire Wire Line
	27050 2500 27050 3900
Wire Wire Line
	27050 3900 26600 3900
Wire Wire Line
	27050 2500 30500 2500
Wire Wire Line
	26600 3800 27000 3800
Wire Wire Line
	27000 3800 27000 2450
Wire Wire Line
	27000 2450 30550 2450
Wire Wire Line
	26950 2400 26950 3700
Wire Wire Line
	26950 3700 26600 3700
Wire Wire Line
	26950 2400 30600 2400
Wire Wire Line
	26900 2350 26900 3600
Wire Wire Line
	26900 3600 26600 3600
Wire Wire Line
	26600 3500 26850 3500
Wire Wire Line
	26850 3500 26850 2300
Wire Wire Line
	23700 6600 26100 6600
Wire Wire Line
	26100 6500 23700 6500
Wire Wire Line
	23700 6400 26100 6400
Wire Wire Line
	26100 6300 23700 6300
Wire Wire Line
	23700 6200 26100 6200
Wire Wire Line
	26100 6100 23700 6100
Wire Wire Line
	23700 6000 26100 6000
Wire Wire Line
	26100 5900 23700 5900
Wire Wire Line
	24700 5200 24700 5800
Wire Wire Line
	24700 5800 26100 5800
Wire Wire Line
	26100 5700 24750 5700
Wire Wire Line
	24750 5700 24750 5150
Wire Wire Line
	24800 5100 24800 5600
Wire Wire Line
	24800 5600 26100 5600
Wire Wire Line
	26100 5500 24850 5500
Wire Wire Line
	24850 5500 24850 5050
Wire Wire Line
	24850 5050 22200 5050
Wire Wire Line
	26100 5400 24900 5400
Wire Wire Line
	24900 5400 24900 5000
Wire Wire Line
	24900 5000 22150 5000
Wire Wire Line
	24950 4950 24950 5300
Wire Wire Line
	24950 5300 26100 5300
Wire Wire Line
	24950 4950 22100 4950
Wire Wire Line
	26100 5200 25000 5200
Wire Wire Line
	25000 5200 25000 4900
Wire Wire Line
	25000 4900 22050 4900
Wire Wire Line
	25050 4850 25050 5100
Wire Wire Line
	25050 5100 26100 5100
Wire Wire Line
	25050 4850 22000 4850
Wire Wire Line
	28200 12550 26450 12550
Wire Wire Line
	26450 12450 28200 12450
Wire Wire Line
	28200 12350 26450 12350
Wire Wire Line
	26450 12250 28200 12250
Wire Wire Line
	28200 12150 26450 12150
Wire Wire Line
	28200 12050 26450 12050
Wire Wire Line
	26450 11950 28200 11950
Wire Wire Line
	28200 11850 26450 11850
Wire Wire Line
	26450 11750 27950 11750
Wire Wire Line
	27950 11750 27950 11650
Wire Wire Line
	27950 11650 28200 11650
Wire Wire Line
	28200 11550 27900 11550
Wire Wire Line
	27900 11550 27900 11650
Wire Wire Line
	27900 11650 26450 11650
Wire Wire Line
	28200 11450 27850 11450
Wire Wire Line
	27850 11450 27850 11550
Wire Wire Line
	27850 11550 26450 11550
Wire Wire Line
	26450 11450 27800 11450
Wire Wire Line
	27800 11450 27800 11350
Wire Wire Line
	27800 11350 28200 11350
Wire Wire Line
	28200 11250 27750 11250
Wire Wire Line
	27750 11250 27750 11350
Wire Wire Line
	27750 11350 26450 11350
Wire Wire Line
	26450 11250 27700 11250
Wire Wire Line
	27700 11250 27700 11150
Wire Wire Line
	27700 11150 28200 11150
Wire Wire Line
	28200 11050 27650 11050
Wire Wire Line
	27650 11050 27650 11150
Wire Wire Line
	27650 11150 26450 11150
Wire Wire Line
	26450 11050 27600 11050
Wire Wire Line
	27600 11050 27600 10950
Wire Wire Line
	27600 10950 28200 10950
Wire Wire Line
	28200 9850 27550 9850
Wire Wire Line
	27550 9850 27550 10950
Wire Wire Line
	27550 10950 26450 10950
Wire Wire Line
	26450 10850 27500 10850
Wire Wire Line
	27500 10850 27500 9750
Wire Wire Line
	27500 9750 28200 9750
Wire Wire Line
	28200 9650 27450 9650
Wire Wire Line
	27450 9650 27450 10750
Wire Wire Line
	27450 10750 26450 10750
Wire Wire Line
	26450 10650 27400 10650
Wire Wire Line
	27400 10650 27400 9550
Wire Wire Line
	27400 9550 28200 9550
Wire Wire Line
	28200 9450 27350 9450
Wire Wire Line
	27350 9450 27350 10550
Wire Wire Line
	27350 10550 26450 10550
Wire Wire Line
	26450 10450 27300 10450
Wire Wire Line
	27300 10450 27300 9350
Wire Wire Line
	27300 9350 28200 9350
Wire Wire Line
	28200 9250 27250 9250
Wire Wire Line
	27250 9250 27250 10350
Wire Wire Line
	27250 10350 26450 10350
Wire Wire Line
	26450 10250 27200 10250
Wire Wire Line
	27200 10250 27200 9150
Wire Wire Line
	27200 9150 28200 9150
Wire Wire Line
	28200 8950 27150 8950
Wire Wire Line
	27150 8950 27150 10150
Wire Wire Line
	27150 10150 26450 10150
Wire Wire Line
	26450 10050 27100 10050
Wire Wire Line
	27100 10050 27100 8850
Wire Wire Line
	27100 8850 28200 8850
Wire Wire Line
	28200 8750 27050 8750
Wire Wire Line
	27050 8750 27050 9950
Wire Wire Line
	27050 9950 26450 9950
Wire Wire Line
	26450 9850 27000 9850
Wire Wire Line
	27000 9850 27000 8650
Wire Wire Line
	27000 8650 28200 8650
Wire Wire Line
	28200 8550 26950 8550
Wire Wire Line
	26950 8550 26950 9750
Wire Wire Line
	26950 9750 26450 9750
Wire Wire Line
	26450 9650 26900 9650
Wire Wire Line
	26900 9650 26900 8450
Wire Wire Line
	26900 8450 28200 8450
Wire Wire Line
	28200 8350 26850 8350
Wire Wire Line
	26850 8350 26850 9550
Wire Wire Line
	26850 9550 26450 9550
Wire Wire Line
	28200 8250 26800 8250
Wire Wire Line
	26800 8250 26800 9450
Wire Wire Line
	26800 9450 26450 9450
Wire Wire Line
	24250 12550 25950 12550
Wire Wire Line
	25950 12450 24250 12450
Wire Wire Line
	24250 12350 25950 12350
Wire Wire Line
	25950 12250 24250 12250
Wire Wire Line
	24250 12150 25950 12150
Wire Wire Line
	24250 12050 25950 12050
Wire Wire Line
	25950 11950 24250 11950
Wire Wire Line
	24250 11850 25950 11850
Wire Wire Line
	25950 11750 24600 11750
Wire Wire Line
	24600 11750 24600 11650
Wire Wire Line
	24600 11650 24250 11650
Wire Wire Line
	25950 11650 24650 11650
Wire Wire Line
	24650 11650 24650 11550
Wire Wire Line
	24650 11550 24250 11550
Wire Wire Line
	24250 11450 24700 11450
Wire Wire Line
	24700 11450 24700 11550
Wire Wire Line
	24700 11550 25950 11550
Wire Wire Line
	25950 11450 24750 11450
Wire Wire Line
	24750 11450 24750 11350
Wire Wire Line
	24750 11350 24250 11350
Wire Wire Line
	24250 11250 24800 11250
Wire Wire Line
	24800 11250 24800 11350
Wire Wire Line
	24800 11350 25950 11350
Wire Wire Line
	25950 11250 24850 11250
Wire Wire Line
	24850 11250 24850 11150
Wire Wire Line
	24850 11150 24250 11150
Wire Wire Line
	24250 11050 24900 11050
Wire Wire Line
	24900 11050 24900 11150
Wire Wire Line
	24900 11150 25950 11150
Wire Wire Line
	25950 11050 24950 11050
Wire Wire Line
	24950 11050 24950 10950
Text Label 22400 4300 2    50   ~ 0
LED_CLK
Wire Wire Line
	23200 2950 23200 3050
Wire Wire Line
	23100 2950 23200 2950
Wire Wire Line
	22800 2950 22900 2950
Wire Wire Line
	22100 3850 22100 2400
Wire Wire Line
	22400 3850 22100 3850
Wire Wire Line
	22150 3750 22400 3750
Wire Wire Line
	22150 2450 22150 3750
Wire Wire Line
	22200 3650 22200 2500
Wire Wire Line
	22400 3650 22200 3650
Wire Wire Line
	22250 3550 22250 2550
Wire Wire Line
	22400 3550 22250 3550
Wire Wire Line
	22300 3450 22300 2600
Wire Wire Line
	22400 3450 22300 3450
Wire Wire Line
	22350 3350 22350 2650
Wire Wire Line
	22400 3350 22350 3350
Connection ~ 23200 2950
Wire Wire Line
	23200 2850 23200 2950
Text Label 23100 4600 2    50   ~ 0
T_GND
Wire Wire Line
	23300 4600 23300 4550
Wire Wire Line
	23200 4600 23100 4600
Wire Wire Line
	23200 4600 23300 4600
Connection ~ 23200 4600
Wire Wire Line
	23200 4550 23200 4600
$Comp
L chordboard-components:R R1
U 1 1 5C6A3603
P 23000 2950
F 0 "R1" V 22804 2950 50  0000 C CNN
F 1 "R" V 22895 2950 50  0000 C CNN
F 2 "Resistor_THT:R_Axial_DIN0204_L3.6mm_D1.6mm_P5.08mm_Horizontal" H 23000 2950 50  0001 C CNN
F 3 "" H 23000 2950 50  0001 C CNN
	1    23000 2950
	0    1    1    0   
$EndComp
Wire Wire Line
	22800 3050 22800 2950
Text Label 23200 2850 0    50   ~ 0
T_5V
$Comp
L chordboard-components:MAX7219 MAX1
U 1 1 5C6A360B
P 22500 4450
F 0 "MAX1" H 22500 4350 60  0000 C CNN
F 1 "MAX7219" H 23050 5100 60  0000 C CNN
F 2 "Package_DIP:DIP-24_W7.62mm" H 22500 4250 40  0001 L CIN
F 3 "https://datasheets.maximintegrated.com/en/ds/MAX7219-MAX7221.pdf" H 22500 4150 40  0001 L CIN
	1    22500 4450
	1    0    0    -1  
$EndComp
Wire Wire Line
	23200 2950 23800 2950
$Comp
L Device:C_Small C1
U 1 1 5C6A3612
P 23800 3100
F 0 "C1" H 23892 3146 50  0000 L CNN
F 1 "C_Small" H 23892 3055 50  0000 L CNN
F 2 "Capacitor_THT:C_Disc_D3.0mm_W2.0mm_P2.50mm" H 23800 3100 50  0001 C CNN
F 3 "~" H 23800 3100 50  0001 C CNN
	1    23800 3100
	1    0    0    -1  
$EndComp
$Comp
L Device:CP_Small C2
U 1 1 5C6A3618
P 24000 3100
F 0 "C2" H 24088 3146 50  0000 L CNN
F 1 "CP_Small" H 24088 3055 50  0000 L CNN
F 2 "Capacitor_THT:CP_Radial_D5.0mm_P2.00mm" H 24000 3100 50  0001 C CNN
F 3 "~" H 24000 3100 50  0001 C CNN
	1    24000 3100
	1    0    0    -1  
$EndComp
Wire Wire Line
	23800 3000 23800 2950
Wire Wire Line
	23800 2950 24000 2950
Wire Wire Line
	24000 2950 24000 3000
Connection ~ 23800 2950
Wire Wire Line
	23800 3200 23800 3250
Wire Wire Line
	23800 3250 24000 3250
Wire Wire Line
	24000 3250 24000 3200
Text Label 24050 3250 0    50   ~ 0
T_GND
Wire Wire Line
	24050 3250 24000 3250
Connection ~ 24000 3250
Text Label 22400 4400 2    50   ~ 0
LED_CS
Text Label 23700 4200 0    50   ~ 0
LED3_OUT
Wire Wire Line
	22400 3950 22050 3950
Wire Wire Line
	22050 3950 22050 2350
Wire Wire Line
	22050 2350 25800 2350
Wire Wire Line
	25850 2300 22000 2300
Wire Wire Line
	22000 2300 22000 4050
Wire Wire Line
	22000 4050 22400 4050
Wire Wire Line
	26100 5000 25100 5000
Wire Wire Line
	25100 5000 25100 4050
Wire Wire Line
	25100 4050 23700 4050
Wire Wire Line
	23700 3950 25150 3950
Wire Wire Line
	25150 3950 25150 4900
Wire Wire Line
	25150 4900 26100 4900
Wire Wire Line
	26100 4800 25200 4800
Wire Wire Line
	25200 4800 25200 3850
Wire Wire Line
	25200 3850 23700 3850
Wire Wire Line
	23700 3750 25250 3750
Wire Wire Line
	25250 3750 25250 4700
Wire Wire Line
	25250 4700 26100 4700
Wire Wire Line
	26100 4600 25300 4600
Wire Wire Line
	25300 4600 25300 3650
Wire Wire Line
	25300 3650 23700 3650
Wire Wire Line
	23700 3550 25350 3550
Wire Wire Line
	25350 3550 25350 4500
Wire Wire Line
	25350 4500 26100 4500
Wire Wire Line
	26100 4400 25400 4400
Wire Wire Line
	25400 4400 25400 3450
Wire Wire Line
	25400 3450 23700 3450
Wire Wire Line
	23700 3350 25450 3350
Wire Wire Line
	25450 3350 25450 4300
Wire Wire Line
	25450 4300 26100 4300
Wire Wire Line
	25500 2650 25500 4200
Wire Wire Line
	25500 4200 26100 4200
Wire Wire Line
	25500 2650 22350 2650
Wire Wire Line
	25550 2600 25550 4100
Wire Wire Line
	25550 4100 26100 4100
Wire Wire Line
	25550 2600 22300 2600
Wire Wire Line
	26100 4000 25600 4000
Wire Wire Line
	25600 4000 25600 2550
Wire Wire Line
	25600 2550 22250 2550
Wire Wire Line
	25650 2500 25650 3900
Wire Wire Line
	25650 3900 26100 3900
Wire Wire Line
	25650 2500 22200 2500
Wire Wire Line
	26100 3800 25700 3800
Wire Wire Line
	25700 3800 25700 2450
Wire Wire Line
	25700 2450 22150 2450
Wire Wire Line
	25750 2400 25750 3700
Wire Wire Line
	25750 3700 26100 3700
Wire Wire Line
	25750 2400 22100 2400
Wire Wire Line
	25800 2350 25800 3600
Wire Wire Line
	25800 3600 26100 3600
Wire Wire Line
	26100 3500 25850 3500
Wire Wire Line
	25850 3500 25850 2300
$Comp
L Interface_Expansion:MCP23017_SP MCP1
U 1 1 5C833E10
P 23500 9050
F 0 "MCP1" H 23500 10328 50  0000 C CNN
F 1 "MCP23017_SP" H 23500 10237 50  0000 C CNN
F 2 "Package_DIP:DIP-28_W7.62mm" H 23700 8050 50  0001 L CNN
F 3 "http://ww1.microchip.com/downloads/en/DeviceDoc/20001952C.pdf" H 23700 7950 50  0001 L CNN
	1    23500 9050
	1    0    0    -1  
$EndComp
Text Label 22800 8350 2    50   ~ 0
T_SCL
Text Label 22800 8250 2    50   ~ 0
T_SDA
Text Label 23500 7950 0    50   ~ 0
T_3V3
Text Label 23500 10150 0    50   ~ 0
T_GND
Text Label 22800 9150 2    50   ~ 0
T_3V3
Text Label 23500 7700 0    50   ~ 0
T_3V3
Wire Wire Line
	23500 7700 23500 7750
Wire Wire Line
	23500 7750 24100 7750
$Comp
L Device:C_Small C17
U 1 1 5C833E1E
P 24100 7900
F 0 "C17" H 24192 7946 50  0000 L CNN
F 1 "C_Small" H 24192 7855 50  0000 L CNN
F 2 "Capacitor_THT:C_Disc_D3.0mm_W2.0mm_P2.50mm" H 24100 7900 50  0001 C CNN
F 3 "~" H 24100 7900 50  0001 C CNN
	1    24100 7900
	1    0    0    -1  
$EndComp
$Comp
L Device:CP_Small C18
U 1 1 5C833E24
P 24300 7900
F 0 "C18" H 24388 7946 50  0000 L CNN
F 1 "CP_Small" H 24388 7855 50  0000 L CNN
F 2 "Capacitor_THT:CP_Radial_D5.0mm_P2.00mm" H 24300 7900 50  0001 C CNN
F 3 "~" H 24300 7900 50  0001 C CNN
	1    24300 7900
	1    0    0    -1  
$EndComp
Wire Wire Line
	24100 7800 24100 7750
Wire Wire Line
	24100 7750 24300 7750
Wire Wire Line
	24300 7750 24300 7800
Connection ~ 24100 7750
Wire Wire Line
	24100 8000 24100 8050
Wire Wire Line
	24100 8050 24300 8050
Wire Wire Line
	24300 8050 24300 8000
Text Label 24350 8050 0    50   ~ 0
T_GND
Wire Wire Line
	24350 8050 24300 8050
Connection ~ 24300 8050
Connection ~ 23500 7750
Wire Wire Line
	23500 7750 23500 7950
Wire Wire Line
	24200 9850 24850 9850
Wire Wire Line
	24900 10850 24900 9750
Wire Wire Line
	24900 9750 24200 9750
Wire Wire Line
	24200 9650 24950 9650
Wire Wire Line
	24950 9650 24950 10750
Wire Wire Line
	25000 10650 25000 9550
Wire Wire Line
	25000 9550 24200 9550
Wire Wire Line
	24200 9450 25050 9450
Wire Wire Line
	25050 9450 25050 10550
Wire Wire Line
	25100 10450 25100 9350
Wire Wire Line
	25100 9350 24200 9350
Wire Wire Line
	24200 9250 25150 9250
Wire Wire Line
	25150 9250 25150 10350
Wire Wire Line
	25950 10250 25200 10250
Wire Wire Line
	25200 10250 25200 9150
Wire Wire Line
	25200 9150 24200 9150
Wire Wire Line
	24200 8950 25250 8950
Wire Wire Line
	25250 8950 25250 10150
Wire Wire Line
	25250 10150 25950 10150
Wire Wire Line
	25950 10050 25300 10050
Wire Wire Line
	25300 10050 25300 8850
Wire Wire Line
	25300 8850 24200 8850
Wire Wire Line
	24200 8750 25350 8750
Wire Wire Line
	25350 8750 25350 9950
Wire Wire Line
	25350 9950 25950 9950
Wire Wire Line
	25950 9850 25400 9850
Wire Wire Line
	25400 9850 25400 8650
Wire Wire Line
	25400 8650 24200 8650
Wire Wire Line
	24200 8550 25450 8550
Wire Wire Line
	25450 8550 25450 9750
Wire Wire Line
	25450 9750 25950 9750
Wire Wire Line
	25950 9650 25500 9650
Wire Wire Line
	25500 9650 25500 8450
Wire Wire Line
	25500 8450 24200 8450
Wire Wire Line
	24200 8350 25550 8350
Wire Wire Line
	25550 8350 25550 9550
Wire Wire Line
	25550 9550 25950 9550
Wire Wire Line
	24200 8250 25600 8250
Wire Wire Line
	25600 8250 25600 9450
Wire Wire Line
	25600 9450 25950 9450
Wire Wire Line
	24900 10850 25950 10850
Wire Wire Line
	24250 10950 24950 10950
Wire Wire Line
	24850 9850 24850 10900
Wire Wire Line
	24850 10900 25800 10900
Wire Wire Line
	25800 10900 25800 10950
Wire Wire Line
	25800 10950 25950 10950
Wire Wire Line
	24950 10750 25950 10750
Wire Wire Line
	25950 10650 25000 10650
Wire Wire Line
	25050 10550 25950 10550
Wire Wire Line
	25100 10450 25950 10450
Wire Wire Line
	25950 10350 25150 10350
$Comp
L Connector_Generic:Conn_01x02 J9
U 1 1 5CB4E30A
P 22200 7250
F 0 "J9" H 22280 7242 50  0000 L CNN
F 1 "Conn_01x02" H 22280 7151 50  0000 L CNN
F 2 "Connector_PinHeader_2.54mm:PinHeader_1x02_P2.54mm_Vertical" H 22200 7250 50  0001 C CNN
F 3 "~" H 22200 7250 50  0001 C CNN
	1    22200 7250
	1    0    0    -1  
$EndComp
Text Label 22000 7350 2    50   ~ 0
T_GND
Text Label 22000 7250 2    50   ~ 0
T_GND
Text Label 22850 11550 2    50   ~ 0
T_ROTARY_INTA
Text Label 22850 11650 2    50   ~ 0
T_ROTARY_INTB
Text Label 29600 9650 0    50   ~ 0
T_GND
Text Label 29600 9750 0    50   ~ 0
T_GND
Text Label 29600 9850 0    50   ~ 0
T_GND
Text Label 29600 12350 0    50   ~ 0
T_GND
Text Label 29600 12450 0    50   ~ 0
T_GND
Text Label 29600 12550 0    50   ~ 0
T_3V3
Text Label 22800 9650 2    50   ~ 0
T_GND
Text Label 22800 9850 2    50   ~ 0
T_GND
Text Label 22800 9750 2    50   ~ 0
T_3V3
Text Label 22850 12450 2    50   ~ 0
T_GND
Text Label 22850 12550 2    50   ~ 0
T_GND
Text Label 22850 12350 2    50   ~ 0
T_3V3
$Comp
L Regulator_Linear:AZ1117-3.3 U1
U 1 1 5C502FAF
P 17550 8550
F 0 "U1" H 17550 8792 50  0000 C CNN
F 1 "AZ1117-3.3" H 17550 8701 50  0000 C CNN
F 2 "Package_TO_SOT_THT:TO-220-3_Vertical" H 17550 8800 50  0001 C CIN
F 3 "https://www.diodes.com/assets/Datasheets/AZ1117.pdf" H 17550 8550 50  0001 C CNN
	1    17550 8550
	1    0    0    -1  
$EndComp
$Comp
L Device:CP_Small C24
U 1 1 5C5037C7
P 17900 9000
F 0 "C24" H 17988 9046 50  0000 L CNN
F 1 "100uF" H 17988 8955 50  0000 L CNN
F 2 "Capacitor_THT:CP_Radial_D5.0mm_P2.00mm" H 17900 9000 50  0001 C CNN
F 3 "~" H 17900 9000 50  0001 C CNN
	1    17900 9000
	1    0    0    -1  
$EndComp
$Comp
L Device:CP_Small C23
U 1 1 5C503C81
P 17200 9000
F 0 "C23" H 17288 9046 50  0000 L CNN
F 1 "10uF" H 17288 8955 50  0000 L CNN
F 2 "Capacitor_THT:CP_Radial_D5.0mm_P2.00mm" H 17200 9000 50  0001 C CNN
F 3 "~" H 17200 9000 50  0001 C CNN
	1    17200 9000
	1    0    0    -1  
$EndComp
Wire Wire Line
	17250 8550 17200 8550
Wire Wire Line
	17200 8550 17200 8900
Wire Wire Line
	17850 8550 17900 8550
Wire Wire Line
	17900 8550 17900 8900
Wire Wire Line
	17550 8850 17550 9200
Wire Wire Line
	17550 9200 17200 9200
Wire Wire Line
	17200 9200 17200 9100
Wire Wire Line
	17550 9200 17900 9200
Wire Wire Line
	17900 9200 17900 9100
Connection ~ 17550 9200
Wire Wire Line
	17200 8550 17200 8400
Connection ~ 17200 8550
$Comp
L power:+5V #PWR0101
U 1 1 5C701095
P 17200 8250
F 0 "#PWR0101" H 17200 8100 50  0001 C CNN
F 1 "+5V" H 17215 8423 50  0000 C CNN
F 2 "" H 17200 8250 50  0001 C CNN
F 3 "" H 17200 8250 50  0001 C CNN
	1    17200 8250
	1    0    0    -1  
$EndComp
Wire Wire Line
	17900 8550 17900 8400
Connection ~ 17900 8550
$Comp
L power:+3.3V #PWR0102
U 1 1 5C7688CC
P 17900 8250
F 0 "#PWR0102" H 17900 8100 50  0001 C CNN
F 1 "+3.3V" H 17915 8423 50  0000 C CNN
F 2 "" H 17900 8250 50  0001 C CNN
F 3 "" H 17900 8250 50  0001 C CNN
	1    17900 8250
	1    0    0    -1  
$EndComp
$Comp
L Connector:Screw_Terminal_01x02 J10
U 1 1 5C768C43
P 16300 9200
F 0 "J10" H 16220 9417 50  0000 C CNN
F 1 "++5V_IN" H 16220 9326 50  0000 C CNN
F 2 "TerminalBlock_Phoenix:TerminalBlock_Phoenix_MKDS-1,5-2_1x02_P5.00mm_Horizontal" H 16300 9200 50  0001 C CNN
F 3 "~" H 16300 9200 50  0001 C CNN
	1    16300 9200
	-1   0    0    -1  
$EndComp
Wire Wire Line
	17550 9200 17550 9300
$Comp
L power:GND #PWR0103
U 1 1 5C7D124C
P 17550 9350
F 0 "#PWR0103" H 17550 9100 50  0001 C CNN
F 1 "GND" H 17555 9177 50  0000 C CNN
F 2 "" H 17550 9350 50  0001 C CNN
F 3 "" H 17550 9350 50  0001 C CNN
	1    17550 9350
	1    0    0    -1  
$EndComp
Wire Wire Line
	17550 9300 18300 9300
Connection ~ 17550 9300
Wire Wire Line
	17550 9300 17550 9350
$Comp
L Jumper:Jumper_2_Bridged JP6
U 1 1 5C90A2E1
P 18500 9300
F 0 "JP6" H 18500 9495 50  0000 C CNN
F 1 "J_PWR_GND" H 18500 9404 50  0000 C CNN
F 2 "Jumper:SolderJumper-2_P1.3mm_Bridged2Bar_Pad1.0x1.5mm" H 18500 9300 50  0001 C CNN
F 3 "~" H 18500 9300 50  0001 C CNN
	1    18500 9300
	1    0    0    -1  
$EndComp
Wire Wire Line
	18700 9300 18950 9300
Wire Wire Line
	16500 9300 17550 9300
Text Label 18950 9300 0    50   ~ 0
T_GND
Wire Wire Line
	16500 9200 16700 9200
Wire Wire Line
	16700 9200 16700 8400
$Comp
L Device:D D1
U 1 1 5CA483E2
P 16850 8400
F 0 "D1" H 16850 8184 50  0000 C CNN
F 1 "D" H 16850 8275 50  0000 C CNN
F 2 "Diode_THT:D_DO-41_SOD81_P7.62mm_Horizontal" H 16850 8400 50  0001 C CNN
F 3 "~" H 16850 8400 50  0001 C CNN
	1    16850 8400
	-1   0    0    1   
$EndComp
Wire Wire Line
	17000 8400 17200 8400
Connection ~ 17200 8400
Wire Wire Line
	17200 8400 17200 8250
$Comp
L Jumper:Jumper_2_Bridged JP4
U 1 1 5CAB3550
P 18500 8400
F 0 "JP4" H 18500 8595 50  0000 C CNN
F 1 "J_PWR_3V3" H 18500 8504 50  0000 C CNN
F 2 "Jumper:SolderJumper-2_P1.3mm_Bridged2Bar_Pad1.0x1.5mm" H 18500 8400 50  0001 C CNN
F 3 "~" H 18500 8400 50  0001 C CNN
	1    18500 8400
	1    0    0    -1  
$EndComp
Wire Wire Line
	17900 8400 18300 8400
Connection ~ 17900 8400
Wire Wire Line
	17900 8400 17900 8250
Wire Wire Line
	18700 8400 18950 8400
Text Label 18950 8400 0    50   ~ 0
T_3V3
Text Label 30350 6750 0    50   ~ 0
LED1_OUT
Text Label 22400 6750 2    50   ~ 0
LED2_OUT
Text Label 23700 6750 0    50   ~ 0
LED4_OUT
Text Label 22400 4200 2    50   ~ 0
LED4_OUT
$EndSCHEMATC
