EESchema Schematic File Version 2
LIBS:chordboard-components
LIBS:power
LIBS:device
LIBS:transistors
LIBS:conn
LIBS:linear
LIBS:regul
LIBS:74xx
LIBS:cmos4000
LIBS:adc-dac
LIBS:memory
LIBS:xilinx
LIBS:microcontrollers
LIBS:dsp
LIBS:microchip
LIBS:analog_switches
LIBS:motorola
LIBS:texas
LIBS:intel
LIBS:audio
LIBS:interface
LIBS:digital-audio
LIBS:philips
LIBS:display
LIBS:cypress
LIBS:siliconi
LIBS:opto
LIBS:atmel
LIBS:contrib
LIBS:valves
LIBS:74xgxx
LIBS:ac-dc
LIBS:actel
LIBS:allegro
LIBS:Altera
LIBS:analog_devices
LIBS:battery_management
LIBS:bbd
LIBS:bosch
LIBS:brooktre
LIBS:cmos_ieee
LIBS:dc-dc
LIBS:diode
LIBS:elec-unifil
LIBS:ESD_Protection
LIBS:ftdi
LIBS:gennum
LIBS:graphic
LIBS:hc11
LIBS:ir
LIBS:Lattice
LIBS:leds
LIBS:logo
LIBS:maxim
LIBS:mechanical
LIBS:microchip_dspic33dsc
LIBS:microchip_pic10mcu
LIBS:microchip_pic12mcu
LIBS:microchip_pic16mcu
LIBS:microchip_pic18mcu
LIBS:microchip_pic24mcu
LIBS:microchip_pic32mcu
LIBS:modules
LIBS:motor_drivers
LIBS:motors
LIBS:msp430
LIBS:nordicsemi
LIBS:nxp
LIBS:nxp_armmcu
LIBS:onsemi
LIBS:Oscillators
LIBS:powerint
LIBS:Power_Management
LIBS:pspice
LIBS:references
LIBS:relays
LIBS:rfcom
LIBS:sensors
LIBS:silabs
LIBS:stm8
LIBS:stm32
LIBS:supertex
LIBS:switches
LIBS:transf
LIBS:triac_thyristor
LIBS:ttl_ieee
LIBS:video
LIBS:wiznet
LIBS:Worldsemi
LIBS:Xicor
LIBS:zetex
LIBS:Zilog
LIBS:74hct125d
LIBS:74hct245
LIBS:4000-ic
LIBS:7400-ic
LIBS:75176
LIBS:Abracon
LIBS:ABS07-32.768KHZ-T
LIBS:acorn_electron_expansion_connector
LIBS:ActiveSemi
LIBS:afshar
LIBS:akn_holtek
LIBS:akn_maxim
LIBS:akn_misc
LIBS:akn_transformers
LIBS:altera
LIBS:Amplifiers
LIBS:AMS
LIBS:analog-devices
LIBS:AnalogDevices
LIBS:analog-ic
LIBS:AOS
LIBS:arm-swd-header
LIBS:Atmel
LIBS:avr-mcu
LIBS:bluegiga
LIBS:Bosch
LIBS:Chipkit_Shield_Max32-cache
LIBS:Chipkit_Shield_uC-cache
LIBS:conn-2mm
LIBS:conn-100mil
LIBS:conn-amphenol
LIBS:conn-assmann
LIBS:conn-cui
LIBS:connector
LIBS:Connectors
LIBS:conn-fci
LIBS:conn-jae
LIBS:conn-linx
LIBS:conn_mics
LIBS:conn-molex
LIBS:conn-special-headers
LIBS:conn-tagconnect
LIBS:conn-te
LIBS:conn-test
LIBS:CubeSatKit_StackBoard-cache
LIBS:DataStorage
LIBS:diode-inc-ic
LIBS:Diodes
LIBS:DiodesInc
LIBS:EKB
LIBS:electomech-misc
LIBS:_electromech
LIBS:esp8266-esp-01
LIBS:esp8266-esp-03
LIBS:esp8266-esp-12e
LIBS:esp-12
LIBS:ESP32
LIBS:ESP8266
LIBS:eurocad
LIBS:Fairchild
LIBS:firethings-mini
LIBS:freescale-ic
LIBS:FTDI
LIBS:ftdi-ic
LIBS:hm-11
LIBS:Infineon
LIBS:Intersil
LIBS:iso15
LIBS:kbox
LIBS:kbox-cache
LIBS:KCDA02-123
LIBS:led
LIBS:_linear
LIBS:LinearTech
LIBS:Littelfuse
LIBS:_logic
LIBS:logic-4000
LIBS:logic-7400
LIBS:logic-7400-new
LIBS:LogicDevices
LIBS:lpc11u14fbd48
LIBS:lt
LIBS:MACOM
LIBS:Macrofab
LIBS:max
LIBS:maxim-ic
LIBS:mcp1700t-3302e-tt
LIBS:mcp73831t-2aci-ot
LIBS:micrel-ic
LIBS:Microchip
LIBS:microchip-ic
LIBS:Micron
LIBS:Microprocessors
LIBS:micro_usb_socket
LIBS:MiscellaneousDevices
LIBS:mke02z64vld2
LIBS:mke04z8vtg4
LIBS:Murata
LIBS:nrf24l01p_smd
LIBS:nrf51822-04
LIBS:nRF24L01+
LIBS:NXP
LIBS:nxp-ic
LIBS:OceanOptics
LIBS:on-semi-ic
LIBS:opamps
LIBS:_passive
LIBS:Passives
LIBS:pasv-BelFuse
LIBS:pasv-BiTech
LIBS:pasv-Bourns
LIBS:pasv-cap
LIBS:pasv-ind
LIBS:pasv-Murata
LIBS:pasv-res
LIBS:pasv-TDK
LIBS:pasv-xtal
LIBS:pcb
LIBS:PMOD
LIBS:PowerComponents
LIBS:pp_ws2812b
LIBS:random-mics
LIBS:raw-cache
LIBS:Recom
LIBS:recom-r1se
LIBS:regulator
LIBS:relays-a
LIBS:RepeaterParts
LIBS:RF_OEM_Parts
LIBS:Richtek
LIBS:rohm
LIBS:Rotary-Encoders
LIBS:_semi
LIBS:semi-diode-DiodesInc
LIBS:semi-diode-generic
LIBS:semi-diode-MCC
LIBS:semi-diode-NXP
LIBS:semi-diode-OnSemi
LIBS:semi-diode-Semtech
LIBS:semi-diode-ST
LIBS:semi-diode-Toshiba
LIBS:semi-opto-generic
LIBS:semi-opto-liteon
LIBS:semi-thyristor-generic
LIBS:semi-trans-AOS
LIBS:semi-trans-DiodesInc
LIBS:semi-trans-EPC
LIBS:semi-trans-Fairchild
LIBS:semi-trans-generic
LIBS:semi-trans-Infineon
LIBS:semi-trans-IRF
LIBS:semi-trans-IXYS
LIBS:semi-trans-NXP
LIBS:semi-trans-OnSemi
LIBS:semi-trans-Panasonic
LIBS:semi-trans-ST
LIBS:semi-trans-TI
LIBS:semi-trans-Toshiba
LIBS:semi-trans-Vishay
LIBS:Sensors
LIBS:sharp-relay
LIBS:skyworks
LIBS:Snickerdoodle
LIBS:sparkfun
LIBS:ST
LIBS:standard
LIBS:st_ic
LIBS:stm32f37xxx_48pin
LIBS:stm32f102xx_48pin
LIBS:stm32f103c8t6-module-china
LIBS:stm32f302xx_48pin
LIBS:stmicro-mcu
LIBS:symbol
LIBS:teensy
LIBS:TexasInstruments
LIBS:ti
LIBS:ti-ic
LIBS:tinkerforge
LIBS:transistor
LIBS:TransistorParts
LIBS:transistors-mics
LIBS:txs2sa-relay
LIBS:uart_pp
LIBS:u-blox
LIBS:uln-ic
LIBS:usb_plug
LIBS:Vishay
LIBS:Winbond
LIBS:ws2812b
LIBS:Xilinx
LIBS:ESP32-footprints-Shem-Lib
LIBS:espressif-xess
LIBS:adafruit
LIBS:GeekAmmo
LIBS:LilyPad-Wearables
LIBS:SparkFun-Aesthetics
LIBS:SparkFun-AnalogIC
LIBS:SparkFun-Boards
LIBS:SparkFun-Capacitors
LIBS:SparkFun-Connectors
LIBS:SparkFun-DigitalIC
LIBS:SparkFun-DiscreteSemi
LIBS:SparkFun-Displays
LIBS:SparkFun-Electromechanical
LIBS:SparkFun-FreqCtrl
LIBS:SparkFun-LED
LIBS:SparkFun-Passives
LIBS:SparkFun-PowerIC
LIBS:SparkFun-Resistors
LIBS:SparkFun-Retired
LIBS:SparkFun-RF
LIBS:SparkFun-Sensors
LIBS:Teensy_3_and_LC_Series_Boards_v1.1
LIBS:User-Submitted
LIBS:wifi-cache
EELAYER 25 0
EELAYER END
$Descr A4 11693 8268
encoding utf-8
Sheet 1 1
Title ""
Date ""
Rev ""
Comp ""
Comment1 ""
Comment2 ""
Comment3 ""
Comment4 ""
$EndDescr
$Comp
L ESP32-WROOM U2
U 1 1 5A2127C6
P 5400 3600
F 0 "U2" H 4700 4850 60  0000 C CNN
F 1 "ESP32-WROOM" H 5900 4850 60  0000 C CNN
F 2 "ESP32-footprints-Lib:ESP32-WROOM" H 5750 4950 60  0001 C CNN
F 3 "" H 4950 4050 60  0001 C CNN
	1    5400 3600
	1    0    0    -1  
$EndComp
$Comp
L GND #PWR01
U 1 1 5A212929
P 4450 4850
F 0 "#PWR01" H 4450 4600 50  0001 C CNN
F 1 "GND" H 4450 4700 50  0000 C CNN
F 2 "" H 4450 4850 50  0001 C CNN
F 3 "" H 4450 4850 50  0001 C CNN
	1    4450 4850
	1    0    0    -1  
$EndComp
$Comp
L +3.3V #PWR02
U 1 1 5A212F18
P 4450 2200
F 0 "#PWR02" H 4450 2050 50  0001 C CNN
F 1 "+3.3V" H 4450 2340 50  0000 C CNN
F 2 "" H 4450 2200 50  0001 C CNN
F 3 "" H 4450 2200 50  0001 C CNN
	1    4450 2200
	1    0    0    -1  
$EndComp
Wire Wire Line
	4450 4300 4450 4850
Wire Wire Line
	4450 2200 4450 3000
Wire Wire Line
	4150 3100 4450 3100
Wire Wire Line
	4950 4650 4450 4650
Connection ~ 4450 4650
Text Label 6600 4050 0    60   ~ 0
GPIO0
Text Label 4150 3100 2    60   ~ 0
RST
Wire Wire Line
	4250 3100 4250 2900
Connection ~ 4250 3100
$Comp
L R R1
U 1 1 5A7CBEF4
P 4250 2800
F 0 "R1" V 4300 2900 50  0000 L CNN
F 1 "10K" V 4250 2750 50  0000 L CNN
F 2 "Resistors_SMD:R_1206" H 4250 2800 50  0001 C CNN
F 3 "" H 4250 2800 50  0001 C CNN
	1    4250 2800
	1    0    0    -1  
$EndComp
Wire Wire Line
	4250 2700 4250 2600
Wire Wire Line
	4250 2600 4450 2600
Connection ~ 4450 2600
Wire Wire Line
	6300 4050 6600 4050
Wire Wire Line
	6500 4050 6500 3700
Connection ~ 6500 4050
$Comp
L R R2
U 1 1 5A7CBFFB
P 6500 3600
F 0 "R2" V 6550 3700 50  0000 L CNN
F 1 "R" V 6500 3550 50  0000 L CNN
F 2 "Resistors_SMD:R_1206" H 6500 3600 50  0001 C CNN
F 3 "" H 6500 3600 50  0001 C CNN
	1    6500 3600
	1    0    0    -1  
$EndComp
$Comp
L +3.3V #PWR03
U 1 1 5A7CC07D
P 6500 3400
F 0 "#PWR03" H 6500 3250 50  0001 C CNN
F 1 "+3.3V" H 6500 3540 50  0000 C CNN
F 2 "" H 6500 3400 50  0001 C CNN
F 3 "" H 6500 3400 50  0001 C CNN
	1    6500 3400
	1    0    0    -1  
$EndComp
Wire Wire Line
	6500 3400 6500 3500
Text Label 6300 3050 0    60   ~ 0
TXD
Text Label 6300 3150 0    60   ~ 0
RXD
Wire Wire Line
	6300 4150 6500 4150
Wire Wire Line
	6500 4150 6500 4300
Wire Wire Line
	6500 4250 6300 4250
Connection ~ 6500 4250
$Comp
L GND #PWR04
U 1 1 5A7CC853
P 6500 4300
F 0 "#PWR04" H 6500 4050 50  0001 C CNN
F 1 "GND" H 6500 4150 50  0000 C CNN
F 2 "" H 6500 4300 50  0001 C CNN
F 3 "" H 6500 4300 50  0001 C CNN
	1    6500 4300
	1    0    0    -1  
$EndComp
Wire Wire Line
	4450 2450 3650 2450
Wire Wire Line
	3650 2450 3650 2600
Connection ~ 4450 2450
$Comp
L CP1_Small C1
U 1 1 5A7CC8CE
P 3650 2700
F 0 "C1" H 3660 2770 50  0000 L CNN
F 1 "100uF" H 3660 2620 50  0000 L CNN
F 2 "Capacitors_THT:CP_Radial_D4.0mm_P2.00mm" H 3650 2700 50  0001 C CNN
F 3 "" H 3650 2700 50  0001 C CNN
	1    3650 2700
	1    0    0    -1  
$EndComp
$Comp
L GND #PWR05
U 1 1 5A7CC941
P 3650 2800
F 0 "#PWR05" H 3650 2550 50  0001 C CNN
F 1 "GND" H 3650 2650 50  0000 C CNN
F 2 "" H 3650 2800 50  0001 C CNN
F 3 "" H 3650 2800 50  0001 C CNN
	1    3650 2800
	1    0    0    -1  
$EndComp
$Comp
L ESP-01v090 U1
U 1 1 5A7CCC67
P 5400 5900
F 0 "U1" H 5400 5800 50  0000 C CNN
F 1 "ESP-01v090" H 5400 6000 50  0000 C CNN
F 2 "ESP8266:ESP-01" H 5400 5900 50  0001 C CNN
F 3 "" H 5400 5900 50  0001 C CNN
	1    5400 5900
	1    0    0    1   
$EndComp
Wire Wire Line
	6350 6050 6350 6450
$Comp
L GND #PWR06
U 1 1 5A7CCD1F
P 6350 6450
F 0 "#PWR06" H 6350 6200 50  0001 C CNN
F 1 "GND" H 6350 6300 50  0000 C CNN
F 2 "" H 6350 6450 50  0001 C CNN
F 3 "" H 6350 6450 50  0001 C CNN
	1    6350 6450
	1    0    0    -1  
$EndComp
Text Label 6350 5750 0    60   ~ 0
RXD
Text Label 6350 5850 0    60   ~ 0
GPIO0
Text Label 4450 6050 2    60   ~ 0
TXD
Text Label 4450 5850 2    60   ~ 0
RST
Wire Wire Line
	4450 5750 4450 5400
$Comp
L +3.3V #PWR07
U 1 1 5A7CCE3F
P 4450 5400
F 0 "#PWR07" H 4450 5250 50  0001 C CNN
F 1 "+3.3V" H 4450 5540 50  0000 C CNN
F 2 "" H 4450 5400 50  0001 C CNN
F 3 "" H 4450 5400 50  0001 C CNN
	1    4450 5400
	1    0    0    -1  
$EndComp
$EndSCHEMATC
