G04 #@! TF.GenerationSoftware,KiCad,Pcbnew,5.0.0+dfsg1-2~bpo9+1*
G04 #@! TF.CreationDate,2018-12-28T12:05:33+00:00*
G04 #@! TF.ProjectId,chordboard,63686F7264626F6172642E6B69636164,rev?*
G04 #@! TF.SameCoordinates,Original*
G04 #@! TF.FileFunction,Soldermask,Top*
G04 #@! TF.FilePolarity,Negative*
%FSLAX46Y46*%
G04 Gerber Fmt 4.6, Leading zero omitted, Abs format (unit mm)*
G04 Created by KiCad (PCBNEW 5.0.0+dfsg1-2~bpo9+1) date Fri Dec 28 12:05:33 2018*
%MOMM*%
%LPD*%
G01*
G04 APERTURE LIST*
%ADD10C,2.000000*%
%ADD11C,1.200000*%
%ADD12C,6.800000*%
%ADD13C,1.900000*%
%ADD14R,2.400000X3.600000*%
%ADD15C,2.400000*%
%ADD16R,2.400000X2.400000*%
%ADD17R,2.200000X2.200000*%
%ADD18C,2.200000*%
%ADD19C,0.100000*%
%ADD20C,1.600000*%
%ADD21O,1.600000X2.150000*%
%ADD22O,2.000000X2.000000*%
%ADD23R,2.000000X2.000000*%
%ADD24C,1.800000*%
%ADD25O,1.800000X1.800000*%
G04 APERTURE END LIST*
D10*
G04 #@! TO.C,C1*
X8255000Y210820000D03*
X8255000Y208320000D03*
G04 #@! TD*
G04 #@! TO.C,C2*
X19685000Y208320000D03*
X19685000Y210820000D03*
G04 #@! TD*
G04 #@! TO.C,C3*
X24765000Y210820000D03*
X24765000Y208320000D03*
G04 #@! TD*
G04 #@! TO.C,C4*
X36195000Y208320000D03*
X36195000Y210820000D03*
G04 #@! TD*
D11*
G04 #@! TO.C,H1*
X79802056Y173782056D03*
X78105000Y174485000D03*
X76407944Y173782056D03*
X75705000Y172085000D03*
X76407944Y170387944D03*
X78105000Y169685000D03*
X79802056Y170387944D03*
X80505000Y172085000D03*
D12*
X78105000Y172085000D03*
G04 #@! TD*
G04 #@! TO.C,H2*
X-635000Y224155000D03*
D11*
X1765000Y224155000D03*
X1062056Y222457944D03*
X-635000Y221755000D03*
X-2332056Y222457944D03*
X-3035000Y224155000D03*
X-2332056Y225852056D03*
X-635000Y226555000D03*
X1062056Y225852056D03*
G04 #@! TD*
G04 #@! TO.C,H3*
X79802056Y225712056D03*
X78105000Y226415000D03*
X76407944Y225712056D03*
X75705000Y224015000D03*
X76407944Y222317944D03*
X78105000Y221615000D03*
X79802056Y222317944D03*
X80505000Y224015000D03*
D12*
X78105000Y224015000D03*
G04 #@! TD*
G04 #@! TO.C,H4*
X-635000Y172085000D03*
D11*
X1765000Y172085000D03*
X1062056Y170387944D03*
X-635000Y169685000D03*
X-2332056Y170387944D03*
X-3035000Y172085000D03*
X-2332056Y173782056D03*
X-635000Y174485000D03*
X1062056Y173782056D03*
G04 #@! TD*
D13*
G04 #@! TO.C,RE1*
X16430000Y225440000D03*
X11430000Y225440000D03*
D14*
X19530000Y218440000D03*
X8330000Y218440000D03*
D15*
X16430000Y210940000D03*
X13930000Y210940000D03*
D16*
X11430000Y210940000D03*
G04 #@! TD*
G04 #@! TO.C,RE2*
X27940000Y210820000D03*
D15*
X30440000Y210820000D03*
X32940000Y210820000D03*
D14*
X24840000Y218320000D03*
X36040000Y218320000D03*
D13*
X27940000Y225320000D03*
X32940000Y225320000D03*
G04 #@! TD*
D15*
G04 #@! TO.C,CSW1*
X10160000Y180920000D03*
X10160000Y185420000D03*
X16660000Y180920000D03*
X16660000Y185420000D03*
G04 #@! TD*
G04 #@! TO.C,CSW2*
X26820000Y185420000D03*
X26820000Y180920000D03*
X20320000Y185420000D03*
X20320000Y180920000D03*
G04 #@! TD*
G04 #@! TO.C,CSW3*
X30330000Y180920000D03*
X30330000Y185420000D03*
X36830000Y180920000D03*
X36830000Y185420000D03*
G04 #@! TD*
G04 #@! TO.C,CSW4*
X47140000Y185420000D03*
X47140000Y180920000D03*
X40640000Y185420000D03*
X40640000Y180920000D03*
G04 #@! TD*
G04 #@! TO.C,CSW5*
X50800000Y180920000D03*
X50800000Y185420000D03*
X57300000Y180920000D03*
X57300000Y185420000D03*
G04 #@! TD*
G04 #@! TO.C,CSW6*
X67460000Y185420000D03*
X67460000Y180920000D03*
X60960000Y185420000D03*
X60960000Y180920000D03*
G04 #@! TD*
G04 #@! TO.C,CSW7*
X16660000Y173990000D03*
X16660000Y169490000D03*
X10160000Y173990000D03*
X10160000Y169490000D03*
G04 #@! TD*
G04 #@! TO.C,CSW8*
X20320000Y169490000D03*
X20320000Y173990000D03*
X26820000Y169490000D03*
X26820000Y173990000D03*
G04 #@! TD*
G04 #@! TO.C,CSW9*
X36980000Y173990000D03*
X36980000Y169490000D03*
X30480000Y173990000D03*
X30480000Y169490000D03*
G04 #@! TD*
G04 #@! TO.C,CSW10*
X40640000Y169490000D03*
X40640000Y173990000D03*
X47140000Y169490000D03*
X47140000Y173990000D03*
G04 #@! TD*
G04 #@! TO.C,CSW12*
X60960000Y169490000D03*
X60960000Y173990000D03*
X67460000Y169490000D03*
X67460000Y173990000D03*
G04 #@! TD*
D17*
G04 #@! TO.C,LED1*
X42545000Y177165000D03*
D18*
X45085000Y177165000D03*
G04 #@! TD*
G04 #@! TO.C,LED2*
X55245000Y177165000D03*
D17*
X52705000Y177165000D03*
G04 #@! TD*
D10*
G04 #@! TO.C,C5*
X41275000Y210820000D03*
X41275000Y208320000D03*
G04 #@! TD*
G04 #@! TO.C,C6*
X52705000Y208320000D03*
X52705000Y210820000D03*
G04 #@! TD*
G04 #@! TO.C,C7*
X57785000Y208320000D03*
X57785000Y210820000D03*
G04 #@! TD*
G04 #@! TO.C,C8*
X68580000Y210780000D03*
X68580000Y208280000D03*
G04 #@! TD*
G04 #@! TO.C,C9*
X8255000Y188635000D03*
X8255000Y191135000D03*
G04 #@! TD*
G04 #@! TO.C,C10*
X19685000Y191770000D03*
X19685000Y189270000D03*
G04 #@! TD*
G04 #@! TO.C,C11*
X24765000Y189270000D03*
X24765000Y191770000D03*
G04 #@! TD*
G04 #@! TO.C,C12*
X36195000Y191770000D03*
X36195000Y189270000D03*
G04 #@! TD*
G04 #@! TO.C,C13*
X41275000Y191770000D03*
X41275000Y189270000D03*
G04 #@! TD*
G04 #@! TO.C,C14*
X52705000Y189270000D03*
X52705000Y191770000D03*
G04 #@! TD*
G04 #@! TO.C,C15*
X57785000Y191770000D03*
X57785000Y189270000D03*
G04 #@! TD*
G04 #@! TO.C,C16*
X69215000Y188635000D03*
X69215000Y191135000D03*
G04 #@! TD*
D19*
G04 #@! TO.C,J1*
G36*
X74159340Y180143395D02*
X74191698Y180138595D01*
X74223429Y180130647D01*
X74254229Y180119627D01*
X74283800Y180105641D01*
X74311857Y180088823D01*
X74338132Y180069337D01*
X74362369Y180047369D01*
X74384337Y180023132D01*
X74403823Y179996857D01*
X74420641Y179968800D01*
X74434627Y179939229D01*
X74445647Y179908429D01*
X74453595Y179876698D01*
X74458395Y179844340D01*
X74460000Y179811668D01*
X74460000Y178328332D01*
X74458395Y178295660D01*
X74453595Y178263302D01*
X74445647Y178231571D01*
X74434627Y178200771D01*
X74420641Y178171200D01*
X74403823Y178143143D01*
X74384337Y178116868D01*
X74362369Y178092631D01*
X74338132Y178070663D01*
X74311857Y178051177D01*
X74283800Y178034359D01*
X74254229Y178020373D01*
X74223429Y178009353D01*
X74191698Y178001405D01*
X74159340Y177996605D01*
X74126668Y177995000D01*
X73193332Y177995000D01*
X73160660Y177996605D01*
X73128302Y178001405D01*
X73096571Y178009353D01*
X73065771Y178020373D01*
X73036200Y178034359D01*
X73008143Y178051177D01*
X72981868Y178070663D01*
X72957631Y178092631D01*
X72935663Y178116868D01*
X72916177Y178143143D01*
X72899359Y178171200D01*
X72885373Y178200771D01*
X72874353Y178231571D01*
X72866405Y178263302D01*
X72861605Y178295660D01*
X72860000Y178328332D01*
X72860000Y179811668D01*
X72861605Y179844340D01*
X72866405Y179876698D01*
X72874353Y179908429D01*
X72885373Y179939229D01*
X72899359Y179968800D01*
X72916177Y179996857D01*
X72935663Y180023132D01*
X72957631Y180047369D01*
X72981868Y180069337D01*
X73008143Y180088823D01*
X73036200Y180105641D01*
X73065771Y180119627D01*
X73096571Y180130647D01*
X73128302Y180138595D01*
X73160660Y180143395D01*
X73193332Y180145000D01*
X74126668Y180145000D01*
X74159340Y180143395D01*
X74159340Y180143395D01*
G37*
D20*
X73660000Y179070000D03*
D21*
X75660000Y179070000D03*
X77660000Y179070000D03*
X79660000Y179070000D03*
G04 #@! TD*
D16*
G04 #@! TO.C,RE3*
X44450000Y210820000D03*
D15*
X46950000Y210820000D03*
X49450000Y210820000D03*
D14*
X41350000Y218320000D03*
X52550000Y218320000D03*
D13*
X44450000Y225320000D03*
X49450000Y225320000D03*
G04 #@! TD*
G04 #@! TO.C,RE4*
X65960000Y225320000D03*
X60960000Y225320000D03*
D14*
X69060000Y218320000D03*
X57860000Y218320000D03*
D15*
X65960000Y210820000D03*
X63460000Y210820000D03*
D16*
X60960000Y210820000D03*
G04 #@! TD*
G04 #@! TO.C,RE5*
X11430000Y191770000D03*
D15*
X13930000Y191770000D03*
X16430000Y191770000D03*
D14*
X8330000Y199270000D03*
X19530000Y199270000D03*
D13*
X11430000Y206270000D03*
X16430000Y206270000D03*
G04 #@! TD*
G04 #@! TO.C,RE6*
X32940000Y206270000D03*
X27940000Y206270000D03*
D14*
X36040000Y199270000D03*
X24840000Y199270000D03*
D15*
X32940000Y191770000D03*
X30440000Y191770000D03*
D16*
X27940000Y191770000D03*
G04 #@! TD*
G04 #@! TO.C,RE7*
X44450000Y191770000D03*
D15*
X46950000Y191770000D03*
X49450000Y191770000D03*
D14*
X41350000Y199270000D03*
X52550000Y199270000D03*
D13*
X44450000Y206270000D03*
X49450000Y206270000D03*
G04 #@! TD*
G04 #@! TO.C,RE8*
X65960000Y206270000D03*
X60960000Y206270000D03*
D14*
X69060000Y199270000D03*
X57860000Y199270000D03*
D15*
X65960000Y191770000D03*
X63460000Y191770000D03*
D16*
X60960000Y191770000D03*
G04 #@! TD*
D22*
G04 #@! TO.C,U1*
X-3175000Y217805000D03*
X4445000Y184785000D03*
X-3175000Y215265000D03*
X4445000Y187325000D03*
X-3175000Y212725000D03*
X4445000Y189865000D03*
X-3175000Y210185000D03*
X4445000Y192405000D03*
X-3175000Y207645000D03*
X4445000Y194945000D03*
X-3175000Y205105000D03*
X4445000Y197485000D03*
X-3175000Y202565000D03*
X4445000Y200025000D03*
X-3175000Y200025000D03*
X4445000Y202565000D03*
X-3175000Y197485000D03*
X4445000Y205105000D03*
X-3175000Y194945000D03*
X4445000Y207645000D03*
X-3175000Y192405000D03*
X4445000Y210185000D03*
X-3175000Y189865000D03*
X4445000Y212725000D03*
X-3175000Y187325000D03*
X4445000Y215265000D03*
X-3175000Y184785000D03*
D23*
X4445000Y217805000D03*
G04 #@! TD*
G04 #@! TO.C,U2*
X80645000Y217805000D03*
D22*
X73025000Y184785000D03*
X80645000Y215265000D03*
X73025000Y187325000D03*
X80645000Y212725000D03*
X73025000Y189865000D03*
X80645000Y210185000D03*
X73025000Y192405000D03*
X80645000Y207645000D03*
X73025000Y194945000D03*
X80645000Y205105000D03*
X73025000Y197485000D03*
X80645000Y202565000D03*
X73025000Y200025000D03*
X80645000Y200025000D03*
X73025000Y202565000D03*
X80645000Y197485000D03*
X73025000Y205105000D03*
X80645000Y194945000D03*
X73025000Y207645000D03*
X80645000Y192405000D03*
X73025000Y210185000D03*
X80645000Y189865000D03*
X73025000Y212725000D03*
X80645000Y187325000D03*
X73025000Y215265000D03*
X80645000Y184785000D03*
X73025000Y217805000D03*
G04 #@! TD*
D17*
G04 #@! TO.C,LED3*
X62865000Y177165000D03*
D18*
X65405000Y177165000D03*
G04 #@! TD*
D24*
G04 #@! TO.C,R1*
X33655000Y180340000D03*
D25*
X33655000Y187960000D03*
G04 #@! TD*
D10*
G04 #@! TO.C,C17*
X70485000Y196215000D03*
X70485000Y193715000D03*
G04 #@! TD*
G04 #@! TO.C,C18*
X6985000Y193715000D03*
X6985000Y196215000D03*
G04 #@! TD*
D15*
G04 #@! TO.C,CSW11*
X50800000Y169490000D03*
X50800000Y173990000D03*
X57300000Y169490000D03*
X57300000Y173990000D03*
G04 #@! TD*
D19*
G04 #@! TO.C,J2*
G36*
X-1405660Y180143395D02*
X-1373302Y180138595D01*
X-1341571Y180130647D01*
X-1310771Y180119627D01*
X-1281200Y180105641D01*
X-1253143Y180088823D01*
X-1226868Y180069337D01*
X-1202631Y180047369D01*
X-1180663Y180023132D01*
X-1161177Y179996857D01*
X-1144359Y179968800D01*
X-1130373Y179939229D01*
X-1119353Y179908429D01*
X-1111405Y179876698D01*
X-1106605Y179844340D01*
X-1105000Y179811668D01*
X-1105000Y178328332D01*
X-1106605Y178295660D01*
X-1111405Y178263302D01*
X-1119353Y178231571D01*
X-1130373Y178200771D01*
X-1144359Y178171200D01*
X-1161177Y178143143D01*
X-1180663Y178116868D01*
X-1202631Y178092631D01*
X-1226868Y178070663D01*
X-1253143Y178051177D01*
X-1281200Y178034359D01*
X-1310771Y178020373D01*
X-1341571Y178009353D01*
X-1373302Y178001405D01*
X-1405660Y177996605D01*
X-1438332Y177995000D01*
X-2371668Y177995000D01*
X-2404340Y177996605D01*
X-2436698Y178001405D01*
X-2468429Y178009353D01*
X-2499229Y178020373D01*
X-2528800Y178034359D01*
X-2556857Y178051177D01*
X-2583132Y178070663D01*
X-2607369Y178092631D01*
X-2629337Y178116868D01*
X-2648823Y178143143D01*
X-2665641Y178171200D01*
X-2679627Y178200771D01*
X-2690647Y178231571D01*
X-2698595Y178263302D01*
X-2703395Y178295660D01*
X-2705000Y178328332D01*
X-2705000Y179811668D01*
X-2703395Y179844340D01*
X-2698595Y179876698D01*
X-2690647Y179908429D01*
X-2679627Y179939229D01*
X-2665641Y179968800D01*
X-2648823Y179996857D01*
X-2629337Y180023132D01*
X-2607369Y180047369D01*
X-2583132Y180069337D01*
X-2556857Y180088823D01*
X-2528800Y180105641D01*
X-2499229Y180119627D01*
X-2468429Y180130647D01*
X-2436698Y180138595D01*
X-2404340Y180143395D01*
X-2371668Y180145000D01*
X-1438332Y180145000D01*
X-1405660Y180143395D01*
X-1405660Y180143395D01*
G37*
D20*
X-1905000Y179070000D03*
D21*
X95000Y179070000D03*
X2095000Y179070000D03*
X4095000Y179070000D03*
G04 #@! TD*
D24*
G04 #@! TO.C,R2*
X44450000Y180975000D03*
D25*
X44450000Y188595000D03*
G04 #@! TD*
D24*
G04 #@! TO.C,R3*
X64770000Y180975000D03*
D25*
X64770000Y188595000D03*
G04 #@! TD*
M02*
