EESchema Schematic File Version 2
LIBS:Connector
LIBS:power
LIBS:device
LIBS:pin5jtag-cache
EELAYER 25 0
EELAYER END
$Descr A4 11693 8268
encoding utf-8
Sheet 1 1
Title ""
Date ""
Rev ""
Comp ""
Comment1 ""
Comment2 ""
Comment3 ""
Comment4 ""
$EndDescr
$Comp
L Conn_ARM_JTAG_SWD_20 J2
U 1 1 5AE30515
P 3300 3050
F 0 "J2" H 3100 3900 50  0000 R CNN
F 1 "Conn_ARM_JTAG_SWD_20" H 3100 3800 50  0000 R BNN
F 2 "Connectors_IDC:IDC-Header_2x10_Pitch2.54mm_Angled" H 3750 2000 50  0001 L TNN
F 3 "" V 2950 1800 50  0001 C CNN
	1    3300 3050
	1    0    0    -1  
$EndComp
$Comp
L VCC #PWR01
U 1 1 5AE3056D
P 4900 2700
F 0 "#PWR01" H 4900 2550 50  0001 C CNN
F 1 "VCC" H 4900 2850 50  0000 C CNN
F 2 "" H 4900 2700 50  0001 C CNN
F 3 "" H 4900 2700 50  0001 C CNN
	1    4900 2700
	1    0    0    -1  
$EndComp
Wire Wire Line
	3200 2050 3200 2250
$Comp
L GND #PWR02
U 1 1 5AE30598
P 4900 3200
F 0 "#PWR02" H 4900 2950 50  0001 C CNN
F 1 "GND" H 4900 3050 50  0000 C CNN
F 2 "" H 4900 3200 50  0001 C CNN
F 3 "" H 4900 3200 50  0001 C CNN
	1    4900 3200
	1    0    0    -1  
$EndComp
Wire Wire Line
	3200 3950 3200 3850
Text Label 3900 2950 0    60   ~ 0
SWDCLK
Text Label 3900 3050 0    60   ~ 0
SWDIO
Text Label 3900 2650 0    60   ~ 0
RST
$Comp
L Conn_01x05 J1
U 1 1 5AE305CD
P 5150 2950
F 0 "J1" H 5150 3250 50  0000 C CNN
F 1 "Conn_01x05" H 5150 2650 50  0000 C CNN
F 2 "Socket_Strips:Socket_Strip_Angled_1x05_Pitch2.54mm" H 5150 2950 50  0001 C CNN
F 3 "" H 5150 2950 50  0001 C CNN
	1    5150 2950
	1    0    0    -1  
$EndComp
Wire Wire Line
	4900 2700 4900 2750
Wire Wire Line
	4900 2750 4950 2750
Wire Wire Line
	4900 3200 4900 3150
Wire Wire Line
	4900 3150 4950 3150
Text Label 4950 2850 2    60   ~ 0
SWDIO
Text Label 4950 2950 2    60   ~ 0
SWDCLK
Text Label 4950 3050 2    60   ~ 0
RST
$Comp
L VCC #PWR03
U 1 1 5AE306B7
P 3200 2050
F 0 "#PWR03" H 3200 1900 50  0001 C CNN
F 1 "VCC" H 3200 2200 50  0000 C CNN
F 2 "" H 3200 2050 50  0001 C CNN
F 3 "" H 3200 2050 50  0001 C CNN
	1    3200 2050
	1    0    0    -1  
$EndComp
$Comp
L GND #PWR04
U 1 1 5AE306C8
P 3200 3950
F 0 "#PWR04" H 3200 3700 50  0001 C CNN
F 1 "GND" H 3200 3800 50  0000 C CNN
F 2 "" H 3200 3950 50  0001 C CNN
F 3 "" H 3200 3950 50  0001 C CNN
	1    3200 3950
	1    0    0    -1  
$EndComp
NoConn ~ 3900 2550
NoConn ~ 3900 2850
NoConn ~ 3900 3150
NoConn ~ 3900 3250
NoConn ~ 3900 3450
NoConn ~ 3900 3550
Wire Wire Line
	3900 2950 4350 2950
Wire Wire Line
	4350 2950 4350 2500
$Comp
L R_Small R1
U 1 1 5AE307A4
P 4350 2400
F 0 "R1" H 4380 2420 50  0000 L CNN
F 1 "R_Small" H 4380 2360 50  0000 L CNN
F 2 "Resistors_SMD:R_1206_HandSoldering" H 4350 2400 50  0001 C CNN
F 3 "" H 4350 2400 50  0001 C CNN
	1    4350 2400
	1    0    0    -1  
$EndComp
Wire Wire Line
	4350 2300 4350 2150
Wire Wire Line
	4350 2150 3200 2150
Connection ~ 3200 2150
NoConn ~ 3300 2250
$EndSCHEMATC
