(export (version D)
  (design
    (source /home/afshar/src/chordboard/hard/v14/brain/chordboard.sch)
    (date "Tue 27 Nov 2018 03:44:16 PM GMT")
    (tool "Eeschema 5.0.0+dfsg1-2~bpo9+1")
    (sheet (number 1) (name /) (tstamps /)
      (title_block
        (title)
        (company)
        (rev)
        (date)
        (source chordboard.sch)
        (comment (number 1) (value ""))
        (comment (number 2) (value ""))
        (comment (number 3) (value ""))
        (comment (number 4) (value "")))))
  (components
    (comp (ref U2)
      (value Teensy3.6)
      (footprint chordboard-footprints:Teensy35_36)
      (libsource (lib chordboard-components) (part Teensy3.6) (description ""))
      (sheetpath (names /) (tstamps /))
      (tstamp 5BF71C9C))
    (comp (ref R2)
      (value R)
      (footprint Resistor_THT:R_Axial_DIN0204_L3.6mm_D1.6mm_P7.62mm_Horizontal)
      (datasheet ~)
      (libsource (lib Device) (part R) (description Resistor))
      (sheetpath (names /) (tstamps /))
      (tstamp 5C841DD9))
    (comp (ref R3)
      (value R)
      (footprint Resistor_THT:R_Axial_DIN0204_L3.6mm_D1.6mm_P7.62mm_Horizontal)
      (datasheet ~)
      (libsource (lib Device) (part R) (description Resistor))
      (sheetpath (names /) (tstamps /))
      (tstamp 5C842523))
    (comp (ref SW65)
      (value SW_SPST)
      (footprint Button_Switch_THT:SW_Tactile_SPST_Angled_PTS645Vx58-2LFS)
      (libsource (lib Switch) (part SW_SPST) (description "Single Pole Single Throw (SPST) switch"))
      (sheetpath (names /) (tstamps /))
      (tstamp 5CC03083))
    (comp (ref H9)
      (value MountingHole)
      (footprint MountingHole:MountingHole_3.2mm_M3_Pad_Via)
      (datasheet ~)
      (libsource (lib Mechanical) (part MountingHole) (description "Mounting Hole without connection"))
      (sheetpath (names /) (tstamps /))
      (tstamp 671782C8))
    (comp (ref H10)
      (value MountingHole)
      (footprint MountingHole:MountingHole_3.2mm_M3_Pad_Via)
      (datasheet ~)
      (libsource (lib Mechanical) (part MountingHole) (description "Mounting Hole without connection"))
      (sheetpath (names /) (tstamps /))
      (tstamp 671782CE))
    (comp (ref H11)
      (value MountingHole)
      (footprint MountingHole:MountingHole_3.2mm_M3_Pad_Via)
      (datasheet ~)
      (libsource (lib Mechanical) (part MountingHole) (description "Mounting Hole without connection"))
      (sheetpath (names /) (tstamps /))
      (tstamp 671782D4))
    (comp (ref H12)
      (value MountingHole)
      (footprint MountingHole:MountingHole_3.2mm_M3_Pad_Via)
      (datasheet ~)
      (libsource (lib Mechanical) (part MountingHole) (description "Mounting Hole without connection"))
      (sheetpath (names /) (tstamps /))
      (tstamp 671782DA))
    (comp (ref esp1)
      (value esp32-ttgo-1.8)
      (footprint chordboard-footprints:esp32-ttgo-1.8)
      (libsource (lib chordboard-components) (part esp32-ttgo-1.8) (description ""))
      (sheetpath (names /) (tstamps /))
      (tstamp 67265F97))
    (comp (ref CBIO2)
      (value Conn_02x20_Odd_Even)
      (footprint Connector_IDC:IDC-Header_2x20_P2.54mm_Vertical)
      (datasheet ~)
      (libsource (lib Connector_Generic) (part Conn_02x20_Odd_Even) (description "Generic connector, double row, 02x20, odd/even pin numbering scheme (row 1 odd numbers, row 2 even numbers), script generated (kicad-library-utils/schlib/autogen/connector/)"))
      (sheetpath (names /) (tstamps /))
      (tstamp 67999843))
    (comp (ref J3)
      (value Conn_01x04)
      (footprint Connector_JST:JST_EH_B04B-EH-A_1x04_P2.50mm_Vertical)
      (datasheet ~)
      (libsource (lib Connector_Generic) (part Conn_01x04) (description "Generic connector, single row, 01x04, script generated (kicad-library-utils/schlib/autogen/connector/)"))
      (sheetpath (names /) (tstamps /))
      (tstamp 5C0AAE6E))
    (comp (ref J1)
      (value Screw_Terminal_01x02)
      (footprint TerminalBlock_Phoenix:TerminalBlock_Phoenix_PT-1,5-2-3.5-H_1x02_P3.50mm_Horizontal)
      (datasheet ~)
      (libsource (lib Connector) (part Screw_Terminal_01x02) (description "Generic screw terminal, single row, 01x02, script generated (kicad-library-utils/schlib/autogen/connector/)"))
      (sheetpath (names /) (tstamps /))
      (tstamp 5C0AB2FB))
    (comp (ref R1)
      (value R)
      (footprint Resistor_THT:R_Axial_DIN0204_L3.6mm_D1.6mm_P7.62mm_Horizontal)
      (datasheet ~)
      (libsource (lib Device) (part R) (description Resistor))
      (sheetpath (names /) (tstamps /))
      (tstamp 5C0B4702))
    (comp (ref D1)
      (value LED)
      (footprint LED_THT:LED_D1.8mm_W3.3mm_H2.4mm)
      (datasheet ~)
      (libsource (lib Device) (part LED) (description "Light emitting diode"))
      (sheetpath (names /) (tstamps /))
      (tstamp 5C0B4918))
    (comp (ref J4)
      (value I2C)
      (footprint Connector_JST:JST_PH_B4B-PH-K_1x04_P2.00mm_Vertical)
      (datasheet ~)
      (libsource (lib Connector_Generic) (part Conn_01x04) (description "Generic connector, single row, 01x04, script generated (kicad-library-utils/schlib/autogen/connector/)"))
      (sheetpath (names /) (tstamps /))
      (tstamp 5C0BE4BA))
    (comp (ref JP1)
      (value Jumper_2_Bridged)
      (footprint Jumper:SolderJumper-2_P1.3mm_Bridged_RoundedPad1.0x1.5mm)
      (datasheet ~)
      (libsource (lib Jumper) (part Jumper_2_Bridged) (description "Jumper, 2-pole, closed/bridged"))
      (sheetpath (names /) (tstamps /))
      (tstamp 5C0C3B00))
    (comp (ref JP2)
      (value Jumper_2_Bridged)
      (footprint Jumper:SolderJumper-2_P1.3mm_Bridged_RoundedPad1.0x1.5mm)
      (datasheet ~)
      (libsource (lib Jumper) (part Jumper_2_Bridged) (description "Jumper, 2-pole, closed/bridged"))
      (sheetpath (names /) (tstamps /))
      (tstamp 5C0C6DE1))
    (comp (ref JP3)
      (value Jumper_2_Bridged)
      (footprint Jumper:SolderJumper-2_P1.3mm_Bridged_RoundedPad1.0x1.5mm)
      (datasheet ~)
      (libsource (lib Jumper) (part Jumper_2_Bridged) (description "Jumper, 2-pole, closed/bridged"))
      (sheetpath (names /) (tstamps /))
      (tstamp 5C0C6E1D)))
  (libparts
    (libpart (lib Connector) (part Screw_Terminal_01x02)
      (description "Generic screw terminal, single row, 01x02, script generated (kicad-library-utils/schlib/autogen/connector/)")
      (docs ~)
      (footprints
        (fp TerminalBlock*:*))
      (fields
        (field (name Reference) J)
        (field (name Value) Screw_Terminal_01x02))
      (pins
        (pin (num 1) (name Pin_1) (type passive))
        (pin (num 2) (name Pin_2) (type passive))))
    (libpart (lib Connector_Generic) (part Conn_01x04)
      (description "Generic connector, single row, 01x04, script generated (kicad-library-utils/schlib/autogen/connector/)")
      (docs ~)
      (footprints
        (fp Connector*:*_1x??_*))
      (fields
        (field (name Reference) J)
        (field (name Value) Conn_01x04))
      (pins
        (pin (num 1) (name Pin_1) (type passive))
        (pin (num 2) (name Pin_2) (type passive))
        (pin (num 3) (name Pin_3) (type passive))
        (pin (num 4) (name Pin_4) (type passive))))
    (libpart (lib Connector_Generic) (part Conn_02x20_Odd_Even)
      (description "Generic connector, double row, 02x20, odd/even pin numbering scheme (row 1 odd numbers, row 2 even numbers), script generated (kicad-library-utils/schlib/autogen/connector/)")
      (docs ~)
      (footprints
        (fp Connector*:*_2x??_*))
      (fields
        (field (name Reference) J)
        (field (name Value) Conn_02x20_Odd_Even))
      (pins
        (pin (num 1) (name Pin_1) (type passive))
        (pin (num 2) (name Pin_2) (type passive))
        (pin (num 3) (name Pin_3) (type passive))
        (pin (num 4) (name Pin_4) (type passive))
        (pin (num 5) (name Pin_5) (type passive))
        (pin (num 6) (name Pin_6) (type passive))
        (pin (num 7) (name Pin_7) (type passive))
        (pin (num 8) (name Pin_8) (type passive))
        (pin (num 9) (name Pin_9) (type passive))
        (pin (num 10) (name Pin_10) (type passive))
        (pin (num 11) (name Pin_11) (type passive))
        (pin (num 12) (name Pin_12) (type passive))
        (pin (num 13) (name Pin_13) (type passive))
        (pin (num 14) (name Pin_14) (type passive))
        (pin (num 15) (name Pin_15) (type passive))
        (pin (num 16) (name Pin_16) (type passive))
        (pin (num 17) (name Pin_17) (type passive))
        (pin (num 18) (name Pin_18) (type passive))
        (pin (num 19) (name Pin_19) (type passive))
        (pin (num 20) (name Pin_20) (type passive))
        (pin (num 21) (name Pin_21) (type passive))
        (pin (num 22) (name Pin_22) (type passive))
        (pin (num 23) (name Pin_23) (type passive))
        (pin (num 24) (name Pin_24) (type passive))
        (pin (num 25) (name Pin_25) (type passive))
        (pin (num 26) (name Pin_26) (type passive))
        (pin (num 27) (name Pin_27) (type passive))
        (pin (num 28) (name Pin_28) (type passive))
        (pin (num 29) (name Pin_29) (type passive))
        (pin (num 30) (name Pin_30) (type passive))
        (pin (num 31) (name Pin_31) (type passive))
        (pin (num 32) (name Pin_32) (type passive))
        (pin (num 33) (name Pin_33) (type passive))
        (pin (num 34) (name Pin_34) (type passive))
        (pin (num 35) (name Pin_35) (type passive))
        (pin (num 36) (name Pin_36) (type passive))
        (pin (num 37) (name Pin_37) (type passive))
        (pin (num 38) (name Pin_38) (type passive))
        (pin (num 39) (name Pin_39) (type passive))
        (pin (num 40) (name Pin_40) (type passive))))
    (libpart (lib Device) (part LED)
      (description "Light emitting diode")
      (docs ~)
      (footprints
        (fp LED*)
        (fp LED_SMD:*)
        (fp LED_THT:*))
      (fields
        (field (name Reference) D)
        (field (name Value) LED))
      (pins
        (pin (num 1) (name K) (type passive))
        (pin (num 2) (name A) (type passive))))
    (libpart (lib Device) (part R)
      (description Resistor)
      (docs ~)
      (footprints
        (fp R_*))
      (fields
        (field (name Reference) R)
        (field (name Value) R))
      (pins
        (pin (num 1) (name ~) (type passive))
        (pin (num 2) (name ~) (type passive))))
    (libpart (lib Jumper) (part Jumper_2_Bridged)
      (description "Jumper, 2-pole, closed/bridged")
      (docs ~)
      (footprints
        (fp Jumper*))
      (fields
        (field (name Reference) JP)
        (field (name Value) Jumper_2_Bridged))
      (pins
        (pin (num 1) (name A) (type passive))
        (pin (num 2) (name B) (type passive))))
    (libpart (lib Mechanical) (part MountingHole)
      (description "Mounting Hole without connection")
      (docs ~)
      (footprints
        (fp MountingHole*))
      (fields
        (field (name Reference) H)
        (field (name Value) MountingHole)))
    (libpart (lib Switch) (part SW_SPST)
      (description "Single Pole Single Throw (SPST) switch")
      (fields
        (field (name Reference) SW)
        (field (name Value) SW_SPST))
      (pins
        (pin (num 1) (name A) (type passive))
        (pin (num 2) (name B) (type passive))))
    (libpart (lib chordboard-components) (part Teensy3.6)
      (fields
        (field (name Reference) U)
        (field (name Value) Teensy3.6))
      (pins
        (pin (num 1) (name GND) (type power_in))
        (pin (num 2) (name 0_RX1_MOSI1_Touch) (type BiDi))
        (pin (num 3) (name 1_TX1_MISO1_Touch) (type BiDi))
        (pin (num 4) (name 2_PWM) (type BiDi))
        (pin (num 5) (name 3_PWM_CAN0TX_SCL2) (type BiDi))
        (pin (num 6) (name 4_PWM_CAN0RX_SDA2) (type BiDi))
        (pin (num 7) (name 5_PWM_tx1_miso1) (type BiDi))
        (pin (num 8) (name 6_PWM) (type BiDi))
        (pin (num 9) (name 7_RX3_miso0_scl0) (type BiDi))
        (pin (num 10) (name 8_TX3_miso0_sda0) (type BiDi))
        (pin (num 11) (name 9_PWM_RX2_CS0) (type BiDi))
        (pin (num 12) (name 10_PWM_TX2_CS0) (type BiDi))
        (pin (num 13) (name 11_MOSI0) (type BiDi))
        (pin (num 14) (name 12_MISO0) (type BiDi))
        (pin (num 15) (name 3.3V) (type power_in))
        (pin (num 16) (name 24) (type BiDi))
        (pin (num 17) (name 25) (type BiDi))
        (pin (num 18) (name 26_tx1) (type BiDi))
        (pin (num 19) (name 27_rx1) (type BiDi))
        (pin (num 20) (name 28) (type BiDi))
        (pin (num 21) (name 29_PWM_can0tx_Touch) (type BiDi))
        (pin (num 22) (name 30_PWM_can0rx_Touch) (type BiDi))
        (pin (num 23) (name 31_A12_RX4_CS1) (type BiDi))
        (pin (num 24) (name 32_A13_TX4_SCK1) (type BiDi))
        (pin (num 25) (name VBat) (type power_in))
        (pin (num 26) (name 3.3V) (type power_in))
        (pin (num 27) (name GND) (type power_in))
        (pin (num 28) (name Program) (type input))
        (pin (num 29) (name Reset) (type input))
        (pin (num 30) (name 33_A14_CAN1TX_scl0) (type BiDi))
        (pin (num 31) (name 34_A15_CAN1TX_sda0) (type BiDi))
        (pin (num 32) (name 35_A16_PWM) (type BiDi))
        (pin (num 33) (name 36_A17_PWM) (type BiDi))
        (pin (num 34) (name 37_A18_PWM_SCL1) (type BiDi))
        (pin (num 35) (name 38_A19_PWM_SDA1) (type BiDi))
        (pin (num 36) (name 39_A20) (type BiDi))
        (pin (num 37) (name A21_DAC0) (type BiDi))
        (pin (num 38) (name A22_DAC1) (type BiDi))
        (pin (num 39) (name GND) (type power_in))
        (pin (num 40) (name 13_SCK0_LED) (type BiDi))
        (pin (num 41) (name 14_A0_PWM_sck0) (type BiDi))
        (pin (num 42) (name 15_A1_CS0_Touch) (type BiDi))
        (pin (num 43) (name 16_A2_scl0_Touch) (type BiDi))
        (pin (num 44) (name 17_A3_sda0_Touch) (type BiDi))
        (pin (num 45) (name 18_A4_SDA0_Touch) (type BiDi))
        (pin (num 46) (name 19_A5_SCL0_Touch) (type BiDi))
        (pin (num 47) (name 20_A6_PWM_CS0_sck1) (type BiDi))
        (pin (num 48) (name 21_A7_PWM_CS0_sck1) (type BiDi))
        (pin (num 49) (name 22_A8_PWM_Touch) (type BiDi))
        (pin (num 50) (name 23_A9_PWM_Touch) (type BiDi))
        (pin (num 51) (name 3.3V_max250mA) (type power_in))
        (pin (num 52) (name AGND) (type power_in))
        (pin (num 53) (name Vin) (type power_in))
        (pin (num 54) (name VUSB) (type power_in))
        (pin (num 55) (name AREF) (type input))
        (pin (num 56) (name A10) (type BiDi))
        (pin (num 57) (name A11) (type BiDi))
        (pin (num 58) (name 5V) (type power_in))
        (pin (num 59) (name A26_D-) (type BiDi))
        (pin (num 60) (name A25_D+) (type BiDi))
        (pin (num 61) (name GND) (type power_in))
        (pin (num 62) (name GND) (type power_in))
        (pin (num 63) (name G) (type power_in))
        (pin (num 64) (name Debug_DE) (type input))
        (pin (num 65) (name Debug_DC) (type input))
        (pin (num 66) (name Debug_DD) (type input))
        (pin (num 67) (name 40) (type BiDi))
        (pin (num 68) (name 41) (type BiDi))
        (pin (num 69) (name 42) (type BiDi))
        (pin (num 70) (name 43_CS2) (type BiDi))
        (pin (num 71) (name 44_MOSI2) (type BiDi))
        (pin (num 72) (name 45_MISO2) (type BiDi))
        (pin (num 73) (name 46_SCK2) (type BiDi))
        (pin (num 74) (name GND) (type power_in))
        (pin (num 75) (name 3.3V) (type power_in))
        (pin (num 76) (name 47_RX6_SCL0) (type BiDi))
        (pin (num 77) (name 48_TX6_SDA0) (type BiDi))
        (pin (num 78) (name 49_A23) (type BiDi))
        (pin (num 79) (name 50_A24) (type BiDi))
        (pin (num 80) (name 51_MISO2) (type BiDi))
        (pin (num 81) (name 52_MOSI2) (type BiDi))
        (pin (num 82) (name 53_SCK2) (type BiDi))
        (pin (num 83) (name 54_CS2) (type BiDi))
        (pin (num 84) (name 55) (type BiDi))
        (pin (num 85) (name 56) (type BiDi))
        (pin (num 86) (name 57) (type BiDi))))
    (libpart (lib chordboard-components) (part esp32-ttgo-1.8)
      (fields
        (field (name Reference) esp)
        (field (name Value) esp32-ttgo-1.8))
      (pins
        (pin (num 1) (name 3V3) (type power_in))
        (pin (num 2) (name RST) (type input))
        (pin (num 3) (name VP) (type input))
        (pin (num 4) (name VN) (type input))
        (pin (num 5) (name D34) (type input))
        (pin (num 6) (name D35) (type input))
        (pin (num 7) (name D32) (type input))
        (pin (num 8) (name D33) (type input))
        (pin (num 9) (name D25) (type input))
        (pin (num 10) (name D26) (type input))
        (pin (num 11) (name D27) (type input))
        (pin (num 12) (name D14) (type input))
        (pin (num 13) (name D12) (type input))
        (pin (num 14) (name D13) (type input))
        (pin (num 15) (name GND) (type input))
        (pin (num 16) (name BAT) (type input))
        (pin (num 17) (name GND) (type input))
        (pin (num 18) (name 3V3) (type input))
        (pin (num 19) (name VIN) (type input))
        (pin (num 20) (name 5V) (type input))
        (pin (num 21) (name GND) (type input))
        (pin (num 22) (name D15) (type input))
        (pin (num 23) (name D02) (type input))
        (pin (num 24) (name D00) (type input))
        (pin (num 25) (name D04) (type input))
        (pin (num 26) (name D05) (type input))
        (pin (num 27) (name D18) (type input))
        (pin (num 28) (name D19) (type input))
        (pin (num 29) (name D21) (type input))
        (pin (num 30) (name RXD) (type input))
        (pin (num 31) (name TXD) (type input))
        (pin (num 32) (name D22) (type input))
        (pin (num 33) (name D23) (type input))
        (pin (num 34) (name GND) (type input)))))
  (libraries
    (library (logical Connector)
      (uri /home/afshar/src/kicad/kicad-symbols-master/Connector.lib))
    (library (logical Connector_Generic)
      (uri /home/afshar/src/kicad/kicad-symbols-master/Connector_Generic.lib))
    (library (logical Device)
      (uri /home/afshar/src/kicad/kicad-symbols-master/Device.lib))
    (library (logical Jumper)
      (uri /home/afshar/src/kicad/kicad-symbols-master/Jumper.lib))
    (library (logical Mechanical)
      (uri /home/afshar/src/kicad/kicad-symbols-master/Mechanical.lib))
    (library (logical Switch)
      (uri /home/afshar/src/kicad/kicad-symbols-master/Switch.lib))
    (library (logical chordboard-components)
      (uri /home/afshar/src/chordboard/hard/chordboard-kicad-libs/chordboard-components.lib)))
  (nets
    (net (code 1) (name GND)
      (node (ref esp1) (pin 34))
      (node (ref esp1) (pin 17))
      (node (ref SW65) (pin 1))
      (node (ref esp1) (pin 15))
      (node (ref CBIO2) (pin 1))
      (node (ref J1) (pin 2))
      (node (ref J4) (pin 4))
      (node (ref J3) (pin 4))
      (node (ref U2) (pin 27))
      (node (ref U2) (pin 39))
      (node (ref D1) (pin 1))
      (node (ref U2) (pin 1)))
    (net (code 2) (name /5V_ESP)
      (node (ref esp1) (pin 19)))
    (net (code 3) (name "Net-(esp1-Pad8)")
      (node (ref esp1) (pin 8)))
    (net (code 4) (name "Net-(esp1-Pad7)")
      (node (ref esp1) (pin 7)))
    (net (code 5) (name "Net-(CBIO2-Pad29)")
      (node (ref CBIO2) (pin 29)))
    (net (code 6) (name "Net-(CBIO2-Pad28)")
      (node (ref CBIO2) (pin 28)))
    (net (code 7) (name "Net-(CBIO2-Pad27)")
      (node (ref CBIO2) (pin 27)))
    (net (code 8) (name "Net-(CBIO2-Pad26)")
      (node (ref CBIO2) (pin 26)))
    (net (code 9) (name "Net-(CBIO2-Pad25)")
      (node (ref CBIO2) (pin 25)))
    (net (code 10) (name "Net-(CBIO2-Pad24)")
      (node (ref CBIO2) (pin 24)))
    (net (code 11) (name "Net-(CBIO2-Pad23)")
      (node (ref CBIO2) (pin 23)))
    (net (code 12) (name "Net-(CBIO2-Pad22)")
      (node (ref CBIO2) (pin 22)))
    (net (code 13) (name /CS4)
      (node (ref U2) (pin 35))
      (node (ref CBIO2) (pin 21)))
    (net (code 14) (name "Net-(CBIO2-Pad20)")
      (node (ref CBIO2) (pin 20)))
    (net (code 15) (name "Net-(esp1-Pad6)")
      (node (ref esp1) (pin 6)))
    (net (code 16) (name "Net-(CBIO2-Pad18)")
      (node (ref CBIO2) (pin 18)))
    (net (code 17) (name /LED_CS)
      (node (ref CBIO2) (pin 16))
      (node (ref U2) (pin 6)))
    (net (code 18) (name /CS1)
      (node (ref U2) (pin 32))
      (node (ref CBIO2) (pin 15)))
    (net (code 19) (name /LED_CLK)
      (node (ref CBIO2) (pin 14))
      (node (ref U2) (pin 5)))
    (net (code 20) (name /IO_CS)
      (node (ref CBIO2) (pin 13))
      (node (ref U2) (pin 23)))
    (net (code 21) (name /LED_DIN)
      (node (ref U2) (pin 4))
      (node (ref CBIO2) (pin 12)))
    (net (code 22) (name /IO_RST)
      (node (ref CBIO2) (pin 11))
      (node (ref U2) (pin 21)))
    (net (code 23) (name /IO_SS3)
      (node (ref CBIO2) (pin 10))
      (node (ref U2) (pin 36)))
    (net (code 24) (name "Net-(esp1-Pad12)")
      (node (ref esp1) (pin 12)))
    (net (code 25) (name /3V3_ESP)
      (node (ref esp1) (pin 1)))
    (net (code 26) (name "Net-(esp1-Pad16)")
      (node (ref esp1) (pin 16)))
    (net (code 27) (name +3V3)
      (node (ref R3) (pin 2))
      (node (ref R2) (pin 2))
      (node (ref CBIO2) (pin 4))
      (node (ref U2) (pin 26))
      (node (ref J4) (pin 3)))
    (net (code 28) (name +5V)
      (node (ref J1) (pin 1))
      (node (ref R1) (pin 2))
      (node (ref CBIO2) (pin 2)))
    (net (code 29) (name "Net-(esp1-Pad26)")
      (node (ref esp1) (pin 26)))
    (net (code 30) (name "Net-(esp1-Pad5)")
      (node (ref esp1) (pin 5)))
    (net (code 31) (name "Net-(esp1-Pad4)")
      (node (ref esp1) (pin 4)))
    (net (code 32) (name "Net-(esp1-Pad33)")
      (node (ref esp1) (pin 33)))
    (net (code 33) (name "Net-(esp1-Pad32)")
      (node (ref esp1) (pin 32)))
    (net (code 34) (name /ESP_TX0)
      (node (ref esp1) (pin 31)))
    (net (code 35) (name /ESP_RX0)
      (node (ref esp1) (pin 30)))
    (net (code 36) (name "Net-(esp1-Pad3)")
      (node (ref esp1) (pin 3)))
    (net (code 37) (name "Net-(esp1-Pad29)")
      (node (ref esp1) (pin 29)))
    (net (code 38) (name "Net-(esp1-Pad28)")
      (node (ref esp1) (pin 28)))
    (net (code 39) (name "Net-(esp1-Pad27)")
      (node (ref esp1) (pin 27)))
    (net (code 40) (name /IO_MISO)
      (node (ref U2) (pin 3))
      (node (ref CBIO2) (pin 3)))
    (net (code 41) (name "Net-(esp1-Pad25)")
      (node (ref esp1) (pin 25)))
    (net (code 42) (name /ESP_D0)
      (node (ref U2) (pin 47))
      (node (ref esp1) (pin 24)))
    (net (code 43) (name "Net-(esp1-Pad23)")
      (node (ref esp1) (pin 23)))
    (net (code 44) (name "Net-(esp1-Pad22)")
      (node (ref esp1) (pin 22)))
    (net (code 45) (name "Net-(esp1-Pad21)")
      (node (ref esp1) (pin 21)))
    (net (code 46) (name "Net-(esp1-Pad20)")
      (node (ref esp1) (pin 20)))
    (net (code 47) (name /ESP_RST)
      (node (ref U2) (pin 48))
      (node (ref esp1) (pin 2)))
    (net (code 48) (name "Net-(esp1-Pad18)")
      (node (ref esp1) (pin 18)))
    (net (code 49) (name "Net-(D1-Pad2)")
      (node (ref R1) (pin 1))
      (node (ref D1) (pin 2)))
    (net (code 50) (name /DBG_TX)
      (node (ref U2) (pin 20))
      (node (ref J3) (pin 3)))
    (net (code 51) (name /DEBUG_17)
      (node (ref J3) (pin 2))
      (node (ref U2) (pin 44)))
    (net (code 52) (name /ESP_LCK)
      (node (ref JP3) (pin 2))
      (node (ref esp1) (pin 11)))
    (net (code 53) (name /LCK)
      (node (ref JP3) (pin 1)))
    (net (code 54) (name /ESP_DIN)
      (node (ref JP2) (pin 2))
      (node (ref esp1) (pin 10)))
    (net (code 55) (name /DIN)
      (node (ref JP2) (pin 1)))
    (net (code 56) (name /ESP_BCK)
      (node (ref JP1) (pin 2))
      (node (ref esp1) (pin 9)))
    (net (code 57) (name "Net-(JP1-Pad1)")
      (node (ref JP1) (pin 1)))
    (net (code 58) (name /DEBUG_5)
      (node (ref U2) (pin 7))
      (node (ref J3) (pin 1)))
    (net (code 59) (name "Net-(CBIO2-Pad40)")
      (node (ref CBIO2) (pin 40)))
    (net (code 60) (name /IO_DC)
      (node (ref U2) (pin 22))
      (node (ref CBIO2) (pin 9)))
    (net (code 61) (name /IO_SS2)
      (node (ref U2) (pin 17))
      (node (ref CBIO2) (pin 8)))
    (net (code 62) (name /IO_SCK)
      (node (ref U2) (pin 24))
      (node (ref CBIO2) (pin 7)))
    (net (code 63) (name /IO_SS1)
      (node (ref U2) (pin 16))
      (node (ref CBIO2) (pin 6)))
    (net (code 64) (name /IO_MOSI)
      (node (ref U2) (pin 2))
      (node (ref CBIO2) (pin 5)))
    (net (code 65) (name "Net-(CBIO2-Pad39)")
      (node (ref CBIO2) (pin 39)))
    (net (code 66) (name "Net-(CBIO2-Pad38)")
      (node (ref CBIO2) (pin 38)))
    (net (code 67) (name "Net-(CBIO2-Pad37)")
      (node (ref CBIO2) (pin 37)))
    (net (code 68) (name "Net-(CBIO2-Pad36)")
      (node (ref CBIO2) (pin 36)))
    (net (code 69) (name "Net-(CBIO2-Pad35)")
      (node (ref CBIO2) (pin 35)))
    (net (code 70) (name "Net-(CBIO2-Pad34)")
      (node (ref CBIO2) (pin 34)))
    (net (code 71) (name "Net-(CBIO2-Pad33)")
      (node (ref CBIO2) (pin 33)))
    (net (code 72) (name "Net-(CBIO2-Pad32)")
      (node (ref CBIO2) (pin 32)))
    (net (code 73) (name "Net-(CBIO2-Pad31)")
      (node (ref CBIO2) (pin 31)))
    (net (code 74) (name "Net-(CBIO2-Pad30)")
      (node (ref CBIO2) (pin 30)))
    (net (code 75) (name /ESP_TX2)
      (node (ref U2) (pin 31))
      (node (ref esp1) (pin 14)))
    (net (code 76) (name /ESP_RX2)
      (node (ref U2) (pin 30))
      (node (ref esp1) (pin 13)))
    (net (code 78) (name "Net-(U2-Pad63)")
      (node (ref U2) (pin 63)))
    (net (code 79) (name "Net-(U2-Pad73)")
      (node (ref U2) (pin 73)))
    (net (code 80) (name "Net-(U2-Pad72)")
      (node (ref U2) (pin 72)))
    (net (code 81) (name "Net-(U2-Pad71)")
      (node (ref U2) (pin 71)))
    (net (code 82) (name "Net-(U2-Pad70)")
      (node (ref U2) (pin 70)))
    (net (code 83) (name "Net-(U2-Pad69)")
      (node (ref U2) (pin 69)))
    (net (code 84) (name "Net-(U2-Pad68)")
      (node (ref U2) (pin 68)))
    (net (code 85) (name "Net-(U2-Pad67)")
      (node (ref U2) (pin 67)))
    (net (code 86) (name "Net-(U2-Pad66)")
      (node (ref U2) (pin 66)))
    (net (code 87) (name "Net-(U2-Pad65)")
      (node (ref U2) (pin 65)))
    (net (code 88) (name "Net-(U2-Pad64)")
      (node (ref U2) (pin 64)))
    (net (code 89) (name "Net-(U2-Pad74)")
      (node (ref U2) (pin 74)))
    (net (code 90) (name "Net-(U2-Pad62)")
      (node (ref U2) (pin 62)))
    (net (code 91) (name "Net-(U2-Pad61)")
      (node (ref U2) (pin 61)))
    (net (code 92) (name "Net-(U2-Pad60)")
      (node (ref U2) (pin 60)))
    (net (code 93) (name "Net-(U2-Pad59)")
      (node (ref U2) (pin 59)))
    (net (code 94) (name "Net-(U2-Pad58)")
      (node (ref U2) (pin 58)))
    (net (code 95) (name "Net-(U2-Pad57)")
      (node (ref U2) (pin 57)))
    (net (code 96) (name "Net-(U2-Pad56)")
      (node (ref U2) (pin 56)))
    (net (code 97) (name "Net-(U2-Pad55)")
      (node (ref U2) (pin 55)))
    (net (code 98) (name "Net-(U2-Pad54)")
      (node (ref U2) (pin 54)))
    (net (code 99) (name /5v_TEE)
      (node (ref U2) (pin 53)))
    (net (code 100) (name "Net-(U2-Pad85)")
      (node (ref U2) (pin 85)))
    (net (code 101) (name /SCL)
      (node (ref J4) (pin 1))
      (node (ref R3) (pin 1))
      (node (ref U2) (pin 46)))
    (net (code 102) (name /AU_MOSI)
      (node (ref U2) (pin 9)))
    (net (code 103) (name "Net-(U2-Pad86)")
      (node (ref U2) (pin 86)))
    (net (code 104) (name GNDA)
      (node (ref U2) (pin 52)))
    (net (code 105) (name "Net-(U2-Pad84)")
      (node (ref U2) (pin 84)))
    (net (code 106) (name "Net-(U2-Pad83)")
      (node (ref U2) (pin 83)))
    (net (code 107) (name "Net-(U2-Pad82)")
      (node (ref U2) (pin 82)))
    (net (code 108) (name "Net-(U2-Pad81)")
      (node (ref U2) (pin 81)))
    (net (code 109) (name "Net-(U2-Pad80)")
      (node (ref U2) (pin 80)))
    (net (code 110) (name /AU_MEMCS)
      (node (ref U2) (pin 8)))
    (net (code 111) (name "Net-(U2-Pad79)")
      (node (ref U2) (pin 79)))
    (net (code 112) (name "Net-(U2-Pad78)")
      (node (ref U2) (pin 78)))
    (net (code 113) (name "Net-(U2-Pad77)")
      (node (ref U2) (pin 77)))
    (net (code 114) (name "Net-(U2-Pad76)")
      (node (ref U2) (pin 76)))
    (net (code 115) (name "Net-(U2-Pad75)")
      (node (ref U2) (pin 75)))
    (net (code 116) (name "Net-(U2-Pad29)")
      (node (ref U2) (pin 29)))
    (net (code 117) (name "Net-(U2-Pad25)")
      (node (ref U2) (pin 25)))
    (net (code 118) (name /RX2)
      (node (ref U2) (pin 19)))
    (net (code 119) (name /TX1)
      (node (ref U2) (pin 18)))
    (net (code 120) (name "Net-(U2-Pad15)")
      (node (ref U2) (pin 15)))
    (net (code 121) (name /AU_MISO)
      (node (ref U2) (pin 14)))
    (net (code 122) (name /AU_MCK)
      (node (ref U2) (pin 13)))
    (net (code 123) (name /AU_SDCS)
      (node (ref U2) (pin 12)))
    (net (code 124) (name /AU_BCK)
      (node (ref U2) (pin 11)))
    (net (code 125) (name /RE3S)
      (node (ref U2) (pin 10)))
    (net (code 126) (name /AU_SCK)
      (node (ref U2) (pin 41)))
    (net (code 127) (name /AU_3V3)
      (node (ref U2) (pin 51)))
    (net (code 128) (name /AU_LRCK)
      (node (ref U2) (pin 50)))
    (net (code 129) (name /AU_TXD)
      (node (ref U2) (pin 49)))
    (net (code 130) (name "Net-(U2-Pad43)")
      (node (ref U2) (pin 43)))
    (net (code 131) (name /AU_AN)
      (node (ref U2) (pin 42)))
    (net (code 132) (name /AU_RXD)
      (node (ref U2) (pin 40)))
    (net (code 133) (name /AN2)
      (node (ref U2) (pin 38)))
    (net (code 134) (name /AN1)
      (node (ref U2) (pin 37)))
    (net (code 135) (name /CS3)
      (node (ref CBIO2) (pin 19))
      (node (ref U2) (pin 34)))
    (net (code 136) (name /CS2)
      (node (ref U2) (pin 33))
      (node (ref CBIO2) (pin 17)))
    (net (code 137) (name "Net-(SW65-Pad2)")
      (node (ref U2) (pin 28))
      (node (ref SW65) (pin 2)))
    (net (code 138) (name /SDA)
      (node (ref J4) (pin 2))
      (node (ref U2) (pin 45))
      (node (ref R2) (pin 1)))))