EESchema Schematic File Version 4
LIBS:chordboard-cache
EELAYER 26 0
EELAYER END
$Descr A0 46811 33110
encoding utf-8
Sheet 1 1
Title ""
Date ""
Rev ""
Comp ""
Comment1 ""
Comment2 ""
Comment3 ""
Comment4 ""
$EndDescr
$Comp
L chordboard-components:Teensy3.6 U2
U 1 1 5BF71C9C
P 3700 4350
F 0 "U2" H 3700 6737 60  0000 C CNN
F 1 "Teensy3.6" H 3700 6631 60  0000 C CNN
F 2 "chordboard-footprints:Teensy35_36" H 3700 4350 60  0001 C CNN
F 3 "" H 3700 4350 60  0000 C CNN
	1    3700 4350
	1    0    0    -1  
$EndComp
Text Label 2700 2550 2    50   ~ 0
LED_DIN
Text Label 2700 2650 2    50   ~ 0
LED_CLK
Text Label 2700 2750 2    50   ~ 0
LED_CS
Text Label 5850 6350 0    50   ~ 0
SDA
Text Label 5850 6250 0    50   ~ 0
SCL
Wire Wire Line
	4700 6250 5700 6250
Wire Wire Line
	5850 6350 5600 6350
Wire Wire Line
	5700 6250 5700 5900
Connection ~ 5700 6250
Wire Wire Line
	5700 6250 5850 6250
Wire Wire Line
	5600 6350 5600 5900
Connection ~ 5600 6350
Wire Wire Line
	5600 6350 4700 6350
$Comp
L Device:R R2
U 1 1 5C841DD9
P 5600 5750
F 0 "R2" V 5393 5750 50  0000 C CNN
F 1 "R" V 5484 5750 50  0000 C CNN
F 2 "Resistor_THT:R_Axial_DIN0204_L3.6mm_D1.6mm_P7.62mm_Horizontal" V 5530 5750 50  0001 C CNN
F 3 "~" H 5600 5750 50  0001 C CNN
	1    5600 5750
	-1   0    0    1   
$EndComp
$Comp
L Device:R R3
U 1 1 5C842523
P 5700 5750
F 0 "R3" V 5493 5750 50  0000 C CNN
F 1 "R" V 5584 5750 50  0000 C CNN
F 2 "Resistor_THT:R_Axial_DIN0204_L3.6mm_D1.6mm_P7.62mm_Horizontal" V 5630 5750 50  0001 C CNN
F 3 "~" H 5700 5750 50  0001 C CNN
	1    5700 5750
	-1   0    0    1   
$EndComp
Wire Wire Line
	5600 5600 5600 5450
Wire Wire Line
	5600 5450 5650 5450
Wire Wire Line
	5700 5450 5700 5600
Wire Wire Line
	5650 5450 5650 5000
Connection ~ 5650 5450
Wire Wire Line
	5650 5450 5700 5450
$Comp
L power:+3.3V #PWR0110
U 1 1 5C92DEBE
P 5650 5000
F 0 "#PWR0110" H 5650 4850 50  0001 C CNN
F 1 "+3.3V" H 5665 5173 50  0000 C CNN
F 2 "" H 5650 5000 50  0001 C CNN
F 3 "" H 5650 5000 50  0001 C CNN
	1    5650 5000
	1    0    0    -1  
$EndComp
Wire Wire Line
	2700 4950 2250 4950
$Comp
L Switch:SW_SPST SW65
U 1 1 5CC03083
P 2050 4950
F 0 "SW65" H 2050 5185 50  0000 C CNN
F 1 "SW_SPST" H 2050 5094 50  0000 C CNN
F 2 "Button_Switch_THT:SW_Tactile_SPST_Angled_PTS645Vx58-2LFS" H 2050 4950 50  0001 C CNN
F 3 "" H 2050 4950 50  0001 C CNN
	1    2050 4950
	1    0    0    -1  
$EndComp
Wire Wire Line
	1850 4950 1450 4950
$Comp
L power:GND #PWR0112
U 1 1 5CC7D19A
P 1450 5750
F 0 "#PWR0112" H 1450 5500 50  0001 C CNN
F 1 "GND" H 1455 5577 50  0000 C CNN
F 2 "" H 1450 5750 50  0001 C CNN
F 3 "" H 1450 5750 50  0001 C CNN
	1    1450 5750
	-1   0    0    -1  
$EndComp
Wire Wire Line
	2700 4750 2200 4750
Wire Wire Line
	2200 4750 2200 4650
$Comp
L power:+3.3V #PWR0113
U 1 1 5CCF8650
P 2200 4650
F 0 "#PWR0113" H 2200 4500 50  0001 C CNN
F 1 "+3.3V" H 2215 4823 50  0000 C CNN
F 2 "" H 2200 4650 50  0001 C CNN
F 3 "" H 2200 4650 50  0001 C CNN
	1    2200 4650
	-1   0    0    -1  
$EndComp
Wire Wire Line
	1450 4950 1450 4850
Wire Wire Line
	1450 4850 2700 4850
Connection ~ 1450 4950
$Comp
L power:+3.3V #PWR0117
U 1 1 5C4887DF
P 11650 5700
F 0 "#PWR0117" H 11650 5550 50  0001 C CNN
F 1 "+3.3V" H 11665 5873 50  0000 C CNN
F 2 "" H 11650 5700 50  0001 C CNN
F 3 "" H 11650 5700 50  0001 C CNN
	1    11650 5700
	1    0    0    -1  
$EndComp
Wire Wire Line
	11650 5700 11650 5800
Wire Wire Line
	11650 5800 12000 5800
Wire Wire Line
	12000 5900 11850 5900
Wire Wire Line
	11850 5900 11850 6100
$Comp
L power:GND #PWR0118
U 1 1 5C589DF7
P 11850 6100
F 0 "#PWR0118" H 11850 5850 50  0001 C CNN
F 1 "GND" H 11855 5927 50  0000 C CNN
F 2 "" H 11850 6100 50  0001 C CNN
F 3 "" H 11850 6100 50  0001 C CNN
	1    11850 6100
	1    0    0    -1  
$EndComp
Text Label 12000 5700 2    50   ~ 0
SDA
Text Label 12000 5600 2    50   ~ 0
SCL
Text Label 2700 5250 2    50   ~ 0
RX5
Text Label 2700 5150 2    50   ~ 0
TX5
Text Label 2700 3150 2    50   ~ 0
RE3S
Text Label 2700 5850 2    50   ~ 0
AN1
Text Label 2700 5950 2    50   ~ 0
AN2
Wire Wire Line
	2700 6050 1450 6050
Wire Wire Line
	1450 6050 1450 6200
$Comp
L power:GND #PWR0119
U 1 1 5CA304C7
P 1450 6200
F 0 "#PWR0119" H 1450 5950 50  0001 C CNN
F 1 "GND" H 1455 6027 50  0000 C CNN
F 2 "" H 1450 6200 50  0001 C CNN
F 3 "" H 1450 6200 50  0001 C CNN
	1    1450 6200
	-1   0    0    -1  
$EndComp
Wire Wire Line
	2250 5050 2700 5050
Wire Wire Line
	1850 5050 1450 5050
Connection ~ 1450 5050
Wire Wire Line
	1450 5050 1450 4950
$Comp
L power:GNDA #PWR0120
U 1 1 5CBBF1BA
P 4700 5650
F 0 "#PWR0120" H 4700 5400 50  0001 C CNN
F 1 "GNDA" V 4705 5522 50  0000 R CNN
F 2 "" H 4700 5650 50  0001 C CNN
F 3 "" H 4700 5650 50  0001 C CNN
	1    4700 5650
	0    -1   -1   0   
$EndComp
NoConn ~ 2700 2950
NoConn ~ 2700 3050
NoConn ~ 2700 3250
NoConn ~ 2700 3350
NoConn ~ 2700 3450
NoConn ~ 2700 3550
NoConn ~ 2700 6150
NoConn ~ 2700 6250
NoConn ~ 4700 5950
NoConn ~ 4700 5850
Text Label 4700 5750 0    50   ~ 0
AU_3V3
Text Label 2700 2250 2    50   ~ 0
AU_GND
Text Label 4700 5850 0    50   ~ 0
AU_LRCK
NoConn ~ 4700 5750
Text Label 2700 2950 2    50   ~ 0
AU_MEMCS
Text Label 2700 3050 2    50   ~ 0
AU_MOSI
Text Label 2700 3250 2    50   ~ 0
AU_BCK
Text Label 2700 3350 2    50   ~ 0
AU_SDCS
Text Label 2700 3450 2    50   ~ 0
AU_MCK
Text Label 2700 3550 2    50   ~ 0
AU_MISO
Text Label 4700 5950 0    50   ~ 0
AU_TXD
Text Label 2700 6350 2    50   ~ 0
AU_AN
Text Label 2700 6250 2    50   ~ 0
AU_SCK
Text Label 2700 6150 2    50   ~ 0
AU_RXD
NoConn ~ 2700 6350
Text Label 2700 4450 2    50   ~ 0
IO_CS
Text Label 2700 4550 2    50   ~ 0
IO_SCK
Text Label 2700 2350 2    50   ~ 0
IO_MOSI
Text Label 2700 2450 2    50   ~ 0
IO_MISO
Text Label 2700 3750 2    50   ~ 0
IO_SS1
Text Label 2700 3850 2    50   ~ 0
IO_SS2
Text Label 2700 5750 2    50   ~ 0
IO_SS3
Text Label 2700 4350 2    50   ~ 0
IO_DC
Text Label 2700 4250 2    50   ~ 0
IO_RST
Wire Wire Line
	3700 7500 2950 7500
Wire Wire Line
	2950 7500 2950 7800
$Comp
L power:GND #PWR0142
U 1 1 67100615
P 2950 7800
F 0 "#PWR0142" H 2950 7550 50  0001 C CNN
F 1 "GND" H 2955 7627 50  0000 C CNN
F 2 "" H 2950 7800 50  0001 C CNN
F 3 "" H 2950 7800 50  0001 C CNN
	1    2950 7800
	-1   0    0    -1  
$EndComp
Wire Wire Line
	4200 7500 4400 7500
Wire Wire Line
	4400 7500 4400 7300
Wire Wire Line
	4200 7600 4500 7600
Wire Wire Line
	4500 7600 4500 7300
$Comp
L power:+5V #PWR0143
U 1 1 6710061F
P 4400 7300
F 0 "#PWR0143" H 4400 7150 50  0001 C CNN
F 1 "+5V" H 4415 7473 50  0000 C CNN
F 2 "" H 4400 7300 50  0001 C CNN
F 3 "" H 4400 7300 50  0001 C CNN
	1    4400 7300
	1    0    0    -1  
$EndComp
$Comp
L power:+3.3V #PWR0144
U 1 1 67100625
P 4500 7300
F 0 "#PWR0144" H 4500 7150 50  0001 C CNN
F 1 "+3.3V" H 4515 7473 50  0000 C CNN
F 2 "" H 4500 7300 50  0001 C CNN
F 3 "" H 4500 7300 50  0001 C CNN
	1    4500 7300
	1    0    0    -1  
$EndComp
Text Label 4200 8000 0    50   ~ 0
LED_DIN
Text Label 4200 8100 0    50   ~ 0
LED_CLK
Text Label 4200 8200 0    50   ~ 0
LED_CS
Text Label 4200 7700 0    50   ~ 0
IO_SS1
Text Label 4200 7800 0    50   ~ 0
IO_SS2
Text Label 4200 7900 0    50   ~ 0
IO_SS3
Text Label 3700 8100 2    50   ~ 0
IO_CS
Text Label 3700 7800 2    50   ~ 0
IO_SCK
Text Label 3700 7900 2    50   ~ 0
IO_DC
Text Label 3700 8000 2    50   ~ 0
IO_RST
Text Label 3700 7700 2    50   ~ 0
IO_MOSI
Text Label 3700 7600 2    50   ~ 0
IO_MISO
$Comp
L Mechanical:MountingHole H9
U 1 1 671782C8
P 3150 100
F 0 "H9" H 3250 146 50  0000 L CNN
F 1 "MountingHole" H 3250 55  50  0000 L CNN
F 2 "MountingHole:MountingHole_3.2mm_M3_Pad_Via" H 3150 100 50  0001 C CNN
F 3 "~" H 3150 100 50  0001 C CNN
	1    3150 100 
	1    0    0    -1  
$EndComp
$Comp
L Mechanical:MountingHole H10
U 1 1 671782CE
P 3150 300
F 0 "H10" H 3250 346 50  0000 L CNN
F 1 "MountingHole" H 3250 255 50  0000 L CNN
F 2 "MountingHole:MountingHole_3.2mm_M3_Pad_Via" H 3150 300 50  0001 C CNN
F 3 "~" H 3150 300 50  0001 C CNN
	1    3150 300 
	1    0    0    -1  
$EndComp
$Comp
L Mechanical:MountingHole H11
U 1 1 671782D4
P 3150 500
F 0 "H11" H 3250 546 50  0000 L CNN
F 1 "MountingHole" H 3250 455 50  0000 L CNN
F 2 "MountingHole:MountingHole_3.2mm_M3_Pad_Via" H 3150 500 50  0001 C CNN
F 3 "~" H 3150 500 50  0001 C CNN
	1    3150 500 
	1    0    0    -1  
$EndComp
$Comp
L Mechanical:MountingHole H12
U 1 1 671782DA
P 3150 700
F 0 "H12" H 3250 746 50  0000 L CNN
F 1 "MountingHole" H 3250 655 50  0000 L CNN
F 2 "MountingHole:MountingHole_3.2mm_M3_Pad_Via" H 3150 700 50  0001 C CNN
F 3 "~" H 3150 700 50  0001 C CNN
	1    3150 700 
	1    0    0    -1  
$EndComp
$Comp
L chordboard-components:esp32-ttgo-1.8 esp1
U 1 1 67265F97
P 8950 2350
F 0 "esp1" H 8925 3115 50  0000 C CNN
F 1 "esp32-ttgo-1.8" H 8925 3024 50  0000 C CNN
F 2 "chordboard-footprints:esp32-ttgo-1.8" H 8950 2350 50  0001 C CNN
F 3 "" H 8950 2350 50  0001 C CNN
	1    8950 2350
	1    0    0    -1  
$EndComp
Wire Wire Line
	9500 3350 10200 3350
Wire Wire Line
	10200 3350 10200 3050
Text Label 10200 3050 0    50   ~ 0
5V_ESP
Wire Wire Line
	9500 1850 10300 1850
Wire Wire Line
	10300 1850 10300 2150
Wire Wire Line
	8350 3450 8150 3450
Wire Wire Line
	8150 3450 8150 3700
$Comp
L power:GND #PWR0145
U 1 1 673D5A5E
P 8150 3700
F 0 "#PWR0145" H 8150 3450 50  0001 C CNN
F 1 "GND" H 8155 3527 50  0000 C CNN
F 2 "" H 8150 3700 50  0001 C CNN
F 3 "" H 8150 3700 50  0001 C CNN
	1    8150 3700
	1    0    0    -1  
$EndComp
$Comp
L power:GND #PWR0153
U 1 1 673D5C1F
P 10300 2150
F 0 "#PWR0153" H 10300 1900 50  0001 C CNN
F 1 "GND" H 10305 1977 50  0000 C CNN
F 2 "" H 10300 2150 50  0001 C CNN
F 3 "" H 10300 2150 50  0001 C CNN
	1    10300 2150
	1    0    0    -1  
$EndComp
Text Label 8350 3050 2    50   ~ 0
ESP_RX2
Text Label 8350 3150 2    50   ~ 0
ESP_TX2
Text Label 2700 3950 2    50   ~ 0
TX1
Text Label 2700 4050 2    50   ~ 0
RX2
Text Label 9500 2150 0    50   ~ 0
ESP_TX0
Text Label 9500 2250 0    50   ~ 0
ESP_RX0
Text Label 9500 2850 0    50   ~ 0
ESP_D0
Text Label 8350 1950 2    50   ~ 0
ESP_RST
Wire Wire Line
	8350 3250 8150 3250
Wire Wire Line
	8150 3250 8150 3450
Connection ~ 8150 3450
$Comp
L Connector_Generic:Conn_02x20_Odd_Even CBIO2
U 1 1 67999843
P 3900 8400
F 0 "CBIO2" H 3950 9517 50  0000 C CNN
F 1 "Conn_02x20_Odd_Even" H 3950 9426 50  0000 C CNN
F 2 "Connector_IDC:IDC-Header_2x20_P2.54mm_Vertical" H 3900 8400 50  0001 C CNN
F 3 "~" H 3900 8400 50  0001 C CNN
	1    3900 8400
	1    0    0    -1  
$EndComp
Text Label 2700 5650 2    50   ~ 0
CS4
Text Label 2700 5350 2    50   ~ 0
CS1
Text Label 2700 5450 2    50   ~ 0
CS2
Text Label 2700 5550 2    50   ~ 0
CS3
Text Label 3700 8500 2    50   ~ 0
CS4
Text Label 3700 8200 2    50   ~ 0
CS1
Text Label 3700 8300 2    50   ~ 0
CS2
Text Label 3700 8400 2    50   ~ 0
CS3
Wire Wire Line
	1450 5050 1450 5750
Text Label 8350 2650 2    50   ~ 0
ESP_BCK
Text Label 8350 2750 2    50   ~ 0
ESP_DIN
Text Label 8350 2850 2    50   ~ 0
ESP_LCK
Text Label 4700 5550 0    50   ~ 0
5v_TEE
Text Label 6450 4700 3    50   ~ 0
ESP_BCK
Text Label 6550 4700 3    50   ~ 0
ESP_DIN
Text Label 6650 4700 3    50   ~ 0
ESP_LCK
Text Label 6450 4300 1    50   ~ 0
BCK
Text Label 6650 4300 1    50   ~ 0
LCK
Text Label 6550 4300 1    50   ~ 0
DIN
Text Label 4700 6150 0    50   ~ 0
ESP_D0
Text Label 4700 6050 0    50   ~ 0
ESP_RST
Wire Wire Line
	8350 3050 7850 3050
Wire Wire Line
	8350 3150 7850 3150
Text Label 7850 3050 2    50   ~ 0
TX5
Text Label 7850 3150 2    50   ~ 0
RX5
Text Label 2700 4150 2    50   ~ 0
DBG_TX
Text Label 8350 1850 2    50   ~ 0
3V3_ESP
$Comp
L Connector_Generic:Conn_01x04 J3
U 1 1 5C0AAE6E
P 6650 5650
F 0 "J3" H 6730 5642 50  0000 L CNN
F 1 "Conn_01x04" H 6730 5551 50  0000 L CNN
F 2 "Connector_JST:JST_EH_B04B-EH-A_1x04_P2.50mm_Vertical" H 6650 5650 50  0001 C CNN
F 3 "~" H 6650 5650 50  0001 C CNN
	1    6650 5650
	1    0    0    -1  
$EndComp
$Comp
L Connector:Screw_Terminal_01x02 J1
U 1 1 5C0AB2FB
P 6400 1250
F 0 "J1" H 6480 1242 50  0000 L CNN
F 1 "Screw_Terminal_01x02" H 6480 1151 50  0000 L CNN
F 2 "TerminalBlock_Phoenix:TerminalBlock_Phoenix_PT-1,5-2-3.5-H_1x02_P3.50mm_Horizontal" H 6400 1250 50  0001 C CNN
F 3 "~" H 6400 1250 50  0001 C CNN
	1    6400 1250
	1    0    0    -1  
$EndComp
Wire Wire Line
	6200 1250 6050 1250
Wire Wire Line
	6050 1250 6050 1050
Wire Wire Line
	6200 1350 6050 1350
Wire Wire Line
	6050 1350 6050 1550
$Comp
L power:+5V #PWR0102
U 1 1 5C0AD89F
P 6050 950
F 0 "#PWR0102" H 6050 800 50  0001 C CNN
F 1 "+5V" H 6065 1123 50  0000 C CNN
F 2 "" H 6050 950 50  0001 C CNN
F 3 "" H 6050 950 50  0001 C CNN
	1    6050 950 
	1    0    0    -1  
$EndComp
$Comp
L power:GND #PWR0103
U 1 1 5C0AD933
P 6050 1550
F 0 "#PWR0103" H 6050 1300 50  0001 C CNN
F 1 "GND" H 6055 1377 50  0000 C CNN
F 2 "" H 6050 1550 50  0001 C CNN
F 3 "" H 6050 1550 50  0001 C CNN
	1    6050 1550
	1    0    0    -1  
$EndComp
Wire Wire Line
	6050 1050 5600 1050
Connection ~ 6050 1050
Wire Wire Line
	6050 1050 6050 950 
$Comp
L Device:R R1
U 1 1 5C0B4702
P 5450 1050
F 0 "R1" V 5243 1050 50  0000 C CNN
F 1 "R" V 5334 1050 50  0000 C CNN
F 2 "Resistor_THT:R_Axial_DIN0204_L3.6mm_D1.6mm_P7.62mm_Horizontal" V 5380 1050 50  0001 C CNN
F 3 "~" H 5450 1050 50  0001 C CNN
	1    5450 1050
	0    -1   -1   0   
$EndComp
$Comp
L Device:LED D1
U 1 1 5C0B4918
P 5150 1050
F 0 "D1" H 5141 1266 50  0000 C CNN
F 1 "LED" H 5141 1175 50  0000 C CNN
F 2 "LED_THT:LED_D1.8mm_W3.3mm_H2.4mm" H 5150 1050 50  0001 C CNN
F 3 "~" H 5150 1050 50  0001 C CNN
	1    5150 1050
	1    0    0    -1  
$EndComp
Wire Wire Line
	5000 1050 4750 1050
Wire Wire Line
	4750 1050 4750 1350
$Comp
L power:GND #PWR0105
U 1 1 5C0B5F80
P 4750 1350
F 0 "#PWR0105" H 4750 1100 50  0001 C CNN
F 1 "GND" H 4755 1177 50  0000 C CNN
F 2 "" H 4750 1350 50  0001 C CNN
F 3 "" H 4750 1350 50  0001 C CNN
	1    4750 1350
	1    0    0    -1  
$EndComp
Wire Wire Line
	2700 2250 1850 2250
Wire Wire Line
	1850 2250 1850 2550
$Comp
L power:GND #PWR0104
U 1 1 5C0B7F9B
P 1850 2550
F 0 "#PWR0104" H 1850 2300 50  0001 C CNN
F 1 "GND" H 1855 2377 50  0000 C CNN
F 2 "" H 1850 2550 50  0001 C CNN
F 3 "" H 1850 2550 50  0001 C CNN
	1    1850 2550
	-1   0    0    -1  
$EndComp
Text Label 6450 5750 2    50   ~ 0
DBG_TX
Wire Wire Line
	6450 5850 6400 5850
Wire Wire Line
	6400 5850 6400 5950
$Comp
L power:GND #PWR0106
U 1 1 5C0BBB7D
P 6400 5950
F 0 "#PWR0106" H 6400 5700 50  0001 C CNN
F 1 "GND" H 6405 5777 50  0000 C CNN
F 2 "" H 6400 5950 50  0001 C CNN
F 3 "" H 6400 5950 50  0001 C CNN
	1    6400 5950
	1    0    0    -1  
$EndComp
Text Label 2700 2850 2    50   ~ 0
DEBUG_5
Text Label 4700 6450 0    50   ~ 0
DEBUG_17
Text Label 6450 5650 2    50   ~ 0
DEBUG_17
Text Label 6450 5550 2    50   ~ 0
DEBUG_5
$Comp
L Connector_Generic:Conn_01x04 J4
U 1 1 5C0BE4BA
P 12200 5700
F 0 "J4" H 12280 5692 50  0000 L CNN
F 1 "I2C" H 12280 5601 50  0000 L CNN
F 2 "Connector_JST:JST_PH_B4B-PH-K_1x04_P2.00mm_Vertical" H 12200 5700 50  0001 C CNN
F 3 "~" H 12200 5700 50  0001 C CNN
	1    12200 5700
	1    0    0    -1  
$EndComp
$Comp
L Jumper:Jumper_2_Bridged JP1
U 1 1 5C0C3B00
P 6450 4500
F 0 "JP1" V 6404 4558 50  0000 L CNN
F 1 "Jumper_2_Bridged" V 6495 4558 50  0000 L CNN
F 2 "Jumper:SolderJumper-2_P1.3mm_Bridged_RoundedPad1.0x1.5mm" H 6450 4500 50  0001 C CNN
F 3 "~" H 6450 4500 50  0001 C CNN
	1    6450 4500
	0    1    1    0   
$EndComp
$Comp
L Jumper:Jumper_2_Bridged JP2
U 1 1 5C0C6DE1
P 6550 4500
F 0 "JP2" V 6504 4558 50  0000 L CNN
F 1 "Jumper_2_Bridged" V 6595 4558 50  0000 L CNN
F 2 "Jumper:SolderJumper-2_P1.3mm_Bridged_RoundedPad1.0x1.5mm" H 6550 4500 50  0001 C CNN
F 3 "~" H 6550 4500 50  0001 C CNN
	1    6550 4500
	0    1    1    0   
$EndComp
$Comp
L Jumper:Jumper_2_Bridged JP3
U 1 1 5C0C6E1D
P 6650 4500
F 0 "JP3" V 6604 4558 50  0000 L CNN
F 1 "Jumper_2_Bridged" V 6695 4558 50  0000 L CNN
F 2 "Jumper:SolderJumper-2_P1.3mm_Bridged_RoundedPad1.0x1.5mm" H 6650 4500 50  0001 C CNN
F 3 "~" H 6650 4500 50  0001 C CNN
	1    6650 4500
	0    1    1    0   
$EndComp
$Comp
L power:+3.3V #PWR?
U 1 1 5C0CCEED
P 12600 5700
F 0 "#PWR?" H 12600 5550 50  0001 C CNN
F 1 "+3.3V" H 12615 5873 50  0000 C CNN
F 2 "" H 12600 5700 50  0001 C CNN
F 3 "" H 12600 5700 50  0001 C CNN
	1    12600 5700
	1    0    0    -1  
$EndComp
Wire Wire Line
	12600 5700 12600 5800
Wire Wire Line
	12600 5800 12950 5800
Wire Wire Line
	12950 5900 12800 5900
Wire Wire Line
	12800 5900 12800 6100
$Comp
L power:GND #PWR?
U 1 1 5C0CCEF7
P 12800 6100
F 0 "#PWR?" H 12800 5850 50  0001 C CNN
F 1 "GND" H 12805 5927 50  0000 C CNN
F 2 "" H 12800 6100 50  0001 C CNN
F 3 "" H 12800 6100 50  0001 C CNN
	1    12800 6100
	1    0    0    -1  
$EndComp
Text Label 12950 5700 2    50   ~ 0
SDA
Text Label 12950 5600 2    50   ~ 0
SCL
$Comp
L Connector_Generic:Conn_01x04 J?
U 1 1 5C0CCEFF
P 13150 5700
F 0 "J?" H 13230 5692 50  0000 L CNN
F 1 "I2C" H 13230 5601 50  0000 L CNN
F 2 "Connector_JST:JST_PH_B4B-PH-K_1x04_P2.00mm_Vertical" H 13150 5700 50  0001 C CNN
F 3 "~" H 13150 5700 50  0001 C CNN
	1    13150 5700
	1    0    0    -1  
$EndComp
$EndSCHEMATC
