M48
;DRILL file {KiCad 4.0.6+dfsg1-1} date Thu Jan 18 21:24:09 2018
;FORMAT={-:-/ absolute / inch / decimal}
FMAT,2
INCH,TZ
T1C0.067
T2C0.079
T3C0.157
%
G90
G05
M72
T1
X3.5Y-3.
X3.5Y-3.75
X3.9Y-3.
X3.9Y-3.75
X4.25Y-3.
X4.25Y-3.75
X4.65Y-3.
X4.65Y-3.75
X5.Y-3.
X5.Y-3.75
X5.4Y-3.
X5.4Y-3.75
X5.75Y-3.
X5.75Y-3.75
X6.15Y-3.
X6.15Y-3.75
X6.5Y-3.
X6.5Y-3.75
X6.9Y-3.
X6.9Y-3.75
X7.25Y-3.
X7.25Y-3.75
X7.65Y-3.
X7.65Y-3.75
X8.Y-3.
X8.Y-3.75
X8.4Y-3.
X8.4Y-3.75
X9.4Y-1.5
X9.4Y-2.25
X9.4Y-3.
X9.4Y-3.75
X9.8Y-1.5
X9.8Y-2.25
X9.8Y-3.
X9.8Y-3.75
X10.15Y-1.5
X10.15Y-2.25
X10.15Y-3.
X10.15Y-3.75
X10.55Y-1.5
X10.55Y-2.25
X10.55Y-3.
X10.55Y-3.75
X10.9Y-1.5
X10.9Y-2.25
X10.9Y-3.
X10.9Y-3.75
X11.3Y-1.5
X11.3Y-2.25
X11.3Y-3.
X11.3Y-3.75
X11.65Y-1.5
X11.65Y-2.25
X11.65Y-3.
X11.65Y-3.75
X12.05Y-1.5
X12.05Y-2.25
X12.05Y-3.
X12.05Y-3.75
T2
X12.8752Y-1.3
X12.8752Y-2.0256
X12.8752Y-2.7506
X13.2217Y-1.3
X13.2217Y-2.0256
X13.2217Y-2.7506
T3
X3.7Y-3.
X3.7Y-3.75
X4.45Y-3.
X4.45Y-3.75
X5.2Y-3.
X5.2Y-3.75
X5.95Y-3.
X5.95Y-3.75
X6.7Y-3.
X6.7Y-3.75
X7.45Y-3.
X7.45Y-3.75
X8.2Y-3.
X8.2Y-3.75
X9.6Y-1.5
X9.6Y-2.25
X9.6Y-3.
X9.6Y-3.75
X10.35Y-1.5
X10.35Y-2.25
X10.35Y-3.
X10.35Y-3.75
X11.1Y-1.5
X11.1Y-2.25
X11.1Y-3.
X11.1Y-3.75
X11.85Y-1.5
X11.85Y-2.25
X11.85Y-3.
X11.85Y-3.75
T0
M30
