G04 #@! TF.GenerationSoftware,KiCad,Pcbnew,5.0.0+dfsg1-2~bpo9+1*
G04 #@! TF.CreationDate,2018-12-15T18:36:23+00:00*
G04 #@! TF.ProjectId,chordboard,63686F7264626F6172642E6B69636164,rev?*
G04 #@! TF.SameCoordinates,Original*
G04 #@! TF.FileFunction,Copper,L1,Top,Signal*
G04 #@! TF.FilePolarity,Positive*
%FSLAX46Y46*%
G04 Gerber Fmt 4.6, Leading zero omitted, Abs format (unit mm)*
G04 Created by KiCad (PCBNEW 5.0.0+dfsg1-2~bpo9+1) date Sat Dec 15 18:36:23 2018*
%MOMM*%
%LPD*%
G01*
G04 APERTURE LIST*
G04 #@! TA.AperFunction,ComponentPad*
%ADD10C,0.800000*%
G04 #@! TD*
G04 #@! TA.AperFunction,ComponentPad*
%ADD11C,6.400000*%
G04 #@! TD*
G04 #@! TA.AperFunction,ComponentPad*
%ADD12C,1.600000*%
G04 #@! TD*
G04 #@! TA.AperFunction,ComponentPad*
%ADD13R,1.600000X1.600000*%
G04 #@! TD*
G04 #@! TA.AperFunction,ComponentPad*
%ADD14R,1.800000X1.800000*%
G04 #@! TD*
G04 #@! TA.AperFunction,ComponentPad*
%ADD15C,1.800000*%
G04 #@! TD*
G04 #@! TA.AperFunction,ComponentPad*
%ADD16C,1.400000*%
G04 #@! TD*
G04 #@! TA.AperFunction,ComponentPad*
%ADD17O,1.400000X1.400000*%
G04 #@! TD*
G04 #@! TA.AperFunction,ComponentPad*
%ADD18C,2.286000*%
G04 #@! TD*
G04 #@! TA.AperFunction,ComponentPad*
%ADD19O,1.600000X1.600000*%
G04 #@! TD*
G04 #@! TA.AperFunction,Conductor*
%ADD20C,0.100000*%
G04 #@! TD*
G04 #@! TA.AperFunction,ComponentPad*
%ADD21C,1.200000*%
G04 #@! TD*
G04 #@! TA.AperFunction,ComponentPad*
%ADD22O,1.200000X1.750000*%
G04 #@! TD*
G04 #@! TA.AperFunction,ViaPad*
%ADD23C,0.800000*%
G04 #@! TD*
G04 #@! TA.AperFunction,Conductor*
%ADD24C,0.400000*%
G04 #@! TD*
G04 #@! TA.AperFunction,Conductor*
%ADD25C,0.600000*%
G04 #@! TD*
G04 APERTURE END LIST*
D10*
G04 #@! TO.P,H1,1*
G04 #@! TO.N,N/C*
X114587056Y187117056D03*
X112890000Y187820000D03*
X111192944Y187117056D03*
X110490000Y185420000D03*
X111192944Y183722944D03*
X112890000Y183020000D03*
X114587056Y183722944D03*
X115290000Y185420000D03*
D11*
X112890000Y185420000D03*
G04 #@! TD*
G04 #@! TO.P,H2,1*
G04 #@! TO.N,N/C*
X-11430000Y185420000D03*
D10*
X-9030000Y185420000D03*
X-9732944Y183722944D03*
X-11430000Y183020000D03*
X-13127056Y183722944D03*
X-13830000Y185420000D03*
X-13127056Y187117056D03*
X-11430000Y187820000D03*
X-9732944Y187117056D03*
G04 #@! TD*
G04 #@! TO.P,H3,1*
G04 #@! TO.N,N/C*
X-9732944Y236647056D03*
X-11430000Y237350000D03*
X-13127056Y236647056D03*
X-13830000Y234950000D03*
X-13127056Y233252944D03*
X-11430000Y232550000D03*
X-9732944Y233252944D03*
X-9030000Y234950000D03*
D11*
X-11430000Y234950000D03*
G04 #@! TD*
G04 #@! TO.P,H4,1*
G04 #@! TO.N,N/C*
X113030000Y234950000D03*
D10*
X115430000Y234950000D03*
X114727056Y233252944D03*
X113030000Y232550000D03*
X111332944Y233252944D03*
X110630000Y234950000D03*
X111332944Y236647056D03*
X113030000Y237350000D03*
X114727056Y236647056D03*
G04 #@! TD*
D12*
G04 #@! TO.P,C1,1*
G04 #@! TO.N,+3V3*
X20955000Y192405000D03*
G04 #@! TO.P,C1,2*
G04 #@! TO.N,GND*
X23455000Y192405000D03*
G04 #@! TD*
D13*
G04 #@! TO.P,C2,1*
G04 #@! TO.N,+3V3*
X95250000Y187325000D03*
D12*
G04 #@! TO.P,C2,2*
G04 #@! TO.N,GND*
X97250000Y187325000D03*
G04 #@! TD*
G04 #@! TO.P,C3,1*
G04 #@! TO.N,+3V3*
X78105000Y192405000D03*
G04 #@! TO.P,C3,2*
G04 #@! TO.N,GND*
X80605000Y192405000D03*
G04 #@! TD*
D13*
G04 #@! TO.P,C4,1*
G04 #@! TO.N,+3V3*
X38100000Y187325000D03*
D12*
G04 #@! TO.P,C4,2*
G04 #@! TO.N,GND*
X40100000Y187325000D03*
G04 #@! TD*
D14*
G04 #@! TO.P,LED1,1*
G04 #@! TO.N,Net-(LED1-Pad1)*
X-7620000Y206375000D03*
D15*
G04 #@! TO.P,LED1,2*
G04 #@! TO.N,Net-(LED1-Pad2)*
X-5080000Y206375000D03*
G04 #@! TD*
G04 #@! TO.P,LED2,2*
G04 #@! TO.N,Net-(LED2-Pad2)*
X13970000Y206375000D03*
D14*
G04 #@! TO.P,LED2,1*
G04 #@! TO.N,Net-(LED2-Pad1)*
X11430000Y206375000D03*
G04 #@! TD*
G04 #@! TO.P,LED3,1*
G04 #@! TO.N,Net-(LED3-Pad1)*
X30480000Y206375000D03*
D15*
G04 #@! TO.P,LED3,2*
G04 #@! TO.N,Net-(LED3-Pad2)*
X33020000Y206375000D03*
G04 #@! TD*
G04 #@! TO.P,LED4,2*
G04 #@! TO.N,Net-(LED4-Pad2)*
X52070000Y206375000D03*
D14*
G04 #@! TO.P,LED4,1*
G04 #@! TO.N,Net-(LED4-Pad1)*
X49530000Y206375000D03*
G04 #@! TD*
G04 #@! TO.P,LED5,1*
G04 #@! TO.N,Net-(LED5-Pad1)*
X68580000Y206375000D03*
D15*
G04 #@! TO.P,LED5,2*
G04 #@! TO.N,Net-(LED5-Pad2)*
X71120000Y206375000D03*
G04 #@! TD*
G04 #@! TO.P,LED6,2*
G04 #@! TO.N,Net-(LED6-Pad2)*
X90170000Y206375000D03*
D14*
G04 #@! TO.P,LED6,1*
G04 #@! TO.N,Net-(LED6-Pad1)*
X87630000Y206375000D03*
G04 #@! TD*
G04 #@! TO.P,LED7,1*
G04 #@! TO.N,Net-(LED7-Pad1)*
X106680000Y206375000D03*
D15*
G04 #@! TO.P,LED7,2*
G04 #@! TO.N,Net-(LED7-Pad2)*
X109220000Y206375000D03*
G04 #@! TD*
G04 #@! TO.P,LED8,2*
G04 #@! TO.N,Net-(LED8-Pad2)*
X-5080000Y225425000D03*
D14*
G04 #@! TO.P,LED8,1*
G04 #@! TO.N,Net-(LED8-Pad1)*
X-7620000Y225425000D03*
G04 #@! TD*
G04 #@! TO.P,LED9,1*
G04 #@! TO.N,Net-(LED9-Pad1)*
X11430000Y225425000D03*
D15*
G04 #@! TO.P,LED9,2*
G04 #@! TO.N,Net-(LED9-Pad2)*
X13970000Y225425000D03*
G04 #@! TD*
G04 #@! TO.P,LED10,2*
G04 #@! TO.N,Net-(LED10-Pad2)*
X33020000Y225425000D03*
D14*
G04 #@! TO.P,LED10,1*
G04 #@! TO.N,Net-(LED10-Pad1)*
X30480000Y225425000D03*
G04 #@! TD*
G04 #@! TO.P,LED11,1*
G04 #@! TO.N,Net-(LED11-Pad1)*
X49530000Y225425000D03*
D15*
G04 #@! TO.P,LED11,2*
G04 #@! TO.N,Net-(LED11-Pad2)*
X52070000Y225425000D03*
G04 #@! TD*
D14*
G04 #@! TO.P,LED12,1*
G04 #@! TO.N,Net-(LED12-Pad1)*
X68580000Y225425000D03*
D15*
G04 #@! TO.P,LED12,2*
G04 #@! TO.N,Net-(LED12-Pad2)*
X71120000Y225425000D03*
G04 #@! TD*
G04 #@! TO.P,LED13,2*
G04 #@! TO.N,Net-(LED13-Pad2)*
X90170000Y225425000D03*
D14*
G04 #@! TO.P,LED13,1*
G04 #@! TO.N,Net-(LED13-Pad1)*
X87630000Y225425000D03*
G04 #@! TD*
G04 #@! TO.P,LED14,1*
G04 #@! TO.N,Net-(LED14-Pad1)*
X106680000Y225425000D03*
D15*
G04 #@! TO.P,LED14,2*
G04 #@! TO.N,Net-(LED14-Pad2)*
X109220000Y225425000D03*
G04 #@! TD*
D16*
G04 #@! TO.P,R1,1*
G04 #@! TO.N,Net-(LED1-Pad2)*
X3175000Y206375000D03*
D17*
G04 #@! TO.P,R1,2*
G04 #@! TO.N,+3V3*
X3175000Y198755000D03*
G04 #@! TD*
G04 #@! TO.P,R2,2*
G04 #@! TO.N,+3V3*
X21590000Y198755000D03*
D16*
G04 #@! TO.P,R2,1*
G04 #@! TO.N,Net-(LED2-Pad2)*
X21590000Y206375000D03*
G04 #@! TD*
G04 #@! TO.P,R3,1*
G04 #@! TO.N,Net-(LED3-Pad2)*
X40640000Y206375000D03*
D17*
G04 #@! TO.P,R3,2*
G04 #@! TO.N,+3V3*
X40640000Y198755000D03*
G04 #@! TD*
G04 #@! TO.P,R4,2*
G04 #@! TO.N,+3V3*
X59690000Y198755000D03*
D16*
G04 #@! TO.P,R4,1*
G04 #@! TO.N,Net-(LED4-Pad2)*
X59690000Y206375000D03*
G04 #@! TD*
G04 #@! TO.P,R5,1*
G04 #@! TO.N,Net-(LED5-Pad2)*
X78740000Y206375000D03*
D17*
G04 #@! TO.P,R5,2*
G04 #@! TO.N,+3V3*
X78740000Y198755000D03*
G04 #@! TD*
G04 #@! TO.P,R6,2*
G04 #@! TO.N,+3V3*
X97790000Y198755000D03*
D16*
G04 #@! TO.P,R6,1*
G04 #@! TO.N,Net-(LED6-Pad2)*
X97790000Y206375000D03*
G04 #@! TD*
G04 #@! TO.P,R7,1*
G04 #@! TO.N,Net-(LED7-Pad2)*
X116840000Y206375000D03*
D17*
G04 #@! TO.P,R7,2*
G04 #@! TO.N,+3V3*
X116840000Y198755000D03*
G04 #@! TD*
G04 #@! TO.P,R8,2*
G04 #@! TO.N,+3V3*
X2540000Y217805000D03*
D16*
G04 #@! TO.P,R8,1*
G04 #@! TO.N,Net-(LED8-Pad2)*
X2540000Y225425000D03*
G04 #@! TD*
D17*
G04 #@! TO.P,R9,2*
G04 #@! TO.N,+3V3*
X21590000Y217805000D03*
D16*
G04 #@! TO.P,R9,1*
G04 #@! TO.N,Net-(LED9-Pad2)*
X21590000Y225425000D03*
G04 #@! TD*
G04 #@! TO.P,R10,1*
G04 #@! TO.N,Net-(LED10-Pad2)*
X40640000Y225425000D03*
D17*
G04 #@! TO.P,R10,2*
G04 #@! TO.N,+3V3*
X40640000Y217805000D03*
G04 #@! TD*
G04 #@! TO.P,R11,2*
G04 #@! TO.N,+3V3*
X59690000Y217805000D03*
D16*
G04 #@! TO.P,R11,1*
G04 #@! TO.N,Net-(LED11-Pad2)*
X59690000Y225425000D03*
G04 #@! TD*
G04 #@! TO.P,R12,1*
G04 #@! TO.N,Net-(LED12-Pad2)*
X78740000Y225425000D03*
D17*
G04 #@! TO.P,R12,2*
G04 #@! TO.N,+3V3*
X78740000Y217805000D03*
G04 #@! TD*
D16*
G04 #@! TO.P,R13,1*
G04 #@! TO.N,Net-(LED13-Pad2)*
X97790000Y225425000D03*
D17*
G04 #@! TO.P,R13,2*
G04 #@! TO.N,+3V3*
X97790000Y217805000D03*
G04 #@! TD*
G04 #@! TO.P,R14,2*
G04 #@! TO.N,+3V3*
X115570000Y217805000D03*
D16*
G04 #@! TO.P,R14,1*
G04 #@! TO.N,Net-(LED14-Pad2)*
X115570000Y225425000D03*
G04 #@! TD*
G04 #@! TO.P,R17,1*
G04 #@! TO.N,GND*
X104140000Y189865000D03*
D17*
G04 #@! TO.P,R17,2*
G04 #@! TO.N,Net-(JP2-Pad2)*
X104140000Y182245000D03*
G04 #@! TD*
G04 #@! TO.P,R18,2*
G04 #@! TO.N,Net-(JP1-Pad2)*
X100965000Y182245000D03*
D16*
G04 #@! TO.P,R18,1*
G04 #@! TO.N,GND*
X100965000Y189865000D03*
G04 #@! TD*
D18*
G04 #@! TO.P,SW1,2*
G04 #@! TO.N,GND*
X-2540000Y198120000D03*
G04 #@! TO.P,SW1,1*
G04 #@! TO.N,Net-(SW1-Pad1)*
X-8890000Y195580000D03*
G04 #@! TD*
G04 #@! TO.P,SW2,2*
G04 #@! TO.N,GND*
X16510000Y198120000D03*
G04 #@! TO.P,SW2,1*
G04 #@! TO.N,Net-(SW2-Pad1)*
X10160000Y195580000D03*
G04 #@! TD*
G04 #@! TO.P,SW3,1*
G04 #@! TO.N,Net-(SW3-Pad1)*
X29210000Y195580000D03*
G04 #@! TO.P,SW3,2*
G04 #@! TO.N,GND*
X35560000Y198120000D03*
G04 #@! TD*
G04 #@! TO.P,SW4,2*
G04 #@! TO.N,GND*
X54610000Y198120000D03*
G04 #@! TO.P,SW4,1*
G04 #@! TO.N,Net-(SW4-Pad1)*
X48260000Y195580000D03*
G04 #@! TD*
G04 #@! TO.P,SW5,1*
G04 #@! TO.N,Net-(SW5-Pad1)*
X67310000Y195580000D03*
G04 #@! TO.P,SW5,2*
G04 #@! TO.N,GND*
X73660000Y198120000D03*
G04 #@! TD*
G04 #@! TO.P,SW6,1*
G04 #@! TO.N,Net-(SW6-Pad1)*
X86360000Y195580000D03*
G04 #@! TO.P,SW6,2*
G04 #@! TO.N,GND*
X92710000Y198120000D03*
G04 #@! TD*
G04 #@! TO.P,SW7,2*
G04 #@! TO.N,GND*
X111760000Y198120000D03*
G04 #@! TO.P,SW7,1*
G04 #@! TO.N,Net-(SW7-Pad1)*
X105410000Y195580000D03*
G04 #@! TD*
G04 #@! TO.P,SW8,2*
G04 #@! TO.N,GND*
X-2540000Y217170000D03*
G04 #@! TO.P,SW8,1*
G04 #@! TO.N,Net-(SW8-Pad1)*
X-8890000Y214630000D03*
G04 #@! TD*
G04 #@! TO.P,SW9,1*
G04 #@! TO.N,Net-(SW9-Pad1)*
X10160000Y214630000D03*
G04 #@! TO.P,SW9,2*
G04 #@! TO.N,GND*
X16510000Y217170000D03*
G04 #@! TD*
G04 #@! TO.P,SW10,1*
G04 #@! TO.N,Net-(SW10-Pad1)*
X29210000Y214630000D03*
G04 #@! TO.P,SW10,2*
G04 #@! TO.N,GND*
X35560000Y217170000D03*
G04 #@! TD*
G04 #@! TO.P,SW11,2*
G04 #@! TO.N,GND*
X54610000Y217170000D03*
G04 #@! TO.P,SW11,1*
G04 #@! TO.N,Net-(SW11-Pad1)*
X48260000Y214630000D03*
G04 #@! TD*
G04 #@! TO.P,SW12,2*
G04 #@! TO.N,GND*
X73660000Y217170000D03*
G04 #@! TO.P,SW12,1*
G04 #@! TO.N,Net-(SW12-Pad1)*
X67310000Y214630000D03*
G04 #@! TD*
G04 #@! TO.P,SW13,1*
G04 #@! TO.N,Net-(SW13-Pad1)*
X86360000Y214630000D03*
G04 #@! TO.P,SW13,2*
G04 #@! TO.N,GND*
X92710000Y217170000D03*
G04 #@! TD*
G04 #@! TO.P,SW14,1*
G04 #@! TO.N,Net-(SW14-Pad1)*
X105410000Y214630000D03*
G04 #@! TO.P,SW14,2*
G04 #@! TO.N,GND*
X111760000Y217170000D03*
G04 #@! TD*
D13*
G04 #@! TO.P,U1,1*
G04 #@! TO.N,Net-(LED1-Pad1)*
X57785000Y189865000D03*
D19*
G04 #@! TO.P,U1,15*
G04 #@! TO.N,GND*
X90805000Y182245000D03*
G04 #@! TO.P,U1,2*
G04 #@! TO.N,Net-(LED2-Pad1)*
X60325000Y189865000D03*
G04 #@! TO.P,U1,16*
G04 #@! TO.N,Net-(JP1-Pad2)*
X88265000Y182245000D03*
G04 #@! TO.P,U1,3*
G04 #@! TO.N,Net-(LED3-Pad1)*
X62865000Y189865000D03*
G04 #@! TO.P,U1,17*
G04 #@! TO.N,Net-(JP2-Pad2)*
X85725000Y182245000D03*
G04 #@! TO.P,U1,4*
G04 #@! TO.N,Net-(LED4-Pad1)*
X65405000Y189865000D03*
G04 #@! TO.P,U1,18*
G04 #@! TO.N,+3V3*
X83185000Y182245000D03*
G04 #@! TO.P,U1,5*
G04 #@! TO.N,Net-(LED5-Pad1)*
X67945000Y189865000D03*
G04 #@! TO.P,U1,19*
G04 #@! TO.N,N/C*
X80645000Y182245000D03*
G04 #@! TO.P,U1,6*
G04 #@! TO.N,Net-(LED6-Pad1)*
X70485000Y189865000D03*
G04 #@! TO.P,U1,20*
G04 #@! TO.N,N/C*
X78105000Y182245000D03*
G04 #@! TO.P,U1,7*
G04 #@! TO.N,Net-(LED7-Pad1)*
X73025000Y189865000D03*
G04 #@! TO.P,U1,21*
G04 #@! TO.N,Net-(LED9-Pad1)*
X75565000Y182245000D03*
G04 #@! TO.P,U1,8*
G04 #@! TO.N,Net-(LED8-Pad1)*
X75565000Y189865000D03*
G04 #@! TO.P,U1,22*
G04 #@! TO.N,Net-(LED10-Pad1)*
X73025000Y182245000D03*
G04 #@! TO.P,U1,9*
G04 #@! TO.N,+3V3*
X78105000Y189865000D03*
G04 #@! TO.P,U1,23*
G04 #@! TO.N,Net-(LED11-Pad1)*
X70485000Y182245000D03*
G04 #@! TO.P,U1,10*
G04 #@! TO.N,GND*
X80645000Y189865000D03*
G04 #@! TO.P,U1,24*
G04 #@! TO.N,Net-(LED12-Pad1)*
X67945000Y182245000D03*
G04 #@! TO.P,U1,11*
G04 #@! TO.N,N/C*
X83185000Y189865000D03*
G04 #@! TO.P,U1,25*
G04 #@! TO.N,Net-(LED13-Pad1)*
X65405000Y182245000D03*
G04 #@! TO.P,U1,12*
G04 #@! TO.N,/SCL*
X85725000Y189865000D03*
G04 #@! TO.P,U1,26*
G04 #@! TO.N,Net-(LED14-Pad1)*
X62865000Y182245000D03*
G04 #@! TO.P,U1,13*
G04 #@! TO.N,/SDA*
X88265000Y189865000D03*
G04 #@! TO.P,U1,27*
G04 #@! TO.N,N/C*
X60325000Y182245000D03*
G04 #@! TO.P,U1,14*
X90805000Y189865000D03*
G04 #@! TO.P,U1,28*
X57785000Y182245000D03*
G04 #@! TD*
G04 #@! TO.P,U2,28*
G04 #@! TO.N,N/C*
X635000Y182245000D03*
G04 #@! TO.P,U2,14*
X33655000Y189865000D03*
G04 #@! TO.P,U2,27*
X3175000Y182245000D03*
G04 #@! TO.P,U2,13*
G04 #@! TO.N,/SDA*
X31115000Y189865000D03*
G04 #@! TO.P,U2,26*
G04 #@! TO.N,Net-(SW14-Pad1)*
X5715000Y182245000D03*
G04 #@! TO.P,U2,12*
G04 #@! TO.N,/SCL*
X28575000Y189865000D03*
G04 #@! TO.P,U2,25*
G04 #@! TO.N,Net-(SW13-Pad1)*
X8255000Y182245000D03*
G04 #@! TO.P,U2,11*
G04 #@! TO.N,N/C*
X26035000Y189865000D03*
G04 #@! TO.P,U2,24*
G04 #@! TO.N,Net-(SW12-Pad1)*
X10795000Y182245000D03*
G04 #@! TO.P,U2,10*
G04 #@! TO.N,GND*
X23495000Y189865000D03*
G04 #@! TO.P,U2,23*
G04 #@! TO.N,Net-(SW11-Pad1)*
X13335000Y182245000D03*
G04 #@! TO.P,U2,9*
G04 #@! TO.N,+3V3*
X20955000Y189865000D03*
G04 #@! TO.P,U2,22*
G04 #@! TO.N,Net-(SW10-Pad1)*
X15875000Y182245000D03*
G04 #@! TO.P,U2,8*
G04 #@! TO.N,Net-(SW8-Pad1)*
X18415000Y189865000D03*
G04 #@! TO.P,U2,21*
G04 #@! TO.N,Net-(SW9-Pad1)*
X18415000Y182245000D03*
G04 #@! TO.P,U2,7*
G04 #@! TO.N,Net-(SW7-Pad1)*
X15875000Y189865000D03*
G04 #@! TO.P,U2,20*
G04 #@! TO.N,N/C*
X20955000Y182245000D03*
G04 #@! TO.P,U2,6*
G04 #@! TO.N,Net-(SW6-Pad1)*
X13335000Y189865000D03*
G04 #@! TO.P,U2,19*
G04 #@! TO.N,N/C*
X23495000Y182245000D03*
G04 #@! TO.P,U2,5*
G04 #@! TO.N,Net-(SW5-Pad1)*
X10795000Y189865000D03*
G04 #@! TO.P,U2,18*
G04 #@! TO.N,+3V3*
X26035000Y182245000D03*
G04 #@! TO.P,U2,4*
G04 #@! TO.N,Net-(SW4-Pad1)*
X8255000Y189865000D03*
G04 #@! TO.P,U2,17*
G04 #@! TO.N,Net-(JP4-Pad2)*
X28575000Y182245000D03*
G04 #@! TO.P,U2,3*
G04 #@! TO.N,Net-(SW3-Pad1)*
X5715000Y189865000D03*
G04 #@! TO.P,U2,16*
G04 #@! TO.N,Net-(JP3-Pad2)*
X31115000Y182245000D03*
G04 #@! TO.P,U2,2*
G04 #@! TO.N,Net-(SW2-Pad1)*
X3175000Y189865000D03*
G04 #@! TO.P,U2,15*
G04 #@! TO.N,+3V3*
X33655000Y182245000D03*
D13*
G04 #@! TO.P,U2,1*
G04 #@! TO.N,Net-(SW1-Pad1)*
X635000Y189865000D03*
G04 #@! TD*
D17*
G04 #@! TO.P,R19,2*
G04 #@! TO.N,Net-(JP4-Pad2)*
X44450000Y182245000D03*
D16*
G04 #@! TO.P,R19,1*
G04 #@! TO.N,GND*
X44450000Y189865000D03*
G04 #@! TD*
G04 #@! TO.P,R20,1*
G04 #@! TO.N,GND*
X47625000Y189865000D03*
D17*
G04 #@! TO.P,R20,2*
G04 #@! TO.N,Net-(JP3-Pad2)*
X47625000Y182245000D03*
G04 #@! TD*
D20*
G04 #@! TO.N,/SCL*
G04 #@! TO.C,J1*
G36*
X-2165495Y233918796D02*
X-2141227Y233915196D01*
X-2117428Y233909235D01*
X-2094329Y233900970D01*
X-2072150Y233890480D01*
X-2051107Y233877868D01*
X-2031401Y233863253D01*
X-2013223Y233846777D01*
X-1996747Y233828599D01*
X-1982132Y233808893D01*
X-1969520Y233787850D01*
X-1959030Y233765671D01*
X-1950765Y233742572D01*
X-1944804Y233718773D01*
X-1941204Y233694505D01*
X-1940000Y233670001D01*
X-1940000Y232419999D01*
X-1941204Y232395495D01*
X-1944804Y232371227D01*
X-1950765Y232347428D01*
X-1959030Y232324329D01*
X-1969520Y232302150D01*
X-1982132Y232281107D01*
X-1996747Y232261401D01*
X-2013223Y232243223D01*
X-2031401Y232226747D01*
X-2051107Y232212132D01*
X-2072150Y232199520D01*
X-2094329Y232189030D01*
X-2117428Y232180765D01*
X-2141227Y232174804D01*
X-2165495Y232171204D01*
X-2189999Y232170000D01*
X-2890001Y232170000D01*
X-2914505Y232171204D01*
X-2938773Y232174804D01*
X-2962572Y232180765D01*
X-2985671Y232189030D01*
X-3007850Y232199520D01*
X-3028893Y232212132D01*
X-3048599Y232226747D01*
X-3066777Y232243223D01*
X-3083253Y232261401D01*
X-3097868Y232281107D01*
X-3110480Y232302150D01*
X-3120970Y232324329D01*
X-3129235Y232347428D01*
X-3135196Y232371227D01*
X-3138796Y232395495D01*
X-3140000Y232419999D01*
X-3140000Y233670001D01*
X-3138796Y233694505D01*
X-3135196Y233718773D01*
X-3129235Y233742572D01*
X-3120970Y233765671D01*
X-3110480Y233787850D01*
X-3097868Y233808893D01*
X-3083253Y233828599D01*
X-3066777Y233846777D01*
X-3048599Y233863253D01*
X-3028893Y233877868D01*
X-3007850Y233890480D01*
X-2985671Y233900970D01*
X-2962572Y233909235D01*
X-2938773Y233915196D01*
X-2914505Y233918796D01*
X-2890001Y233920000D01*
X-2189999Y233920000D01*
X-2165495Y233918796D01*
X-2165495Y233918796D01*
G37*
D21*
G04 #@! TD*
G04 #@! TO.P,J1,1*
G04 #@! TO.N,/SCL*
X-2540000Y233045000D03*
D22*
G04 #@! TO.P,J1,2*
G04 #@! TO.N,/SDA*
X-540000Y233045000D03*
G04 #@! TO.P,J1,3*
G04 #@! TO.N,+3V3*
X1460000Y233045000D03*
G04 #@! TO.P,J1,4*
G04 #@! TO.N,GND*
X3460000Y233045000D03*
G04 #@! TD*
G04 #@! TO.P,J5,4*
G04 #@! TO.N,GND*
X103790000Y233045000D03*
G04 #@! TO.P,J5,3*
G04 #@! TO.N,+3V3*
X101790000Y233045000D03*
G04 #@! TO.P,J5,2*
G04 #@! TO.N,/SDA*
X99790000Y233045000D03*
D20*
G04 #@! TD*
G04 #@! TO.N,/SCL*
G04 #@! TO.C,J5*
G36*
X98164505Y233918796D02*
X98188773Y233915196D01*
X98212572Y233909235D01*
X98235671Y233900970D01*
X98257850Y233890480D01*
X98278893Y233877868D01*
X98298599Y233863253D01*
X98316777Y233846777D01*
X98333253Y233828599D01*
X98347868Y233808893D01*
X98360480Y233787850D01*
X98370970Y233765671D01*
X98379235Y233742572D01*
X98385196Y233718773D01*
X98388796Y233694505D01*
X98390000Y233670001D01*
X98390000Y232419999D01*
X98388796Y232395495D01*
X98385196Y232371227D01*
X98379235Y232347428D01*
X98370970Y232324329D01*
X98360480Y232302150D01*
X98347868Y232281107D01*
X98333253Y232261401D01*
X98316777Y232243223D01*
X98298599Y232226747D01*
X98278893Y232212132D01*
X98257850Y232199520D01*
X98235671Y232189030D01*
X98212572Y232180765D01*
X98188773Y232174804D01*
X98164505Y232171204D01*
X98140001Y232170000D01*
X97439999Y232170000D01*
X97415495Y232171204D01*
X97391227Y232174804D01*
X97367428Y232180765D01*
X97344329Y232189030D01*
X97322150Y232199520D01*
X97301107Y232212132D01*
X97281401Y232226747D01*
X97263223Y232243223D01*
X97246747Y232261401D01*
X97232132Y232281107D01*
X97219520Y232302150D01*
X97209030Y232324329D01*
X97200765Y232347428D01*
X97194804Y232371227D01*
X97191204Y232395495D01*
X97190000Y232419999D01*
X97190000Y233670001D01*
X97191204Y233694505D01*
X97194804Y233718773D01*
X97200765Y233742572D01*
X97209030Y233765671D01*
X97219520Y233787850D01*
X97232132Y233808893D01*
X97246747Y233828599D01*
X97263223Y233846777D01*
X97281401Y233863253D01*
X97301107Y233877868D01*
X97322150Y233890480D01*
X97344329Y233900970D01*
X97367428Y233909235D01*
X97391227Y233915196D01*
X97415495Y233918796D01*
X97439999Y233920000D01*
X98140001Y233920000D01*
X98164505Y233918796D01*
X98164505Y233918796D01*
G37*
D21*
G04 #@! TO.P,J5,1*
G04 #@! TO.N,/SCL*
X97790000Y233045000D03*
G04 #@! TD*
D23*
G04 #@! TO.N,/SCL*
X51171700Y198063500D03*
G04 #@! TO.N,Net-(LED2-Pad1)*
X37048300Y194167400D03*
G04 #@! TO.N,Net-(LED4-Pad1)*
X52645600Y194757600D03*
G04 #@! TO.N,Net-(LED8-Pad1)*
X20361300Y211071500D03*
X33903400Y202987100D03*
G04 #@! TO.N,Net-(LED9-Pad1)*
X25437500Y222436300D03*
G04 #@! TO.N,Net-(LED10-Pad1)*
X69986000Y187548000D03*
G04 #@! TO.N,Net-(LED11-Pad1)*
X63371200Y213781400D03*
G04 #@! TO.N,Net-(LED12-Pad1)*
X71553400Y210570600D03*
G04 #@! TO.N,Net-(LED13-Pad1)*
X80246700Y219182200D03*
X71282900Y209119500D03*
G04 #@! TO.N,Net-(LED14-Pad1)*
X77365700Y185480400D03*
G04 #@! TO.N,Net-(SW5-Pad1)*
X38285600Y194169400D03*
G04 #@! TO.N,Net-(SW6-Pad1)*
X76409100Y186187700D03*
X26076300Y186067200D03*
G04 #@! TO.N,Net-(SW10-Pad1)*
X17900000Y212178200D03*
G04 #@! TO.N,Net-(SW11-Pad1)*
X60797700Y211195800D03*
G04 #@! TO.N,Net-(SW13-Pad1)*
X74495700Y203054300D03*
X56566000Y198134700D03*
G04 #@! TD*
D24*
G04 #@! TO.N,+3V3*
X58589700Y198755000D02*
X56378700Y196544000D01*
X56378700Y196544000D02*
X53688800Y196544000D01*
X53688800Y196544000D02*
X53474300Y196758500D01*
X53474300Y196758500D02*
X51306800Y196758500D01*
X51306800Y196758500D02*
X47862100Y200203200D01*
X20955000Y192405000D02*
X20955000Y196560800D01*
X20955000Y196560800D02*
X11624100Y196560800D01*
X11624100Y196560800D02*
X9429900Y198755000D01*
X9429900Y198755000D02*
X3175000Y198755000D01*
X21590000Y198755000D02*
X21590000Y197195800D01*
X21590000Y197195800D02*
X20955000Y196560800D01*
D25*
X20955000Y189865000D02*
X20955000Y192405000D01*
D24*
X47862100Y209482600D02*
X40640000Y216704700D01*
X47862100Y200203200D02*
X47862100Y209482600D01*
X47862100Y209482600D02*
X50267300Y209482600D01*
X50267300Y209482600D02*
X58589700Y217805000D01*
X59690000Y217805000D02*
X58589700Y217805000D01*
X40640000Y217805000D02*
X40640000Y216704700D01*
X41740300Y198755000D02*
X46413900Y198755000D01*
X46413900Y198755000D02*
X47862100Y200203200D01*
X59690000Y198755000D02*
X58589700Y198755000D01*
X59893600Y198755000D02*
X59690000Y198755000D01*
X59893600Y198755000D02*
X60790300Y198755000D01*
X78105000Y196517800D02*
X78105000Y197019700D01*
X78105000Y197019700D02*
X78740000Y197654700D01*
X78105000Y192405000D02*
X78105000Y196517800D01*
X60790300Y198755000D02*
X61279600Y198265700D01*
X61279600Y198265700D02*
X69942500Y198265700D01*
X69942500Y198265700D02*
X71690400Y196517800D01*
X71690400Y196517800D02*
X78105000Y196517800D01*
X78740000Y198755000D02*
X78740000Y197654700D01*
D25*
X78105000Y189865000D02*
X78105000Y192405000D01*
D24*
X40640000Y198755000D02*
X41740300Y198755000D01*
X98948700Y213031300D02*
X98948700Y215546000D01*
X98948700Y215546000D02*
X97790000Y216704700D01*
X97790000Y199855300D02*
X98948700Y201014000D01*
X98948700Y201014000D02*
X98948700Y213031300D01*
X98948700Y213031300D02*
X109810000Y213031300D01*
X109810000Y213031300D02*
X114469700Y217691000D01*
X114469700Y217691000D02*
X114469700Y217805000D01*
X115570000Y217805000D02*
X114469700Y217805000D01*
X97790000Y217805000D02*
X97790000Y216704700D01*
X97790000Y198755000D02*
X97790000Y199855300D01*
X97790000Y217805000D02*
X97790000Y218905300D01*
X101790000Y233045000D02*
X101790000Y222905300D01*
X101790000Y222905300D02*
X97790000Y218905300D01*
D25*
X83185000Y182245000D02*
X83185000Y184785000D01*
X83185000Y184785000D02*
X80645000Y187325000D01*
X26035000Y182245000D02*
X26035000Y184785000D01*
X26035000Y184785000D02*
X23533000Y187287000D01*
X23533000Y187287000D02*
X20955000Y189865000D01*
X38100000Y187325000D02*
X36700000Y187325000D01*
X36700000Y187325000D02*
X36662000Y187287000D01*
X36662000Y187287000D02*
X23533000Y187287000D01*
X95250000Y187325000D02*
X80645000Y187325000D01*
X80645000Y187325000D02*
X78105000Y189865000D01*
D24*
G04 #@! TO.N,GND*
X39713200Y188843000D02*
X43428000Y188843000D01*
X43428000Y188843000D02*
X44450000Y189865000D01*
D25*
X39713200Y188843000D02*
X40100000Y188456000D01*
X40100000Y188456000D02*
X40100000Y187325000D01*
X23495000Y189865000D02*
X25273000Y188087000D01*
X25273000Y188087000D02*
X35687000Y188087000D01*
X35687000Y188087000D02*
X36830000Y189230000D01*
X36830000Y189230000D02*
X39326400Y189230000D01*
X39326400Y189230000D02*
X39713200Y188843000D01*
D24*
X96990200Y188716000D02*
X99816000Y188716000D01*
X99816000Y188716000D02*
X100965000Y189865000D01*
D25*
X96990200Y188716000D02*
X97250000Y188456000D01*
X97250000Y188456000D02*
X97250000Y187325000D01*
X80645000Y189865000D02*
X82296000Y188214000D01*
X82296000Y188214000D02*
X92837000Y188214000D01*
X92837000Y188214000D02*
X93599000Y188976000D01*
X93599000Y188976000D02*
X96730400Y188976000D01*
X96730400Y188976000D02*
X96990200Y188716000D01*
X104140000Y189865000D02*
X100965000Y189865000D01*
X47625000Y189865000D02*
X44450000Y189865000D01*
X80645000Y189865000D02*
X80645000Y192365000D01*
X80645000Y192365000D02*
X80605000Y192405000D01*
X23495000Y189865000D02*
X23495000Y192365000D01*
X23495000Y192365000D02*
X23455000Y192405000D01*
G04 #@! TO.N,/SDA*
X24168000Y225754000D02*
X14702400Y235220000D01*
X14702400Y235220000D02*
X-2400700Y235220000D01*
X-2400700Y235220000D02*
X-3937000Y233684000D01*
X-3937000Y233684000D02*
X-3937000Y232156000D01*
X-3937000Y232156000D02*
X-3351000Y231570000D01*
X-3351000Y231570000D02*
X-1740000Y231570000D01*
X-1740000Y231570000D02*
X-540000Y232770000D01*
X-540000Y232770000D02*
X-540000Y233045000D01*
X31115000Y189865000D02*
X24168000Y196812000D01*
X24168000Y196812000D02*
X24168000Y225754000D01*
D24*
X99790000Y233045000D02*
X98490400Y234344600D01*
X98490400Y234344600D02*
X32758600Y234344600D01*
X32758600Y234344600D02*
X24168000Y225754000D01*
D25*
X99790000Y233045000D02*
X99790000Y232770000D01*
X99790000Y232770000D02*
X98630000Y231610000D01*
X98630000Y231610000D02*
X89993400Y231610000D01*
X89993400Y231610000D02*
X82469100Y224086000D01*
X82469100Y224086000D02*
X82469100Y195661000D01*
X82469100Y195661000D02*
X87465000Y190665000D01*
X87465000Y190665000D02*
X88265000Y189865000D01*
D24*
G04 #@! TO.N,/SCL*
X81661000Y203593000D02*
X81339400Y203914600D01*
X81339400Y203914600D02*
X57314800Y203914600D01*
X57314800Y203914600D02*
X53340500Y199940300D01*
X53340500Y199940300D02*
X53340500Y199783100D01*
X53340500Y199783100D02*
X51620900Y198063500D01*
X51620900Y198063500D02*
X51171700Y198063500D01*
D25*
X81661000Y203593000D02*
X81661000Y193929000D01*
X81661000Y193929000D02*
X85725000Y189865000D01*
X97790000Y233045000D02*
X97155000Y232410000D01*
X97155000Y232410000D02*
X89662000Y232410000D01*
X89662000Y232410000D02*
X81661000Y224409000D01*
X81661000Y224409000D02*
X81661000Y203593000D01*
X-2540000Y233045000D02*
X-1165000Y234420000D01*
X-1165000Y234420000D02*
X14371000Y234420000D01*
X14371000Y234420000D02*
X23368000Y225423000D01*
X23368000Y225423000D02*
X23368000Y195072000D01*
X23368000Y195072000D02*
X28575000Y189865000D01*
D24*
G04 #@! TO.N,Net-(JP1-Pad2)*
X88265000Y182245000D02*
X89465300Y182245000D01*
X100965000Y182245000D02*
X99864700Y182245000D01*
X99864700Y182245000D02*
X98649300Y183460400D01*
X98649300Y183460400D02*
X90307600Y183460400D01*
X90307600Y183460400D02*
X89465300Y182618100D01*
X89465300Y182618100D02*
X89465300Y182245000D01*
G04 #@! TO.N,Net-(JP2-Pad2)*
X85725000Y182245000D02*
X86925300Y182245000D01*
X104140000Y182245000D02*
X103039700Y182245000D01*
X103039700Y182245000D02*
X101796300Y181001600D01*
X101796300Y181001600D02*
X87795600Y181001600D01*
X87795600Y181001600D02*
X86925300Y181871900D01*
X86925300Y181871900D02*
X86925300Y182245000D01*
D25*
G04 #@! TO.N,Net-(LED1-Pad2)*
X-5080000Y206375000D02*
X3175000Y206375000D01*
G04 #@! TO.N,Net-(LED2-Pad2)*
X13970000Y206375000D02*
X21590000Y206375000D01*
D24*
G04 #@! TO.N,Net-(LED2-Pad1)*
X59124700Y189865000D02*
X59124700Y190765200D01*
X59124700Y190765200D02*
X56523300Y193366600D01*
X56523300Y193366600D02*
X37849100Y193366600D01*
X37849100Y193366600D02*
X37048300Y194167400D01*
X60325000Y189865000D02*
X59124700Y189865000D01*
G04 #@! TO.N,Net-(LED3-Pad1)*
X61664700Y189865000D02*
X61664700Y189489800D01*
X61664700Y189489800D02*
X60839600Y188664700D01*
X60839600Y188664700D02*
X55320300Y188664700D01*
X55320300Y188664700D02*
X51218700Y192766300D01*
X51218700Y192766300D02*
X36232300Y192766300D01*
X36232300Y192766300D02*
X29300000Y199698600D01*
X29300000Y199698600D02*
X29300000Y203894700D01*
X29300000Y203894700D02*
X30480000Y205074700D01*
X30480000Y206375000D02*
X30480000Y205074700D01*
X62865000Y189865000D02*
X61664700Y189865000D01*
D25*
G04 #@! TO.N,Net-(LED3-Pad2)*
X33020000Y206375000D02*
X40640000Y206375000D01*
G04 #@! TO.N,Net-(LED4-Pad2)*
X52070000Y206375000D02*
X59690000Y206375000D01*
D24*
G04 #@! TO.N,Net-(LED4-Pad1)*
X65405000Y189865000D02*
X64204700Y189865000D01*
X64204700Y189865000D02*
X64204700Y190240100D01*
X64204700Y190240100D02*
X60477800Y193967000D01*
X60477800Y193967000D02*
X53436200Y193967000D01*
X53436200Y193967000D02*
X52645600Y194757600D01*
D25*
G04 #@! TO.N,Net-(LED5-Pad2)*
X71120000Y206375000D02*
X78740000Y206375000D01*
G04 #@! TO.N,Net-(LED6-Pad2)*
X90170000Y206375000D02*
X97790000Y206375000D01*
G04 #@! TO.N,Net-(LED7-Pad2)*
X109220000Y206375000D02*
X116840000Y206375000D01*
G04 #@! TO.N,Net-(LED8-Pad2)*
X2540000Y225425000D02*
X-5080000Y225425000D01*
D24*
G04 #@! TO.N,Net-(LED8-Pad1)*
X74364700Y189865000D02*
X74364700Y190765200D01*
X74364700Y190765200D02*
X68006500Y197123400D01*
X68006500Y197123400D02*
X58889900Y197123400D01*
X58889900Y197123400D02*
X57710100Y195943600D01*
X57710100Y195943600D02*
X53440300Y195943600D01*
X53440300Y195943600D02*
X53225700Y196158200D01*
X53225700Y196158200D02*
X50184800Y196158200D01*
X50184800Y196158200D02*
X49219300Y197123700D01*
X49219300Y197123700D02*
X40674800Y197123700D01*
X40674800Y197123700D02*
X38489300Y199309200D01*
X38489300Y199309200D02*
X38489300Y200830700D01*
X38489300Y200830700D02*
X36332900Y202987100D01*
X36332900Y202987100D02*
X33903400Y202987100D01*
X20361300Y211071500D02*
X14489000Y216943800D01*
X14489000Y216943800D02*
X5942400Y216943800D01*
X5942400Y216943800D02*
X-521200Y223407400D01*
X-521200Y223407400D02*
X-5602400Y223407400D01*
X-5602400Y223407400D02*
X-7620000Y225425000D01*
X75565000Y189865000D02*
X74364700Y189865000D01*
G04 #@! TO.N,Net-(LED9-Pad1)*
X75565000Y183445300D02*
X76486000Y183445300D01*
X76486000Y183445300D02*
X78168500Y185127800D01*
X78168500Y185127800D02*
X78168500Y185860800D01*
X78168500Y185860800D02*
X77016300Y187013000D01*
X77016300Y187013000D02*
X75777400Y187013000D01*
X75777400Y187013000D02*
X75491200Y186726800D01*
X75491200Y186726800D02*
X52319300Y186726800D01*
X52319300Y186726800D02*
X48080800Y190965300D01*
X48080800Y190965300D02*
X36322300Y190965300D01*
X36322300Y190965300D02*
X28099200Y199188400D01*
X28099200Y199188400D02*
X28099200Y210262400D01*
X28099200Y210262400D02*
X25418700Y212942900D01*
X25418700Y212942900D02*
X25418700Y222417500D01*
X25418700Y222417500D02*
X25437500Y222436300D01*
X75565000Y182245000D02*
X75565000Y183445300D01*
D25*
G04 #@! TO.N,Net-(LED9-Pad2)*
X21590000Y225425000D02*
X13970000Y225425000D01*
G04 #@! TO.N,Net-(LED10-Pad2)*
X33020000Y225425000D02*
X40640000Y225425000D01*
D24*
G04 #@! TO.N,Net-(LED10-Pad1)*
X30480000Y225425000D02*
X30480000Y224124700D01*
X69986000Y187548000D02*
X54267900Y187548000D01*
X54267900Y187548000D02*
X50162400Y191653500D01*
X50162400Y191653500D02*
X36483200Y191653500D01*
X36483200Y191653500D02*
X28699700Y199437000D01*
X28699700Y199437000D02*
X28699700Y212549600D01*
X28699700Y212549600D02*
X27639800Y213609500D01*
X27639800Y213609500D02*
X27639800Y218139300D01*
X27639800Y218139300D02*
X29179700Y219679200D01*
X29179700Y219679200D02*
X29179700Y222824400D01*
X29179700Y222824400D02*
X30480000Y224124700D01*
G04 #@! TO.N,Net-(LED11-Pad1)*
X63371200Y213781400D02*
X63371200Y216572700D01*
X63371200Y216572700D02*
X56536500Y223407400D01*
X56536500Y223407400D02*
X51547600Y223407400D01*
X51547600Y223407400D02*
X49530000Y225425000D01*
D25*
G04 #@! TO.N,Net-(LED11-Pad2)*
X59690000Y225425000D02*
X52070000Y225425000D01*
D24*
G04 #@! TO.N,Net-(LED12-Pad1)*
X68580000Y225425000D02*
X68580000Y224124700D01*
X71553400Y210570600D02*
X71553400Y212584000D01*
X71553400Y212584000D02*
X67411000Y216726400D01*
X67411000Y216726400D02*
X67411000Y222955700D01*
X67411000Y222955700D02*
X68580000Y224124700D01*
D25*
G04 #@! TO.N,Net-(LED12-Pad2)*
X78740000Y225425000D02*
X71120000Y225425000D01*
G04 #@! TO.N,Net-(LED13-Pad2)*
X97790000Y225425000D02*
X90170000Y225425000D01*
D24*
G04 #@! TO.N,Net-(LED13-Pad1)*
X71282900Y209119500D02*
X71610700Y209119500D01*
X71610700Y209119500D02*
X80246700Y217755500D01*
X80246700Y217755500D02*
X80246700Y219182200D01*
G04 #@! TO.N,Net-(LED14-Pad1)*
X62865000Y182245000D02*
X64065300Y182245000D01*
X64065300Y182245000D02*
X64065300Y182620100D01*
X64065300Y182620100D02*
X66733900Y185288700D01*
X66733900Y185288700D02*
X77174000Y185288700D01*
X77174000Y185288700D02*
X77365700Y185480400D01*
D25*
G04 #@! TO.N,Net-(LED14-Pad2)*
X109220000Y225425000D02*
X115570000Y225425000D01*
D24*
G04 #@! TO.N,Net-(SW5-Pad1)*
X67310000Y195580000D02*
X67073100Y195343100D01*
X67073100Y195343100D02*
X53191900Y195343100D01*
X53191900Y195343100D02*
X52977100Y195557900D01*
X52977100Y195557900D02*
X52006200Y195557900D01*
X52006200Y195557900D02*
X50480300Y194032000D01*
X50480300Y194032000D02*
X38423000Y194032000D01*
X38423000Y194032000D02*
X38285600Y194169400D01*
G04 #@! TO.N,Net-(SW6-Pad1)*
X26076300Y186067200D02*
X76288600Y186067200D01*
X76288600Y186067200D02*
X76409100Y186187700D01*
G04 #@! TO.N,Net-(SW7-Pad1)*
X15875000Y189865000D02*
X17075300Y189865000D01*
X17075300Y189865000D02*
X17075300Y189489800D01*
X17075300Y189489800D02*
X17900400Y188664700D01*
X17900400Y188664700D02*
X18788300Y188664700D01*
X18788300Y188664700D02*
X24765000Y182688000D01*
X24765000Y182688000D02*
X24765000Y181775700D01*
X24765000Y181775700D02*
X25538900Y181001800D01*
X25538900Y181001800D02*
X26508400Y181001800D01*
X26508400Y181001800D02*
X27355000Y181848400D01*
X27355000Y181848400D02*
X27355000Y182746700D01*
X27355000Y182746700D02*
X28657700Y184049400D01*
X28657700Y184049400D02*
X51319500Y184049400D01*
X51319500Y184049400D02*
X54369000Y180999900D01*
X54369000Y180999900D02*
X83675700Y180999900D01*
X83675700Y180999900D02*
X84455000Y181779200D01*
X84455000Y181779200D02*
X84455000Y182716500D01*
X84455000Y182716500D02*
X87512600Y185774100D01*
X87512600Y185774100D02*
X101665300Y185774100D01*
X101665300Y185774100D02*
X105410000Y189518800D01*
X105410000Y189518800D02*
X105410000Y195580000D01*
G04 #@! TO.N,Net-(SW9-Pad1)*
X18415000Y182245000D02*
X17214700Y182245000D01*
X17214700Y182245000D02*
X17214700Y181869900D01*
X17214700Y181869900D02*
X16344700Y180999900D01*
X16344700Y180999900D02*
X12844300Y180999900D01*
X12844300Y180999900D02*
X12065000Y181779200D01*
X12065000Y181779200D02*
X12065000Y182731100D01*
X12065000Y182731100D02*
X6985000Y187811100D01*
X6985000Y187811100D02*
X6985000Y190381500D01*
X6985000Y190381500D02*
X1425700Y195940800D01*
X1425700Y195940800D02*
X1425700Y203011300D01*
X1425700Y203011300D02*
X10160000Y211745600D01*
X10160000Y211745600D02*
X10160000Y214630000D01*
G04 #@! TO.N,Net-(SW10-Pad1)*
X15875000Y182245000D02*
X15875000Y183445300D01*
X15875000Y183445300D02*
X15499900Y183445300D01*
X15499900Y183445300D02*
X9525000Y189420200D01*
X9525000Y189420200D02*
X9525000Y190323100D01*
X9525000Y190323100D02*
X2071200Y197776900D01*
X2071200Y197776900D02*
X2071200Y199433000D01*
X2071200Y199433000D02*
X14816400Y212178200D01*
X14816400Y212178200D02*
X17900000Y212178200D01*
G04 #@! TO.N,Net-(SW11-Pad1)*
X60797700Y211195800D02*
X60797700Y218284700D01*
X60797700Y218284700D02*
X60153300Y218929100D01*
X60153300Y218929100D02*
X58864700Y218929100D01*
X58864700Y218929100D02*
X54565600Y214630000D01*
X54565600Y214630000D02*
X48260000Y214630000D01*
G04 #@! TO.N,Net-(SW13-Pad1)*
X56566000Y198134700D02*
X61485600Y203054300D01*
X61485600Y203054300D02*
X74495700Y203054300D01*
G04 #@! TO.N,Net-(SW14-Pad1)*
X105410000Y214630000D02*
X104791700Y215248300D01*
X104791700Y215248300D02*
X104791700Y233747200D01*
X104791700Y233747200D02*
X102611400Y235927500D01*
X102611400Y235927500D02*
X-2707300Y235927500D01*
X-2707300Y235927500D02*
X-9589100Y229045700D01*
X-9589100Y229045700D02*
X-9589100Y219638800D01*
X-9589100Y219638800D02*
X-10463100Y218764800D01*
X-10463100Y218764800D02*
X-10463100Y202444700D01*
X-10463100Y202444700D02*
X-9520600Y201502200D01*
X-9520600Y201502200D02*
X-9520600Y198715700D01*
X-9520600Y198715700D02*
X-7044800Y196239900D01*
X-7044800Y196239900D02*
X-7044800Y195304900D01*
X-7044800Y195304900D02*
X4814800Y183445300D01*
X4814800Y183445300D02*
X5715000Y183445300D01*
X5715000Y182245000D02*
X5715000Y183445300D01*
G04 #@! TO.N,Net-(JP3-Pad2)*
X31115000Y182245000D02*
X32315300Y182245000D01*
X47625000Y182245000D02*
X46524700Y182245000D01*
X46524700Y182245000D02*
X45324400Y183445300D01*
X45324400Y183445300D02*
X33142500Y183445300D01*
X33142500Y183445300D02*
X32315300Y182618100D01*
X32315300Y182618100D02*
X32315300Y182245000D01*
G04 #@! TO.N,Net-(JP4-Pad2)*
X28575000Y182245000D02*
X29775300Y182245000D01*
X44450000Y182245000D02*
X43349700Y182245000D01*
X43349700Y182245000D02*
X42106300Y181001600D01*
X42106300Y181001600D02*
X30645600Y181001600D01*
X30645600Y181001600D02*
X29775300Y181871900D01*
X29775300Y181871900D02*
X29775300Y182245000D01*
G04 #@! TD*
M02*
