M48
;DRILL file {KiCad 5.0.0+dfsg1-2~bpo9+1} date Sat Dec 15 18:36:29 2018
;FORMAT={-:-/ absolute / inch / decimal}
FMAT,2
INCH,TZ
T1C0.0157
T2C0.0197
T3C0.0276
T4C0.0295
T5C0.0315
T6C0.0354
T7C0.0590
T8C0.1260
%
G90
G05
M72
T1
X0.7047Y8.3535
X0.8016Y8.3099
X1.0015Y8.7573
X1.0266Y7.3255
X1.3348Y7.9916
X1.4586Y7.6444
X1.5073Y7.6445
X2.0146Y7.7978
X2.0727Y7.6676
X2.227Y7.8006
X2.3936Y8.3148
X2.4949Y8.4166
X2.7554Y7.3838
X2.8064Y8.2331
X2.8171Y8.2902
X2.9329Y7.9943
X3.0082Y7.3302
X3.0459Y7.3024
X3.1593Y8.6292
T2
X4.35Y7.3
X4.3777Y7.3668
X4.3777Y7.2332
X4.4445Y7.3945
X4.4445Y7.2055
X4.5113Y7.3668
X4.5113Y7.2332
X4.539Y7.3
X-0.5445Y9.25
X-0.5168Y9.3168
X-0.5168Y9.1832
X-0.45Y9.3445
X-0.45Y9.1555
X-0.3832Y9.3168
X-0.3832Y9.1832
X-0.3555Y9.25
X4.3555Y9.25
X4.3832Y9.3168
X4.3832Y9.1832
X4.45Y9.3445
X4.45Y9.1555
X4.5168Y9.3168
X4.5168Y9.1832
X4.5445Y9.25
X-0.5445Y7.3
X-0.5168Y7.3668
X-0.5168Y7.2332
X-0.45Y7.3945
X-0.45Y7.2055
X-0.3832Y7.3668
X-0.3832Y7.2332
X-0.3555Y7.3
T3
X3.85Y8.875
X3.85Y8.575
X2.35Y8.875
X2.35Y8.575
X0.125Y8.125
X0.125Y7.825
X3.85Y8.125
X3.85Y7.825
X2.35Y8.125
X2.35Y7.825
X3.1Y8.875
X3.1Y8.575
X0.85Y8.875
X0.85Y8.575
X0.85Y8.125
X0.85Y7.825
X1.6Y8.875
X1.6Y8.575
X4.6Y8.125
X4.6Y7.825
X3.975Y7.475
X3.975Y7.175
X3.1Y8.125
X3.1Y7.825
X1.875Y7.475
X1.875Y7.175
X1.6Y8.125
X1.6Y7.825
X4.55Y8.875
X4.55Y8.575
X1.75Y7.475
X1.75Y7.175
X4.1Y7.475
X4.1Y7.175
X0.1Y8.875
X0.1Y8.575
T4
X3.85Y9.175
X3.9287Y9.175
X4.0075Y9.175
X4.0862Y9.175
X-0.1Y9.175
X-0.0213Y9.175
X0.0575Y9.175
X0.1362Y9.175
T5
X0.025Y7.475
X0.025Y7.175
X0.125Y7.475
X0.125Y7.175
X0.225Y7.475
X0.225Y7.175
X0.325Y7.475
X0.325Y7.175
X0.425Y7.475
X0.425Y7.175
X0.525Y7.475
X0.525Y7.175
X0.625Y7.475
X0.625Y7.175
X0.725Y7.475
X0.725Y7.175
X0.825Y7.475
X0.825Y7.175
X0.925Y7.475
X0.925Y7.175
X1.025Y7.475
X1.025Y7.175
X1.125Y7.475
X1.125Y7.175
X1.225Y7.475
X1.225Y7.175
X1.325Y7.475
X1.325Y7.175
X3.75Y7.375
X3.8287Y7.375
X2.275Y7.475
X2.275Y7.175
X2.375Y7.475
X2.375Y7.175
X2.475Y7.475
X2.475Y7.175
X2.575Y7.475
X2.575Y7.175
X2.675Y7.475
X2.675Y7.175
X2.775Y7.475
X2.775Y7.175
X2.875Y7.475
X2.875Y7.175
X2.975Y7.475
X2.975Y7.175
X3.075Y7.475
X3.075Y7.175
X3.175Y7.475
X3.175Y7.175
X3.275Y7.475
X3.275Y7.175
X3.375Y7.475
X3.375Y7.175
X3.475Y7.475
X3.475Y7.175
X3.575Y7.475
X3.575Y7.175
X3.075Y7.575
X3.1734Y7.575
X1.5Y7.375
X1.5787Y7.375
X0.825Y7.575
X0.9234Y7.575
T6
X4.2Y8.875
X4.3Y8.875
X-0.3Y8.875
X-0.2Y8.875
X-0.3Y8.125
X-0.2Y8.125
X0.45Y8.875
X0.55Y8.875
X1.95Y8.875
X2.05Y8.875
X3.45Y8.125
X3.55Y8.125
X3.45Y8.875
X3.55Y8.875
X1.95Y8.125
X2.05Y8.125
X2.7Y8.125
X2.8Y8.125
X4.2Y8.125
X4.3Y8.125
X1.2Y8.875
X1.3Y8.875
X0.45Y8.125
X0.55Y8.125
X1.2Y8.125
X1.3Y8.125
X2.7Y8.875
X2.8Y8.875
T7
X4.15Y7.7
X4.4Y7.8
X3.4Y8.45
X3.65Y8.55
X1.9Y7.7
X2.15Y7.8
X3.4Y7.7
X3.65Y7.8
X1.9Y8.45
X2.15Y8.55
X1.15Y8.45
X1.4Y8.55
X2.65Y7.7
X2.9Y7.8
X4.15Y8.45
X4.4Y8.55
X0.4Y8.45
X0.65Y8.55
X2.65Y8.45
X2.9Y8.55
X-0.35Y7.7
X-0.1Y7.8
X1.15Y7.7
X1.4Y7.8
X-0.35Y8.45
X-0.1Y8.55
X0.4Y7.7
X0.65Y7.8
T8
X4.4445Y7.3
X-0.45Y9.25
X4.45Y9.25
X-0.45Y7.3
T0
M30
