EESchema Schematic File Version 2
LIBS:power
LIBS:device
LIBS:transistors
LIBS:conn
LIBS:linear
LIBS:regul
LIBS:74xx
LIBS:cmos4000
LIBS:adc-dac
LIBS:memory
LIBS:xilinx
LIBS:microcontrollers
LIBS:dsp
LIBS:microchip
LIBS:analog_switches
LIBS:motorola
LIBS:texas
LIBS:intel
LIBS:audio
LIBS:interface
LIBS:digital-audio
LIBS:philips
LIBS:display
LIBS:cypress
LIBS:siliconi
LIBS:opto
LIBS:atmel
LIBS:contrib
LIBS:valves
LIBS:teensy
LIBS:switches
LIBS:Symbols_DCDC-ACDC-Converter_RevC_20Jul2012
LIBS:Symbols_EN60617_13Mar2013
LIBS:Symbols_EN60617-10_HF-Radio_DRAFT_12Sep2013
LIBS:Symbols_ICs-Diskrete_RevD10
LIBS:Symbols_ICs-Opto_RevB_16Sep2013
LIBS:Symbols_Microcontroller_Philips-NXP_RevA_06Oct2013
LIBS:SymbolsSimilarEN60617+oldDIN617-RevE8
LIBS:Symbols_Socket-DIN41612_RevA
LIBS:Symbols_Transformer-Diskrete_RevA
LIBS:74xgxx
LIBS:ac-dc
LIBS:actel
LIBS:allegro
LIBS:Altera
LIBS:analog_devices
LIBS:battery_management
LIBS:bbd
LIBS:brooktre
LIBS:cmos_ieee
LIBS:dc-dc
LIBS:diode
LIBS:elec-unifil
LIBS:ESD_Protection
LIBS:ftdi
LIBS:gennum
LIBS:graphic
LIBS:hc11
LIBS:ir
LIBS:Lattice
LIBS:logo
LIBS:maxim
LIBS:mechanical
LIBS:microchip_dspic33dsc
LIBS:microchip_pic10mcu
LIBS:microchip_pic12mcu
LIBS:microchip_pic16mcu
LIBS:microchip_pic18mcu
LIBS:microchip_pic32mcu
LIBS:motor_drivers
LIBS:motors
LIBS:msp430
LIBS:nordicsemi
LIBS:nxp_armmcu
LIBS:onsemi
LIBS:Oscillators
LIBS:powerint
LIBS:Power_Management
LIBS:pspice
LIBS:references
LIBS:relays
LIBS:rfcom
LIBS:sensors
LIBS:silabs
LIBS:stm8
LIBS:stm32
LIBS:supertex
LIBS:transf
LIBS:ttl_ieee
LIBS:video
LIBS:wiznet
LIBS:Worldsemi
LIBS:Xicor
LIBS:zetex
LIBS:Zilog
LIBS:Rotary-Encoders
LIBS:eurocad
LIBS:chordpad-cache
EELAYER 25 0
EELAYER END
$Descr A3 16535 11693
encoding utf-8
Sheet 1 1
Title ""
Date ""
Rev ""
Comp ""
Comment1 ""
Comment2 ""
Comment3 ""
Comment4 ""
$EndDescr
$Comp
L MCP23017 U3
U 1 1 59FC3D10
P 11050 6250
F 0 "U3" H 10950 7275 50  0000 R CNN
F 1 "MCP23017" H 10950 7200 50  0000 R CNN
F 2 "Housings_SOIC:SOIC-28W_7.5x17.9mm_Pitch1.27mm" H 11100 5300 50  0001 L CNN
F 3 "" H 11300 7250 50  0001 C CNN
	1    11050 6250
	1    0    0    -1  
$EndComp
$Comp
L SW_SPST SW1
U 1 1 59FC3D80
P 10350 5450
F 0 "SW1" H 10350 5575 50  0000 C CNN
F 1 "SW_SPST" H 10350 5350 50  0000 C CNN
F 2 "Keyboard:CHERRY_PCB_100H" H 10350 5450 50  0001 C CNN
F 3 "" H 10350 5450 50  0000 C CNN
	1    10350 5450
	1    0    0    -1  
$EndComp
$Comp
L SW_SPST SW2
U 1 1 59FC3E1D
P 10350 5550
F 0 "SW2" H 10350 5675 50  0000 C CNN
F 1 "SW_SPST" H 10350 5450 50  0000 C CNN
F 2 "Keyboard:CHERRY_PCB_100H" H 10350 5550 50  0001 C CNN
F 3 "" H 10350 5550 50  0000 C CNN
	1    10350 5550
	1    0    0    -1  
$EndComp
$Comp
L SW_SPST SW3
U 1 1 59FC3E63
P 10350 5650
F 0 "SW3" H 10350 5775 50  0000 C CNN
F 1 "SW_SPST" H 10350 5550 50  0000 C CNN
F 2 "Keyboard:CHERRY_PCB_100H" H 10350 5650 50  0001 C CNN
F 3 "" H 10350 5650 50  0000 C CNN
	1    10350 5650
	1    0    0    -1  
$EndComp
$Comp
L SW_SPST SW4
U 1 1 59FC3E8C
P 10350 5750
F 0 "SW4" H 10350 5875 50  0000 C CNN
F 1 "SW_SPST" H 10350 5650 50  0000 C CNN
F 2 "Keyboard:CHERRY_PCB_100H" H 10350 5750 50  0001 C CNN
F 3 "" H 10350 5750 50  0000 C CNN
	1    10350 5750
	1    0    0    -1  
$EndComp
$Comp
L SW_SPST SW5
U 1 1 59FC3EB9
P 10350 5850
F 0 "SW5" H 10350 5975 50  0000 C CNN
F 1 "SW_SPST" H 10350 5750 50  0000 C CNN
F 2 "Keyboard:CHERRY_PCB_100H" H 10350 5850 50  0001 C CNN
F 3 "" H 10350 5850 50  0000 C CNN
	1    10350 5850
	1    0    0    -1  
$EndComp
$Comp
L SW_SPST SW6
U 1 1 59FC3EE5
P 10350 5950
F 0 "SW6" H 10350 6075 50  0000 C CNN
F 1 "SW_SPST" H 10350 5850 50  0000 C CNN
F 2 "Keyboard:CHERRY_PCB_100H" H 10350 5950 50  0001 C CNN
F 3 "" H 10350 5950 50  0000 C CNN
	1    10350 5950
	1    0    0    -1  
$EndComp
$Comp
L SW_SPST SW7
U 1 1 59FC3F10
P 10350 6050
F 0 "SW7" H 10350 6175 50  0000 C CNN
F 1 "SW_SPST" H 10350 5950 50  0000 C CNN
F 2 "Keyboard:CHERRY_PCB_100H" H 10350 6050 50  0001 C CNN
F 3 "" H 10350 6050 50  0000 C CNN
	1    10350 6050
	1    0    0    -1  
$EndComp
$Comp
L SW_SPST SW8
U 1 1 59FC3F44
P 10350 6150
F 0 "SW8" H 10350 6275 50  0000 C CNN
F 1 "SW_SPST" H 10350 6050 50  0000 C CNN
F 2 "Keyboard:CHERRY_PCB_100H" H 10350 6150 50  0001 C CNN
F 3 "" H 10350 6150 50  0000 C CNN
	1    10350 6150
	1    0    0    -1  
$EndComp
$Comp
L SW_SPST SW9
U 1 1 59FC41D7
P 10350 6350
F 0 "SW9" H 10350 6475 50  0000 C CNN
F 1 "SW_SPST" H 10350 6250 50  0000 C CNN
F 2 "Keyboard:CHERRY_PCB_100H" H 10350 6350 50  0001 C CNN
F 3 "" H 10350 6350 50  0000 C CNN
	1    10350 6350
	1    0    0    -1  
$EndComp
$Comp
L SW_SPST SW10
U 1 1 59FC4213
P 10350 6450
F 0 "SW10" H 10350 6575 50  0000 C CNN
F 1 "SW_SPST" H 10350 6350 50  0000 C CNN
F 2 "Keyboard:CHERRY_PCB_100H" H 10350 6450 50  0001 C CNN
F 3 "" H 10350 6450 50  0000 C CNN
	1    10350 6450
	1    0    0    -1  
$EndComp
$Comp
L SW_SPST SW11
U 1 1 59FC424A
P 10350 6550
F 0 "SW11" H 10350 6675 50  0000 C CNN
F 1 "SW_SPST" H 10350 6450 50  0000 C CNN
F 2 "Keyboard:CHERRY_PCB_100H" H 10350 6550 50  0001 C CNN
F 3 "" H 10350 6550 50  0000 C CNN
	1    10350 6550
	1    0    0    -1  
$EndComp
$Comp
L SW_SPST SW12
U 1 1 59FC4284
P 10350 6650
F 0 "SW12" H 10350 6775 50  0000 C CNN
F 1 "SW_SPST" H 10350 6550 50  0000 C CNN
F 2 "Keyboard:CHERRY_PCB_100H" H 10350 6650 50  0001 C CNN
F 3 "" H 10350 6650 50  0000 C CNN
	1    10350 6650
	1    0    0    -1  
$EndComp
$Comp
L SW_SPST SW13
U 1 1 59FC42C1
P 10350 6750
F 0 "SW13" H 10350 6875 50  0000 C CNN
F 1 "SW_SPST" H 10350 6650 50  0000 C CNN
F 2 "Keyboard:CHERRY_PCB_100H" H 10350 6750 50  0001 C CNN
F 3 "" H 10350 6750 50  0000 C CNN
	1    10350 6750
	1    0    0    -1  
$EndComp
$Comp
L SW_SPST SW14
U 1 1 59FC4301
P 10350 6850
F 0 "SW14" H 10350 6975 50  0000 C CNN
F 1 "SW_SPST" H 10350 6750 50  0000 C CNN
F 2 "Keyboard:CHERRY_PCB_100H" H 10350 6850 50  0001 C CNN
F 3 "" H 10350 6850 50  0000 C CNN
	1    10350 6850
	1    0    0    -1  
$EndComp
$Comp
L SW_SPST SW15
U 1 1 59FC4344
P 10350 6950
F 0 "SW15" H 10350 7075 50  0000 C CNN
F 1 "SW_SPST" H 10350 6850 50  0000 C CNN
F 2 "Keyboard:CHERRY_PCB_100H" H 10350 6950 50  0001 C CNN
F 3 "" H 10350 6950 50  0000 C CNN
	1    10350 6950
	1    0    0    -1  
$EndComp
$Comp
L SW_SPST SW16
U 1 1 59FC438A
P 10350 7050
F 0 "SW16" H 10350 7175 50  0000 C CNN
F 1 "SW_SPST" H 10350 6950 50  0000 C CNN
F 2 "Keyboard:CHERRY_PCB_100H" H 10350 7050 50  0001 C CNN
F 3 "" H 10350 7050 50  0000 C CNN
	1    10350 7050
	1    0    0    -1  
$EndComp
$Comp
L R R4
U 1 1 59FC6FE8
P 8150 6000
F 0 "R4" V 8230 6000 50  0000 C CNN
F 1 "R" V 8150 6000 50  0000 C CNN
F 2 "Resistors_SMD:R_1206_HandSoldering" V 8080 6000 50  0001 C CNN
F 3 "" H 8150 6000 50  0000 C CNN
	1    8150 6000
	1    0    0    -1  
$EndComp
$Comp
L R R5
U 1 1 59FC7069
P 8250 6000
F 0 "R5" V 8330 6000 50  0000 C CNN
F 1 "R" V 8250 6000 50  0000 C CNN
F 2 "Resistors_SMD:R_1206_HandSoldering" V 8180 6000 50  0001 C CNN
F 3 "" H 8250 6000 50  0000 C CNN
	1    8250 6000
	1    0    0    -1  
$EndComp
$Comp
L +3.3V #PWR01
U 1 1 59FC7113
P 8200 5650
F 0 "#PWR01" H 8200 5500 50  0001 C CNN
F 1 "+3.3V" H 8200 5790 50  0000 C CNN
F 2 "" H 8200 5650 50  0000 C CNN
F 3 "" H 8200 5650 50  0000 C CNN
	1    8200 5650
	1    0    0    -1  
$EndComp
$Comp
L GND #PWR03
U 1 1 59FCA51F
P 2400 5250
F 0 "#PWR03" H 2400 5000 50  0001 C CNN
F 1 "GND" H 2400 5100 50  0000 C CNN
F 2 "" H 2400 5250 50  0000 C CNN
F 3 "" H 2400 5250 50  0000 C CNN
	1    2400 5250
	1    0    0    -1  
$EndComp
$Comp
L Mounting_Hole MK1
U 1 1 59FCE1BB
P 7800 2750
F 0 "MK1" H 7800 2950 50  0000 C CNN
F 1 "Mounting_Hole" H 7800 2875 50  0000 C CNN
F 2 "Mounting_Holes:MountingHole_2.7mm_Pad_Via" H 7800 2750 60  0001 C CNN
F 3 "" H 7800 2750 60  0001 C CNN
	1    7800 2750
	1    0    0    -1  
$EndComp
$Comp
L Mounting_Hole MK3
U 1 1 59FCE2DE
P 7800 3000
F 0 "MK3" H 7800 3200 50  0000 C CNN
F 1 "Mounting_Hole" H 7800 3125 50  0000 C CNN
F 2 "Mounting_Holes:MountingHole_2.7mm_Pad_Via" H 7800 3000 60  0001 C CNN
F 3 "" H 7800 3000 60  0001 C CNN
	1    7800 3000
	1    0    0    -1  
$EndComp
$Comp
L Mounting_Hole MK5
U 1 1 59FCE3A1
P 7800 3300
F 0 "MK5" H 7800 3500 50  0000 C CNN
F 1 "Mounting_Hole" H 7800 3425 50  0000 C CNN
F 2 "Mounting_Holes:MountingHole_2.7mm_Pad_Via" H 7800 3300 60  0001 C CNN
F 3 "" H 7800 3300 60  0001 C CNN
	1    7800 3300
	1    0    0    -1  
$EndComp
$Comp
L Mounting_Hole MK7
U 1 1 59FCE461
P 7800 3600
F 0 "MK7" H 7800 3800 50  0000 C CNN
F 1 "Mounting_Hole" H 7800 3725 50  0000 C CNN
F 2 "Mounting_Holes:MountingHole_2.7mm_Pad_Via" H 7800 3600 60  0001 C CNN
F 3 "" H 7800 3600 60  0001 C CNN
	1    7800 3600
	1    0    0    -1  
$EndComp
$Comp
L ALPS-STEC12E08 ENC1
U 1 1 59FD1635
P 3300 6050
F 0 "ENC1" H 3300 6425 60  0000 C CNN
F 1 "ALPS-STEC12E08" H 3300 6550 60  0000 C CNN
F 2 "Rotary-Encoders:ALPS_STEC12E08" H 3300 6050 60  0001 C CNN
F 3 "" H 3300 6050 60  0000 C CNN
	1    3300 6050
	1    0    0    -1  
$EndComp
$Comp
L ALPS-STEC12E08 ENC2
U 1 1 59FD1758
P 3300 6900
F 0 "ENC2" H 3300 7275 60  0000 C CNN
F 1 "ALPS-STEC12E08" H 3300 7400 60  0000 C CNN
F 2 "Rotary-Encoders:ALPS_STEC12E08" H 3300 6900 60  0001 C CNN
F 3 "" H 3300 6900 60  0000 C CNN
	1    3300 6900
	1    0    0    -1  
$EndComp
$Comp
L GND #PWR04
U 1 1 59FE1F2D
P 2400 2900
F 0 "#PWR04" H 2400 2650 50  0001 C CNN
F 1 "GND" H 2400 2750 50  0000 C CNN
F 2 "" H 2400 2900 50  0000 C CNN
F 3 "" H 2400 2900 50  0000 C CNN
	1    2400 2900
	1    0    0    -1  
$EndComp
$Comp
L Teensy3.6 U1
U 1 1 59FC6CA8
P 6250 4650
F 0 "U1" H 6250 6950 60  0000 C CNN
F 1 "Teensy3.6" H 6250 2350 60  0000 C CNN
F 2 "teensy:Teensy35_36" H 6250 4650 60  0001 C CNN
F 3 "" H 6250 4650 60  0000 C CNN
	1    6250 4650
	1    0    0    -1  
$EndComp
$Comp
L Mounting_Hole MK2
U 1 1 59FE38DF
P 8150 2750
F 0 "MK2" H 8150 2950 50  0000 C CNN
F 1 "Mounting_Hole" H 8150 2875 50  0000 C CNN
F 2 "Mounting_Holes:MountingHole_2.7mm_Pad_Via" H 8150 2750 60  0001 C CNN
F 3 "" H 8150 2750 60  0001 C CNN
	1    8150 2750
	1    0    0    -1  
$EndComp
$Comp
L Mounting_Hole MK4
U 1 1 59FE39AC
P 8150 3000
F 0 "MK4" H 8150 3200 50  0000 C CNN
F 1 "Mounting_Hole" H 8150 3125 50  0000 C CNN
F 2 "Mounting_Holes:MountingHole_2.7mm_Pad_Via" H 8150 3000 60  0001 C CNN
F 3 "" H 8150 3000 60  0001 C CNN
	1    8150 3000
	1    0    0    -1  
$EndComp
$Comp
L Mounting_Hole MK6
U 1 1 59FE3A7E
P 8150 3300
F 0 "MK6" H 8150 3500 50  0000 C CNN
F 1 "Mounting_Hole" H 8150 3425 50  0000 C CNN
F 2 "Mounting_Holes:MountingHole_2.7mm_Pad_Via" H 8150 3300 60  0001 C CNN
F 3 "" H 8150 3300 60  0001 C CNN
	1    8150 3300
	1    0    0    -1  
$EndComp
$Comp
L Mounting_Hole MK8
U 1 1 59FE3B4D
P 8150 3600
F 0 "MK8" H 8150 3800 50  0000 C CNN
F 1 "Mounting_Hole" H 8150 3725 50  0000 C CNN
F 2 "Mounting_Holes:MountingHole_2.7mm_Pad_Via" H 8150 3600 60  0001 C CNN
F 3 "" H 8150 3600 60  0001 C CNN
	1    8150 3600
	1    0    0    -1  
$EndComp
$Comp
L MCP23017 U4
U 1 1 5A04FFD4
P 13300 6250
F 0 "U4" H 13200 7275 50  0000 R CNN
F 1 "MCP23017" H 13200 7200 50  0000 R CNN
F 2 "Housings_SOIC:SOIC-28W_7.5x17.9mm_Pitch1.27mm" H 13350 5300 50  0001 L CNN
F 3 "" H 13550 7250 50  0001 C CNN
	1    13300 6250
	-1   0    0    -1  
$EndComp
$Comp
L SW_SPST SW17
U 1 1 5A04FFDA
P 14000 5450
F 0 "SW17" H 14000 5575 50  0000 C CNN
F 1 "SW_SPST" H 14000 5350 50  0000 C CNN
F 2 "Keyboard:CHERRY_PCB_100H" H 14000 5450 50  0001 C CNN
F 3 "" H 14000 5450 50  0000 C CNN
	1    14000 5450
	-1   0    0    -1  
$EndComp
$Comp
L SW_SPST SW18
U 1 1 5A04FFE0
P 14000 5550
F 0 "SW18" H 14000 5675 50  0000 C CNN
F 1 "SW_SPST" H 14000 5450 50  0000 C CNN
F 2 "Keyboard:CHERRY_PCB_100H" H 14000 5550 50  0001 C CNN
F 3 "" H 14000 5550 50  0000 C CNN
	1    14000 5550
	-1   0    0    -1  
$EndComp
$Comp
L SW_SPST SW19
U 1 1 5A04FFE6
P 14000 5650
F 0 "SW19" H 14000 5775 50  0000 C CNN
F 1 "SW_SPST" H 14000 5550 50  0000 C CNN
F 2 "Keyboard:CHERRY_PCB_100H" H 14000 5650 50  0001 C CNN
F 3 "" H 14000 5650 50  0000 C CNN
	1    14000 5650
	-1   0    0    -1  
$EndComp
$Comp
L SW_SPST SW20
U 1 1 5A04FFEC
P 14000 5750
F 0 "SW20" H 14000 5875 50  0000 C CNN
F 1 "SW_SPST" H 14000 5650 50  0000 C CNN
F 2 "Keyboard:CHERRY_PCB_100H" H 14000 5750 50  0001 C CNN
F 3 "" H 14000 5750 50  0000 C CNN
	1    14000 5750
	-1   0    0    -1  
$EndComp
$Comp
L SW_SPST SW21
U 1 1 5A04FFF2
P 14000 5850
F 0 "SW21" H 14000 5975 50  0000 C CNN
F 1 "SW_SPST" H 14000 5750 50  0000 C CNN
F 2 "Keyboard:CHERRY_PCB_100H" H 14000 5850 50  0001 C CNN
F 3 "" H 14000 5850 50  0000 C CNN
	1    14000 5850
	-1   0    0    -1  
$EndComp
$Comp
L SW_SPST SW22
U 1 1 5A04FFF8
P 14000 5950
F 0 "SW22" H 14000 6075 50  0000 C CNN
F 1 "SW_SPST" H 14000 5850 50  0000 C CNN
F 2 "Keyboard:CHERRY_PCB_100H" H 14000 5950 50  0001 C CNN
F 3 "" H 14000 5950 50  0000 C CNN
	1    14000 5950
	-1   0    0    -1  
$EndComp
$Comp
L SW_SPST SW23
U 1 1 5A04FFFE
P 14000 6050
F 0 "SW23" H 14000 6175 50  0000 C CNN
F 1 "SW_SPST" H 14000 5950 50  0000 C CNN
F 2 "Keyboard:CHERRY_PCB_100H" H 14000 6050 50  0001 C CNN
F 3 "" H 14000 6050 50  0000 C CNN
	1    14000 6050
	-1   0    0    -1  
$EndComp
$Comp
L SW_SPST SW24
U 1 1 5A050004
P 14000 6150
F 0 "SW24" H 14000 6275 50  0000 C CNN
F 1 "SW_SPST" H 14000 6050 50  0000 C CNN
F 2 "Keyboard:CHERRY_PCB_100H" H 14000 6150 50  0001 C CNN
F 3 "" H 14000 6150 50  0000 C CNN
	1    14000 6150
	-1   0    0    -1  
$EndComp
$Comp
L SW_SPST SW25
U 1 1 5A05000A
P 14000 6350
F 0 "SW25" H 14000 6475 50  0000 C CNN
F 1 "SW_SPST" H 14000 6250 50  0000 C CNN
F 2 "Keyboard:CHERRY_PCB_100H" H 14000 6350 50  0001 C CNN
F 3 "" H 14000 6350 50  0000 C CNN
	1    14000 6350
	-1   0    0    -1  
$EndComp
$Comp
L SW_SPST SW26
U 1 1 5A050010
P 14000 6450
F 0 "SW26" H 14000 6575 50  0000 C CNN
F 1 "SW_SPST" H 14000 6350 50  0000 C CNN
F 2 "Keyboard:CHERRY_PCB_100H" H 14000 6450 50  0001 C CNN
F 3 "" H 14000 6450 50  0000 C CNN
	1    14000 6450
	-1   0    0    -1  
$EndComp
$Comp
L SW_SPST SW27
U 1 1 5A050016
P 14000 6550
F 0 "SW27" H 14000 6675 50  0000 C CNN
F 1 "SW_SPST" H 14000 6450 50  0000 C CNN
F 2 "Keyboard:CHERRY_PCB_100H" H 14000 6550 50  0001 C CNN
F 3 "" H 14000 6550 50  0000 C CNN
	1    14000 6550
	-1   0    0    -1  
$EndComp
$Comp
L SW_SPST SW28
U 1 1 5A05001C
P 14000 6650
F 0 "SW28" H 14000 6775 50  0000 C CNN
F 1 "SW_SPST" H 14000 6550 50  0000 C CNN
F 2 "Keyboard:CHERRY_PCB_100H" H 14000 6650 50  0001 C CNN
F 3 "" H 14000 6650 50  0000 C CNN
	1    14000 6650
	-1   0    0    -1  
$EndComp
$Comp
L SW_SPST SW29
U 1 1 5A050022
P 14000 6750
F 0 "SW29" H 14000 6875 50  0000 C CNN
F 1 "SW_SPST" H 14000 6650 50  0000 C CNN
F 2 "Keyboard:CHERRY_PCB_100H" H 14000 6750 50  0001 C CNN
F 3 "" H 14000 6750 50  0000 C CNN
	1    14000 6750
	-1   0    0    -1  
$EndComp
$Comp
L SW_SPST SW30
U 1 1 5A050028
P 14000 6850
F 0 "SW30" H 14000 6975 50  0000 C CNN
F 1 "SW_SPST" H 14000 6750 50  0000 C CNN
F 2 "Keyboard:CHERRY_PCB_100H" H 14000 6850 50  0001 C CNN
F 3 "" H 14000 6850 50  0000 C CNN
	1    14000 6850
	-1   0    0    -1  
$EndComp
$Comp
L SW_SPST SW31
U 1 1 5A05002E
P 14000 6950
F 0 "SW31" H 14000 7075 50  0000 C CNN
F 1 "SW_SPST" H 14000 6850 50  0000 C CNN
F 2 "Keyboard:CHERRY_PCB_100H" H 14000 6950 50  0001 C CNN
F 3 "" H 14000 6950 50  0000 C CNN
	1    14000 6950
	-1   0    0    -1  
$EndComp
$Comp
L SW_SPST SW32
U 1 1 5A050034
P 14000 7050
F 0 "SW32" H 14000 7175 50  0000 C CNN
F 1 "SW_SPST" H 14000 6950 50  0000 C CNN
F 2 "Keyboard:CHERRY_PCB_100H" H 14000 7050 50  0001 C CNN
F 3 "" H 14000 7050 50  0000 C CNN
	1    14000 7050
	-1   0    0    -1  
$EndComp
$Comp
L GND #PWR05
U 1 1 5A05003A
P 12100 7650
F 0 "#PWR05" H 12100 7400 50  0001 C CNN
F 1 "GND" H 12100 7500 50  0000 C CNN
F 2 "" H 12100 7650 50  0000 C CNN
F 3 "" H 12100 7650 50  0000 C CNN
	1    12100 7650
	-1   0    0    -1  
$EndComp
$Comp
L +3.3V #PWR06
U 1 1 5A050040
P 12150 4750
F 0 "#PWR06" H 12150 4600 50  0001 C CNN
F 1 "+3.3V" H 12150 4890 50  0000 C CNN
F 2 "" H 12150 4750 50  0000 C CNN
F 3 "" H 12150 4750 50  0000 C CNN
	1    12150 4750
	1    0    0    -1  
$EndComp
$Comp
L +3.3V #PWR07
U 1 1 5A050E24
P 12300 6750
F 0 "#PWR07" H 12300 6600 50  0001 C CNN
F 1 "+3.3V" H 12300 6890 50  0000 C CNN
F 2 "" H 12300 6750 50  0000 C CNN
F 3 "" H 12300 6750 50  0000 C CNN
	1    12300 6750
	1    0    0    -1  
$EndComp
Connection ~ 4050 6050
Wire Wire Line
	4050 6900 3850 6900
Wire Wire Line
	4050 5150 4050 6900
Wire Wire Line
	3850 6050 4050 6050
Wire Wire Line
	4300 5800 4300 5450
Wire Wire Line
	3850 5800 4300 5800
Connection ~ 2600 5900
Wire Wire Line
	2600 6750 2750 6750
Connection ~ 2600 5150
Wire Wire Line
	2600 5150 2600 6750
Wire Wire Line
	2750 5900 2600 5900
Wire Wire Line
	4800 5950 5250 5950
Wire Wire Line
	4800 7300 4800 5950
Wire Wire Line
	2750 7300 4800 7300
Wire Wire Line
	2750 7050 2750 7300
Wire Wire Line
	4700 5850 5250 5850
Wire Wire Line
	4700 7150 4700 5850
Wire Wire Line
	3850 7150 4700 7150
Wire Wire Line
	4600 5750 5250 5750
Wire Wire Line
	4600 6650 4600 5750
Wire Wire Line
	3850 6650 4600 6650
Wire Wire Line
	4500 5650 5250 5650
Wire Wire Line
	4500 6450 4500 5650
Wire Wire Line
	2750 6450 4500 6450
Wire Wire Line
	2750 6200 2750 6450
Wire Wire Line
	4400 5550 5250 5550
Wire Wire Line
	4400 6300 4400 5550
Wire Wire Line
	3850 6300 4400 6300
Wire Wire Line
	4300 5450 5250 5450
Wire Wire Line
	10150 5450 10150 7400
Connection ~ 10150 5550
Connection ~ 10150 5650
Connection ~ 10150 5750
Connection ~ 10150 5850
Connection ~ 10150 5950
Connection ~ 10150 6050
Connection ~ 10150 6150
Connection ~ 10150 6350
Connection ~ 10150 6450
Connection ~ 10150 6550
Connection ~ 10150 6650
Connection ~ 10150 6750
Connection ~ 10150 6850
Connection ~ 10150 6950
Wire Wire Line
	8150 6650 8150 6150
Connection ~ 8150 6650
Wire Wire Line
	8250 6550 8250 6150
Connection ~ 8250 6550
Wire Wire Line
	8150 5850 8250 5850
Wire Wire Line
	8200 5850 8200 5650
Connection ~ 8200 5850
Wire Wire Line
	2400 5150 2400 5250
Wire Wire Line
	14200 7400 10150 7400
Connection ~ 10150 7050
Wire Wire Line
	11650 7050 11550 7050
Wire Wire Line
	11650 6850 11550 6850
Connection ~ 11650 7050
Wire Wire Line
	11550 6950 11650 6950
Connection ~ 11650 6950
Wire Wire Line
	5250 2550 2400 2550
Wire Wire Line
	2400 2550 2400 2900
Wire Wire Line
	2400 5150 4050 5150
Wire Wire Line
	14200 5450 14200 7400
Connection ~ 14200 5550
Connection ~ 14200 5650
Connection ~ 14200 5750
Connection ~ 14200 5850
Connection ~ 14200 5950
Connection ~ 14200 6050
Connection ~ 14200 6150
Connection ~ 14200 6350
Connection ~ 14200 6450
Connection ~ 14200 6550
Connection ~ 14200 6650
Connection ~ 14200 6750
Connection ~ 14200 6850
Connection ~ 14200 6950
Connection ~ 14200 7050
Wire Wire Line
	12700 7050 12800 7050
Connection ~ 12700 7050
$Comp
L ILI9341_LCD_Breakout U5
U 1 1 5A0962B9
P 3800 3850
F 0 "U5" H 3100 4350 50  0000 L CNN
F 1 "ILI9341_LCD_Breakout" H 3100 3350 50  0000 L CNN
F 2 "Displays:CR2013-MI2120" H 3050 4250 50  0001 C CNN
F 3 "" H 3150 4350 50  0000 C CNN
	1    3800 3850
	1    0    0    -1  
$EndComp
$Comp
L GND #PWR09
U 1 1 5A096C77
P 4200 4450
F 0 "#PWR09" H 4200 4200 50  0001 C CNN
F 1 "GND" H 4200 4300 50  0000 C CNN
F 2 "" H 4200 4450 50  0000 C CNN
F 3 "" H 4200 4450 50  0000 C CNN
	1    4200 4450
	1    0    0    -1  
$EndComp
$Comp
L +3.3V #PWR010
U 1 1 5A096D21
P 4200 3250
F 0 "#PWR010" H 4200 3100 50  0001 C CNN
F 1 "+3.3V" H 4200 3390 50  0000 C CNN
F 2 "" H 4200 3250 50  0000 C CNN
F 3 "" H 4200 3250 50  0000 C CNN
	1    4200 3250
	1    0    0    -1  
$EndComp
Wire Wire Line
	5250 3550 4600 3550
Wire Wire Line
	5250 3650 4600 3650
Wire Wire Line
	4600 3750 5250 3750
Wire Wire Line
	5250 3850 4600 3850
Wire Wire Line
	4600 3950 5100 3950
Wire Wire Line
	5100 3950 5100 6450
Wire Wire Line
	5100 6450 5250 6450
NoConn ~ 3000 3650
NoConn ~ 3000 3750
NoConn ~ 3000 3850
NoConn ~ 3000 3950
Wire Wire Line
	4600 4150 4650 4150
Wire Wire Line
	4650 4150 4650 3250
Wire Wire Line
	4650 3250 4200 3250
Wire Wire Line
	4600 4050 4950 4050
Wire Wire Line
	4950 4050 4950 3250
$Comp
L R R1
U 1 1 5A097ABD
P 4800 3250
F 0 "R1" V 4880 3250 50  0000 C CNN
F 1 "R" V 4800 3250 50  0000 C CNN
F 2 "Resistors_SMD:R_1206_HandSoldering" V 4730 3250 50  0001 C CNN
F 3 "" H 4800 3250 50  0000 C CNN
	1    4800 3250
	0    1    1    0   
$EndComp
Wire Wire Line
	7250 6550 8450 6550
Wire Wire Line
	7250 6650 8450 6650
Text Label 8450 6550 0    60   ~ 0
SCL
Text Label 8450 6650 0    60   ~ 0
SDA
Wire Wire Line
	12700 6950 12800 6950
Wire Wire Line
	12800 6850 12300 6850
Wire Wire Line
	12300 6850 12300 6750
Text Label 11550 6550 0    60   ~ 0
SCL
Text Label 11550 6650 0    60   ~ 0
SDA
Text Label 12800 6550 2    60   ~ 0
SCL
Text Label 12800 6650 2    60   ~ 0
SDA
Wire Wire Line
	11050 5250 11050 5050
Wire Wire Line
	11050 5050 13300 5050
Wire Wire Line
	13300 5050 13300 5250
Connection ~ 12150 5050
Wire Wire Line
	12800 5450 12700 5450
Wire Wire Line
	12700 5450 12700 5050
Connection ~ 12700 5050
Wire Wire Line
	11550 5450 11650 5450
Wire Wire Line
	11650 5450 11650 5050
Connection ~ 11650 5050
Wire Wire Line
	12150 4750 12150 5050
Wire Wire Line
	12100 7400 12100 7650
Connection ~ 12100 7400
Wire Wire Line
	12700 6950 12700 7400
Connection ~ 12700 7400
Wire Wire Line
	11650 6850 11650 7400
Connection ~ 11650 7400
NoConn ~ 11550 5850
NoConn ~ 11550 5950
NoConn ~ 12800 5850
NoConn ~ 12800 5950
Wire Wire Line
	11050 7250 11050 7400
Connection ~ 11050 7400
Wire Wire Line
	13300 7250 13300 7400
Connection ~ 13300 7400
Wire Wire Line
	5250 3950 5150 3950
Wire Wire Line
	5150 3950 5150 4550
Wire Wire Line
	5150 4550 4850 4550
Wire Wire Line
	4850 4550 4850 4450
$Comp
L +3.3V #PWR?
U 1 1 5A09EBEF
P 4850 4450
F 0 "#PWR?" H 4850 4300 50  0001 C CNN
F 1 "+3.3V" H 4850 4590 50  0000 C CNN
F 2 "" H 4850 4450 50  0000 C CNN
F 3 "" H 4850 4450 50  0000 C CNN
	1    4850 4450
	1    0    0    -1  
$EndComp
$EndSCHEMATC
