G04 #@! TF.FileFunction,Copper,L2,Bot,Signal*
%FSLAX46Y46*%
G04 Gerber Fmt 4.6, Leading zero omitted, Abs format (unit mm)*
G04 Created by KiCad (PCBNEW 4.0.6+dfsg1-1) date Sun Mar 11 00:39:25 2018*
%MOMM*%
%LPD*%
G01*
G04 APERTURE LIST*
%ADD10C,0.100000*%
%ADD11R,2.000000X1.600000*%
%ADD12R,1.500000X1.250000*%
%ADD13R,1.700000X1.700000*%
%ADD14O,1.700000X1.700000*%
%ADD15R,3.800000X2.000000*%
%ADD16R,1.500000X2.000000*%
%ADD17C,2.000000*%
%ADD18C,0.600000*%
%ADD19C,0.250000*%
G04 APERTURE END LIST*
D10*
D11*
X168180000Y-113665000D03*
X172180000Y-113665000D03*
D12*
X167660000Y-116586000D03*
X170160000Y-116586000D03*
D13*
X163195000Y-121285000D03*
D14*
X165735000Y-121285000D03*
X168275000Y-121285000D03*
X170815000Y-121285000D03*
X173355000Y-121285000D03*
X175895000Y-121285000D03*
D15*
X168910000Y-104165000D03*
D16*
X168910000Y-110465000D03*
X166610000Y-110465000D03*
X171210000Y-110465000D03*
D13*
X180975000Y-118745000D03*
D14*
X180975000Y-121285000D03*
D17*
X149860000Y-116260000D03*
X149860000Y-111760000D03*
X156360000Y-116260000D03*
X156360000Y-111760000D03*
X149860000Y-108005000D03*
X149860000Y-103505000D03*
X156360000Y-108005000D03*
X156360000Y-103505000D03*
D18*
X162560000Y-116840000D03*
X182371964Y-104140000D03*
X153416000Y-117221000D03*
X163322000Y-106045002D03*
X163322000Y-102235000D03*
X179832000Y-101600000D03*
X180975000Y-107950000D03*
D19*
X168910000Y-110215000D02*
X167834999Y-109139999D01*
X167834999Y-109139999D02*
X165599999Y-109139999D01*
X165599999Y-109139999D02*
X162560000Y-112179998D01*
X162560000Y-112179998D02*
X162560000Y-116840000D01*
X181947700Y-104140000D02*
X182371964Y-104140000D01*
X168910000Y-110215000D02*
X174985000Y-104140000D01*
X168910000Y-110465000D02*
X168910000Y-110215000D01*
X174985000Y-104140000D02*
X181947700Y-104140000D01*
X168180000Y-113665000D02*
X168180000Y-111195000D01*
X168180000Y-111195000D02*
X168910000Y-110465000D01*
X153416000Y-117221000D02*
X153416000Y-114704000D01*
X153416000Y-114704000D02*
X156360000Y-111760000D01*
X172180000Y-113665000D02*
X172180000Y-117570000D01*
X172180000Y-117570000D02*
X175895000Y-121285000D01*
X170561000Y-112776000D02*
X171210000Y-112127000D01*
X171210000Y-112127000D02*
X171210000Y-110465000D01*
X170561000Y-115929000D02*
X170561000Y-112776000D01*
X170160000Y-116205000D02*
X170285000Y-116205000D01*
X170285000Y-116205000D02*
X170561000Y-115929000D01*
X172180000Y-113665000D02*
X172180000Y-111435000D01*
X172180000Y-111435000D02*
X171210000Y-110465000D01*
X167660000Y-116205000D02*
X167660000Y-118130000D01*
X167660000Y-118130000D02*
X170815000Y-121285000D01*
X166610000Y-110465000D02*
X166610000Y-115280000D01*
X166610000Y-115280000D02*
X167535000Y-116205000D01*
X167535000Y-116205000D02*
X167660000Y-116205000D01*
X163322000Y-102235000D02*
X163322000Y-106045002D01*
X183134000Y-119126000D02*
X183134000Y-103977034D01*
X183134000Y-103977034D02*
X180756966Y-101600000D01*
X180756966Y-101600000D02*
X179832000Y-101600000D01*
X180975000Y-121285000D02*
X183134000Y-119126000D01*
X180975000Y-118745000D02*
X180975000Y-107950000D01*
M02*
