G04 #@! TF.FileFunction,Soldermask,Top*
%FSLAX46Y46*%
G04 Gerber Fmt 4.6, Leading zero omitted, Abs format (unit mm)*
G04 Created by KiCad (PCBNEW 4.0.6+dfsg1-1) date Sun Mar 11 00:39:25 2018*
%MOMM*%
%LPD*%
G01*
G04 APERTURE LIST*
%ADD10C,0.100000*%
%ADD11R,2.400000X2.000000*%
%ADD12R,2.100000X2.100000*%
%ADD13O,2.100000X2.100000*%
%ADD14R,1.900000X1.700000*%
%ADD15O,2.900000X1.500000*%
%ADD16C,2.400000*%
G04 APERTURE END LIST*
D10*
D11*
X158845000Y-120650000D03*
X154845000Y-120650000D03*
D12*
X163195000Y-121285000D03*
D13*
X165735000Y-121285000D03*
X168275000Y-121285000D03*
X170815000Y-121285000D03*
X173355000Y-121285000D03*
X175895000Y-121285000D03*
D14*
X182325000Y-105410000D03*
X179625000Y-105410000D03*
X182325000Y-102870000D03*
X179625000Y-102870000D03*
X182325000Y-107950000D03*
X179625000Y-107950000D03*
X182325000Y-110490000D03*
X179625000Y-110490000D03*
X182325000Y-113030000D03*
X179625000Y-113030000D03*
D15*
X160590000Y-102870000D03*
X160590000Y-104870000D03*
X160590000Y-106870000D03*
X160590000Y-108870000D03*
X160590000Y-110870000D03*
X160590000Y-112870000D03*
X160590000Y-114870000D03*
X160590000Y-116870000D03*
X175990000Y-116870000D03*
X175890000Y-114870000D03*
X175990000Y-112870000D03*
X175990000Y-110870000D03*
X175990000Y-108870000D03*
X175990000Y-106870000D03*
X175990000Y-104870000D03*
X175990000Y-102870000D03*
D12*
X180975000Y-118745000D03*
D13*
X180975000Y-121285000D03*
D16*
X149860000Y-116260000D03*
X149860000Y-111760000D03*
X156360000Y-116260000D03*
X156360000Y-111760000D03*
X149860000Y-108005000D03*
X149860000Y-103505000D03*
X156360000Y-108005000D03*
X156360000Y-103505000D03*
M02*
