G04 #@! TF.FileFunction,Legend,Bot*
%FSLAX46Y46*%
G04 Gerber Fmt 4.6, Leading zero omitted, Abs format (unit mm)*
G04 Created by KiCad (PCBNEW 4.0.6+dfsg1-1) date Sun Mar 11 00:39:25 2018*
%MOMM*%
%LPD*%
G01*
G04 APERTURE LIST*
%ADD10C,0.100000*%
%ADD11C,0.120000*%
%ADD12C,0.150000*%
G04 APERTURE END LIST*
D10*
D11*
X171180000Y-114685000D02*
X169180000Y-114685000D01*
X169180000Y-112645000D02*
X171180000Y-112645000D01*
X169410000Y-117436000D02*
X168410000Y-117436000D01*
X168410000Y-115736000D02*
X169410000Y-115736000D01*
X165500000Y-105405000D02*
X166760000Y-105405000D01*
X172320000Y-105405000D02*
X171060000Y-105405000D01*
X165500000Y-109165000D02*
X165500000Y-105405000D01*
X172320000Y-111415000D02*
X172320000Y-105405000D01*
D12*
X170346666Y-115772143D02*
X170394285Y-115819762D01*
X170537142Y-115867381D01*
X170632380Y-115867381D01*
X170775238Y-115819762D01*
X170870476Y-115724524D01*
X170918095Y-115629286D01*
X170965714Y-115438810D01*
X170965714Y-115295952D01*
X170918095Y-115105476D01*
X170870476Y-115010238D01*
X170775238Y-114915000D01*
X170632380Y-114867381D01*
X170537142Y-114867381D01*
X170394285Y-114915000D01*
X170346666Y-114962619D01*
X169394285Y-115867381D02*
X169965714Y-115867381D01*
X169680000Y-115867381D02*
X169680000Y-114867381D01*
X169775238Y-115010238D01*
X169870476Y-115105476D01*
X169965714Y-115153095D01*
X165266666Y-116943143D02*
X165314285Y-116990762D01*
X165457142Y-117038381D01*
X165552380Y-117038381D01*
X165695238Y-116990762D01*
X165790476Y-116895524D01*
X165838095Y-116800286D01*
X165885714Y-116609810D01*
X165885714Y-116466952D01*
X165838095Y-116276476D01*
X165790476Y-116181238D01*
X165695238Y-116086000D01*
X165552380Y-116038381D01*
X165457142Y-116038381D01*
X165314285Y-116086000D01*
X165266666Y-116133619D01*
X164885714Y-116133619D02*
X164838095Y-116086000D01*
X164742857Y-116038381D01*
X164504761Y-116038381D01*
X164409523Y-116086000D01*
X164361904Y-116133619D01*
X164314285Y-116228857D01*
X164314285Y-116324095D01*
X164361904Y-116466952D01*
X164933333Y-117038381D01*
X164314285Y-117038381D01*
X174997857Y-116038381D02*
X174902618Y-116038381D01*
X174807380Y-116086000D01*
X174759761Y-116133619D01*
X174712142Y-116228857D01*
X174664523Y-116419333D01*
X174664523Y-116657429D01*
X174712142Y-116847905D01*
X174759761Y-116943143D01*
X174807380Y-116990762D01*
X174902618Y-117038381D01*
X174997857Y-117038381D01*
X175093095Y-116990762D01*
X175140714Y-116943143D01*
X175188333Y-116847905D01*
X175235952Y-116657429D01*
X175235952Y-116419333D01*
X175188333Y-116228857D01*
X175140714Y-116133619D01*
X175093095Y-116086000D01*
X174997857Y-116038381D01*
X174235952Y-116943143D02*
X174188333Y-116990762D01*
X174235952Y-117038381D01*
X174283571Y-116990762D01*
X174235952Y-116943143D01*
X174235952Y-117038381D01*
X173235952Y-117038381D02*
X173807381Y-117038381D01*
X173521667Y-117038381D02*
X173521667Y-116038381D01*
X173616905Y-116181238D01*
X173712143Y-116276476D01*
X173807381Y-116324095D01*
X172378809Y-116371714D02*
X172378809Y-117038381D01*
X172807381Y-116371714D02*
X172807381Y-116895524D01*
X172759762Y-116990762D01*
X172664524Y-117038381D01*
X172521666Y-117038381D01*
X172426428Y-116990762D01*
X172378809Y-116943143D01*
X171569285Y-116514571D02*
X171902619Y-116514571D01*
X171902619Y-117038381D02*
X171902619Y-116038381D01*
X171426428Y-116038381D01*
X172862381Y-106553095D02*
X173671905Y-106553095D01*
X173767143Y-106600714D01*
X173814762Y-106648333D01*
X173862381Y-106743571D01*
X173862381Y-106934048D01*
X173814762Y-107029286D01*
X173767143Y-107076905D01*
X173671905Y-107124524D01*
X172862381Y-107124524D01*
X172957619Y-107553095D02*
X172910000Y-107600714D01*
X172862381Y-107695952D01*
X172862381Y-107934048D01*
X172910000Y-108029286D01*
X172957619Y-108076905D01*
X173052857Y-108124524D01*
X173148095Y-108124524D01*
X173290952Y-108076905D01*
X173862381Y-107505476D01*
X173862381Y-108124524D01*
M02*
