EESchema Schematic File Version 2
LIBS:chordboard-rescue
LIBS:maxim
LIBS:chordboard-components
LIBS:power
LIBS:device
LIBS:transistors
LIBS:conn
LIBS:linear
LIBS:regul
LIBS:74xx
LIBS:cmos4000
LIBS:adc-dac
LIBS:memory
LIBS:xilinx
LIBS:microcontrollers
LIBS:dsp
LIBS:microchip
LIBS:analog_switches
LIBS:motorola
LIBS:texas
LIBS:intel
LIBS:audio
LIBS:interface
LIBS:digital-audio
LIBS:philips
LIBS:display
LIBS:cypress
LIBS:siliconi
LIBS:opto
LIBS:atmel
LIBS:contrib
LIBS:valves
LIBS:switches
LIBS:mechanical
LIBS:chordboard-cache
EELAYER 25 0
EELAYER END
$Descr A1 33110 23386
encoding utf-8
Sheet 1 1
Title ""
Date ""
Rev ""
Comp ""
Comment1 ""
Comment2 ""
Comment3 ""
Comment4 ""
$EndDescr
$Comp
L Mounting_Hole MK1
U 1 1 5A6D2DB1
P 23400 7100
F 0 "MK1" H 23400 7300 50  0000 C CNN
F 1 "Mounting_Hole" H 23400 7225 50  0000 C CNN
F 2 "chordboard-footprints:Mounting_Hole" H 23400 7100 50  0001 C CNN
F 3 "" H 23400 7100 50  0001 C CNN
	1    23400 7100
	1    0    0    -1  
$EndComp
$Comp
L Mounting_Hole MK3
U 1 1 5A6D2DE4
P 23600 7100
F 0 "MK3" H 23600 7300 50  0000 C CNN
F 1 "Mounting_Hole" H 23600 7225 50  0000 C CNN
F 2 "chordboard-footprints:Mounting_Hole" H 23600 7100 50  0001 C CNN
F 3 "" H 23600 7100 50  0001 C CNN
	1    23600 7100
	1    0    0    -1  
$EndComp
$Comp
L Mounting_Hole MK5
U 1 1 5A6D2E0D
P 23800 7100
F 0 "MK5" H 23800 7300 50  0000 C CNN
F 1 "Mounting_Hole" H 23800 7225 50  0000 C CNN
F 2 "chordboard-footprints:Mounting_Hole" H 23800 7100 50  0001 C CNN
F 3 "" H 23800 7100 50  0001 C CNN
	1    23800 7100
	1    0    0    -1  
$EndComp
$Comp
L Mounting_Hole MK7
U 1 1 5A6D2E39
P 24000 7100
F 0 "MK7" H 24000 7300 50  0000 C CNN
F 1 "Mounting_Hole" H 24000 7225 50  0000 C CNN
F 2 "chordboard-footprints:Mounting_Hole" H 24000 7100 50  0001 C CNN
F 3 "" H 24000 7100 50  0001 C CNN
	1    24000 7100
	1    0    0    -1  
$EndComp
$Comp
L Mounting_Hole MK2
U 1 1 5A6D2EC5
P 23400 7300
F 0 "MK2" H 23400 7500 50  0000 C CNN
F 1 "Mounting_Hole" H 23400 7425 50  0000 C CNN
F 2 "chordboard-footprints:Mounting_Hole" H 23400 7300 50  0001 C CNN
F 3 "" H 23400 7300 50  0001 C CNN
	1    23400 7300
	1    0    0    -1  
$EndComp
$Comp
L Mounting_Hole MK4
U 1 1 5A6D2ECB
P 23600 7300
F 0 "MK4" H 23600 7500 50  0000 C CNN
F 1 "Mounting_Hole" H 23600 7425 50  0000 C CNN
F 2 "chordboard-footprints:Mounting_Hole" H 23600 7300 50  0001 C CNN
F 3 "" H 23600 7300 50  0001 C CNN
	1    23600 7300
	1    0    0    -1  
$EndComp
$Comp
L Mounting_Hole MK6
U 1 1 5A6D2ED1
P 23800 7300
F 0 "MK6" H 23800 7500 50  0000 C CNN
F 1 "Mounting_Hole" H 23800 7425 50  0000 C CNN
F 2 "chordboard-footprints:Mounting_Hole" H 23800 7300 50  0001 C CNN
F 3 "" H 23800 7300 50  0001 C CNN
	1    23800 7300
	1    0    0    -1  
$EndComp
$Comp
L Mounting_Hole MK8
U 1 1 5A6D2ED7
P 24000 7300
F 0 "MK8" H 24000 7500 50  0000 C CNN
F 1 "Mounting_Hole" H 24000 7425 50  0000 C CNN
F 2 "chordboard-footprints:Mounting_Hole" H 24000 7300 50  0001 C CNN
F 3 "" H 24000 7300 50  0001 C CNN
	1    24000 7300
	1    0    0    -1  
$EndComp
$Comp
L R R2
U 1 1 5A87D710
P 23200 12400
F 0 "R2" V 23100 12350 50  0000 C CNN
F 1 "4.7K" V 23200 12400 50  0000 C CNN
F 2 "Resistors_SMD:R_1206_HandSoldering" V 23130 12400 50  0001 C CNN
F 3 "" H 23200 12400 50  0000 C CNN
	1    23200 12400
	1    0    0    -1  
$EndComp
$Comp
L R R3
U 1 1 5A87D711
P 23300 12400
F 0 "R3" V 23400 12350 50  0000 C CNN
F 1 "4.7K" V 23300 12400 50  0000 C CNN
F 2 "Resistors_SMD:R_1206_HandSoldering" V 23230 12400 50  0001 C CNN
F 3 "" H 23300 12400 50  0000 C CNN
	1    23300 12400
	1    0    0    -1  
$EndComp
$Comp
L +3.3V #PWR01
U 1 1 5A87D712
P 23250 11250
F 0 "#PWR01" H 23250 11100 50  0001 C CNN
F 1 "+3.3V" H 23250 11390 50  0000 C CNN
F 2 "" H 23250 11250 50  0000 C CNN
F 3 "" H 23250 11250 50  0000 C CNN
	1    23250 11250
	1    0    0    -1  
$EndComp
$Comp
L GND #PWR02
U 1 1 5A87D713
P 19400 8550
F 0 "#PWR02" H 19400 8300 50  0001 C CNN
F 1 "GND" H 19400 8400 50  0000 C CNN
F 2 "" H 19400 8550 50  0000 C CNN
F 3 "" H 19400 8550 50  0000 C CNN
	1    19400 8550
	-1   0    0    1   
$EndComp
NoConn ~ 19400 11350
NoConn ~ 21400 12450
NoConn ~ 21400 12050
NoConn ~ 21400 11250
NoConn ~ 21400 11150
NoConn ~ 21400 11050
NoConn ~ 21400 10950
NoConn ~ 21400 10150
NoConn ~ 21400 10050
Text Label 19400 10150 2    60   ~ 0
AU_MCLK
Text Label 19400 9950 2    60   ~ 0
AU_BCLK
$Comp
L SW_SPST CORE_SW1
U 1 1 5A87D715
P 18700 11650
F 0 "CORE_SW1" H 18550 11700 50  0000 C CNN
F 1 "PGM" H 18900 11700 50  0000 C CNN
F 2 "Buttons_Switches_THT:SW_Tactile_SPST_Angled_PTS645Vx58-2LFS" H 18700 11650 50  0001 C CNN
F 3 "" H 18700 11650 50  0001 C CNN
	1    18700 11650
	1    0    0    -1  
$EndComp
$Comp
L GND #PWR03
U 1 1 5A87D716
P 18200 13750
F 0 "#PWR03" H 18200 13500 50  0001 C CNN
F 1 "GND" H 18200 13600 50  0000 C CNN
F 2 "" H 18200 13750 50  0000 C CNN
F 3 "" H 18200 13750 50  0000 C CNN
	1    18200 13750
	1    0    0    -1  
$EndComp
NoConn ~ 19400 11450
Text Label 19400 12850 2    60   ~ 0
AU_RX
Text Label 21400 12550 0    60   ~ 0
AU_LRCLK
Text Label 21400 12650 0    60   ~ 0
AU_TX
$Comp
L Teensy_Audio_Board U4
U 1 1 5A87D719
P 28850 10650
F 0 "U4" H 28650 11800 60  0000 C CNN
F 1 "Teensy_Audio_Board" H 28850 10100 60  0000 C CNN
F 2 "afshar-kicad-lib:Teensy_Audio_Board" H 28650 10100 60  0001 C CNN
F 3 "" H 28650 10100 60  0000 C CNN
	1    28850 10650
	1    0    0    -1  
$EndComp
Text Label 28100 10950 2    60   ~ 0
AU_MCLK
Text Label 28100 10750 2    60   ~ 0
AU_BCLK
Text Label 29550 11050 0    60   ~ 0
AU_RX
Text Label 29550 10450 0    60   ~ 0
SCL
Text Label 29550 10550 0    60   ~ 0
SDA
$Comp
L GND #PWR04
U 1 1 5A87D71A
P 27750 9900
F 0 "#PWR04" H 27750 9650 50  0001 C CNN
F 1 "GND" H 27750 9750 50  0000 C CNN
F 2 "" H 27750 9900 50  0000 C CNN
F 3 "" H 27750 9900 50  0000 C CNN
	1    27750 9900
	1    0    0    -1  
$EndComp
Text Label 29550 10150 0    60   ~ 0
AU_TX
Text Label 29550 10050 0    60   ~ 0
AU_LRCLK
$Comp
L +3.3V #PWR05
U 1 1 5A87D71B
P 30050 9400
F 0 "#PWR05" H 30050 9250 50  0001 C CNN
F 1 "+3.3V" H 30050 9540 50  0000 C CNN
F 2 "" H 30050 9400 50  0001 C CNN
F 3 "" H 30050 9400 50  0001 C CNN
	1    30050 9400
	1    0    0    -1  
$EndComp
Text Label 28100 11050 2    60   ~ 0
MISO
Text Label 19400 12950 2    60   ~ 0
SCK
Text Label 29550 10950 0    60   ~ 0
SCK
Text Label 28100 10850 2    60   ~ 0
AUSD_CS
Text Label 28100 10550 2    60   ~ 0
MOSI
Text Label 28100 10450 2    60   ~ 0
AUMEM_CS
NoConn ~ 21400 11850
NoConn ~ 21400 11950
$Comp
L +5V #PWR06
U 1 1 5A87D71D
P 22250 12150
F 0 "#PWR06" H 22250 12000 50  0001 C CNN
F 1 "+5V" H 22250 12290 50  0000 C CNN
F 2 "" H 22250 12150 50  0001 C CNN
F 3 "" H 22250 12150 50  0001 C CNN
	1    22250 12150
	1    0    0    -1  
$EndComp
$Comp
L Teensy3.6 U2
U 1 1 5A87D71E
P 20400 11050
F 0 "U2" H 20400 13350 60  0000 C CNN
F 1 "Teensy3.6" H 20400 8750 60  0000 C CNN
F 2 "chordboard-footprints:Teensy35_36_external_pins" H 20400 11050 60  0001 C CNN
F 3 "" H 20400 11050 60  0000 C CNN
	1    20400 11050
	1    0    0    -1  
$EndComp
Text Label 19400 13150 2    60   ~ 0
WIFI_RST
Text Label 21400 13150 0    60   ~ 0
WIFI_PGM
$Comp
L +3.3V #PWR07
U 1 1 5A87D71F
P 18200 10350
F 0 "#PWR07" H 18200 10200 50  0001 C CNN
F 1 "+3.3V" H 18200 10490 50  0000 C CNN
F 2 "" H 18200 10350 50  0001 C CNN
F 3 "" H 18200 10350 50  0001 C CNN
	1    18200 10350
	1    0    0    -1  
$EndComp
$Comp
L ROTARY_ENCODER_afshar ENC1
U 1 1 5A8858A7
P 7000 10450
F 0 "ENC1" H 7000 10850 60  0000 C CNN
F 1 "ROTARY_ENCODER" H 7050 10100 60  0000 C CNN
F 2 "chordboard-footprints:Rotary_Encoder_BI_EN12-HS22AF30" H 7000 10000 60  0000 C CNN
F 3 "" H 7000 10450 60  0000 C CNN
	1    7000 10450
	1    0    0    1   
$EndComp
$Comp
L C C2
U 1 1 5A8858A8
P 6750 10950
F 0 "C2" H 6760 11020 50  0000 L CNN
F 1 "0.1uF" H 6760 10870 50  0000 L CNN
F 2 "chordboard-footprints:C_0805_HandSoldering" H 6750 10950 50  0001 C CNN
F 3 "" H 6750 10950 50  0001 C CNN
	1    6750 10950
	1    0    0    -1  
$EndComp
$Comp
L C C1
U 1 1 5A8858A9
P 6250 10950
F 0 "C1" H 6260 11020 50  0000 L CNN
F 1 "0.1uF" H 6260 10870 50  0000 L CNN
F 2 "chordboard-footprints:C_0805_HandSoldering" H 6250 10950 50  0001 C CNN
F 3 "" H 6250 10950 50  0001 C CNN
	1    6250 10950
	1    0    0    -1  
$EndComp
$Comp
L GND #PWR08
U 1 1 5A8858AA
P 7500 10600
F 0 "#PWR08" H 7500 10350 50  0001 C CNN
F 1 "GND" H 7500 10450 50  0000 C CNN
F 2 "" H 7500 10600 50  0001 C CNN
F 3 "" H 7500 10600 50  0001 C CNN
	1    7500 10600
	1    0    0    -1  
$EndComp
$Comp
L GND #PWR09
U 1 1 5A8858AB
P 6500 11150
F 0 "#PWR09" H 6500 10900 50  0001 C CNN
F 1 "GND" H 6500 11000 50  0000 C CNN
F 2 "" H 6500 11150 50  0001 C CNN
F 3 "" H 6500 11150 50  0001 C CNN
	1    6500 11150
	1    0    0    -1  
$EndComp
Text Label 6750 10350 2    60   ~ 0
RE1_SW
$Comp
L ROTARY_ENCODER_afshar ENC2
U 1 1 5A8858B1
P 9200 10450
F 0 "ENC2" H 9200 10850 60  0000 C CNN
F 1 "ROTARY_ENCODER" H 9250 10100 60  0000 C CNN
F 2 "chordboard-footprints:Rotary_Encoder_BI_EN12-HS22AF30" H 9200 10000 60  0000 C CNN
F 3 "" H 9200 10450 60  0000 C CNN
	1    9200 10450
	1    0    0    1   
$EndComp
$Comp
L C C4
U 1 1 5A8858B2
P 8950 10950
F 0 "C4" H 8960 11020 50  0000 L CNN
F 1 "0.1uF" H 8960 10870 50  0000 L CNN
F 2 "chordboard-footprints:C_0805_HandSoldering" H 8950 10950 50  0001 C CNN
F 3 "" H 8950 10950 50  0001 C CNN
	1    8950 10950
	1    0    0    -1  
$EndComp
$Comp
L C C3
U 1 1 5A8858B3
P 8450 10950
F 0 "C3" H 8460 11020 50  0000 L CNN
F 1 "0.1uF" H 8460 10870 50  0000 L CNN
F 2 "chordboard-footprints:C_0805_HandSoldering" H 8450 10950 50  0001 C CNN
F 3 "" H 8450 10950 50  0001 C CNN
	1    8450 10950
	1    0    0    -1  
$EndComp
$Comp
L GND #PWR010
U 1 1 5A8858B4
P 9700 10600
F 0 "#PWR010" H 9700 10350 50  0001 C CNN
F 1 "GND" H 9700 10450 50  0000 C CNN
F 2 "" H 9700 10600 50  0001 C CNN
F 3 "" H 9700 10600 50  0001 C CNN
	1    9700 10600
	1    0    0    -1  
$EndComp
$Comp
L GND #PWR011
U 1 1 5A8858B5
P 8700 11150
F 0 "#PWR011" H 8700 10900 50  0001 C CNN
F 1 "GND" H 8700 11000 50  0000 C CNN
F 2 "" H 8700 11150 50  0001 C CNN
F 3 "" H 8700 11150 50  0001 C CNN
	1    8700 11150
	1    0    0    -1  
$EndComp
Text Label 8950 10350 2    60   ~ 0
RE2_SW
$Comp
L ROTARY_ENCODER_afshar ENC3
U 1 1 5A8858BB
P 11200 10450
F 0 "ENC3" H 11200 10850 60  0000 C CNN
F 1 "ROTARY_ENCODER" H 11250 10100 60  0000 C CNN
F 2 "chordboard-footprints:Rotary_Encoder_BI_EN12-HS22AF30" H 11200 10000 60  0000 C CNN
F 3 "" H 11200 10450 60  0000 C CNN
	1    11200 10450
	1    0    0    1   
$EndComp
$Comp
L C C6
U 1 1 5A8858BC
P 10950 10950
F 0 "C6" H 10960 11020 50  0000 L CNN
F 1 "0.1uF" H 10960 10870 50  0000 L CNN
F 2 "chordboard-footprints:C_0805_HandSoldering" H 10950 10950 50  0001 C CNN
F 3 "" H 10950 10950 50  0001 C CNN
	1    10950 10950
	1    0    0    -1  
$EndComp
$Comp
L C C5
U 1 1 5A8858BD
P 10450 10950
F 0 "C5" H 10460 11020 50  0000 L CNN
F 1 "0.1uF" H 10460 10870 50  0000 L CNN
F 2 "chordboard-footprints:C_0805_HandSoldering" H 10450 10950 50  0001 C CNN
F 3 "" H 10450 10950 50  0001 C CNN
	1    10450 10950
	1    0    0    -1  
$EndComp
$Comp
L GND #PWR012
U 1 1 5A8858BE
P 11700 10600
F 0 "#PWR012" H 11700 10350 50  0001 C CNN
F 1 "GND" H 11700 10450 50  0000 C CNN
F 2 "" H 11700 10600 50  0001 C CNN
F 3 "" H 11700 10600 50  0001 C CNN
	1    11700 10600
	1    0    0    -1  
$EndComp
$Comp
L GND #PWR013
U 1 1 5A8858BF
P 10700 11150
F 0 "#PWR013" H 10700 10900 50  0001 C CNN
F 1 "GND" H 10700 11000 50  0000 C CNN
F 2 "" H 10700 11150 50  0001 C CNN
F 3 "" H 10700 11150 50  0001 C CNN
	1    10700 11150
	1    0    0    -1  
$EndComp
Text Label 10950 10350 2    60   ~ 0
RE3_SW
Text Notes 6700 9700 0    60   ~ 0
Config: Key; Mode\nShift: Change Main mode
Text Notes 8350 9700 0    60   ~ 0
Config: Octave; spread; channel; etc.\nShift Config: change bank
Text Notes 10850 9750 0    60   ~ 0
Config: tempo\nPlay: tempo\nShift: change looper
Text Label 6250 10500 2    60   ~ 0
RE1_B
Text Label 6750 10700 2    60   ~ 0
RE1_A
Text Label 8450 10500 2    60   ~ 0
RE2_B
Text Label 8950 10700 2    60   ~ 0
RE2_A
Text Label 10950 10700 2    60   ~ 0
RE3_A
Text Label 10450 10500 2    60   ~ 0
RE3_B
Text Label 19400 10450 2    60   ~ 0
RE1_A
Text Label 19400 10550 2    60   ~ 0
RE1_B
Text Label 19400 10650 2    60   ~ 0
RE2_A
Text Label 19400 10750 2    60   ~ 0
RE2_B
Text Label 19400 11950 2    60   ~ 0
RE2_SW
Text Label 19400 10850 2    60   ~ 0
RE3_A
Text Label 19400 10950 2    60   ~ 0
RE3_B
Text Label 19400 11850 2    60   ~ 0
RE1_SW
Text Label 19400 12050 2    60   ~ 0
RE3_SW
Text Label 19400 11150 2    60   ~ 0
U4_RX
Text Label 19400 11250 2    60   ~ 0
U4_TX
$Comp
L KSW SW1
U 1 1 5A89A746
P 18750 12150
F 0 "SW1" H 18650 12200 60  0000 C CNN
F 1 "KSW" H 18900 12200 60  0000 C CNN
F 2 "chordboard-footprints:SW_PUSH_6mm" H 18750 12150 60  0001 C CNN
F 3 "" H 18750 12150 60  0001 C CNN
	1    18750 12150
	-1   0    0    -1  
$EndComp
$Comp
L KSW SW2
U 1 1 5A89A74C
P 18750 12250
F 0 "SW2" H 18650 12300 60  0000 C CNN
F 1 "KSW" H 18900 12300 60  0000 C CNN
F 2 "chordboard-footprints:SW_PUSH_6mm" H 19700 12300 60  0001 C CNN
F 3 "" H 18750 12250 60  0001 C CNN
	1    18750 12250
	-1   0    0    -1  
$EndComp
Text Label 23500 12950 0    60   ~ 0
SCL
Text Label 23500 13050 0    60   ~ 0
SDA
$Comp
L GNDA #PWR014
U 1 1 5A89E752
P 22250 12450
F 0 "#PWR014" H 22250 12200 50  0001 C CNN
F 1 "GNDA" H 22250 12300 50  0000 C CNN
F 2 "" H 22250 12450 50  0001 C CNN
F 3 "" H 22250 12450 50  0001 C CNN
	1    22250 12450
	1    0    0    -1  
$EndComp
$Comp
L GNDA #PWR015
U 1 1 5A89EB7E
P 29550 9850
F 0 "#PWR015" H 29550 9600 50  0001 C CNN
F 1 "GNDA" H 29550 9700 50  0000 C CNN
F 2 "" H 29550 9850 50  0001 C CNN
F 3 "" H 29550 9850 50  0001 C CNN
	1    29550 9850
	0    -1   -1   0   
$EndComp
Text Label 19400 9850 2    60   ~ 0
U3_TX
$Comp
L +3.3V #PWR016
U 1 1 5A8FF9A5
P 5000 10450
F 0 "#PWR016" H 5000 10300 50  0001 C CNN
F 1 "+3.3V" H 5000 10590 50  0000 C CNN
F 2 "" H 5000 10450 50  0001 C CNN
F 3 "" H 5000 10450 50  0001 C CNN
	1    5000 10450
	-1   0    0    -1  
$EndComp
Text Label 4750 10700 2    60   ~ 0
AP_1
$Comp
L POT RV1
U 1 1 5A8FF9A6
P 5000 10700
F 0 "RV1" H 4950 10800 50  0000 R CNN
F 1 "POT" H 4950 10600 50  0000 R CNN
F 2 "Potentiometers:Potentiometer_Bourns_PTV09A-1_Horizontal" H 5000 10700 50  0001 C CNN
F 3 "" H 5000 10700 50  0001 C CNN
	1    5000 10700
	-1   0    0    -1  
$EndComp
$Comp
L C C7
U 1 1 5A8FF9AD
P 4750 10850
F 0 "C7" H 4775 10950 50  0000 L CNN
F 1 "0.1uF" H 4800 10800 50  0000 L CNN
F 2 "chordboard-footprints:C_0805_HandSoldering" H 4788 10700 50  0001 C CNN
F 3 "" H 4750 10850 50  0001 C CNN
	1    4750 10850
	-1   0    0    1   
$EndComp
$Comp
L GNDA #PWR017
U 1 1 5A900B2D
P 5000 11150
F 0 "#PWR017" H 5000 10900 50  0001 C CNN
F 1 "GNDA" H 5000 11000 50  0000 C CNN
F 2 "" H 5000 11150 50  0001 C CNN
F 3 "" H 5000 11150 50  0001 C CNN
	1    5000 11150
	1    0    0    -1  
$EndComp
Text Label 19400 12350 2    60   ~ 0
AP_1
Text Label 16150 4800 2    60   ~ 0
U3_TX
Text Label 19400 9250 2    60   ~ 0
LED_DIN
Text Label 19400 9450 2    60   ~ 0
LED_LOAD
Text Label 19400 9350 2    60   ~ 0
LED_CLK
Text Label 18100 16700 0    60   ~ 0
SCL
Text Label 18100 16800 0    60   ~ 0
SDA
Text Label 19400 11750 2    60   ~ 0
CORE_RST
Text Label 19400 11650 2    60   ~ 0
CORE_PGM
Text Label 19400 13050 2    60   ~ 0
AU_VOL
Text Label 29550 10850 0    60   ~ 0
AU_VOL
Text Label 21400 11550 0    60   ~ 0
USBH_DP
Text Label 21400 11650 0    60   ~ 0
USBH_DM
$Comp
L CONN_01X02 J1
U 1 1 5A98F507
P 16350 4850
F 0 "J1" H 16350 5000 50  0000 C CNN
F 1 "UART3" V 16450 4850 50  0000 C CNN
F 2 "Pin_Headers:Pin_Header_Straight_1x02_Pitch2.54mm" H 16350 4850 50  0001 C CNN
F 3 "" H 16350 4850 50  0001 C CNN
	1    16350 4850
	1    0    0    -1  
$EndComp
$Comp
L USB_A J2
U 1 1 5A81EE8D
P 22700 11550
F 0 "J2" H 22500 12000 50  0000 L CNN
F 1 "USB_A" H 22500 11900 50  0000 L CNN
F 2 "Connectors:USB_A" H 22850 11500 50  0001 C CNN
F 3 "" H 22850 11500 50  0001 C CNN
	1    22700 11550
	-1   0    0    -1  
$EndComp
Text Label 16100 3150 2    60   ~ 0
U4_TX
Text Label 16100 3050 2    60   ~ 0
U4_RX
$Comp
L GND #PWR018
U 1 1 5A84B35E
P 15650 5700
F 0 "#PWR018" H 15650 5450 50  0001 C CNN
F 1 "GND" H 15650 5550 50  0000 C CNN
F 2 "" H 15650 5700 50  0001 C CNN
F 3 "" H 15650 5700 50  0001 C CNN
	1    15650 5700
	1    0    0    -1  
$EndComp
$Comp
L GROVE_I2C J4
U 1 1 5A84DEDC
P 16300 3800
F 0 "J4" H 16300 4050 50  0000 C CNN
F 1 "I2C" V 16550 3800 50  0000 C CNN
F 2 "Pin_Headers:Pin_Header_Straight_1x04_Pitch2.54mm" H 16300 3800 50  0001 C CNN
F 3 "" H 16300 3800 50  0001 C CNN
	1    16300 3800
	1    0    0    -1  
$EndComp
$Comp
L GROVE_I2C J5
U 1 1 5A84DFEA
P 16300 4350
F 0 "J5" H 16300 4600 50  0000 C CNN
F 1 "I2C" V 16550 4350 50  0000 C CNN
F 2 "Pin_Headers:Pin_Header_Straight_1x04_Pitch2.54mm" H 16300 4350 50  0001 C CNN
F 3 "" H 16300 4350 50  0001 C CNN
	1    16300 4350
	1    0    0    -1  
$EndComp
$Comp
L GROVE_UART J3
U 1 1 5A84E1DC
P 16300 3200
F 0 "J3" H 16300 3450 50  0000 C CNN
F 1 "UART4" V 16550 3200 50  0000 C CNN
F 2 "Pin_Headers:Pin_Header_Straight_1x04_Pitch2.54mm" H 16300 3200 50  0001 C CNN
F 3 "" H 16300 3200 50  0001 C CNN
	1    16300 3200
	1    0    0    -1  
$EndComp
$Comp
L +3.3V #PWR019
U 1 1 5A84EEBA
P 15550 2800
F 0 "#PWR019" H 15550 2650 50  0001 C CNN
F 1 "+3.3V" H 15550 2940 50  0000 C CNN
F 2 "" H 15550 2800 50  0001 C CNN
F 3 "" H 15550 2800 50  0001 C CNN
	1    15550 2800
	1    0    0    -1  
$EndComp
Text Label 16100 3650 2    60   ~ 0
SCL
Text Label 16100 3750 2    60   ~ 0
SDA
Text Label 16100 4200 2    60   ~ 0
SCL
Text Label 16100 4300 2    60   ~ 0
SDA
$Comp
L Mounting_Hole MK9
U 1 1 5A853441
P 24200 7100
F 0 "MK9" H 24200 7300 50  0000 C CNN
F 1 "Mounting_Hole" H 24200 7225 50  0000 C CNN
F 2 "chordboard-footprints:Mounting_Hole" H 24200 7100 50  0001 C CNN
F 3 "" H 24200 7100 50  0001 C CNN
	1    24200 7100
	1    0    0    -1  
$EndComp
$Comp
L Mounting_Hole MK10
U 1 1 5A853447
P 24200 7300
F 0 "MK10" H 24200 7500 50  0000 C CNN
F 1 "Mounting_Hole" H 24200 7425 50  0000 C CNN
F 2 "chordboard-footprints:Mounting_Hole" H 24200 7300 50  0001 C CNN
F 3 "" H 24200 7300 50  0001 C CNN
	1    24200 7300
	1    0    0    -1  
$EndComp
$Comp
L MAX7219 U6
U 1 1 5A90E13D
P 8350 15000
F 0 "U6" H 8450 16350 60  0000 C CNN
F 1 "MAX7219" H 8900 15700 60  0000 C CNN
F 2 "Housings_DIP:DIP-24_W7.62mm" H 8350 14800 40  0001 L CIN
F 3 "https://datasheets.maximintegrated.com/en/ds/MAX7219-MAX7221.pdf" H 8350 14700 40  0001 L CIN
	1    8350 15000
	1    0    0    -1  
$EndComp
Text Label 9550 14600 0    60   ~ 0
X0
Text Label 8250 13900 2    60   ~ 0
Y0
$Comp
L +5V #PWR020
U 1 1 5A90E146
P 9050 12800
F 0 "#PWR020" H 9050 12650 50  0001 C CNN
F 1 "+5V" H 9050 12940 50  0000 C CNN
F 2 "" H 9050 12800 50  0001 C CNN
F 3 "" H 9050 12800 50  0001 C CNN
	1    9050 12800
	1    0    0    -1  
$EndComp
Text Label 9550 13900 0    60   ~ 0
X7
Text Label 9550 14000 0    60   ~ 0
X6
Text Label 9550 14100 0    60   ~ 0
X5
Text Label 9550 14200 0    60   ~ 0
X4
Text Label 9550 14300 0    60   ~ 0
X3
Text Label 9550 14400 0    60   ~ 0
X2
Text Label 9550 14500 0    60   ~ 0
X1
Text Label 8250 14000 2    60   ~ 0
Y1
Text Label 8250 14100 2    60   ~ 0
Y2
Text Label 8250 14200 2    60   ~ 0
Y3
Text Label 8250 14300 2    60   ~ 0
Y4
Text Label 8250 14400 2    60   ~ 0
Y5
Text Label 8250 14500 2    60   ~ 0
Y6
Text Label 8250 14600 2    60   ~ 0
Y7
$Comp
L GND #PWR021
U 1 1 5A90E15A
P 9100 15600
F 0 "#PWR021" H 9100 15350 50  0001 C CNN
F 1 "GND" H 9100 15450 50  0000 C CNN
F 2 "" H 9100 15600 50  0000 C CNN
F 3 "" H 9100 15600 50  0000 C CNN
	1    9100 15600
	1    0    0    -1  
$EndComp
$Comp
L C C10
U 1 1 5A90E167
P 10100 13700
F 0 "C10" H 10110 13770 50  0000 L CNN
F 1 "0.1uF" H 10110 13620 50  0000 L CNN
F 2 "chordboard-footprints:C_0805_HandSoldering" H 10100 13700 50  0001 C CNN
F 3 "" H 10100 13700 50  0001 C CNN
	1    10100 13700
	-1   0    0    -1  
$EndComp
$Comp
L GND #PWR022
U 1 1 5A90E16E
P 10100 14150
F 0 "#PWR022" H 10100 13900 50  0001 C CNN
F 1 "GND" H 10100 14000 50  0000 C CNN
F 2 "" H 10100 14150 50  0000 C CNN
F 3 "" H 10100 14150 50  0000 C CNN
	1    10100 14150
	1    0    0    -1  
$EndComp
$Comp
L CP CP1
U 1 1 5A9122F9
P 10350 13700
F 0 "CP1" H 10360 13770 50  0000 L CNN
F 1 "10uF" H 10360 13620 50  0000 L CNN
F 2 "Capacitors_THT:CP_Radial_D4.0mm_P2.00mm" H 10350 13700 50  0001 C CNN
F 3 "" H 10350 13700 50  0001 C CNN
	1    10350 13700
	1    0    0    -1  
$EndComp
NoConn ~ 13600 10900
NoConn ~ 13600 10800
NoConn ~ 13600 10700
NoConn ~ 13600 10600
$Comp
L GND #PWR023
U 1 1 5A895176
P 14800 11450
F 0 "#PWR023" H 14800 11200 50  0001 C CNN
F 1 "GND" H 14800 11300 50  0000 C CNN
F 2 "" H 14800 11450 50  0000 C CNN
F 3 "" H 14800 11450 50  0000 C CNN
	1    14800 11450
	-1   0    0    -1  
$EndComp
$Comp
L +3.3V #PWR024
U 1 1 5A895175
P 14800 10050
F 0 "#PWR024" H 14800 9900 50  0001 C CNN
F 1 "+3.3V" H 14800 10190 50  0000 C CNN
F 2 "" H 14800 10050 50  0000 C CNN
F 3 "" H 14800 10050 50  0000 C CNN
	1    14800 10050
	-1   0    0    -1  
$EndComp
Text Label 15200 10900 0    60   ~ 0
SCK
Text Label 15200 10800 0    60   ~ 0
MISO
Text Label 15200 10700 0    60   ~ 0
MOSI
Text Label 15200 10600 0    60   ~ 0
TFT_CS
Text Label 15200 10500 0    60   ~ 0
TFT_DC
$Comp
L R R1
U 1 1 5A895174
P 15400 11000
F 0 "R1" V 15300 10950 50  0000 C CNN
F 1 "220" V 15400 11000 50  0000 C CNN
F 2 "Resistors_SMD:R_1206_HandSoldering" V 15330 11000 50  0001 C CNN
F 3 "" H 15400 11000 50  0000 C CNN
	1    15400 11000
	0    1    1    0   
$EndComp
$Comp
L ILI9341_LCD_Breakout U1
U 1 1 5A895173
P 14400 10800
F 0 "U1" H 13700 11300 50  0000 L CNN
F 1 "ILI9341_LCD_Breakout" H 13700 10300 50  0000 L CNN
F 2 "Pin_Headers:Pin_Header_Straight_1x09_Pitch2.54mm" H 13650 11200 50  0001 C CNN
F 3 "" H 13750 11300 50  0001 C CNN
	1    14400 10800
	1    0    0    -1  
$EndComp
Text Label 19400 10250 2    60   ~ 0
MISO
Text Label 19400 9750 2    60   ~ 0
MOSI
Text Label 21450 12850 0    60   ~ 0
TFT_DC
Text Label 21450 12750 0    60   ~ 0
TFT_CS
Text Label 19400 9650 2    60   ~ 0
AUMEM_CS
NoConn ~ 21400 10850
NoConn ~ 21400 10750
NoConn ~ 21400 10650
NoConn ~ 21400 10550
NoConn ~ 21400 10450
NoConn ~ 21400 10350
NoConn ~ 21400 10250
NoConn ~ 21400 9950
NoConn ~ 21400 9850
NoConn ~ 21400 9750
NoConn ~ 21400 9650
NoConn ~ 21400 9550
NoConn ~ 21400 9450
NoConn ~ 21400 9350
NoConn ~ 21400 9250
NoConn ~ 21400 9150
NoConn ~ 21400 9050
NoConn ~ 21400 8950
Text Label 19400 10050 2    60   ~ 0
AUSD_CS
$Comp
L +3.3V #PWR025
U 1 1 5A954FEB
P 17400 14700
F 0 "#PWR025" H 17400 14550 50  0001 C CNN
F 1 "+3.3V" H 17400 14840 50  0000 C CNN
F 2 "" H 17400 14700 50  0000 C CNN
F 3 "" H 17400 14700 50  0000 C CNN
	1    17400 14700
	1    0    0    -1  
$EndComp
$Comp
L GND #PWR026
U 1 1 5A954FF1
P 18350 15250
F 0 "#PWR026" H 18350 15000 50  0001 C CNN
F 1 "GND" H 18350 15100 50  0000 C CNN
F 2 "" H 18350 15250 50  0001 C CNN
F 3 "" H 18350 15250 50  0001 C CNN
	1    18350 15250
	-1   0    0    -1  
$EndComp
$Comp
L GND #PWR027
U 1 1 5A954FF7
P 17400 18100
F 0 "#PWR027" H 17400 17850 50  0001 C CNN
F 1 "GND" H 17400 17950 50  0000 C CNN
F 2 "" H 17400 18100 50  0001 C CNN
F 3 "" H 17400 18100 50  0001 C CNN
	1    17400 18100
	-1   0    0    -1  
$EndComp
$Comp
L MCP23017 U7
U 1 1 5A954FFD
P 17400 16400
F 0 "U7" H 17300 17425 50  0000 R CNN
F 1 "MCP23017" H 17300 17350 50  0000 R CNN
F 2 "Housings_DIP:DIP-28_W7.62mm" H 17450 15450 50  0001 L CNN
F 3 "" H 17650 17400 50  0001 C CNN
	1    17400 16400
	1    0    0    -1  
$EndComp
$Comp
L KSW K1
U 1 1 5A955004
P 16700 15600
F 0 "K1" H 16600 15650 60  0000 C CNN
F 1 "KSW" H 16850 15650 60  0000 C CNN
F 2 "chordboard-footprints:CHERRY_PCB_100H" H 16700 15600 60  0001 C CNN
F 3 "" H 16700 15600 60  0001 C CNN
	1    16700 15600
	-1   0    0    -1  
$EndComp
$Comp
L KSW K2
U 1 1 5A95500B
P 16700 15700
F 0 "K2" H 16600 15750 60  0000 C CNN
F 1 "KSW" H 16850 15750 60  0000 C CNN
F 2 "chordboard-footprints:CHERRY_PCB_100H" H 17650 15750 60  0001 C CNN
F 3 "" H 16700 15700 60  0001 C CNN
	1    16700 15700
	-1   0    0    -1  
$EndComp
$Comp
L KSW K3
U 1 1 5A955012
P 16700 15800
F 0 "K3" H 16600 15850 60  0000 C CNN
F 1 "KSW" H 16850 15850 60  0000 C CNN
F 2 "chordboard-footprints:CHERRY_PCB_100H" H 17650 15850 60  0001 C CNN
F 3 "" H 16700 15800 60  0001 C CNN
	1    16700 15800
	-1   0    0    -1  
$EndComp
$Comp
L KSW K4
U 1 1 5A955019
P 16700 15900
F 0 "K4" H 16600 15950 60  0000 C CNN
F 1 "KSW" H 16850 15950 60  0000 C CNN
F 2 "chordboard-footprints:CHERRY_PCB_100H" H 17650 15950 60  0001 C CNN
F 3 "" H 16700 15900 60  0001 C CNN
	1    16700 15900
	-1   0    0    -1  
$EndComp
$Comp
L C C12
U 1 1 5A955020
P 18350 15050
F 0 "C12" H 18360 15120 50  0000 L CNN
F 1 "0.1uF" H 18360 14970 50  0000 L CNN
F 2 "chordboard-footprints:C_0805_HandSoldering" H 18350 15050 50  0001 C CNN
F 3 "" H 18350 15050 50  0001 C CNN
	1    18350 15050
	-1   0    0    -1  
$EndComp
$Comp
L KSW K5
U 1 1 5A955027
P 16700 16000
F 0 "K5" H 16600 16050 60  0000 C CNN
F 1 "KSW" H 16850 16050 60  0000 C CNN
F 2 "chordboard-footprints:CHERRY_PCB_100H" H 17650 16050 60  0001 C CNN
F 3 "" H 16700 16000 60  0001 C CNN
	1    16700 16000
	-1   0    0    -1  
$EndComp
$Comp
L KSW K6
U 1 1 5A95502E
P 16700 16100
F 0 "K6" H 16600 16150 60  0000 C CNN
F 1 "KSW" H 16850 16150 60  0000 C CNN
F 2 "chordboard-footprints:CHERRY_PCB_100H" H 17650 16150 60  0001 C CNN
F 3 "" H 16700 16100 60  0001 C CNN
	1    16700 16100
	-1   0    0    -1  
$EndComp
$Comp
L KSW K7
U 1 1 5A955035
P 16700 16200
F 0 "K7" H 16600 16250 60  0000 C CNN
F 1 "KSW" H 16850 16250 60  0000 C CNN
F 2 "chordboard-footprints:CHERRY_PCB_100H" H 17650 16250 60  0001 C CNN
F 3 "" H 16700 16200 60  0001 C CNN
	1    16700 16200
	-1   0    0    -1  
$EndComp
$Comp
L KSW K9
U 1 1 5A95503C
P 16700 16500
F 0 "K9" H 16600 16550 60  0000 C CNN
F 1 "KSW" H 16850 16550 60  0000 C CNN
F 2 "chordboard-footprints:CHERRY_PCB_100H" H 17650 16550 60  0001 C CNN
F 3 "" H 16700 16500 60  0001 C CNN
	1    16700 16500
	-1   0    0    -1  
$EndComp
$Comp
L KSW K10
U 1 1 5A955043
P 16700 16600
F 0 "K10" H 16600 16650 60  0000 C CNN
F 1 "KSW" H 16850 16650 60  0000 C CNN
F 2 "chordboard-footprints:CHERRY_PCB_100H" H 17650 16650 60  0001 C CNN
F 3 "" H 16700 16600 60  0001 C CNN
	1    16700 16600
	-1   0    0    -1  
$EndComp
$Comp
L KSW K11
U 1 1 5A95504A
P 16700 16700
F 0 "K11" H 16600 16750 60  0000 C CNN
F 1 "KSW" H 16850 16750 60  0000 C CNN
F 2 "chordboard-footprints:CHERRY_PCB_100H" H 17650 16750 60  0001 C CNN
F 3 "" H 16700 16700 60  0001 C CNN
	1    16700 16700
	-1   0    0    -1  
$EndComp
$Comp
L KSW K12
U 1 1 5A955051
P 16700 16800
F 0 "K12" H 16600 16850 60  0000 C CNN
F 1 "KSW" H 16850 16850 60  0000 C CNN
F 2 "chordboard-footprints:CHERRY_PCB_100H" H 17650 16850 60  0001 C CNN
F 3 "" H 16700 16800 60  0001 C CNN
	1    16700 16800
	-1   0    0    -1  
$EndComp
$Comp
L KSW K13
U 1 1 5A955058
P 16700 16900
F 0 "K13" H 16600 16950 60  0000 C CNN
F 1 "KSW" H 16850 16950 60  0000 C CNN
F 2 "chordboard-footprints:CHERRY_PCB_100H" H 17650 16950 60  0001 C CNN
F 3 "" H 16700 16900 60  0001 C CNN
	1    16700 16900
	-1   0    0    -1  
$EndComp
$Comp
L KSW K14
U 1 1 5A95505F
P 16700 17000
F 0 "K14" H 16600 17050 60  0000 C CNN
F 1 "KSW" H 16850 17050 60  0000 C CNN
F 2 "chordboard-footprints:CHERRY_PCB_100H" H 17650 17050 60  0001 C CNN
F 3 "" H 16700 17000 60  0001 C CNN
	1    16700 17000
	-1   0    0    -1  
$EndComp
$Comp
L KSW K8
U 1 1 5A955066
P 16700 16300
F 0 "K8" H 16600 16350 60  0000 C CNN
F 1 "KSW" H 16850 16350 60  0000 C CNN
F 2 "chordboard-footprints:CHERRY_PCB_100H" H 17650 16350 60  0001 C CNN
F 3 "" H 16700 16300 60  0001 C CNN
	1    16700 16300
	-1   0    0    -1  
$EndComp
$Comp
L KSW K15
U 1 1 5A95506D
P 16700 17100
F 0 "K15" H 16600 17150 60  0000 C CNN
F 1 "KSW" H 16850 17150 60  0000 C CNN
F 2 "chordboard-footprints:CHERRY_PCB_100H" H 17650 17150 60  0001 C CNN
F 3 "" H 16700 17100 60  0001 C CNN
	1    16700 17100
	-1   0    0    -1  
$EndComp
$Comp
L KSW K16
U 1 1 5A955074
P 16700 17200
F 0 "K16" H 16600 17250 60  0000 C CNN
F 1 "KSW" H 16850 17250 60  0000 C CNN
F 2 "chordboard-footprints:CHERRY_PCB_100H" H 17650 17250 60  0001 C CNN
F 3 "" H 16700 17200 60  0001 C CNN
	1    16700 17200
	-1   0    0    -1  
$EndComp
$Comp
L GND #PWR028
U 1 1 5A95507B
P 18100 17450
F 0 "#PWR028" H 18100 17200 50  0001 C CNN
F 1 "GND" H 18100 17300 50  0000 C CNN
F 2 "" H 18100 17450 50  0001 C CNN
F 3 "" H 18100 17450 50  0001 C CNN
	1    18100 17450
	-1   0    0    -1  
$EndComp
$Comp
L +3.3V #PWR029
U 1 1 5A955EFE
P 19900 14700
F 0 "#PWR029" H 19900 14550 50  0001 C CNN
F 1 "+3.3V" H 19900 14840 50  0000 C CNN
F 2 "" H 19900 14700 50  0000 C CNN
F 3 "" H 19900 14700 50  0000 C CNN
	1    19900 14700
	1    0    0    -1  
$EndComp
$Comp
L GND #PWR030
U 1 1 5A955F04
P 20850 15250
F 0 "#PWR030" H 20850 15000 50  0001 C CNN
F 1 "GND" H 20850 15100 50  0000 C CNN
F 2 "" H 20850 15250 50  0001 C CNN
F 3 "" H 20850 15250 50  0001 C CNN
	1    20850 15250
	-1   0    0    -1  
$EndComp
$Comp
L GND #PWR031
U 1 1 5A955F0A
P 19900 18100
F 0 "#PWR031" H 19900 17850 50  0001 C CNN
F 1 "GND" H 19900 17950 50  0000 C CNN
F 2 "" H 19900 18100 50  0001 C CNN
F 3 "" H 19900 18100 50  0001 C CNN
	1    19900 18100
	-1   0    0    -1  
$EndComp
$Comp
L MCP23017 U8
U 1 1 5A955F10
P 19900 16400
F 0 "U8" H 19800 17425 50  0000 R CNN
F 1 "MCP23017" H 19800 17350 50  0000 R CNN
F 2 "Housings_DIP:DIP-28_W7.62mm" H 19950 15450 50  0001 L CNN
F 3 "" H 20150 17400 50  0001 C CNN
	1    19900 16400
	1    0    0    -1  
$EndComp
$Comp
L KSW K17
U 1 1 5A955F17
P 19200 15600
F 0 "K17" H 19100 15650 60  0000 C CNN
F 1 "KSW" H 19350 15650 60  0000 C CNN
F 2 "chordboard-footprints:CHERRY_PCB_100H" H 19200 15600 60  0001 C CNN
F 3 "" H 19200 15600 60  0001 C CNN
	1    19200 15600
	-1   0    0    -1  
$EndComp
$Comp
L KSW K18
U 1 1 5A955F1E
P 19200 15700
F 0 "K18" H 19100 15750 60  0000 C CNN
F 1 "KSW" H 19350 15750 60  0000 C CNN
F 2 "chordboard-footprints:CHERRY_PCB_100H" H 20150 15750 60  0001 C CNN
F 3 "" H 19200 15700 60  0001 C CNN
	1    19200 15700
	-1   0    0    -1  
$EndComp
$Comp
L KSW K19
U 1 1 5A955F25
P 19200 15800
F 0 "K19" H 19100 15850 60  0000 C CNN
F 1 "KSW" H 19350 15850 60  0000 C CNN
F 2 "chordboard-footprints:CHERRY_PCB_100H" H 20150 15850 60  0001 C CNN
F 3 "" H 19200 15800 60  0001 C CNN
	1    19200 15800
	-1   0    0    -1  
$EndComp
$Comp
L KSW K20
U 1 1 5A955F2C
P 19200 15900
F 0 "K20" H 19100 15950 60  0000 C CNN
F 1 "KSW" H 19350 15950 60  0000 C CNN
F 2 "chordboard-footprints:CHERRY_PCB_100H" H 20150 15950 60  0001 C CNN
F 3 "" H 19200 15900 60  0001 C CNN
	1    19200 15900
	-1   0    0    -1  
$EndComp
$Comp
L C C13
U 1 1 5A955F33
P 20850 15050
F 0 "C13" H 20860 15120 50  0000 L CNN
F 1 "0.1uF" H 20860 14970 50  0000 L CNN
F 2 "chordboard-footprints:C_0805_HandSoldering" H 20850 15050 50  0001 C CNN
F 3 "" H 20850 15050 50  0001 C CNN
	1    20850 15050
	-1   0    0    -1  
$EndComp
$Comp
L KSW K21
U 1 1 5A955F3A
P 19200 16000
F 0 "K21" H 19100 16050 60  0000 C CNN
F 1 "KSW" H 19350 16050 60  0000 C CNN
F 2 "chordboard-footprints:CHERRY_PCB_100H" H 20150 16050 60  0001 C CNN
F 3 "" H 19200 16000 60  0001 C CNN
	1    19200 16000
	-1   0    0    -1  
$EndComp
$Comp
L KSW K22
U 1 1 5A955F41
P 19200 16100
F 0 "K22" H 19100 16150 60  0000 C CNN
F 1 "KSW" H 19350 16150 60  0000 C CNN
F 2 "chordboard-footprints:CHERRY_PCB_100H" H 20150 16150 60  0001 C CNN
F 3 "" H 19200 16100 60  0001 C CNN
	1    19200 16100
	-1   0    0    -1  
$EndComp
$Comp
L KSW K23
U 1 1 5A955F48
P 19200 16200
F 0 "K23" H 19100 16250 60  0000 C CNN
F 1 "KSW" H 19350 16250 60  0000 C CNN
F 2 "chordboard-footprints:CHERRY_PCB_100H" H 20150 16250 60  0001 C CNN
F 3 "" H 19200 16200 60  0001 C CNN
	1    19200 16200
	-1   0    0    -1  
$EndComp
$Comp
L KSW K25
U 1 1 5A955F4F
P 19200 16500
F 0 "K25" H 19100 16550 60  0000 C CNN
F 1 "KSW" H 19350 16550 60  0000 C CNN
F 2 "chordboard-footprints:CHERRY_PCB_100H" H 20150 16550 60  0001 C CNN
F 3 "" H 19200 16500 60  0001 C CNN
	1    19200 16500
	-1   0    0    -1  
$EndComp
$Comp
L KSW K26
U 1 1 5A955F56
P 19200 16600
F 0 "K26" H 19100 16650 60  0000 C CNN
F 1 "KSW" H 19350 16650 60  0000 C CNN
F 2 "chordboard-footprints:CHERRY_PCB_100H" H 20150 16650 60  0001 C CNN
F 3 "" H 19200 16600 60  0001 C CNN
	1    19200 16600
	-1   0    0    -1  
$EndComp
$Comp
L KSW K27
U 1 1 5A955F5D
P 19200 16700
F 0 "K27" H 19100 16750 60  0000 C CNN
F 1 "KSW" H 19350 16750 60  0000 C CNN
F 2 "chordboard-footprints:CHERRY_PCB_100H" H 20150 16750 60  0001 C CNN
F 3 "" H 19200 16700 60  0001 C CNN
	1    19200 16700
	-1   0    0    -1  
$EndComp
$Comp
L KSW K28
U 1 1 5A955F64
P 19200 16800
F 0 "K28" H 19100 16850 60  0000 C CNN
F 1 "KSW" H 19350 16850 60  0000 C CNN
F 2 "chordboard-footprints:CHERRY_PCB_100H" H 20150 16850 60  0001 C CNN
F 3 "" H 19200 16800 60  0001 C CNN
	1    19200 16800
	-1   0    0    -1  
$EndComp
$Comp
L KSW K29
U 1 1 5A955F6B
P 19200 16900
F 0 "K29" H 19100 16950 60  0000 C CNN
F 1 "KSW" H 19350 16950 60  0000 C CNN
F 2 "chordboard-footprints:CHERRY_PCB_100H" H 20150 16950 60  0001 C CNN
F 3 "" H 19200 16900 60  0001 C CNN
	1    19200 16900
	-1   0    0    -1  
$EndComp
$Comp
L KSW K30
U 1 1 5A955F72
P 19200 17000
F 0 "K30" H 19100 17050 60  0000 C CNN
F 1 "KSW" H 19350 17050 60  0000 C CNN
F 2 "chordboard-footprints:CHERRY_PCB_100H" H 20150 17050 60  0001 C CNN
F 3 "" H 19200 17000 60  0001 C CNN
	1    19200 17000
	-1   0    0    -1  
$EndComp
$Comp
L KSW K24
U 1 1 5A955F79
P 19200 16300
F 0 "K24" H 19100 16350 60  0000 C CNN
F 1 "KSW" H 19350 16350 60  0000 C CNN
F 2 "chordboard-footprints:CHERRY_PCB_100H" H 20150 16350 60  0001 C CNN
F 3 "" H 19200 16300 60  0001 C CNN
	1    19200 16300
	-1   0    0    -1  
$EndComp
$Comp
L KSW K31
U 1 1 5A955F80
P 19200 17100
F 0 "K31" H 19100 17150 60  0000 C CNN
F 1 "KSW" H 19350 17150 60  0000 C CNN
F 2 "chordboard-footprints:CHERRY_PCB_100H" H 20150 17150 60  0001 C CNN
F 3 "" H 19200 17100 60  0001 C CNN
	1    19200 17100
	-1   0    0    -1  
$EndComp
$Comp
L KSW K32
U 1 1 5A955F87
P 19200 17200
F 0 "K32" H 19100 17250 60  0000 C CNN
F 1 "KSW" H 19350 17250 60  0000 C CNN
F 2 "chordboard-footprints:CHERRY_PCB_100H" H 20150 17250 60  0001 C CNN
F 3 "" H 19200 17200 60  0001 C CNN
	1    19200 17200
	-1   0    0    -1  
$EndComp
$Comp
L GND #PWR032
U 1 1 5A955F8E
P 20600 17450
F 0 "#PWR032" H 20600 17200 50  0001 C CNN
F 1 "GND" H 20600 17300 50  0000 C CNN
F 2 "" H 20600 17450 50  0001 C CNN
F 3 "" H 20600 17450 50  0001 C CNN
	1    20600 17450
	-1   0    0    -1  
$EndComp
$Comp
L +3.3V #PWR033
U 1 1 5A9574B8
P 20600 17000
F 0 "#PWR033" H 20600 16850 50  0001 C CNN
F 1 "+3.3V" H 20600 17140 50  0000 C CNN
F 2 "" H 20600 17000 50  0000 C CNN
F 3 "" H 20600 17000 50  0000 C CNN
	1    20600 17000
	1    0    0    -1  
$EndComp
Text Label 20600 16700 0    60   ~ 0
SCL
Text Label 20600 16800 0    60   ~ 0
SDA
Text Label 8250 14750 2    60   ~ 0
LED_DIN
Text Label 8250 14850 2    60   ~ 0
LED_CLK
Text Label 8250 14950 2    60   ~ 0
LED_LOAD
$Comp
L CONN_01X04 J6
U 1 1 5A981267
P 16350 5300
F 0 "J6" H 16350 5550 50  0000 C CNN
F 1 "POWER" V 16450 5300 50  0000 C CNN
F 2 "Pin_Headers:Pin_Header_Straight_1x04_Pitch2.54mm" H 16350 5300 50  0001 C CNN
F 3 "" H 16350 5300 50  0001 C CNN
	1    16350 5300
	1    0    0    -1  
$EndComp
Wire Wire Line
	22250 12350 22250 12450
Wire Wire Line
	22250 12250 22250 12150
Connection ~ 10100 13950
Wire Wire Line
	10350 13950 10100 13950
Wire Wire Line
	10350 13800 10350 13950
Connection ~ 10100 13400
Wire Wire Line
	10350 13400 10350 13600
Wire Wire Line
	10100 13800 10100 14150
Wire Wire Line
	10100 13400 10100 13600
Connection ~ 9050 13400
Wire Wire Line
	8650 13400 8750 13400
Wire Wire Line
	8650 13400 8650 13600
Connection ~ 9100 15250
Wire Wire Line
	9100 15250 9100 15600
Wire Wire Line
	9150 15250 9150 15100
Wire Wire Line
	9050 15250 9150 15250
Wire Wire Line
	9050 15100 9050 15250
Wire Wire Line
	9050 12800 9050 13600
Connection ~ 15650 4900
Connection ~ 15650 4500
Connection ~ 15650 3950
Wire Wire Line
	15650 4500 16100 4500
Wire Wire Line
	15650 3950 16100 3950
Wire Wire Line
	15650 3350 15650 5700
Wire Wire Line
	16100 3350 15650 3350
Connection ~ 15550 3850
Wire Wire Line
	15550 4400 16100 4400
Connection ~ 15550 3250
Wire Wire Line
	15550 3850 16100 3850
Wire Wire Line
	16100 3250 15550 3250
Wire Wire Line
	21400 11550 22400 11550
Connection ~ 5000 11050
Wire Wire Line
	4750 11050 5000 11050
Wire Wire Line
	4750 10950 4750 11050
Wire Wire Line
	4750 10700 4750 10750
Wire Wire Line
	5000 10850 5000 11150
Wire Wire Line
	5000 10550 5000 10450
Wire Wire Line
	21400 11750 22400 11750
Wire Wire Line
	21400 11650 22400 11650
Wire Wire Line
	22400 11450 21400 11450
Wire Wire Line
	21400 11350 22400 11350
Wire Wire Line
	18200 11550 19400 11550
Wire Wire Line
	18200 11550 18200 13750
Wire Wire Line
	18900 11650 19400 11650
Wire Wire Line
	18200 10350 19400 10350
Wire Wire Line
	19400 8950 19400 8550
Wire Wire Line
	21400 13050 23500 13050
Wire Wire Line
	21400 12950 23500 12950
Connection ~ 23250 12250
Wire Wire Line
	23250 12250 23250 11250
Wire Wire Line
	23200 12250 23300 12250
Connection ~ 23300 12950
Wire Wire Line
	23300 12950 23300 12500
Connection ~ 23200 13050
Wire Wire Line
	23200 13050 23200 12500
Wire Wire Line
	18200 12750 19400 12750
Wire Wire Line
	27750 9750 28100 9750
Wire Wire Line
	27750 9750 27750 9900
Wire Wire Line
	30050 9950 30050 9400
Wire Wire Line
	21400 12850 21450 12850
Wire Wire Line
	21400 12750 21450 12750
Wire Wire Line
	29550 9950 30050 9950
Connection ~ 7300 10450
Wire Wire Line
	7500 10450 7300 10450
Wire Wire Line
	7300 10250 7300 10600
Wire Wire Line
	6750 10700 6750 10850
Wire Wire Line
	6750 10500 6250 10500
Wire Wire Line
	6250 10500 6250 10850
Wire Wire Line
	6250 11050 6750 11050
Wire Wire Line
	6500 11050 6500 11150
Connection ~ 6500 11050
Wire Wire Line
	7500 10450 7500 10600
Connection ~ 9500 10450
Wire Wire Line
	9700 10450 9500 10450
Wire Wire Line
	9500 10250 9500 10600
Wire Wire Line
	8950 10700 8950 10850
Wire Wire Line
	8950 10500 8450 10500
Wire Wire Line
	8450 10500 8450 10850
Wire Wire Line
	8450 11050 8950 11050
Wire Wire Line
	8700 11050 8700 11150
Connection ~ 8700 11050
Wire Wire Line
	9700 10450 9700 10600
Connection ~ 11500 10450
Wire Wire Line
	11700 10450 11500 10450
Wire Wire Line
	11500 10250 11500 10600
Wire Wire Line
	10950 10700 10950 10850
Wire Wire Line
	10950 10500 10450 10500
Wire Wire Line
	10450 10500 10450 10850
Wire Wire Line
	10450 11050 10950 11050
Wire Wire Line
	10700 11050 10700 11150
Connection ~ 10700 11050
Wire Wire Line
	11700 10450 11700 10600
Wire Wire Line
	18900 12150 19400 12150
Wire Wire Line
	18900 12250 19400 12250
Wire Wire Line
	18600 12150 18450 12150
Wire Wire Line
	18450 12250 18600 12250
Wire Wire Line
	18450 12200 18200 12200
Connection ~ 18450 12200
Wire Wire Line
	18500 11650 18200 11650
Connection ~ 18200 11650
Wire Wire Line
	23200 12250 23200 12300
Wire Wire Line
	23300 12250 23300 12300
Wire Wire Line
	4850 10700 4750 10700
Wire Wire Line
	21400 12250 22250 12250
Wire Wire Line
	21400 12350 22250 12350
Wire Wire Line
	15500 11000 15650 11000
Wire Wire Line
	15200 11000 15300 11000
Wire Wire Line
	15650 11100 15200 11100
Wire Wire Line
	15650 10100 15650 11100
Wire Wire Line
	15650 10100 14800 10100
Connection ~ 15650 11000
Wire Wire Line
	14800 10050 14800 10200
Connection ~ 14800 10100
Wire Wire Line
	14800 11400 14800 11450
Connection ~ 18200 12200
Wire Wire Line
	17900 16800 18100 16800
Wire Wire Line
	17900 16700 18100 16700
Wire Wire Line
	17400 17400 17400 18100
Wire Wire Line
	18000 14800 18000 15600
Wire Wire Line
	18000 15600 17900 15600
Wire Wire Line
	17400 14700 17400 15400
Connection ~ 16500 17000
Connection ~ 16500 16900
Connection ~ 16500 16800
Connection ~ 16500 16700
Connection ~ 16500 16600
Connection ~ 16500 16500
Connection ~ 16500 16300
Connection ~ 16500 16200
Connection ~ 16500 16100
Connection ~ 16500 16000
Connection ~ 16500 15900
Connection ~ 16500 15800
Connection ~ 16500 15700
Wire Wire Line
	16500 15600 16500 17450
Connection ~ 17400 14800
Wire Wire Line
	16500 17450 17400 17450
Connection ~ 17400 17450
Wire Wire Line
	18350 14800 18350 14950
Wire Wire Line
	18350 15150 18350 15250
Wire Wire Line
	16900 15600 16850 15600
Wire Wire Line
	16550 15600 16500 15600
Wire Wire Line
	16900 15700 16850 15700
Wire Wire Line
	16550 15700 16500 15700
Wire Wire Line
	16900 15800 16850 15800
Wire Wire Line
	16900 15900 16850 15900
Wire Wire Line
	16550 15800 16500 15800
Wire Wire Line
	16550 15900 16500 15900
Wire Wire Line
	16900 16000 16850 16000
Wire Wire Line
	16550 16000 16500 16000
Wire Wire Line
	16900 16100 16850 16100
Wire Wire Line
	16550 16100 16500 16100
Wire Wire Line
	16900 16200 16850 16200
Wire Wire Line
	16900 16300 16850 16300
Wire Wire Line
	16550 16200 16500 16200
Wire Wire Line
	16550 16300 16500 16300
Wire Wire Line
	16900 16500 16850 16500
Wire Wire Line
	16550 16500 16500 16500
Wire Wire Line
	16900 16600 16850 16600
Wire Wire Line
	16550 16600 16500 16600
Wire Wire Line
	16900 16700 16850 16700
Wire Wire Line
	16900 16800 16850 16800
Wire Wire Line
	16550 16700 16500 16700
Wire Wire Line
	16550 16800 16500 16800
Wire Wire Line
	16900 16900 16850 16900
Wire Wire Line
	16550 16900 16500 16900
Wire Wire Line
	16900 17000 16850 17000
Wire Wire Line
	16550 17000 16500 17000
Wire Wire Line
	16900 17100 16850 17100
Wire Wire Line
	16900 17200 16850 17200
Connection ~ 18000 14800
Wire Wire Line
	17900 17100 18100 17100
Wire Wire Line
	18100 17200 17900 17200
Wire Wire Line
	17400 14800 18350 14800
Wire Wire Line
	16550 17100 16500 17100
Connection ~ 16500 17100
Wire Wire Line
	16550 17200 16500 17200
Connection ~ 16500 17200
Connection ~ 18100 17200
Wire Wire Line
	17900 17000 18100 17000
Wire Wire Line
	18100 17000 18100 17450
Wire Wire Line
	20400 16800 20600 16800
Wire Wire Line
	20400 16700 20600 16700
Wire Wire Line
	19900 17400 19900 18100
Wire Wire Line
	20500 14800 20500 15600
Wire Wire Line
	20500 15600 20400 15600
Wire Wire Line
	19900 14700 19900 15400
Connection ~ 19000 17000
Connection ~ 19000 16900
Connection ~ 19000 16800
Connection ~ 19000 16700
Connection ~ 19000 16600
Connection ~ 19000 16500
Connection ~ 19000 16300
Connection ~ 19000 16200
Connection ~ 19000 16100
Connection ~ 19000 16000
Connection ~ 19000 15900
Connection ~ 19000 15800
Connection ~ 19000 15700
Wire Wire Line
	19000 15600 19000 17450
Connection ~ 19900 14800
Wire Wire Line
	19000 17450 19900 17450
Connection ~ 19900 17450
Wire Wire Line
	20850 14800 20850 14950
Wire Wire Line
	20850 15150 20850 15250
Wire Wire Line
	19400 15600 19350 15600
Wire Wire Line
	19050 15600 19000 15600
Wire Wire Line
	19400 15700 19350 15700
Wire Wire Line
	19050 15700 19000 15700
Wire Wire Line
	19400 15800 19350 15800
Wire Wire Line
	19400 15900 19350 15900
Wire Wire Line
	19050 15800 19000 15800
Wire Wire Line
	19050 15900 19000 15900
Wire Wire Line
	19400 16000 19350 16000
Wire Wire Line
	19050 16000 19000 16000
Wire Wire Line
	19400 16100 19350 16100
Wire Wire Line
	19050 16100 19000 16100
Wire Wire Line
	19400 16200 19350 16200
Wire Wire Line
	19400 16300 19350 16300
Wire Wire Line
	19050 16200 19000 16200
Wire Wire Line
	19050 16300 19000 16300
Wire Wire Line
	19400 16500 19350 16500
Wire Wire Line
	19050 16500 19000 16500
Wire Wire Line
	19400 16600 19350 16600
Wire Wire Line
	19050 16600 19000 16600
Wire Wire Line
	19400 16700 19350 16700
Wire Wire Line
	19400 16800 19350 16800
Wire Wire Line
	19050 16700 19000 16700
Wire Wire Line
	19050 16800 19000 16800
Wire Wire Line
	19400 16900 19350 16900
Wire Wire Line
	19050 16900 19000 16900
Wire Wire Line
	19400 17000 19350 17000
Wire Wire Line
	19050 17000 19000 17000
Wire Wire Line
	19400 17100 19350 17100
Wire Wire Line
	19400 17200 19350 17200
Connection ~ 20500 14800
Wire Wire Line
	20400 17100 20600 17100
Wire Wire Line
	20400 17200 20600 17200
Wire Wire Line
	19900 14800 20850 14800
Wire Wire Line
	19050 17100 19000 17100
Connection ~ 19000 17100
Wire Wire Line
	19050 17200 19000 17200
Connection ~ 19000 17200
Connection ~ 20600 17200
Wire Wire Line
	20400 17000 20600 17000
Wire Wire Line
	20600 17100 20600 17450
Connection ~ 18100 17100
Wire Wire Line
	15550 2800 15550 5150
Wire Wire Line
	15650 4900 16150 4900
Wire Wire Line
	15550 5150 16150 5150
Connection ~ 15550 4400
Wire Wire Line
	16150 5450 15650 5450
Connection ~ 15650 5450
Wire Wire Line
	16050 5250 16150 5250
Wire Wire Line
	16050 5100 16050 5250
$Comp
L +5V #PWR034
U 1 1 5A983608
P 16050 5100
F 0 "#PWR034" H 16050 4950 50  0001 C CNN
F 1 "+5V" H 16050 5240 50  0000 C CNN
F 2 "" H 16050 5100 50  0001 C CNN
F 3 "" H 16050 5100 50  0001 C CNN
	1    16050 5100
	1    0    0    -1  
$EndComp
$Comp
L +3.3VA #PWR035
U 1 1 5A9851E8
P 15800 5100
F 0 "#PWR035" H 15800 4950 50  0001 C CNN
F 1 "+3.3VA" H 15800 5240 50  0000 C CNN
F 2 "" H 15800 5100 50  0001 C CNN
F 3 "" H 15800 5100 50  0001 C CNN
	1    15800 5100
	1    0    0    -1  
$EndComp
Wire Wire Line
	15800 5100 15800 5350
Wire Wire Line
	15800 5350 16150 5350
Wire Wire Line
	8950 13400 10350 13400
$Comp
L R RS2
U 1 1 5A98B18F
P 8850 13400
F 0 "RS2" V 8750 13350 50  0000 C CNN
F 1 "10K" V 8850 13400 50  0000 C CNN
F 2 "Resistors_SMD:R_1206_HandSoldering" V 8780 13400 50  0001 C CNN
F 3 "" H 8850 13400 50  0000 C CNN
	1    8850 13400
	0    1    1    0   
$EndComp
Text Notes 7400 13600 0    60   ~ 0
Use only 1 RSET resistor.\nMultiple slots for testing.
$Comp
L LED LEDR1
U 1 1 5A995DB9
P 7000 4400
F 0 "LEDR1" H 7250 4350 60  0000 R CNN
F 1 "LED" H 7050 4450 60  0000 L CNN
F 2 "chordboard-footprints:LED_1.8mm" H 7000 4400 60  0001 C CNN
F 3 "" H 7000 4400 60  0001 C CNN
	1    7000 4400
	1    0    0    -1  
$EndComp
Text Label 6750 4500 2    60   ~ 0
X0
Text Label 6750 5900 2    60   ~ 0
X7
Text Label 6750 5700 2    60   ~ 0
X6
Text Label 6750 5500 2    60   ~ 0
X5
Text Label 6750 5300 2    60   ~ 0
X4
Text Label 6750 5100 2    60   ~ 0
X3
Text Label 6750 4900 2    60   ~ 0
X2
Text Label 6750 4700 2    60   ~ 0
X1
$Comp
L LED LEDR2
U 1 1 5A995DC8
P 7500 4400
F 0 "LEDR2" H 7750 4350 60  0000 R CNN
F 1 "LED" H 7550 4450 60  0000 L CNN
F 2 "chordboard-footprints:LED_1.8mm" H 7500 4400 60  0001 C CNN
F 3 "" H 7500 4400 60  0001 C CNN
	1    7500 4400
	1    0    0    -1  
$EndComp
$Comp
L LED LEDR3
U 1 1 5A995DCF
P 8000 4400
F 0 "LEDR3" H 8250 4350 60  0000 R CNN
F 1 "LED" H 8050 4450 60  0000 L CNN
F 2 "chordboard-footprints:LED_1.8mm" H 8000 4400 60  0001 C CNN
F 3 "" H 8000 4400 60  0001 C CNN
	1    8000 4400
	1    0    0    -1  
$EndComp
$Comp
L LED LEDR4
U 1 1 5A995DD6
P 8500 4400
F 0 "LEDR4" H 8750 4350 60  0000 R CNN
F 1 "LED" H 8550 4450 60  0000 L CNN
F 2 "chordboard-footprints:LED_1.8mm" H 8500 4400 60  0001 C CNN
F 3 "" H 8500 4400 60  0001 C CNN
	1    8500 4400
	1    0    0    -1  
$EndComp
$Comp
L LED LEDR5
U 1 1 5A995DDD
P 9000 4400
F 0 "LEDR5" H 9250 4350 60  0000 R CNN
F 1 "LED" H 9050 4450 60  0000 L CNN
F 2 "chordboard-footprints:LED_1.8mm" H 9000 4400 60  0001 C CNN
F 3 "" H 9000 4400 60  0001 C CNN
	1    9000 4400
	1    0    0    -1  
$EndComp
$Comp
L LED LEDR6
U 1 1 5A995DE4
P 9500 4400
F 0 "LEDR6" H 9750 4350 60  0000 R CNN
F 1 "LED" H 9550 4450 60  0000 L CNN
F 2 "chordboard-footprints:LED_1.8mm" H 9500 4400 60  0001 C CNN
F 3 "" H 9500 4400 60  0001 C CNN
	1    9500 4400
	1    0    0    -1  
$EndComp
$Comp
L LED LEDR7
U 1 1 5A995DEB
P 10000 4400
F 0 "LEDR7" H 10250 4350 60  0000 R CNN
F 1 "LED" H 10050 4450 60  0000 L CNN
F 2 "chordboard-footprints:LED_1.8mm" H 10000 4400 60  0001 C CNN
F 3 "" H 10000 4400 60  0001 C CNN
	1    10000 4400
	1    0    0    -1  
$EndComp
$Comp
L LED LEDR8
U 1 1 5A995DF2
P 10500 4400
F 0 "LEDR8" H 10750 4350 60  0000 R CNN
F 1 "LED" H 10550 4450 60  0000 L CNN
F 2 "chordboard-footprints:LED_1.8mm" H 10500 4400 60  0001 C CNN
F 3 "" H 10500 4400 60  0001 C CNN
	1    10500 4400
	1    0    0    -1  
$EndComp
$Comp
L LED LEDR9
U 1 1 5A995DF9
P 7000 4600
F 0 "LEDR9" H 7250 4550 60  0000 R CNN
F 1 "LED" H 7050 4650 60  0000 L CNN
F 2 "chordboard-footprints:LED_1.8mm" H 7000 4600 60  0001 C CNN
F 3 "" H 7000 4600 60  0001 C CNN
	1    7000 4600
	1    0    0    -1  
$EndComp
$Comp
L LED LEDR10
U 1 1 5A995E00
P 7500 4600
F 0 "LEDR10" H 7750 4550 60  0000 R CNN
F 1 "LED" H 7550 4650 60  0000 L CNN
F 2 "chordboard-footprints:LED_1.8mm" H 7500 4600 60  0001 C CNN
F 3 "" H 7500 4600 60  0001 C CNN
	1    7500 4600
	1    0    0    -1  
$EndComp
$Comp
L LED LEDR11
U 1 1 5A995E07
P 8000 4600
F 0 "LEDR11" H 8250 4550 60  0000 R CNN
F 1 "LED" H 8050 4650 60  0000 L CNN
F 2 "chordboard-footprints:LED_1.8mm" H 8000 4600 60  0001 C CNN
F 3 "" H 8000 4600 60  0001 C CNN
	1    8000 4600
	1    0    0    -1  
$EndComp
$Comp
L LED LEDR12
U 1 1 5A995E0E
P 8500 4600
F 0 "LEDR12" H 8750 4550 60  0000 R CNN
F 1 "LED" H 8550 4650 60  0000 L CNN
F 2 "chordboard-footprints:LED_1.8mm" H 8500 4600 60  0001 C CNN
F 3 "" H 8500 4600 60  0001 C CNN
	1    8500 4600
	1    0    0    -1  
$EndComp
$Comp
L LED LEDR13
U 1 1 5A995E15
P 9000 4600
F 0 "LEDR13" H 9250 4550 60  0000 R CNN
F 1 "LED" H 9050 4650 60  0000 L CNN
F 2 "chordboard-footprints:LED_1.8mm" H 9000 4600 60  0001 C CNN
F 3 "" H 9000 4600 60  0001 C CNN
	1    9000 4600
	1    0    0    -1  
$EndComp
$Comp
L LED LEDR14
U 1 1 5A995E1C
P 9500 4600
F 0 "LEDR14" H 9750 4550 60  0000 R CNN
F 1 "LED" H 9550 4650 60  0000 L CNN
F 2 "chordboard-footprints:LED_1.8mm" H 9500 4600 60  0001 C CNN
F 3 "" H 9500 4600 60  0001 C CNN
	1    9500 4600
	1    0    0    -1  
$EndComp
$Comp
L LED LEDR15
U 1 1 5A995E23
P 10000 4600
F 0 "LEDR15" H 10250 4550 60  0000 R CNN
F 1 "LED" H 10050 4650 60  0000 L CNN
F 2 "chordboard-footprints:LED_1.8mm" H 10000 4600 60  0001 C CNN
F 3 "" H 10000 4600 60  0001 C CNN
	1    10000 4600
	1    0    0    -1  
$EndComp
$Comp
L LED LEDR16
U 1 1 5A995E2A
P 10500 4600
F 0 "LEDR16" H 10750 4550 60  0000 R CNN
F 1 "LED" H 10550 4650 60  0000 L CNN
F 2 "chordboard-footprints:LED_1.8mm" H 10500 4600 60  0001 C CNN
F 3 "" H 10500 4600 60  0001 C CNN
	1    10500 4600
	1    0    0    -1  
$EndComp
$Comp
L LED LEDR17
U 1 1 5A995E31
P 7000 4800
F 0 "LEDR17" H 7250 4750 60  0000 R CNN
F 1 "LED" H 7050 4850 60  0000 L CNN
F 2 "chordboard-footprints:LED_1.8mm" H 7000 4800 60  0001 C CNN
F 3 "" H 7000 4800 60  0001 C CNN
	1    7000 4800
	1    0    0    -1  
$EndComp
$Comp
L LED LEDR18
U 1 1 5A995E38
P 7500 4800
F 0 "LEDR18" H 7750 4750 60  0000 R CNN
F 1 "LED" H 7550 4850 60  0000 L CNN
F 2 "chordboard-footprints:LED_1.8mm" H 7500 4800 60  0001 C CNN
F 3 "" H 7500 4800 60  0001 C CNN
	1    7500 4800
	1    0    0    -1  
$EndComp
$Comp
L LED LEDR19
U 1 1 5A995E3F
P 8000 4800
F 0 "LEDR19" H 8250 4750 60  0000 R CNN
F 1 "LED" H 8050 4850 60  0000 L CNN
F 2 "chordboard-footprints:LED_1.8mm" H 8000 4800 60  0001 C CNN
F 3 "" H 8000 4800 60  0001 C CNN
	1    8000 4800
	1    0    0    -1  
$EndComp
$Comp
L LED LEDR20
U 1 1 5A995E46
P 8500 4800
F 0 "LEDR20" H 8750 4750 60  0000 R CNN
F 1 "LED" H 8550 4850 60  0000 L CNN
F 2 "chordboard-footprints:LED_1.8mm" H 8500 4800 60  0001 C CNN
F 3 "" H 8500 4800 60  0001 C CNN
	1    8500 4800
	1    0    0    -1  
$EndComp
$Comp
L LED LEDR21
U 1 1 5A995E4D
P 9000 4800
F 0 "LEDR21" H 9250 4750 60  0000 R CNN
F 1 "LED" H 9050 4850 60  0000 L CNN
F 2 "chordboard-footprints:LED_1.8mm" H 9000 4800 60  0001 C CNN
F 3 "" H 9000 4800 60  0001 C CNN
	1    9000 4800
	1    0    0    -1  
$EndComp
$Comp
L LED LEDR22
U 1 1 5A995E54
P 9500 4800
F 0 "LEDR22" H 9750 4750 60  0000 R CNN
F 1 "LED" H 9550 4850 60  0000 L CNN
F 2 "chordboard-footprints:LED_1.8mm" H 9500 4800 60  0001 C CNN
F 3 "" H 9500 4800 60  0001 C CNN
	1    9500 4800
	1    0    0    -1  
$EndComp
$Comp
L LED LEDR23
U 1 1 5A995E5B
P 10000 4800
F 0 "LEDR23" H 10250 4750 60  0000 R CNN
F 1 "LED" H 10050 4850 60  0000 L CNN
F 2 "chordboard-footprints:LED_1.8mm" H 10000 4800 60  0001 C CNN
F 3 "" H 10000 4800 60  0001 C CNN
	1    10000 4800
	1    0    0    -1  
$EndComp
$Comp
L LED LEDR24
U 1 1 5A995E62
P 10500 4800
F 0 "LEDR24" H 10750 4750 60  0000 R CNN
F 1 "LED" H 10550 4850 60  0000 L CNN
F 2 "chordboard-footprints:LED_1.8mm" H 10500 4800 60  0001 C CNN
F 3 "" H 10500 4800 60  0001 C CNN
	1    10500 4800
	1    0    0    -1  
$EndComp
$Comp
L LED LEDR25
U 1 1 5A995E69
P 7000 5000
F 0 "LEDR25" H 7250 4950 60  0000 R CNN
F 1 "LED" H 7050 5050 60  0000 L CNN
F 2 "chordboard-footprints:LED_1.8mm" H 7000 5000 60  0001 C CNN
F 3 "" H 7000 5000 60  0001 C CNN
	1    7000 5000
	1    0    0    -1  
$EndComp
$Comp
L LED LEDR26
U 1 1 5A995E70
P 7500 5000
F 0 "LEDR26" H 7750 4950 60  0000 R CNN
F 1 "LED" H 7550 5050 60  0000 L CNN
F 2 "chordboard-footprints:LED_1.8mm" H 7500 5000 60  0001 C CNN
F 3 "" H 7500 5000 60  0001 C CNN
	1    7500 5000
	1    0    0    -1  
$EndComp
$Comp
L LED LEDR27
U 1 1 5A995E77
P 8000 5000
F 0 "LEDR27" H 8250 4950 60  0000 R CNN
F 1 "LED" H 8050 5050 60  0000 L CNN
F 2 "chordboard-footprints:LED_1.8mm" H 8000 5000 60  0001 C CNN
F 3 "" H 8000 5000 60  0001 C CNN
	1    8000 5000
	1    0    0    -1  
$EndComp
$Comp
L LED LEDR28
U 1 1 5A995E7E
P 8500 5000
F 0 "LEDR28" H 8750 4950 60  0000 R CNN
F 1 "LED" H 8550 5050 60  0000 L CNN
F 2 "chordboard-footprints:LED_1.8mm" H 8500 5000 60  0001 C CNN
F 3 "" H 8500 5000 60  0001 C CNN
	1    8500 5000
	1    0    0    -1  
$EndComp
$Comp
L LED LEDR29
U 1 1 5A995E85
P 9000 5000
F 0 "LEDR29" H 9250 4950 60  0000 R CNN
F 1 "LED" H 9050 5050 60  0000 L CNN
F 2 "chordboard-footprints:LED_1.8mm" H 9000 5000 60  0001 C CNN
F 3 "" H 9000 5000 60  0001 C CNN
	1    9000 5000
	1    0    0    -1  
$EndComp
$Comp
L LED LEDR30
U 1 1 5A995E8C
P 9500 5000
F 0 "LEDR30" H 9750 4950 60  0000 R CNN
F 1 "LED" H 9550 5050 60  0000 L CNN
F 2 "chordboard-footprints:LED_1.8mm" H 9500 5000 60  0001 C CNN
F 3 "" H 9500 5000 60  0001 C CNN
	1    9500 5000
	1    0    0    -1  
$EndComp
$Comp
L LED LEDR31
U 1 1 5A995E93
P 10000 5000
F 0 "LEDR31" H 10250 4950 60  0000 R CNN
F 1 "LED" H 10050 5050 60  0000 L CNN
F 2 "chordboard-footprints:LED_1.8mm" H 10000 5000 60  0001 C CNN
F 3 "" H 10000 5000 60  0001 C CNN
	1    10000 5000
	1    0    0    -1  
$EndComp
$Comp
L LED LEDR32
U 1 1 5A995E9A
P 10500 5000
F 0 "LEDR32" H 10750 4950 60  0000 R CNN
F 1 "LED" H 10550 5050 60  0000 L CNN
F 2 "chordboard-footprints:LED_1.8mm" H 10500 5000 60  0001 C CNN
F 3 "" H 10500 5000 60  0001 C CNN
	1    10500 5000
	1    0    0    -1  
$EndComp
$Comp
L LED LEDG1
U 1 1 5A995EA1
P 7000 5200
F 0 "LEDG1" H 7250 5150 60  0000 R CNN
F 1 "LED" H 7050 5250 60  0000 L CNN
F 2 "chordboard-footprints:LED_1.8mm" H 7000 5200 60  0001 C CNN
F 3 "" H 7000 5200 60  0001 C CNN
	1    7000 5200
	1    0    0    -1  
$EndComp
$Comp
L LED LEDG2
U 1 1 5A995EA8
P 7500 5200
F 0 "LEDG2" H 7750 5150 60  0000 R CNN
F 1 "LED" H 7550 5250 60  0000 L CNN
F 2 "chordboard-footprints:LED_1.8mm" H 7500 5200 60  0001 C CNN
F 3 "" H 7500 5200 60  0001 C CNN
	1    7500 5200
	1    0    0    -1  
$EndComp
$Comp
L LED LEDG3
U 1 1 5A995EAF
P 8000 5200
F 0 "LEDG3" H 8250 5150 60  0000 R CNN
F 1 "LED" H 8050 5250 60  0000 L CNN
F 2 "chordboard-footprints:LED_1.8mm" H 8000 5200 60  0001 C CNN
F 3 "" H 8000 5200 60  0001 C CNN
	1    8000 5200
	1    0    0    -1  
$EndComp
$Comp
L LED LEDG4
U 1 1 5A995EB6
P 8500 5200
F 0 "LEDG4" H 8750 5150 60  0000 R CNN
F 1 "LED" H 8550 5250 60  0000 L CNN
F 2 "chordboard-footprints:LED_1.8mm" H 8500 5200 60  0001 C CNN
F 3 "" H 8500 5200 60  0001 C CNN
	1    8500 5200
	1    0    0    -1  
$EndComp
$Comp
L LED LEDG5
U 1 1 5A995EBD
P 9000 5200
F 0 "LEDG5" H 9250 5150 60  0000 R CNN
F 1 "LED" H 9050 5250 60  0000 L CNN
F 2 "chordboard-footprints:LED_1.8mm" H 9000 5200 60  0001 C CNN
F 3 "" H 9000 5200 60  0001 C CNN
	1    9000 5200
	1    0    0    -1  
$EndComp
$Comp
L LED LEDG6
U 1 1 5A995EC4
P 9500 5200
F 0 "LEDG6" H 9750 5150 60  0000 R CNN
F 1 "LED" H 9550 5250 60  0000 L CNN
F 2 "chordboard-footprints:LED_1.8mm" H 9500 5200 60  0001 C CNN
F 3 "" H 9500 5200 60  0001 C CNN
	1    9500 5200
	1    0    0    -1  
$EndComp
$Comp
L LED LEDG7
U 1 1 5A995ECB
P 10000 5200
F 0 "LEDG7" H 10250 5150 60  0000 R CNN
F 1 "LED" H 10050 5250 60  0000 L CNN
F 2 "chordboard-footprints:LED_1.8mm" H 10000 5200 60  0001 C CNN
F 3 "" H 10000 5200 60  0001 C CNN
	1    10000 5200
	1    0    0    -1  
$EndComp
$Comp
L LED LEDG8
U 1 1 5A995ED2
P 10500 5200
F 0 "LEDG8" H 10750 5150 60  0000 R CNN
F 1 "LED" H 10550 5250 60  0000 L CNN
F 2 "chordboard-footprints:LED_1.8mm" H 10500 5200 60  0001 C CNN
F 3 "" H 10500 5200 60  0001 C CNN
	1    10500 5200
	1    0    0    -1  
$EndComp
$Comp
L LED LEDG9
U 1 1 5A995ED9
P 7000 5400
F 0 "LEDG9" H 7250 5350 60  0000 R CNN
F 1 "LED" H 7050 5450 60  0000 L CNN
F 2 "chordboard-footprints:LED_1.8mm" H 7000 5400 60  0001 C CNN
F 3 "" H 7000 5400 60  0001 C CNN
	1    7000 5400
	1    0    0    -1  
$EndComp
$Comp
L LED LEDG10
U 1 1 5A995EE0
P 7500 5400
F 0 "LEDG10" H 7750 5350 60  0000 R CNN
F 1 "LED" H 7550 5450 60  0000 L CNN
F 2 "chordboard-footprints:LED_1.8mm" H 7500 5400 60  0001 C CNN
F 3 "" H 7500 5400 60  0001 C CNN
	1    7500 5400
	1    0    0    -1  
$EndComp
$Comp
L LED LEDG11
U 1 1 5A995EE7
P 8000 5400
F 0 "LEDG11" H 8250 5350 60  0000 R CNN
F 1 "LED" H 8050 5450 60  0000 L CNN
F 2 "chordboard-footprints:LED_1.8mm" H 8000 5400 60  0001 C CNN
F 3 "" H 8000 5400 60  0001 C CNN
	1    8000 5400
	1    0    0    -1  
$EndComp
$Comp
L LED LEDG12
U 1 1 5A995EEE
P 8500 5400
F 0 "LEDG12" H 8750 5350 60  0000 R CNN
F 1 "LED" H 8550 5450 60  0000 L CNN
F 2 "chordboard-footprints:LED_1.8mm" H 8500 5400 60  0001 C CNN
F 3 "" H 8500 5400 60  0001 C CNN
	1    8500 5400
	1    0    0    -1  
$EndComp
$Comp
L LED LEDG13
U 1 1 5A995EF5
P 9000 5400
F 0 "LEDG13" H 9250 5350 60  0000 R CNN
F 1 "LED" H 9050 5450 60  0000 L CNN
F 2 "chordboard-footprints:LED_1.8mm" H 9000 5400 60  0001 C CNN
F 3 "" H 9000 5400 60  0001 C CNN
	1    9000 5400
	1    0    0    -1  
$EndComp
$Comp
L LED LEDG14
U 1 1 5A995EFC
P 9500 5400
F 0 "LEDG14" H 9750 5350 60  0000 R CNN
F 1 "LED" H 9550 5450 60  0000 L CNN
F 2 "chordboard-footprints:LED_1.8mm" H 9500 5400 60  0001 C CNN
F 3 "" H 9500 5400 60  0001 C CNN
	1    9500 5400
	1    0    0    -1  
$EndComp
$Comp
L LED LEDG15
U 1 1 5A995F03
P 10000 5400
F 0 "LEDG15" H 10250 5350 60  0000 R CNN
F 1 "LED" H 10050 5450 60  0000 L CNN
F 2 "chordboard-footprints:LED_1.8mm" H 10000 5400 60  0001 C CNN
F 3 "" H 10000 5400 60  0001 C CNN
	1    10000 5400
	1    0    0    -1  
$EndComp
$Comp
L LED LEDG16
U 1 1 5A995F0A
P 10500 5400
F 0 "LEDG16" H 10750 5350 60  0000 R CNN
F 1 "LED" H 10550 5450 60  0000 L CNN
F 2 "chordboard-footprints:LED_1.8mm" H 10500 5400 60  0001 C CNN
F 3 "" H 10500 5400 60  0001 C CNN
	1    10500 5400
	1    0    0    -1  
$EndComp
$Comp
L LED LEDO1
U 1 1 5A995F11
P 7000 5600
F 0 "LEDO1" H 7250 5550 60  0000 R CNN
F 1 "LED" H 7050 5650 60  0000 L CNN
F 2 "chordboard-footprints:LED_1.8mm" H 7000 5600 60  0001 C CNN
F 3 "" H 7000 5600 60  0001 C CNN
	1    7000 5600
	1    0    0    -1  
$EndComp
$Comp
L LED LEDO2
U 1 1 5A995F18
P 7500 5600
F 0 "LEDO2" H 7750 5550 60  0000 R CNN
F 1 "LED" H 7550 5650 60  0000 L CNN
F 2 "chordboard-footprints:LED_1.8mm" H 7500 5600 60  0001 C CNN
F 3 "" H 7500 5600 60  0001 C CNN
	1    7500 5600
	1    0    0    -1  
$EndComp
$Comp
L LED LEDO3
U 1 1 5A995F1F
P 8000 5600
F 0 "LEDO3" H 8250 5550 60  0000 R CNN
F 1 "LED" H 8050 5650 60  0000 L CNN
F 2 "chordboard-footprints:LED_1.8mm" H 8000 5600 60  0001 C CNN
F 3 "" H 8000 5600 60  0001 C CNN
	1    8000 5600
	1    0    0    -1  
$EndComp
$Comp
L LED LEDO4
U 1 1 5A995F26
P 8500 5600
F 0 "LEDO4" H 8750 5550 60  0000 R CNN
F 1 "LED" H 8550 5650 60  0000 L CNN
F 2 "chordboard-footprints:LED_1.8mm" H 8500 5600 60  0001 C CNN
F 3 "" H 8500 5600 60  0001 C CNN
	1    8500 5600
	1    0    0    -1  
$EndComp
$Comp
L LED LEDO5
U 1 1 5A995F2D
P 9000 5600
F 0 "LEDO5" H 9250 5550 60  0000 R CNN
F 1 "LED" H 9050 5650 60  0000 L CNN
F 2 "chordboard-footprints:LED_1.8mm" H 9000 5600 60  0001 C CNN
F 3 "" H 9000 5600 60  0001 C CNN
	1    9000 5600
	1    0    0    -1  
$EndComp
$Comp
L LED LEDO6
U 1 1 5A995F34
P 9500 5600
F 0 "LEDO6" H 9750 5550 60  0000 R CNN
F 1 "LED" H 9550 5650 60  0000 L CNN
F 2 "chordboard-footprints:LED_1.8mm" H 9500 5600 60  0001 C CNN
F 3 "" H 9500 5600 60  0001 C CNN
	1    9500 5600
	1    0    0    -1  
$EndComp
$Comp
L LED LEDO7
U 1 1 5A995F3B
P 10000 5600
F 0 "LEDO7" H 10250 5550 60  0000 R CNN
F 1 "LED" H 10050 5650 60  0000 L CNN
F 2 "chordboard-footprints:LED_1.8mm" H 10000 5600 60  0001 C CNN
F 3 "" H 10000 5600 60  0001 C CNN
	1    10000 5600
	1    0    0    -1  
$EndComp
$Comp
L LED LEDO8
U 1 1 5A995F42
P 10500 5600
F 0 "LEDO8" H 10750 5550 60  0000 R CNN
F 1 "LED" H 10550 5650 60  0000 L CNN
F 2 "chordboard-footprints:LED_1.8mm" H 10500 5600 60  0001 C CNN
F 3 "" H 10500 5600 60  0001 C CNN
	1    10500 5600
	1    0    0    -1  
$EndComp
$Comp
L LED LEDO9
U 1 1 5A995F49
P 7000 5800
F 0 "LEDO9" H 7250 5750 60  0000 R CNN
F 1 "LED" H 7050 5850 60  0000 L CNN
F 2 "chordboard-footprints:LED_1.8mm" H 7000 5800 60  0001 C CNN
F 3 "" H 7000 5800 60  0001 C CNN
	1    7000 5800
	1    0    0    -1  
$EndComp
$Comp
L LED LEDO10
U 1 1 5A995F50
P 7500 5800
F 0 "LEDO10" H 7750 5750 60  0000 R CNN
F 1 "LED" H 7550 5850 60  0000 L CNN
F 2 "chordboard-footprints:LED_1.8mm" H 7500 5800 60  0001 C CNN
F 3 "" H 7500 5800 60  0001 C CNN
	1    7500 5800
	1    0    0    -1  
$EndComp
$Comp
L LED LEDO11
U 1 1 5A995F57
P 8000 5800
F 0 "LEDO11" H 8250 5750 60  0000 R CNN
F 1 "LED" H 8050 5850 60  0000 L CNN
F 2 "chordboard-footprints:LED_1.8mm" H 8000 5800 60  0001 C CNN
F 3 "" H 8000 5800 60  0001 C CNN
	1    8000 5800
	1    0    0    -1  
$EndComp
$Comp
L LED LEDO12
U 1 1 5A995F5E
P 8500 5800
F 0 "LEDO12" H 8750 5750 60  0000 R CNN
F 1 "LED" H 8550 5850 60  0000 L CNN
F 2 "chordboard-footprints:LED_1.8mm" H 8500 5800 60  0001 C CNN
F 3 "" H 8500 5800 60  0001 C CNN
	1    8500 5800
	1    0    0    -1  
$EndComp
$Comp
L LED LEDY1
U 1 1 5A995F65
P 9000 5800
F 0 "LEDY1" H 9250 5750 60  0000 R CNN
F 1 "LED" H 9050 5850 60  0000 L CNN
F 2 "chordboard-footprints:LED_1.8mm" H 9000 5800 60  0001 C CNN
F 3 "" H 9000 5800 60  0001 C CNN
	1    9000 5800
	1    0    0    -1  
$EndComp
$Comp
L LED LEDY2
U 1 1 5A995F6C
P 9500 5800
F 0 "LEDY2" H 9750 5750 60  0000 R CNN
F 1 "LED" H 9550 5850 60  0000 L CNN
F 2 "chordboard-footprints:LED_1.8mm" H 9500 5800 60  0001 C CNN
F 3 "" H 9500 5800 60  0001 C CNN
	1    9500 5800
	1    0    0    -1  
$EndComp
$Comp
L LED LEDY3
U 1 1 5A995F73
P 10000 5800
F 0 "LEDY3" H 10250 5750 60  0000 R CNN
F 1 "LED" H 10050 5850 60  0000 L CNN
F 2 "chordboard-footprints:LED_1.8mm" H 10000 5800 60  0001 C CNN
F 3 "" H 10000 5800 60  0001 C CNN
	1    10000 5800
	1    0    0    -1  
$EndComp
$Comp
L LED LEDY4
U 1 1 5A995F7A
P 10500 5800
F 0 "LEDY4" H 10750 5750 60  0000 R CNN
F 1 "LED" H 10550 5850 60  0000 L CNN
F 2 "chordboard-footprints:LED_1.8mm" H 10500 5800 60  0001 C CNN
F 3 "" H 10500 5800 60  0001 C CNN
	1    10500 5800
	1    0    0    -1  
$EndComp
Text Label 7250 4200 1    60   ~ 0
Y0
Text Label 7750 4200 1    60   ~ 0
Y1
Text Label 8250 4200 1    60   ~ 0
Y2
Text Label 8750 4200 1    60   ~ 0
Y3
Text Label 9250 4200 1    60   ~ 0
Y4
Text Label 9750 4200 1    60   ~ 0
Y5
Text Label 10250 4200 1    60   ~ 0
Y6
Text Label 10750 4200 1    60   ~ 0
Y7
Connection ~ 10750 4600
Connection ~ 10250 4600
Connection ~ 9750 4600
Connection ~ 9250 4600
Connection ~ 8750 4600
Connection ~ 8250 4600
Connection ~ 7750 4600
Connection ~ 7250 4600
Connection ~ 10750 4400
Connection ~ 10250 4400
Connection ~ 9750 4400
Connection ~ 9250 4400
Connection ~ 8750 4400
Connection ~ 8250 4400
Connection ~ 7750 4400
Connection ~ 7250 4400
Connection ~ 9850 4700
Connection ~ 9350 4700
Wire Wire Line
	10750 4600 10650 4600
Wire Wire Line
	10350 4700 10350 4600
Wire Wire Line
	10250 4600 10150 4600
Wire Wire Line
	9850 4700 9850 4600
Wire Wire Line
	9750 4600 9650 4600
Wire Wire Line
	9350 4700 9350 4600
Connection ~ 8850 4700
Connection ~ 8350 4700
Wire Wire Line
	8850 4700 8850 4600
Wire Wire Line
	9250 4600 9150 4600
Wire Wire Line
	8750 4600 8650 4600
Connection ~ 7850 4700
Wire Wire Line
	8350 4700 8350 4600
Wire Wire Line
	8250 4600 8150 4600
Connection ~ 7350 4700
Wire Wire Line
	7850 4700 7850 4600
Wire Wire Line
	7750 4600 7650 4600
Connection ~ 6850 4700
Wire Wire Line
	7350 4700 7350 4600
Wire Wire Line
	7250 4600 7150 4600
Wire Wire Line
	6850 4700 6850 4600
Wire Wire Line
	6750 4700 10350 4700
Connection ~ 9850 4500
Connection ~ 9350 4500
Wire Wire Line
	10750 4200 10750 5800
Wire Wire Line
	10650 4400 10750 4400
Wire Wire Line
	10350 4500 10350 4400
Wire Wire Line
	10250 4200 10250 5800
Wire Wire Line
	10150 4400 10250 4400
Wire Wire Line
	9850 4500 9850 4400
Wire Wire Line
	9750 4200 9750 5800
Wire Wire Line
	9650 4400 9750 4400
Wire Wire Line
	9350 4500 9350 4400
Connection ~ 8850 4500
Connection ~ 8350 4500
Wire Wire Line
	8850 4500 8850 4400
Wire Wire Line
	9250 4200 9250 5800
Wire Wire Line
	9150 4400 9250 4400
Wire Wire Line
	8750 4200 8750 5800
Wire Wire Line
	8650 4400 8750 4400
Connection ~ 7850 4500
Wire Wire Line
	8350 4500 8350 4400
Wire Wire Line
	8250 4200 8250 5800
Wire Wire Line
	8150 4400 8250 4400
Connection ~ 7350 4500
Wire Wire Line
	7850 4500 7850 4400
Wire Wire Line
	7750 4200 7750 5800
Wire Wire Line
	7650 4400 7750 4400
Connection ~ 6850 4500
Wire Wire Line
	7350 4500 7350 4400
Wire Wire Line
	7250 4200 7250 5800
Wire Wire Line
	7150 4400 7250 4400
Wire Wire Line
	6850 4500 6850 4400
Wire Wire Line
	6750 4500 10350 4500
Connection ~ 10750 5000
Connection ~ 10250 5000
Connection ~ 9750 5000
Connection ~ 9250 5000
Connection ~ 8750 5000
Connection ~ 8250 5000
Connection ~ 7750 5000
Connection ~ 7250 5000
Connection ~ 10750 4800
Connection ~ 10250 4800
Connection ~ 9750 4800
Connection ~ 9250 4800
Connection ~ 8750 4800
Connection ~ 8250 4800
Connection ~ 7750 4800
Connection ~ 7250 4800
Connection ~ 9850 5100
Connection ~ 9350 5100
Wire Wire Line
	10750 5000 10650 5000
Wire Wire Line
	10350 5100 10350 5000
Wire Wire Line
	10250 5000 10150 5000
Wire Wire Line
	9850 5100 9850 5000
Wire Wire Line
	9750 5000 9650 5000
Wire Wire Line
	9350 5100 9350 5000
Connection ~ 8850 5100
Connection ~ 8350 5100
Wire Wire Line
	8850 5100 8850 5000
Wire Wire Line
	9250 5000 9150 5000
Wire Wire Line
	8750 5000 8650 5000
Connection ~ 7850 5100
Wire Wire Line
	8350 5100 8350 5000
Wire Wire Line
	8250 5000 8150 5000
Connection ~ 7350 5100
Wire Wire Line
	7850 5100 7850 5000
Wire Wire Line
	7750 5000 7650 5000
Connection ~ 6850 5100
Wire Wire Line
	7350 5100 7350 5000
Wire Wire Line
	7250 5000 7150 5000
Wire Wire Line
	6850 5100 6850 5000
Wire Wire Line
	6750 5100 10350 5100
Connection ~ 9850 4900
Connection ~ 9350 4900
Wire Wire Line
	10750 4800 10650 4800
Wire Wire Line
	10350 4900 10350 4800
Wire Wire Line
	10250 4800 10150 4800
Wire Wire Line
	9850 4900 9850 4800
Wire Wire Line
	9750 4800 9650 4800
Wire Wire Line
	9350 4900 9350 4800
Connection ~ 8850 4900
Connection ~ 8350 4900
Wire Wire Line
	8850 4900 8850 4800
Wire Wire Line
	9250 4800 9150 4800
Wire Wire Line
	8750 4800 8650 4800
Connection ~ 7850 4900
Wire Wire Line
	8350 4900 8350 4800
Wire Wire Line
	8250 4800 8150 4800
Connection ~ 7350 4900
Wire Wire Line
	7850 4900 7850 4800
Wire Wire Line
	7750 4800 7650 4800
Connection ~ 6850 4900
Wire Wire Line
	7350 4900 7350 4800
Wire Wire Line
	7250 4800 7150 4800
Wire Wire Line
	6850 4900 6850 4800
Wire Wire Line
	6750 4900 10350 4900
Connection ~ 7250 5200
Wire Wire Line
	7250 5200 7150 5200
Wire Wire Line
	6850 5300 6850 5200
Connection ~ 7750 5200
Wire Wire Line
	7750 5200 7650 5200
Wire Wire Line
	7350 5300 7350 5200
Connection ~ 8250 5200
Wire Wire Line
	8250 5200 8150 5200
Wire Wire Line
	7850 5300 7850 5200
Connection ~ 8750 5200
Wire Wire Line
	8750 5200 8650 5200
Wire Wire Line
	8350 5300 8350 5200
Connection ~ 9250 5200
Wire Wire Line
	9250 5200 9150 5200
Wire Wire Line
	8850 5300 8850 5200
Connection ~ 9750 5200
Wire Wire Line
	9750 5200 9650 5200
Wire Wire Line
	9350 5300 9350 5200
Connection ~ 10250 5200
Wire Wire Line
	10250 5200 10150 5200
Wire Wire Line
	9850 5300 9850 5200
Connection ~ 10750 5200
Wire Wire Line
	10750 5200 10650 5200
Wire Wire Line
	10350 5300 10350 5200
Wire Wire Line
	6750 5300 10350 5300
Connection ~ 6850 5300
Connection ~ 7350 5300
Connection ~ 7850 5300
Connection ~ 8350 5300
Connection ~ 8850 5300
Connection ~ 9350 5300
Connection ~ 9850 5300
Wire Wire Line
	10750 4400 10750 5400
Wire Wire Line
	10250 4400 10250 5400
Wire Wire Line
	9750 4400 9750 5400
Wire Wire Line
	9250 4400 9250 5400
Wire Wire Line
	8750 4400 8750 5400
Wire Wire Line
	8250 4400 8250 5400
Wire Wire Line
	7750 4400 7750 5400
Wire Wire Line
	7250 4400 7250 5400
Connection ~ 7250 5400
Wire Wire Line
	7250 5400 7150 5400
Wire Wire Line
	6850 5500 6850 5400
Connection ~ 7750 5400
Wire Wire Line
	7750 5400 7650 5400
Wire Wire Line
	7350 5500 7350 5400
Connection ~ 8250 5400
Wire Wire Line
	8250 5400 8150 5400
Wire Wire Line
	7850 5500 7850 5400
Connection ~ 8750 5400
Wire Wire Line
	8750 5400 8650 5400
Wire Wire Line
	8350 5500 8350 5400
Connection ~ 9250 5400
Wire Wire Line
	9250 5400 9150 5400
Wire Wire Line
	8850 5500 8850 5400
Connection ~ 9750 5400
Wire Wire Line
	9750 5400 9650 5400
Wire Wire Line
	9350 5500 9350 5400
Connection ~ 10250 5400
Wire Wire Line
	10250 5400 10150 5400
Wire Wire Line
	9850 5500 9850 5400
Connection ~ 10750 5400
Wire Wire Line
	10750 5400 10650 5400
Wire Wire Line
	10350 5500 10350 5400
Wire Wire Line
	6750 5500 10350 5500
Connection ~ 6850 5500
Connection ~ 7350 5500
Connection ~ 7850 5500
Connection ~ 8350 5500
Connection ~ 8850 5500
Connection ~ 9350 5500
Connection ~ 9850 5500
Wire Wire Line
	10750 4600 10750 5000
Wire Wire Line
	10250 4600 10250 5000
Wire Wire Line
	9750 4600 9750 5000
Wire Wire Line
	9250 4600 9250 5000
Wire Wire Line
	8750 4600 8750 5000
Wire Wire Line
	8250 4600 8250 5000
Wire Wire Line
	7750 4600 7750 5000
Wire Wire Line
	7250 4600 7250 5000
Connection ~ 7250 5600
Wire Wire Line
	7250 5600 7150 5600
Wire Wire Line
	6850 5700 6850 5600
Connection ~ 7750 5600
Wire Wire Line
	7750 5600 7650 5600
Wire Wire Line
	7350 5700 7350 5600
Connection ~ 8250 5600
Wire Wire Line
	8250 5600 8150 5600
Wire Wire Line
	7850 5700 7850 5600
Connection ~ 8750 5600
Wire Wire Line
	8750 5600 8650 5600
Wire Wire Line
	8350 5700 8350 5600
Connection ~ 9250 5600
Wire Wire Line
	9250 5600 9150 5600
Wire Wire Line
	8850 5700 8850 5600
Connection ~ 9750 5600
Wire Wire Line
	9750 5600 9650 5600
Wire Wire Line
	9350 5700 9350 5600
Connection ~ 10250 5600
Wire Wire Line
	10250 5600 10150 5600
Wire Wire Line
	9850 5700 9850 5600
Connection ~ 10750 5600
Wire Wire Line
	10750 5600 10650 5600
Wire Wire Line
	10350 5700 10350 5600
Wire Wire Line
	6750 5700 10350 5700
Connection ~ 6850 5700
Connection ~ 7350 5700
Connection ~ 7850 5700
Connection ~ 8350 5700
Connection ~ 8850 5700
Connection ~ 9350 5700
Connection ~ 9850 5700
Connection ~ 7250 5800
Wire Wire Line
	7250 5800 7150 5800
Wire Wire Line
	6850 5900 6850 5800
Connection ~ 7750 5800
Wire Wire Line
	7750 5800 7650 5800
Wire Wire Line
	7350 5900 7350 5800
Connection ~ 8250 5800
Wire Wire Line
	8250 5800 8150 5800
Wire Wire Line
	7850 5900 7850 5800
Connection ~ 8750 5800
Wire Wire Line
	8750 5800 8650 5800
Wire Wire Line
	8350 5900 8350 5800
Connection ~ 9250 5800
Wire Wire Line
	9250 5800 9150 5800
Wire Wire Line
	8850 5900 8850 5800
Connection ~ 9750 5800
Wire Wire Line
	9750 5800 9650 5800
Wire Wire Line
	9350 5900 9350 5800
Connection ~ 10250 5800
Wire Wire Line
	10250 5800 10150 5800
Wire Wire Line
	9850 5900 9850 5800
Connection ~ 10750 5800
Wire Wire Line
	10750 5800 10650 5800
Wire Wire Line
	10350 5900 10350 5800
Wire Wire Line
	6750 5900 10350 5900
Connection ~ 6850 5900
Connection ~ 7350 5900
Connection ~ 7850 5900
Connection ~ 8350 5900
Connection ~ 8850 5900
Connection ~ 9350 5900
Connection ~ 9850 5900
Wire Wire Line
	18450 12150 18450 12250
Text Label 19400 12550 2    60   ~ 0
DAC0
Text Label 19400 12650 2    60   ~ 0
DAC1
Text Label 19400 9050 2    60   ~ 0
U1_RX
Text Label 19400 9150 2    60   ~ 0
U1_TX
Text Label 27450 3700 3    60   ~ 0
U1_TX
Text Label 27550 3700 3    60   ~ 0
U1_RX
Wire Wire Line
	27650 3750 27650 3700
$Comp
L +3.3V #PWR036
U 1 1 5A94924A
P 27650 3750
F 0 "#PWR036" H 27650 3600 50  0001 C CNN
F 1 "+3.3V" H 27650 3890 50  0000 C CNN
F 2 "" H 27650 3750 50  0001 C CNN
F 3 "" H 27650 3750 50  0001 C CNN
	1    27650 3750
	-1   0    0    1   
$EndComp
Wire Wire Line
	27750 3050 27750 3100
Wire Wire Line
	27650 2950 27650 3100
$Comp
L +3.3VA #PWR037
U 1 1 5A9482F1
P 27650 2950
F 0 "#PWR037" H 27650 2800 50  0001 C CNN
F 1 "+3.3VA" H 27650 3090 50  0000 C CNN
F 2 "" H 27650 2950 50  0001 C CNN
F 3 "" H 27650 2950 50  0001 C CNN
	1    27650 2950
	1    0    0    -1  
$EndComp
$Comp
L SW_DIP_x04 SW4
U 1 1 5A947C29
P 27550 3400
F 0 "SW4" H 27550 3750 50  0000 C CNN
F 1 "SW_DIP_x04" H 27550 3150 50  0000 C CNN
F 2 "Buttons_Switches_THT:SW_DIP_x4_W7.62mm_Slide" H 27550 3400 50  0001 C CNN
F 3 "" H 27550 3400 50  0000 C CNN
	1    27550 3400
	0    1    1    0   
$EndComp
Wire Wire Line
	22200 5000 22200 5050
Wire Wire Line
	22200 3100 22200 3200
Wire Wire Line
	20400 4700 20500 4700
Wire Wire Line
	20500 4700 20500 5000
Wire Wire Line
	20500 4550 20400 4550
Wire Wire Line
	20500 3800 20500 4550
Wire Wire Line
	20500 4400 20400 4400
Wire Wire Line
	20500 4250 20400 4250
Connection ~ 20500 4400
Wire Wire Line
	20500 4100 20400 4100
Connection ~ 20500 4250
Connection ~ 20500 4100
Wire Wire Line
	20050 4100 20200 4100
Wire Wire Line
	20050 4250 20200 4250
Wire Wire Line
	20050 4400 20200 4400
Wire Wire Line
	20050 4550 20200 4550
Wire Wire Line
	20050 4700 20200 4700
Wire Wire Line
	19200 4450 19350 4450
Wire Wire Line
	19350 4450 19350 4950
Wire Wire Line
	19350 4700 19200 4700
Connection ~ 19350 4700
Wire Wire Line
	18900 4450 18800 4450
Wire Wire Line
	18900 4700 18800 4700
Wire Wire Line
	24250 4200 24150 4200
Wire Wire Line
	24150 4200 24150 4550
Wire Wire Line
	22200 3150 22950 3150
Connection ~ 22200 3150
Wire Wire Line
	22950 3150 22950 3200
Wire Wire Line
	22950 3450 22950 3400
Wire Wire Line
	28750 4000 28650 4000
Wire Wire Line
	28750 3700 28750 4100
Wire Wire Line
	27850 4000 27750 4000
Wire Wire Line
	27750 3700 27750 4100
Wire Wire Line
	28250 4300 28250 4550
Wire Wire Line
	27750 4400 28750 4400
Wire Wire Line
	27750 4400 27750 4300
Wire Wire Line
	28750 4400 28750 4300
Connection ~ 28250 4400
Connection ~ 27750 4000
Connection ~ 28750 4000
$Comp
L +3.3VA #PWR038
U 1 1 5A930C4A
P 20500 3800
F 0 "#PWR038" H 20500 3650 50  0001 C CNN
F 1 "+3.3VA" H 20500 3940 50  0000 C CNN
F 2 "" H 20500 3800 50  0001 C CNN
F 3 "" H 20500 3800 50  0001 C CNN
	1    20500 3800
	1    0    0    -1  
$EndComp
$Comp
L +3.3VA #PWR039
U 1 1 5A9309E8
P 22200 3100
F 0 "#PWR039" H 22200 2950 50  0001 C CNN
F 1 "+3.3VA" H 22200 3240 50  0000 C CNN
F 2 "" H 22200 3100 50  0001 C CNN
F 3 "" H 22200 3100 50  0001 C CNN
	1    22200 3100
	1    0    0    -1  
$EndComp
$Comp
L +3.3VA #PWR040
U 1 1 5A930686
P 28750 3700
F 0 "#PWR040" H 28750 3550 50  0001 C CNN
F 1 "+3.3VA" H 28750 3840 50  0000 C CNN
F 2 "" H 28750 3700 50  0001 C CNN
F 3 "" H 28750 3700 50  0001 C CNN
	1    28750 3700
	1    0    0    -1  
$EndComp
$Comp
L GND #PWR041
U 1 1 5A930010
P 28250 4550
F 0 "#PWR041" H 28250 4300 50  0001 C CNN
F 1 "GND" H 28250 4400 50  0000 C CNN
F 2 "" H 28250 4550 50  0001 C CNN
F 3 "" H 28250 4550 50  0001 C CNN
	1    28250 4550
	-1   0    0    -1  
$EndComp
$Comp
L +5V #PWR042
U 1 1 5A928AFF
P 27750 3050
F 0 "#PWR042" H 27750 2900 50  0001 C CNN
F 1 "+5V" H 27750 3190 50  0000 C CNN
F 2 "" H 27750 3050 50  0001 C CNN
F 3 "" H 27750 3050 50  0001 C CNN
	1    27750 3050
	1    0    0    -1  
$EndComp
$Comp
L C C14
U 1 1 5A921AE7
P 27750 4200
F 0 "C14" H 27760 4270 50  0000 L CNN
F 1 "0.1uF" H 27760 4120 50  0000 L CNN
F 2 "chordboard-footprints:C_0805_HandSoldering" H 27750 4200 50  0001 C CNN
F 3 "" H 27750 4200 50  0001 C CNN
	1    27750 4200
	1    0    0    -1  
$EndComp
$Comp
L C C16
U 1 1 5A921963
P 28750 4200
F 0 "C16" H 28760 4270 50  0000 L CNN
F 1 "10uF" H 28760 4120 50  0000 L CNN
F 2 "Capacitors_SMD:C_1206_HandSoldering" H 28750 4200 50  0001 C CNN
F 3 "" H 28750 4200 50  0001 C CNN
	1    28750 4200
	1    0    0    -1  
$EndComp
$Comp
L LD1117S33TR U9
U 1 1 5A920F67
P 28250 4050
F 0 "U9" H 28250 4300 50  0000 C CNN
F 1 "LD1117S33TR" H 28250 4250 50  0000 C CNN
F 2 "TO_SOT_Packages_SMD:SOT-223" H 28250 4150 50  0001 C CNN
F 3 "" H 28250 4050 50  0001 C CNN
	1    28250 4050
	1    0    0    -1  
$EndComp
$Comp
L GND #PWR043
U 1 1 5A855381
P 22950 3450
F 0 "#PWR043" H 22950 3200 50  0001 C CNN
F 1 "GND" H 22950 3300 50  0000 C CNN
F 2 "" H 22950 3450 50  0001 C CNN
F 3 "" H 22950 3450 50  0001 C CNN
	1    22950 3450
	1    0    0    -1  
$EndComp
$Comp
L C C15
U 1 1 5A85490B
P 22950 3300
F 0 "C15" H 22960 3370 50  0000 L CNN
F 1 "10uF" H 22960 3220 50  0000 L CNN
F 2 "Capacitors_SMD:C_1206_HandSoldering" H 22950 3300 50  0001 C CNN
F 3 "" H 22950 3300 50  0001 C CNN
	1    22950 3300
	1    0    0    -1  
$EndComp
$Comp
L GND #PWR044
U 1 1 5A8464C8
P 24150 4550
F 0 "#PWR044" H 24150 4300 50  0001 C CNN
F 1 "GND" H 24150 4400 50  0000 C CNN
F 2 "" H 24150 4550 50  0001 C CNN
F 3 "" H 24150 4550 50  0001 C CNN
	1    24150 4550
	1    0    0    -1  
$EndComp
Text Label 24250 3900 2    60   ~ 0
WIFI_RXD
Text Label 24250 3800 2    60   ~ 0
WIFI_TXD
Text Label 18800 4700 2    60   ~ 0
WIFI_RST
Text Label 18800 4450 2    60   ~ 0
WIFI_PGM
$Comp
L GND #PWR045
U 1 1 5A844C51
P 19350 4950
F 0 "#PWR045" H 19350 4700 50  0001 C CNN
F 1 "GND" H 19350 4800 50  0000 C CNN
F 2 "" H 19350 4950 50  0001 C CNN
F 3 "" H 19350 4950 50  0001 C CNN
	1    19350 4950
	1    0    0    -1  
$EndComp
$Comp
L GND #PWR046
U 1 1 5A84347D
P 20500 5000
F 0 "#PWR046" H 20500 4750 50  0001 C CNN
F 1 "GND" H 20500 4850 50  0000 C CNN
F 2 "" H 20500 5000 50  0001 C CNN
F 3 "" H 20500 5000 50  0001 C CNN
	1    20500 5000
	1    0    0    -1  
$EndComp
$Comp
L R R11
U 1 1 5A842F76
P 20300 4700
F 0 "R11" V 20350 4800 50  0000 L CNN
F 1 "10K" V 20300 4650 50  0000 L CNN
F 2 "Resistors_SMD:R_1206_HandSoldering" H 20300 4700 50  0001 C CNN
F 3 "" H 20300 4700 50  0001 C CNN
	1    20300 4700
	0    1    1    0   
$EndComp
$Comp
L R R10
U 1 1 5A842E6E
P 20300 4550
F 0 "R10" V 20350 4650 50  0000 L CNN
F 1 "10K" V 20300 4500 50  0000 L CNN
F 2 "Resistors_SMD:R_1206_HandSoldering" H 20300 4550 50  0001 C CNN
F 3 "" H 20300 4550 50  0001 C CNN
	1    20300 4550
	0    1    1    0   
$EndComp
$Comp
L R R9
U 1 1 5A842D69
P 20300 4400
F 0 "R9" V 20350 4500 50  0000 L CNN
F 1 "10K" V 20300 4350 50  0000 L CNN
F 2 "Resistors_SMD:R_1206_HandSoldering" H 20300 4400 50  0001 C CNN
F 3 "" H 20300 4400 50  0001 C CNN
	1    20300 4400
	0    1    1    0   
$EndComp
$Comp
L R R8
U 1 1 5A842C5B
P 20300 4250
F 0 "R8" V 20350 4350 50  0000 L CNN
F 1 "10K" V 20300 4200 50  0000 L CNN
F 2 "Resistors_SMD:R_1206_HandSoldering" H 20300 4250 50  0001 C CNN
F 3 "" H 20300 4250 50  0001 C CNN
	1    20300 4250
	0    1    1    0   
$EndComp
$Comp
L R R4
U 1 1 5A8429DC
P 20300 4100
F 0 "R4" V 20350 4200 50  0000 L CNN
F 1 "10K" V 20300 4050 50  0000 L CNN
F 2 "Resistors_SMD:R_1206_HandSoldering" H 20300 4100 50  0001 C CNN
F 3 "" H 20300 4100 50  0001 C CNN
	1    20300 4100
	0    1    1    0   
$EndComp
Text Label 20050 4700 2    60   ~ 0
WIFI_15
Text Label 20050 4550 2    60   ~ 0
WIFI_02
Text Label 20050 4400 2    60   ~ 0
WIFI_PGM
Text Label 23100 4400 0    60   ~ 0
WIFI_15
Text Label 23100 4300 0    60   ~ 0
WIFI_02
Text Label 20050 4100 2    60   ~ 0
WIFI_EN
Text Label 20050 4250 2    60   ~ 0
WIFI_RST
Text Label 21300 4000 2    60   ~ 0
WIFI_EN
$Comp
L CONN_01X06 J7
U 1 1 5A840328
P 24450 3950
F 0 "J7" H 24450 4300 50  0000 C CNN
F 1 "CONN_01X06" V 24550 3950 50  0000 C CNN
F 2 "Pin_Headers:Pin_Header_Straight_1x06_Pitch2.54mm" H 24450 3950 50  0001 C CNN
F 3 "" H 24450 3950 50  0001 C CNN
	1    24450 3950
	1    0    0    -1  
$EndComp
$Comp
L SPST S2
U 1 1 5A83FC56
P 19050 4700
F 0 "S2" H 19040 4785 60  0000 C CNN
F 1 "WRST" H 19050 4605 60  0000 C CNN
F 2 "chordboard-footprints:SW_PUSH_6mm" H 19050 4700 60  0001 C CNN
F 3 "" H 19050 4700 60  0001 C CNN
	1    19050 4700
	-1   0    0    1   
$EndComp
$Comp
L SPST S1
U 1 1 5A83F558
P 19050 4450
F 0 "S1" H 19040 4535 60  0000 C CNN
F 1 "WPGM" H 19050 4355 60  0000 C CNN
F 2 "chordboard-footprints:SW_PUSH_6mm" H 19050 4450 60  0001 C CNN
F 3 "" H 19050 4450 60  0001 C CNN
	1    19050 4450
	-1   0    0    1   
$EndComp
Text Label 23100 4100 0    60   ~ 0
WIFI_CMDOUT
Text Label 23100 4000 0    60   ~ 0
WIFI_CMDIN
Text Label 23100 4200 0    60   ~ 0
WIFI_PGM
Text Label 23100 3900 0    60   ~ 0
WIFI_RXD
Text Label 23100 3800 0    60   ~ 0
WIFI_TXD
Text Label 21300 3800 2    60   ~ 0
WIFI_RST
$Comp
L GND #PWR047
U 1 1 5A838D41
P 22200 5050
F 0 "#PWR047" H 22200 4800 50  0001 C CNN
F 1 "GND" H 22200 4900 50  0000 C CNN
F 2 "" H 22200 5050 50  0001 C CNN
F 3 "" H 22200 5050 50  0001 C CNN
	1    22200 5050
	1    0    0    -1  
$EndComp
$Comp
L ESP-12 U10
U 1 1 5A838D3F
P 22200 4100
F 0 "U10" H 22200 4000 50  0000 C CNN
F 1 "ESP-12" H 22200 4200 50  0000 C CNN
F 2 "chordboard-footprints:ESP-12_smd" H 22200 4100 50  0001 C CNN
F 3 "" H 22200 4100 50  0001 C CNN
	1    22200 4100
	1    0    0    -1  
$EndComp
Text Label 27550 3100 1    60   ~ 0
WIFI_TXD
Text Label 27450 3100 1    60   ~ 0
WIFI_RXD
Text Notes 2750 8150 0    60   ~ 0
10K = 100mA\n5.0K = 200mA\n2.0K = 500mA\n1.0K = 1000mA
Wire Wire Line
	3000 7000 2900 7000
Wire Wire Line
	2900 7000 2900 7100
Wire Wire Line
	2900 7300 2900 7450
Wire Wire Line
	3400 7200 3400 7450
Wire Wire Line
	3800 6800 4350 6800
Wire Wire Line
	4250 6100 4250 7150
Wire Wire Line
	3400 6100 3400 6600
Connection ~ 4250 6800
Wire Wire Line
	4750 6800 5000 6800
Wire Wire Line
	5000 6800 5000 7050
Wire Wire Line
	3800 6300 4250 6300
Connection ~ 4250 6300
Wire Wire Line
	2450 6300 3500 6300
Connection ~ 3400 6300
Wire Wire Line
	2450 6300 2450 6600
Wire Wire Line
	2450 6800 2450 7450
Wire Wire Line
	4250 7350 4250 7450
Wire Wire Line
	3800 7000 3900 7000
Wire Wire Line
	3900 7000 3900 7100
Text Label 3900 7100 3    60   ~ 0
CHG_STAT
$Comp
L MCP73831-2-OT U3
U 1 1 5A97A47A
P 3400 6900
F 0 "U3" H 3100 7150 50  0000 L CNN
F 1 "MCP73831" H 3450 7150 50  0000 L CNN
F 2 "TO_SOT_Packages_SMD:SOT-23-5" H 3450 6650 50  0001 L CIN
F 3 "" H 3250 6850 50  0001 C CNN
	1    3400 6900
	1    0    0    -1  
$EndComp
$Comp
L GND #PWR048
U 1 1 5A97A47B
P 4250 7450
F 0 "#PWR048" H 4250 7200 50  0001 C CNN
F 1 "GND" H 4250 7300 50  0000 C CNN
F 2 "" H 4250 7450 50  0001 C CNN
F 3 "" H 4250 7450 50  0001 C CNN
	1    4250 7450
	-1   0    0    -1  
$EndComp
$Comp
L C C9
U 1 1 5A97A47C
P 4250 7250
F 0 "C9" H 4260 7320 50  0000 L CNN
F 1 "10uF" H 4260 7170 50  0000 L CNN
F 2 "Capacitors_SMD:C_1206_HandSoldering" H 4250 7250 50  0001 C CNN
F 3 "" H 4250 7250 50  0001 C CNN
	1    4250 7250
	1    0    0    -1  
$EndComp
$Comp
L GND #PWR049
U 1 1 5A97A47D
P 2450 7450
F 0 "#PWR049" H 2450 7200 50  0001 C CNN
F 1 "GND" H 2450 7300 50  0000 C CNN
F 2 "" H 2450 7450 50  0001 C CNN
F 3 "" H 2450 7450 50  0001 C CNN
	1    2450 7450
	-1   0    0    -1  
$EndComp
$Comp
L D_Schottky D1
U 1 1 5A97A47E
P 3650 6300
F 0 "D1" H 3650 6400 50  0000 C CNN
F 1 "MBR120" H 3650 6200 50  0000 C CNN
F 2 "Diodes_SMD:D_SOD-123F" H 3650 6300 50  0001 C CNN
F 3 "" H 3650 6300 50  0001 C CNN
	1    3650 6300
	1    0    0    -1  
$EndComp
$Comp
L +BATT #PWR050
U 1 1 5A97A47F
P 4250 6100
F 0 "#PWR050" H 4250 5950 50  0001 C CNN
F 1 "+BATT" H 4250 6240 50  0000 C CNN
F 2 "" H 4250 6100 50  0001 C CNN
F 3 "" H 4250 6100 50  0001 C CNN
	1    4250 6100
	1    0    0    -1  
$EndComp
$Comp
L GND #PWR051
U 1 1 5A97A480
P 5000 7050
F 0 "#PWR051" H 5000 6800 50  0001 C CNN
F 1 "GND" H 5000 6900 50  0000 C CNN
F 2 "" H 5000 7050 50  0001 C CNN
F 3 "" H 5000 7050 50  0001 C CNN
	1    5000 7050
	1    0    0    -1  
$EndComp
$Comp
L Battery BT1
U 1 1 5A97A481
P 4550 6800
F 0 "BT1" H 4650 6900 50  0000 L CNN
F 1 "Battery" H 4650 6800 50  0000 L CNN
F 2 "Connectors_JST:JST_PH_S2B-PH-K_02x2.00mm_Angled" V 4550 6860 50  0001 C CNN
F 3 "" V 4550 6860 50  0001 C CNN
	1    4550 6800
	0    -1   -1   0   
$EndComp
$Comp
L C C8
U 1 1 5A97A482
P 2450 6700
F 0 "C8" H 2460 6770 50  0000 L CNN
F 1 "10uF" H 2460 6620 50  0000 L CNN
F 2 "Capacitors_SMD:C_1206_HandSoldering" H 2450 6700 50  0001 C CNN
F 3 "" H 2450 6700 50  0001 C CNN
	1    2450 6700
	1    0    0    -1  
$EndComp
$Comp
L GND #PWR052
U 1 1 5A97A483
P 3400 7450
F 0 "#PWR052" H 3400 7200 50  0001 C CNN
F 1 "GND" H 3400 7300 50  0000 C CNN
F 2 "" H 3400 7450 50  0001 C CNN
F 3 "" H 3400 7450 50  0001 C CNN
	1    3400 7450
	1    0    0    -1  
$EndComp
$Comp
L GND #PWR053
U 1 1 5A97A484
P 2900 7450
F 0 "#PWR053" H 2900 7200 50  0001 C CNN
F 1 "GND" H 2900 7300 50  0000 C CNN
F 2 "" H 2900 7450 50  0001 C CNN
F 3 "" H 2900 7450 50  0001 C CNN
	1    2900 7450
	-1   0    0    -1  
$EndComp
$Comp
L R R5
U 1 1 5A97A485
P 2900 7200
F 0 "R5" H 2930 7220 50  0000 L CNN
F 1 "10K" H 2930 7160 50  0000 L CNN
F 2 "Resistors_SMD:R_1206_HandSoldering" H 2900 7200 50  0001 C CNN
F 3 "" H 2900 7200 50  0001 C CNN
	1    2900 7200
	-1   0    0    -1  
$EndComp
$Comp
L +5V #PWR054
U 1 1 5A97A486
P 3400 5900
F 0 "#PWR054" H 3400 5750 50  0001 C CNN
F 1 "+5V" H 3400 6040 50  0000 C CNN
F 2 "" H 3400 5900 50  0001 C CNN
F 3 "" H 3400 5900 50  0001 C CNN
	1    3400 5900
	1    0    0    -1  
$EndComp
$Comp
L Jumper JP1
U 1 1 5A97A487
P 3400 6000
F 0 "JP1" H 3350 6050 50  0000 R CNN
F 1 "JWTX" H 3450 6050 50  0000 L CNN
F 2 "Pin_Headers:Pin_Header_Straight_1x02_Pitch2.54mm" H 3400 6000 50  0001 C CNN
F 3 "" H 3400 6000 50  0001 C CNN
	1    3400 6000
	0    1    1    0   
$EndComp
Text Label 19400 11050 2    60   ~ 0
CHG_STAT
$EndSCHEMATC
