G04 #@! TF.FileFunction,Copper,L1,Top,Signal*
%FSLAX46Y46*%
G04 Gerber Fmt 4.6, Leading zero omitted, Abs format (unit mm)*
G04 Created by KiCad (PCBNEW 4.0.6+dfsg1-1) date Tue Feb 20 17:37:04 2018*
%MOMM*%
%LPD*%
G01*
G04 APERTURE LIST*
%ADD10C,0.100000*%
%ADD11C,2.286000*%
%ADD12C,5.400000*%
%ADD13C,0.600000*%
%ADD14O,1.700000X1.200000*%
%ADD15R,1.700000X1.200000*%
%ADD16C,0.250000*%
G04 APERTURE END LIST*
D10*
D11*
X88265000Y-127000000D03*
X94615000Y-124460000D03*
X107315000Y-127000000D03*
X113665000Y-124460000D03*
X126365000Y-127000000D03*
X132715000Y-124460000D03*
X145415000Y-127000000D03*
X151765000Y-124460000D03*
X88265000Y-107950000D03*
X94615000Y-105410000D03*
X107315000Y-107950000D03*
X113665000Y-105410000D03*
X126365000Y-107950000D03*
X132715000Y-105410000D03*
X145415000Y-107950000D03*
X151765000Y-105410000D03*
X93345000Y-78740000D03*
X86995000Y-81280000D03*
X112395000Y-78740000D03*
X106045000Y-81280000D03*
X131445000Y-78740000D03*
X125095000Y-81280000D03*
X150495000Y-78740000D03*
X144145000Y-81280000D03*
X93345000Y-59690000D03*
X86995000Y-62230000D03*
X112395000Y-59690000D03*
X106045000Y-62230000D03*
X131445000Y-59690000D03*
X125095000Y-62230000D03*
X150495000Y-59690000D03*
X144145000Y-62230000D03*
D12*
X100330000Y-112395000D03*
D13*
X102355000Y-112395000D03*
X101761891Y-113826891D03*
X100330000Y-114420000D03*
X98898109Y-113826891D03*
X98305000Y-112395000D03*
X98898109Y-110963109D03*
X100330000Y-110370000D03*
X101761891Y-110963109D03*
D12*
X100330000Y-74295000D03*
D13*
X102355000Y-74295000D03*
X101761891Y-75726891D03*
X100330000Y-76320000D03*
X98898109Y-75726891D03*
X98305000Y-74295000D03*
X98898109Y-72863109D03*
X100330000Y-72270000D03*
X101761891Y-72863109D03*
D12*
X138430000Y-112395000D03*
D13*
X140455000Y-112395000D03*
X139861891Y-113826891D03*
X138430000Y-114420000D03*
X136998109Y-113826891D03*
X136405000Y-112395000D03*
X136998109Y-110963109D03*
X138430000Y-110370000D03*
X139861891Y-110963109D03*
D12*
X138430000Y-74295000D03*
D13*
X140455000Y-74295000D03*
X139861891Y-75726891D03*
X138430000Y-76320000D03*
X136998109Y-75726891D03*
X136405000Y-74295000D03*
X136998109Y-72863109D03*
X138430000Y-72270000D03*
X139861891Y-72863109D03*
D14*
X120015000Y-105410000D03*
X120015000Y-107410000D03*
X120015000Y-109410000D03*
D15*
X120015000Y-111410000D03*
D13*
X130741100Y-99566900D03*
X128304400Y-100355700D03*
X128270000Y-108966000D03*
X126913400Y-104543200D03*
X125730000Y-99545300D03*
X124508600Y-100468400D03*
X121920000Y-96393000D03*
X121031000Y-86868000D03*
X122174000Y-86868000D03*
X125730000Y-90297000D03*
X127000000Y-86968300D03*
X128270000Y-86967200D03*
X129540000Y-87050100D03*
X130810000Y-86995000D03*
D16*
X95470500Y-127000000D02*
X88265000Y-127000000D01*
X114060500Y-108410000D02*
X95470500Y-127000000D01*
X120608400Y-108410000D02*
X114060500Y-108410000D01*
X125238400Y-103780000D02*
X120608400Y-108410000D01*
X125238400Y-102537400D02*
X125238400Y-103780000D01*
X128208900Y-99566900D02*
X125238400Y-102537400D01*
X130741100Y-99566900D02*
X128208900Y-99566900D01*
X128135800Y-100355700D02*
X128304400Y-100355700D01*
X125977900Y-102513600D02*
X128135800Y-100355700D01*
X125977900Y-104594300D02*
X125977900Y-102513600D01*
X122219100Y-108353100D02*
X125977900Y-104594300D01*
X122219100Y-117995200D02*
X122219100Y-108353100D01*
X113214300Y-127000000D02*
X122219100Y-117995200D01*
X107315000Y-127000000D02*
X113214300Y-127000000D01*
X126365000Y-127000000D02*
X126365000Y-110871000D01*
X126365000Y-110871000D02*
X128270000Y-108966000D01*
X128941900Y-106571700D02*
X126913400Y-104543200D01*
X128941900Y-110526900D02*
X128941900Y-106571700D01*
X145415000Y-127000000D02*
X128941900Y-110526900D01*
X125730000Y-99545400D02*
X125730000Y-99545300D01*
X104391200Y-99545400D02*
X125730000Y-99545400D01*
X99860200Y-104076400D02*
X104391200Y-99545400D01*
X95358100Y-104076400D02*
X99860200Y-104076400D01*
X95189200Y-103907500D02*
X95358100Y-104076400D01*
X93821200Y-103907500D02*
X95189200Y-103907500D01*
X89778700Y-107950000D02*
X93821200Y-103907500D01*
X88265000Y-107950000D02*
X89778700Y-107950000D01*
X115536600Y-100468400D02*
X124508600Y-100468400D01*
X108055000Y-107950000D02*
X115536600Y-100468400D01*
X107315000Y-107950000D02*
X108055000Y-107950000D01*
X133350000Y-95885000D02*
X122428000Y-95885000D01*
X122428000Y-95885000D02*
X121920000Y-96393000D01*
X145415000Y-107950000D02*
X133350000Y-95885000D01*
X93345000Y-78740000D02*
X110222358Y-78740000D01*
X110222358Y-78740000D02*
X111690359Y-80208001D01*
X111690359Y-80208001D02*
X114371001Y-80208001D01*
X114371001Y-80208001D02*
X121031000Y-86868000D01*
X112395000Y-78740000D02*
X114046000Y-78740000D01*
X114046000Y-78740000D02*
X122174000Y-86868000D01*
X150495000Y-78740000D02*
X140805334Y-78740000D01*
X140805334Y-78740000D02*
X129248334Y-90297000D01*
X129248334Y-90297000D02*
X125730000Y-90297000D01*
X123264900Y-86968300D02*
X127000000Y-86968300D01*
X95986600Y-59690000D02*
X123264900Y-86968300D01*
X93345000Y-59690000D02*
X95986600Y-59690000D01*
X126537100Y-85234300D02*
X128270000Y-86967200D01*
X126537100Y-82771500D02*
X126537100Y-85234300D01*
X126602500Y-82706100D02*
X126537100Y-82771500D01*
X126602500Y-73897500D02*
X126602500Y-82706100D01*
X112395000Y-59690000D02*
X126602500Y-73897500D01*
X131448700Y-85141400D02*
X129540000Y-87050100D01*
X131448700Y-81568400D02*
X131448700Y-85141400D01*
X132921400Y-80095700D02*
X131448700Y-81568400D01*
X132921400Y-74547400D02*
X132921400Y-80095700D01*
X131445000Y-73071000D02*
X132921400Y-74547400D01*
X131445000Y-59690000D02*
X131445000Y-73071000D01*
X150495000Y-59690000D02*
X150495000Y-66698532D01*
X150495000Y-66698532D02*
X134549433Y-82644099D01*
X134549433Y-82644099D02*
X133420567Y-82644099D01*
X133420567Y-82644099D02*
X132809099Y-83255567D01*
X132809099Y-83255567D02*
X132809099Y-84995901D01*
X132809099Y-84995901D02*
X130810000Y-86995000D01*
M02*
