G04 #@! TF.FileFunction,Legend,Top*
%FSLAX46Y46*%
G04 Gerber Fmt 4.6, Leading zero omitted, Abs format (unit mm)*
G04 Created by KiCad (PCBNEW 4.0.6+dfsg1-1) date Tue Feb 20 17:37:04 2018*
%MOMM*%
%LPD*%
G01*
G04 APERTURE LIST*
%ADD10C,0.100000*%
%ADD11C,0.200000*%
%ADD12C,0.300000*%
%ADD13C,0.381000*%
%ADD14C,0.120000*%
%ADD15C,0.203200*%
%ADD16C,0.150000*%
G04 APERTURE END LIST*
D10*
D11*
X121285000Y-56515000D02*
X120650000Y-55880000D01*
X120015000Y-56515000D02*
X121285000Y-56515000D01*
X120650000Y-55880000D02*
X120015000Y-56515000D01*
X120650000Y-57785000D02*
X120650000Y-55880000D01*
D12*
X114875714Y-56328571D02*
X115732857Y-56328571D01*
X115304286Y-57828571D02*
X115304286Y-56328571D01*
X116518571Y-56328571D02*
X116804285Y-56328571D01*
X116947143Y-56400000D01*
X117090000Y-56542857D01*
X117161428Y-56828571D01*
X117161428Y-57328571D01*
X117090000Y-57614286D01*
X116947143Y-57757143D01*
X116804285Y-57828571D01*
X116518571Y-57828571D01*
X116375714Y-57757143D01*
X116232857Y-57614286D01*
X116161428Y-57328571D01*
X116161428Y-56828571D01*
X116232857Y-56542857D01*
X116375714Y-56400000D01*
X116518571Y-56328571D01*
X117804286Y-57828571D02*
X117804286Y-56328571D01*
X118375714Y-56328571D01*
X118518572Y-56400000D01*
X118590000Y-56471429D01*
X118661429Y-56614286D01*
X118661429Y-56828571D01*
X118590000Y-56971429D01*
X118518572Y-57042857D01*
X118375714Y-57114286D01*
X117804286Y-57114286D01*
D13*
X97155000Y-128270000D02*
X95377000Y-128270000D01*
X86233000Y-128270000D02*
X84455000Y-128270000D01*
X84455000Y-128270000D02*
X84455000Y-126492000D01*
X84455000Y-117348000D02*
X84455000Y-115570000D01*
X84455000Y-115570000D02*
X86233000Y-115570000D01*
X95377000Y-115570000D02*
X97155000Y-115570000D01*
X97155000Y-115570000D02*
X97155000Y-117348000D01*
X97155000Y-126492000D02*
X97155000Y-128270000D01*
X116205000Y-128270000D02*
X114427000Y-128270000D01*
X105283000Y-128270000D02*
X103505000Y-128270000D01*
X103505000Y-128270000D02*
X103505000Y-126492000D01*
X103505000Y-117348000D02*
X103505000Y-115570000D01*
X103505000Y-115570000D02*
X105283000Y-115570000D01*
X114427000Y-115570000D02*
X116205000Y-115570000D01*
X116205000Y-115570000D02*
X116205000Y-117348000D01*
X116205000Y-126492000D02*
X116205000Y-128270000D01*
X135255000Y-128270000D02*
X133477000Y-128270000D01*
X124333000Y-128270000D02*
X122555000Y-128270000D01*
X122555000Y-128270000D02*
X122555000Y-126492000D01*
X122555000Y-117348000D02*
X122555000Y-115570000D01*
X122555000Y-115570000D02*
X124333000Y-115570000D01*
X133477000Y-115570000D02*
X135255000Y-115570000D01*
X135255000Y-115570000D02*
X135255000Y-117348000D01*
X135255000Y-126492000D02*
X135255000Y-128270000D01*
X154305000Y-128270000D02*
X152527000Y-128270000D01*
X143383000Y-128270000D02*
X141605000Y-128270000D01*
X141605000Y-128270000D02*
X141605000Y-126492000D01*
X141605000Y-117348000D02*
X141605000Y-115570000D01*
X141605000Y-115570000D02*
X143383000Y-115570000D01*
X152527000Y-115570000D02*
X154305000Y-115570000D01*
X154305000Y-115570000D02*
X154305000Y-117348000D01*
X154305000Y-126492000D02*
X154305000Y-128270000D01*
X97155000Y-109220000D02*
X95377000Y-109220000D01*
X86233000Y-109220000D02*
X84455000Y-109220000D01*
X84455000Y-109220000D02*
X84455000Y-107442000D01*
X84455000Y-98298000D02*
X84455000Y-96520000D01*
X84455000Y-96520000D02*
X86233000Y-96520000D01*
X95377000Y-96520000D02*
X97155000Y-96520000D01*
X97155000Y-96520000D02*
X97155000Y-98298000D01*
X97155000Y-107442000D02*
X97155000Y-109220000D01*
X116205000Y-109220000D02*
X114427000Y-109220000D01*
X105283000Y-109220000D02*
X103505000Y-109220000D01*
X103505000Y-109220000D02*
X103505000Y-107442000D01*
X103505000Y-98298000D02*
X103505000Y-96520000D01*
X103505000Y-96520000D02*
X105283000Y-96520000D01*
X114427000Y-96520000D02*
X116205000Y-96520000D01*
X116205000Y-96520000D02*
X116205000Y-98298000D01*
X116205000Y-107442000D02*
X116205000Y-109220000D01*
X135255000Y-109220000D02*
X133477000Y-109220000D01*
X124333000Y-109220000D02*
X122555000Y-109220000D01*
X122555000Y-109220000D02*
X122555000Y-107442000D01*
X122555000Y-98298000D02*
X122555000Y-96520000D01*
X122555000Y-96520000D02*
X124333000Y-96520000D01*
X133477000Y-96520000D02*
X135255000Y-96520000D01*
X135255000Y-96520000D02*
X135255000Y-98298000D01*
X135255000Y-107442000D02*
X135255000Y-109220000D01*
X154305000Y-109220000D02*
X152527000Y-109220000D01*
X143383000Y-109220000D02*
X141605000Y-109220000D01*
X141605000Y-109220000D02*
X141605000Y-107442000D01*
X141605000Y-98298000D02*
X141605000Y-96520000D01*
X141605000Y-96520000D02*
X143383000Y-96520000D01*
X152527000Y-96520000D02*
X154305000Y-96520000D01*
X154305000Y-96520000D02*
X154305000Y-98298000D01*
X154305000Y-107442000D02*
X154305000Y-109220000D01*
X84455000Y-77470000D02*
X86233000Y-77470000D01*
X95377000Y-77470000D02*
X97155000Y-77470000D01*
X97155000Y-77470000D02*
X97155000Y-79248000D01*
X97155000Y-88392000D02*
X97155000Y-90170000D01*
X97155000Y-90170000D02*
X95377000Y-90170000D01*
X86233000Y-90170000D02*
X84455000Y-90170000D01*
X84455000Y-90170000D02*
X84455000Y-88392000D01*
X84455000Y-79248000D02*
X84455000Y-77470000D01*
X103505000Y-77470000D02*
X105283000Y-77470000D01*
X114427000Y-77470000D02*
X116205000Y-77470000D01*
X116205000Y-77470000D02*
X116205000Y-79248000D01*
X116205000Y-88392000D02*
X116205000Y-90170000D01*
X116205000Y-90170000D02*
X114427000Y-90170000D01*
X105283000Y-90170000D02*
X103505000Y-90170000D01*
X103505000Y-90170000D02*
X103505000Y-88392000D01*
X103505000Y-79248000D02*
X103505000Y-77470000D01*
X122555000Y-77470000D02*
X124333000Y-77470000D01*
X133477000Y-77470000D02*
X135255000Y-77470000D01*
X135255000Y-77470000D02*
X135255000Y-79248000D01*
X135255000Y-88392000D02*
X135255000Y-90170000D01*
X135255000Y-90170000D02*
X133477000Y-90170000D01*
X124333000Y-90170000D02*
X122555000Y-90170000D01*
X122555000Y-90170000D02*
X122555000Y-88392000D01*
X122555000Y-79248000D02*
X122555000Y-77470000D01*
X141605000Y-77470000D02*
X143383000Y-77470000D01*
X152527000Y-77470000D02*
X154305000Y-77470000D01*
X154305000Y-77470000D02*
X154305000Y-79248000D01*
X154305000Y-88392000D02*
X154305000Y-90170000D01*
X154305000Y-90170000D02*
X152527000Y-90170000D01*
X143383000Y-90170000D02*
X141605000Y-90170000D01*
X141605000Y-90170000D02*
X141605000Y-88392000D01*
X141605000Y-79248000D02*
X141605000Y-77470000D01*
X84455000Y-58420000D02*
X86233000Y-58420000D01*
X95377000Y-58420000D02*
X97155000Y-58420000D01*
X97155000Y-58420000D02*
X97155000Y-60198000D01*
X97155000Y-69342000D02*
X97155000Y-71120000D01*
X97155000Y-71120000D02*
X95377000Y-71120000D01*
X86233000Y-71120000D02*
X84455000Y-71120000D01*
X84455000Y-71120000D02*
X84455000Y-69342000D01*
X84455000Y-60198000D02*
X84455000Y-58420000D01*
X103505000Y-58420000D02*
X105283000Y-58420000D01*
X114427000Y-58420000D02*
X116205000Y-58420000D01*
X116205000Y-58420000D02*
X116205000Y-60198000D01*
X116205000Y-69342000D02*
X116205000Y-71120000D01*
X116205000Y-71120000D02*
X114427000Y-71120000D01*
X105283000Y-71120000D02*
X103505000Y-71120000D01*
X103505000Y-71120000D02*
X103505000Y-69342000D01*
X103505000Y-60198000D02*
X103505000Y-58420000D01*
X122555000Y-58420000D02*
X124333000Y-58420000D01*
X133477000Y-58420000D02*
X135255000Y-58420000D01*
X135255000Y-58420000D02*
X135255000Y-60198000D01*
X135255000Y-69342000D02*
X135255000Y-71120000D01*
X135255000Y-71120000D02*
X133477000Y-71120000D01*
X124333000Y-71120000D02*
X122555000Y-71120000D01*
X122555000Y-71120000D02*
X122555000Y-69342000D01*
X122555000Y-60198000D02*
X122555000Y-58420000D01*
X141605000Y-58420000D02*
X143383000Y-58420000D01*
X152527000Y-58420000D02*
X154305000Y-58420000D01*
X154305000Y-58420000D02*
X154305000Y-60198000D01*
X154305000Y-69342000D02*
X154305000Y-71120000D01*
X154305000Y-71120000D02*
X152527000Y-71120000D01*
X143383000Y-71120000D02*
X141605000Y-71120000D01*
X141605000Y-71120000D02*
X141605000Y-69342000D01*
X141605000Y-60198000D02*
X141605000Y-58420000D01*
D14*
X121815000Y-103360000D02*
X117115000Y-103360000D01*
X117115000Y-103360000D02*
X117115000Y-113460000D01*
X117115000Y-113460000D02*
X121815000Y-113460000D01*
X121815000Y-113460000D02*
X121815000Y-103360000D01*
X121815000Y-105910000D02*
X121215000Y-105910000D01*
X121215000Y-105910000D02*
X121215000Y-103960000D01*
X121215000Y-103960000D02*
X117715000Y-103960000D01*
X117715000Y-103960000D02*
X117715000Y-112860000D01*
X117715000Y-112860000D02*
X121215000Y-112860000D01*
X121215000Y-112860000D02*
X121215000Y-110910000D01*
X121215000Y-110910000D02*
X121815000Y-110910000D01*
X120515000Y-103360000D02*
X120515000Y-103960000D01*
X119215000Y-103360000D02*
X119215000Y-103960000D01*
X120515000Y-113460000D02*
X120515000Y-112860000D01*
X119215000Y-113460000D02*
X119215000Y-112860000D01*
X121815000Y-105110000D02*
X122015000Y-105110000D01*
X122015000Y-105110000D02*
X122015000Y-104810000D01*
X122015000Y-104810000D02*
X121815000Y-104810000D01*
X121915000Y-105110000D02*
X121915000Y-104810000D01*
X117715000Y-106310000D02*
X118215000Y-106310000D01*
X118215000Y-106310000D02*
X118215000Y-106510000D01*
X118215000Y-106510000D02*
X117715000Y-106510000D01*
X117715000Y-106410000D02*
X118215000Y-106410000D01*
X117715000Y-108310000D02*
X118215000Y-108310000D01*
X118215000Y-108310000D02*
X118215000Y-108510000D01*
X118215000Y-108510000D02*
X117715000Y-108510000D01*
X117715000Y-108410000D02*
X118215000Y-108410000D01*
X117715000Y-110310000D02*
X118215000Y-110310000D01*
X118215000Y-110310000D02*
X118215000Y-110510000D01*
X118215000Y-110510000D02*
X117715000Y-110510000D01*
X117715000Y-110410000D02*
X118215000Y-110410000D01*
X122115000Y-104310000D02*
X122115000Y-103060000D01*
X122115000Y-103060000D02*
X120865000Y-103060000D01*
D15*
X89680143Y-119319524D02*
X89680143Y-118049524D01*
X90551000Y-119319524D02*
X89897857Y-118593810D01*
X90551000Y-118049524D02*
X89680143Y-118775238D01*
X92002429Y-119319524D02*
X91131572Y-119319524D01*
X91567000Y-119319524D02*
X91567000Y-118049524D01*
X91421857Y-118230952D01*
X91276715Y-118351905D01*
X91131572Y-118412381D01*
X108730143Y-119319524D02*
X108730143Y-118049524D01*
X109601000Y-119319524D02*
X108947857Y-118593810D01*
X109601000Y-118049524D02*
X108730143Y-118775238D01*
X110181572Y-118170476D02*
X110254143Y-118110000D01*
X110399286Y-118049524D01*
X110762143Y-118049524D01*
X110907286Y-118110000D01*
X110979857Y-118170476D01*
X111052429Y-118291429D01*
X111052429Y-118412381D01*
X110979857Y-118593810D01*
X110109000Y-119319524D01*
X111052429Y-119319524D01*
X127780143Y-119319524D02*
X127780143Y-118049524D01*
X128651000Y-119319524D02*
X127997857Y-118593810D01*
X128651000Y-118049524D02*
X127780143Y-118775238D01*
X129159000Y-118049524D02*
X130102429Y-118049524D01*
X129594429Y-118533333D01*
X129812143Y-118533333D01*
X129957286Y-118593810D01*
X130029857Y-118654286D01*
X130102429Y-118775238D01*
X130102429Y-119077619D01*
X130029857Y-119198571D01*
X129957286Y-119259048D01*
X129812143Y-119319524D01*
X129376715Y-119319524D01*
X129231572Y-119259048D01*
X129159000Y-119198571D01*
X146830143Y-119319524D02*
X146830143Y-118049524D01*
X147701000Y-119319524D02*
X147047857Y-118593810D01*
X147701000Y-118049524D02*
X146830143Y-118775238D01*
X149007286Y-118472857D02*
X149007286Y-119319524D01*
X148644429Y-117989048D02*
X148281572Y-118896190D01*
X149225000Y-118896190D01*
X89680143Y-100269524D02*
X89680143Y-98999524D01*
X90551000Y-100269524D02*
X89897857Y-99543810D01*
X90551000Y-98999524D02*
X89680143Y-99725238D01*
X91929857Y-98999524D02*
X91204143Y-98999524D01*
X91131572Y-99604286D01*
X91204143Y-99543810D01*
X91349286Y-99483333D01*
X91712143Y-99483333D01*
X91857286Y-99543810D01*
X91929857Y-99604286D01*
X92002429Y-99725238D01*
X92002429Y-100027619D01*
X91929857Y-100148571D01*
X91857286Y-100209048D01*
X91712143Y-100269524D01*
X91349286Y-100269524D01*
X91204143Y-100209048D01*
X91131572Y-100148571D01*
X108730143Y-100269524D02*
X108730143Y-98999524D01*
X109601000Y-100269524D02*
X108947857Y-99543810D01*
X109601000Y-98999524D02*
X108730143Y-99725238D01*
X110907286Y-98999524D02*
X110617000Y-98999524D01*
X110471857Y-99060000D01*
X110399286Y-99120476D01*
X110254143Y-99301905D01*
X110181572Y-99543810D01*
X110181572Y-100027619D01*
X110254143Y-100148571D01*
X110326715Y-100209048D01*
X110471857Y-100269524D01*
X110762143Y-100269524D01*
X110907286Y-100209048D01*
X110979857Y-100148571D01*
X111052429Y-100027619D01*
X111052429Y-99725238D01*
X110979857Y-99604286D01*
X110907286Y-99543810D01*
X110762143Y-99483333D01*
X110471857Y-99483333D01*
X110326715Y-99543810D01*
X110254143Y-99604286D01*
X110181572Y-99725238D01*
X127780143Y-100269524D02*
X127780143Y-98999524D01*
X128651000Y-100269524D02*
X127997857Y-99543810D01*
X128651000Y-98999524D02*
X127780143Y-99725238D01*
X129159000Y-98999524D02*
X130175000Y-98999524D01*
X129521857Y-100269524D01*
X146830143Y-100269524D02*
X146830143Y-98999524D01*
X147701000Y-100269524D02*
X147047857Y-99543810D01*
X147701000Y-98999524D02*
X146830143Y-99725238D01*
X148571857Y-99543810D02*
X148426715Y-99483333D01*
X148354143Y-99422857D01*
X148281572Y-99301905D01*
X148281572Y-99241429D01*
X148354143Y-99120476D01*
X148426715Y-99060000D01*
X148571857Y-98999524D01*
X148862143Y-98999524D01*
X149007286Y-99060000D01*
X149079857Y-99120476D01*
X149152429Y-99241429D01*
X149152429Y-99301905D01*
X149079857Y-99422857D01*
X149007286Y-99483333D01*
X148862143Y-99543810D01*
X148571857Y-99543810D01*
X148426715Y-99604286D01*
X148354143Y-99664762D01*
X148281572Y-99785714D01*
X148281572Y-100027619D01*
X148354143Y-100148571D01*
X148426715Y-100209048D01*
X148571857Y-100269524D01*
X148862143Y-100269524D01*
X149007286Y-100209048D01*
X149079857Y-100148571D01*
X149152429Y-100027619D01*
X149152429Y-99785714D01*
X149079857Y-99664762D01*
X149007286Y-99604286D01*
X148862143Y-99543810D01*
X89680143Y-87569524D02*
X89680143Y-86299524D01*
X90551000Y-87569524D02*
X89897857Y-86843810D01*
X90551000Y-86299524D02*
X89680143Y-87025238D01*
X91276715Y-87569524D02*
X91567000Y-87569524D01*
X91712143Y-87509048D01*
X91784715Y-87448571D01*
X91929857Y-87267143D01*
X92002429Y-87025238D01*
X92002429Y-86541429D01*
X91929857Y-86420476D01*
X91857286Y-86360000D01*
X91712143Y-86299524D01*
X91421857Y-86299524D01*
X91276715Y-86360000D01*
X91204143Y-86420476D01*
X91131572Y-86541429D01*
X91131572Y-86843810D01*
X91204143Y-86964762D01*
X91276715Y-87025238D01*
X91421857Y-87085714D01*
X91712143Y-87085714D01*
X91857286Y-87025238D01*
X91929857Y-86964762D01*
X92002429Y-86843810D01*
X108004428Y-87569524D02*
X108004428Y-86299524D01*
X108875285Y-87569524D02*
X108222142Y-86843810D01*
X108875285Y-86299524D02*
X108004428Y-87025238D01*
X110326714Y-87569524D02*
X109455857Y-87569524D01*
X109891285Y-87569524D02*
X109891285Y-86299524D01*
X109746142Y-86480952D01*
X109601000Y-86601905D01*
X109455857Y-86662381D01*
X111270143Y-86299524D02*
X111415286Y-86299524D01*
X111560429Y-86360000D01*
X111633000Y-86420476D01*
X111705571Y-86541429D01*
X111778143Y-86783333D01*
X111778143Y-87085714D01*
X111705571Y-87327619D01*
X111633000Y-87448571D01*
X111560429Y-87509048D01*
X111415286Y-87569524D01*
X111270143Y-87569524D01*
X111125000Y-87509048D01*
X111052429Y-87448571D01*
X110979857Y-87327619D01*
X110907286Y-87085714D01*
X110907286Y-86783333D01*
X110979857Y-86541429D01*
X111052429Y-86420476D01*
X111125000Y-86360000D01*
X111270143Y-86299524D01*
X127054428Y-87569524D02*
X127054428Y-86299524D01*
X127925285Y-87569524D02*
X127272142Y-86843810D01*
X127925285Y-86299524D02*
X127054428Y-87025238D01*
X129376714Y-87569524D02*
X128505857Y-87569524D01*
X128941285Y-87569524D02*
X128941285Y-86299524D01*
X128796142Y-86480952D01*
X128651000Y-86601905D01*
X128505857Y-86662381D01*
X130828143Y-87569524D02*
X129957286Y-87569524D01*
X130392714Y-87569524D02*
X130392714Y-86299524D01*
X130247571Y-86480952D01*
X130102429Y-86601905D01*
X129957286Y-86662381D01*
X146104428Y-87569524D02*
X146104428Y-86299524D01*
X146975285Y-87569524D02*
X146322142Y-86843810D01*
X146975285Y-86299524D02*
X146104428Y-87025238D01*
X148426714Y-87569524D02*
X147555857Y-87569524D01*
X147991285Y-87569524D02*
X147991285Y-86299524D01*
X147846142Y-86480952D01*
X147701000Y-86601905D01*
X147555857Y-86662381D01*
X149007286Y-86420476D02*
X149079857Y-86360000D01*
X149225000Y-86299524D01*
X149587857Y-86299524D01*
X149733000Y-86360000D01*
X149805571Y-86420476D01*
X149878143Y-86541429D01*
X149878143Y-86662381D01*
X149805571Y-86843810D01*
X148934714Y-87569524D01*
X149878143Y-87569524D01*
X88954428Y-68519524D02*
X88954428Y-67249524D01*
X89825285Y-68519524D02*
X89172142Y-67793810D01*
X89825285Y-67249524D02*
X88954428Y-67975238D01*
X91276714Y-68519524D02*
X90405857Y-68519524D01*
X90841285Y-68519524D02*
X90841285Y-67249524D01*
X90696142Y-67430952D01*
X90551000Y-67551905D01*
X90405857Y-67612381D01*
X91784714Y-67249524D02*
X92728143Y-67249524D01*
X92220143Y-67733333D01*
X92437857Y-67733333D01*
X92583000Y-67793810D01*
X92655571Y-67854286D01*
X92728143Y-67975238D01*
X92728143Y-68277619D01*
X92655571Y-68398571D01*
X92583000Y-68459048D01*
X92437857Y-68519524D01*
X92002429Y-68519524D01*
X91857286Y-68459048D01*
X91784714Y-68398571D01*
X108004428Y-68519524D02*
X108004428Y-67249524D01*
X108875285Y-68519524D02*
X108222142Y-67793810D01*
X108875285Y-67249524D02*
X108004428Y-67975238D01*
X110326714Y-68519524D02*
X109455857Y-68519524D01*
X109891285Y-68519524D02*
X109891285Y-67249524D01*
X109746142Y-67430952D01*
X109601000Y-67551905D01*
X109455857Y-67612381D01*
X111633000Y-67672857D02*
X111633000Y-68519524D01*
X111270143Y-67189048D02*
X110907286Y-68096190D01*
X111850714Y-68096190D01*
X127054428Y-68519524D02*
X127054428Y-67249524D01*
X127925285Y-68519524D02*
X127272142Y-67793810D01*
X127925285Y-67249524D02*
X127054428Y-67975238D01*
X129376714Y-68519524D02*
X128505857Y-68519524D01*
X128941285Y-68519524D02*
X128941285Y-67249524D01*
X128796142Y-67430952D01*
X128651000Y-67551905D01*
X128505857Y-67612381D01*
X130755571Y-67249524D02*
X130029857Y-67249524D01*
X129957286Y-67854286D01*
X130029857Y-67793810D01*
X130175000Y-67733333D01*
X130537857Y-67733333D01*
X130683000Y-67793810D01*
X130755571Y-67854286D01*
X130828143Y-67975238D01*
X130828143Y-68277619D01*
X130755571Y-68398571D01*
X130683000Y-68459048D01*
X130537857Y-68519524D01*
X130175000Y-68519524D01*
X130029857Y-68459048D01*
X129957286Y-68398571D01*
X146104428Y-68519524D02*
X146104428Y-67249524D01*
X146975285Y-68519524D02*
X146322142Y-67793810D01*
X146975285Y-67249524D02*
X146104428Y-67975238D01*
X148426714Y-68519524D02*
X147555857Y-68519524D01*
X147991285Y-68519524D02*
X147991285Y-67249524D01*
X147846142Y-67430952D01*
X147701000Y-67551905D01*
X147555857Y-67612381D01*
X149733000Y-67249524D02*
X149442714Y-67249524D01*
X149297571Y-67310000D01*
X149225000Y-67370476D01*
X149079857Y-67551905D01*
X149007286Y-67793810D01*
X149007286Y-68277619D01*
X149079857Y-68398571D01*
X149152429Y-68459048D01*
X149297571Y-68519524D01*
X149587857Y-68519524D01*
X149733000Y-68459048D01*
X149805571Y-68398571D01*
X149878143Y-68277619D01*
X149878143Y-67975238D01*
X149805571Y-67854286D01*
X149733000Y-67793810D01*
X149587857Y-67733333D01*
X149297571Y-67733333D01*
X149152429Y-67793810D01*
X149079857Y-67854286D01*
X149007286Y-67975238D01*
D16*
X99020476Y-109147381D02*
X99020476Y-108147381D01*
X99353810Y-108861667D01*
X99687143Y-108147381D01*
X99687143Y-109147381D01*
X100163333Y-109147381D02*
X100163333Y-108147381D01*
X100734762Y-109147381D02*
X100306190Y-108575952D01*
X100734762Y-108147381D02*
X100163333Y-108718810D01*
X101687143Y-109147381D02*
X101115714Y-109147381D01*
X101401428Y-109147381D02*
X101401428Y-108147381D01*
X101306190Y-108290238D01*
X101210952Y-108385476D01*
X101115714Y-108433095D01*
X99020476Y-71047381D02*
X99020476Y-70047381D01*
X99353810Y-70761667D01*
X99687143Y-70047381D01*
X99687143Y-71047381D01*
X100163333Y-71047381D02*
X100163333Y-70047381D01*
X100734762Y-71047381D02*
X100306190Y-70475952D01*
X100734762Y-70047381D02*
X100163333Y-70618810D01*
X101068095Y-70047381D02*
X101687143Y-70047381D01*
X101353809Y-70428333D01*
X101496667Y-70428333D01*
X101591905Y-70475952D01*
X101639524Y-70523571D01*
X101687143Y-70618810D01*
X101687143Y-70856905D01*
X101639524Y-70952143D01*
X101591905Y-70999762D01*
X101496667Y-71047381D01*
X101210952Y-71047381D01*
X101115714Y-70999762D01*
X101068095Y-70952143D01*
X137120476Y-109147381D02*
X137120476Y-108147381D01*
X137453810Y-108861667D01*
X137787143Y-108147381D01*
X137787143Y-109147381D01*
X138263333Y-109147381D02*
X138263333Y-108147381D01*
X138834762Y-109147381D02*
X138406190Y-108575952D01*
X138834762Y-108147381D02*
X138263333Y-108718810D01*
X139739524Y-108147381D02*
X139263333Y-108147381D01*
X139215714Y-108623571D01*
X139263333Y-108575952D01*
X139358571Y-108528333D01*
X139596667Y-108528333D01*
X139691905Y-108575952D01*
X139739524Y-108623571D01*
X139787143Y-108718810D01*
X139787143Y-108956905D01*
X139739524Y-109052143D01*
X139691905Y-109099762D01*
X139596667Y-109147381D01*
X139358571Y-109147381D01*
X139263333Y-109099762D01*
X139215714Y-109052143D01*
X137120476Y-71047381D02*
X137120476Y-70047381D01*
X137453810Y-70761667D01*
X137787143Y-70047381D01*
X137787143Y-71047381D01*
X138263333Y-71047381D02*
X138263333Y-70047381D01*
X138834762Y-71047381D02*
X138406190Y-70475952D01*
X138834762Y-70047381D02*
X138263333Y-70618810D01*
X139168095Y-70047381D02*
X139834762Y-70047381D01*
X139406190Y-71047381D01*
X118705381Y-115268333D02*
X119419667Y-115268333D01*
X119562524Y-115315953D01*
X119657762Y-115411191D01*
X119705381Y-115554048D01*
X119705381Y-115649286D01*
X119705381Y-114268333D02*
X119705381Y-114839762D01*
X119705381Y-114554048D02*
X118705381Y-114554048D01*
X118848238Y-114649286D01*
X118943476Y-114744524D01*
X118991095Y-114839762D01*
X122563000Y-111442095D02*
X122515381Y-111537333D01*
X122515381Y-111680190D01*
X122563000Y-111823048D01*
X122658238Y-111918286D01*
X122753476Y-111965905D01*
X122943952Y-112013524D01*
X123086810Y-112013524D01*
X123277286Y-111965905D01*
X123372524Y-111918286D01*
X123467762Y-111823048D01*
X123515381Y-111680190D01*
X123515381Y-111584952D01*
X123467762Y-111442095D01*
X123420143Y-111394476D01*
X123086810Y-111394476D01*
X123086810Y-111584952D01*
X123515381Y-110394476D02*
X123039190Y-110727810D01*
X123515381Y-110965905D02*
X122515381Y-110965905D01*
X122515381Y-110584952D01*
X122563000Y-110489714D01*
X122610619Y-110442095D01*
X122705857Y-110394476D01*
X122848714Y-110394476D01*
X122943952Y-110442095D01*
X122991571Y-110489714D01*
X123039190Y-110584952D01*
X123039190Y-110965905D01*
X122515381Y-109775429D02*
X122515381Y-109584952D01*
X122563000Y-109489714D01*
X122658238Y-109394476D01*
X122848714Y-109346857D01*
X123182048Y-109346857D01*
X123372524Y-109394476D01*
X123467762Y-109489714D01*
X123515381Y-109584952D01*
X123515381Y-109775429D01*
X123467762Y-109870667D01*
X123372524Y-109965905D01*
X123182048Y-110013524D01*
X122848714Y-110013524D01*
X122658238Y-109965905D01*
X122563000Y-109870667D01*
X122515381Y-109775429D01*
X122515381Y-109061143D02*
X123515381Y-108727810D01*
X122515381Y-108394476D01*
X122991571Y-108061143D02*
X122991571Y-107727809D01*
X123515381Y-107584952D02*
X123515381Y-108061143D01*
X122515381Y-108061143D01*
X122515381Y-107584952D01*
X123610619Y-107394476D02*
X123610619Y-106632571D01*
X123515381Y-106394476D02*
X122515381Y-106394476D01*
X122610619Y-105965905D02*
X122563000Y-105918286D01*
X122515381Y-105823048D01*
X122515381Y-105584952D01*
X122563000Y-105489714D01*
X122610619Y-105442095D01*
X122705857Y-105394476D01*
X122801095Y-105394476D01*
X122943952Y-105442095D01*
X123515381Y-106013524D01*
X123515381Y-105394476D01*
X123420143Y-104394476D02*
X123467762Y-104442095D01*
X123515381Y-104584952D01*
X123515381Y-104680190D01*
X123467762Y-104823048D01*
X123372524Y-104918286D01*
X123277286Y-104965905D01*
X123086810Y-105013524D01*
X122943952Y-105013524D01*
X122753476Y-104965905D01*
X122658238Y-104918286D01*
X122563000Y-104823048D01*
X122515381Y-104680190D01*
X122515381Y-104584952D01*
X122563000Y-104442095D01*
X122610619Y-104394476D01*
M02*
