M48
;DRILL file {KiCad 4.0.6+dfsg1-1} date Tue Feb 20 17:37:07 2018
;FORMAT={-:-/ absolute / inch / decimal}
FMAT,2
INCH,TZ
T1C0.016
T2C0.020
T3C0.028
T4C0.059
T5C0.106
%
G90
G05
M72
T1
X4.765Y-3.42
X4.8Y-3.795
X4.81Y-3.42
X4.9019Y-3.9554
X4.95Y-3.555
X4.95Y-3.9191
X4.9966Y-4.1159
X5.Y-3.4239
X5.05Y-3.4239
X5.05Y-4.29
X5.0514Y-3.951
X5.1Y-3.4272
X5.1473Y-3.92
X5.15Y-3.425
T2
X3.8703Y-2.925
X3.8703Y-4.425
X3.8936Y-2.8686
X3.8936Y-2.9814
X3.8936Y-4.3686
X3.8936Y-4.4814
X3.95Y-2.8453
X3.95Y-3.0047
X3.95Y-4.3453
X3.95Y-4.5047
X4.0064Y-2.8686
X4.0064Y-2.9814
X4.0064Y-4.3686
X4.0064Y-4.4814
X4.0297Y-2.925
X4.0297Y-4.425
X5.3703Y-2.925
X5.3703Y-4.425
X5.3936Y-2.8686
X5.3936Y-2.9814
X5.3936Y-4.3686
X5.3936Y-4.4814
X5.45Y-2.8453
X5.45Y-3.0047
X5.45Y-4.3453
X5.45Y-4.5047
X5.5064Y-2.8686
X5.5064Y-2.9814
X5.5064Y-4.3686
X5.5064Y-4.4814
X5.5297Y-2.925
X5.5297Y-4.425
T3
X4.725Y-4.15
X4.725Y-4.2287
X4.725Y-4.3075
X4.725Y-4.3862
T4
X3.425Y-2.45
X3.425Y-3.2
X3.475Y-4.25
X3.475Y-5.
X3.675Y-2.35
X3.675Y-3.1
X3.725Y-4.15
X3.725Y-4.9
X4.175Y-2.45
X4.175Y-3.2
X4.225Y-4.25
X4.225Y-5.
X4.425Y-2.35
X4.425Y-3.1
X4.475Y-4.15
X4.475Y-4.9
X4.925Y-2.45
X4.925Y-3.2
X4.975Y-4.25
X4.975Y-5.
X5.175Y-2.35
X5.175Y-3.1
X5.225Y-4.15
X5.225Y-4.9
X5.675Y-2.45
X5.675Y-3.2
X5.725Y-4.25
X5.725Y-5.
X5.925Y-2.35
X5.925Y-3.1
X5.975Y-4.15
X5.975Y-4.9
T5
X3.95Y-2.925
X3.95Y-4.425
X5.45Y-2.925
X5.45Y-4.425
T0
M30
