G04 #@! TF.FileFunction,Legend,Bot*
%FSLAX46Y46*%
G04 Gerber Fmt 4.6, Leading zero omitted, Abs format (unit mm)*
G04 Created by KiCad (PCBNEW 4.0.6+dfsg1-1) date Tue Feb 20 17:37:04 2018*
%MOMM*%
%LPD*%
G01*
G04 APERTURE LIST*
%ADD10C,0.100000*%
%ADD11C,0.150000*%
%ADD12C,0.120000*%
G04 APERTURE END LIST*
D10*
D11*
X131680000Y-97220000D02*
X131430000Y-97220000D01*
X131680000Y-89470000D02*
X131335000Y-89470000D01*
X113430000Y-89470000D02*
X113775000Y-89470000D01*
X113430000Y-97220000D02*
X113775000Y-97220000D01*
X131680000Y-97220000D02*
X131680000Y-89470000D01*
X113430000Y-97220000D02*
X113430000Y-89470000D01*
X131430000Y-97220000D02*
X131430000Y-99045000D01*
D12*
X118507000Y-100072000D02*
X120507000Y-100072000D01*
X120507000Y-102112000D02*
X118507000Y-102112000D01*
D11*
X132057381Y-92583095D02*
X132866905Y-92583095D01*
X132962143Y-92630714D01*
X133009762Y-92678333D01*
X133057381Y-92773571D01*
X133057381Y-92964048D01*
X133009762Y-93059286D01*
X132962143Y-93106905D01*
X132866905Y-93154524D01*
X132057381Y-93154524D01*
X132390714Y-94059286D02*
X133057381Y-94059286D01*
X132009762Y-93821190D02*
X132724048Y-93583095D01*
X132724048Y-94202143D01*
X119673666Y-99699143D02*
X119721285Y-99746762D01*
X119864142Y-99794381D01*
X119959380Y-99794381D01*
X120102238Y-99746762D01*
X120197476Y-99651524D01*
X120245095Y-99556286D01*
X120292714Y-99365810D01*
X120292714Y-99222952D01*
X120245095Y-99032476D01*
X120197476Y-98937238D01*
X120102238Y-98842000D01*
X119959380Y-98794381D01*
X119864142Y-98794381D01*
X119721285Y-98842000D01*
X119673666Y-98889619D01*
X119340333Y-98794381D02*
X118673666Y-98794381D01*
X119102238Y-99794381D01*
M02*
