EESchema Schematic File Version 4
LIBS:chordboard-cache
EELAYER 26 0
EELAYER END
$Descr A0 46811 33110
encoding utf-8
Sheet 1 1
Title ""
Date ""
Rev ""
Comp ""
Comment1 ""
Comment2 ""
Comment3 ""
Comment4 ""
$EndDescr
$Comp
L chordboard-components:Teensy3.6 U2
U 1 1 5BF71C9C
P 18050 5450
F 0 "U2" H 18050 7837 60  0000 C CNN
F 1 "Teensy3.6" H 18050 7731 60  0000 C CNN
F 2 "chordboard-footprints:Teensy35_36" H 18050 5450 60  0001 C CNN
F 3 "" H 18050 5450 60  0000 C CNN
	1    18050 5450
	1    0    0    -1  
$EndComp
Text Label 17050 3650 2    50   ~ 0
LED_DIN
Text Label 17050 3750 2    50   ~ 0
LED_CLK
Text Label 17050 3850 2    50   ~ 0
LED_CS
Text Label 20200 7450 0    50   ~ 0
SDA
Text Label 20200 7350 0    50   ~ 0
SCL
Wire Wire Line
	19050 7350 20050 7350
Wire Wire Line
	20200 7450 19950 7450
Wire Wire Line
	20050 7350 20050 7000
Connection ~ 20050 7350
Wire Wire Line
	20050 7350 20200 7350
Wire Wire Line
	19950 7450 19950 7000
Connection ~ 19950 7450
Wire Wire Line
	19950 7450 19050 7450
$Comp
L Device:R R2
U 1 1 5C841DD9
P 19950 6850
F 0 "R2" V 19743 6850 50  0000 C CNN
F 1 "R" V 19834 6850 50  0000 C CNN
F 2 "Resistor_THT:R_Axial_DIN0204_L3.6mm_D1.6mm_P7.62mm_Horizontal" V 19880 6850 50  0001 C CNN
F 3 "~" H 19950 6850 50  0001 C CNN
	1    19950 6850
	-1   0    0    1   
$EndComp
$Comp
L Device:R R3
U 1 1 5C842523
P 20050 6850
F 0 "R3" V 19843 6850 50  0000 C CNN
F 1 "R" V 19934 6850 50  0000 C CNN
F 2 "Resistor_THT:R_Axial_DIN0204_L3.6mm_D1.6mm_P7.62mm_Horizontal" V 19980 6850 50  0001 C CNN
F 3 "~" H 20050 6850 50  0001 C CNN
	1    20050 6850
	-1   0    0    1   
$EndComp
Wire Wire Line
	19950 6700 19950 6550
Wire Wire Line
	19950 6550 20000 6550
Wire Wire Line
	20050 6550 20050 6700
Wire Wire Line
	20000 6550 20000 6100
Connection ~ 20000 6550
Wire Wire Line
	20000 6550 20050 6550
$Comp
L power:+3.3V #PWR0110
U 1 1 5C92DEBE
P 20000 6100
F 0 "#PWR0110" H 20000 5950 50  0001 C CNN
F 1 "+3.3V" H 20015 6273 50  0000 C CNN
F 2 "" H 20000 6100 50  0001 C CNN
F 3 "" H 20000 6100 50  0001 C CNN
	1    20000 6100
	1    0    0    -1  
$EndComp
Wire Wire Line
	17050 6050 16600 6050
$Comp
L Switch:SW_SPST SW65
U 1 1 5CC03083
P 16400 6050
F 0 "SW65" H 16400 6285 50  0000 C CNN
F 1 "SW_SPST" H 16400 6194 50  0000 C CNN
F 2 "Button_Switch_SMD:SW_SPST_EVQP7A" H 16400 6050 50  0001 C CNN
F 3 "" H 16400 6050 50  0001 C CNN
	1    16400 6050
	1    0    0    -1  
$EndComp
Wire Wire Line
	16200 6050 15800 6050
$Comp
L power:GND #PWR0112
U 1 1 5CC7D19A
P 15800 6850
F 0 "#PWR0112" H 15800 6600 50  0001 C CNN
F 1 "GND" H 15805 6677 50  0000 C CNN
F 2 "" H 15800 6850 50  0001 C CNN
F 3 "" H 15800 6850 50  0001 C CNN
	1    15800 6850
	-1   0    0    -1  
$EndComp
Wire Wire Line
	17050 5850 16550 5850
Wire Wire Line
	16550 5850 16550 5750
$Comp
L power:+3.3V #PWR0113
U 1 1 5CCF8650
P 16550 5750
F 0 "#PWR0113" H 16550 5600 50  0001 C CNN
F 1 "+3.3V" H 16565 5923 50  0000 C CNN
F 2 "" H 16550 5750 50  0001 C CNN
F 3 "" H 16550 5750 50  0001 C CNN
	1    16550 5750
	-1   0    0    -1  
$EndComp
Wire Wire Line
	15800 6050 15800 5950
Wire Wire Line
	15800 5950 17050 5950
Connection ~ 15800 6050
$Comp
L Connector_Generic:Conn_01x05 J4
U 1 1 5C4885BD
P 25650 6900
F 0 "J4" H 25730 6942 50  0000 L CNN
F 1 "Conn_01x05" H 25730 6851 50  0000 L CNN
F 2 "Connector_PinSocket_2.54mm:PinSocket_1x05_P2.54mm_Vertical" H 25650 6900 50  0001 C CNN
F 3 "~" H 25650 6900 50  0001 C CNN
	1    25650 6900
	1    0    0    -1  
$EndComp
$Comp
L power:+3.3V #PWR0117
U 1 1 5C4887DF
P 25300 6600
F 0 "#PWR0117" H 25300 6450 50  0001 C CNN
F 1 "+3.3V" H 25315 6773 50  0000 C CNN
F 2 "" H 25300 6600 50  0001 C CNN
F 3 "" H 25300 6600 50  0001 C CNN
	1    25300 6600
	1    0    0    -1  
$EndComp
Wire Wire Line
	25300 6600 25300 6700
Wire Wire Line
	25300 6700 25450 6700
Wire Wire Line
	25450 7100 25300 7100
Wire Wire Line
	25300 7100 25300 7300
$Comp
L power:GND #PWR0118
U 1 1 5C589DF7
P 25300 7300
F 0 "#PWR0118" H 25300 7050 50  0001 C CNN
F 1 "GND" H 25305 7127 50  0000 C CNN
F 2 "" H 25300 7300 50  0001 C CNN
F 3 "" H 25300 7300 50  0001 C CNN
	1    25300 7300
	1    0    0    -1  
$EndComp
Text Label 25450 6800 2    50   ~ 0
SDA
Text Label 25450 6900 2    50   ~ 0
SCL
Text Label 17050 6350 2    50   ~ 0
RX5
Text Label 17050 6250 2    50   ~ 0
TX5
Text Label 17050 4250 2    50   ~ 0
RE3S
Text Label 17050 6950 2    50   ~ 0
AN1
Text Label 17050 7050 2    50   ~ 0
AN2
Wire Wire Line
	17050 7150 15800 7150
Wire Wire Line
	15800 7150 15800 7300
$Comp
L power:GND #PWR0119
U 1 1 5CA304C7
P 15800 7300
F 0 "#PWR0119" H 15800 7050 50  0001 C CNN
F 1 "GND" H 15805 7127 50  0000 C CNN
F 2 "" H 15800 7300 50  0001 C CNN
F 3 "" H 15800 7300 50  0001 C CNN
	1    15800 7300
	-1   0    0    -1  
$EndComp
Wire Wire Line
	16600 6150 17050 6150
Wire Wire Line
	16200 6150 15800 6150
Connection ~ 15800 6150
Wire Wire Line
	15800 6150 15800 6050
$Comp
L power:GNDA #PWR0120
U 1 1 5CBBF1BA
P 19050 6750
F 0 "#PWR0120" H 19050 6500 50  0001 C CNN
F 1 "GNDA" V 19055 6622 50  0000 R CNN
F 2 "" H 19050 6750 50  0001 C CNN
F 3 "" H 19050 6750 50  0001 C CNN
	1    19050 6750
	0    -1   -1   0   
$EndComp
$Comp
L power:+5V #PWR0121
U 1 1 5CC45F5E
P 20250 3650
F 0 "#PWR0121" H 20250 3500 50  0001 C CNN
F 1 "+5V" H 20265 3823 50  0000 C CNN
F 2 "" H 20250 3650 50  0001 C CNN
F 3 "" H 20250 3650 50  0001 C CNN
	1    20250 3650
	1    0    0    -1  
$EndComp
NoConn ~ 17050 4050
NoConn ~ 17050 4150
NoConn ~ 17050 4350
NoConn ~ 17050 4450
NoConn ~ 17050 4550
NoConn ~ 17050 4650
NoConn ~ 17050 7250
NoConn ~ 17050 7350
NoConn ~ 19050 7050
NoConn ~ 19050 6950
Text Label 19050 6850 0    50   ~ 0
AU_3V3
Text Label 17050 3350 2    50   ~ 0
AU_GND
Text Label 19050 6950 0    50   ~ 0
AU_LRCK
NoConn ~ 19050 6850
Text Label 17050 4050 2    50   ~ 0
AU_MEMCS
Text Label 17050 4150 2    50   ~ 0
AU_MOSI
Text Label 17050 4350 2    50   ~ 0
AU_BCK
Text Label 17050 4450 2    50   ~ 0
AU_SDCS
Text Label 17050 4550 2    50   ~ 0
AU_MCK
Text Label 17050 4650 2    50   ~ 0
AU_MISO
Text Label 19050 7050 0    50   ~ 0
AU_TXD
Text Label 17050 7450 2    50   ~ 0
AU_AN
Text Label 17050 7350 2    50   ~ 0
AU_SCK
Text Label 17050 7250 2    50   ~ 0
AU_RXD
NoConn ~ 17050 7450
Text Label 17050 5550 2    50   ~ 0
IO_CS
Text Label 17050 5650 2    50   ~ 0
IO_SCK
Text Label 17050 3450 2    50   ~ 0
IO_MOSI
Text Label 17050 3550 2    50   ~ 0
IO_MISO
Text Label 17050 4850 2    50   ~ 0
IO_SS1
Text Label 17050 4950 2    50   ~ 0
IO_SS2
Text Label 17050 6850 2    50   ~ 0
IO_SS3
Text Label 17050 5450 2    50   ~ 0
IO_DC
Text Label 17050 5350 2    50   ~ 0
IO_RST
Wire Wire Line
	22400 8500 21650 8500
Wire Wire Line
	21650 8500 21650 8800
$Comp
L power:GND #PWR0142
U 1 1 67100615
P 21650 8800
F 0 "#PWR0142" H 21650 8550 50  0001 C CNN
F 1 "GND" H 21655 8627 50  0000 C CNN
F 2 "" H 21650 8800 50  0001 C CNN
F 3 "" H 21650 8800 50  0001 C CNN
	1    21650 8800
	-1   0    0    -1  
$EndComp
Wire Wire Line
	22900 8500 23100 8500
Wire Wire Line
	23100 8500 23100 8300
Wire Wire Line
	22900 8600 23200 8600
Wire Wire Line
	23200 8600 23200 8300
$Comp
L power:+5V #PWR0143
U 1 1 6710061F
P 23100 8300
F 0 "#PWR0143" H 23100 8150 50  0001 C CNN
F 1 "+5V" H 23115 8473 50  0000 C CNN
F 2 "" H 23100 8300 50  0001 C CNN
F 3 "" H 23100 8300 50  0001 C CNN
	1    23100 8300
	1    0    0    -1  
$EndComp
$Comp
L power:+3.3V #PWR0144
U 1 1 67100625
P 23200 8300
F 0 "#PWR0144" H 23200 8150 50  0001 C CNN
F 1 "+3.3V" H 23215 8473 50  0000 C CNN
F 2 "" H 23200 8300 50  0001 C CNN
F 3 "" H 23200 8300 50  0001 C CNN
	1    23200 8300
	1    0    0    -1  
$EndComp
Text Label 22900 9000 0    50   ~ 0
LED_DIN
Text Label 22900 9100 0    50   ~ 0
LED_CLK
Text Label 22900 9200 0    50   ~ 0
LED_CS
Text Label 22900 8700 0    50   ~ 0
IO_SS1
Text Label 22900 8800 0    50   ~ 0
IO_SS2
Text Label 22900 8900 0    50   ~ 0
IO_SS3
Text Label 22400 9100 2    50   ~ 0
IO_CS
Text Label 22400 8800 2    50   ~ 0
IO_SCK
Text Label 22400 8900 2    50   ~ 0
IO_DC
Text Label 22400 9000 2    50   ~ 0
IO_RST
Text Label 22400 8700 2    50   ~ 0
IO_MOSI
Text Label 22400 8600 2    50   ~ 0
IO_MISO
$Comp
L Mechanical:MountingHole H9
U 1 1 671782C8
P 17500 1200
F 0 "H9" H 17600 1246 50  0000 L CNN
F 1 "MountingHole" H 17600 1155 50  0000 L CNN
F 2 "MountingHole:MountingHole_3.2mm_M3_Pad_Via" H 17500 1200 50  0001 C CNN
F 3 "~" H 17500 1200 50  0001 C CNN
	1    17500 1200
	1    0    0    -1  
$EndComp
$Comp
L Mechanical:MountingHole H10
U 1 1 671782CE
P 17500 1400
F 0 "H10" H 17600 1446 50  0000 L CNN
F 1 "MountingHole" H 17600 1355 50  0000 L CNN
F 2 "MountingHole:MountingHole_3.2mm_M3_Pad_Via" H 17500 1400 50  0001 C CNN
F 3 "~" H 17500 1400 50  0001 C CNN
	1    17500 1400
	1    0    0    -1  
$EndComp
$Comp
L Mechanical:MountingHole H11
U 1 1 671782D4
P 17500 1600
F 0 "H11" H 17600 1646 50  0000 L CNN
F 1 "MountingHole" H 17600 1555 50  0000 L CNN
F 2 "MountingHole:MountingHole_3.2mm_M3_Pad_Via" H 17500 1600 50  0001 C CNN
F 3 "~" H 17500 1600 50  0001 C CNN
	1    17500 1600
	1    0    0    -1  
$EndComp
$Comp
L Mechanical:MountingHole H12
U 1 1 671782DA
P 17500 1800
F 0 "H12" H 17600 1846 50  0000 L CNN
F 1 "MountingHole" H 17600 1755 50  0000 L CNN
F 2 "MountingHole:MountingHole_3.2mm_M3_Pad_Via" H 17500 1800 50  0001 C CNN
F 3 "~" H 17500 1800 50  0001 C CNN
	1    17500 1800
	1    0    0    -1  
$EndComp
$Comp
L chordboard-components:esp32-ttgo-1.8 esp1
U 1 1 67265F97
P 23300 3450
F 0 "esp1" H 23275 4215 50  0000 C CNN
F 1 "esp32-ttgo-1.8" H 23275 4124 50  0000 C CNN
F 2 "chordboard-footprints:esp32-ttgo-1.8" H 23300 3450 50  0001 C CNN
F 3 "" H 23300 3450 50  0001 C CNN
	1    23300 3450
	1    0    0    -1  
$EndComp
Wire Wire Line
	23850 4450 24550 4450
Wire Wire Line
	24550 4450 24550 4150
Text Label 24550 4150 0    50   ~ 0
5V_ESP
Wire Wire Line
	23850 2950 24650 2950
Wire Wire Line
	24650 2950 24650 3250
Wire Wire Line
	22700 4550 22500 4550
Wire Wire Line
	22500 4550 22500 4800
$Comp
L power:GND #PWR0145
U 1 1 673D5A5E
P 22500 4800
F 0 "#PWR0145" H 22500 4550 50  0001 C CNN
F 1 "GND" H 22505 4627 50  0000 C CNN
F 2 "" H 22500 4800 50  0001 C CNN
F 3 "" H 22500 4800 50  0001 C CNN
	1    22500 4800
	1    0    0    -1  
$EndComp
$Comp
L power:GND #PWR0153
U 1 1 673D5C1F
P 24650 3250
F 0 "#PWR0153" H 24650 3000 50  0001 C CNN
F 1 "GND" H 24655 3077 50  0000 C CNN
F 2 "" H 24650 3250 50  0001 C CNN
F 3 "" H 24650 3250 50  0001 C CNN
	1    24650 3250
	1    0    0    -1  
$EndComp
Text Label 22700 4150 2    50   ~ 0
ESP_RX2
Text Label 22700 4250 2    50   ~ 0
ESP_TX2
Text Label 17050 5050 2    50   ~ 0
TX1
Text Label 17050 5150 2    50   ~ 0
RX2
Text Label 23850 3250 0    50   ~ 0
ESP_TX0
Text Label 23850 3350 0    50   ~ 0
ESP_RX0
Text Label 23850 3950 0    50   ~ 0
ESP_D0
Text Label 22700 3050 2    50   ~ 0
ESP_RST
Wire Wire Line
	22700 4350 22500 4350
Wire Wire Line
	22500 4350 22500 4550
Connection ~ 22500 4550
$Comp
L Connector_Generic:Conn_02x20_Odd_Even CBIO2
U 1 1 67999843
P 22600 9400
F 0 "CBIO2" H 22650 10517 50  0000 C CNN
F 1 "Conn_02x20_Odd_Even" H 22650 10426 50  0000 C CNN
F 2 "Connector_IDC:IDC-Header_2x20_P2.54mm_Vertical" H 22600 9400 50  0001 C CNN
F 3 "~" H 22600 9400 50  0001 C CNN
	1    22600 9400
	1    0    0    -1  
$EndComp
Text Label 17050 6750 2    50   ~ 0
CS4
Text Label 17050 6450 2    50   ~ 0
CS1
Text Label 17050 6550 2    50   ~ 0
CS2
Text Label 17050 6650 2    50   ~ 0
CS3
Text Label 22400 9500 2    50   ~ 0
CS4
Text Label 22400 9200 2    50   ~ 0
CS1
Text Label 22400 9300 2    50   ~ 0
CS2
Text Label 22400 9400 2    50   ~ 0
CS3
Wire Wire Line
	15800 6150 15800 6850
$Comp
L chordboard-components:DMPCM5102 U3
U 1 1 5C094BC9
P 23100 6450
F 0 "U3" H 23175 7187 60  0000 C CNN
F 1 "DMPCM5102" H 23175 7081 60  0000 C CNN
F 2 "chordboard-footprints:DMPCM5102_BLACK" H 23100 6450 60  0001 C CNN
F 3 "" H 23100 6450 60  0001 C CNN
	1    23100 6450
	1    0    0    -1  
$EndComp
Text Label 22700 3750 2    50   ~ 0
ESP_BCK
Text Label 22700 3850 2    50   ~ 0
ESP_DIN
Text Label 22700 3950 2    50   ~ 0
ESP_LCK
Wire Wire Line
	22550 6000 22150 6000
Wire Wire Line
	22150 6000 22150 5750
Text Label 22150 5750 0    50   ~ 0
5V_DAC
Text Label 19050 6650 0    50   ~ 0
5v_TEE
$Comp
L Switch:SW_DIP_x12 SW1
U 1 1 5C098E6F
P 20650 4300
F 0 "SW1" V 20604 5030 50  0000 L CNN
F 1 "SW_DIP_x12" V 20695 5030 50  0000 L CNN
F 2 "Button_Switch_THT:SW_DIP_SPSTx12_Slide_9.78x32.66mm_W7.62mm_P2.54mm" H 20650 4300 50  0001 C CNN
F 3 "" H 20650 4300 50  0001 C CNN
	1    20650 4300
	0    1    1    0   
$EndComp
Text Label 20150 4600 3    50   ~ 0
5V_TEE
Wire Wire Line
	20150 4000 20150 3800
Text Label 20350 4600 3    50   ~ 0
5V_DAC
Text Label 20250 4600 3    50   ~ 0
5V_ESP
Wire Wire Line
	20250 4000 20250 3800
Wire Wire Line
	20350 4000 20350 3800
Wire Wire Line
	20150 3800 20250 3800
Wire Wire Line
	20250 3800 20350 3800
Connection ~ 20250 3800
Wire Wire Line
	20250 3800 20250 3650
Text Label 20550 4600 3    50   ~ 0
ESP_BCK
Text Label 20750 4600 3    50   ~ 0
ESP_DIN
Text Label 20950 4600 3    50   ~ 0
ESP_LCK
Text Label 20450 4000 1    50   ~ 0
BCK
Text Label 20650 4000 1    50   ~ 0
DIN
Text Label 20850 4000 1    50   ~ 0
LCK
Wire Wire Line
	22550 7000 21850 7000
Wire Wire Line
	21850 7000 21850 6100
Wire Wire Line
	21850 6100 22550 6100
Wire Wire Line
	22550 6900 22300 6900
Wire Wire Line
	22300 6900 22300 6500
Wire Wire Line
	22300 6500 22550 6500
Wire Wire Line
	22300 6500 22300 6400
Wire Wire Line
	22300 6400 22550 6400
Connection ~ 22300 6500
Wire Wire Line
	22300 6400 22300 6300
Wire Wire Line
	22300 6300 22550 6300
Connection ~ 22300 6400
Wire Wire Line
	22300 6300 22300 6200
Wire Wire Line
	22300 6200 22550 6200
Connection ~ 22300 6300
$Comp
L power:GND #PWR0101
U 1 1 5C0A234B
P 22300 6900
F 0 "#PWR0101" H 22300 6650 50  0001 C CNN
F 1 "GND" H 22305 6727 50  0000 C CNN
F 2 "" H 22300 6900 50  0001 C CNN
F 3 "" H 22300 6900 50  0001 C CNN
	1    22300 6900
	0    1    1    0   
$EndComp
Connection ~ 22300 6900
Text Label 20550 4000 1    50   ~ 0
BCK
Text Label 20750 4000 1    50   ~ 0
DIN
Text Label 20950 4000 1    50   ~ 0
LCK
Text Label 20850 4600 3    50   ~ 0
AU_LRCK
Text Label 20650 4600 3    50   ~ 0
AU_TXD
Text Label 20450 4600 3    50   ~ 0
AU_BCK
Text Label 22550 6600 2    50   ~ 0
BCK
Text Label 22550 6700 2    50   ~ 0
DIN
Text Label 22550 6800 2    50   ~ 0
LCK
Text Label 21050 4600 3    50   ~ 0
ESP_TX0
Text Label 21150 4600 3    50   ~ 0
ESP_RX0
Text Label 21150 4000 1    50   ~ 0
TX1
Text Label 21050 4000 1    50   ~ 0
RX2
Text Label 19050 7250 0    50   ~ 0
ESP_D0
Text Label 19050 7150 0    50   ~ 0
ESP_RST
Wire Wire Line
	22700 4150 22200 4150
Wire Wire Line
	22700 4250 22200 4250
Text Label 22200 4150 2    50   ~ 0
TX5
Text Label 22200 4250 2    50   ~ 0
RX5
Text Label 17050 5250 2    50   ~ 0
DBG_TX
Text Label 22700 2950 2    50   ~ 0
3V3_ESP
$Comp
L Connector_Generic:Conn_01x04 J3
U 1 1 5C0AAE6E
P 21000 6750
F 0 "J3" H 21080 6742 50  0000 L CNN
F 1 "Conn_01x04" H 21080 6651 50  0000 L CNN
F 2 "Connector_JST:JST_EH_B04B-EH-A_1x04_P2.50mm_Vertical" H 21000 6750 50  0001 C CNN
F 3 "~" H 21000 6750 50  0001 C CNN
	1    21000 6750
	1    0    0    -1  
$EndComp
$Comp
L Connector:Screw_Terminal_01x02 J1
U 1 1 5C0AB2FB
P 20750 2350
F 0 "J1" H 20830 2342 50  0000 L CNN
F 1 "Screw_Terminal_01x02" H 20830 2251 50  0000 L CNN
F 2 "TerminalBlock_Phoenix:TerminalBlock_Phoenix_PT-1,5-2-3.5-H_1x02_P3.50mm_Horizontal" H 20750 2350 50  0001 C CNN
F 3 "~" H 20750 2350 50  0001 C CNN
	1    20750 2350
	1    0    0    -1  
$EndComp
Wire Wire Line
	20550 2350 20400 2350
Wire Wire Line
	20400 2350 20400 2150
Wire Wire Line
	20550 2450 20400 2450
Wire Wire Line
	20400 2450 20400 2650
$Comp
L power:+5V #PWR0102
U 1 1 5C0AD89F
P 20400 2050
F 0 "#PWR0102" H 20400 1900 50  0001 C CNN
F 1 "+5V" H 20415 2223 50  0000 C CNN
F 2 "" H 20400 2050 50  0001 C CNN
F 3 "" H 20400 2050 50  0001 C CNN
	1    20400 2050
	1    0    0    -1  
$EndComp
$Comp
L power:GND #PWR0103
U 1 1 5C0AD933
P 20400 2650
F 0 "#PWR0103" H 20400 2400 50  0001 C CNN
F 1 "GND" H 20405 2477 50  0000 C CNN
F 2 "" H 20400 2650 50  0001 C CNN
F 3 "" H 20400 2650 50  0001 C CNN
	1    20400 2650
	1    0    0    -1  
$EndComp
$Comp
L Connector_Generic:Conn_01x03 J2
U 1 1 5C0ADE6C
P 24050 6150
F 0 "J2" H 24130 6192 50  0000 L CNN
F 1 "Conn_01x03" H 24130 6101 50  0000 L CNN
F 2 "Connector_JST:JST_EH_B03B-EH-A_1x03_P2.50mm_Vertical" H 24050 6150 50  0001 C CNN
F 3 "~" H 24050 6150 50  0001 C CNN
	1    24050 6150
	1    0    0    -1  
$EndComp
Wire Wire Line
	23800 6050 23850 6050
Wire Wire Line
	23800 6150 23850 6150
Wire Wire Line
	23800 6250 23850 6250
Wire Wire Line
	20400 2150 19950 2150
Connection ~ 20400 2150
Wire Wire Line
	20400 2150 20400 2050
$Comp
L Device:R R1
U 1 1 5C0B4702
P 19800 2150
F 0 "R1" V 19593 2150 50  0000 C CNN
F 1 "R" V 19684 2150 50  0000 C CNN
F 2 "Resistor_THT:R_Axial_DIN0204_L3.6mm_D1.6mm_P7.62mm_Horizontal" V 19730 2150 50  0001 C CNN
F 3 "~" H 19800 2150 50  0001 C CNN
	1    19800 2150
	0    -1   -1   0   
$EndComp
$Comp
L Device:LED D1
U 1 1 5C0B4918
P 19500 2150
F 0 "D1" H 19491 2366 50  0000 C CNN
F 1 "LED" H 19491 2275 50  0000 C CNN
F 2 "LED_THT:LED_D1.8mm_W3.3mm_H2.4mm" H 19500 2150 50  0001 C CNN
F 3 "~" H 19500 2150 50  0001 C CNN
	1    19500 2150
	1    0    0    -1  
$EndComp
Wire Wire Line
	19350 2150 19100 2150
Wire Wire Line
	19100 2150 19100 2450
$Comp
L power:GND #PWR0105
U 1 1 5C0B5F80
P 19100 2450
F 0 "#PWR0105" H 19100 2200 50  0001 C CNN
F 1 "GND" H 19105 2277 50  0000 C CNN
F 2 "" H 19100 2450 50  0001 C CNN
F 3 "" H 19100 2450 50  0001 C CNN
	1    19100 2450
	1    0    0    -1  
$EndComp
Wire Wire Line
	17050 3350 16200 3350
Wire Wire Line
	16200 3350 16200 3650
$Comp
L power:GND #PWR0104
U 1 1 5C0B7F9B
P 16200 3650
F 0 "#PWR0104" H 16200 3400 50  0001 C CNN
F 1 "GND" H 16205 3477 50  0000 C CNN
F 2 "" H 16200 3650 50  0001 C CNN
F 3 "" H 16200 3650 50  0001 C CNN
	1    16200 3650
	-1   0    0    -1  
$EndComp
Text Label 20800 6850 2    50   ~ 0
DBG_TX
Wire Wire Line
	20800 6950 20750 6950
Wire Wire Line
	20750 6950 20750 7050
$Comp
L power:GND #PWR0106
U 1 1 5C0BBB7D
P 20750 7050
F 0 "#PWR0106" H 20750 6800 50  0001 C CNN
F 1 "GND" H 20755 6877 50  0000 C CNN
F 2 "" H 20750 7050 50  0001 C CNN
F 3 "" H 20750 7050 50  0001 C CNN
	1    20750 7050
	1    0    0    -1  
$EndComp
Text Label 17050 3950 2    50   ~ 0
DEBUG_5
Text Label 19050 7550 0    50   ~ 0
DEBUG_17
Text Label 20800 6750 2    50   ~ 0
DEBUG_17
Text Label 20800 6650 2    50   ~ 0
DEBUG_5
$Comp
L Regulator_Linear:TPS73133DBV U4
U 1 1 5BF8AEBD
P 27400 7500
F 0 "U4" H 27400 7842 50  0000 C CNN
F 1 "TPS73133DBV" H 27400 7751 50  0000 C CNN
F 2 "Package_TO_SOT_SMD:SOT-23-5" H 27400 7825 50  0001 C CIN
F 3 "http://www.ti.com/lit/ds/symlink/tps731.pdf" H 27400 7450 50  0001 C CNN
	1    27400 7500
	1    0    0    -1  
$EndComp
$Comp
L Regulator_Linear:LP5907MFX-1.8 U5
U 1 1 5BF9D0E5
P 28500 7500
F 0 "U5" H 28500 7867 50  0000 C CNN
F 1 "LP5907MFX-1.8" H 28500 7776 50  0000 C CNN
F 2 "Package_TO_SOT_SMD:SOT-23-5" H 28500 7850 50  0001 C CNN
F 3 "http://www.ti.com/lit/ds/symlink/lp5907.pdf" H 28500 8000 50  0001 C CNN
	1    28500 7500
	1    0    0    -1  
$EndComp
$Comp
L ESP32-WROVER-I:ESP32-WROVER-I A1
U 1 1 5C0FB278
P 3600 4350
F 0 "A1" H 3600 5717 50  0000 C CNN
F 1 "ESP32-WROVER-I" H 3600 5626 50  0000 C CNN
F 2 "ESP32-WROVER-I:XCVR_ESP32-WROVER-I" H 3600 4350 50  0001 L BNN
F 3 "Unavailable" H 3600 4350 50  0001 L BNN
F 4 "None" H 3600 4350 50  0001 L BNN "Field4"
F 5 "Module Espressif Systems" H 3600 4350 50  0001 L BNN "Field5"
F 6 "ESP32-WROVER-I" H 3600 4350 50  0001 L BNN "Field6"
F 7 "Module: combo; GPIO, I2C x2, I2S x2, SDIO, SPI x3, UART x3; U.FL" H 3600 4350 50  0001 L BNN "Field7"
F 8 "Espressif Systems" H 3600 4350 50  0001 L BNN "Field8"
	1    3600 4350
	1    0    0    -1  
$EndComp
$Comp
L Device:R R11
U 1 1 5C0FBFC5
P 1650 3850
F 0 "R11" V 1700 3700 50  0000 C CNN
F 1 "10K" V 1700 4050 50  0000 C CNN
F 2 "Resistor_SMD:R_0603_1608Metric_Pad1.05x0.95mm_HandSolder" V 1580 3850 50  0001 C CNN
F 3 "~" H 1650 3850 50  0001 C CNN
	1    1650 3850
	0    -1   -1   0   
$EndComp
$Comp
L Device:R R10
U 1 1 5C0FC27A
P 1650 3650
F 0 "R10" V 1700 3500 50  0000 C CNN
F 1 "10K" V 1700 3850 50  0000 C CNN
F 2 "Resistor_SMD:R_0603_1608Metric_Pad1.05x0.95mm_HandSolder" V 1580 3650 50  0001 C CNN
F 3 "~" H 1650 3650 50  0001 C CNN
	1    1650 3650
	0    -1   -1   0   
$EndComp
$Comp
L Device:C C13
U 1 1 5C0FC504
P 4650 3450
F 0 "C13" H 4700 3550 50  0000 L CNN
F 1 "0.1uF" H 4700 3350 50  0000 L CNN
F 2 "Capacitor_SMD:C_0603_1608Metric" H 4688 3300 50  0001 C CNN
F 3 "~" H 4650 3450 50  0001 C CNN
	1    4650 3450
	-1   0    0    1   
$EndComp
$Comp
L Device:CP C14
U 1 1 5C0FC50A
P 4850 3450
F 0 "C14" H 4732 3496 50  0000 R CNN
F 1 "10uF" H 4732 3405 50  0000 R CNN
F 2 "Capacitor_SMD:C_1206_3216Metric" H 4888 3300 50  0001 C CNN
F 3 "~" H 4850 3450 50  0001 C CNN
	1    4850 3450
	-1   0    0    -1  
$EndComp
Wire Wire Line
	1800 3650 3000 3650
Wire Wire Line
	3000 3850 1800 3850
Wire Wire Line
	4850 3250 4850 3300
Wire Wire Line
	4200 3250 4650 3250
Wire Wire Line
	4650 3300 4650 3250
Connection ~ 4650 3250
Wire Wire Line
	4650 3250 4850 3250
Wire Wire Line
	4650 3600 4650 3650
Wire Wire Line
	4650 3650 4750 3650
Wire Wire Line
	4850 3650 4850 3600
Wire Wire Line
	4750 3650 4750 3700
Connection ~ 4750 3650
Wire Wire Line
	4750 3650 4850 3650
Text Label 4750 3700 3    50   ~ 0
ESP_GND
Wire Wire Line
	4200 5350 4400 5350
Wire Wire Line
	4400 5350 4400 5550
Text Label 4400 5550 3    50   ~ 0
ESP_GND
Wire Wire Line
	1500 3650 1100 3650
Wire Wire Line
	1100 3650 1100 3850
Wire Wire Line
	1100 3850 1500 3850
Wire Wire Line
	1100 3650 1100 3400
Connection ~ 1100 3650
Text Label 1100 3400 0    50   ~ 0
ESP_VDD
Wire Wire Line
	4200 4450 8250 4450
Wire Wire Line
	4200 4550 8250 4550
$Comp
L Interface_USB:FT231XQ U1
U 1 1 5C28A5A1
P 8950 5050
F 0 "U1" H 8950 6128 50  0000 C CNN
F 1 "FT231XQ" H 8950 6037 50  0000 C CNN
F 2 "Package_DFN_QFN:QFN-20-1EP_4x4mm_P0.5mm_EP2.5x2.5mm" H 9450 4200 50  0001 C CNN
F 3 "http://www.ftdichip.com/Products/ICs/FT231X.html" H 8950 5050 50  0001 C CNN
	1    8950 5050
	-1   0    0    -1  
$EndComp
Text Label 3000 5150 2    50   ~ 0
LRCK_OUT
$Comp
L Connector:USB_C_Receptacle_USB2.0 J7
U 1 1 5C317B84
P 10950 4750
F 0 "J7" H 11055 5617 50  0000 C CNN
F 1 "USB_C_Receptacle_USB2.0" H 11055 5526 50  0000 C CNN
F 2 "Connector_USB:USB_C_Receptacle_Amphenol_12401610E4-2A" H 11100 4750 50  0001 C CNN
F 3 "https://www.usb.org/sites/default/files/documents/usb_type-c.zip" H 11100 4750 50  0001 C CNN
	1    10950 4750
	-1   0    0    -1  
$EndComp
$Comp
L MCU_NXP_Kinetis:MKL26Z64VFT4 U13
U 1 1 5C3283C2
P 23650 14900
F 0 "U13" H 23650 17278 50  0000 C CNN
F 1 "MKL26Z64VFT4" H 23650 17187 50  0000 C CNN
F 2 "Package_DFN_QFN:QFN-48-1EP_7x7mm_P0.5mm_EP5.15x5.15mm" H 23900 12875 50  0001 L TNN
F 3 "http://www.nxp.com/docs/en/data-sheet/KL26P64M48SF5.pdf" H 23950 12600 50  0001 L BNN
	1    23650 14900
	1    0    0    -1  
$EndComp
$Comp
L chordboard-components:SGTL5000 U9
U 1 1 5C386953
P 37150 7650
F 0 "U9" H 37150 8900 60  0000 C CNN
F 1 "SGTL5000" H 37150 8794 60  0000 C CNN
F 2 "Package_DFN_QFN:QFN-32-1EP_5x5mm_P0.5mm_EP3.6x3.6mm" H 37150 7700 60  0001 C CNN
F 3 "" H 37150 7700 60  0000 C CNN
	1    37150 7650
	1    0    0    -1  
$EndComp
Wire Wire Line
	36450 7350 35400 7350
Wire Wire Line
	36450 7450 35400 7450
Wire Wire Line
	36450 7550 35400 7550
Wire Wire Line
	36450 7650 35400 7650
Wire Wire Line
	36450 7750 35400 7750
Text Label 35400 7550 2    50   ~ 0
DAC_IN_LRCK
Text Label 35400 7650 2    50   ~ 0
DAC_IN_TX
Text Label 35400 7450 2    50   ~ 0
DAC_IN_BCK
Text Label 35400 7750 2    50   ~ 0
DAC_IN_RX
Text Label 35400 7350 2    50   ~ 0
DAC_IN_MCK
Wire Wire Line
	36450 7050 35400 7050
Wire Wire Line
	36450 7150 35400 7150
Text Label 35400 7050 2    50   ~ 0
DAC_IN_SDA
Text Label 35400 7150 2    50   ~ 0
DAC_IN_SCL
$Comp
L Device:C C20
U 1 1 5C43BC6E
P 36550 6200
F 0 "C20" H 36600 6300 50  0000 L CNN
F 1 "0.1uF" V 36600 5900 50  0000 L CNN
F 2 "Capacitor_SMD:C_0603_1608Metric" H 36588 6050 50  0001 C CNN
F 3 "~" H 36550 6200 50  0001 C CNN
	1    36550 6200
	-1   0    0    1   
$EndComp
Wire Wire Line
	37150 6600 37150 5900
Text Label 37150 5550 0    50   ~ 0
3V3_DAC
Text Label 36950 5550 2    50   ~ 0
DAC_1V8
$Comp
L Regulator_Linear:AP2204R-1.8 U6
U 1 1 5C49508D
P 36100 5900
F 0 "U6" H 36100 6142 50  0000 C CNN
F 1 "AP2204R-1.8" H 36100 6051 50  0000 C CNN
F 2 "Package_TO_SOT_SMD:SOT-89-3" H 36100 6125 50  0001 C CNN
F 3 "https://www.diodes.com/assets/Datasheets/AP2204.pdf" H 36100 5900 50  0001 C CNN
	1    36100 5900
	1    0    0    -1  
$EndComp
Wire Wire Line
	36950 5550 36950 5900
Wire Wire Line
	36400 5900 36550 5900
Connection ~ 36950 5900
Wire Wire Line
	36950 5900 36950 6600
Wire Wire Line
	36550 5900 36550 6050
Connection ~ 36550 5900
Wire Wire Line
	36550 5900 36950 5900
Wire Wire Line
	36100 6200 36100 6400
Wire Wire Line
	36100 6400 36550 6400
Wire Wire Line
	36550 6400 36550 6350
Wire Wire Line
	35800 5900 35650 5900
$Comp
L Device:C C19
U 1 1 5C4D5473
P 35650 6200
F 0 "C19" H 35700 6300 50  0000 L CNN
F 1 "0.1uF" V 35700 5900 50  0000 L CNN
F 2 "Capacitor_SMD:C_0603_1608Metric" H 35688 6050 50  0001 C CNN
F 3 "~" H 35650 6200 50  0001 C CNN
	1    35650 6200
	-1   0    0    1   
$EndComp
Wire Wire Line
	35650 6050 35650 5900
Connection ~ 35650 5900
Wire Wire Line
	35650 5900 35400 5900
Wire Wire Line
	35650 6350 35650 6400
Wire Wire Line
	35650 6400 36100 6400
Connection ~ 36100 6400
$Comp
L Device:C C18
U 1 1 5C4FDC0A
P 35400 6200
F 0 "C18" H 35450 6300 50  0000 L CNN
F 1 "0.1uF" V 35450 5900 50  0000 L CNN
F 2 "Capacitor_SMD:C_0603_1608Metric" H 35438 6050 50  0001 C CNN
F 3 "~" H 35400 6200 50  0001 C CNN
	1    35400 6200
	-1   0    0    1   
$EndComp
Wire Wire Line
	35400 6050 35400 5900
Connection ~ 35400 5900
Wire Wire Line
	35400 6350 35400 6400
Wire Wire Line
	35400 6400 35650 6400
Connection ~ 35650 6400
$Comp
L Jumper:Jumper_2_Bridged JP4
U 1 1 5C527AA1
P 34550 5900
F 0 "JP4" V 34504 5958 50  0000 L CNN
F 1 "Jumper_2_Bridged" V 34595 5958 50  0000 L CNN
F 2 "Jumper:SolderJumper-2_P1.3mm_Bridged2Bar_RoundedPad1.0x1.5mm" H 34550 5900 50  0001 C CNN
F 3 "~" H 34550 5900 50  0001 C CNN
	1    34550 5900
	1    0    0    -1  
$EndComp
Wire Wire Line
	34750 5900 35150 5900
$Comp
L Device:C C17
U 1 1 5C544398
P 35150 6200
F 0 "C17" H 35200 6300 50  0000 L CNN
F 1 "0.1uF" V 35200 5900 50  0000 L CNN
F 2 "Capacitor_SMD:C_0603_1608Metric" H 35188 6050 50  0001 C CNN
F 3 "~" H 35150 6200 50  0001 C CNN
	1    35150 6200
	-1   0    0    1   
$EndComp
Wire Wire Line
	35150 6050 35150 5900
Connection ~ 35150 5900
Wire Wire Line
	35150 5900 35400 5900
Wire Wire Line
	35150 6350 35150 6400
Wire Wire Line
	35150 6400 35400 6400
Connection ~ 35400 6400
Wire Wire Line
	36100 6400 36100 6550
Text Label 36100 6550 2    50   ~ 0
DAC_DGND
Text Label 36950 8750 3    50   ~ 0
DAC_DGND
Text Label 37150 8750 3    50   ~ 0
DAC_DGND
Text Label 37550 8750 3    50   ~ 0
DAC_DGND
Text Label 37350 8750 3    50   ~ 0
DAC_AGND
$Comp
L Jumper:Jumper_2_Bridged JP5
U 1 1 5C58E5D0
P 36950 9450
F 0 "JP5" V 36904 9508 50  0000 L CNN
F 1 "Jumper_2_Bridged" V 36995 9508 50  0000 L CNN
F 2 "Jumper:SolderJumper-2_P1.3mm_Bridged2Bar_RoundedPad1.0x1.5mm" H 36950 9450 50  0001 C CNN
F 3 "~" H 36950 9450 50  0001 C CNN
	1    36950 9450
	0    -1   -1   0   
$EndComp
$Comp
L Jumper:Jumper_2_Bridged JP6
U 1 1 5C58E890
P 37150 9450
F 0 "JP6" V 37104 9508 50  0000 L CNN
F 1 "Jumper_2_Bridged" V 37195 9508 50  0000 L CNN
F 2 "Jumper:SolderJumper-2_P1.3mm_Bridged2Bar_RoundedPad1.0x1.5mm" H 37150 9450 50  0001 C CNN
F 3 "~" H 37150 9450 50  0001 C CNN
	1    37150 9450
	0    -1   -1   0   
$EndComp
$Comp
L Jumper:Jumper_2_Bridged JP7
U 1 1 5C58E930
P 37350 9450
F 0 "JP7" V 37304 9508 50  0000 L CNN
F 1 "Jumper_2_Bridged" V 37395 9508 50  0000 L CNN
F 2 "Jumper:SolderJumper-2_P1.3mm_Bridged2Bar_RoundedPad1.0x1.5mm" H 37350 9450 50  0001 C CNN
F 3 "~" H 37350 9450 50  0001 C CNN
	1    37350 9450
	0    -1   -1   0   
$EndComp
$Comp
L Jumper:Jumper_2_Bridged JP8
U 1 1 5C58E9CE
P 37550 9450
F 0 "JP8" V 37504 9508 50  0000 L CNN
F 1 "Jumper_2_Bridged" V 37595 9508 50  0000 L CNN
F 2 "Jumper:SolderJumper-2_P1.3mm_Bridged2Bar_RoundedPad1.0x1.5mm" H 37550 9450 50  0001 C CNN
F 3 "~" H 37550 9450 50  0001 C CNN
	1    37550 9450
	0    -1   -1   0   
$EndComp
Wire Wire Line
	37550 8750 37550 9250
Wire Wire Line
	37350 8750 37350 9250
Wire Wire Line
	37150 8750 37150 9250
Wire Wire Line
	36950 8750 36950 9250
Wire Wire Line
	36950 9650 36950 9700
Wire Wire Line
	36950 9700 37150 9700
Wire Wire Line
	37550 9700 37550 9650
Wire Wire Line
	37350 9650 37350 9700
Connection ~ 37350 9700
Wire Wire Line
	37350 9700 37550 9700
Wire Wire Line
	37150 9650 37150 9700
Connection ~ 37150 9700
Wire Wire Line
	37150 9700 37250 9700
Wire Wire Line
	37250 9700 37250 9950
Connection ~ 37250 9700
Wire Wire Line
	37250 9700 37350 9700
$Comp
L power:GND #PWR0107
U 1 1 5C609634
P 37250 9950
F 0 "#PWR0107" H 37250 9700 50  0001 C CNN
F 1 "GND" H 37255 9777 50  0000 C CNN
F 2 "" H 37250 9950 50  0001 C CNN
F 3 "" H 37250 9950 50  0001 C CNN
	1    37250 9950
	1    0    0    -1  
$EndComp
Wire Wire Line
	33800 5900 33800 5500
Wire Wire Line
	33800 5900 34350 5900
$Comp
L power:+3V3 #PWR0108
U 1 1 5C61A1E3
P 33800 5500
F 0 "#PWR0108" H 33800 5350 50  0001 C CNN
F 1 "+3V3" H 33815 5673 50  0000 C CNN
F 2 "" H 33800 5500 50  0001 C CNN
F 3 "" H 33800 5500 50  0001 C CNN
	1    33800 5500
	1    0    0    -1  
$EndComp
Wire Wire Line
	37350 6600 37350 6350
Text Label 37350 6350 0    50   ~ 0
DAC_VDDA
Text Label 34850 5900 1    50   ~ 0
3V3_DAC
$Comp
L Device:Ferrite_Bead FB1
U 1 1 5C62B0EC
P 37450 5900
F 0 "FB1" V 37176 5900 50  0000 C CNN
F 1 "Ferrite 600" V 37267 5900 50  0000 C CNN
F 2 "Inductor_SMD:L_1206_3216Metric" V 37380 5900 50  0001 C CNN
F 3 "~" H 37450 5900 50  0001 C CNN
	1    37450 5900
	0    1    1    0   
$EndComp
Wire Wire Line
	37350 6350 37750 6350
Wire Wire Line
	37750 6350 37750 5900
Wire Wire Line
	37750 5900 37600 5900
Wire Wire Line
	37300 5900 37150 5900
Connection ~ 37150 5900
Wire Wire Line
	37150 5900 37150 5550
$Comp
L Device:C C15
U 1 1 5C66DC43
P 38450 6100
F 0 "C15" H 38500 6200 50  0000 L CNN
F 1 "0.1uF" V 38500 5800 50  0000 L CNN
F 2 "Capacitor_SMD:C_0603_1608Metric" H 38488 5950 50  0001 C CNN
F 3 "~" H 38450 6100 50  0001 C CNN
	1    38450 6100
	-1   0    0    1   
$EndComp
$Comp
L Device:C C16
U 1 1 5C66DD2B
P 38750 6100
F 0 "C16" H 38800 6200 50  0000 L CNN
F 1 "2.2uF" V 38800 5800 50  0000 L CNN
F 2 "Capacitor_SMD:C_1206_3216Metric" H 38788 5950 50  0001 C CNN
F 3 "~" H 38750 6100 50  0001 C CNN
	1    38750 6100
	-1   0    0    1   
$EndComp
Wire Wire Line
	37750 5900 38450 5900
Wire Wire Line
	38450 5900 38450 5950
Connection ~ 37750 5900
Wire Wire Line
	38450 5900 38750 5900
Wire Wire Line
	38750 5900 38750 5950
Connection ~ 38450 5900
Wire Wire Line
	38450 6250 38450 6300
Wire Wire Line
	38450 6300 38600 6300
Wire Wire Line
	38750 6300 38750 6250
Wire Wire Line
	38600 6300 38600 6450
Connection ~ 38600 6300
Wire Wire Line
	38600 6300 38750 6300
Text Label 38600 6450 0    50   ~ 0
DAC_DGND
Wire Wire Line
	36450 8000 35400 8000
Wire Wire Line
	35400 8000 35400 8050
$Comp
L Device:C C25
U 1 1 5C720042
P 35400 8200
F 0 "C25" H 35450 8300 50  0000 L CNN
F 1 "0.1uF" V 35450 7900 50  0000 L CNN
F 2 "Capacitor_SMD:C_0603_1608Metric" H 35438 8050 50  0001 C CNN
F 3 "~" H 35400 8200 50  0001 C CNN
	1    35400 8200
	-1   0    0    1   
$EndComp
Wire Wire Line
	35400 8350 35400 8500
Text Label 35600 8800 2    50   ~ 0
DAC_DGND
NoConn ~ 36450 8100
Wire Wire Line
	36450 8200 35800 8200
Wire Wire Line
	35800 8200 35800 8300
Wire Wire Line
	35400 8500 35600 8500
Wire Wire Line
	36450 8300 35800 8300
Connection ~ 35800 8300
Wire Wire Line
	35800 8300 35800 8500
Wire Wire Line
	35600 8800 35600 8500
Connection ~ 35600 8500
Wire Wire Line
	35600 8500 35800 8500
$Comp
L Connector:AudioJack3_Ground J10
U 1 1 5C7ED0BC
P 41050 7750
F 0 "J10" H 40817 7679 50  0000 R CNN
F 1 "AudioJack3_Ground" H 40817 7770 50  0000 R CNN
F 2 "Connector_Audio:Jack_3.5mm_CUI_SJ1-3533NG_Horizontal" H 41050 7750 50  0001 C CNN
F 3 "~" H 41050 7750 50  0001 C CNN
	1    41050 7750
	-1   0    0    1   
$EndComp
Wire Wire Line
	37850 7850 40850 7850
Wire Wire Line
	40850 7650 40750 7650
Wire Wire Line
	40750 7650 40650 7750
Wire Wire Line
	40650 7750 37850 7750
Wire Wire Line
	37850 7650 40650 7650
Wire Wire Line
	40650 7650 40750 7750
Wire Wire Line
	40750 7750 40850 7750
$Comp
L Device:C C22
U 1 1 5C83C211
P 39050 7100
F 0 "C22" H 39100 7200 50  0000 L CNN
F 1 "2.2uF" V 39100 6800 50  0000 L CNN
F 2 "Capacitor_SMD:C_1206_3216Metric" H 39088 6950 50  0001 C CNN
F 3 "~" H 39050 7100 50  0001 C CNN
	1    39050 7100
	0    -1   -1   0   
$EndComp
$Comp
L Device:C C23
U 1 1 5C83C457
P 39050 7300
F 0 "C23" H 39100 7400 50  0000 L CNN
F 1 "2.2uF" V 39100 7000 50  0000 L CNN
F 2 "Capacitor_SMD:C_1206_3216Metric" H 39088 7150 50  0001 C CNN
F 3 "~" H 39050 7300 50  0001 C CNN
	1    39050 7300
	0    -1   -1   0   
$EndComp
$Comp
L Device:C C21
U 1 1 5C83C505
P 39050 6900
F 0 "C21" H 39100 7000 50  0000 L CNN
F 1 "2.2uF" V 39100 6600 50  0000 L CNN
F 2 "Capacitor_SMD:C_1206_3216Metric" H 39088 6750 50  0001 C CNN
F 3 "~" H 39050 6900 50  0001 C CNN
	1    39050 6900
	0    -1   -1   0   
$EndComp
$Comp
L Device:C C24
U 1 1 5C83C5B9
P 39050 7500
F 0 "C24" H 39100 7600 50  0000 L CNN
F 1 "2.2uF" V 39100 7200 50  0000 L CNN
F 2 "Capacitor_SMD:C_1206_3216Metric" H 39088 7350 50  0001 C CNN
F 3 "~" H 39050 7500 50  0001 C CNN
	1    39050 7500
	0    -1   -1   0   
$EndComp
Wire Wire Line
	37850 7350 38550 7350
Wire Wire Line
	38550 7350 38550 7500
Wire Wire Line
	38550 7500 38900 7500
Wire Wire Line
	38900 7300 38600 7300
Wire Wire Line
	38600 7300 38600 7250
Wire Wire Line
	38600 7250 37850 7250
Wire Wire Line
	37850 7150 38600 7150
Wire Wire Line
	38600 7150 38600 7100
Wire Wire Line
	38600 7100 38900 7100
Wire Wire Line
	38900 6900 38500 6900
Wire Wire Line
	38500 6900 38500 7050
Wire Wire Line
	38500 7050 37850 7050
$Comp
L Connector_Generic:Conn_01x03 J9
U 1 1 5C90A4E8
P 40000 7400
F 0 "J9" H 40080 7442 50  0000 L CNN
F 1 "Conn_01x03" H 40080 7351 50  0000 L CNN
F 2 "Connector_JST:JST_EH_B03B-EH-A_1x03_P2.50mm_Vertical" H 40000 7400 50  0001 C CNN
F 3 "~" H 40000 7400 50  0001 C CNN
	1    40000 7400
	1    0    0    -1  
$EndComp
$Comp
L Connector_Generic:Conn_01x03 J8
U 1 1 5C90A5BA
P 40000 7000
F 0 "J8" H 40080 7042 50  0000 L CNN
F 1 "Conn_01x03" H 40080 6951 50  0000 L CNN
F 2 "Connector_JST:JST_EH_B03B-EH-A_1x03_P2.50mm_Vertical" H 40000 7000 50  0001 C CNN
F 3 "~" H 40000 7000 50  0001 C CNN
	1    40000 7000
	1    0    0    -1  
$EndComp
Wire Wire Line
	39200 7300 39800 7300
Wire Wire Line
	39800 7500 39200 7500
Wire Wire Line
	39800 7400 39700 7400
Wire Wire Line
	39200 6900 39800 6900
Wire Wire Line
	39800 7100 39200 7100
Wire Wire Line
	39800 7000 39700 7000
Text Label 39700 7000 2    50   ~ 0
DAC_AGND
Text Label 39700 7400 2    50   ~ 0
DAC_AGND
$Comp
L Kicad-Teensy:MK66FX1M0VLQ18-Teensy U15
U 1 1 5C9DA13D
P 34850 15700
F 0 "U15" H 34825 18987 60  0000 C CNN
F 1 "MK66FX1M0VLQ18-Teensy" H 34825 18881 60  0000 C CNN
F 2 "Package_QFP:LQFP-144-1EP_20x20mm_P0.5mm_EP8.93x8.93mm" H 34700 17950 60  0001 C CNN
F 3 "" H 34700 17950 60  0001 C CNN
	1    34850 15700
	1    0    0    -1  
$EndComp
$Comp
L Regulator_Linear:AP1117-33 U16
U 1 1 5C9DC069
P 28800 10550
F 0 "U16" H 28800 10792 50  0000 C CNN
F 1 "AP1117-33" H 28800 10701 50  0000 C CNN
F 2 "Package_TO_SOT_SMD:SOT-223-3_TabPin2" H 28800 10750 50  0001 C CNN
F 3 "http://www.diodes.com/datasheets/AP1117.pdf" H 28900 10300 50  0001 C CNN
	1    28800 10550
	1    0    0    -1  
$EndComp
Wire Wire Line
	29100 10550 29250 10550
Wire Wire Line
	29250 10550 29250 10750
$Comp
L Device:C C30
U 1 1 5C9F2B07
P 32150 12450
F 0 "C30" H 32200 12550 50  0000 L CNN
F 1 "0.1uF" V 32200 12150 50  0000 L CNN
F 2 "Capacitor_SMD:C_0603_1608Metric" H 32188 12300 50  0001 C CNN
F 3 "~" H 32150 12450 50  0001 C CNN
	1    32150 12450
	-1   0    0    1   
$EndComp
$Comp
L Device:C C27
U 1 1 5C9F2B0D
P 29250 10900
F 0 "C27" H 29300 11000 50  0000 L CNN
F 1 "4.7uF" V 29300 10600 50  0000 L CNN
F 2 "Capacitor_SMD:C_1206_3216Metric" H 29288 10750 50  0001 C CNN
F 3 "~" H 29250 10900 50  0001 C CNN
	1    29250 10900
	-1   0    0    1   
$EndComp
$Comp
L Device:C C26
U 1 1 5CA0720A
P 28350 10900
F 0 "C26" H 28400 11000 50  0000 L CNN
F 1 "4.7uF" V 28400 10600 50  0000 L CNN
F 2 "Capacitor_SMD:C_1206_3216Metric" H 28388 10750 50  0001 C CNN
F 3 "~" H 28350 10900 50  0001 C CNN
	1    28350 10900
	-1   0    0    1   
$EndComp
Wire Wire Line
	28500 10550 28350 10550
Wire Wire Line
	28800 11100 28350 11100
Wire Wire Line
	28800 10850 28800 11100
Wire Wire Line
	28350 11050 28350 11100
Wire Wire Line
	28800 11100 29250 11100
Wire Wire Line
	29250 11100 29250 11050
Connection ~ 28800 11100
Wire Wire Line
	28800 11100 28800 11400
$Comp
L Device:Ferrite_Bead FB3
U 1 1 5CA98FCB
P 32300 14250
F 0 "FB3" V 32026 14250 50  0000 C CNN
F 1 "Ferrite 600" V 32117 14250 50  0000 C CNN
F 2 "Inductor_SMD:L_1206_3216Metric" V 32230 14250 50  0001 C CNN
F 3 "~" H 32300 14250 50  0001 C CNN
	1    32300 14250
	0    1    1    0   
$EndComp
Wire Wire Line
	32650 13650 32650 13300
Wire Wire Line
	32650 13650 33950 13650
$Comp
L Device:Ferrite_Bead FB2
U 1 1 5CAAFBCA
P 32650 13150
F 0 "FB2" H 32513 13104 50  0000 R CNN
F 1 "Ferrite 600" H 32513 13195 50  0000 R CNN
F 2 "Inductor_SMD:L_1206_3216Metric" V 32580 13150 50  0001 C CNN
F 3 "~" H 32650 13150 50  0001 C CNN
	1    32650 13150
	-1   0    0    1   
$EndComp
Wire Wire Line
	33950 13350 33850 13350
Wire Wire Line
	33850 13350 33850 13250
Wire Wire Line
	33850 13250 33950 13250
Wire Wire Line
	33850 13250 33850 13150
Wire Wire Line
	33850 13150 33950 13150
Connection ~ 33850 13250
Wire Wire Line
	33850 13150 33850 13050
Wire Wire Line
	33850 13050 33950 13050
Connection ~ 33850 13150
Wire Wire Line
	33850 13050 33850 12950
Wire Wire Line
	33850 12950 33950 12950
Connection ~ 33850 13050
Wire Wire Line
	33850 12950 33850 12850
Wire Wire Line
	33850 12850 33950 12850
Connection ~ 33850 12950
Wire Wire Line
	33850 12850 33850 12750
Wire Wire Line
	33850 12750 33950 12750
Connection ~ 33850 12850
Wire Wire Line
	28350 10550 28350 10750
Wire Wire Line
	29550 10550 29250 10550
Connection ~ 29250 10550
Wire Wire Line
	29550 10550 29550 10100
$Comp
L power:+3.3V #PWR0109
U 1 1 5CBDA9DF
P 29550 10100
F 0 "#PWR0109" H 29550 9950 50  0001 C CNN
F 1 "+3.3V" H 29565 10273 50  0000 C CNN
F 2 "" H 29550 10100 50  0001 C CNN
F 3 "" H 29550 10100 50  0001 C CNN
	1    29550 10100
	1    0    0    -1  
$EndComp
Wire Wire Line
	28350 10550 27850 10550
Wire Wire Line
	27850 10550 27850 10150
Connection ~ 28350 10550
$Comp
L power:+5V #PWR0111
U 1 1 5CBF2E8F
P 27850 10150
F 0 "#PWR0111" H 27850 10000 50  0001 C CNN
F 1 "+5V" H 27865 10323 50  0000 C CNN
F 2 "" H 27850 10150 50  0001 C CNN
F 3 "" H 27850 10150 50  0001 C CNN
	1    27850 10150
	1    0    0    -1  
$EndComp
$Comp
L power:GND #PWR0114
U 1 1 5CBF2FFE
P 28800 11400
F 0 "#PWR0114" H 28800 11150 50  0001 C CNN
F 1 "GND" H 28805 11227 50  0000 C CNN
F 2 "" H 28800 11400 50  0001 C CNN
F 3 "" H 28800 11400 50  0001 C CNN
	1    28800 11400
	1    0    0    -1  
$EndComp
Wire Wire Line
	33850 12750 33850 12300
Connection ~ 33850 12750
Text Label 33850 12150 0    50   ~ 0
TEE_3V3
$Comp
L Jumper:Jumper_2_Bridged JP9
U 1 1 5CC3B906
P 33850 11950
F 0 "JP9" V 33804 12008 50  0000 L CNN
F 1 "Jumper_2_Bridged" V 33895 12008 50  0000 L CNN
F 2 "Jumper:SolderJumper-2_P1.3mm_Bridged2Bar_RoundedPad1.0x1.5mm" H 33850 11950 50  0001 C CNN
F 3 "~" H 33850 11950 50  0001 C CNN
	1    33850 11950
	0    -1   -1   0   
$EndComp
$Comp
L power:+3.3V #PWR0115
U 1 1 5CC3BBE7
P 33850 11650
F 0 "#PWR0115" H 33850 11500 50  0001 C CNN
F 1 "+3.3V" H 33865 11823 50  0000 C CNN
F 2 "" H 33850 11650 50  0001 C CNN
F 3 "" H 33850 11650 50  0001 C CNN
	1    33850 11650
	1    0    0    -1  
$EndComp
Wire Wire Line
	33850 11650 33850 11750
Connection ~ 33850 12300
Wire Wire Line
	33850 12300 33850 12150
Connection ~ 32150 12300
Wire Wire Line
	32150 12300 31950 12300
$Comp
L Device:C C29
U 1 1 5CC85C3A
P 31950 12450
F 0 "C29" H 32000 12550 50  0000 L CNN
F 1 "0.1uF" V 32000 12150 50  0000 L CNN
F 2 "Capacitor_SMD:C_0603_1608Metric" H 31988 12300 50  0001 C CNN
F 3 "~" H 31950 12450 50  0001 C CNN
	1    31950 12450
	-1   0    0    1   
$EndComp
Connection ~ 31950 12300
Wire Wire Line
	31950 12300 31750 12300
$Comp
L Device:C C28
U 1 1 5CC85D6E
P 31750 12450
F 0 "C28" H 31800 12550 50  0000 L CNN
F 1 "10uF" V 31800 12150 50  0000 L CNN
F 2 "Capacitor_SMD:C_1206_3216Metric" H 31788 12300 50  0001 C CNN
F 3 "~" H 31750 12450 50  0001 C CNN
	1    31750 12450
	-1   0    0    1   
$EndComp
Wire Wire Line
	32150 12300 32650 12300
Wire Wire Line
	32150 12600 32150 12700
Wire Wire Line
	32150 12700 31950 12700
Wire Wire Line
	31950 12700 31950 12600
Wire Wire Line
	31950 12700 31750 12700
Wire Wire Line
	31750 12700 31750 12600
Connection ~ 31950 12700
Wire Wire Line
	31950 12700 31950 12850
Text Label 31950 12850 2    50   ~ 0
TEE_GND
$Comp
L Device:Crystal_Small Y1
U 1 1 5CCD3A7B
P 33800 14900
F 0 "Y1" V 33754 14988 50  0000 L CNN
F 1 "Crystal_Small" V 33845 14988 50  0000 L CNN
F 2 "Crystal:Crystal_SMD_5032-4Pin_5.0x3.2mm" H 33800 14900 50  0001 C CNN
F 3 "~" H 33800 14900 50  0001 C CNN
	1    33800 14900
	0    1    1    0   
$EndComp
Wire Wire Line
	33950 14750 33800 14750
Wire Wire Line
	33800 14750 33800 14800
Wire Wire Line
	33800 15000 33800 15100
Wire Wire Line
	33800 15100 33950 15100
$Comp
L Device:Crystal_Small Y2
U 1 1 5CD085F2
P 33800 15350
F 0 "Y2" V 33754 15438 50  0000 L CNN
F 1 "Crystal_Small" V 33845 15438 50  0000 L CNN
F 2 "Crystal:Crystal_C26-LF_D2.1mm_L6.5mm_Horizontal_1EP_style1" H 33800 15350 50  0001 C CNN
F 3 "~" H 33800 15350 50  0001 C CNN
	1    33800 15350
	0    1    1    0   
$EndComp
Wire Wire Line
	33950 15200 33800 15200
Wire Wire Line
	33800 15200 33800 15250
Wire Wire Line
	33800 15450 33800 15500
Wire Wire Line
	33800 15500 33950 15500
$Comp
L Connector:Micro_SD_Card J13
U 1 1 5CD3E64D
P 31450 16900
F 0 "J13" H 31400 17617 50  0000 C CNN
F 1 "Micro_SD_Card" H 31400 17526 50  0000 C CNN
F 2 "Connector_Card:microSD_HC_Wuerth_693072010801" H 32600 17200 50  0001 C CNN
F 3 "http://katalog.we-online.de/em/datasheet/693072010801.pdf" H 31450 16900 50  0001 C CNN
	1    31450 16900
	-1   0    0    -1  
$EndComp
Wire Wire Line
	32350 16600 33950 16600
Wire Wire Line
	33950 16700 32350 16700
Wire Wire Line
	32350 16800 33950 16800
Wire Wire Line
	32350 17000 33950 17000
Wire Wire Line
	33950 17200 32350 17200
Wire Wire Line
	32350 17300 33950 17300
Wire Wire Line
	32350 16900 32400 16900
Wire Wire Line
	32350 17100 32400 17100
Text Label 32400 17100 0    50   ~ 0
TEE_GND
Text Label 32400 16900 0    50   ~ 0
TEE_3V3
$Comp
L Connector:USB_C_Receptacle_USB2.0 J11
U 1 1 5CE76F93
P 29100 14450
F 0 "J11" H 29205 15317 50  0000 C CNN
F 1 "USB_C_Receptacle_USB2.0" H 29205 15226 50  0000 C CNN
F 2 "Connector_USB:USB_C_Receptacle_Amphenol_12401610E4-2A" H 29250 14450 50  0001 C CNN
F 3 "https://www.usb.org/sites/default/files/documents/usb_type-c.zip" H 29250 14450 50  0001 C CNN
	1    29100 14450
	1    0    0    -1  
$EndComp
Wire Wire Line
	29700 14350 29750 14350
Wire Wire Line
	29750 14350 29750 14450
Wire Wire Line
	29750 14450 29700 14450
Wire Wire Line
	29700 14650 29750 14650
Wire Wire Line
	29750 14650 29750 14550
Wire Wire Line
	29750 14550 29700 14550
$Comp
L Device:R R13
U 1 1 5CEB4921
P 31550 14450
F 0 "R13" V 31600 14300 50  0000 C CNN
F 1 "33R" V 31600 14650 50  0000 C CNN
F 2 "Resistor_SMD:R_0603_1608Metric_Pad1.05x0.95mm_HandSolder" V 31480 14450 50  0001 C CNN
F 3 "~" H 31550 14450 50  0001 C CNN
	1    31550 14450
	0    -1   -1   0   
$EndComp
$Comp
L Device:R R14
U 1 1 5CEB5BAD
P 31550 14550
F 0 "R14" V 31600 14400 50  0000 C CNN
F 1 "33R" V 31600 14750 50  0000 C CNN
F 2 "Resistor_SMD:R_0603_1608Metric_Pad1.05x0.95mm_HandSolder" V 31480 14550 50  0001 C CNN
F 3 "~" H 31550 14550 50  0001 C CNN
	1    31550 14550
	0    -1   -1   0   
$EndComp
Wire Wire Line
	31400 14450 29750 14450
Wire Wire Line
	29750 14550 31400 14550
Wire Wire Line
	31700 14550 33950 14550
Wire Wire Line
	33950 14450 31700 14450
Connection ~ 29750 14450
Connection ~ 29750 14550
Text Label 31050 15800 2    50   ~ 0
TEE_GND
Wire Wire Line
	33950 15900 32150 15900
Wire Wire Line
	33950 16000 32250 16000
Wire Wire Line
	31550 15350 32150 15350
Wire Wire Line
	32150 15350 32150 15900
Connection ~ 32150 15900
Wire Wire Line
	31550 15250 32250 15250
Wire Wire Line
	32250 15250 32250 16000
Connection ~ 32250 16000
Wire Wire Line
	32250 16000 30250 16000
$Comp
L power:+5V #PWR0116
U 1 1 5D06AE99
P 31050 14900
F 0 "#PWR0116" H 31050 14750 50  0001 C CNN
F 1 "+5V" H 31065 15073 50  0000 C CNN
F 2 "" H 31050 14900 50  0001 C CNN
F 3 "" H 31050 14900 50  0001 C CNN
	1    31050 14900
	1    0    0    -1  
$EndComp
$Comp
L Connector:USB_B J12
U 1 1 5D06B470
P 29950 15900
F 0 "J12" H 30005 16367 50  0000 C CNN
F 1 "USB_B" H 30005 16276 50  0000 C CNN
F 2 "chordboard-footprints:USB_A_SOCKET" H 30100 15850 50  0001 C CNN
F 3 " ~" H 30100 15850 50  0001 C CNN
	1    29950 15900
	1    0    0    -1  
$EndComp
Wire Wire Line
	32150 15900 30250 15900
Wire Wire Line
	31050 14900 31050 14950
Wire Wire Line
	30550 15500 30450 15500
Wire Wire Line
	30450 15500 30450 15700
Wire Wire Line
	30450 15700 30250 15700
Wire Wire Line
	29850 16300 29850 16400
Text Label 29850 16400 2    50   ~ 0
TEE_GND
Wire Wire Line
	31550 15500 31900 15500
Wire Wire Line
	31900 15500 31900 15700
Wire Wire Line
	31900 15700 33950 15700
$Comp
L chordboard-components:TPD3S014 U17
U 1 1 5CF4EC67
P 31050 15400
F 0 "U17" H 31050 16050 60  0000 C CNN
F 1 "TPD3S014" H 31050 15944 60  0000 C CNN
F 2 "Package_TO_SOT_SMD:SOT-23-6" H 31050 15150 60  0001 C CNN
F 3 "" H 31050 15150 60  0001 C CNN
	1    31050 15400
	1    0    0    -1  
$EndComp
Text Label 29100 15350 0    50   ~ 0
TEE_GND
Wire Wire Line
	32650 13000 32650 12300
Wire Wire Line
	32650 12300 33850 12300
Wire Wire Line
	33950 14250 33850 14250
$Comp
L Device:C C31
U 1 1 5D2C9449
P 32650 14100
F 0 "C31" H 32700 14200 50  0000 L CNN
F 1 "2.2uF" V 32700 13800 50  0000 L CNN
F 2 "Capacitor_SMD:C_1206_3216Metric" H 32688 13950 50  0001 C CNN
F 3 "~" H 32650 14100 50  0001 C CNN
	1    32650 14100
	1    0    0    -1  
$EndComp
Wire Wire Line
	32650 13950 32650 13850
Connection ~ 32650 13650
Wire Wire Line
	32450 14250 32650 14250
Connection ~ 32650 14250
Wire Wire Line
	32150 14250 31950 14250
Text Label 31950 14250 2    50   ~ 0
TEE_GND
$Comp
L Device:C C33
U 1 1 5D332B63
P 33600 14100
F 0 "C33" H 33650 14200 50  0000 L CNN
F 1 "0.1uF" V 33650 13800 50  0000 L CNN
F 2 "Capacitor_SMD:C_0603_1608Metric" H 33638 13950 50  0001 C CNN
F 3 "~" H 33600 14100 50  0001 C CNN
	1    33600 14100
	-1   0    0    1   
$EndComp
Connection ~ 33600 14250
Wire Wire Line
	33600 14250 33350 14250
Wire Wire Line
	33950 13950 33600 13950
Wire Wire Line
	33950 13850 33350 13850
Wire Wire Line
	33350 13850 33350 13950
$Comp
L Device:C C32
U 1 1 5D37A44A
P 33350 14100
F 0 "C32" H 33400 14200 50  0000 L CNN
F 1 "0.1uF" V 33400 13800 50  0000 L CNN
F 2 "Capacitor_SMD:C_0603_1608Metric" H 33388 13950 50  0001 C CNN
F 3 "~" H 33350 14100 50  0001 C CNN
	1    33350 14100
	-1   0    0    1   
$EndComp
Connection ~ 33350 14250
Connection ~ 32650 12300
$Comp
L Device:R R12
U 1 1 5D3E6EC9
P 33100 13850
F 0 "R12" V 33150 13700 50  0000 C CNN
F 1 "470R" V 33150 14050 50  0000 C CNN
F 2 "Resistor_SMD:R_0603_1608Metric_Pad1.05x0.95mm_HandSolder" V 33030 13850 50  0001 C CNN
F 3 "~" H 33100 13850 50  0001 C CNN
	1    33100 13850
	0    -1   -1   0   
$EndComp
Wire Wire Line
	33250 13850 33350 13850
Connection ~ 33350 13850
Wire Wire Line
	32950 13850 32650 13850
Connection ~ 32650 13850
Wire Wire Line
	32650 13850 32650 13650
Wire Wire Line
	33950 14150 33850 14150
Wire Wire Line
	33850 14150 33850 14250
Connection ~ 33850 14250
Wire Wire Line
	33850 14250 33600 14250
Text Label 33100 14250 2    50   ~ 0
TEE_AGND
Wire Wire Line
	32650 14250 33350 14250
Text Label 33950 13450 2    50   ~ 0
TEE_A11
Text Label 33950 13550 2    50   ~ 0
TEE_A10
Text Label 33350 13850 0    50   ~ 0
TEE_AREF
Wire Wire Line
	33950 18600 33900 18600
Wire Wire Line
	33900 18600 33900 18700
Wire Wire Line
	33900 18700 33950 18700
Wire Wire Line
	33900 18700 33900 18800
Wire Wire Line
	33900 18800 33950 18800
Connection ~ 33900 18700
Wire Wire Line
	33900 18800 33900 18900
Wire Wire Line
	33900 18900 33950 18900
Connection ~ 33900 18800
Wire Wire Line
	33900 18900 33900 19000
Wire Wire Line
	33900 19000 33950 19000
Connection ~ 33900 18900
Wire Wire Line
	33900 19000 33900 19100
Wire Wire Line
	33900 19100 33950 19100
Connection ~ 33900 19000
Wire Wire Line
	33900 19100 33900 19200
Wire Wire Line
	33900 19200 33950 19200
Connection ~ 33900 19100
Wire Wire Line
	33900 19200 33900 19300
Wire Wire Line
	33900 19300 33950 19300
Connection ~ 33900 19200
Wire Wire Line
	33900 19300 33900 19400
Wire Wire Line
	33900 19400 33950 19400
Connection ~ 33900 19300
Connection ~ 33900 19400
Text Label 33450 19400 2    50   ~ 0
TEE_GND
Wire Wire Line
	32500 19400 33900 19400
$Comp
L Jumper:Jumper_2_Bridged JP10
U 1 1 5D69DA0E
P 32300 19400
F 0 "JP10" V 32254 19458 50  0000 L CNN
F 1 "Jumper_2_Bridged" V 32345 19458 50  0000 L CNN
F 2 "Jumper:SolderJumper-2_P1.3mm_Bridged2Bar_RoundedPad1.0x1.5mm" H 32300 19400 50  0001 C CNN
F 3 "~" H 32300 19400 50  0001 C CNN
	1    32300 19400
	1    0    0    -1  
$EndComp
Wire Wire Line
	32100 19400 31850 19400
Wire Wire Line
	31850 19400 31850 19550
$Comp
L power:GND #PWR0122
U 1 1 5D6C6607
P 31850 19550
F 0 "#PWR0122" H 31850 19300 50  0001 C CNN
F 1 "GND" H 31855 19377 50  0000 C CNN
F 2 "" H 31850 19550 50  0001 C CNN
F 3 "" H 31850 19550 50  0001 C CNN
	1    31850 19550
	1    0    0    -1  
$EndComp
Wire Wire Line
	33950 18000 33050 18000
Wire Wire Line
	33950 18100 32750 18100
$Comp
L Switch:SW_SPST SW2
U 1 1 5D7189F1
P 33050 18700
F 0 "SW2" V 33096 18612 50  0000 R CNN
F 1 "SW_SPST" V 33005 18612 50  0000 R CNN
F 2 "Button_Switch_SMD:SW_SPST_EVQP7A" H 33050 18700 50  0001 C CNN
F 3 "" H 33050 18700 50  0001 C CNN
	1    33050 18700
	0    -1   -1   0   
$EndComp
Wire Wire Line
	33050 18000 33050 18500
Connection ~ 33050 18000
Wire Wire Line
	33050 18000 32750 18000
Text Label 33050 18900 2    50   ~ 0
TEE_GND
Wire Wire Line
	33950 18200 32750 18200
Wire Wire Line
	33950 18300 32750 18300
Wire Wire Line
	33950 18400 32750 18400
Wire Wire Line
	29700 13850 30050 13850
$Comp
L Device:D D2
U 1 1 5D867919
P 30200 13850
F 0 "D2" H 30200 13634 50  0000 C CNN
F 1 "D" H 30200 13725 50  0000 C CNN
F 2 "Diode_SMD:D_1206_3216Metric" H 30200 13850 50  0001 C CNN
F 3 "~" H 30200 13850 50  0001 C CNN
	1    30200 13850
	-1   0    0    1   
$EndComp
Wire Wire Line
	30350 13850 30600 13850
Wire Wire Line
	30600 13850 30600 13600
$Comp
L power:+5V #PWR0123
U 1 1 5D892692
P 30600 13600
F 0 "#PWR0123" H 30600 13450 50  0001 C CNN
F 1 "+5V" H 30615 13773 50  0000 C CNN
F 2 "" H 30600 13600 50  0001 C CNN
F 3 "" H 30600 13600 50  0001 C CNN
	1    30600 13600
	1    0    0    -1  
$EndComp
$Comp
L Connector_Generic:Conn_01x05 J14
U 1 1 5D894961
P 32550 18200
F 0 "J14" H 32470 18617 50  0000 C CNN
F 1 "Conn_01x05" H 32470 18526 50  0000 C CNN
F 2 "Connector_JST:JST_PH_B5B-PH-SM4-TB_1x05-1MP_P2.00mm_Vertical" H 32550 18200 50  0001 C CNN
F 3 "~" H 32550 18200 50  0001 C CNN
	1    32550 18200
	-1   0    0    -1  
$EndComp
Wire Wire Line
	10350 4650 10300 4650
Wire Wire Line
	10300 4650 10300 4750
Wire Wire Line
	10300 4750 10350 4750
Wire Wire Line
	10350 4850 10300 4850
Wire Wire Line
	10300 4850 10300 4950
Wire Wire Line
	10300 4950 10350 4950
Wire Wire Line
	9650 4750 10300 4750
Connection ~ 10300 4750
Wire Wire Line
	10300 4850 9650 4850
Connection ~ 10300 4850
$Comp
L Memory_Flash:M25PX32-VMP U8
U 1 1 5C00CE96
P 5100 13500
F 0 "U8" H 5741 13546 50  0000 L CNN
F 1 "M25PX32-VMP" H 5741 13455 50  0000 L CNN
F 2 "Package_DFN_QFN:DFN-S-8-1EP_6x5mm_P1.27mm" H 5900 13600 50  0001 C CNN
F 3 "https://www.micron.com/~/media/documents/products/data-sheet/nor-flash/serial-nor/m25px/m25px32.pdf" H 5250 13400 50  0001 C CNN
	1    5100 13500
	1    0    0    -1  
$EndComp
Text Label 4500 13400 2    50   ~ 0
FLASH_SCK
Text Label 4500 13300 2    50   ~ 0
FLASH_MOSI
Text Label 5700 13300 0    50   ~ 0
FLASH_MISO
Text Label 4500 13500 2    50   ~ 0
FLASH_CS1
Text Label 4500 13600 2    50   ~ 0
FLASH_WP
Text Label 4500 13700 2    50   ~ 0
FLASH_HOLD
$Comp
L Device:C C2
U 1 1 5C02C177
P 3550 12400
F 0 "C2" H 3600 12500 50  0000 L CNN
F 1 "0.1uF" V 3600 12100 50  0000 L CNN
F 2 "Capacitor_SMD:C_0603_1608Metric" H 3588 12250 50  0001 C CNN
F 3 "~" H 3550 12400 50  0001 C CNN
	1    3550 12400
	-1   0    0    1   
$EndComp
$Comp
L Regulator_Linear:AP2204R-1.8 U7
U 1 1 5C02C17D
P 3100 12100
F 0 "U7" H 3100 12342 50  0000 C CNN
F 1 "AP2204R-1.8" H 3100 12251 50  0000 C CNN
F 2 "Package_TO_SOT_SMD:SOT-89-3" H 3100 12325 50  0001 C CNN
F 3 "https://www.diodes.com/assets/Datasheets/AP2204.pdf" H 3100 12100 50  0001 C CNN
	1    3100 12100
	1    0    0    -1  
$EndComp
Wire Wire Line
	3400 12100 3550 12100
Wire Wire Line
	3550 12100 3550 12250
Connection ~ 3550 12100
Wire Wire Line
	3550 12100 5100 12100
Wire Wire Line
	3100 12400 3100 12600
Wire Wire Line
	3100 12600 3550 12600
Wire Wire Line
	3550 12600 3550 12550
Wire Wire Line
	2800 12100 2650 12100
$Comp
L Device:C C1
U 1 1 5C02C18B
P 2650 12400
F 0 "C1" H 2700 12500 50  0000 L CNN
F 1 "0.1uF" V 2700 12100 50  0000 L CNN
F 2 "Capacitor_SMD:C_0603_1608Metric" H 2688 12250 50  0001 C CNN
F 3 "~" H 2650 12400 50  0001 C CNN
	1    2650 12400
	-1   0    0    1   
$EndComp
Wire Wire Line
	2650 12250 2650 12100
Connection ~ 2650 12100
Wire Wire Line
	2650 12100 2400 12100
Wire Wire Line
	2650 12550 2650 12600
Wire Wire Line
	2650 12600 3100 12600
Connection ~ 3100 12600
Wire Wire Line
	2400 12600 2650 12600
Connection ~ 2650 12600
Wire Wire Line
	3100 12600 3100 12750
Text Label 3100 12750 2    50   ~ 0
FLASH_GND
Text Label 5200 12100 0    50   ~ 0
FLASH_1V8
Wire Wire Line
	5100 13000 5100 12350
Connection ~ 5100 12100
$Comp
L Device:C C3
U 1 1 5C06AB75
P 5450 12550
F 0 "C3" H 5500 12650 50  0000 L CNN
F 1 "0.1uF" V 5500 12250 50  0000 L CNN
F 2 "Capacitor_SMD:C_0603_1608Metric" H 5488 12400 50  0001 C CNN
F 3 "~" H 5450 12550 50  0001 C CNN
	1    5450 12550
	-1   0    0    1   
$EndComp
Wire Wire Line
	5100 12350 5450 12350
Wire Wire Line
	5450 12350 5450 12400
Connection ~ 5100 12350
Wire Wire Line
	5100 12350 5100 12100
Text Label 5450 12700 0    50   ~ 0
FLASH_GND
Wire Wire Line
	5000 14000 5000 14050
Wire Wire Line
	5000 14050 5200 14050
Wire Wire Line
	5200 14050 5200 14000
Wire Wire Line
	5000 14050 5000 14150
Connection ~ 5000 14050
$Comp
L Jumper:Jumper_2_Bridged JP1
U 1 1 5C0E852E
P 5000 14350
F 0 "JP1" V 4954 14408 50  0000 L CNN
F 1 "Jumper_2_Bridged" V 5045 14408 50  0000 L CNN
F 2 "Jumper:SolderJumper-2_P1.3mm_Bridged2Bar_RoundedPad1.0x1.5mm" H 5000 14350 50  0001 C CNN
F 3 "~" H 5000 14350 50  0001 C CNN
	1    5000 14350
	0    1    1    0   
$EndComp
$Comp
L power:GND #PWR0124
U 1 1 5C0E89EE
P 5000 14550
F 0 "#PWR0124" H 5000 14300 50  0001 C CNN
F 1 "GND" H 5005 14377 50  0000 C CNN
F 2 "" H 5000 14550 50  0001 C CNN
F 3 "" H 5000 14550 50  0001 C CNN
	1    5000 14550
	1    0    0    -1  
$EndComp
Text Label 5000 14150 2    50   ~ 0
FLASH_GND
$Comp
L Memory_Flash:M25PX32-VMP U10
U 1 1 5C187783
P 7650 13500
F 0 "U10" H 8291 13546 50  0000 L CNN
F 1 "M25PX32-VMP" H 8291 13455 50  0000 L CNN
F 2 "Package_DFN_QFN:DFN-S-8-1EP_6x5mm_P1.27mm" H 8450 13600 50  0001 C CNN
F 3 "https://www.micron.com/~/media/documents/products/data-sheet/nor-flash/serial-nor/m25px/m25px32.pdf" H 7800 13400 50  0001 C CNN
	1    7650 13500
	1    0    0    -1  
$EndComp
Text Label 7050 13400 2    50   ~ 0
FLASH_SCK
Text Label 7050 13300 2    50   ~ 0
FLASH_MOSI
Text Label 8250 13300 0    50   ~ 0
FLASH_MISO
Text Label 7050 13500 2    50   ~ 0
FLASH_CS2
Text Label 7050 13600 2    50   ~ 0
FLASH_WP
Text Label 7050 13700 2    50   ~ 0
FLASH_HOLD
Text Label 7750 12100 0    50   ~ 0
FLASH_1V8
Wire Wire Line
	7650 13000 7650 12350
Connection ~ 7650 12100
$Comp
L Device:C C4
U 1 1 5C187794
P 8000 12550
F 0 "C4" H 8050 12650 50  0000 L CNN
F 1 "0.1uF" V 8050 12250 50  0000 L CNN
F 2 "Capacitor_SMD:C_0603_1608Metric" H 8038 12400 50  0001 C CNN
F 3 "~" H 8000 12550 50  0001 C CNN
	1    8000 12550
	-1   0    0    1   
$EndComp
Wire Wire Line
	7650 12350 8000 12350
Wire Wire Line
	8000 12350 8000 12400
Connection ~ 7650 12350
Wire Wire Line
	7650 12350 7650 12100
Text Label 8000 12700 0    50   ~ 0
FLASH_GND
Wire Wire Line
	7550 14000 7550 14050
Wire Wire Line
	7550 14050 7750 14050
Wire Wire Line
	7750 14050 7750 14000
Wire Wire Line
	7550 14050 7550 14150
Connection ~ 7550 14050
$Comp
L Jumper:Jumper_2_Bridged JP3
U 1 1 5C1877A4
P 7550 14350
F 0 "JP3" V 7504 14408 50  0000 L CNN
F 1 "Jumper_2_Bridged" V 7595 14408 50  0000 L CNN
F 2 "Jumper:SolderJumper-2_P1.3mm_Bridged2Bar_RoundedPad1.0x1.5mm" H 7550 14350 50  0001 C CNN
F 3 "~" H 7550 14350 50  0001 C CNN
	1    7550 14350
	0    1    1    0   
$EndComp
$Comp
L power:GND #PWR0125
U 1 1 5C1877AA
P 7550 14550
F 0 "#PWR0125" H 7550 14300 50  0001 C CNN
F 1 "GND" H 7555 14377 50  0000 C CNN
F 2 "" H 7550 14550 50  0001 C CNN
F 3 "" H 7550 14550 50  0001 C CNN
	1    7550 14550
	1    0    0    -1  
$EndComp
Text Label 7550 14150 2    50   ~ 0
FLASH_GND
Wire Wire Line
	5100 12100 7650 12100
$Comp
L Memory_Flash:M25PX32-VMP U11
U 1 1 5C1F16E8
P 10300 13500
F 0 "U11" H 10941 13546 50  0000 L CNN
F 1 "M25PX32-VMP" H 10941 13455 50  0000 L CNN
F 2 "Package_DFN_QFN:DFN-S-8-1EP_6x5mm_P1.27mm" H 11100 13600 50  0001 C CNN
F 3 "https://www.micron.com/~/media/documents/products/data-sheet/nor-flash/serial-nor/m25px/m25px32.pdf" H 10450 13400 50  0001 C CNN
	1    10300 13500
	1    0    0    -1  
$EndComp
Text Label 9700 13400 2    50   ~ 0
FLASH_SCK
Text Label 9700 13300 2    50   ~ 0
FLASH_MOSI
Text Label 10900 13300 0    50   ~ 0
FLASH_MISO
Text Label 9700 13500 2    50   ~ 0
FLASH_CS3
Text Label 9700 13600 2    50   ~ 0
FLASH_WP
Text Label 9700 13700 2    50   ~ 0
FLASH_HOLD
Text Label 10400 12100 0    50   ~ 0
FLASH_1V8
Wire Wire Line
	10300 13000 10300 12350
Connection ~ 10300 12100
$Comp
L Device:C C5
U 1 1 5C1F16F8
P 10650 12550
F 0 "C5" H 10700 12650 50  0000 L CNN
F 1 "0.1uF" V 10700 12250 50  0000 L CNN
F 2 "Capacitor_SMD:C_0603_1608Metric" H 10688 12400 50  0001 C CNN
F 3 "~" H 10650 12550 50  0001 C CNN
	1    10650 12550
	-1   0    0    1   
$EndComp
Wire Wire Line
	10300 12350 10650 12350
Wire Wire Line
	10650 12350 10650 12400
Connection ~ 10300 12350
Wire Wire Line
	10300 12350 10300 12100
Text Label 10650 12700 0    50   ~ 0
FLASH_GND
Wire Wire Line
	10200 14000 10200 14050
Wire Wire Line
	10200 14050 10400 14050
Wire Wire Line
	10400 14050 10400 14000
Wire Wire Line
	10200 14050 10200 14150
Connection ~ 10200 14050
$Comp
L Jumper:Jumper_2_Bridged JP11
U 1 1 5C1F1708
P 10200 14350
F 0 "JP11" V 10154 14408 50  0000 L CNN
F 1 "Jumper_2_Bridged" V 10245 14408 50  0000 L CNN
F 2 "Jumper:SolderJumper-2_P1.3mm_Bridged2Bar_RoundedPad1.0x1.5mm" H 10200 14350 50  0001 C CNN
F 3 "~" H 10200 14350 50  0001 C CNN
	1    10200 14350
	0    1    1    0   
$EndComp
$Comp
L power:GND #PWR0126
U 1 1 5C1F170E
P 10200 14550
F 0 "#PWR0126" H 10200 14300 50  0001 C CNN
F 1 "GND" H 10205 14377 50  0000 C CNN
F 2 "" H 10200 14550 50  0001 C CNN
F 3 "" H 10200 14550 50  0001 C CNN
	1    10200 14550
	1    0    0    -1  
$EndComp
Text Label 10200 14150 2    50   ~ 0
FLASH_GND
Wire Wire Line
	7650 12100 10300 12100
$Comp
L Memory_Flash:M25PX32-VMP U12
U 1 1 5C217E41
P 13050 13500
F 0 "U12" H 13691 13546 50  0000 L CNN
F 1 "M25PX32-VMP" H 13691 13455 50  0000 L CNN
F 2 "Package_DFN_QFN:DFN-S-8-1EP_6x5mm_P1.27mm" H 13850 13600 50  0001 C CNN
F 3 "https://www.micron.com/~/media/documents/products/data-sheet/nor-flash/serial-nor/m25px/m25px32.pdf" H 13200 13400 50  0001 C CNN
	1    13050 13500
	1    0    0    -1  
$EndComp
Text Label 12450 13400 2    50   ~ 0
FLASH_SCK
Text Label 12450 13300 2    50   ~ 0
FLASH_MOSI
Text Label 13650 13300 0    50   ~ 0
FLASH_MISO
Text Label 12450 13500 2    50   ~ 0
FLASH_CS4
Text Label 12450 13600 2    50   ~ 0
FLASH_WP
Text Label 12450 13700 2    50   ~ 0
FLASH_HOLD
Text Label 13150 12100 0    50   ~ 0
FLASH_1V8
Wire Wire Line
	13050 13000 13050 12350
Connection ~ 13050 12100
Wire Wire Line
	13050 12100 13150 12100
$Comp
L Device:C C6
U 1 1 5C217E51
P 13400 12550
F 0 "C6" H 13450 12650 50  0000 L CNN
F 1 "0.1uF" V 13450 12250 50  0000 L CNN
F 2 "Capacitor_SMD:C_0603_1608Metric" H 13438 12400 50  0001 C CNN
F 3 "~" H 13400 12550 50  0001 C CNN
	1    13400 12550
	-1   0    0    1   
$EndComp
Wire Wire Line
	13050 12350 13400 12350
Wire Wire Line
	13400 12350 13400 12400
Connection ~ 13050 12350
Wire Wire Line
	13050 12350 13050 12100
Text Label 13400 12700 0    50   ~ 0
FLASH_GND
Wire Wire Line
	12950 14000 12950 14050
Wire Wire Line
	12950 14050 13150 14050
Wire Wire Line
	13150 14050 13150 14000
Wire Wire Line
	12950 14050 12950 14150
Connection ~ 12950 14050
$Comp
L Jumper:Jumper_2_Bridged JP12
U 1 1 5C217E61
P 12950 14350
F 0 "JP12" V 12904 14408 50  0000 L CNN
F 1 "Jumper_2_Bridged" V 12995 14408 50  0000 L CNN
F 2 "Jumper:SolderJumper-2_P1.3mm_Bridged2Bar_RoundedPad1.0x1.5mm" H 12950 14350 50  0001 C CNN
F 3 "~" H 12950 14350 50  0001 C CNN
	1    12950 14350
	0    1    1    0   
$EndComp
$Comp
L power:GND #PWR0127
U 1 1 5C217E67
P 12950 14550
F 0 "#PWR0127" H 12950 14300 50  0001 C CNN
F 1 "GND" H 12955 14377 50  0000 C CNN
F 2 "" H 12950 14550 50  0001 C CNN
F 3 "" H 12950 14550 50  0001 C CNN
	1    12950 14550
	1    0    0    -1  
$EndComp
Text Label 12950 14150 2    50   ~ 0
FLASH_GND
Wire Wire Line
	10300 12100 13050 12100
$Comp
L Jumper:Jumper_2_Bridged JP2
U 1 1 5C24099F
P 2200 12100
F 0 "JP2" V 2154 12158 50  0000 L CNN
F 1 "Jumper_2_Bridged" V 2245 12158 50  0000 L CNN
F 2 "Jumper:SolderJumper-2_P1.3mm_Bridged2Bar_RoundedPad1.0x1.5mm" H 2200 12100 50  0001 C CNN
F 3 "~" H 2200 12100 50  0001 C CNN
	1    2200 12100
	1    0    0    -1  
$EndComp
Wire Wire Line
	2000 12100 1850 12100
Wire Wire Line
	1850 12100 1850 11850
$Comp
L power:+3.3V #PWR0128
U 1 1 5C26957D
P 1850 11850
F 0 "#PWR0128" H 1850 11700 50  0001 C CNN
F 1 "+3.3V" H 1865 12023 50  0000 C CNN
F 2 "" H 1850 11850 50  0001 C CNN
F 3 "" H 1850 11850 50  0001 C CNN
	1    1850 11850
	1    0    0    -1  
$EndComp
$EndSCHEMATC
