G04 #@! TF.GenerationSoftware,KiCad,Pcbnew,5.0.0+dfsg1-2~bpo9+1*
G04 #@! TF.CreationDate,2018-12-15T18:36:23+00:00*
G04 #@! TF.ProjectId,chordboard,63686F7264626F6172642E6B69636164,rev?*
G04 #@! TF.SameCoordinates,Original*
G04 #@! TF.FileFunction,Legend,Top*
G04 #@! TF.FilePolarity,Positive*
%FSLAX46Y46*%
G04 Gerber Fmt 4.6, Leading zero omitted, Abs format (unit mm)*
G04 Created by KiCad (PCBNEW 5.0.0+dfsg1-2~bpo9+1) date Sat Dec 15 18:36:23 2018*
%MOMM*%
%LPD*%
G01*
G04 APERTURE LIST*
%ADD10C,0.120000*%
%ADD11C,0.381000*%
%ADD12C,0.150000*%
G04 APERTURE END LIST*
D10*
G04 #@! TO.C,LED1*
X-8060000Y207635000D02*
X-4640000Y207635000D01*
X-8060000Y205115000D02*
X-4640000Y205115000D01*
X-8060000Y207635000D02*
X-8060000Y207455000D01*
X-8060000Y205295000D02*
X-8060000Y205115000D01*
X-4640000Y207635000D02*
X-4640000Y207470000D01*
X-4640000Y205280000D02*
X-4640000Y205115000D01*
X-7940000Y207635000D02*
X-7940000Y207455000D01*
X-7940000Y205295000D02*
X-7940000Y205115000D01*
X-7820000Y207635000D02*
X-7820000Y207455000D01*
X-7820000Y205295000D02*
X-7820000Y205115000D01*
G04 #@! TO.C,LED2*
X11230000Y205295000D02*
X11230000Y205115000D01*
X11230000Y207635000D02*
X11230000Y207455000D01*
X11110000Y205295000D02*
X11110000Y205115000D01*
X11110000Y207635000D02*
X11110000Y207455000D01*
X14410000Y205280000D02*
X14410000Y205115000D01*
X14410000Y207635000D02*
X14410000Y207470000D01*
X10990000Y205295000D02*
X10990000Y205115000D01*
X10990000Y207635000D02*
X10990000Y207455000D01*
X10990000Y205115000D02*
X14410000Y205115000D01*
X10990000Y207635000D02*
X14410000Y207635000D01*
G04 #@! TO.C,LED3*
X30040000Y207635000D02*
X33460000Y207635000D01*
X30040000Y205115000D02*
X33460000Y205115000D01*
X30040000Y207635000D02*
X30040000Y207455000D01*
X30040000Y205295000D02*
X30040000Y205115000D01*
X33460000Y207635000D02*
X33460000Y207470000D01*
X33460000Y205280000D02*
X33460000Y205115000D01*
X30160000Y207635000D02*
X30160000Y207455000D01*
X30160000Y205295000D02*
X30160000Y205115000D01*
X30280000Y207635000D02*
X30280000Y207455000D01*
X30280000Y205295000D02*
X30280000Y205115000D01*
G04 #@! TO.C,LED4*
X49330000Y205295000D02*
X49330000Y205115000D01*
X49330000Y207635000D02*
X49330000Y207455000D01*
X49210000Y205295000D02*
X49210000Y205115000D01*
X49210000Y207635000D02*
X49210000Y207455000D01*
X52510000Y205280000D02*
X52510000Y205115000D01*
X52510000Y207635000D02*
X52510000Y207470000D01*
X49090000Y205295000D02*
X49090000Y205115000D01*
X49090000Y207635000D02*
X49090000Y207455000D01*
X49090000Y205115000D02*
X52510000Y205115000D01*
X49090000Y207635000D02*
X52510000Y207635000D01*
G04 #@! TO.C,LED5*
X68140000Y207635000D02*
X71560000Y207635000D01*
X68140000Y205115000D02*
X71560000Y205115000D01*
X68140000Y207635000D02*
X68140000Y207455000D01*
X68140000Y205295000D02*
X68140000Y205115000D01*
X71560000Y207635000D02*
X71560000Y207470000D01*
X71560000Y205280000D02*
X71560000Y205115000D01*
X68260000Y207635000D02*
X68260000Y207455000D01*
X68260000Y205295000D02*
X68260000Y205115000D01*
X68380000Y207635000D02*
X68380000Y207455000D01*
X68380000Y205295000D02*
X68380000Y205115000D01*
G04 #@! TO.C,LED6*
X87430000Y205295000D02*
X87430000Y205115000D01*
X87430000Y207635000D02*
X87430000Y207455000D01*
X87310000Y205295000D02*
X87310000Y205115000D01*
X87310000Y207635000D02*
X87310000Y207455000D01*
X90610000Y205280000D02*
X90610000Y205115000D01*
X90610000Y207635000D02*
X90610000Y207470000D01*
X87190000Y205295000D02*
X87190000Y205115000D01*
X87190000Y207635000D02*
X87190000Y207455000D01*
X87190000Y205115000D02*
X90610000Y205115000D01*
X87190000Y207635000D02*
X90610000Y207635000D01*
G04 #@! TO.C,LED7*
X106240000Y207635000D02*
X109660000Y207635000D01*
X106240000Y205115000D02*
X109660000Y205115000D01*
X106240000Y207635000D02*
X106240000Y207455000D01*
X106240000Y205295000D02*
X106240000Y205115000D01*
X109660000Y207635000D02*
X109660000Y207470000D01*
X109660000Y205280000D02*
X109660000Y205115000D01*
X106360000Y207635000D02*
X106360000Y207455000D01*
X106360000Y205295000D02*
X106360000Y205115000D01*
X106480000Y207635000D02*
X106480000Y207455000D01*
X106480000Y205295000D02*
X106480000Y205115000D01*
G04 #@! TO.C,LED8*
X-7820000Y224345000D02*
X-7820000Y224165000D01*
X-7820000Y226685000D02*
X-7820000Y226505000D01*
X-7940000Y224345000D02*
X-7940000Y224165000D01*
X-7940000Y226685000D02*
X-7940000Y226505000D01*
X-4640000Y224330000D02*
X-4640000Y224165000D01*
X-4640000Y226685000D02*
X-4640000Y226520000D01*
X-8060000Y224345000D02*
X-8060000Y224165000D01*
X-8060000Y226685000D02*
X-8060000Y226505000D01*
X-8060000Y224165000D02*
X-4640000Y224165000D01*
X-8060000Y226685000D02*
X-4640000Y226685000D01*
G04 #@! TO.C,LED9*
X10990000Y226685000D02*
X14410000Y226685000D01*
X10990000Y224165000D02*
X14410000Y224165000D01*
X10990000Y226685000D02*
X10990000Y226505000D01*
X10990000Y224345000D02*
X10990000Y224165000D01*
X14410000Y226685000D02*
X14410000Y226520000D01*
X14410000Y224330000D02*
X14410000Y224165000D01*
X11110000Y226685000D02*
X11110000Y226505000D01*
X11110000Y224345000D02*
X11110000Y224165000D01*
X11230000Y226685000D02*
X11230000Y226505000D01*
X11230000Y224345000D02*
X11230000Y224165000D01*
G04 #@! TO.C,LED10*
X30280000Y224345000D02*
X30280000Y224165000D01*
X30280000Y226685000D02*
X30280000Y226505000D01*
X30160000Y224345000D02*
X30160000Y224165000D01*
X30160000Y226685000D02*
X30160000Y226505000D01*
X33460000Y224330000D02*
X33460000Y224165000D01*
X33460000Y226685000D02*
X33460000Y226520000D01*
X30040000Y224345000D02*
X30040000Y224165000D01*
X30040000Y226685000D02*
X30040000Y226505000D01*
X30040000Y224165000D02*
X33460000Y224165000D01*
X30040000Y226685000D02*
X33460000Y226685000D01*
G04 #@! TO.C,LED11*
X49090000Y226685000D02*
X52510000Y226685000D01*
X49090000Y224165000D02*
X52510000Y224165000D01*
X49090000Y226685000D02*
X49090000Y226505000D01*
X49090000Y224345000D02*
X49090000Y224165000D01*
X52510000Y226685000D02*
X52510000Y226520000D01*
X52510000Y224330000D02*
X52510000Y224165000D01*
X49210000Y226685000D02*
X49210000Y226505000D01*
X49210000Y224345000D02*
X49210000Y224165000D01*
X49330000Y226685000D02*
X49330000Y226505000D01*
X49330000Y224345000D02*
X49330000Y224165000D01*
G04 #@! TO.C,LED12*
X68140000Y226685000D02*
X71560000Y226685000D01*
X68140000Y224165000D02*
X71560000Y224165000D01*
X68140000Y226685000D02*
X68140000Y226505000D01*
X68140000Y224345000D02*
X68140000Y224165000D01*
X71560000Y226685000D02*
X71560000Y226520000D01*
X71560000Y224330000D02*
X71560000Y224165000D01*
X68260000Y226685000D02*
X68260000Y226505000D01*
X68260000Y224345000D02*
X68260000Y224165000D01*
X68380000Y226685000D02*
X68380000Y226505000D01*
X68380000Y224345000D02*
X68380000Y224165000D01*
G04 #@! TO.C,LED13*
X87430000Y224345000D02*
X87430000Y224165000D01*
X87430000Y226685000D02*
X87430000Y226505000D01*
X87310000Y224345000D02*
X87310000Y224165000D01*
X87310000Y226685000D02*
X87310000Y226505000D01*
X90610000Y224330000D02*
X90610000Y224165000D01*
X90610000Y226685000D02*
X90610000Y226520000D01*
X87190000Y224345000D02*
X87190000Y224165000D01*
X87190000Y226685000D02*
X87190000Y226505000D01*
X87190000Y224165000D02*
X90610000Y224165000D01*
X87190000Y226685000D02*
X90610000Y226685000D01*
G04 #@! TO.C,LED14*
X106240000Y226685000D02*
X109660000Y226685000D01*
X106240000Y224165000D02*
X109660000Y224165000D01*
X106240000Y226685000D02*
X106240000Y226505000D01*
X106240000Y224345000D02*
X106240000Y224165000D01*
X109660000Y226685000D02*
X109660000Y226520000D01*
X109660000Y224330000D02*
X109660000Y224165000D01*
X106360000Y226685000D02*
X106360000Y226505000D01*
X106360000Y224345000D02*
X106360000Y224165000D01*
X106480000Y226685000D02*
X106480000Y226505000D01*
X106480000Y224345000D02*
X106480000Y224165000D01*
D11*
G04 #@! TO.C,SW1*
X0Y196088000D02*
X0Y194310000D01*
X0Y207010000D02*
X0Y205232000D01*
X-1778000Y207010000D02*
X0Y207010000D01*
X-12700000Y207010000D02*
X-10922000Y207010000D01*
X-12700000Y205232000D02*
X-12700000Y207010000D01*
X-12700000Y194310000D02*
X-12700000Y196088000D01*
X-10922000Y194310000D02*
X-12700000Y194310000D01*
X0Y194310000D02*
X-1778000Y194310000D01*
G04 #@! TO.C,SW2*
X19050000Y196088000D02*
X19050000Y194310000D01*
X19050000Y207010000D02*
X19050000Y205232000D01*
X17272000Y207010000D02*
X19050000Y207010000D01*
X6350000Y207010000D02*
X8128000Y207010000D01*
X6350000Y205232000D02*
X6350000Y207010000D01*
X6350000Y194310000D02*
X6350000Y196088000D01*
X8128000Y194310000D02*
X6350000Y194310000D01*
X19050000Y194310000D02*
X17272000Y194310000D01*
G04 #@! TO.C,SW3*
X38100000Y194310000D02*
X36322000Y194310000D01*
X27178000Y194310000D02*
X25400000Y194310000D01*
X25400000Y194310000D02*
X25400000Y196088000D01*
X25400000Y205232000D02*
X25400000Y207010000D01*
X25400000Y207010000D02*
X27178000Y207010000D01*
X36322000Y207010000D02*
X38100000Y207010000D01*
X38100000Y207010000D02*
X38100000Y205232000D01*
X38100000Y196088000D02*
X38100000Y194310000D01*
G04 #@! TO.C,SW4*
X57150000Y196088000D02*
X57150000Y194310000D01*
X57150000Y207010000D02*
X57150000Y205232000D01*
X55372000Y207010000D02*
X57150000Y207010000D01*
X44450000Y207010000D02*
X46228000Y207010000D01*
X44450000Y205232000D02*
X44450000Y207010000D01*
X44450000Y194310000D02*
X44450000Y196088000D01*
X46228000Y194310000D02*
X44450000Y194310000D01*
X57150000Y194310000D02*
X55372000Y194310000D01*
G04 #@! TO.C,SW5*
X76200000Y194310000D02*
X74422000Y194310000D01*
X65278000Y194310000D02*
X63500000Y194310000D01*
X63500000Y194310000D02*
X63500000Y196088000D01*
X63500000Y205232000D02*
X63500000Y207010000D01*
X63500000Y207010000D02*
X65278000Y207010000D01*
X74422000Y207010000D02*
X76200000Y207010000D01*
X76200000Y207010000D02*
X76200000Y205232000D01*
X76200000Y196088000D02*
X76200000Y194310000D01*
G04 #@! TO.C,SW6*
X95250000Y194310000D02*
X93472000Y194310000D01*
X84328000Y194310000D02*
X82550000Y194310000D01*
X82550000Y194310000D02*
X82550000Y196088000D01*
X82550000Y205232000D02*
X82550000Y207010000D01*
X82550000Y207010000D02*
X84328000Y207010000D01*
X93472000Y207010000D02*
X95250000Y207010000D01*
X95250000Y207010000D02*
X95250000Y205232000D01*
X95250000Y196088000D02*
X95250000Y194310000D01*
G04 #@! TO.C,SW7*
X114300000Y196088000D02*
X114300000Y194310000D01*
X114300000Y207010000D02*
X114300000Y205232000D01*
X112522000Y207010000D02*
X114300000Y207010000D01*
X101600000Y207010000D02*
X103378000Y207010000D01*
X101600000Y205232000D02*
X101600000Y207010000D01*
X101600000Y194310000D02*
X101600000Y196088000D01*
X103378000Y194310000D02*
X101600000Y194310000D01*
X114300000Y194310000D02*
X112522000Y194310000D01*
G04 #@! TO.C,SW8*
X0Y215138000D02*
X0Y213360000D01*
X0Y226060000D02*
X0Y224282000D01*
X-1778000Y226060000D02*
X0Y226060000D01*
X-12700000Y226060000D02*
X-10922000Y226060000D01*
X-12700000Y224282000D02*
X-12700000Y226060000D01*
X-12700000Y213360000D02*
X-12700000Y215138000D01*
X-10922000Y213360000D02*
X-12700000Y213360000D01*
X0Y213360000D02*
X-1778000Y213360000D01*
G04 #@! TO.C,SW9*
X19050000Y213360000D02*
X17272000Y213360000D01*
X8128000Y213360000D02*
X6350000Y213360000D01*
X6350000Y213360000D02*
X6350000Y215138000D01*
X6350000Y224282000D02*
X6350000Y226060000D01*
X6350000Y226060000D02*
X8128000Y226060000D01*
X17272000Y226060000D02*
X19050000Y226060000D01*
X19050000Y226060000D02*
X19050000Y224282000D01*
X19050000Y215138000D02*
X19050000Y213360000D01*
G04 #@! TO.C,SW10*
X38100000Y213360000D02*
X36322000Y213360000D01*
X27178000Y213360000D02*
X25400000Y213360000D01*
X25400000Y213360000D02*
X25400000Y215138000D01*
X25400000Y224282000D02*
X25400000Y226060000D01*
X25400000Y226060000D02*
X27178000Y226060000D01*
X36322000Y226060000D02*
X38100000Y226060000D01*
X38100000Y226060000D02*
X38100000Y224282000D01*
X38100000Y215138000D02*
X38100000Y213360000D01*
G04 #@! TO.C,SW11*
X57150000Y215138000D02*
X57150000Y213360000D01*
X57150000Y226060000D02*
X57150000Y224282000D01*
X55372000Y226060000D02*
X57150000Y226060000D01*
X44450000Y226060000D02*
X46228000Y226060000D01*
X44450000Y224282000D02*
X44450000Y226060000D01*
X44450000Y213360000D02*
X44450000Y215138000D01*
X46228000Y213360000D02*
X44450000Y213360000D01*
X57150000Y213360000D02*
X55372000Y213360000D01*
G04 #@! TO.C,SW12*
X76200000Y215138000D02*
X76200000Y213360000D01*
X76200000Y226060000D02*
X76200000Y224282000D01*
X74422000Y226060000D02*
X76200000Y226060000D01*
X63500000Y226060000D02*
X65278000Y226060000D01*
X63500000Y224282000D02*
X63500000Y226060000D01*
X63500000Y213360000D02*
X63500000Y215138000D01*
X65278000Y213360000D02*
X63500000Y213360000D01*
X76200000Y213360000D02*
X74422000Y213360000D01*
G04 #@! TO.C,SW13*
X95250000Y213360000D02*
X93472000Y213360000D01*
X84328000Y213360000D02*
X82550000Y213360000D01*
X82550000Y213360000D02*
X82550000Y215138000D01*
X82550000Y224282000D02*
X82550000Y226060000D01*
X82550000Y226060000D02*
X84328000Y226060000D01*
X93472000Y226060000D02*
X95250000Y226060000D01*
X95250000Y226060000D02*
X95250000Y224282000D01*
X95250000Y215138000D02*
X95250000Y213360000D01*
G04 #@! TO.C,SW14*
X114300000Y213360000D02*
X112522000Y213360000D01*
X103378000Y213360000D02*
X101600000Y213360000D01*
X101600000Y213360000D02*
X101600000Y215138000D01*
X101600000Y224282000D02*
X101600000Y226060000D01*
X101600000Y226060000D02*
X103378000Y226060000D01*
X112522000Y226060000D02*
X114300000Y226060000D01*
X114300000Y226060000D02*
X114300000Y224282000D01*
X114300000Y215138000D02*
X114300000Y213360000D01*
G04 #@! TO.C,H1*
D12*
X112128095Y189167619D02*
X112128095Y190167619D01*
X112128095Y189691428D02*
X112699523Y189691428D01*
X112699523Y189167619D02*
X112699523Y190167619D01*
X113699523Y189167619D02*
X113128095Y189167619D01*
X113413809Y189167619D02*
X113413809Y190167619D01*
X113318571Y190024761D01*
X113223333Y189929523D01*
X113128095Y189881904D01*
G04 #@! TO.C,H2*
X-12191904Y189167619D02*
X-12191904Y190167619D01*
X-12191904Y189691428D02*
X-11620476Y189691428D01*
X-11620476Y189167619D02*
X-11620476Y190167619D01*
X-11191904Y190072380D02*
X-11144285Y190120000D01*
X-11049047Y190167619D01*
X-10810952Y190167619D01*
X-10715714Y190120000D01*
X-10668095Y190072380D01*
X-10620476Y189977142D01*
X-10620476Y189881904D01*
X-10668095Y189739047D01*
X-11239523Y189167619D01*
X-10620476Y189167619D01*
G04 #@! TO.C,H3*
X-12191904Y238697619D02*
X-12191904Y239697619D01*
X-12191904Y239221428D02*
X-11620476Y239221428D01*
X-11620476Y238697619D02*
X-11620476Y239697619D01*
X-11239523Y239697619D02*
X-10620476Y239697619D01*
X-10953809Y239316666D01*
X-10810952Y239316666D01*
X-10715714Y239269047D01*
X-10668095Y239221428D01*
X-10620476Y239126190D01*
X-10620476Y238888095D01*
X-10668095Y238792857D01*
X-10715714Y238745238D01*
X-10810952Y238697619D01*
X-11096666Y238697619D01*
X-11191904Y238745238D01*
X-11239523Y238792857D01*
G04 #@! TO.C,H4*
X112268095Y238697619D02*
X112268095Y239697619D01*
X112268095Y239221428D02*
X112839523Y239221428D01*
X112839523Y238697619D02*
X112839523Y239697619D01*
X113744285Y239364285D02*
X113744285Y238697619D01*
X113506190Y239745238D02*
X113268095Y239030952D01*
X113887142Y239030952D01*
G04 #@! TO.C,LED1*
X-7469047Y208182619D02*
X-7945238Y208182619D01*
X-7945238Y209182619D01*
X-7135714Y208706428D02*
X-6802380Y208706428D01*
X-6659523Y208182619D02*
X-7135714Y208182619D01*
X-7135714Y209182619D01*
X-6659523Y209182619D01*
X-6230952Y208182619D02*
X-6230952Y209182619D01*
X-5992857Y209182619D01*
X-5850000Y209135000D01*
X-5754761Y209039761D01*
X-5707142Y208944523D01*
X-5659523Y208754047D01*
X-5659523Y208611190D01*
X-5707142Y208420714D01*
X-5754761Y208325476D01*
X-5850000Y208230238D01*
X-5992857Y208182619D01*
X-6230952Y208182619D01*
X-4707142Y208182619D02*
X-5278571Y208182619D01*
X-4992857Y208182619D02*
X-4992857Y209182619D01*
X-5088095Y209039761D01*
X-5183333Y208944523D01*
X-5278571Y208896904D01*
G04 #@! TO.C,LED2*
X11580952Y208182619D02*
X11104761Y208182619D01*
X11104761Y209182619D01*
X11914285Y208706428D02*
X12247619Y208706428D01*
X12390476Y208182619D02*
X11914285Y208182619D01*
X11914285Y209182619D01*
X12390476Y209182619D01*
X12819047Y208182619D02*
X12819047Y209182619D01*
X13057142Y209182619D01*
X13200000Y209135000D01*
X13295238Y209039761D01*
X13342857Y208944523D01*
X13390476Y208754047D01*
X13390476Y208611190D01*
X13342857Y208420714D01*
X13295238Y208325476D01*
X13200000Y208230238D01*
X13057142Y208182619D01*
X12819047Y208182619D01*
X13771428Y209087380D02*
X13819047Y209135000D01*
X13914285Y209182619D01*
X14152380Y209182619D01*
X14247619Y209135000D01*
X14295238Y209087380D01*
X14342857Y208992142D01*
X14342857Y208896904D01*
X14295238Y208754047D01*
X13723809Y208182619D01*
X14342857Y208182619D01*
G04 #@! TO.C,LED3*
X30630952Y208182619D02*
X30154761Y208182619D01*
X30154761Y209182619D01*
X30964285Y208706428D02*
X31297619Y208706428D01*
X31440476Y208182619D02*
X30964285Y208182619D01*
X30964285Y209182619D01*
X31440476Y209182619D01*
X31869047Y208182619D02*
X31869047Y209182619D01*
X32107142Y209182619D01*
X32250000Y209135000D01*
X32345238Y209039761D01*
X32392857Y208944523D01*
X32440476Y208754047D01*
X32440476Y208611190D01*
X32392857Y208420714D01*
X32345238Y208325476D01*
X32250000Y208230238D01*
X32107142Y208182619D01*
X31869047Y208182619D01*
X32773809Y209182619D02*
X33392857Y209182619D01*
X33059523Y208801666D01*
X33202380Y208801666D01*
X33297619Y208754047D01*
X33345238Y208706428D01*
X33392857Y208611190D01*
X33392857Y208373095D01*
X33345238Y208277857D01*
X33297619Y208230238D01*
X33202380Y208182619D01*
X32916666Y208182619D01*
X32821428Y208230238D01*
X32773809Y208277857D01*
G04 #@! TO.C,LED4*
X49680952Y208182619D02*
X49204761Y208182619D01*
X49204761Y209182619D01*
X50014285Y208706428D02*
X50347619Y208706428D01*
X50490476Y208182619D02*
X50014285Y208182619D01*
X50014285Y209182619D01*
X50490476Y209182619D01*
X50919047Y208182619D02*
X50919047Y209182619D01*
X51157142Y209182619D01*
X51300000Y209135000D01*
X51395238Y209039761D01*
X51442857Y208944523D01*
X51490476Y208754047D01*
X51490476Y208611190D01*
X51442857Y208420714D01*
X51395238Y208325476D01*
X51300000Y208230238D01*
X51157142Y208182619D01*
X50919047Y208182619D01*
X52347619Y208849285D02*
X52347619Y208182619D01*
X52109523Y209230238D02*
X51871428Y208515952D01*
X52490476Y208515952D01*
G04 #@! TO.C,LED5*
X68730952Y208182619D02*
X68254761Y208182619D01*
X68254761Y209182619D01*
X69064285Y208706428D02*
X69397619Y208706428D01*
X69540476Y208182619D02*
X69064285Y208182619D01*
X69064285Y209182619D01*
X69540476Y209182619D01*
X69969047Y208182619D02*
X69969047Y209182619D01*
X70207142Y209182619D01*
X70350000Y209135000D01*
X70445238Y209039761D01*
X70492857Y208944523D01*
X70540476Y208754047D01*
X70540476Y208611190D01*
X70492857Y208420714D01*
X70445238Y208325476D01*
X70350000Y208230238D01*
X70207142Y208182619D01*
X69969047Y208182619D01*
X71445238Y209182619D02*
X70969047Y209182619D01*
X70921428Y208706428D01*
X70969047Y208754047D01*
X71064285Y208801666D01*
X71302380Y208801666D01*
X71397619Y208754047D01*
X71445238Y208706428D01*
X71492857Y208611190D01*
X71492857Y208373095D01*
X71445238Y208277857D01*
X71397619Y208230238D01*
X71302380Y208182619D01*
X71064285Y208182619D01*
X70969047Y208230238D01*
X70921428Y208277857D01*
G04 #@! TO.C,LED6*
X87780952Y208182619D02*
X87304761Y208182619D01*
X87304761Y209182619D01*
X88114285Y208706428D02*
X88447619Y208706428D01*
X88590476Y208182619D02*
X88114285Y208182619D01*
X88114285Y209182619D01*
X88590476Y209182619D01*
X89019047Y208182619D02*
X89019047Y209182619D01*
X89257142Y209182619D01*
X89400000Y209135000D01*
X89495238Y209039761D01*
X89542857Y208944523D01*
X89590476Y208754047D01*
X89590476Y208611190D01*
X89542857Y208420714D01*
X89495238Y208325476D01*
X89400000Y208230238D01*
X89257142Y208182619D01*
X89019047Y208182619D01*
X90447619Y209182619D02*
X90257142Y209182619D01*
X90161904Y209135000D01*
X90114285Y209087380D01*
X90019047Y208944523D01*
X89971428Y208754047D01*
X89971428Y208373095D01*
X90019047Y208277857D01*
X90066666Y208230238D01*
X90161904Y208182619D01*
X90352380Y208182619D01*
X90447619Y208230238D01*
X90495238Y208277857D01*
X90542857Y208373095D01*
X90542857Y208611190D01*
X90495238Y208706428D01*
X90447619Y208754047D01*
X90352380Y208801666D01*
X90161904Y208801666D01*
X90066666Y208754047D01*
X90019047Y208706428D01*
X89971428Y208611190D01*
G04 #@! TO.C,LED7*
X106830952Y208182619D02*
X106354761Y208182619D01*
X106354761Y209182619D01*
X107164285Y208706428D02*
X107497619Y208706428D01*
X107640476Y208182619D02*
X107164285Y208182619D01*
X107164285Y209182619D01*
X107640476Y209182619D01*
X108069047Y208182619D02*
X108069047Y209182619D01*
X108307142Y209182619D01*
X108450000Y209135000D01*
X108545238Y209039761D01*
X108592857Y208944523D01*
X108640476Y208754047D01*
X108640476Y208611190D01*
X108592857Y208420714D01*
X108545238Y208325476D01*
X108450000Y208230238D01*
X108307142Y208182619D01*
X108069047Y208182619D01*
X108973809Y209182619D02*
X109640476Y209182619D01*
X109211904Y208182619D01*
G04 #@! TO.C,LED8*
X-7469047Y227232619D02*
X-7945238Y227232619D01*
X-7945238Y228232619D01*
X-7135714Y227756428D02*
X-6802380Y227756428D01*
X-6659523Y227232619D02*
X-7135714Y227232619D01*
X-7135714Y228232619D01*
X-6659523Y228232619D01*
X-6230952Y227232619D02*
X-6230952Y228232619D01*
X-5992857Y228232619D01*
X-5850000Y228185000D01*
X-5754761Y228089761D01*
X-5707142Y227994523D01*
X-5659523Y227804047D01*
X-5659523Y227661190D01*
X-5707142Y227470714D01*
X-5754761Y227375476D01*
X-5850000Y227280238D01*
X-5992857Y227232619D01*
X-6230952Y227232619D01*
X-5088095Y227804047D02*
X-5183333Y227851666D01*
X-5230952Y227899285D01*
X-5278571Y227994523D01*
X-5278571Y228042142D01*
X-5230952Y228137380D01*
X-5183333Y228185000D01*
X-5088095Y228232619D01*
X-4897619Y228232619D01*
X-4802380Y228185000D01*
X-4754761Y228137380D01*
X-4707142Y228042142D01*
X-4707142Y227994523D01*
X-4754761Y227899285D01*
X-4802380Y227851666D01*
X-4897619Y227804047D01*
X-5088095Y227804047D01*
X-5183333Y227756428D01*
X-5230952Y227708809D01*
X-5278571Y227613571D01*
X-5278571Y227423095D01*
X-5230952Y227327857D01*
X-5183333Y227280238D01*
X-5088095Y227232619D01*
X-4897619Y227232619D01*
X-4802380Y227280238D01*
X-4754761Y227327857D01*
X-4707142Y227423095D01*
X-4707142Y227613571D01*
X-4754761Y227708809D01*
X-4802380Y227756428D01*
X-4897619Y227804047D01*
G04 #@! TO.C,LED9*
X11580952Y227232619D02*
X11104761Y227232619D01*
X11104761Y228232619D01*
X11914285Y227756428D02*
X12247619Y227756428D01*
X12390476Y227232619D02*
X11914285Y227232619D01*
X11914285Y228232619D01*
X12390476Y228232619D01*
X12819047Y227232619D02*
X12819047Y228232619D01*
X13057142Y228232619D01*
X13200000Y228185000D01*
X13295238Y228089761D01*
X13342857Y227994523D01*
X13390476Y227804047D01*
X13390476Y227661190D01*
X13342857Y227470714D01*
X13295238Y227375476D01*
X13200000Y227280238D01*
X13057142Y227232619D01*
X12819047Y227232619D01*
X13866666Y227232619D02*
X14057142Y227232619D01*
X14152380Y227280238D01*
X14200000Y227327857D01*
X14295238Y227470714D01*
X14342857Y227661190D01*
X14342857Y228042142D01*
X14295238Y228137380D01*
X14247619Y228185000D01*
X14152380Y228232619D01*
X13961904Y228232619D01*
X13866666Y228185000D01*
X13819047Y228137380D01*
X13771428Y228042142D01*
X13771428Y227804047D01*
X13819047Y227708809D01*
X13866666Y227661190D01*
X13961904Y227613571D01*
X14152380Y227613571D01*
X14247619Y227661190D01*
X14295238Y227708809D01*
X14342857Y227804047D01*
G04 #@! TO.C,LED10*
X30154761Y227232619D02*
X29678571Y227232619D01*
X29678571Y228232619D01*
X30488095Y227756428D02*
X30821428Y227756428D01*
X30964285Y227232619D02*
X30488095Y227232619D01*
X30488095Y228232619D01*
X30964285Y228232619D01*
X31392857Y227232619D02*
X31392857Y228232619D01*
X31630952Y228232619D01*
X31773809Y228185000D01*
X31869047Y228089761D01*
X31916666Y227994523D01*
X31964285Y227804047D01*
X31964285Y227661190D01*
X31916666Y227470714D01*
X31869047Y227375476D01*
X31773809Y227280238D01*
X31630952Y227232619D01*
X31392857Y227232619D01*
X32916666Y227232619D02*
X32345238Y227232619D01*
X32630952Y227232619D02*
X32630952Y228232619D01*
X32535714Y228089761D01*
X32440476Y227994523D01*
X32345238Y227946904D01*
X33535714Y228232619D02*
X33630952Y228232619D01*
X33726190Y228185000D01*
X33773809Y228137380D01*
X33821428Y228042142D01*
X33869047Y227851666D01*
X33869047Y227613571D01*
X33821428Y227423095D01*
X33773809Y227327857D01*
X33726190Y227280238D01*
X33630952Y227232619D01*
X33535714Y227232619D01*
X33440476Y227280238D01*
X33392857Y227327857D01*
X33345238Y227423095D01*
X33297619Y227613571D01*
X33297619Y227851666D01*
X33345238Y228042142D01*
X33392857Y228137380D01*
X33440476Y228185000D01*
X33535714Y228232619D01*
G04 #@! TO.C,LED11*
X49204761Y227232619D02*
X48728571Y227232619D01*
X48728571Y228232619D01*
X49538095Y227756428D02*
X49871428Y227756428D01*
X50014285Y227232619D02*
X49538095Y227232619D01*
X49538095Y228232619D01*
X50014285Y228232619D01*
X50442857Y227232619D02*
X50442857Y228232619D01*
X50680952Y228232619D01*
X50823809Y228185000D01*
X50919047Y228089761D01*
X50966666Y227994523D01*
X51014285Y227804047D01*
X51014285Y227661190D01*
X50966666Y227470714D01*
X50919047Y227375476D01*
X50823809Y227280238D01*
X50680952Y227232619D01*
X50442857Y227232619D01*
X51966666Y227232619D02*
X51395238Y227232619D01*
X51680952Y227232619D02*
X51680952Y228232619D01*
X51585714Y228089761D01*
X51490476Y227994523D01*
X51395238Y227946904D01*
X52919047Y227232619D02*
X52347619Y227232619D01*
X52633333Y227232619D02*
X52633333Y228232619D01*
X52538095Y228089761D01*
X52442857Y227994523D01*
X52347619Y227946904D01*
G04 #@! TO.C,LED12*
X68254761Y227232619D02*
X67778571Y227232619D01*
X67778571Y228232619D01*
X68588095Y227756428D02*
X68921428Y227756428D01*
X69064285Y227232619D02*
X68588095Y227232619D01*
X68588095Y228232619D01*
X69064285Y228232619D01*
X69492857Y227232619D02*
X69492857Y228232619D01*
X69730952Y228232619D01*
X69873809Y228185000D01*
X69969047Y228089761D01*
X70016666Y227994523D01*
X70064285Y227804047D01*
X70064285Y227661190D01*
X70016666Y227470714D01*
X69969047Y227375476D01*
X69873809Y227280238D01*
X69730952Y227232619D01*
X69492857Y227232619D01*
X71016666Y227232619D02*
X70445238Y227232619D01*
X70730952Y227232619D02*
X70730952Y228232619D01*
X70635714Y228089761D01*
X70540476Y227994523D01*
X70445238Y227946904D01*
X71397619Y228137380D02*
X71445238Y228185000D01*
X71540476Y228232619D01*
X71778571Y228232619D01*
X71873809Y228185000D01*
X71921428Y228137380D01*
X71969047Y228042142D01*
X71969047Y227946904D01*
X71921428Y227804047D01*
X71350000Y227232619D01*
X71969047Y227232619D01*
G04 #@! TO.C,LED13*
X87304761Y227232619D02*
X86828571Y227232619D01*
X86828571Y228232619D01*
X87638095Y227756428D02*
X87971428Y227756428D01*
X88114285Y227232619D02*
X87638095Y227232619D01*
X87638095Y228232619D01*
X88114285Y228232619D01*
X88542857Y227232619D02*
X88542857Y228232619D01*
X88780952Y228232619D01*
X88923809Y228185000D01*
X89019047Y228089761D01*
X89066666Y227994523D01*
X89114285Y227804047D01*
X89114285Y227661190D01*
X89066666Y227470714D01*
X89019047Y227375476D01*
X88923809Y227280238D01*
X88780952Y227232619D01*
X88542857Y227232619D01*
X90066666Y227232619D02*
X89495238Y227232619D01*
X89780952Y227232619D02*
X89780952Y228232619D01*
X89685714Y228089761D01*
X89590476Y227994523D01*
X89495238Y227946904D01*
X90400000Y228232619D02*
X91019047Y228232619D01*
X90685714Y227851666D01*
X90828571Y227851666D01*
X90923809Y227804047D01*
X90971428Y227756428D01*
X91019047Y227661190D01*
X91019047Y227423095D01*
X90971428Y227327857D01*
X90923809Y227280238D01*
X90828571Y227232619D01*
X90542857Y227232619D01*
X90447619Y227280238D01*
X90400000Y227327857D01*
G04 #@! TO.C,LED14*
X106354761Y227232619D02*
X105878571Y227232619D01*
X105878571Y228232619D01*
X106688095Y227756428D02*
X107021428Y227756428D01*
X107164285Y227232619D02*
X106688095Y227232619D01*
X106688095Y228232619D01*
X107164285Y228232619D01*
X107592857Y227232619D02*
X107592857Y228232619D01*
X107830952Y228232619D01*
X107973809Y228185000D01*
X108069047Y228089761D01*
X108116666Y227994523D01*
X108164285Y227804047D01*
X108164285Y227661190D01*
X108116666Y227470714D01*
X108069047Y227375476D01*
X107973809Y227280238D01*
X107830952Y227232619D01*
X107592857Y227232619D01*
X109116666Y227232619D02*
X108545238Y227232619D01*
X108830952Y227232619D02*
X108830952Y228232619D01*
X108735714Y228089761D01*
X108640476Y227994523D01*
X108545238Y227946904D01*
X109973809Y227899285D02*
X109973809Y227232619D01*
X109735714Y228280238D02*
X109497619Y227565952D01*
X110116666Y227565952D01*
G04 #@! TD*
M02*
