G04 #@! TF.GenerationSoftware,KiCad,Pcbnew,5.0.0+dfsg1-2~bpo9+1*
G04 #@! TF.CreationDate,2018-12-15T18:36:23+00:00*
G04 #@! TF.ProjectId,chordboard,63686F7264626F6172642E6B69636164,rev?*
G04 #@! TF.SameCoordinates,Original*
G04 #@! TF.FileFunction,Profile,NP*
%FSLAX46Y46*%
G04 Gerber Fmt 4.6, Leading zero omitted, Abs format (unit mm)*
G04 Created by KiCad (PCBNEW 5.0.0+dfsg1-2~bpo9+1) date Sat Dec 15 18:36:23 2018*
%MOMM*%
%LPD*%
G01*
G04 APERTURE LIST*
%ADD10C,0.150000*%
G04 APERTURE END LIST*
D10*
X115570000Y240030000D02*
G75*
G02X118110000Y237490000I0J-2540000D01*
G01*
X118110000Y182880000D02*
G75*
G02X115570000Y180340000I-2540000J0D01*
G01*
X-13970000Y180340000D02*
G75*
G02X-16510000Y182880000I0J2540000D01*
G01*
X-16510000Y237490000D02*
G75*
G02X-13970000Y240030000I2540000J0D01*
G01*
X-16510000Y182880000D02*
X-16510000Y237490000D01*
X115570000Y180340000D02*
X-13970000Y180340000D01*
X118110000Y237490000D02*
X118110000Y182880000D01*
X-13970000Y240030000D02*
X115570000Y240030000D01*
M02*
