G04 #@! TF.GenerationSoftware,KiCad,Pcbnew,5.0.0+dfsg1-2~bpo9+1*
G04 #@! TF.CreationDate,2018-12-15T18:36:23+00:00*
G04 #@! TF.ProjectId,chordboard,63686F7264626F6172642E6B69636164,rev?*
G04 #@! TF.SameCoordinates,Original*
G04 #@! TF.FileFunction,Soldermask,Top*
G04 #@! TF.FilePolarity,Negative*
%FSLAX46Y46*%
G04 Gerber Fmt 4.6, Leading zero omitted, Abs format (unit mm)*
G04 Created by KiCad (PCBNEW 5.0.0+dfsg1-2~bpo9+1) date Sat Dec 15 18:36:23 2018*
%MOMM*%
%LPD*%
G01*
G04 APERTURE LIST*
%ADD10C,1.200000*%
%ADD11C,6.800000*%
%ADD12C,2.000000*%
%ADD13R,2.000000X2.000000*%
%ADD14R,2.200000X2.200000*%
%ADD15C,2.200000*%
%ADD16C,1.800000*%
%ADD17O,1.800000X1.800000*%
%ADD18C,2.686000*%
%ADD19O,2.000000X2.000000*%
%ADD20C,0.100000*%
%ADD21C,1.600000*%
%ADD22O,1.600000X2.150000*%
G04 APERTURE END LIST*
D10*
G04 #@! TO.C,H1*
X114587056Y187117056D03*
X112890000Y187820000D03*
X111192944Y187117056D03*
X110490000Y185420000D03*
X111192944Y183722944D03*
X112890000Y183020000D03*
X114587056Y183722944D03*
X115290000Y185420000D03*
D11*
X112890000Y185420000D03*
G04 #@! TD*
G04 #@! TO.C,H2*
X-11430000Y185420000D03*
D10*
X-9030000Y185420000D03*
X-9732944Y183722944D03*
X-11430000Y183020000D03*
X-13127056Y183722944D03*
X-13830000Y185420000D03*
X-13127056Y187117056D03*
X-11430000Y187820000D03*
X-9732944Y187117056D03*
G04 #@! TD*
G04 #@! TO.C,H3*
X-9732944Y236647056D03*
X-11430000Y237350000D03*
X-13127056Y236647056D03*
X-13830000Y234950000D03*
X-13127056Y233252944D03*
X-11430000Y232550000D03*
X-9732944Y233252944D03*
X-9030000Y234950000D03*
D11*
X-11430000Y234950000D03*
G04 #@! TD*
G04 #@! TO.C,H4*
X113030000Y234950000D03*
D10*
X115430000Y234950000D03*
X114727056Y233252944D03*
X113030000Y232550000D03*
X111332944Y233252944D03*
X110630000Y234950000D03*
X111332944Y236647056D03*
X113030000Y237350000D03*
X114727056Y236647056D03*
G04 #@! TD*
D12*
G04 #@! TO.C,C1*
X20955000Y192405000D03*
X23455000Y192405000D03*
G04 #@! TD*
D13*
G04 #@! TO.C,C2*
X95250000Y187325000D03*
D12*
X97250000Y187325000D03*
G04 #@! TD*
G04 #@! TO.C,C3*
X78105000Y192405000D03*
X80605000Y192405000D03*
G04 #@! TD*
D13*
G04 #@! TO.C,C4*
X38100000Y187325000D03*
D12*
X40100000Y187325000D03*
G04 #@! TD*
D14*
G04 #@! TO.C,LED1*
X-7620000Y206375000D03*
D15*
X-5080000Y206375000D03*
G04 #@! TD*
G04 #@! TO.C,LED2*
X13970000Y206375000D03*
D14*
X11430000Y206375000D03*
G04 #@! TD*
G04 #@! TO.C,LED3*
X30480000Y206375000D03*
D15*
X33020000Y206375000D03*
G04 #@! TD*
G04 #@! TO.C,LED4*
X52070000Y206375000D03*
D14*
X49530000Y206375000D03*
G04 #@! TD*
G04 #@! TO.C,LED5*
X68580000Y206375000D03*
D15*
X71120000Y206375000D03*
G04 #@! TD*
G04 #@! TO.C,LED6*
X90170000Y206375000D03*
D14*
X87630000Y206375000D03*
G04 #@! TD*
G04 #@! TO.C,LED7*
X106680000Y206375000D03*
D15*
X109220000Y206375000D03*
G04 #@! TD*
G04 #@! TO.C,LED8*
X-5080000Y225425000D03*
D14*
X-7620000Y225425000D03*
G04 #@! TD*
G04 #@! TO.C,LED9*
X11430000Y225425000D03*
D15*
X13970000Y225425000D03*
G04 #@! TD*
G04 #@! TO.C,LED10*
X33020000Y225425000D03*
D14*
X30480000Y225425000D03*
G04 #@! TD*
G04 #@! TO.C,LED11*
X49530000Y225425000D03*
D15*
X52070000Y225425000D03*
G04 #@! TD*
D14*
G04 #@! TO.C,LED12*
X68580000Y225425000D03*
D15*
X71120000Y225425000D03*
G04 #@! TD*
G04 #@! TO.C,LED13*
X90170000Y225425000D03*
D14*
X87630000Y225425000D03*
G04 #@! TD*
G04 #@! TO.C,LED14*
X106680000Y225425000D03*
D15*
X109220000Y225425000D03*
G04 #@! TD*
D16*
G04 #@! TO.C,R1*
X3175000Y206375000D03*
D17*
X3175000Y198755000D03*
G04 #@! TD*
G04 #@! TO.C,R2*
X21590000Y198755000D03*
D16*
X21590000Y206375000D03*
G04 #@! TD*
G04 #@! TO.C,R3*
X40640000Y206375000D03*
D17*
X40640000Y198755000D03*
G04 #@! TD*
G04 #@! TO.C,R4*
X59690000Y198755000D03*
D16*
X59690000Y206375000D03*
G04 #@! TD*
G04 #@! TO.C,R5*
X78740000Y206375000D03*
D17*
X78740000Y198755000D03*
G04 #@! TD*
G04 #@! TO.C,R6*
X97790000Y198755000D03*
D16*
X97790000Y206375000D03*
G04 #@! TD*
G04 #@! TO.C,R7*
X116840000Y206375000D03*
D17*
X116840000Y198755000D03*
G04 #@! TD*
G04 #@! TO.C,R8*
X2540000Y217805000D03*
D16*
X2540000Y225425000D03*
G04 #@! TD*
D17*
G04 #@! TO.C,R9*
X21590000Y217805000D03*
D16*
X21590000Y225425000D03*
G04 #@! TD*
G04 #@! TO.C,R10*
X40640000Y225425000D03*
D17*
X40640000Y217805000D03*
G04 #@! TD*
G04 #@! TO.C,R11*
X59690000Y217805000D03*
D16*
X59690000Y225425000D03*
G04 #@! TD*
G04 #@! TO.C,R12*
X78740000Y225425000D03*
D17*
X78740000Y217805000D03*
G04 #@! TD*
D16*
G04 #@! TO.C,R13*
X97790000Y225425000D03*
D17*
X97790000Y217805000D03*
G04 #@! TD*
G04 #@! TO.C,R14*
X115570000Y217805000D03*
D16*
X115570000Y225425000D03*
G04 #@! TD*
G04 #@! TO.C,R17*
X104140000Y189865000D03*
D17*
X104140000Y182245000D03*
G04 #@! TD*
G04 #@! TO.C,R18*
X100965000Y182245000D03*
D16*
X100965000Y189865000D03*
G04 #@! TD*
D18*
G04 #@! TO.C,SW1*
X-2540000Y198120000D03*
X-8890000Y195580000D03*
G04 #@! TD*
G04 #@! TO.C,SW2*
X16510000Y198120000D03*
X10160000Y195580000D03*
G04 #@! TD*
G04 #@! TO.C,SW3*
X29210000Y195580000D03*
X35560000Y198120000D03*
G04 #@! TD*
G04 #@! TO.C,SW4*
X54610000Y198120000D03*
X48260000Y195580000D03*
G04 #@! TD*
G04 #@! TO.C,SW5*
X67310000Y195580000D03*
X73660000Y198120000D03*
G04 #@! TD*
G04 #@! TO.C,SW6*
X86360000Y195580000D03*
X92710000Y198120000D03*
G04 #@! TD*
G04 #@! TO.C,SW7*
X111760000Y198120000D03*
X105410000Y195580000D03*
G04 #@! TD*
G04 #@! TO.C,SW8*
X-2540000Y217170000D03*
X-8890000Y214630000D03*
G04 #@! TD*
G04 #@! TO.C,SW9*
X10160000Y214630000D03*
X16510000Y217170000D03*
G04 #@! TD*
G04 #@! TO.C,SW10*
X29210000Y214630000D03*
X35560000Y217170000D03*
G04 #@! TD*
G04 #@! TO.C,SW11*
X54610000Y217170000D03*
X48260000Y214630000D03*
G04 #@! TD*
G04 #@! TO.C,SW12*
X73660000Y217170000D03*
X67310000Y214630000D03*
G04 #@! TD*
G04 #@! TO.C,SW13*
X86360000Y214630000D03*
X92710000Y217170000D03*
G04 #@! TD*
G04 #@! TO.C,SW14*
X105410000Y214630000D03*
X111760000Y217170000D03*
G04 #@! TD*
D13*
G04 #@! TO.C,U1*
X57785000Y189865000D03*
D19*
X90805000Y182245000D03*
X60325000Y189865000D03*
X88265000Y182245000D03*
X62865000Y189865000D03*
X85725000Y182245000D03*
X65405000Y189865000D03*
X83185000Y182245000D03*
X67945000Y189865000D03*
X80645000Y182245000D03*
X70485000Y189865000D03*
X78105000Y182245000D03*
X73025000Y189865000D03*
X75565000Y182245000D03*
X75565000Y189865000D03*
X73025000Y182245000D03*
X78105000Y189865000D03*
X70485000Y182245000D03*
X80645000Y189865000D03*
X67945000Y182245000D03*
X83185000Y189865000D03*
X65405000Y182245000D03*
X85725000Y189865000D03*
X62865000Y182245000D03*
X88265000Y189865000D03*
X60325000Y182245000D03*
X90805000Y189865000D03*
X57785000Y182245000D03*
G04 #@! TD*
G04 #@! TO.C,U2*
X635000Y182245000D03*
X33655000Y189865000D03*
X3175000Y182245000D03*
X31115000Y189865000D03*
X5715000Y182245000D03*
X28575000Y189865000D03*
X8255000Y182245000D03*
X26035000Y189865000D03*
X10795000Y182245000D03*
X23495000Y189865000D03*
X13335000Y182245000D03*
X20955000Y189865000D03*
X15875000Y182245000D03*
X18415000Y189865000D03*
X18415000Y182245000D03*
X15875000Y189865000D03*
X20955000Y182245000D03*
X13335000Y189865000D03*
X23495000Y182245000D03*
X10795000Y189865000D03*
X26035000Y182245000D03*
X8255000Y189865000D03*
X28575000Y182245000D03*
X5715000Y189865000D03*
X31115000Y182245000D03*
X3175000Y189865000D03*
X33655000Y182245000D03*
D13*
X635000Y189865000D03*
G04 #@! TD*
D17*
G04 #@! TO.C,R19*
X44450000Y182245000D03*
D16*
X44450000Y189865000D03*
G04 #@! TD*
G04 #@! TO.C,R20*
X47625000Y189865000D03*
D17*
X47625000Y182245000D03*
G04 #@! TD*
D20*
G04 #@! TO.C,J1*
G36*
X-2040660Y234118395D02*
X-2008302Y234113595D01*
X-1976571Y234105647D01*
X-1945771Y234094627D01*
X-1916200Y234080641D01*
X-1888143Y234063823D01*
X-1861868Y234044337D01*
X-1837631Y234022369D01*
X-1815663Y233998132D01*
X-1796177Y233971857D01*
X-1779359Y233943800D01*
X-1765373Y233914229D01*
X-1754353Y233883429D01*
X-1746405Y233851698D01*
X-1741605Y233819340D01*
X-1740000Y233786668D01*
X-1740000Y232303332D01*
X-1741605Y232270660D01*
X-1746405Y232238302D01*
X-1754353Y232206571D01*
X-1765373Y232175771D01*
X-1779359Y232146200D01*
X-1796177Y232118143D01*
X-1815663Y232091868D01*
X-1837631Y232067631D01*
X-1861868Y232045663D01*
X-1888143Y232026177D01*
X-1916200Y232009359D01*
X-1945771Y231995373D01*
X-1976571Y231984353D01*
X-2008302Y231976405D01*
X-2040660Y231971605D01*
X-2073332Y231970000D01*
X-3006668Y231970000D01*
X-3039340Y231971605D01*
X-3071698Y231976405D01*
X-3103429Y231984353D01*
X-3134229Y231995373D01*
X-3163800Y232009359D01*
X-3191857Y232026177D01*
X-3218132Y232045663D01*
X-3242369Y232067631D01*
X-3264337Y232091868D01*
X-3283823Y232118143D01*
X-3300641Y232146200D01*
X-3314627Y232175771D01*
X-3325647Y232206571D01*
X-3333595Y232238302D01*
X-3338395Y232270660D01*
X-3340000Y232303332D01*
X-3340000Y233786668D01*
X-3338395Y233819340D01*
X-3333595Y233851698D01*
X-3325647Y233883429D01*
X-3314627Y233914229D01*
X-3300641Y233943800D01*
X-3283823Y233971857D01*
X-3264337Y233998132D01*
X-3242369Y234022369D01*
X-3218132Y234044337D01*
X-3191857Y234063823D01*
X-3163800Y234080641D01*
X-3134229Y234094627D01*
X-3103429Y234105647D01*
X-3071698Y234113595D01*
X-3039340Y234118395D01*
X-3006668Y234120000D01*
X-2073332Y234120000D01*
X-2040660Y234118395D01*
X-2040660Y234118395D01*
G37*
D21*
X-2540000Y233045000D03*
D22*
X-540000Y233045000D03*
X1460000Y233045000D03*
X3460000Y233045000D03*
G04 #@! TD*
G04 #@! TO.C,J5*
X103790000Y233045000D03*
X101790000Y233045000D03*
X99790000Y233045000D03*
D20*
G36*
X98289340Y234118395D02*
X98321698Y234113595D01*
X98353429Y234105647D01*
X98384229Y234094627D01*
X98413800Y234080641D01*
X98441857Y234063823D01*
X98468132Y234044337D01*
X98492369Y234022369D01*
X98514337Y233998132D01*
X98533823Y233971857D01*
X98550641Y233943800D01*
X98564627Y233914229D01*
X98575647Y233883429D01*
X98583595Y233851698D01*
X98588395Y233819340D01*
X98590000Y233786668D01*
X98590000Y232303332D01*
X98588395Y232270660D01*
X98583595Y232238302D01*
X98575647Y232206571D01*
X98564627Y232175771D01*
X98550641Y232146200D01*
X98533823Y232118143D01*
X98514337Y232091868D01*
X98492369Y232067631D01*
X98468132Y232045663D01*
X98441857Y232026177D01*
X98413800Y232009359D01*
X98384229Y231995373D01*
X98353429Y231984353D01*
X98321698Y231976405D01*
X98289340Y231971605D01*
X98256668Y231970000D01*
X97323332Y231970000D01*
X97290660Y231971605D01*
X97258302Y231976405D01*
X97226571Y231984353D01*
X97195771Y231995373D01*
X97166200Y232009359D01*
X97138143Y232026177D01*
X97111868Y232045663D01*
X97087631Y232067631D01*
X97065663Y232091868D01*
X97046177Y232118143D01*
X97029359Y232146200D01*
X97015373Y232175771D01*
X97004353Y232206571D01*
X96996405Y232238302D01*
X96991605Y232270660D01*
X96990000Y232303332D01*
X96990000Y233786668D01*
X96991605Y233819340D01*
X96996405Y233851698D01*
X97004353Y233883429D01*
X97015373Y233914229D01*
X97029359Y233943800D01*
X97046177Y233971857D01*
X97065663Y233998132D01*
X97087631Y234022369D01*
X97111868Y234044337D01*
X97138143Y234063823D01*
X97166200Y234080641D01*
X97195771Y234094627D01*
X97226571Y234105647D01*
X97258302Y234113595D01*
X97290660Y234118395D01*
X97323332Y234120000D01*
X98256668Y234120000D01*
X98289340Y234118395D01*
X98289340Y234118395D01*
G37*
D21*
X97790000Y233045000D03*
G04 #@! TD*
M02*
