EESchema Schematic File Version 2
LIBS:chordboard-rescue
LIBS:power
LIBS:device
LIBS:transistors
LIBS:conn
LIBS:linear
LIBS:regul
LIBS:74xx
LIBS:cmos4000
LIBS:adc-dac
LIBS:memory
LIBS:xilinx
LIBS:microcontrollers
LIBS:dsp
LIBS:microchip
LIBS:analog_switches
LIBS:motorola
LIBS:texas
LIBS:intel
LIBS:audio
LIBS:interface
LIBS:digital-audio
LIBS:philips
LIBS:display
LIBS:cypress
LIBS:siliconi
LIBS:opto
LIBS:atmel
LIBS:contrib
LIBS:valves
LIBS:teensy
LIBS:switches
LIBS:Symbols_DCDC-ACDC-Converter_RevC_20Jul2012
LIBS:Symbols_EN60617_13Mar2013
LIBS:Symbols_EN60617-10_HF-Radio_DRAFT_12Sep2013
LIBS:Symbols_ICs-Diskrete_RevD10
LIBS:Symbols_ICs-Opto_RevB_16Sep2013
LIBS:Symbols_Microcontroller_Philips-NXP_RevA_06Oct2013
LIBS:SymbolsSimilarEN60617+oldDIN617-RevE8
LIBS:Symbols_Socket-DIN41612_RevA
LIBS:Symbols_Transformer-Diskrete_RevA
LIBS:74xgxx
LIBS:ac-dc
LIBS:actel
LIBS:allegro
LIBS:Altera
LIBS:analog_devices
LIBS:battery_management
LIBS:bbd
LIBS:brooktre
LIBS:cmos_ieee
LIBS:dc-dc
LIBS:diode
LIBS:elec-unifil
LIBS:ESD_Protection
LIBS:ftdi
LIBS:gennum
LIBS:graphic
LIBS:hc11
LIBS:ir
LIBS:Lattice
LIBS:logo
LIBS:maxim
LIBS:mechanical
LIBS:microchip_dspic33dsc
LIBS:microchip_pic10mcu
LIBS:microchip_pic12mcu
LIBS:microchip_pic16mcu
LIBS:microchip_pic18mcu
LIBS:microchip_pic32mcu
LIBS:motor_drivers
LIBS:motors
LIBS:msp430
LIBS:nordicsemi
LIBS:nxp_armmcu
LIBS:onsemi
LIBS:Oscillators
LIBS:powerint
LIBS:Power_Management
LIBS:pspice
LIBS:references
LIBS:relays
LIBS:rfcom
LIBS:sensors
LIBS:silabs
LIBS:stm8
LIBS:stm32
LIBS:supertex
LIBS:transf
LIBS:ttl_ieee
LIBS:video
LIBS:wiznet
LIBS:Worldsemi
LIBS:Xicor
LIBS:zetex
LIBS:Zilog
LIBS:Rotary-Encoders
LIBS:eurocad
LIBS:afshar
LIBS:74hct125d
LIBS:74hct245
LIBS:4000-ic
LIBS:7400-ic
LIBS:75176
LIBS:Abracon
LIBS:ABS07-32.768KHZ-T
LIBS:acorn_electron_expansion_connector
LIBS:ActiveSemi
LIBS:akn_holtek
LIBS:akn_maxim
LIBS:akn_misc
LIBS:akn_transformers
LIBS:altera
LIBS:Amplifiers
LIBS:AMS
LIBS:analog-devices
LIBS:AnalogDevices
LIBS:analog-ic
LIBS:AOS
LIBS:arm-swd-header
LIBS:Atmel
LIBS:avr-mcu
LIBS:bluegiga
LIBS:Bosch
LIBS:Chipkit_Shield_Max32-cache
LIBS:Chipkit_Shield_uC-cache
LIBS:conn-2mm
LIBS:conn-100mil
LIBS:conn-amphenol
LIBS:conn-assmann
LIBS:conn-cui
LIBS:connector
LIBS:Connectors
LIBS:conn-fci
LIBS:conn-jae
LIBS:conn-linx
LIBS:conn_mics
LIBS:conn-molex
LIBS:conn-special-headers
LIBS:conn-tagconnect
LIBS:conn-te
LIBS:conn-test
LIBS:CubeSatKit_StackBoard-cache
LIBS:DataStorage
LIBS:diode-inc-ic
LIBS:Diodes
LIBS:DiodesInc
LIBS:EKB
LIBS:electomech-misc
LIBS:_electromech
LIBS:esp8266-esp-01
LIBS:esp8266-esp-03
LIBS:esp8266-esp-12e
LIBS:ESP8266
LIBS:Fairchild
LIBS:freescale-ic
LIBS:FTDI
LIBS:ftdi-ic
LIBS:hm-11
LIBS:Infineon
LIBS:Intersil
LIBS:iso15
LIBS:kbox
LIBS:kbox-cache
LIBS:KCDA02-123
LIBS:led
LIBS:_linear
LIBS:LinearTech
LIBS:Littelfuse
LIBS:_logic
LIBS:logic-4000
LIBS:logic-7400
LIBS:logic-7400-new
LIBS:LogicDevices
LIBS:lpc11u14fbd48
LIBS:lt
LIBS:MACOM
LIBS:Macrofab
LIBS:max
LIBS:maxim-ic
LIBS:mcp1700t-3302e-tt
LIBS:mcp73831t-2aci-ot
LIBS:micrel-ic
LIBS:Microchip
LIBS:microchip-ic
LIBS:Micron
LIBS:Microprocessors
LIBS:micro_usb_socket
LIBS:MiscellaneousDevices
LIBS:mke02z64vld2
LIBS:mke04z8vtg4
LIBS:Murata
LIBS:nrf24l01p_smd
LIBS:nrf51822-04
LIBS:nRF24L01+
LIBS:NXP
LIBS:nxp-ic
LIBS:OceanOptics
LIBS:on-semi-ic
LIBS:opamps
LIBS:_passive
LIBS:Passives
LIBS:pasv-BelFuse
LIBS:pasv-BiTech
LIBS:pasv-Bourns
LIBS:pasv-cap
LIBS:pasv-ind
LIBS:pasv-Murata
LIBS:pasv-res
LIBS:pasv-TDK
LIBS:pasv-xtal
LIBS:pcb
LIBS:PMOD
LIBS:PowerComponents
LIBS:pp_ws2812b
LIBS:random-mics
LIBS:Recom
LIBS:recom-r1se
LIBS:regulator
LIBS:relays-a
LIBS:RepeaterParts
LIBS:RF_OEM_Parts
LIBS:Richtek
LIBS:rohm
LIBS:_semi
LIBS:semi-diode-DiodesInc
LIBS:semi-diode-generic
LIBS:semi-diode-MCC
LIBS:semi-diode-NXP
LIBS:semi-diode-OnSemi
LIBS:semi-diode-Semtech
LIBS:semi-diode-ST
LIBS:semi-diode-Toshiba
LIBS:semi-opto-generic
LIBS:semi-opto-liteon
LIBS:semi-thyristor-generic
LIBS:semi-trans-AOS
LIBS:semi-trans-DiodesInc
LIBS:semi-trans-EPC
LIBS:semi-trans-Fairchild
LIBS:semi-trans-generic
LIBS:semi-trans-Infineon
LIBS:semi-trans-IRF
LIBS:semi-trans-IXYS
LIBS:semi-trans-NXP
LIBS:semi-trans-OnSemi
LIBS:semi-trans-Panasonic
LIBS:semi-trans-ST
LIBS:semi-trans-TI
LIBS:semi-trans-Toshiba
LIBS:semi-trans-Vishay
LIBS:Sensors
LIBS:sharp-relay
LIBS:skyworks
LIBS:Snickerdoodle
LIBS:sparkfun
LIBS:ST
LIBS:standard
LIBS:st_ic
LIBS:stm32f37xxx_48pin
LIBS:stm32f102xx_48pin
LIBS:stm32f103c8t6-module-china
LIBS:stm32f302xx_48pin
LIBS:stmicro-mcu
LIBS:symbol
LIBS:TexasInstruments
LIBS:ti
LIBS:ti-ic
LIBS:tinkerforge
LIBS:transistor
LIBS:TransistorParts
LIBS:transistors-mics
LIBS:txs2sa-relay
LIBS:uart_pp
LIBS:u-blox
LIBS:uln-ic
LIBS:usb_plug
LIBS:Vishay
LIBS:Winbond
LIBS:ws2812b
LIBS:Xilinx
LIBS:SparkFun-DigitalIC
LIBS:k66lqfp
LIBS:Wetmelon
LIBS:chordboard-components
LIBS:chordboard-cache
EELAYER 25 0
EELAYER END
$Descr A4 11693 8268
encoding utf-8
Sheet 2 2
Title ""
Date ""
Rev ""
Comp ""
Comment1 ""
Comment2 ""
Comment3 ""
Comment4 ""
$EndDescr
Text Label -450 3200 2    60   ~ 0
PIXEL1_IN
$Comp
L +5V #PWR?
U 1 1 5A90B5F8
P -500 3950
F 0 "#PWR?" H -500 3800 50  0001 C CNN
F 1 "+5V" H -500 4090 50  0000 C CNN
F 2 "" H -500 3950 50  0001 C CNN
F 3 "" H -500 3950 50  0001 C CNN
	1    -500 3950
	1    0    0    -1  
$EndComp
$Comp
L C C?
U 1 1 5A90B5FE
P -600 4150
F 0 "C?" H -575 4250 50  0000 L CNN
F 1 "0.1uF" V -500 3900 50  0000 L CNN
F 2 "Capacitors_THT:C_Disc_D4.3mm_W1.9mm_P5.00mm" H -562 4000 50  0001 C CNN
F 3 "" H -600 4150 50  0001 C CNN
	1    -600 4150
	1    0    0    -1  
$EndComp
$Comp
L 74LS245_aa U?
U 1 1 5A90B605
P 350 3700
F 0 "U?" H 450 4275 50  0000 L BNN
F 1 "74LS245_aa" H 400 3125 50  0000 L TNN
F 2 "Housings_DIP:DIP-20_W7.62mm" H 350 3700 50  0001 C CNN
F 3 "" H 350 3700 50  0001 C CNN
	1    350  3700
	1    0    0    -1  
$EndComp
$Comp
L +5V #PWR?
U 1 1 5A90B60C
P 350 2800
F 0 "#PWR?" H 350 2650 50  0001 C CNN
F 1 "+5V" H 350 2940 50  0000 C CNN
F 2 "" H 350 2800 50  0001 C CNN
F 3 "" H 350 2800 50  0001 C CNN
	1    350  2800
	1    0    0    -1  
$EndComp
$Comp
L GND #PWR?
U 1 1 5A90B612
P 350 4650
F 0 "#PWR?" H 350 4400 50  0001 C CNN
F 1 "GND" H 350 4500 50  0000 C CNN
F 2 "" H 350 4650 50  0000 C CNN
F 3 "" H 350 4650 50  0000 C CNN
	1    350  4650
	1    0    0    -1  
$EndComp
Text Label -450 3300 2    60   ~ 0
PIXEL2_IN
$Comp
L WS2812B LED?
U 1 1 5A90B619
P 2000 3100
F 0 "LED?" H 2000 2900 50  0000 C CNN
F 1 "WS2812B" H 2000 3200 50  0000 C CNN
F 2 "LEDs:LED_WS2812B-PLCC4" H 2000 2800 50  0001 C CNN
F 3 "" H 2000 3050 50  0001 C CNN
	1    2000 3100
	1    0    0    -1  
$EndComp
$Comp
L C C?
U 1 1 5A90B620
P 1800 2600
F 0 "C?" H 1825 2700 50  0000 L CNN
F 1 "0.1uF" V 1900 2350 50  0000 L CNN
F 2 "Capacitors_THT:C_Disc_D4.3mm_W1.9mm_P5.00mm" H 1838 2450 50  0001 C CNN
F 3 "" H 1800 2600 50  0001 C CNN
	1    1800 2600
	0    1    1    0   
$EndComp
$Comp
L GND #PWR?
U 1 1 5A90B627
P 2050 2700
F 0 "#PWR?" H 2050 2450 50  0001 C CNN
F 1 "GND" H 2050 2550 50  0000 C CNN
F 2 "" H 2050 2700 50  0000 C CNN
F 3 "" H 2050 2700 50  0000 C CNN
	1    2050 2700
	1    0    0    -1  
$EndComp
$Comp
L GND #PWR?
U 1 1 5A90B62D
P 2400 3350
F 0 "#PWR?" H 2400 3100 50  0001 C CNN
F 1 "GND" H 2400 3200 50  0000 C CNN
F 2 "" H 2400 3350 50  0000 C CNN
F 3 "" H 2400 3350 50  0000 C CNN
	1    2400 3350
	1    0    0    -1  
$EndComp
$Comp
L +5V #PWR?
U 1 1 5A90B633
P 1600 2400
F 0 "#PWR?" H 1600 2250 50  0001 C CNN
F 1 "+5V" H 1600 2540 50  0000 C CNN
F 2 "" H 1600 2400 50  0001 C CNN
F 3 "" H 1600 2400 50  0001 C CNN
	1    1600 2400
	1    0    0    -1  
$EndComp
$Comp
L WS2812B LED?
U 1 1 5A90B639
P 2900 3100
F 0 "LED?" H 2900 2900 50  0000 C CNN
F 1 "WS2812B" H 2900 3200 50  0000 C CNN
F 2 "LEDs:LED_WS2812B-PLCC4" H 2900 2800 50  0001 C CNN
F 3 "" H 2900 3050 50  0001 C CNN
	1    2900 3100
	1    0    0    -1  
$EndComp
$Comp
L C C?
U 1 1 5A90B640
P 2700 2600
F 0 "C?" H 2725 2700 50  0000 L CNN
F 1 "0.1uF" V 2800 2350 50  0000 L CNN
F 2 "Capacitors_THT:C_Disc_D4.3mm_W1.9mm_P5.00mm" H 2738 2450 50  0001 C CNN
F 3 "" H 2700 2600 50  0001 C CNN
	1    2700 2600
	0    1    1    0   
$EndComp
$Comp
L GND #PWR?
U 1 1 5A90B647
P 2950 2700
F 0 "#PWR?" H 2950 2450 50  0001 C CNN
F 1 "GND" H 2950 2550 50  0000 C CNN
F 2 "" H 2950 2700 50  0000 C CNN
F 3 "" H 2950 2700 50  0000 C CNN
	1    2950 2700
	1    0    0    -1  
$EndComp
$Comp
L GND #PWR?
U 1 1 5A90B64D
P 3300 3350
F 0 "#PWR?" H 3300 3100 50  0001 C CNN
F 1 "GND" H 3300 3200 50  0000 C CNN
F 2 "" H 3300 3350 50  0000 C CNN
F 3 "" H 3300 3350 50  0000 C CNN
	1    3300 3350
	1    0    0    -1  
$EndComp
$Comp
L +5V #PWR?
U 1 1 5A90B653
P 2500 2400
F 0 "#PWR?" H 2500 2250 50  0001 C CNN
F 1 "+5V" H 2500 2540 50  0000 C CNN
F 2 "" H 2500 2400 50  0001 C CNN
F 3 "" H 2500 2400 50  0001 C CNN
	1    2500 2400
	1    0    0    -1  
$EndComp
$Comp
L WS2812B LED?
U 1 1 5A90B659
P 3800 3100
F 0 "LED?" H 3800 2900 50  0000 C CNN
F 1 "WS2812B" H 3800 3200 50  0000 C CNN
F 2 "LEDs:LED_WS2812B-PLCC4" H 3800 2800 50  0001 C CNN
F 3 "" H 3800 3050 50  0001 C CNN
	1    3800 3100
	1    0    0    -1  
$EndComp
$Comp
L C C?
U 1 1 5A90B660
P 3600 2600
F 0 "C?" H 3625 2700 50  0000 L CNN
F 1 "0.1uF" V 3700 2350 50  0000 L CNN
F 2 "Capacitors_THT:C_Disc_D4.3mm_W1.9mm_P5.00mm" H 3638 2450 50  0001 C CNN
F 3 "" H 3600 2600 50  0001 C CNN
	1    3600 2600
	0    1    1    0   
$EndComp
$Comp
L GND #PWR?
U 1 1 5A90B667
P 3850 2700
F 0 "#PWR?" H 3850 2450 50  0001 C CNN
F 1 "GND" H 3850 2550 50  0000 C CNN
F 2 "" H 3850 2700 50  0000 C CNN
F 3 "" H 3850 2700 50  0000 C CNN
	1    3850 2700
	1    0    0    -1  
$EndComp
$Comp
L GND #PWR?
U 1 1 5A90B66D
P 4200 3350
F 0 "#PWR?" H 4200 3100 50  0001 C CNN
F 1 "GND" H 4200 3200 50  0000 C CNN
F 2 "" H 4200 3350 50  0000 C CNN
F 3 "" H 4200 3350 50  0000 C CNN
	1    4200 3350
	1    0    0    -1  
$EndComp
$Comp
L +5V #PWR?
U 1 1 5A90B673
P 3400 2400
F 0 "#PWR?" H 3400 2250 50  0001 C CNN
F 1 "+5V" H 3400 2540 50  0000 C CNN
F 2 "" H 3400 2400 50  0001 C CNN
F 3 "" H 3400 2400 50  0001 C CNN
	1    3400 2400
	1    0    0    -1  
$EndComp
$Comp
L WS2812B LED?
U 1 1 5A90B679
P 4700 3100
F 0 "LED?" H 4700 2900 50  0000 C CNN
F 1 "WS2812B" H 4700 3200 50  0000 C CNN
F 2 "LEDs:LED_WS2812B-PLCC4" H 4700 2800 50  0001 C CNN
F 3 "" H 4700 3050 50  0001 C CNN
	1    4700 3100
	1    0    0    -1  
$EndComp
$Comp
L C C?
U 1 1 5A90B680
P 4500 2600
F 0 "C?" H 4525 2700 50  0000 L CNN
F 1 "0.1uF" V 4600 2350 50  0000 L CNN
F 2 "Capacitors_THT:C_Disc_D4.3mm_W1.9mm_P5.00mm" H 4538 2450 50  0001 C CNN
F 3 "" H 4500 2600 50  0001 C CNN
	1    4500 2600
	0    1    1    0   
$EndComp
$Comp
L GND #PWR?
U 1 1 5A90B687
P 4750 2700
F 0 "#PWR?" H 4750 2450 50  0001 C CNN
F 1 "GND" H 4750 2550 50  0000 C CNN
F 2 "" H 4750 2700 50  0000 C CNN
F 3 "" H 4750 2700 50  0000 C CNN
	1    4750 2700
	1    0    0    -1  
$EndComp
$Comp
L GND #PWR?
U 1 1 5A90B68D
P 5100 3350
F 0 "#PWR?" H 5100 3100 50  0001 C CNN
F 1 "GND" H 5100 3200 50  0000 C CNN
F 2 "" H 5100 3350 50  0000 C CNN
F 3 "" H 5100 3350 50  0000 C CNN
	1    5100 3350
	1    0    0    -1  
$EndComp
$Comp
L +5V #PWR?
U 1 1 5A90B693
P 4300 2400
F 0 "#PWR?" H 4300 2250 50  0001 C CNN
F 1 "+5V" H 4300 2540 50  0000 C CNN
F 2 "" H 4300 2400 50  0001 C CNN
F 3 "" H 4300 2400 50  0001 C CNN
	1    4300 2400
	1    0    0    -1  
$EndComp
$Comp
L WS2812B LED?
U 1 1 5A90B699
P 5600 3100
F 0 "LED?" H 5600 2900 50  0000 C CNN
F 1 "WS2812B" H 5600 3200 50  0000 C CNN
F 2 "LEDs:LED_WS2812B-PLCC4" H 5600 2800 50  0001 C CNN
F 3 "" H 5600 3050 50  0001 C CNN
	1    5600 3100
	1    0    0    -1  
$EndComp
$Comp
L C C?
U 1 1 5A90B6A0
P 5400 2600
F 0 "C?" H 5425 2700 50  0000 L CNN
F 1 "0.1uF" V 5500 2350 50  0000 L CNN
F 2 "Capacitors_THT:C_Disc_D4.3mm_W1.9mm_P5.00mm" H 5438 2450 50  0001 C CNN
F 3 "" H 5400 2600 50  0001 C CNN
	1    5400 2600
	0    1    1    0   
$EndComp
$Comp
L GND #PWR?
U 1 1 5A90B6A7
P 5650 2700
F 0 "#PWR?" H 5650 2450 50  0001 C CNN
F 1 "GND" H 5650 2550 50  0000 C CNN
F 2 "" H 5650 2700 50  0000 C CNN
F 3 "" H 5650 2700 50  0000 C CNN
	1    5650 2700
	1    0    0    -1  
$EndComp
$Comp
L GND #PWR?
U 1 1 5A90B6AD
P 6000 3350
F 0 "#PWR?" H 6000 3100 50  0001 C CNN
F 1 "GND" H 6000 3200 50  0000 C CNN
F 2 "" H 6000 3350 50  0000 C CNN
F 3 "" H 6000 3350 50  0000 C CNN
	1    6000 3350
	1    0    0    -1  
$EndComp
$Comp
L +5V #PWR?
U 1 1 5A90B6B3
P 5200 2400
F 0 "#PWR?" H 5200 2250 50  0001 C CNN
F 1 "+5V" H 5200 2540 50  0000 C CNN
F 2 "" H 5200 2400 50  0001 C CNN
F 3 "" H 5200 2400 50  0001 C CNN
	1    5200 2400
	1    0    0    -1  
$EndComp
$Comp
L WS2812B LED?
U 1 1 5A90B6B9
P 6500 3100
F 0 "LED?" H 6500 2900 50  0000 C CNN
F 1 "WS2812B" H 6500 3200 50  0000 C CNN
F 2 "LEDs:LED_WS2812B-PLCC4" H 6500 2800 50  0001 C CNN
F 3 "" H 6500 3050 50  0001 C CNN
	1    6500 3100
	1    0    0    -1  
$EndComp
$Comp
L C C?
U 1 1 5A90B6C0
P 6300 2600
F 0 "C?" H 6325 2700 50  0000 L CNN
F 1 "0.1uF" V 6400 2350 50  0000 L CNN
F 2 "Capacitors_THT:C_Disc_D4.3mm_W1.9mm_P5.00mm" H 6338 2450 50  0001 C CNN
F 3 "" H 6300 2600 50  0001 C CNN
	1    6300 2600
	0    1    1    0   
$EndComp
$Comp
L GND #PWR?
U 1 1 5A90B6C7
P 6550 2700
F 0 "#PWR?" H 6550 2450 50  0001 C CNN
F 1 "GND" H 6550 2550 50  0000 C CNN
F 2 "" H 6550 2700 50  0000 C CNN
F 3 "" H 6550 2700 50  0000 C CNN
	1    6550 2700
	1    0    0    -1  
$EndComp
$Comp
L GND #PWR?
U 1 1 5A90B6CD
P 6900 3350
F 0 "#PWR?" H 6900 3100 50  0001 C CNN
F 1 "GND" H 6900 3200 50  0000 C CNN
F 2 "" H 6900 3350 50  0000 C CNN
F 3 "" H 6900 3350 50  0000 C CNN
	1    6900 3350
	1    0    0    -1  
$EndComp
$Comp
L +5V #PWR?
U 1 1 5A90B6D3
P 6100 2400
F 0 "#PWR?" H 6100 2250 50  0001 C CNN
F 1 "+5V" H 6100 2540 50  0000 C CNN
F 2 "" H 6100 2400 50  0001 C CNN
F 3 "" H 6100 2400 50  0001 C CNN
	1    6100 2400
	1    0    0    -1  
$EndComp
$Comp
L WS2812B LED?
U 1 1 5A90B6D9
P 7400 3100
F 0 "LED?" H 7400 2900 50  0000 C CNN
F 1 "WS2812B" H 7400 3200 50  0000 C CNN
F 2 "LEDs:LED_WS2812B-PLCC4" H 7400 2800 50  0001 C CNN
F 3 "" H 7400 3050 50  0001 C CNN
	1    7400 3100
	1    0    0    -1  
$EndComp
$Comp
L C C?
U 1 1 5A90B6E0
P 7200 2600
F 0 "C?" H 7225 2700 50  0000 L CNN
F 1 "0.1uF" V 7300 2350 50  0000 L CNN
F 2 "Capacitors_THT:C_Disc_D4.3mm_W1.9mm_P5.00mm" H 7238 2450 50  0001 C CNN
F 3 "" H 7200 2600 50  0001 C CNN
	1    7200 2600
	0    1    1    0   
$EndComp
$Comp
L GND #PWR?
U 1 1 5A90B6E7
P 7450 2700
F 0 "#PWR?" H 7450 2450 50  0001 C CNN
F 1 "GND" H 7450 2550 50  0000 C CNN
F 2 "" H 7450 2700 50  0000 C CNN
F 3 "" H 7450 2700 50  0000 C CNN
	1    7450 2700
	1    0    0    -1  
$EndComp
$Comp
L GND #PWR?
U 1 1 5A90B6ED
P 7800 3350
F 0 "#PWR?" H 7800 3100 50  0001 C CNN
F 1 "GND" H 7800 3200 50  0000 C CNN
F 2 "" H 7800 3350 50  0000 C CNN
F 3 "" H 7800 3350 50  0000 C CNN
	1    7800 3350
	1    0    0    -1  
$EndComp
$Comp
L +5V #PWR?
U 1 1 5A90B6F3
P 7000 2400
F 0 "#PWR?" H 7000 2250 50  0001 C CNN
F 1 "+5V" H 7000 2540 50  0000 C CNN
F 2 "" H 7000 2400 50  0001 C CNN
F 3 "" H 7000 2400 50  0001 C CNN
	1    7000 2400
	1    0    0    -1  
$EndComp
$Comp
L WS2812B LED?
U 1 1 5A90B6F9
P 8300 3100
F 0 "LED?" H 8300 2900 50  0000 C CNN
F 1 "WS2812B" H 8300 3200 50  0000 C CNN
F 2 "LEDs:LED_WS2812B-PLCC4" H 8300 2800 50  0001 C CNN
F 3 "" H 8300 3050 50  0001 C CNN
	1    8300 3100
	1    0    0    -1  
$EndComp
$Comp
L C C?
U 1 1 5A90B700
P 8100 2600
F 0 "C?" H 8125 2700 50  0000 L CNN
F 1 "0.1uF" V 8200 2350 50  0000 L CNN
F 2 "Capacitors_THT:C_Disc_D4.3mm_W1.9mm_P5.00mm" H 8138 2450 50  0001 C CNN
F 3 "" H 8100 2600 50  0001 C CNN
	1    8100 2600
	0    1    1    0   
$EndComp
$Comp
L GND #PWR?
U 1 1 5A90B707
P 8350 2700
F 0 "#PWR?" H 8350 2450 50  0001 C CNN
F 1 "GND" H 8350 2550 50  0000 C CNN
F 2 "" H 8350 2700 50  0000 C CNN
F 3 "" H 8350 2700 50  0000 C CNN
	1    8350 2700
	1    0    0    -1  
$EndComp
$Comp
L GND #PWR?
U 1 1 5A90B70D
P 8700 3350
F 0 "#PWR?" H 8700 3100 50  0001 C CNN
F 1 "GND" H 8700 3200 50  0000 C CNN
F 2 "" H 8700 3350 50  0000 C CNN
F 3 "" H 8700 3350 50  0000 C CNN
	1    8700 3350
	1    0    0    -1  
$EndComp
$Comp
L +5V #PWR?
U 1 1 5A90B713
P 7900 2400
F 0 "#PWR?" H 7900 2250 50  0001 C CNN
F 1 "+5V" H 7900 2540 50  0000 C CNN
F 2 "" H 7900 2400 50  0001 C CNN
F 3 "" H 7900 2400 50  0001 C CNN
	1    7900 2400
	1    0    0    -1  
$EndComp
$Comp
L WS2812B LED?
U 1 1 5A90B719
P 9200 3100
F 0 "LED?" H 9200 2900 50  0000 C CNN
F 1 "WS2812B" H 9200 3200 50  0000 C CNN
F 2 "LEDs:LED_WS2812B-PLCC4" H 9200 2800 50  0001 C CNN
F 3 "" H 9200 3050 50  0001 C CNN
	1    9200 3100
	1    0    0    -1  
$EndComp
$Comp
L C C?
U 1 1 5A90B720
P 9000 2600
F 0 "C?" H 9025 2700 50  0000 L CNN
F 1 "0.1uF" V 9100 2350 50  0000 L CNN
F 2 "Capacitors_THT:C_Disc_D4.3mm_W1.9mm_P5.00mm" H 9038 2450 50  0001 C CNN
F 3 "" H 9000 2600 50  0001 C CNN
	1    9000 2600
	0    1    1    0   
$EndComp
$Comp
L GND #PWR?
U 1 1 5A90B727
P 9250 2700
F 0 "#PWR?" H 9250 2450 50  0001 C CNN
F 1 "GND" H 9250 2550 50  0000 C CNN
F 2 "" H 9250 2700 50  0000 C CNN
F 3 "" H 9250 2700 50  0000 C CNN
	1    9250 2700
	1    0    0    -1  
$EndComp
$Comp
L GND #PWR?
U 1 1 5A90B72D
P 9600 3350
F 0 "#PWR?" H 9600 3100 50  0001 C CNN
F 1 "GND" H 9600 3200 50  0000 C CNN
F 2 "" H 9600 3350 50  0000 C CNN
F 3 "" H 9600 3350 50  0000 C CNN
	1    9600 3350
	1    0    0    -1  
$EndComp
$Comp
L +5V #PWR?
U 1 1 5A90B733
P 8800 2400
F 0 "#PWR?" H 8800 2250 50  0001 C CNN
F 1 "+5V" H 8800 2540 50  0000 C CNN
F 2 "" H 8800 2400 50  0001 C CNN
F 3 "" H 8800 2400 50  0001 C CNN
	1    8800 2400
	1    0    0    -1  
$EndComp
$Comp
L WS2812B LED?
U 1 1 5A90B739
P 10100 3100
F 0 "LED?" H 10100 2900 50  0000 C CNN
F 1 "WS2812B" H 10100 3200 50  0000 C CNN
F 2 "LEDs:LED_WS2812B-PLCC4" H 10100 2800 50  0001 C CNN
F 3 "" H 10100 3050 50  0001 C CNN
	1    10100 3100
	1    0    0    -1  
$EndComp
$Comp
L C C?
U 1 1 5A90B740
P 9900 2600
F 0 "C?" H 9925 2700 50  0000 L CNN
F 1 "0.1uF" V 10000 2350 50  0000 L CNN
F 2 "Capacitors_THT:C_Disc_D4.3mm_W1.9mm_P5.00mm" H 9938 2450 50  0001 C CNN
F 3 "" H 9900 2600 50  0001 C CNN
	1    9900 2600
	0    1    1    0   
$EndComp
$Comp
L GND #PWR?
U 1 1 5A90B747
P 10150 2700
F 0 "#PWR?" H 10150 2450 50  0001 C CNN
F 1 "GND" H 10150 2550 50  0000 C CNN
F 2 "" H 10150 2700 50  0000 C CNN
F 3 "" H 10150 2700 50  0000 C CNN
	1    10150 2700
	1    0    0    -1  
$EndComp
$Comp
L GND #PWR?
U 1 1 5A90B74D
P 10500 3350
F 0 "#PWR?" H 10500 3100 50  0001 C CNN
F 1 "GND" H 10500 3200 50  0000 C CNN
F 2 "" H 10500 3350 50  0000 C CNN
F 3 "" H 10500 3350 50  0000 C CNN
	1    10500 3350
	1    0    0    -1  
$EndComp
$Comp
L +5V #PWR?
U 1 1 5A90B753
P 9700 2400
F 0 "#PWR?" H 9700 2250 50  0001 C CNN
F 1 "+5V" H 9700 2540 50  0000 C CNN
F 2 "" H 9700 2400 50  0001 C CNN
F 3 "" H 9700 2400 50  0001 C CNN
	1    9700 2400
	1    0    0    -1  
$EndComp
$Comp
L WS2812B LED?
U 1 1 5A90B759
P 11000 3100
F 0 "LED?" H 11000 2900 50  0000 C CNN
F 1 "WS2812B" H 11000 3200 50  0000 C CNN
F 2 "LEDs:LED_WS2812B-PLCC4" H 11000 2800 50  0001 C CNN
F 3 "" H 11000 3050 50  0001 C CNN
	1    11000 3100
	1    0    0    -1  
$EndComp
$Comp
L C C?
U 1 1 5A90B760
P 10800 2600
F 0 "C?" H 10825 2700 50  0000 L CNN
F 1 "0.1uF" V 10900 2350 50  0000 L CNN
F 2 "Capacitors_THT:C_Disc_D4.3mm_W1.9mm_P5.00mm" H 10838 2450 50  0001 C CNN
F 3 "" H 10800 2600 50  0001 C CNN
	1    10800 2600
	0    1    1    0   
$EndComp
$Comp
L GND #PWR?
U 1 1 5A90B767
P 11050 2700
F 0 "#PWR?" H 11050 2450 50  0001 C CNN
F 1 "GND" H 11050 2550 50  0000 C CNN
F 2 "" H 11050 2700 50  0000 C CNN
F 3 "" H 11050 2700 50  0000 C CNN
	1    11050 2700
	1    0    0    -1  
$EndComp
$Comp
L GND #PWR?
U 1 1 5A90B76D
P 11400 3350
F 0 "#PWR?" H 11400 3100 50  0001 C CNN
F 1 "GND" H 11400 3200 50  0000 C CNN
F 2 "" H 11400 3350 50  0000 C CNN
F 3 "" H 11400 3350 50  0000 C CNN
	1    11400 3350
	1    0    0    -1  
$EndComp
$Comp
L +5V #PWR?
U 1 1 5A90B773
P 10600 2400
F 0 "#PWR?" H 10600 2250 50  0001 C CNN
F 1 "+5V" H 10600 2540 50  0000 C CNN
F 2 "" H 10600 2400 50  0001 C CNN
F 3 "" H 10600 2400 50  0001 C CNN
	1    10600 2400
	1    0    0    -1  
$EndComp
$Comp
L WS2812B LED?
U 1 1 5A90B779
P 11900 3100
F 0 "LED?" H 11900 2900 50  0000 C CNN
F 1 "WS2812B" H 11900 3200 50  0000 C CNN
F 2 "LEDs:LED_WS2812B-PLCC4" H 11900 2800 50  0001 C CNN
F 3 "" H 11900 3050 50  0001 C CNN
	1    11900 3100
	1    0    0    -1  
$EndComp
$Comp
L C C?
U 1 1 5A90B780
P 11700 2600
F 0 "C?" H 11725 2700 50  0000 L CNN
F 1 "0.1uF" V 11800 2350 50  0000 L CNN
F 2 "Capacitors_THT:C_Disc_D4.3mm_W1.9mm_P5.00mm" H 11738 2450 50  0001 C CNN
F 3 "" H 11700 2600 50  0001 C CNN
	1    11700 2600
	0    1    1    0   
$EndComp
$Comp
L GND #PWR?
U 1 1 5A90B787
P 11950 2700
F 0 "#PWR?" H 11950 2450 50  0001 C CNN
F 1 "GND" H 11950 2550 50  0000 C CNN
F 2 "" H 11950 2700 50  0000 C CNN
F 3 "" H 11950 2700 50  0000 C CNN
	1    11950 2700
	1    0    0    -1  
$EndComp
$Comp
L GND #PWR?
U 1 1 5A90B78D
P 12300 3350
F 0 "#PWR?" H 12300 3100 50  0001 C CNN
F 1 "GND" H 12300 3200 50  0000 C CNN
F 2 "" H 12300 3350 50  0000 C CNN
F 3 "" H 12300 3350 50  0000 C CNN
	1    12300 3350
	1    0    0    -1  
$EndComp
$Comp
L +5V #PWR?
U 1 1 5A90B793
P 11500 2400
F 0 "#PWR?" H 11500 2250 50  0001 C CNN
F 1 "+5V" H 11500 2540 50  0000 C CNN
F 2 "" H 11500 2400 50  0001 C CNN
F 3 "" H 11500 2400 50  0001 C CNN
	1    11500 2400
	1    0    0    -1  
$EndComp
Wire Wire Line
	-450 3200 -350 3200
Wire Wire Line
	-500 4100 -350 4100
Wire Wire Line
	-500 3950 -500 4100
Wire Wire Line
	-350 4200 -500 4200
Wire Wire Line
	-500 4200 -500 4600
Wire Wire Line
	-500 4000 -600 4000
Connection ~ -500 4000
Wire Wire Line
	-500 4300 -600 4300
Connection ~ -500 4300
Wire Wire Line
	350  2850 350  2800
Wire Wire Line
	350  4550 350  4650
Wire Wire Line
	-500 4600 350  4600
Connection ~ 350  4600
Wire Wire Line
	-450 3300 -350 3300
Wire Wire Line
	2400 3100 2450 3100
Wire Wire Line
	2450 3100 2450 3200
Wire Wire Line
	2450 3200 2500 3200
Wire Wire Line
	2400 3200 2400 3350
Wire Wire Line
	1600 2400 1600 3100
Wire Wire Line
	1650 2600 1600 2600
Connection ~ 1600 2600
Wire Wire Line
	1950 2600 2050 2600
Wire Wire Line
	2050 2600 2050 2700
Wire Wire Line
	3300 3100 3350 3100
Wire Wire Line
	3350 3100 3350 3200
Wire Wire Line
	3350 3200 3400 3200
Wire Wire Line
	3300 3200 3300 3350
Wire Wire Line
	2500 2400 2500 3100
Wire Wire Line
	2550 2600 2500 2600
Connection ~ 2500 2600
Wire Wire Line
	2850 2600 2950 2600
Wire Wire Line
	2950 2600 2950 2700
Wire Wire Line
	4200 3100 4250 3100
Wire Wire Line
	4250 3100 4250 3200
Wire Wire Line
	4250 3200 4300 3200
Wire Wire Line
	4200 3200 4200 3350
Wire Wire Line
	3400 2400 3400 3100
Wire Wire Line
	3450 2600 3400 2600
Connection ~ 3400 2600
Wire Wire Line
	3750 2600 3850 2600
Wire Wire Line
	3850 2600 3850 2700
Wire Wire Line
	5100 3100 5150 3100
Wire Wire Line
	5150 3100 5150 3200
Wire Wire Line
	5150 3200 5200 3200
Wire Wire Line
	5100 3200 5100 3350
Wire Wire Line
	4300 2400 4300 3100
Wire Wire Line
	4350 2600 4300 2600
Connection ~ 4300 2600
Wire Wire Line
	4650 2600 4750 2600
Wire Wire Line
	4750 2600 4750 2700
Wire Wire Line
	6000 3100 6050 3100
Wire Wire Line
	6050 3100 6050 3200
Wire Wire Line
	6050 3200 6100 3200
Wire Wire Line
	6000 3200 6000 3350
Wire Wire Line
	5200 2400 5200 3100
Wire Wire Line
	5250 2600 5200 2600
Connection ~ 5200 2600
Wire Wire Line
	5550 2600 5650 2600
Wire Wire Line
	5650 2600 5650 2700
Wire Wire Line
	6900 3100 6950 3100
Wire Wire Line
	6950 3100 6950 3200
Wire Wire Line
	6950 3200 7000 3200
Wire Wire Line
	6900 3200 6900 3350
Wire Wire Line
	6100 2400 6100 3100
Wire Wire Line
	6150 2600 6100 2600
Connection ~ 6100 2600
Wire Wire Line
	6450 2600 6550 2600
Wire Wire Line
	6550 2600 6550 2700
Wire Wire Line
	7800 3100 7850 3100
Wire Wire Line
	7850 3100 7850 3200
Wire Wire Line
	7850 3200 7900 3200
Wire Wire Line
	7800 3200 7800 3350
Wire Wire Line
	7000 2400 7000 3100
Wire Wire Line
	7050 2600 7000 2600
Connection ~ 7000 2600
Wire Wire Line
	7350 2600 7450 2600
Wire Wire Line
	7450 2600 7450 2700
Wire Wire Line
	8700 3100 8750 3100
Wire Wire Line
	8750 3100 8750 3200
Wire Wire Line
	8750 3200 8800 3200
Wire Wire Line
	8700 3200 8700 3350
Wire Wire Line
	7900 2400 7900 3100
Wire Wire Line
	7950 2600 7900 2600
Connection ~ 7900 2600
Wire Wire Line
	8250 2600 8350 2600
Wire Wire Line
	8350 2600 8350 2700
Wire Wire Line
	9600 3100 9650 3100
Wire Wire Line
	9650 3100 9650 3200
Wire Wire Line
	9650 3200 9700 3200
Wire Wire Line
	9600 3200 9600 3350
Wire Wire Line
	8800 2400 8800 3100
Wire Wire Line
	8850 2600 8800 2600
Connection ~ 8800 2600
Wire Wire Line
	9150 2600 9250 2600
Wire Wire Line
	9250 2600 9250 2700
Wire Wire Line
	10500 3100 10550 3100
Wire Wire Line
	10550 3100 10550 3200
Wire Wire Line
	10550 3200 10600 3200
Wire Wire Line
	10500 3200 10500 3350
Wire Wire Line
	9700 2400 9700 3100
Wire Wire Line
	9750 2600 9700 2600
Connection ~ 9700 2600
Wire Wire Line
	10050 2600 10150 2600
Wire Wire Line
	10150 2600 10150 2700
Wire Wire Line
	11400 3100 11450 3100
Wire Wire Line
	11450 3100 11450 3200
Wire Wire Line
	11450 3200 11500 3200
Wire Wire Line
	11400 3200 11400 3350
Wire Wire Line
	10600 2400 10600 3100
Wire Wire Line
	10650 2600 10600 2600
Connection ~ 10600 2600
Wire Wire Line
	10950 2600 11050 2600
Wire Wire Line
	11050 2600 11050 2700
Wire Wire Line
	12300 3100 12350 3100
Wire Wire Line
	12350 3100 12350 3200
Wire Wire Line
	12350 3200 12400 3200
Wire Wire Line
	12300 3200 12300 3350
Wire Wire Line
	11500 2400 11500 3100
Wire Wire Line
	11550 2600 11500 2600
Connection ~ 11500 2600
Wire Wire Line
	11850 2600 11950 2600
Wire Wire Line
	11950 2600 11950 2700
Wire Wire Line
	1050 3200 1600 3200
$Comp
L WS2812B LED?
U 1 1 5A90B814
P 2450 4350
F 0 "LED?" H 2450 4150 50  0000 C CNN
F 1 "WS2812B" H 2450 4450 50  0000 C CNN
F 2 "LEDs:LED_WS2812B-PLCC4" H 2450 4050 50  0001 C CNN
F 3 "" H 2450 4300 50  0001 C CNN
	1    2450 4350
	1    0    0    -1  
$EndComp
$Comp
L C C?
U 1 1 5A90B81B
P 2250 3850
F 0 "C?" H 2275 3950 50  0000 L CNN
F 1 "0.1uF" V 2350 3600 50  0000 L CNN
F 2 "Capacitors_THT:C_Disc_D4.3mm_W1.9mm_P5.00mm" H 2288 3700 50  0001 C CNN
F 3 "" H 2250 3850 50  0001 C CNN
	1    2250 3850
	0    1    1    0   
$EndComp
$Comp
L GND #PWR?
U 1 1 5A90B822
P 2500 3950
F 0 "#PWR?" H 2500 3700 50  0001 C CNN
F 1 "GND" H 2500 3800 50  0000 C CNN
F 2 "" H 2500 3950 50  0000 C CNN
F 3 "" H 2500 3950 50  0000 C CNN
	1    2500 3950
	1    0    0    -1  
$EndComp
$Comp
L GND #PWR?
U 1 1 5A90B828
P 2850 4600
F 0 "#PWR?" H 2850 4350 50  0001 C CNN
F 1 "GND" H 2850 4450 50  0000 C CNN
F 2 "" H 2850 4600 50  0000 C CNN
F 3 "" H 2850 4600 50  0000 C CNN
	1    2850 4600
	1    0    0    -1  
$EndComp
$Comp
L +5V #PWR?
U 1 1 5A90B82E
P 2050 3650
F 0 "#PWR?" H 2050 3500 50  0001 C CNN
F 1 "+5V" H 2050 3790 50  0000 C CNN
F 2 "" H 2050 3650 50  0001 C CNN
F 3 "" H 2050 3650 50  0001 C CNN
	1    2050 3650
	1    0    0    -1  
$EndComp
$Comp
L WS2812B LED?
U 1 1 5A90B834
P 3350 4350
F 0 "LED?" H 3350 4150 50  0000 C CNN
F 1 "WS2812B" H 3350 4450 50  0000 C CNN
F 2 "LEDs:LED_WS2812B-PLCC4" H 3350 4050 50  0001 C CNN
F 3 "" H 3350 4300 50  0001 C CNN
	1    3350 4350
	1    0    0    -1  
$EndComp
$Comp
L C C?
U 1 1 5A90B83B
P 3150 3850
F 0 "C?" H 3175 3950 50  0000 L CNN
F 1 "0.1uF" V 3250 3600 50  0000 L CNN
F 2 "Capacitors_THT:C_Disc_D4.3mm_W1.9mm_P5.00mm" H 3188 3700 50  0001 C CNN
F 3 "" H 3150 3850 50  0001 C CNN
	1    3150 3850
	0    1    1    0   
$EndComp
$Comp
L GND #PWR?
U 1 1 5A90B842
P 3400 3950
F 0 "#PWR?" H 3400 3700 50  0001 C CNN
F 1 "GND" H 3400 3800 50  0000 C CNN
F 2 "" H 3400 3950 50  0000 C CNN
F 3 "" H 3400 3950 50  0000 C CNN
	1    3400 3950
	1    0    0    -1  
$EndComp
$Comp
L GND #PWR?
U 1 1 5A90B848
P 3750 4600
F 0 "#PWR?" H 3750 4350 50  0001 C CNN
F 1 "GND" H 3750 4450 50  0000 C CNN
F 2 "" H 3750 4600 50  0000 C CNN
F 3 "" H 3750 4600 50  0000 C CNN
	1    3750 4600
	1    0    0    -1  
$EndComp
$Comp
L +5V #PWR?
U 1 1 5A90B84E
P 2950 3650
F 0 "#PWR?" H 2950 3500 50  0001 C CNN
F 1 "+5V" H 2950 3790 50  0000 C CNN
F 2 "" H 2950 3650 50  0001 C CNN
F 3 "" H 2950 3650 50  0001 C CNN
	1    2950 3650
	1    0    0    -1  
$EndComp
Wire Wire Line
	2850 4350 2900 4350
Wire Wire Line
	2900 4350 2900 4450
Wire Wire Line
	2900 4450 2950 4450
Wire Wire Line
	2850 4450 2850 4600
Wire Wire Line
	2050 3650 2050 4350
Wire Wire Line
	2100 3850 2050 3850
Connection ~ 2050 3850
Wire Wire Line
	2400 3850 2500 3850
Wire Wire Line
	2500 3850 2500 3950
Wire Wire Line
	3750 4350 3800 4350
Wire Wire Line
	3750 4450 3750 4600
Wire Wire Line
	2950 3650 2950 4350
Wire Wire Line
	3000 3850 2950 3850
Connection ~ 2950 3850
Wire Wire Line
	3300 3850 3400 3850
Wire Wire Line
	3400 3850 3400 3950
Wire Wire Line
	1450 4450 2050 4450
Wire Wire Line
	1450 4450 1450 3300
Wire Wire Line
	1450 3300 1050 3300
$EndSCHEMATC
