EESchema Schematic File Version 2
LIBS:chordboard-rescue
LIBS:power
LIBS:device
LIBS:transistors
LIBS:conn
LIBS:linear
LIBS:regul
LIBS:74xx
LIBS:cmos4000
LIBS:adc-dac
LIBS:memory
LIBS:xilinx
LIBS:microcontrollers
LIBS:dsp
LIBS:microchip
LIBS:analog_switches
LIBS:motorola
LIBS:texas
LIBS:intel
LIBS:audio
LIBS:interface
LIBS:digital-audio
LIBS:philips
LIBS:display
LIBS:cypress
LIBS:siliconi
LIBS:opto
LIBS:atmel
LIBS:contrib
LIBS:valves
LIBS:teensy
LIBS:switches
LIBS:Symbols_DCDC-ACDC-Converter_RevC_20Jul2012
LIBS:Symbols_EN60617_13Mar2013
LIBS:Symbols_EN60617-10_HF-Radio_DRAFT_12Sep2013
LIBS:Symbols_ICs-Diskrete_RevD10
LIBS:Symbols_ICs-Opto_RevB_16Sep2013
LIBS:Symbols_Microcontroller_Philips-NXP_RevA_06Oct2013
LIBS:SymbolsSimilarEN60617+oldDIN617-RevE8
LIBS:Symbols_Socket-DIN41612_RevA
LIBS:Symbols_Transformer-Diskrete_RevA
LIBS:74xgxx
LIBS:ac-dc
LIBS:actel
LIBS:allegro
LIBS:Altera
LIBS:analog_devices
LIBS:battery_management
LIBS:bbd
LIBS:brooktre
LIBS:cmos_ieee
LIBS:dc-dc
LIBS:diode
LIBS:elec-unifil
LIBS:ESD_Protection
LIBS:ftdi
LIBS:gennum
LIBS:graphic
LIBS:hc11
LIBS:ir
LIBS:Lattice
LIBS:logo
LIBS:maxim
LIBS:mechanical
LIBS:microchip_dspic33dsc
LIBS:microchip_pic10mcu
LIBS:microchip_pic12mcu
LIBS:microchip_pic16mcu
LIBS:microchip_pic18mcu
LIBS:microchip_pic32mcu
LIBS:motor_drivers
LIBS:motors
LIBS:msp430
LIBS:nordicsemi
LIBS:nxp_armmcu
LIBS:onsemi
LIBS:Oscillators
LIBS:powerint
LIBS:Power_Management
LIBS:pspice
LIBS:references
LIBS:relays
LIBS:rfcom
LIBS:sensors
LIBS:silabs
LIBS:stm8
LIBS:stm32
LIBS:supertex
LIBS:transf
LIBS:ttl_ieee
LIBS:video
LIBS:wiznet
LIBS:Worldsemi
LIBS:Xicor
LIBS:zetex
LIBS:Zilog
LIBS:Rotary-Encoders
LIBS:eurocad
LIBS:afshar
LIBS:74hct125d
LIBS:74hct245
LIBS:4000-ic
LIBS:7400-ic
LIBS:75176
LIBS:Abracon
LIBS:ABS07-32.768KHZ-T
LIBS:acorn_electron_expansion_connector
LIBS:ActiveSemi
LIBS:akn_holtek
LIBS:akn_maxim
LIBS:akn_misc
LIBS:akn_transformers
LIBS:altera
LIBS:Amplifiers
LIBS:AMS
LIBS:analog-devices
LIBS:AnalogDevices
LIBS:analog-ic
LIBS:AOS
LIBS:arm-swd-header
LIBS:Atmel
LIBS:avr-mcu
LIBS:bluegiga
LIBS:Bosch
LIBS:Chipkit_Shield_Max32-cache
LIBS:Chipkit_Shield_uC-cache
LIBS:conn-2mm
LIBS:conn-100mil
LIBS:conn-amphenol
LIBS:conn-assmann
LIBS:conn-cui
LIBS:connector
LIBS:Connectors
LIBS:conn-fci
LIBS:conn-jae
LIBS:conn-linx
LIBS:conn_mics
LIBS:conn-molex
LIBS:conn-special-headers
LIBS:conn-tagconnect
LIBS:conn-te
LIBS:conn-test
LIBS:CubeSatKit_StackBoard-cache
LIBS:DataStorage
LIBS:diode-inc-ic
LIBS:Diodes
LIBS:DiodesInc
LIBS:EKB
LIBS:electomech-misc
LIBS:_electromech
LIBS:esp8266-esp-01
LIBS:esp8266-esp-03
LIBS:esp8266-esp-12e
LIBS:ESP8266
LIBS:Fairchild
LIBS:freescale-ic
LIBS:FTDI
LIBS:ftdi-ic
LIBS:hm-11
LIBS:Infineon
LIBS:Intersil
LIBS:iso15
LIBS:kbox
LIBS:kbox-cache
LIBS:KCDA02-123
LIBS:led
LIBS:_linear
LIBS:LinearTech
LIBS:Littelfuse
LIBS:_logic
LIBS:logic-4000
LIBS:logic-7400
LIBS:logic-7400-new
LIBS:LogicDevices
LIBS:lpc11u14fbd48
LIBS:lt
LIBS:MACOM
LIBS:Macrofab
LIBS:max
LIBS:maxim-ic
LIBS:mcp1700t-3302e-tt
LIBS:mcp73831t-2aci-ot
LIBS:micrel-ic
LIBS:Microchip
LIBS:microchip-ic
LIBS:Micron
LIBS:Microprocessors
LIBS:micro_usb_socket
LIBS:MiscellaneousDevices
LIBS:mke02z64vld2
LIBS:mke04z8vtg4
LIBS:Murata
LIBS:nrf24l01p_smd
LIBS:nrf51822-04
LIBS:nRF24L01+
LIBS:NXP
LIBS:nxp-ic
LIBS:OceanOptics
LIBS:on-semi-ic
LIBS:opamps
LIBS:_passive
LIBS:Passives
LIBS:pasv-BelFuse
LIBS:pasv-BiTech
LIBS:pasv-Bourns
LIBS:pasv-cap
LIBS:pasv-ind
LIBS:pasv-Murata
LIBS:pasv-res
LIBS:pasv-TDK
LIBS:pasv-xtal
LIBS:pcb
LIBS:PMOD
LIBS:PowerComponents
LIBS:pp_ws2812b
LIBS:random-mics
LIBS:Recom
LIBS:recom-r1se
LIBS:regulator
LIBS:relays-a
LIBS:RepeaterParts
LIBS:RF_OEM_Parts
LIBS:Richtek
LIBS:rohm
LIBS:_semi
LIBS:semi-diode-DiodesInc
LIBS:semi-diode-generic
LIBS:semi-diode-MCC
LIBS:semi-diode-NXP
LIBS:semi-diode-OnSemi
LIBS:semi-diode-Semtech
LIBS:semi-diode-ST
LIBS:semi-diode-Toshiba
LIBS:semi-opto-generic
LIBS:semi-opto-liteon
LIBS:semi-thyristor-generic
LIBS:semi-trans-AOS
LIBS:semi-trans-DiodesInc
LIBS:semi-trans-EPC
LIBS:semi-trans-Fairchild
LIBS:semi-trans-generic
LIBS:semi-trans-Infineon
LIBS:semi-trans-IRF
LIBS:semi-trans-IXYS
LIBS:semi-trans-NXP
LIBS:semi-trans-OnSemi
LIBS:semi-trans-Panasonic
LIBS:semi-trans-ST
LIBS:semi-trans-TI
LIBS:semi-trans-Toshiba
LIBS:semi-trans-Vishay
LIBS:Sensors
LIBS:sharp-relay
LIBS:skyworks
LIBS:Snickerdoodle
LIBS:sparkfun
LIBS:ST
LIBS:standard
LIBS:st_ic
LIBS:stm32f37xxx_48pin
LIBS:stm32f102xx_48pin
LIBS:stm32f103c8t6-module-china
LIBS:stm32f302xx_48pin
LIBS:stmicro-mcu
LIBS:symbol
LIBS:TexasInstruments
LIBS:ti
LIBS:ti-ic
LIBS:tinkerforge
LIBS:transistor
LIBS:TransistorParts
LIBS:transistors-mics
LIBS:txs2sa-relay
LIBS:uart_pp
LIBS:u-blox
LIBS:uln-ic
LIBS:usb_plug
LIBS:Vishay
LIBS:Winbond
LIBS:ws2812b
LIBS:Xilinx
LIBS:SparkFun-DigitalIC
LIBS:k66lqfp
LIBS:Wetmelon
LIBS:chordboard-components
LIBS:chordboard-cache
EELAYER 25 0
EELAYER END
$Descr A2 23386 16535
encoding utf-8
Sheet 1 2
Title "Chordboard"
Date "2018-01-19"
Rev "v4"
Comp "aafshar@gmail.com"
Comment1 ""
Comment2 ""
Comment3 ""
Comment4 ""
$EndDescr
$Comp
L MCP23017 U4
U 1 1 59FC3D10
P 13650 9350
F 0 "U4" H 13950 9850 50  0000 R CNN
F 1 "MCP23017" H 13950 9950 50  0000 R CNN
F 2 "Housings_DIP:DIP-28_W7.62mm" H 13700 8400 50  0001 L CNN
F 3 "" H 13900 10350 50  0001 C CNN
	1    13650 9350
	-1   0    0    -1  
$EndComp
$Comp
L R R1
U 1 1 59FC6FE8
P 5250 4750
F 0 "R1" V 5150 4700 50  0000 C CNN
F 1 "4.7K" V 5250 4750 50  0000 C CNN
F 2 "Resistors_THT:R_Axial_DIN0207_L6.3mm_D2.5mm_P7.62mm_Horizontal" V 5180 4750 50  0001 C CNN
F 3 "" H 5250 4750 50  0000 C CNN
	1    5250 4750
	1    0    0    -1  
$EndComp
$Comp
L R R2
U 1 1 59FC7069
P 5350 4750
F 0 "R2" V 5450 4700 50  0000 C CNN
F 1 "4.7K" V 5350 4750 50  0000 C CNN
F 2 "Resistors_THT:R_Axial_DIN0207_L6.3mm_D2.5mm_P7.62mm_Horizontal" V 5280 4750 50  0001 C CNN
F 3 "" H 5350 4750 50  0000 C CNN
	1    5350 4750
	1    0    0    -1  
$EndComp
$Comp
L +3.3V #PWR01
U 1 1 59FC7113
P 5300 3600
F 0 "#PWR01" H 5300 3450 50  0001 C CNN
F 1 "+3.3V" H 5300 3740 50  0000 C CNN
F 2 "" H 5300 3600 50  0000 C CNN
F 3 "" H 5300 3600 50  0000 C CNN
	1    5300 3600
	1    0    0    -1  
$EndComp
$Comp
L Mounting_Hole MK2
U 1 1 59FCE2DE
P 19600 12750
F 0 "MK2" H 19600 12950 50  0000 C CNN
F 1 "Mounting_Hole" H 19600 12875 50  0000 C CNN
F 2 "Mounting_Holes:MountingHole_2.7mm_Pad_Via" H 19600 12750 60  0001 C CNN
F 3 "" H 19600 12750 60  0001 C CNN
	1    19600 12750
	1    0    0    -1  
$EndComp
$Comp
L Mounting_Hole MK3
U 1 1 59FCE3A1
P 19600 12950
F 0 "MK3" H 19600 13150 50  0000 C CNN
F 1 "Mounting_Hole" H 19600 13075 50  0000 C CNN
F 2 "Mounting_Holes:MountingHole_2.7mm_Pad_Via" H 19600 12950 60  0001 C CNN
F 3 "" H 19600 12950 60  0001 C CNN
	1    19600 12950
	1    0    0    -1  
$EndComp
$Comp
L Mounting_Hole MK4
U 1 1 59FCE461
P 19600 13150
F 0 "MK4" H 19600 13350 50  0000 C CNN
F 1 "Mounting_Hole" H 19600 13275 50  0000 C CNN
F 2 "Mounting_Holes:MountingHole_2.7mm_Pad_Via" H 19600 13150 60  0001 C CNN
F 3 "" H 19600 13150 60  0001 C CNN
	1    19600 13150
	1    0    0    -1  
$EndComp
$Comp
L GND #PWR02
U 1 1 59FE1F2D
P 2150 900
F 0 "#PWR02" H 2150 650 50  0001 C CNN
F 1 "GND" H 2150 750 50  0000 C CNN
F 2 "" H 2150 900 50  0000 C CNN
F 3 "" H 2150 900 50  0000 C CNN
	1    2150 900 
	-1   0    0    1   
$EndComp
$Comp
L Teensy3.6 U2
U 1 1 59FC6CA8
P 3150 3400
F 0 "U2" H 3150 5700 60  0000 C CNN
F 1 "Teensy3.6" H 3150 1100 60  0000 C CNN
F 2 "teensy:Teensy35_36" H 3150 3400 60  0001 C CNN
F 3 "" H 3150 3400 60  0000 C CNN
	1    3150 3400
	1    0    0    -1  
$EndComp
$Comp
L Mounting_Hole MK5
U 1 1 59FE38DF
P 19600 12550
F 0 "MK5" H 19600 12750 50  0000 C CNN
F 1 "Mounting_Hole" H 19600 12675 50  0000 C CNN
F 2 "Mounting_Holes:MountingHole_2.7mm_Pad_Via" H 19600 12550 60  0001 C CNN
F 3 "" H 19600 12550 60  0001 C CNN
	1    19600 12550
	1    0    0    -1  
$EndComp
$Comp
L Mounting_Hole MK7
U 1 1 59FE3A7E
P 19800 12950
F 0 "MK7" H 19800 13150 50  0000 C CNN
F 1 "Mounting_Hole" H 19800 13075 50  0000 C CNN
F 2 "Mounting_Holes:MountingHole_2.7mm_Pad_Via" H 19800 12950 60  0001 C CNN
F 3 "" H 19800 12950 60  0001 C CNN
	1    19800 12950
	1    0    0    -1  
$EndComp
$Comp
L Mounting_Hole MK8
U 1 1 59FE3B4D
P 19800 13150
F 0 "MK8" H 19800 13350 50  0000 C CNN
F 1 "Mounting_Hole" H 19800 13275 50  0000 C CNN
F 2 "Mounting_Holes:MountingHole_2.7mm_Pad_Via" H 19800 13150 60  0001 C CNN
F 3 "" H 19800 13150 60  0001 C CNN
	1    19800 13150
	1    0    0    -1  
$EndComp
Text Label 5550 5300 0    60   ~ 0
SCL
Text Label 5550 5400 0    60   ~ 0
SDA
$Comp
L SW_SPST K17
U 1 1 5A13C12E
P 14350 8550
F 0 "K17" H 14350 8675 50  0000 C CNN
F 1 "SW_SPST" H 14350 8450 50  0000 C CNN
F 2 "Keyboard:CHERRY_PCB_100H" H 14350 8550 50  0001 C CNN
F 3 "" H 14350 8550 50  0000 C CNN
	1    14350 8550
	1    0    0    -1  
$EndComp
$Comp
L SW_SPST K32
U 1 1 5A13C1FE
P 14350 10150
F 0 "K32" H 14350 10275 50  0000 C CNN
F 1 "SW_SPST" H 14350 10050 50  0000 C CNN
F 2 "Keyboard:CHERRY_PCB_100H" H 14350 10150 50  0001 C CNN
F 3 "" H 14350 10150 50  0000 C CNN
	1    14350 10150
	1    0    0    -1  
$EndComp
$Comp
L SW_SPST K31
U 1 1 5A13C29B
P 14350 10050
F 0 "K31" H 14350 10175 50  0000 C CNN
F 1 "SW_SPST" H 14350 9950 50  0000 C CNN
F 2 "Keyboard:CHERRY_PCB_100H" H 14350 10050 50  0001 C CNN
F 3 "" H 14350 10050 50  0000 C CNN
	1    14350 10050
	1    0    0    -1  
$EndComp
$Comp
L SW_SPST K18
U 1 1 5A13C353
P 14350 8650
F 0 "K18" H 14350 8775 50  0000 C CNN
F 1 "SW_SPST" H 14350 8550 50  0000 C CNN
F 2 "Keyboard:CHERRY_PCB_100H" H 14350 8650 50  0001 C CNN
F 3 "" H 14350 8650 50  0000 C CNN
	1    14350 8650
	1    0    0    -1  
$EndComp
$Comp
L SW_SPST K19
U 1 1 5A13C3B4
P 14350 8750
F 0 "K19" H 14350 8875 50  0000 C CNN
F 1 "SW_SPST" H 14350 8650 50  0000 C CNN
F 2 "Keyboard:CHERRY_PCB_100H" H 14350 8750 50  0001 C CNN
F 3 "" H 14350 8750 50  0000 C CNN
	1    14350 8750
	1    0    0    -1  
$EndComp
$Comp
L SW_SPST K20
U 1 1 5A13C418
P 14350 8850
F 0 "K20" H 14350 8975 50  0000 C CNN
F 1 "SW_SPST" H 14350 8750 50  0000 C CNN
F 2 "Keyboard:CHERRY_PCB_100H" H 14350 8850 50  0001 C CNN
F 3 "" H 14350 8850 50  0000 C CNN
	1    14350 8850
	1    0    0    -1  
$EndComp
$Comp
L SW_SPST K21
U 1 1 5A13C4DE
P 14350 8950
F 0 "K21" H 14350 9075 50  0000 C CNN
F 1 "SW_SPST" H 14350 8850 50  0000 C CNN
F 2 "Keyboard:CHERRY_PCB_100H" H 14350 8950 50  0001 C CNN
F 3 "" H 14350 8950 50  0000 C CNN
	1    14350 8950
	1    0    0    -1  
$EndComp
$Comp
L SW_SPST K22
U 1 1 5A13C54C
P 14350 9050
F 0 "K22" H 14350 9175 50  0000 C CNN
F 1 "SW_SPST" H 14350 8950 50  0000 C CNN
F 2 "Keyboard:CHERRY_PCB_100H" H 14350 9050 50  0001 C CNN
F 3 "" H 14350 9050 50  0000 C CNN
	1    14350 9050
	1    0    0    -1  
$EndComp
$Comp
L SW_SPST K23
U 1 1 5A13C5B9
P 14350 9150
F 0 "K23" H 14350 9275 50  0000 C CNN
F 1 "SW_SPST" H 14350 9050 50  0000 C CNN
F 2 "Keyboard:CHERRY_PCB_100H" H 14350 9150 50  0001 C CNN
F 3 "" H 14350 9150 50  0000 C CNN
	1    14350 9150
	1    0    0    -1  
$EndComp
$Comp
L SW_SPST K24
U 1 1 5A13C629
P 14350 9250
F 0 "K24" H 14350 9375 50  0000 C CNN
F 1 "SW_SPST" H 14350 9150 50  0000 C CNN
F 2 "Keyboard:CHERRY_PCB_100H" H 14350 9250 50  0001 C CNN
F 3 "" H 14350 9250 50  0000 C CNN
	1    14350 9250
	1    0    0    -1  
$EndComp
$Comp
L SW_SPST K25
U 1 1 5A13C73A
P 14350 9450
F 0 "K25" H 14350 9575 50  0000 C CNN
F 1 "SW_SPST" H 14350 9350 50  0000 C CNN
F 2 "Keyboard:CHERRY_PCB_100H" H 14350 9450 50  0001 C CNN
F 3 "" H 14350 9450 50  0000 C CNN
	1    14350 9450
	1    0    0    -1  
$EndComp
$Comp
L SW_SPST K26
U 1 1 5A13C7D9
P 14350 9550
F 0 "K26" H 14350 9675 50  0000 C CNN
F 1 "SW_SPST" H 14350 9450 50  0000 C CNN
F 2 "Keyboard:CHERRY_PCB_100H" H 14350 9550 50  0001 C CNN
F 3 "" H 14350 9550 50  0000 C CNN
	1    14350 9550
	1    0    0    -1  
$EndComp
$Comp
L SW_SPST K27
U 1 1 5A13C87F
P 14350 9650
F 0 "K27" H 14350 9775 50  0000 C CNN
F 1 "SW_SPST" H 14350 9550 50  0000 C CNN
F 2 "Keyboard:CHERRY_PCB_100H" H 14350 9650 50  0001 C CNN
F 3 "" H 14350 9650 50  0000 C CNN
	1    14350 9650
	1    0    0    -1  
$EndComp
$Comp
L SW_SPST K28
U 1 1 5A13C92E
P 14350 9750
F 0 "K28" H 14350 9875 50  0000 C CNN
F 1 "SW_SPST" H 14350 9650 50  0000 C CNN
F 2 "Keyboard:CHERRY_PCB_100H" H 14350 9750 50  0001 C CNN
F 3 "" H 14350 9750 50  0000 C CNN
	1    14350 9750
	1    0    0    -1  
$EndComp
$Comp
L SW_SPST K29
U 1 1 5A13C9DC
P 14350 9850
F 0 "K29" H 14350 9975 50  0000 C CNN
F 1 "SW_SPST" H 14350 9750 50  0000 C CNN
F 2 "Keyboard:CHERRY_PCB_100H" H 14350 9850 50  0001 C CNN
F 3 "" H 14350 9850 50  0000 C CNN
	1    14350 9850
	1    0    0    -1  
$EndComp
$Comp
L SW_SPST K30
U 1 1 5A13CA8B
P 14350 9950
F 0 "K30" H 14350 10075 50  0000 C CNN
F 1 "SW_SPST" H 14350 9850 50  0000 C CNN
F 2 "Keyboard:CHERRY_PCB_100H" H 14350 9950 50  0001 C CNN
F 3 "" H 14350 9950 50  0000 C CNN
	1    14350 9950
	1    0    0    -1  
$EndComp
$Comp
L MCP23017 U3
U 1 1 5A142090
P 12050 9350
F 0 "U3" H 12050 9850 50  0000 R CNN
F 1 "MCP23017" H 12350 9950 50  0000 R CNN
F 2 "Housings_DIP:DIP-28_W7.62mm" H 12100 8400 50  0001 L CNN
F 3 "" H 12300 10350 50  0001 C CNN
	1    12050 9350
	1    0    0    -1  
$EndComp
$Comp
L GND #PWR03
U 1 1 5A142096
P 12850 10750
F 0 "#PWR03" H 12850 10500 50  0001 C CNN
F 1 "GND" H 12850 10600 50  0000 C CNN
F 2 "" H 12850 10750 50  0000 C CNN
F 3 "" H 12850 10750 50  0000 C CNN
	1    12850 10750
	-1   0    0    -1  
$EndComp
$Comp
L +3.3V #PWR04
U 1 1 5A14209C
P 12850 7500
F 0 "#PWR04" H 12850 7350 50  0001 C CNN
F 1 "+3.3V" H 12850 7640 50  0000 C CNN
F 2 "" H 12850 7500 50  0000 C CNN
F 3 "" H 12850 7500 50  0000 C CNN
	1    12850 7500
	-1   0    0    -1  
$EndComp
Text Label 12800 9750 2    60   ~ 0
SDA
Text Label 12800 9650 2    60   ~ 0
SCL
$Comp
L SW_SPST K1
U 1 1 5A1420CD
P 11350 8550
F 0 "K1" H 11500 8600 50  0000 C CNN
F 1 "SW_SPST" H 11200 8600 50  0000 C CNN
F 2 "Keyboard:CHERRY_PCB_100H" H 11350 8550 50  0001 C CNN
F 3 "" H 11350 8550 50  0000 C CNN
	1    11350 8550
	-1   0    0    -1  
$EndComp
$Comp
L SW_SPST K2
U 1 1 5A1420DF
P 11350 8650
F 0 "K2" H 11500 8700 50  0000 C CNN
F 1 "SW_SPST" H 11200 8700 50  0000 C CNN
F 2 "Keyboard:CHERRY_PCB_100H" H 11350 8650 50  0001 C CNN
F 3 "" H 11350 8650 50  0000 C CNN
	1    11350 8650
	-1   0    0    -1  
$EndComp
$Comp
L SW_SPST K3
U 1 1 5A1420E5
P 11350 8750
F 0 "K3" H 11500 8800 50  0000 C CNN
F 1 "SW_SPST" H 11200 8800 50  0000 C CNN
F 2 "Keyboard:CHERRY_PCB_100H" H 11350 8750 50  0001 C CNN
F 3 "" H 11350 8750 50  0000 C CNN
	1    11350 8750
	-1   0    0    -1  
$EndComp
$Comp
L SW_SPST K4
U 1 1 5A1420EB
P 11350 8850
F 0 "K4" H 11500 8900 50  0000 C CNN
F 1 "SW_SPST" H 11200 8900 50  0000 C CNN
F 2 "Keyboard:CHERRY_PCB_100H" H 11350 8850 50  0001 C CNN
F 3 "" H 11350 8850 50  0000 C CNN
	1    11350 8850
	-1   0    0    -1  
$EndComp
$Comp
L SW_SPST K5
U 1 1 5A1420F1
P 11350 8950
F 0 "K5" H 11500 9000 50  0000 C CNN
F 1 "SW_SPST" H 11200 9000 50  0000 C CNN
F 2 "Keyboard:CHERRY_PCB_100H" H 11350 8950 50  0001 C CNN
F 3 "" H 11350 8950 50  0000 C CNN
	1    11350 8950
	-1   0    0    -1  
$EndComp
$Comp
L SW_SPST K6
U 1 1 5A1420F7
P 11350 9050
F 0 "K6" H 11500 9100 50  0000 C CNN
F 1 "SW_SPST" H 11200 9100 50  0000 C CNN
F 2 "Keyboard:CHERRY_PCB_100H" H 11350 9050 50  0001 C CNN
F 3 "" H 11350 9050 50  0000 C CNN
	1    11350 9050
	-1   0    0    -1  
$EndComp
$Comp
L SW_SPST K7
U 1 1 5A1420FD
P 11350 9150
F 0 "K7" H 11500 9200 50  0000 C CNN
F 1 "SW_SPST" H 11200 9200 50  0000 C CNN
F 2 "Keyboard:CHERRY_PCB_100H" H 11350 9150 50  0001 C CNN
F 3 "" H 11350 9150 50  0000 C CNN
	1    11350 9150
	-1   0    0    -1  
$EndComp
$Comp
L SW_SPST K8
U 1 1 5A142103
P 11350 9450
F 0 "K8" H 11500 9500 50  0000 C CNN
F 1 "SW_SPST" H 11200 9500 50  0000 C CNN
F 2 "Keyboard:CHERRY_PCB_100H" H 11350 9450 50  0001 C CNN
F 3 "" H 11350 9450 50  0000 C CNN
	1    11350 9450
	-1   0    0    -1  
$EndComp
$Comp
L SW_SPST K9
U 1 1 5A142109
P 11350 9550
F 0 "K9" H 11500 9600 50  0000 C CNN
F 1 "SW_SPST" H 11200 9600 50  0000 C CNN
F 2 "Keyboard:CHERRY_PCB_100H" H 11350 9550 50  0001 C CNN
F 3 "" H 11350 9550 50  0000 C CNN
	1    11350 9550
	-1   0    0    -1  
$EndComp
$Comp
L SW_SPST K10
U 1 1 5A14210F
P 11350 9650
F 0 "K10" H 11450 9700 50  0000 C CNN
F 1 "SW_SPST" H 11350 9550 50  0000 C CNN
F 2 "Keyboard:CHERRY_PCB_100H" H 11350 9650 50  0001 C CNN
F 3 "" H 11350 9650 50  0000 C CNN
	1    11350 9650
	-1   0    0    -1  
$EndComp
$Comp
L SW_SPST K11
U 1 1 5A142115
P 11350 9750
F 0 "K11" H 11450 9800 50  0000 C CNN
F 1 "SW_SPST" H 11350 9650 50  0000 C CNN
F 2 "Keyboard:CHERRY_PCB_100H" H 11350 9750 50  0001 C CNN
F 3 "" H 11350 9750 50  0000 C CNN
	1    11350 9750
	-1   0    0    -1  
$EndComp
$Comp
L SW_SPST K12
U 1 1 5A14211B
P 11350 9850
F 0 "K12" H 11350 9975 50  0000 C CNN
F 1 "SW_SPST" H 11350 9750 50  0000 C CNN
F 2 "Keyboard:CHERRY_PCB_100H" H 11350 9850 50  0001 C CNN
F 3 "" H 11350 9850 50  0000 C CNN
	1    11350 9850
	-1   0    0    -1  
$EndComp
$Comp
L SW_SPST K13
U 1 1 5A142121
P 11350 9950
F 0 "K13" H 11350 10075 50  0000 C CNN
F 1 "SW_SPST" H 11350 9850 50  0000 C CNN
F 2 "Keyboard:CHERRY_PCB_100H" H 11350 9950 50  0001 C CNN
F 3 "" H 11350 9950 50  0000 C CNN
	1    11350 9950
	-1   0    0    -1  
$EndComp
$Comp
L SW_SPST K14
U 1 1 5A142127
P 11350 10050
F 0 "K14" H 11350 10175 50  0000 C CNN
F 1 "SW_SPST" H 11350 9950 50  0000 C CNN
F 2 "Keyboard:CHERRY_PCB_100H" H 11350 10050 50  0001 C CNN
F 3 "" H 11350 10050 50  0000 C CNN
	1    11350 10050
	-1   0    0    -1  
$EndComp
$Comp
L C C4
U 1 1 5A15E7CA
P 11850 8000
F 0 "C4" H 11875 8100 50  0000 L CNN
F 1 "0.1uF" V 11950 7750 50  0000 L CNN
F 2 "Capacitors_THT:C_Disc_D4.3mm_W1.9mm_P5.00mm" H 11888 7850 50  0001 C CNN
F 3 "" H 11850 8000 50  0001 C CNN
	1    11850 8000
	1    0    0    -1  
$EndComp
$Comp
L C C5
U 1 1 5A15E8E7
P 13800 8000
F 0 "C5" H 13825 8100 50  0000 L CNN
F 1 "0.1uF" V 13750 7750 50  0000 L CNN
F 2 "Capacitors_THT:C_Disc_D4.3mm_W1.9mm_P5.00mm" H 13838 7850 50  0001 C CNN
F 3 "" H 13800 8000 50  0001 C CNN
	1    13800 8000
	1    0    0    -1  
$EndComp
$Comp
L GND #PWR05
U 1 1 5A15F4B6
P 13800 8200
F 0 "#PWR05" H 13800 7950 50  0001 C CNN
F 1 "GND" H 13800 8050 50  0000 C CNN
F 2 "" H 13800 8200 50  0001 C CNN
F 3 "" H 13800 8200 50  0001 C CNN
	1    13800 8200
	1    0    0    -1  
$EndComp
$Comp
L GND #PWR06
U 1 1 5A15FA29
P 11850 8200
F 0 "#PWR06" H 11850 7950 50  0001 C CNN
F 1 "GND" H 11850 8050 50  0000 C CNN
F 2 "" H 11850 8200 50  0001 C CNN
F 3 "" H 11850 8200 50  0001 C CNN
	1    11850 8200
	1    0    0    -1  
$EndComp
$Comp
L +3.3V #PWR07
U 1 1 5A170360
P 13050 9950
F 0 "#PWR07" H 13050 9800 50  0001 C CNN
F 1 "+3.3V" H 13050 10090 50  0000 C CNN
F 2 "" H 13050 9950 50  0001 C CNN
F 3 "" H 13050 9950 50  0001 C CNN
	1    13050 9950
	0    -1   -1   0   
$EndComp
Text Label 12550 8950 0    60   ~ 0
INT1B
Text Label 12550 9050 0    60   ~ 0
INT1A
Text Label 13150 8950 2    60   ~ 0
INT2B
Text Label 13150 9050 2    60   ~ 0
INT2A
Text Label 2150 1500 2    60   ~ 0
UART_TX
Text Label 2150 1400 2    60   ~ 0
UART_RX
NoConn ~ 2150 3700
NoConn ~ 4150 4800
NoConn ~ 4150 4500
NoConn ~ 4150 4400
NoConn ~ 4150 3600
NoConn ~ 4150 3500
NoConn ~ 4150 3400
NoConn ~ 4150 3300
NoConn ~ 4150 3200
NoConn ~ 4150 3100
NoConn ~ 4150 3000
NoConn ~ 4150 2900
NoConn ~ 4150 2800
NoConn ~ 4150 2700
NoConn ~ 4150 2600
NoConn ~ 4150 2500
NoConn ~ 4150 2400
NoConn ~ 4150 2300
NoConn ~ 4150 2200
NoConn ~ 4150 1900
NoConn ~ 4150 1800
NoConn ~ 4150 1700
NoConn ~ 4150 1600
NoConn ~ 4150 1500
NoConn ~ 4150 1400
NoConn ~ 4150 1300
Text Label 2150 2500 2    60   ~ 0
AU_MCLK
Text Label 2150 2400 2    60   ~ 0
AUSD_CS
Text Label 2150 2300 2    60   ~ 0
AU_BCLK
$Comp
L +3.3V #PWR08
U 1 1 5A1DD42C
P 9200 3300
F 0 "#PWR08" H 9200 3150 50  0001 C CNN
F 1 "+3.3V" H 9200 3440 50  0000 C CNN
F 2 "" H 9200 3300 50  0001 C CNN
F 3 "" H 9200 3300 50  0001 C CNN
	1    9200 3300
	-1   0    0    -1  
$EndComp
$Comp
L Mounting_Hole MK10
U 1 1 5A1F0B4D
P 19800 12750
F 0 "MK10" H 19800 12950 50  0000 C CNN
F 1 "Mounting_Hole" H 19800 12875 50  0000 C CNN
F 2 "Mounting_Holes:MountingHole_2.7mm_Pad_Via" H 19800 12750 60  0001 C CNN
F 3 "" H 19800 12750 60  0001 C CNN
	1    19800 12750
	1    0    0    -1  
$EndComp
$Comp
L Mounting_Hole MK11
U 1 1 5A1F0B53
P 20000 12750
F 0 "MK11" H 20000 12950 50  0000 C CNN
F 1 "Mounting_Hole" H 20000 12875 50  0000 C CNN
F 2 "Mounting_Holes:MountingHole_2.7mm_Pad_Via" H 20000 12750 60  0001 C CNN
F 3 "" H 20000 12750 60  0001 C CNN
	1    20000 12750
	1    0    0    -1  
$EndComp
$Comp
L Mounting_Hole MK12
U 1 1 5A1F0B59
P 20000 12950
F 0 "MK12" H 20000 13150 50  0000 C CNN
F 1 "Mounting_Hole" H 20000 13075 50  0000 C CNN
F 2 "Mounting_Holes:MountingHole_2.7mm_Pad_Via" H 20000 12950 60  0001 C CNN
F 3 "" H 20000 12950 60  0001 C CNN
	1    20000 12950
	1    0    0    -1  
$EndComp
$Comp
L Mounting_Hole MK13
U 1 1 5A1F0B5F
P 19800 12550
F 0 "MK13" H 19800 12750 50  0000 C CNN
F 1 "Mounting_Hole" H 19800 12675 50  0000 C CNN
F 2 "Mounting_Holes:MountingHole_2.7mm_Pad_Via" H 19800 12550 60  0001 C CNN
F 3 "" H 19800 12550 60  0001 C CNN
	1    19800 12550
	1    0    0    -1  
$EndComp
$Comp
L Mounting_Hole MK14
U 1 1 5A1F0B65
P 20000 12550
F 0 "MK14" H 20000 12750 50  0000 C CNN
F 1 "Mounting_Hole" H 20000 12675 50  0000 C CNN
F 2 "Mounting_Holes:MountingHole_2.7mm_Pad_Via" H 20000 12550 60  0001 C CNN
F 3 "" H 20000 12550 60  0001 C CNN
	1    20000 12550
	1    0    0    -1  
$EndComp
Text Label 9800 4350 3    60   ~ 0
AP_3
Text Label 9450 4350 3    60   ~ 0
AP_2
Text Label 9100 4350 3    60   ~ 0
AP_1
$Comp
L POT RV1
U 1 1 5A3A1A65
P 9100 4200
F 0 "RV1" H 9050 4300 50  0000 R CNN
F 1 "POT_TEMPO" H 9050 4100 50  0000 R CNN
F 2 "Potentiometers:Potentiometer_Bourns_PTV09A-1_Horizontal" H 9100 4200 50  0001 C CNN
F 3 "" H 9100 4200 50  0001 C CNN
	1    9100 4200
	0    -1   1    0   
$EndComp
$Comp
L POT RV2
U 1 1 5A3A1951
P 9450 4200
F 0 "RV2" H 9400 4300 50  0000 R CNN
F 1 "POT_VELOCITY" H 9200 4100 50  0000 C CNN
F 2 "Potentiometers:Potentiometer_Bourns_PTV09A-1_Horizontal" H 9450 4200 50  0001 C CNN
F 3 "" H 9450 4200 50  0001 C CNN
	1    9450 4200
	0    -1   1    0   
$EndComp
$Comp
L POT RV3
U 1 1 5A3A1844
P 9800 4200
F 0 "RV3" H 9750 4300 50  0000 R CNN
F 1 "POT_VOLUME" H 9750 4100 50  0000 R CNN
F 2 "Potentiometers:Potentiometer_Bourns_PTV09A-1_Horizontal" H 9800 4200 50  0001 C CNN
F 3 "" H 9800 4200 50  0001 C CNN
	1    9800 4200
	0    -1   1    0   
$EndComp
$Comp
L SW_SPST CORE_SW2
U 1 1 5A489629
P 1450 4100
F 0 "CORE_SW2" H 1300 4150 50  0000 C CNN
F 1 "SW_RST" H 1650 4150 50  0000 C CNN
F 2 "Buttons_Switches_THT:SW_CuK_OS102011MA1QN1_SPDT_Angled" H 1450 4100 50  0001 C CNN
F 3 "" H 1450 4100 50  0001 C CNN
	1    1450 4100
	1    0    0    -1  
$EndComp
$Comp
L SW_SPST CORE_SW1
U 1 1 5A4897A5
P 1450 4000
F 0 "CORE_SW1" H 1300 4050 50  0000 C CNN
F 1 "SW_PGM" H 1650 4050 50  0000 C CNN
F 2 "Buttons_Switches_THT:SW_Tactile_SPST_Angled_PTS645Vx58-2LFS" H 1450 4000 50  0001 C CNN
F 3 "" H 1450 4000 50  0001 C CNN
	1    1450 4000
	1    0    0    -1  
$EndComp
Text Label 16550 10150 0    60   ~ 0
JSW1
Text Label 2150 5400 2    60   ~ 0
AP_1
Text Label 2150 5500 2    60   ~ 0
AP_2
$Comp
L GND #PWR09
U 1 1 5A4BC558
P 950 5300
F 0 "#PWR09" H 950 5050 50  0001 C CNN
F 1 "GND" H 950 5150 50  0000 C CNN
F 2 "" H 950 5300 50  0000 C CNN
F 3 "" H 950 5300 50  0000 C CNN
	1    950  5300
	1    0    0    -1  
$EndComp
$Comp
L USB_A_afshar J1
U 1 1 5A4E4CD3
P 4850 3900
F 0 "J1" H 4650 4350 50  0000 L CNN
F 1 "USB_A_afshar" H 4650 4250 50  0000 L CNN
F 2 "Connectors:USB_A" H 5000 3850 50  0001 C CNN
F 3 "" H 5000 3850 50  0001 C CNN
	1    4850 3900
	-1   0    0    -1  
$EndComp
$Comp
L JOYSTICK_BUTTON JS1
U 1 1 5A4E73CC
P 11700 4300
F 0 "JS1" H 11300 4850 60  0000 C CNN
F 1 "JOYSTICK" H 11700 3850 60  0000 C CNN
F 2 "SparkFun-Electromechanical:JOYSTICK" H 11700 4300 60  0001 C CNN
F 3 "" H 11700 4300 60  0000 C CNN
	1    11700 4300
	1    0    0    -1  
$EndComp
Text Label 11050 4000 2    60   ~ 0
AJ_V
Text Label 11050 4350 2    60   ~ 0
AJ_H
Text Label 11050 4600 2    60   ~ 0
JSW1
$Comp
L +3.3V #PWR010
U 1 1 5A5558C8
P 950 2700
F 0 "#PWR010" H 950 2550 50  0001 C CNN
F 1 "+3.3V" H 950 2840 50  0000 C CNN
F 2 "" H 950 2700 50  0001 C CNN
F 3 "" H 950 2700 50  0001 C CNN
	1    950  2700
	1    0    0    -1  
$EndComp
NoConn ~ 2150 3800
$Comp
L Mounting_Hole MK1
U 1 1 5A570F6D
P 20000 13150
F 0 "MK1" H 20000 13350 50  0000 C CNN
F 1 "Mounting_Hole" H 20000 13275 50  0000 C CNN
F 2 "Mounting_Holes:MountingHole_2.7mm_Pad_Via" H 20000 13150 60  0001 C CNN
F 3 "" H 20000 13150 60  0001 C CNN
	1    20000 13150
	1    0    0    -1  
$EndComp
$Comp
L Mounting_Hole MK6
U 1 1 5A57108E
P 20200 12550
F 0 "MK6" H 20200 12750 50  0000 C CNN
F 1 "Mounting_Hole" H 20200 12675 50  0000 C CNN
F 2 "Mounting_Holes:MountingHole_2.7mm_Pad_Via" H 20200 12550 60  0001 C CNN
F 3 "" H 20200 12550 60  0001 C CNN
	1    20200 12550
	1    0    0    -1  
$EndComp
$Comp
L Mounting_Hole MK9
U 1 1 5A5711AC
P 20200 12750
F 0 "MK9" H 20200 12950 50  0000 C CNN
F 1 "Mounting_Hole" H 20200 12875 50  0000 C CNN
F 2 "Mounting_Holes:MountingHole_2.7mm_Pad_Via" H 20200 12750 60  0001 C CNN
F 3 "" H 20200 12750 60  0001 C CNN
	1    20200 12750
	1    0    0    -1  
$EndComp
$Comp
L Mounting_Hole MK15
U 1 1 5A5712D5
P 20200 12950
F 0 "MK15" H 20200 13150 50  0000 C CNN
F 1 "Mounting_Hole" H 20200 13075 50  0000 C CNN
F 2 "Mounting_Holes:MountingHole_2.7mm_Pad_Via" H 20200 12950 60  0001 C CNN
F 3 "" H 20200 12950 60  0001 C CNN
	1    20200 12950
	1    0    0    -1  
$EndComp
$Comp
L Mounting_Hole MK16
U 1 1 5A5713F3
P 20200 13150
F 0 "MK16" H 20200 13350 50  0000 C CNN
F 1 "Mounting_Hole" H 20200 13275 50  0000 C CNN
F 2 "Mounting_Holes:MountingHole_2.7mm_Pad_Via" H 20200 13150 60  0001 C CNN
F 3 "" H 20200 13150 60  0001 C CNN
	1    20200 13150
	1    0    0    -1  
$EndComp
$Comp
L AGND #PWR011
U 1 1 5A5B87D7
P 4150 4700
F 0 "#PWR011" H 4150 4450 50  0001 C CNN
F 1 "AGND" H 4150 4500 50  0000 C CNN
F 2 "" H 4150 4700 50  0000 C CNN
F 3 "" H 4150 4700 50  0000 C CNN
	1    4150 4700
	0    -1   -1   0   
$EndComp
$Comp
L AGND #PWR012
U 1 1 5A5BA430
P 9250 5350
F 0 "#PWR012" H 9250 5100 50  0001 C CNN
F 1 "AGND" H 9250 5150 50  0000 C CNN
F 2 "" H 9250 5350 50  0000 C CNN
F 3 "" H 9250 5350 50  0000 C CNN
	1    9250 5350
	-1   0    0    -1  
$EndComp
$Comp
L C C11
U 1 1 5A5BBD2E
P 9450 4550
F 0 "C11" H 9475 4650 50  0000 L CNN
F 1 "0.1uF" V 9550 4300 50  0000 L CNN
F 2 "Capacitors_THT:C_Disc_D4.3mm_W1.9mm_P5.00mm" H 9488 4400 50  0001 C CNN
F 3 "" H 9450 4550 50  0001 C CNN
	1    9450 4550
	1    0    0    -1  
$EndComp
$Comp
L C C12
U 1 1 5A5BC12C
P 9800 4550
F 0 "C12" H 9825 4650 50  0000 L CNN
F 1 "0.1uF" V 9900 4300 50  0000 L CNN
F 2 "Capacitors_THT:C_Disc_D4.3mm_W1.9mm_P5.00mm" H 9838 4400 50  0001 C CNN
F 3 "" H 9800 4550 50  0001 C CNN
	1    9800 4550
	1    0    0    -1  
$EndComp
$Comp
L C C10
U 1 1 5A5BCBD2
P 9100 4550
F 0 "C10" H 9125 4650 50  0000 L CNN
F 1 "0.1uF" V 9200 4300 50  0000 L CNN
F 2 "Capacitors_THT:C_Disc_D4.3mm_W1.9mm_P5.00mm" H 9138 4400 50  0001 C CNN
F 3 "" H 9100 4550 50  0001 C CNN
	1    9100 4550
	1    0    0    -1  
$EndComp
$Comp
L C C28
U 1 1 5A5C0020
P 10650 4000
F 0 "C28" H 10675 4100 50  0000 L CNN
F 1 "0.1uF" V 10750 3750 50  0000 L CNN
F 2 "Capacitors_THT:C_Disc_D4.3mm_W1.9mm_P5.00mm" H 10688 3850 50  0001 C CNN
F 3 "" H 10650 4000 50  0001 C CNN
	1    10650 4000
	0    1    1    0   
$EndComp
$Comp
L C C29
U 1 1 5A5C069E
P 10650 4350
F 0 "C29" H 10675 4450 50  0000 L CNN
F 1 "0.1uF" V 10750 4100 50  0000 L CNN
F 2 "Capacitors_THT:C_Disc_D4.3mm_W1.9mm_P5.00mm" H 10688 4200 50  0001 C CNN
F 3 "" H 10650 4350 50  0001 C CNN
	1    10650 4350
	0    1    1    0   
$EndComp
Text Label 2150 5200 2    60   ~ 0
AU_RX
Text Label 4150 4900 0    60   ~ 0
AU_LRCLK
Text Label 4150 5000 0    60   ~ 0
AU_TX
$Comp
L CONN_01X04 J2
U 1 1 5A5DEE38
P 800 1550
F 0 "J2" H 800 1800 50  0000 C CNN
F 1 "CONN_01X04" V 900 1550 50  0000 C CNN
F 2 "Pin_Headers:Pin_Header_Straight_1x04_Pitch2.54mm" H 800 1550 50  0001 C CNN
F 3 "" H 800 1550 50  0001 C CNN
	1    800  1550
	-1   0    0    -1  
$EndComp
$Comp
L GND #PWR013
U 1 1 5A5DFABA
P 1250 1900
F 0 "#PWR013" H 1250 1650 50  0001 C CNN
F 1 "GND" H 1250 1750 50  0000 C CNN
F 2 "" H 1250 1900 50  0000 C CNN
F 3 "" H 1250 1900 50  0000 C CNN
	1    1250 1900
	1    0    0    -1  
$EndComp
$Comp
L +3.3V #PWR014
U 1 1 5A5DFC24
P 1250 1200
F 0 "#PWR014" H 1250 1050 50  0001 C CNN
F 1 "+3.3V" H 1250 1340 50  0000 C CNN
F 2 "" H 1250 1200 50  0001 C CNN
F 3 "" H 1250 1200 50  0001 C CNN
	1    1250 1200
	1    0    0    -1  
$EndComp
Text Label 2150 2600 2    60   ~ 0
AUSD_MISO
$Comp
L Teensy_Audio_Board-RESCUE-chordboard U10
U 1 1 5A687A22
P 15350 2800
F 0 "U10" H 15150 3950 60  0000 C CNN
F 1 "Teensy_Audio_Board" H 15350 2250 60  0000 C CNN
F 2 "afshar-kicad-lib:Teensy_Audio_Board" H 15150 2250 60  0001 C CNN
F 3 "" H 15150 2250 60  0000 C CNN
	1    15350 2800
	1    0    0    -1  
$EndComp
Text Label 14100 3050 2    60   ~ 0
AU_MCLK
Text Label 14100 2850 2    60   ~ 0
AU_BCLK
Text Label 16650 3150 0    60   ~ 0
AU_RX
Text Label 16650 2550 0    60   ~ 0
SCL
Text Label 16650 2650 0    60   ~ 0
SDA
$Comp
L GND #PWR015
U 1 1 5A68C9D4
P 13750 2000
F 0 "#PWR015" H 13750 1750 50  0001 C CNN
F 1 "GND" H 13750 1850 50  0000 C CNN
F 2 "" H 13750 2000 50  0000 C CNN
F 3 "" H 13750 2000 50  0000 C CNN
	1    13750 2000
	1    0    0    -1  
$EndComp
Text Label 16650 2250 0    60   ~ 0
AU_TX
Text Label 16650 2150 0    60   ~ 0
AU_LRCLK
$Comp
L +3.3V #PWR016
U 1 1 5A68DAE5
P 17250 1500
F 0 "#PWR016" H 17250 1350 50  0001 C CNN
F 1 "+3.3V" H 17250 1640 50  0000 C CNN
F 2 "" H 17250 1500 50  0001 C CNN
F 3 "" H 17250 1500 50  0001 C CNN
	1    17250 1500
	1    0    0    -1  
$EndComp
$Comp
L AGND #PWR017
U 1 1 5A68DC9D
P 16650 1950
F 0 "#PWR017" H 16650 1700 50  0001 C CNN
F 1 "AGND" H 16650 1750 50  0000 C CNN
F 2 "" H 16650 1950 50  0000 C CNN
F 3 "" H 16650 1950 50  0000 C CNN
	1    16650 1950
	0    -1   -1   0   
$EndComp
Text Label 14100 3150 2    60   ~ 0
AU_SDMISO
Text Label 2150 5300 2    60   ~ 0
AUSD_SCLK
Text Label 16650 3050 0    60   ~ 0
AUSD_SCLK
Text Label 14100 2950 2    60   ~ 0
AUSD_CS
Text Label 2150 2100 2    60   ~ 0
AUSD_MOSI
Text Label 14100 2650 2    60   ~ 0
AUSD_MOSI
Text Label 2150 2000 2    60   ~ 0
AUMEM_CS
Text Label 14100 2550 2    60   ~ 0
AUMEM_CS
Text Label 1800 13150 2    60   ~ 0
PIXEL1_IN
$Comp
L +5V #PWR018
U 1 1 5A6DC2C7
P 1750 13900
F 0 "#PWR018" H 1750 13750 50  0001 C CNN
F 1 "+5V" H 1750 14040 50  0000 C CNN
F 2 "" H 1750 13900 50  0001 C CNN
F 3 "" H 1750 13900 50  0001 C CNN
	1    1750 13900
	1    0    0    -1  
$EndComp
$Comp
L C C1
U 1 1 5A6DC2CD
P 1650 14100
F 0 "C1" H 1675 14200 50  0000 L CNN
F 1 "0.1uF" V 1750 13850 50  0000 L CNN
F 2 "Capacitors_THT:C_Disc_D4.3mm_W1.9mm_P5.00mm" H 1688 13950 50  0001 C CNN
F 3 "" H 1650 14100 50  0001 C CNN
	1    1650 14100
	1    0    0    -1  
$EndComp
$Comp
L 74LS245_aa U6
U 1 1 5A6DC2D8
P 2600 13650
F 0 "U6" H 2700 14225 50  0000 L BNN
F 1 "74LS245_aa" H 2650 13075 50  0000 L TNN
F 2 "Housings_DIP:DIP-20_W7.62mm" H 2600 13650 50  0001 C CNN
F 3 "" H 2600 13650 50  0001 C CNN
	1    2600 13650
	1    0    0    -1  
$EndComp
$Comp
L +5V #PWR019
U 1 1 5A6DC2DF
P 2600 12750
F 0 "#PWR019" H 2600 12600 50  0001 C CNN
F 1 "+5V" H 2600 12890 50  0000 C CNN
F 2 "" H 2600 12750 50  0001 C CNN
F 3 "" H 2600 12750 50  0001 C CNN
	1    2600 12750
	1    0    0    -1  
$EndComp
$Comp
L GND #PWR020
U 1 1 5A6DC2E5
P 2600 14600
F 0 "#PWR020" H 2600 14350 50  0001 C CNN
F 1 "GND" H 2600 14450 50  0000 C CNN
F 2 "" H 2600 14600 50  0000 C CNN
F 3 "" H 2600 14600 50  0000 C CNN
	1    2600 14600
	1    0    0    -1  
$EndComp
$Comp
L MCP23017 U7
U 1 1 5A6E0484
P 16000 9350
F 0 "U7" H 16300 9850 50  0000 R CNN
F 1 "MCP23017" H 16300 9950 50  0000 R CNN
F 2 "Housings_DIP:DIP-28_W7.62mm" H 16050 8400 50  0001 L CNN
F 3 "" H 16250 10350 50  0001 C CNN
	1    16000 9350
	-1   0    0    -1  
$EndComp
$Comp
L C C19
U 1 1 5A6E04EA
P 16150 8000
F 0 "C19" H 16175 8100 50  0000 L CNN
F 1 "0.1uF" V 16100 7750 50  0000 L CNN
F 2 "Capacitors_THT:C_Disc_D4.3mm_W1.9mm_P5.00mm" H 16188 7850 50  0001 C CNN
F 3 "" H 16150 8000 50  0001 C CNN
	1    16150 8000
	1    0    0    -1  
$EndComp
$Comp
L GND #PWR021
U 1 1 5A6E04F0
P 16150 8200
F 0 "#PWR021" H 16150 7950 50  0001 C CNN
F 1 "GND" H 16150 8050 50  0000 C CNN
F 2 "" H 16150 8200 50  0001 C CNN
F 3 "" H 16150 8200 50  0001 C CNN
	1    16150 8200
	1    0    0    -1  
$EndComp
$Comp
L +3.3V #PWR022
U 1 1 5A6E04F6
P 15400 10050
F 0 "#PWR022" H 15400 9900 50  0001 C CNN
F 1 "+3.3V" H 15400 10190 50  0000 C CNN
F 2 "" H 15400 10050 50  0001 C CNN
F 3 "" H 15400 10050 50  0001 C CNN
	1    15400 10050
	0    -1   -1   0   
$EndComp
Text Label 15500 8950 2    60   ~ 0
INT3B
Text Label 15500 9050 2    60   ~ 0
INT3A
Text Label 15350 9650 2    60   ~ 0
SCL
Text Label 15350 9750 2    60   ~ 0
SDA
Text Label 1800 13250 2    60   ~ 0
PIXEL2_IN
$Comp
L WS2812B LED1
U 1 1 5A6E534F
P 4250 13050
F 0 "LED1" H 4250 12850 50  0000 C CNN
F 1 "WS2812B" H 4250 13150 50  0000 C CNN
F 2 "LEDs:LED_WS2812B-PLCC4" H 4250 12750 50  0001 C CNN
F 3 "" H 4250 13000 50  0001 C CNN
	1    4250 13050
	1    0    0    -1  
$EndComp
$Comp
L C C2
U 1 1 5A6EB09F
P 4050 12550
F 0 "C2" H 4075 12650 50  0000 L CNN
F 1 "0.1uF" V 4150 12300 50  0000 L CNN
F 2 "Capacitors_THT:C_Disc_D4.3mm_W1.9mm_P5.00mm" H 4088 12400 50  0001 C CNN
F 3 "" H 4050 12550 50  0001 C CNN
	1    4050 12550
	0    1    1    0   
$EndComp
$Comp
L GND #PWR023
U 1 1 5A6EB9A0
P 4300 12650
F 0 "#PWR023" H 4300 12400 50  0001 C CNN
F 1 "GND" H 4300 12500 50  0000 C CNN
F 2 "" H 4300 12650 50  0000 C CNN
F 3 "" H 4300 12650 50  0000 C CNN
	1    4300 12650
	1    0    0    -1  
$EndComp
$Comp
L GND #PWR024
U 1 1 5A6EC6BF
P 4650 13300
F 0 "#PWR024" H 4650 13050 50  0001 C CNN
F 1 "GND" H 4650 13150 50  0000 C CNN
F 2 "" H 4650 13300 50  0000 C CNN
F 3 "" H 4650 13300 50  0000 C CNN
	1    4650 13300
	1    0    0    -1  
$EndComp
$Comp
L +5V #PWR025
U 1 1 5A6EC82F
P 3850 12350
F 0 "#PWR025" H 3850 12200 50  0001 C CNN
F 1 "+5V" H 3850 12490 50  0000 C CNN
F 2 "" H 3850 12350 50  0001 C CNN
F 3 "" H 3850 12350 50  0001 C CNN
	1    3850 12350
	1    0    0    -1  
$EndComp
$Comp
L WS2812B LED2
U 1 1 5A6ECB78
P 5150 13050
F 0 "LED2" H 5150 12850 50  0000 C CNN
F 1 "WS2812B" H 5150 13150 50  0000 C CNN
F 2 "LEDs:LED_WS2812B-PLCC4" H 5150 12750 50  0001 C CNN
F 3 "" H 5150 13000 50  0001 C CNN
	1    5150 13050
	1    0    0    -1  
$EndComp
$Comp
L C C3
U 1 1 5A6ECB85
P 4950 12550
F 0 "C3" H 4975 12650 50  0000 L CNN
F 1 "0.1uF" V 5050 12300 50  0000 L CNN
F 2 "Capacitors_THT:C_Disc_D4.3mm_W1.9mm_P5.00mm" H 4988 12400 50  0001 C CNN
F 3 "" H 4950 12550 50  0001 C CNN
	1    4950 12550
	0    1    1    0   
$EndComp
$Comp
L GND #PWR026
U 1 1 5A6ECB90
P 5200 12650
F 0 "#PWR026" H 5200 12400 50  0001 C CNN
F 1 "GND" H 5200 12500 50  0000 C CNN
F 2 "" H 5200 12650 50  0000 C CNN
F 3 "" H 5200 12650 50  0000 C CNN
	1    5200 12650
	1    0    0    -1  
$EndComp
$Comp
L GND #PWR027
U 1 1 5A6ECB96
P 5550 13300
F 0 "#PWR027" H 5550 13050 50  0001 C CNN
F 1 "GND" H 5550 13150 50  0000 C CNN
F 2 "" H 5550 13300 50  0000 C CNN
F 3 "" H 5550 13300 50  0000 C CNN
	1    5550 13300
	1    0    0    -1  
$EndComp
$Comp
L +5V #PWR028
U 1 1 5A6ECB9C
P 4750 12350
F 0 "#PWR028" H 4750 12200 50  0001 C CNN
F 1 "+5V" H 4750 12490 50  0000 C CNN
F 2 "" H 4750 12350 50  0001 C CNN
F 3 "" H 4750 12350 50  0001 C CNN
	1    4750 12350
	1    0    0    -1  
$EndComp
$Comp
L WS2812B LED3
U 1 1 5A6ECFE1
P 6050 13050
F 0 "LED3" H 6050 12850 50  0000 C CNN
F 1 "WS2812B" H 6050 13150 50  0000 C CNN
F 2 "LEDs:LED_WS2812B-PLCC4" H 6050 12750 50  0001 C CNN
F 3 "" H 6050 13000 50  0001 C CNN
	1    6050 13050
	1    0    0    -1  
$EndComp
$Comp
L C C6
U 1 1 5A6ECFEE
P 5850 12550
F 0 "C6" H 5875 12650 50  0000 L CNN
F 1 "0.1uF" V 5950 12300 50  0000 L CNN
F 2 "Capacitors_THT:C_Disc_D4.3mm_W1.9mm_P5.00mm" H 5888 12400 50  0001 C CNN
F 3 "" H 5850 12550 50  0001 C CNN
	1    5850 12550
	0    1    1    0   
$EndComp
$Comp
L GND #PWR029
U 1 1 5A6ECFF9
P 6100 12650
F 0 "#PWR029" H 6100 12400 50  0001 C CNN
F 1 "GND" H 6100 12500 50  0000 C CNN
F 2 "" H 6100 12650 50  0000 C CNN
F 3 "" H 6100 12650 50  0000 C CNN
	1    6100 12650
	1    0    0    -1  
$EndComp
$Comp
L GND #PWR030
U 1 1 5A6ECFFF
P 6450 13300
F 0 "#PWR030" H 6450 13050 50  0001 C CNN
F 1 "GND" H 6450 13150 50  0000 C CNN
F 2 "" H 6450 13300 50  0000 C CNN
F 3 "" H 6450 13300 50  0000 C CNN
	1    6450 13300
	1    0    0    -1  
$EndComp
$Comp
L +5V #PWR031
U 1 1 5A6ED005
P 5650 12350
F 0 "#PWR031" H 5650 12200 50  0001 C CNN
F 1 "+5V" H 5650 12490 50  0000 C CNN
F 2 "" H 5650 12350 50  0001 C CNN
F 3 "" H 5650 12350 50  0001 C CNN
	1    5650 12350
	1    0    0    -1  
$EndComp
$Comp
L WS2812B LED4
U 1 1 5A6ED00B
P 6950 13050
F 0 "LED4" H 6950 12850 50  0000 C CNN
F 1 "WS2812B" H 6950 13150 50  0000 C CNN
F 2 "LEDs:LED_WS2812B-PLCC4" H 6950 12750 50  0001 C CNN
F 3 "" H 6950 13000 50  0001 C CNN
	1    6950 13050
	1    0    0    -1  
$EndComp
$Comp
L C C7
U 1 1 5A6ED018
P 6750 12550
F 0 "C7" H 6775 12650 50  0000 L CNN
F 1 "0.1uF" V 6850 12300 50  0000 L CNN
F 2 "Capacitors_THT:C_Disc_D4.3mm_W1.9mm_P5.00mm" H 6788 12400 50  0001 C CNN
F 3 "" H 6750 12550 50  0001 C CNN
	1    6750 12550
	0    1    1    0   
$EndComp
$Comp
L GND #PWR032
U 1 1 5A6ED023
P 7000 12650
F 0 "#PWR032" H 7000 12400 50  0001 C CNN
F 1 "GND" H 7000 12500 50  0000 C CNN
F 2 "" H 7000 12650 50  0000 C CNN
F 3 "" H 7000 12650 50  0000 C CNN
	1    7000 12650
	1    0    0    -1  
$EndComp
$Comp
L GND #PWR033
U 1 1 5A6ED029
P 7350 13300
F 0 "#PWR033" H 7350 13050 50  0001 C CNN
F 1 "GND" H 7350 13150 50  0000 C CNN
F 2 "" H 7350 13300 50  0000 C CNN
F 3 "" H 7350 13300 50  0000 C CNN
	1    7350 13300
	1    0    0    -1  
$EndComp
$Comp
L +5V #PWR034
U 1 1 5A6ED02F
P 6550 12350
F 0 "#PWR034" H 6550 12200 50  0001 C CNN
F 1 "+5V" H 6550 12490 50  0000 C CNN
F 2 "" H 6550 12350 50  0001 C CNN
F 3 "" H 6550 12350 50  0001 C CNN
	1    6550 12350
	1    0    0    -1  
$EndComp
$Comp
L WS2812B LED5
U 1 1 5A6ED23C
P 7850 13050
F 0 "LED5" H 7850 12850 50  0000 C CNN
F 1 "WS2812B" H 7850 13150 50  0000 C CNN
F 2 "LEDs:LED_WS2812B-PLCC4" H 7850 12750 50  0001 C CNN
F 3 "" H 7850 13000 50  0001 C CNN
	1    7850 13050
	1    0    0    -1  
$EndComp
$Comp
L C C8
U 1 1 5A6ED249
P 7650 12550
F 0 "C8" H 7675 12650 50  0000 L CNN
F 1 "0.1uF" V 7750 12300 50  0000 L CNN
F 2 "Capacitors_THT:C_Disc_D4.3mm_W1.9mm_P5.00mm" H 7688 12400 50  0001 C CNN
F 3 "" H 7650 12550 50  0001 C CNN
	1    7650 12550
	0    1    1    0   
$EndComp
$Comp
L GND #PWR035
U 1 1 5A6ED254
P 7900 12650
F 0 "#PWR035" H 7900 12400 50  0001 C CNN
F 1 "GND" H 7900 12500 50  0000 C CNN
F 2 "" H 7900 12650 50  0000 C CNN
F 3 "" H 7900 12650 50  0000 C CNN
	1    7900 12650
	1    0    0    -1  
$EndComp
$Comp
L GND #PWR036
U 1 1 5A6ED25A
P 8250 13300
F 0 "#PWR036" H 8250 13050 50  0001 C CNN
F 1 "GND" H 8250 13150 50  0000 C CNN
F 2 "" H 8250 13300 50  0000 C CNN
F 3 "" H 8250 13300 50  0000 C CNN
	1    8250 13300
	1    0    0    -1  
$EndComp
$Comp
L +5V #PWR037
U 1 1 5A6ED260
P 7450 12350
F 0 "#PWR037" H 7450 12200 50  0001 C CNN
F 1 "+5V" H 7450 12490 50  0000 C CNN
F 2 "" H 7450 12350 50  0001 C CNN
F 3 "" H 7450 12350 50  0001 C CNN
	1    7450 12350
	1    0    0    -1  
$EndComp
$Comp
L WS2812B LED6
U 1 1 5A6ED266
P 8750 13050
F 0 "LED6" H 8750 12850 50  0000 C CNN
F 1 "WS2812B" H 8750 13150 50  0000 C CNN
F 2 "LEDs:LED_WS2812B-PLCC4" H 8750 12750 50  0001 C CNN
F 3 "" H 8750 13000 50  0001 C CNN
	1    8750 13050
	1    0    0    -1  
$EndComp
$Comp
L C C9
U 1 1 5A6ED273
P 8550 12550
F 0 "C9" H 8575 12650 50  0000 L CNN
F 1 "0.1uF" V 8650 12300 50  0000 L CNN
F 2 "Capacitors_THT:C_Disc_D4.3mm_W1.9mm_P5.00mm" H 8588 12400 50  0001 C CNN
F 3 "" H 8550 12550 50  0001 C CNN
	1    8550 12550
	0    1    1    0   
$EndComp
$Comp
L GND #PWR038
U 1 1 5A6ED27E
P 8800 12650
F 0 "#PWR038" H 8800 12400 50  0001 C CNN
F 1 "GND" H 8800 12500 50  0000 C CNN
F 2 "" H 8800 12650 50  0000 C CNN
F 3 "" H 8800 12650 50  0000 C CNN
	1    8800 12650
	1    0    0    -1  
$EndComp
$Comp
L GND #PWR039
U 1 1 5A6ED284
P 9150 13300
F 0 "#PWR039" H 9150 13050 50  0001 C CNN
F 1 "GND" H 9150 13150 50  0000 C CNN
F 2 "" H 9150 13300 50  0000 C CNN
F 3 "" H 9150 13300 50  0000 C CNN
	1    9150 13300
	1    0    0    -1  
$EndComp
$Comp
L +5V #PWR040
U 1 1 5A6ED28A
P 8350 12350
F 0 "#PWR040" H 8350 12200 50  0001 C CNN
F 1 "+5V" H 8350 12490 50  0000 C CNN
F 2 "" H 8350 12350 50  0001 C CNN
F 3 "" H 8350 12350 50  0001 C CNN
	1    8350 12350
	1    0    0    -1  
$EndComp
$Comp
L WS2812B LED7
U 1 1 5A6EDA51
P 9650 13050
F 0 "LED7" H 9650 12850 50  0000 C CNN
F 1 "WS2812B" H 9650 13150 50  0000 C CNN
F 2 "LEDs:LED_WS2812B-PLCC4" H 9650 12750 50  0001 C CNN
F 3 "" H 9650 13000 50  0001 C CNN
	1    9650 13050
	1    0    0    -1  
$EndComp
$Comp
L C C13
U 1 1 5A6EDA5D
P 9450 12550
F 0 "C13" H 9475 12650 50  0000 L CNN
F 1 "0.1uF" V 9550 12300 50  0000 L CNN
F 2 "Capacitors_THT:C_Disc_D4.3mm_W1.9mm_P5.00mm" H 9488 12400 50  0001 C CNN
F 3 "" H 9450 12550 50  0001 C CNN
	1    9450 12550
	0    1    1    0   
$EndComp
$Comp
L GND #PWR041
U 1 1 5A6EDA67
P 9700 12650
F 0 "#PWR041" H 9700 12400 50  0001 C CNN
F 1 "GND" H 9700 12500 50  0000 C CNN
F 2 "" H 9700 12650 50  0000 C CNN
F 3 "" H 9700 12650 50  0000 C CNN
	1    9700 12650
	1    0    0    -1  
$EndComp
$Comp
L GND #PWR042
U 1 1 5A6EDA6D
P 10050 13300
F 0 "#PWR042" H 10050 13050 50  0001 C CNN
F 1 "GND" H 10050 13150 50  0000 C CNN
F 2 "" H 10050 13300 50  0000 C CNN
F 3 "" H 10050 13300 50  0000 C CNN
	1    10050 13300
	1    0    0    -1  
$EndComp
$Comp
L +5V #PWR043
U 1 1 5A6EDA73
P 9250 12350
F 0 "#PWR043" H 9250 12200 50  0001 C CNN
F 1 "+5V" H 9250 12490 50  0000 C CNN
F 2 "" H 9250 12350 50  0001 C CNN
F 3 "" H 9250 12350 50  0001 C CNN
	1    9250 12350
	1    0    0    -1  
$EndComp
$Comp
L WS2812B LED8
U 1 1 5A6EDA79
P 10550 13050
F 0 "LED8" H 10550 12850 50  0000 C CNN
F 1 "WS2812B" H 10550 13150 50  0000 C CNN
F 2 "LEDs:LED_WS2812B-PLCC4" H 10550 12750 50  0001 C CNN
F 3 "" H 10550 13000 50  0001 C CNN
	1    10550 13050
	1    0    0    -1  
$EndComp
$Comp
L C C14
U 1 1 5A6EDA85
P 10350 12550
F 0 "C14" H 10375 12650 50  0000 L CNN
F 1 "0.1uF" V 10450 12300 50  0000 L CNN
F 2 "Capacitors_THT:C_Disc_D4.3mm_W1.9mm_P5.00mm" H 10388 12400 50  0001 C CNN
F 3 "" H 10350 12550 50  0001 C CNN
	1    10350 12550
	0    1    1    0   
$EndComp
$Comp
L GND #PWR044
U 1 1 5A6EDA8F
P 10600 12650
F 0 "#PWR044" H 10600 12400 50  0001 C CNN
F 1 "GND" H 10600 12500 50  0000 C CNN
F 2 "" H 10600 12650 50  0000 C CNN
F 3 "" H 10600 12650 50  0000 C CNN
	1    10600 12650
	1    0    0    -1  
$EndComp
$Comp
L GND #PWR045
U 1 1 5A6EDA95
P 10950 13300
F 0 "#PWR045" H 10950 13050 50  0001 C CNN
F 1 "GND" H 10950 13150 50  0000 C CNN
F 2 "" H 10950 13300 50  0000 C CNN
F 3 "" H 10950 13300 50  0000 C CNN
	1    10950 13300
	1    0    0    -1  
$EndComp
$Comp
L +5V #PWR046
U 1 1 5A6EDA9B
P 10150 12350
F 0 "#PWR046" H 10150 12200 50  0001 C CNN
F 1 "+5V" H 10150 12490 50  0000 C CNN
F 2 "" H 10150 12350 50  0001 C CNN
F 3 "" H 10150 12350 50  0001 C CNN
	1    10150 12350
	1    0    0    -1  
$EndComp
$Comp
L WS2812B LED9
U 1 1 5A6EDAA1
P 11450 13050
F 0 "LED9" H 11450 12850 50  0000 C CNN
F 1 "WS2812B" H 11450 13150 50  0000 C CNN
F 2 "LEDs:LED_WS2812B-PLCC4" H 11450 12750 50  0001 C CNN
F 3 "" H 11450 13000 50  0001 C CNN
	1    11450 13050
	1    0    0    -1  
$EndComp
$Comp
L C C15
U 1 1 5A6EDAAD
P 11250 12550
F 0 "C15" H 11275 12650 50  0000 L CNN
F 1 "0.1uF" V 11350 12300 50  0000 L CNN
F 2 "Capacitors_THT:C_Disc_D4.3mm_W1.9mm_P5.00mm" H 11288 12400 50  0001 C CNN
F 3 "" H 11250 12550 50  0001 C CNN
	1    11250 12550
	0    1    1    0   
$EndComp
$Comp
L GND #PWR047
U 1 1 5A6EDAB7
P 11500 12650
F 0 "#PWR047" H 11500 12400 50  0001 C CNN
F 1 "GND" H 11500 12500 50  0000 C CNN
F 2 "" H 11500 12650 50  0000 C CNN
F 3 "" H 11500 12650 50  0000 C CNN
	1    11500 12650
	1    0    0    -1  
$EndComp
$Comp
L GND #PWR048
U 1 1 5A6EDABD
P 11850 13300
F 0 "#PWR048" H 11850 13050 50  0001 C CNN
F 1 "GND" H 11850 13150 50  0000 C CNN
F 2 "" H 11850 13300 50  0000 C CNN
F 3 "" H 11850 13300 50  0000 C CNN
	1    11850 13300
	1    0    0    -1  
$EndComp
$Comp
L +5V #PWR049
U 1 1 5A6EDAC3
P 11050 12350
F 0 "#PWR049" H 11050 12200 50  0001 C CNN
F 1 "+5V" H 11050 12490 50  0000 C CNN
F 2 "" H 11050 12350 50  0001 C CNN
F 3 "" H 11050 12350 50  0001 C CNN
	1    11050 12350
	1    0    0    -1  
$EndComp
$Comp
L WS2812B LED10
U 1 1 5A6EDAC9
P 12350 13050
F 0 "LED10" H 12350 12850 50  0000 C CNN
F 1 "WS2812B" H 12350 13150 50  0000 C CNN
F 2 "LEDs:LED_WS2812B-PLCC4" H 12350 12750 50  0001 C CNN
F 3 "" H 12350 13000 50  0001 C CNN
	1    12350 13050
	1    0    0    -1  
$EndComp
$Comp
L C C16
U 1 1 5A6EDAD5
P 12150 12550
F 0 "C16" H 12175 12650 50  0000 L CNN
F 1 "0.1uF" V 12250 12300 50  0000 L CNN
F 2 "Capacitors_THT:C_Disc_D4.3mm_W1.9mm_P5.00mm" H 12188 12400 50  0001 C CNN
F 3 "" H 12150 12550 50  0001 C CNN
	1    12150 12550
	0    1    1    0   
$EndComp
$Comp
L GND #PWR050
U 1 1 5A6EDADF
P 12400 12650
F 0 "#PWR050" H 12400 12400 50  0001 C CNN
F 1 "GND" H 12400 12500 50  0000 C CNN
F 2 "" H 12400 12650 50  0000 C CNN
F 3 "" H 12400 12650 50  0000 C CNN
	1    12400 12650
	1    0    0    -1  
$EndComp
$Comp
L GND #PWR051
U 1 1 5A6EDAE5
P 12750 13300
F 0 "#PWR051" H 12750 13050 50  0001 C CNN
F 1 "GND" H 12750 13150 50  0000 C CNN
F 2 "" H 12750 13300 50  0000 C CNN
F 3 "" H 12750 13300 50  0000 C CNN
	1    12750 13300
	1    0    0    -1  
$EndComp
$Comp
L +5V #PWR052
U 1 1 5A6EDAEB
P 11950 12350
F 0 "#PWR052" H 11950 12200 50  0001 C CNN
F 1 "+5V" H 11950 12490 50  0000 C CNN
F 2 "" H 11950 12350 50  0001 C CNN
F 3 "" H 11950 12350 50  0001 C CNN
	1    11950 12350
	1    0    0    -1  
$EndComp
$Comp
L WS2812B LED11
U 1 1 5A6EDAF1
P 13250 13050
F 0 "LED11" H 13250 12850 50  0000 C CNN
F 1 "WS2812B" H 13250 13150 50  0000 C CNN
F 2 "LEDs:LED_WS2812B-PLCC4" H 13250 12750 50  0001 C CNN
F 3 "" H 13250 13000 50  0001 C CNN
	1    13250 13050
	1    0    0    -1  
$EndComp
$Comp
L C C17
U 1 1 5A6EDAFD
P 13050 12550
F 0 "C17" H 13075 12650 50  0000 L CNN
F 1 "0.1uF" V 13150 12300 50  0000 L CNN
F 2 "Capacitors_THT:C_Disc_D4.3mm_W1.9mm_P5.00mm" H 13088 12400 50  0001 C CNN
F 3 "" H 13050 12550 50  0001 C CNN
	1    13050 12550
	0    1    1    0   
$EndComp
$Comp
L GND #PWR053
U 1 1 5A6EDB07
P 13300 12650
F 0 "#PWR053" H 13300 12400 50  0001 C CNN
F 1 "GND" H 13300 12500 50  0000 C CNN
F 2 "" H 13300 12650 50  0000 C CNN
F 3 "" H 13300 12650 50  0000 C CNN
	1    13300 12650
	1    0    0    -1  
$EndComp
$Comp
L GND #PWR054
U 1 1 5A6EDB0D
P 13650 13300
F 0 "#PWR054" H 13650 13050 50  0001 C CNN
F 1 "GND" H 13650 13150 50  0000 C CNN
F 2 "" H 13650 13300 50  0000 C CNN
F 3 "" H 13650 13300 50  0000 C CNN
	1    13650 13300
	1    0    0    -1  
$EndComp
$Comp
L +5V #PWR055
U 1 1 5A6EDB13
P 12850 12350
F 0 "#PWR055" H 12850 12200 50  0001 C CNN
F 1 "+5V" H 12850 12490 50  0000 C CNN
F 2 "" H 12850 12350 50  0001 C CNN
F 3 "" H 12850 12350 50  0001 C CNN
	1    12850 12350
	1    0    0    -1  
$EndComp
$Comp
L WS2812B LED12
U 1 1 5A6EDB19
P 14150 13050
F 0 "LED12" H 14150 12850 50  0000 C CNN
F 1 "WS2812B" H 14150 13150 50  0000 C CNN
F 2 "LEDs:LED_WS2812B-PLCC4" H 14150 12750 50  0001 C CNN
F 3 "" H 14150 13000 50  0001 C CNN
	1    14150 13050
	1    0    0    -1  
$EndComp
$Comp
L C C18
U 1 1 5A6EDB25
P 13950 12550
F 0 "C18" H 13975 12650 50  0000 L CNN
F 1 "0.1uF" V 14050 12300 50  0000 L CNN
F 2 "Capacitors_THT:C_Disc_D4.3mm_W1.9mm_P5.00mm" H 13988 12400 50  0001 C CNN
F 3 "" H 13950 12550 50  0001 C CNN
	1    13950 12550
	0    1    1    0   
$EndComp
$Comp
L GND #PWR056
U 1 1 5A6EDB2F
P 14200 12650
F 0 "#PWR056" H 14200 12400 50  0001 C CNN
F 1 "GND" H 14200 12500 50  0000 C CNN
F 2 "" H 14200 12650 50  0000 C CNN
F 3 "" H 14200 12650 50  0000 C CNN
	1    14200 12650
	1    0    0    -1  
$EndComp
$Comp
L GND #PWR057
U 1 1 5A6EDB35
P 14550 13300
F 0 "#PWR057" H 14550 13050 50  0001 C CNN
F 1 "GND" H 14550 13150 50  0000 C CNN
F 2 "" H 14550 13300 50  0000 C CNN
F 3 "" H 14550 13300 50  0000 C CNN
	1    14550 13300
	1    0    0    -1  
$EndComp
$Comp
L +5V #PWR058
U 1 1 5A6EDB3B
P 13750 12350
F 0 "#PWR058" H 13750 12200 50  0001 C CNN
F 1 "+5V" H 13750 12490 50  0000 C CNN
F 2 "" H 13750 12350 50  0001 C CNN
F 3 "" H 13750 12350 50  0001 C CNN
	1    13750 12350
	1    0    0    -1  
$EndComp
Text Label 4150 5100 0    60   ~ 0
AJ_V
Text Label 4150 5200 0    60   ~ 0
AJ_H
Wire Wire Line
	1250 1700 1250 1900
Wire Wire Line
	1000 1700 1250 1700
Wire Wire Line
	1250 1600 1250 1200
Wire Wire Line
	1000 1600 1250 1600
Wire Wire Line
	2150 1500 1000 1500
Wire Wire Line
	2150 1400 1000 1400
Connection ~ 10300 4350
Wire Wire Line
	10300 4350 10500 4350
Wire Wire Line
	10800 4350 11050 4350
Wire Wire Line
	10800 4000 11050 4000
Connection ~ 10300 4000
Wire Wire Line
	10300 4000 10500 4000
Wire Wire Line
	9800 4350 9800 4400
Wire Wire Line
	9450 4350 9450 4400
Wire Wire Line
	9100 4350 9100 4400
Connection ~ 10300 4450
Connection ~ 10300 4100
Wire Wire Line
	10300 5200 10300 4000
Connection ~ 10200 4250
Connection ~ 10200 3900
Wire Wire Line
	10200 3450 10200 4250
Wire Wire Line
	4150 4100 4550 4100
Wire Wire Line
	4150 4000 4550 4000
Wire Wire Line
	4150 3900 4550 3900
Wire Wire Line
	4550 3800 4150 3800
Wire Wire Line
	4150 3700 4550 3700
Connection ~ 950  4000
Wire Wire Line
	950  3900 2150 3900
Connection ~ 950  4100
Wire Wire Line
	950  3900 950  5300
Wire Wire Line
	950  4100 1250 4100
Wire Wire Line
	950  4000 1250 4000
Wire Wire Line
	1650 4100 2150 4100
Wire Wire Line
	1650 4000 2150 4000
Wire Wire Line
	9250 4200 9250 5350
Wire Wire Line
	9600 4200 9600 5200
Wire Wire Line
	9950 5200 9950 4200
Wire Wire Line
	9650 3450 9650 4200
Wire Wire Line
	9300 3450 9300 4200
Wire Wire Line
	8950 4200 8950 3450
Wire Wire Line
	950  2700 2150 2700
Wire Wire Line
	11850 7750 16150 7750
Connection ~ 13650 7750
Connection ~ 12850 7750
Wire Wire Line
	12850 7750 12850 7500
Wire Wire Line
	11150 10400 17200 10400
Wire Wire Line
	13050 9950 13150 9950
Wire Wire Line
	11850 8150 11850 8200
Wire Wire Line
	13800 8150 13800 8200
Wire Wire Line
	13800 7750 13800 7850
Connection ~ 12050 7750
Wire Wire Line
	11850 7750 11850 7850
Wire Wire Line
	2150 1300 2150 900 
Wire Wire Line
	13150 9750 12550 9750
Wire Wire Line
	13150 9650 12550 9650
Connection ~ 12050 10400
Wire Wire Line
	12050 10350 12050 10400
Connection ~ 12850 10400
Wire Wire Line
	12650 7750 12650 8550
Wire Wire Line
	12650 8550 12550 8550
Connection ~ 12650 7750
Wire Wire Line
	12050 7750 12050 8350
Wire Wire Line
	12850 9950 12550 9950
Connection ~ 11150 10150
Connection ~ 11150 10050
Connection ~ 11150 9950
Connection ~ 11150 9850
Connection ~ 11150 9750
Connection ~ 11150 9650
Connection ~ 11150 9550
Connection ~ 11150 9450
Connection ~ 11150 9250
Connection ~ 11150 9150
Connection ~ 11150 9050
Connection ~ 11150 8950
Connection ~ 11150 8850
Connection ~ 11150 8750
Connection ~ 11150 8650
Wire Wire Line
	11150 8550 11150 10400
Connection ~ 13650 10400
Wire Wire Line
	13650 10400 13650 10350
Wire Wire Line
	12850 9950 12850 10750
Connection ~ 13050 7750
Wire Wire Line
	13050 8550 13050 7750
Wire Wire Line
	13150 8550 13050 8550
Wire Wire Line
	13650 7750 13650 8350
Wire Wire Line
	4150 5400 5550 5400
Wire Wire Line
	4150 5300 5550 5300
Connection ~ 12850 10050
Wire Wire Line
	12550 10050 13150 10050
Connection ~ 12850 10150
Wire Wire Line
	12550 10150 13150 10150
Connection ~ 14550 10150
Connection ~ 5300 4600
Wire Wire Line
	5300 4600 5300 3600
Wire Wire Line
	5250 4600 5350 4600
Connection ~ 5350 5300
Wire Wire Line
	5350 5300 5350 4900
Connection ~ 5250 5400
Wire Wire Line
	5250 5400 5250 4900
Connection ~ 14550 10050
Connection ~ 14550 9950
Connection ~ 14550 9850
Connection ~ 14550 9750
Connection ~ 14550 9650
Connection ~ 14550 9550
Connection ~ 14550 9450
Connection ~ 14550 9250
Connection ~ 14550 9150
Connection ~ 14550 9050
Connection ~ 14550 8950
Connection ~ 14550 8850
Connection ~ 14550 8750
Connection ~ 14550 8650
Wire Wire Line
	14550 8550 14550 10400
Wire Wire Line
	2150 5100 950  5100
Connection ~ 950  5100
Wire Wire Line
	9250 5200 10300 5200
Connection ~ 9250 5200
Wire Wire Line
	8950 3450 10200 3450
Wire Wire Line
	9200 3300 9200 3450
Connection ~ 9200 3450
Wire Wire Line
	13750 1850 14100 1850
Wire Wire Line
	13750 1850 13750 2000
Wire Wire Line
	16650 2050 17250 2050
Wire Wire Line
	17250 2050 17250 1500
Wire Wire Line
	11050 3900 10200 3900
Wire Wire Line
	10200 4250 11050 4250
Wire Wire Line
	10300 4450 11050 4450
Wire Wire Line
	11050 4100 10300 4100
Wire Wire Line
	1800 13150 1900 13150
Wire Wire Line
	1750 14050 1900 14050
Wire Wire Line
	1750 13900 1750 14050
Wire Wire Line
	1900 14150 1750 14150
Wire Wire Line
	1750 14150 1750 14550
Wire Wire Line
	1750 13950 1650 13950
Connection ~ 1750 13950
Wire Wire Line
	1750 14250 1650 14250
Connection ~ 1750 14250
Wire Wire Line
	2600 12800 2600 12750
Wire Wire Line
	2600 14500 2600 14600
Wire Wire Line
	1750 14550 2600 14550
Connection ~ 2600 14550
Connection ~ 16000 7750
Wire Wire Line
	15400 10050 15500 10050
Wire Wire Line
	16150 8150 16150 8200
Wire Wire Line
	16150 7750 16150 7850
Wire Wire Line
	15500 9750 15350 9750
Wire Wire Line
	15500 9650 15350 9650
Wire Wire Line
	16000 10400 16000 10350
Connection ~ 15400 7750
Wire Wire Line
	15400 8550 15400 7750
Wire Wire Line
	15500 8550 15400 8550
Wire Wire Line
	16000 7750 16000 8350
Wire Wire Line
	14900 10150 15500 10150
Wire Wire Line
	15500 9950 14900 9950
Wire Wire Line
	14900 9950 14900 10400
Connection ~ 14900 10400
Connection ~ 14900 10150
Connection ~ 14550 10400
Connection ~ 13800 7750
Wire Wire Line
	1800 13250 1900 13250
Wire Wire Line
	4650 13050 4700 13050
Wire Wire Line
	4700 13050 4700 13150
Wire Wire Line
	4700 13150 4750 13150
Wire Wire Line
	4650 13150 4650 13300
Wire Wire Line
	3850 12350 3850 13050
Wire Wire Line
	3900 12550 3850 12550
Connection ~ 3850 12550
Wire Wire Line
	4200 12550 4300 12550
Wire Wire Line
	4300 12550 4300 12650
Wire Wire Line
	5550 13050 5600 13050
Wire Wire Line
	5600 13050 5600 13150
Wire Wire Line
	5600 13150 5650 13150
Wire Wire Line
	5550 13150 5550 13300
Wire Wire Line
	4750 12350 4750 13050
Wire Wire Line
	4800 12550 4750 12550
Connection ~ 4750 12550
Wire Wire Line
	5100 12550 5200 12550
Wire Wire Line
	5200 12550 5200 12650
Wire Wire Line
	6450 13050 6500 13050
Wire Wire Line
	6500 13050 6500 13150
Wire Wire Line
	6500 13150 6550 13150
Wire Wire Line
	6450 13150 6450 13300
Wire Wire Line
	5650 12350 5650 13050
Wire Wire Line
	5700 12550 5650 12550
Connection ~ 5650 12550
Wire Wire Line
	6000 12550 6100 12550
Wire Wire Line
	6100 12550 6100 12650
Wire Wire Line
	7350 13050 7400 13050
Wire Wire Line
	7400 13050 7400 13150
Wire Wire Line
	7400 13150 7450 13150
Wire Wire Line
	7350 13150 7350 13300
Wire Wire Line
	6550 12350 6550 13050
Wire Wire Line
	6600 12550 6550 12550
Connection ~ 6550 12550
Wire Wire Line
	6900 12550 7000 12550
Wire Wire Line
	7000 12550 7000 12650
Wire Wire Line
	8250 13050 8300 13050
Wire Wire Line
	8300 13050 8300 13150
Wire Wire Line
	8300 13150 8350 13150
Wire Wire Line
	8250 13150 8250 13300
Wire Wire Line
	7450 12350 7450 13050
Wire Wire Line
	7500 12550 7450 12550
Connection ~ 7450 12550
Wire Wire Line
	7800 12550 7900 12550
Wire Wire Line
	7900 12550 7900 12650
Wire Wire Line
	9150 13050 9200 13050
Wire Wire Line
	9200 13050 9200 13150
Wire Wire Line
	9200 13150 9250 13150
Wire Wire Line
	9150 13150 9150 13300
Wire Wire Line
	8350 12350 8350 13050
Wire Wire Line
	8400 12550 8350 12550
Connection ~ 8350 12550
Wire Wire Line
	8700 12550 8800 12550
Wire Wire Line
	8800 12550 8800 12650
Wire Wire Line
	10050 13050 10100 13050
Wire Wire Line
	10100 13050 10100 13150
Wire Wire Line
	10100 13150 10150 13150
Wire Wire Line
	10050 13150 10050 13300
Wire Wire Line
	9250 12350 9250 13050
Wire Wire Line
	9300 12550 9250 12550
Connection ~ 9250 12550
Wire Wire Line
	9600 12550 9700 12550
Wire Wire Line
	9700 12550 9700 12650
Wire Wire Line
	10950 13050 11000 13050
Wire Wire Line
	11000 13050 11000 13150
Wire Wire Line
	11000 13150 11050 13150
Wire Wire Line
	10950 13150 10950 13300
Wire Wire Line
	10150 12350 10150 13050
Wire Wire Line
	10200 12550 10150 12550
Connection ~ 10150 12550
Wire Wire Line
	10500 12550 10600 12550
Wire Wire Line
	10600 12550 10600 12650
Wire Wire Line
	11850 13050 11900 13050
Wire Wire Line
	11900 13050 11900 13150
Wire Wire Line
	11900 13150 11950 13150
Wire Wire Line
	11850 13150 11850 13300
Wire Wire Line
	11050 12350 11050 13050
Wire Wire Line
	11100 12550 11050 12550
Connection ~ 11050 12550
Wire Wire Line
	11400 12550 11500 12550
Wire Wire Line
	11500 12550 11500 12650
Wire Wire Line
	12750 13050 12800 13050
Wire Wire Line
	12800 13050 12800 13150
Wire Wire Line
	12800 13150 12850 13150
Wire Wire Line
	12750 13150 12750 13300
Wire Wire Line
	11950 12350 11950 13050
Wire Wire Line
	12000 12550 11950 12550
Connection ~ 11950 12550
Wire Wire Line
	12300 12550 12400 12550
Wire Wire Line
	12400 12550 12400 12650
Wire Wire Line
	13650 13050 13700 13050
Wire Wire Line
	13700 13050 13700 13150
Wire Wire Line
	13700 13150 13750 13150
Wire Wire Line
	13650 13150 13650 13300
Wire Wire Line
	12850 12350 12850 13050
Wire Wire Line
	12900 12550 12850 12550
Connection ~ 12850 12550
Wire Wire Line
	13200 12550 13300 12550
Wire Wire Line
	13300 12550 13300 12650
Wire Wire Line
	14550 13050 14600 13050
Wire Wire Line
	14600 13050 14600 13150
Wire Wire Line
	14600 13150 14650 13150
Wire Wire Line
	14550 13150 14550 13300
Wire Wire Line
	13750 12350 13750 13050
Wire Wire Line
	13800 12550 13750 12550
Connection ~ 13750 12550
Wire Wire Line
	14100 12550 14200 12550
Wire Wire Line
	14200 12550 14200 12650
Text Label 4150 5500 0    60   ~ 0
AP_3
Text Label 3100 9250 1    60   ~ 0
RE1_A
Text Label 3300 9250 1    60   ~ 0
RE1_B
Text Label 3450 9250 1    60   ~ 0
RE1_SW
Wire Wire Line
	3200 9800 3550 9800
Text Label 2150 1600 2    60   ~ 0
RE1_A
Text Label 2150 1700 2    60   ~ 0
RE1_B
Text Label 2150 1800 2    60   ~ 0
RE2_A
Text Label 2150 1900 2    60   ~ 0
RE2_B
Text Label 2150 2800 2    60   ~ 0
RE3_A
Text Label 2150 2900 2    60   ~ 0
RE3_B
Text Label 2150 3000 2    60   ~ 0
RE4_A
Text Label 2150 3100 2    60   ~ 0
RE4_B
Text Label 2150 3200 2    60   ~ 0
RE5_A
Text Label 2150 3300 2    60   ~ 0
RE5_B
Text Label 2150 3400 2    60   ~ 0
RE6_A
Text Label 2150 3500 2    60   ~ 0
RE6_B
Text Label 2150 4200 2    60   ~ 0
RE7_A
Text Label 2150 4300 2    60   ~ 0
RE7_B
$Comp
L ROTARY_ENCODER_afshar ENC2
U 1 1 5A6FD88A
P 4250 9500
F 0 "ENC2" H 4200 9900 60  0000 C CNN
F 1 "ROTARY_ENCODER" H 4300 9150 60  0000 C CNN
F 2 "Rotary-Encoders:BI_EN12-HS22AF30" H 4250 9500 60  0000 C CNN
F 3 "" H 4250 9500 60  0000 C CNN
	1    4250 9500
	0    -1   1    0   
$EndComp
Wire Wire Line
	4100 9800 4450 9800
$Comp
L ROTARY_ENCODER_afshar ENC3
U 1 1 5A6FEBD6
P 5150 9500
F 0 "ENC3" H 5100 9900 60  0000 C CNN
F 1 "ROTARY_ENCODER" H 5200 9150 60  0000 C CNN
F 2 "Rotary-Encoders:BI_EN12-HS22AF30" H 5150 9500 60  0000 C CNN
F 3 "" H 5150 9500 60  0000 C CNN
	1    5150 9500
	0    -1   1    0   
$EndComp
$Comp
L ROTARY_ENCODER_afshar ENC4
U 1 1 5A6FED73
P 6100 9500
F 0 "ENC4" H 6050 9900 60  0000 C CNN
F 1 "ROTARY_ENCODER" H 6150 9150 60  0000 C CNN
F 2 "Rotary-Encoders:BI_EN12-HS22AF30" H 6100 9500 60  0000 C CNN
F 3 "" H 6100 9500 60  0000 C CNN
	1    6100 9500
	0    -1   1    0   
$EndComp
$Comp
L ROTARY_ENCODER_afshar ENC5
U 1 1 5A6FEF13
P 7050 9500
F 0 "ENC5" H 7000 9900 60  0000 C CNN
F 1 "ROTARY_ENCODER" H 7100 9150 60  0000 C CNN
F 2 "Rotary-Encoders:BI_EN12-HS22AF30" H 7050 9500 60  0000 C CNN
F 3 "" H 7050 9500 60  0000 C CNN
	1    7050 9500
	0    -1   1    0   
$EndComp
$Comp
L ROTARY_ENCODER_afshar ENC6
U 1 1 5A6FF227
P 8050 9500
F 0 "ENC6" H 8000 9900 60  0000 C CNN
F 1 "ROTARY_ENCODER" H 8100 9150 60  0000 C CNN
F 2 "Rotary-Encoders:BI_EN12-HS22AF30" H 8050 9500 60  0000 C CNN
F 3 "" H 8050 9500 60  0000 C CNN
	1    8050 9500
	0    -1   1    0   
$EndComp
$Comp
L ROTARY_ENCODER_afshar ENC7
U 1 1 5A6FF3DD
P 9100 9500
F 0 "ENC7" H 9050 9900 60  0000 C CNN
F 1 "ROTARY_ENCODER" H 9150 9150 60  0000 C CNN
F 2 "Rotary-Encoders:BI_EN12-HS22AF30" H 9100 9500 60  0000 C CNN
F 3 "" H 9100 9500 60  0000 C CNN
	1    9100 9500
	0    -1   1    0   
$EndComp
Text Label 16550 9450 0    60   ~ 0
RE1_SW
Wire Wire Line
	16550 9450 16500 9450
Wire Wire Line
	16500 9550 16550 9550
Wire Wire Line
	16500 9650 16550 9650
Wire Wire Line
	16500 9750 16550 9750
Wire Wire Line
	16500 9850 16550 9850
Wire Wire Line
	16500 9950 16550 9950
Wire Wire Line
	16500 10050 16550 10050
Wire Wire Line
	16500 10150 16550 10150
Text Label 16550 9550 0    60   ~ 0
RE2_SW
Text Label 16550 9650 0    60   ~ 0
RE3_SW
Text Label 16550 9750 0    60   ~ 0
RE4_SW
Text Label 16550 9850 0    60   ~ 0
RE5_SW
Text Label 16550 9950 0    60   ~ 0
RE6_SW
Text Label 16550 10050 0    60   ~ 0
RE7_SW
Text Label 4000 9250 1    60   ~ 0
RE2_A
Text Label 4200 9250 1    60   ~ 0
RE2_B
Text Label 4900 9250 1    60   ~ 0
RE3_A
Text Label 5100 9250 1    60   ~ 0
RE3_B
Text Label 5850 9250 1    60   ~ 0
RE4_A
Text Label 6050 9250 1    60   ~ 0
RE4_B
Text Label 6800 9250 1    60   ~ 0
RE5_A
Text Label 7000 9250 1    60   ~ 0
RE5_B
Text Label 7800 9250 1    60   ~ 0
RE6_A
Text Label 8000 9250 1    60   ~ 0
RE6_B
Text Label 8850 9250 1    60   ~ 0
RE7_A
Text Label 9050 9250 1    60   ~ 0
RE7_B
Text Label 4350 9250 1    60   ~ 0
RE2_SW
Text Label 5250 9250 1    60   ~ 0
RE3_SW
Text Label 6200 9250 1    60   ~ 0
RE4_SW
Text Label 7150 9250 1    60   ~ 0
RE5_SW
Text Label 8150 9250 1    60   ~ 0
RE6_SW
Text Label 9200 9250 1    60   ~ 0
RE7_SW
Connection ~ 9300 3450
Connection ~ 9650 3450
Wire Wire Line
	9800 4700 9800 4800
Wire Wire Line
	9800 4800 9950 4800
Wire Wire Line
	9450 4700 9450 4800
Wire Wire Line
	9450 4800 9600 4800
Wire Wire Line
	9100 4700 9100 4800
Wire Wire Line
	9100 4800 9250 4800
Connection ~ 9250 4800
Connection ~ 9600 5200
Connection ~ 9600 4800
Connection ~ 9950 5200
Connection ~ 9950 4800
$Comp
L ROTARY_ENCODER_afshar ENC1
U 1 1 5A6FA229
P 3350 9500
F 0 "ENC1" H 3300 9900 60  0000 C CNN
F 1 "ROTARY_ENCODER" H 3400 9150 60  0000 C CNN
F 2 "Rotary-Encoders:BI_EN12-HS22AF30" H 3350 9500 60  0000 C CNN
F 3 "" H 3350 9500 60  0000 C CNN
	1    3350 9500
	0    -1   1    0   
$EndComp
Wire Wire Line
	5000 9800 5350 9800
Wire Wire Line
	5950 9800 6300 9800
Wire Wire Line
	6900 9800 7250 9800
Wire Wire Line
	7900 9800 8250 9800
Wire Wire Line
	8950 9800 9300 9800
Wire Wire Line
	3350 9800 3350 10000
Wire Wire Line
	2700 10000 9100 10000
Connection ~ 3350 9800
Wire Wire Line
	4250 10000 4250 9800
Connection ~ 4250 9800
Wire Wire Line
	5150 10000 5150 9800
Connection ~ 5150 9800
Wire Wire Line
	6100 9800 6100 10200
Connection ~ 6100 9800
Wire Wire Line
	7050 9800 7050 10000
Connection ~ 7050 9800
Wire Wire Line
	8050 9800 8050 10000
Connection ~ 8050 9800
Wire Wire Line
	9100 10000 9100 9800
Connection ~ 9100 9800
Connection ~ 8050 10000
Connection ~ 7050 10000
Connection ~ 6100 10000
Connection ~ 4250 10000
Connection ~ 5150 10000
$Comp
L GND #PWR059
U 1 1 5A714CBE
P 6100 10200
F 0 "#PWR059" H 6100 9950 50  0001 C CNN
F 1 "GND" H 6100 10050 50  0000 C CNN
F 2 "" H 6100 10200 50  0001 C CNN
F 3 "" H 6100 10200 50  0001 C CNN
	1    6100 10200
	1    0    0    -1  
$EndComp
Wire Wire Line
	3300 13150 3850 13150
Text Label 2150 4600 2    60   ~ 0
PIXEL1_IN
Text Label 2150 4700 2    60   ~ 0
PIXEL2_IN
$Comp
L WS2812B LED13
U 1 1 5A71BB45
P 4700 14300
F 0 "LED13" H 4700 14100 50  0000 C CNN
F 1 "WS2812B" H 4700 14400 50  0000 C CNN
F 2 "LEDs:LED_WS2812B-PLCC4" H 4700 14000 50  0001 C CNN
F 3 "" H 4700 14250 50  0001 C CNN
	1    4700 14300
	1    0    0    -1  
$EndComp
$Comp
L C C21
U 1 1 5A71BB4B
P 4500 13800
F 0 "C21" H 4525 13900 50  0000 L CNN
F 1 "0.1uF" V 4600 13550 50  0000 L CNN
F 2 "Capacitors_THT:C_Disc_D4.3mm_W1.9mm_P5.00mm" H 4538 13650 50  0001 C CNN
F 3 "" H 4500 13800 50  0001 C CNN
	1    4500 13800
	0    1    1    0   
$EndComp
$Comp
L GND #PWR060
U 1 1 5A71BB51
P 4750 13900
F 0 "#PWR060" H 4750 13650 50  0001 C CNN
F 1 "GND" H 4750 13750 50  0000 C CNN
F 2 "" H 4750 13900 50  0000 C CNN
F 3 "" H 4750 13900 50  0000 C CNN
	1    4750 13900
	1    0    0    -1  
$EndComp
$Comp
L GND #PWR061
U 1 1 5A71BB57
P 5100 14550
F 0 "#PWR061" H 5100 14300 50  0001 C CNN
F 1 "GND" H 5100 14400 50  0000 C CNN
F 2 "" H 5100 14550 50  0000 C CNN
F 3 "" H 5100 14550 50  0000 C CNN
	1    5100 14550
	1    0    0    -1  
$EndComp
$Comp
L +5V #PWR062
U 1 1 5A71BB5D
P 4300 13600
F 0 "#PWR062" H 4300 13450 50  0001 C CNN
F 1 "+5V" H 4300 13740 50  0000 C CNN
F 2 "" H 4300 13600 50  0001 C CNN
F 3 "" H 4300 13600 50  0001 C CNN
	1    4300 13600
	1    0    0    -1  
$EndComp
$Comp
L WS2812B LED14
U 1 1 5A71BB63
P 5600 14300
F 0 "LED14" H 5600 14100 50  0000 C CNN
F 1 "WS2812B" H 5600 14400 50  0000 C CNN
F 2 "LEDs:LED_WS2812B-PLCC4" H 5600 14000 50  0001 C CNN
F 3 "" H 5600 14250 50  0001 C CNN
	1    5600 14300
	1    0    0    -1  
$EndComp
$Comp
L C C24
U 1 1 5A71BB69
P 5400 13800
F 0 "C24" H 5425 13900 50  0000 L CNN
F 1 "0.1uF" V 5500 13550 50  0000 L CNN
F 2 "Capacitors_THT:C_Disc_D4.3mm_W1.9mm_P5.00mm" H 5438 13650 50  0001 C CNN
F 3 "" H 5400 13800 50  0001 C CNN
	1    5400 13800
	0    1    1    0   
$EndComp
$Comp
L GND #PWR063
U 1 1 5A71BB6F
P 5650 13900
F 0 "#PWR063" H 5650 13650 50  0001 C CNN
F 1 "GND" H 5650 13750 50  0000 C CNN
F 2 "" H 5650 13900 50  0000 C CNN
F 3 "" H 5650 13900 50  0000 C CNN
	1    5650 13900
	1    0    0    -1  
$EndComp
$Comp
L GND #PWR064
U 1 1 5A71BB75
P 6000 14550
F 0 "#PWR064" H 6000 14300 50  0001 C CNN
F 1 "GND" H 6000 14400 50  0000 C CNN
F 2 "" H 6000 14550 50  0000 C CNN
F 3 "" H 6000 14550 50  0000 C CNN
	1    6000 14550
	1    0    0    -1  
$EndComp
$Comp
L +5V #PWR065
U 1 1 5A71BB7B
P 5200 13600
F 0 "#PWR065" H 5200 13450 50  0001 C CNN
F 1 "+5V" H 5200 13740 50  0000 C CNN
F 2 "" H 5200 13600 50  0001 C CNN
F 3 "" H 5200 13600 50  0001 C CNN
	1    5200 13600
	1    0    0    -1  
$EndComp
Wire Wire Line
	5100 14300 5150 14300
Wire Wire Line
	5150 14300 5150 14400
Wire Wire Line
	5150 14400 5200 14400
Wire Wire Line
	5100 14400 5100 14550
Wire Wire Line
	4300 13600 4300 14300
Wire Wire Line
	4350 13800 4300 13800
Connection ~ 4300 13800
Wire Wire Line
	4650 13800 4750 13800
Wire Wire Line
	4750 13800 4750 13900
Wire Wire Line
	6000 14300 6050 14300
Wire Wire Line
	6000 14400 6000 14550
Wire Wire Line
	5200 13600 5200 14300
Wire Wire Line
	5250 13800 5200 13800
Connection ~ 5200 13800
Wire Wire Line
	5550 13800 5650 13800
Wire Wire Line
	5650 13800 5650 13900
Wire Wire Line
	3700 14400 4300 14400
Wire Wire Line
	3700 14400 3700 13250
Wire Wire Line
	3700 13250 3300 13250
$Comp
L C C20
U 1 1 5A71D262
P 3100 8750
F 0 "C20" H 3125 8850 50  0000 L CNN
F 1 "0.1uF" V 3200 8500 50  0000 L CNN
F 2 "Capacitors_THT:C_Disc_D4.3mm_W1.9mm_P5.00mm" H 3138 8600 50  0001 C CNN
F 3 "" H 3100 8750 50  0001 C CNN
	1    3100 8750
	-1   0    0    1   
$EndComp
$Comp
L C C22
U 1 1 5A71D8EA
P 3300 8750
F 0 "C22" H 3325 8850 50  0000 L CNN
F 1 "0.1uF" V 3400 8500 50  0000 L CNN
F 2 "Capacitors_THT:C_Disc_D4.3mm_W1.9mm_P5.00mm" H 3338 8600 50  0001 C CNN
F 3 "" H 3300 8750 50  0001 C CNN
	1    3300 8750
	-1   0    0    1   
$EndComp
Wire Wire Line
	3100 8900 3100 9250
Wire Wire Line
	3300 8900 3300 9250
Wire Wire Line
	3100 8600 3300 8600
Wire Wire Line
	3200 8600 3200 8350
Connection ~ 3200 8600
$Comp
L C C23
U 1 1 5A71E7AD
P 4000 8750
F 0 "C23" H 4025 8850 50  0000 L CNN
F 1 "0.1uF" V 4100 8500 50  0000 L CNN
F 2 "Capacitors_THT:C_Disc_D4.3mm_W1.9mm_P5.00mm" H 4038 8600 50  0001 C CNN
F 3 "" H 4000 8750 50  0001 C CNN
	1    4000 8750
	-1   0    0    1   
$EndComp
$Comp
L C C25
U 1 1 5A71E7B4
P 4200 8750
F 0 "C25" H 4225 8850 50  0000 L CNN
F 1 "0.1uF" V 4300 8500 50  0000 L CNN
F 2 "Capacitors_THT:C_Disc_D4.3mm_W1.9mm_P5.00mm" H 4238 8600 50  0001 C CNN
F 3 "" H 4200 8750 50  0001 C CNN
	1    4200 8750
	-1   0    0    1   
$EndComp
Wire Wire Line
	4000 8900 4000 9250
Wire Wire Line
	4200 8900 4200 9250
Wire Wire Line
	4000 8600 4200 8600
Wire Wire Line
	4100 8350 4100 8600
Connection ~ 4100 8600
$Comp
L C C26
U 1 1 5A71E90E
P 4900 8750
F 0 "C26" H 4925 8850 50  0000 L CNN
F 1 "0.1uF" V 5000 8500 50  0000 L CNN
F 2 "Capacitors_THT:C_Disc_D4.3mm_W1.9mm_P5.00mm" H 4938 8600 50  0001 C CNN
F 3 "" H 4900 8750 50  0001 C CNN
	1    4900 8750
	-1   0    0    1   
$EndComp
$Comp
L C C27
U 1 1 5A71E915
P 5100 8750
F 0 "C27" H 5125 8850 50  0000 L CNN
F 1 "0.1uF" V 5200 8500 50  0000 L CNN
F 2 "Capacitors_THT:C_Disc_D4.3mm_W1.9mm_P5.00mm" H 5138 8600 50  0001 C CNN
F 3 "" H 5100 8750 50  0001 C CNN
	1    5100 8750
	-1   0    0    1   
$EndComp
Wire Wire Line
	4900 8900 4900 9250
Wire Wire Line
	5100 8900 5100 9250
Wire Wire Line
	4900 8600 5100 8600
Wire Wire Line
	5000 8350 5000 8600
Connection ~ 5000 8600
$Comp
L C C30
U 1 1 5A71EA55
P 5850 8750
F 0 "C30" H 5875 8850 50  0000 L CNN
F 1 "0.1uF" V 5950 8500 50  0000 L CNN
F 2 "Capacitors_THT:C_Disc_D4.3mm_W1.9mm_P5.00mm" H 5888 8600 50  0001 C CNN
F 3 "" H 5850 8750 50  0001 C CNN
	1    5850 8750
	-1   0    0    1   
$EndComp
$Comp
L C C31
U 1 1 5A71EA5C
P 6050 8750
F 0 "C31" H 6075 8850 50  0000 L CNN
F 1 "0.1uF" V 6150 8500 50  0000 L CNN
F 2 "Capacitors_THT:C_Disc_D4.3mm_W1.9mm_P5.00mm" H 6088 8600 50  0001 C CNN
F 3 "" H 6050 8750 50  0001 C CNN
	1    6050 8750
	-1   0    0    1   
$EndComp
Wire Wire Line
	5850 8900 5850 9250
Wire Wire Line
	6050 8900 6050 9250
Wire Wire Line
	5850 8600 6050 8600
Wire Wire Line
	5950 8350 5950 8600
Connection ~ 5950 8600
$Comp
L C C32
U 1 1 5A71EECE
P 6800 8750
F 0 "C32" H 6825 8850 50  0000 L CNN
F 1 "0.1uF" V 6900 8500 50  0000 L CNN
F 2 "Capacitors_THT:C_Disc_D4.3mm_W1.9mm_P5.00mm" H 6838 8600 50  0001 C CNN
F 3 "" H 6800 8750 50  0001 C CNN
	1    6800 8750
	-1   0    0    1   
$EndComp
$Comp
L C C33
U 1 1 5A71EED5
P 7000 8750
F 0 "C33" H 7025 8850 50  0000 L CNN
F 1 "0.1uF" V 7100 8500 50  0000 L CNN
F 2 "Capacitors_THT:C_Disc_D4.3mm_W1.9mm_P5.00mm" H 7038 8600 50  0001 C CNN
F 3 "" H 7000 8750 50  0001 C CNN
	1    7000 8750
	-1   0    0    1   
$EndComp
Wire Wire Line
	6800 8900 6800 9250
Wire Wire Line
	7000 8900 7000 9250
Wire Wire Line
	6800 8600 7000 8600
Wire Wire Line
	6900 8350 6900 8600
Connection ~ 6900 8600
$Comp
L C C34
U 1 1 5A71F0F4
P 7800 8750
F 0 "C34" H 7825 8850 50  0000 L CNN
F 1 "0.1uF" V 7900 8500 50  0000 L CNN
F 2 "Capacitors_THT:C_Disc_D4.3mm_W1.9mm_P5.00mm" H 7838 8600 50  0001 C CNN
F 3 "" H 7800 8750 50  0001 C CNN
	1    7800 8750
	-1   0    0    1   
$EndComp
$Comp
L C C35
U 1 1 5A71F0FB
P 8000 8750
F 0 "C35" H 8025 8850 50  0000 L CNN
F 1 "0.1uF" V 8100 8500 50  0000 L CNN
F 2 "Capacitors_THT:C_Disc_D4.3mm_W1.9mm_P5.00mm" H 8038 8600 50  0001 C CNN
F 3 "" H 8000 8750 50  0001 C CNN
	1    8000 8750
	-1   0    0    1   
$EndComp
Wire Wire Line
	7800 8900 7800 9250
Wire Wire Line
	8000 8900 8000 9250
Wire Wire Line
	7800 8600 8000 8600
Wire Wire Line
	7900 8350 7900 8600
Connection ~ 7900 8600
$Comp
L C C36
U 1 1 5A71F265
P 8850 8750
F 0 "C36" H 8875 8850 50  0000 L CNN
F 1 "0.1uF" V 8950 8500 50  0000 L CNN
F 2 "Capacitors_THT:C_Disc_D4.3mm_W1.9mm_P5.00mm" H 8888 8600 50  0001 C CNN
F 3 "" H 8850 8750 50  0001 C CNN
	1    8850 8750
	-1   0    0    1   
$EndComp
$Comp
L C C37
U 1 1 5A71F26C
P 9050 8750
F 0 "C37" H 9075 8850 50  0000 L CNN
F 1 "0.1uF" V 9150 8500 50  0000 L CNN
F 2 "Capacitors_THT:C_Disc_D4.3mm_W1.9mm_P5.00mm" H 9088 8600 50  0001 C CNN
F 3 "" H 9050 8750 50  0001 C CNN
	1    9050 8750
	-1   0    0    1   
$EndComp
Wire Wire Line
	8850 8900 8850 9250
Wire Wire Line
	9050 8900 9050 9250
Wire Wire Line
	8850 8600 9050 8600
Wire Wire Line
	8950 8350 8950 8600
Connection ~ 8950 8600
Wire Wire Line
	2700 8350 8950 8350
Connection ~ 7900 8350
Connection ~ 6900 8350
Connection ~ 5950 8350
Connection ~ 5000 8350
Connection ~ 4100 8350
Wire Wire Line
	2700 8350 2700 10000
Connection ~ 3350 10000
Connection ~ 3200 8350
Wire Wire Line
	11050 4700 10450 4700
Wire Wire Line
	10450 4700 10450 5350
$Comp
L GND #PWR066
U 1 1 5A725AF4
P 10450 5350
F 0 "#PWR066" H 10450 5100 50  0001 C CNN
F 1 "GND" H 10450 5200 50  0000 C CNN
F 2 "" H 10450 5350 50  0000 C CNN
F 3 "" H 10450 5350 50  0000 C CNN
	1    10450 5350
	1    0    0    -1  
$EndComp
$Comp
L SW_SPST SW1
U 1 1 5A727B05
P 16700 8550
F 0 "SW1" H 16700 8675 50  0000 C CNN
F 1 "SW_SPST" H 16700 8450 50  0000 C CNN
F 2 "Buttons_Switches_THT:SW_PUSH_6mm_h9.5mm" H 16700 8550 50  0001 C CNN
F 3 "" H 16700 8550 50  0001 C CNN
	1    16700 8550
	1    0    0    -1  
$EndComp
$Comp
L SW_SPST SW2
U 1 1 5A728DB3
P 16700 8650
F 0 "SW2" H 16700 8775 50  0000 C CNN
F 1 "SW_SPST" H 16700 8550 50  0000 C CNN
F 2 "Buttons_Switches_THT:SW_PUSH_6mm_h9.5mm" H 16700 8650 50  0001 C CNN
F 3 "" H 16700 8650 50  0001 C CNN
	1    16700 8650
	1    0    0    -1  
$EndComp
$Comp
L SW_SPST SW3
U 1 1 5A728FB3
P 16700 8750
F 0 "SW3" H 16700 8875 50  0000 C CNN
F 1 "SW_SPST" H 16700 8650 50  0000 C CNN
F 2 "Buttons_Switches_THT:SW_PUSH_6mm_h9.5mm" H 16700 8750 50  0001 C CNN
F 3 "" H 16700 8750 50  0001 C CNN
	1    16700 8750
	1    0    0    -1  
$EndComp
$Comp
L SW_SPST SW4
U 1 1 5A729134
P 16700 8850
F 0 "SW4" H 16700 8975 50  0000 C CNN
F 1 "SW_SPST" H 16700 8750 50  0000 C CNN
F 2 "Buttons_Switches_THT:SW_PUSH_6mm_h9.5mm" H 16700 8850 50  0001 C CNN
F 3 "" H 16700 8850 50  0001 C CNN
	1    16700 8850
	1    0    0    -1  
$EndComp
$Comp
L SW_SPST SW5
U 1 1 5A7292B8
P 16700 8950
F 0 "SW5" H 16700 9075 50  0000 C CNN
F 1 "SW_SPST" H 16700 8850 50  0000 C CNN
F 2 "Buttons_Switches_THT:SW_PUSH_6mm_h9.5mm" H 16700 8950 50  0001 C CNN
F 3 "" H 16700 8950 50  0001 C CNN
	1    16700 8950
	1    0    0    -1  
$EndComp
$Comp
L SW_SPST SW6
U 1 1 5A72943F
P 16700 9050
F 0 "SW6" H 16700 9175 50  0000 C CNN
F 1 "SW_SPST" H 16700 8950 50  0000 C CNN
F 2 "Buttons_Switches_THT:SW_PUSH_6mm_h9.5mm" H 16700 9050 50  0001 C CNN
F 3 "" H 16700 9050 50  0001 C CNN
	1    16700 9050
	1    0    0    -1  
$EndComp
$Comp
L SW_SPST SW7
U 1 1 5A7295C9
P 16700 9150
F 0 "SW7" H 16700 9275 50  0000 C CNN
F 1 "SW_SPST" H 16700 9050 50  0000 C CNN
F 2 "Buttons_Switches_THT:SW_PUSH_6mm_h9.5mm" H 16700 9150 50  0001 C CNN
F 3 "" H 16700 9150 50  0001 C CNN
	1    16700 9150
	1    0    0    -1  
$EndComp
$Comp
L SW_SPST SW8
U 1 1 5A729756
P 16700 9250
F 0 "SW8" H 16700 9375 50  0000 C CNN
F 1 "SW_SPST" H 16700 9150 50  0000 C CNN
F 2 "Buttons_Switches_THT:SW_PUSH_6mm_h9.5mm" H 16700 9250 50  0001 C CNN
F 3 "" H 16700 9250 50  0001 C CNN
	1    16700 9250
	1    0    0    -1  
$EndComp
Wire Wire Line
	16900 8550 16900 9250
Connection ~ 16900 8650
Connection ~ 16900 8750
Connection ~ 16900 8850
Connection ~ 16900 8950
Connection ~ 16900 9050
Connection ~ 16900 9150
Wire Wire Line
	16900 9200 17200 9200
Wire Wire Line
	17200 9200 17200 10400
Connection ~ 16000 10400
Connection ~ 16900 9200
$Comp
L CONN_01X12 J3
U 1 1 5A72D1F5
P 5500 1900
F 0 "J3" H 5500 2550 50  0000 C CNN
F 1 "CONN_01X12" V 5600 1900 50  0000 C CNN
F 2 "Pin_Headers:Pin_Header_Straight_1x12_Pitch2.54mm" H 5500 1900 50  0001 C CNN
F 3 "" H 5500 1900 50  0001 C CNN
	1    5500 1900
	1    0    0    -1  
$EndComp
Text Label 2150 4900 2    60   ~ 0
DAC0
Text Label 2150 5000 2    60   ~ 0
DAC1
Text Label 2150 4800 2    60   ~ 0
EXT39
Text Label 2150 4400 2    60   ~ 0
EXT35
Text Label 2150 4500 2    60   ~ 0
EXT36
Text Label 2150 3600 2    60   ~ 0
EXT32
Text Label 2150 2200 2    60   ~ 0
EXT8
NoConn ~ 4150 2000
NoConn ~ 4150 2100
NoConn ~ 4150 4200
NoConn ~ 4150 4300
Text Label 5300 1550 2    60   ~ 0
EXT8
Text Label 5300 1650 2    60   ~ 0
EXT32
Text Label 5300 1750 2    60   ~ 0
EXT35
Text Label 5300 1850 2    60   ~ 0
EXT36
Text Label 5300 1950 2    60   ~ 0
EXT39
Text Label 5300 2050 2    60   ~ 0
DAC0
Text Label 5300 2150 2    60   ~ 0
DAC1
Wire Wire Line
	4400 4100 4400 3350
Connection ~ 4400 4100
$Comp
L +5V #PWR067
U 1 1 5A7333C1
P 4400 3350
F 0 "#PWR067" H 4400 3200 50  0001 C CNN
F 1 "+5V" H 4400 3490 50  0000 C CNN
F 2 "" H 4400 3350 50  0001 C CNN
F 3 "" H 4400 3350 50  0001 C CNN
	1    4400 3350
	1    0    0    -1  
$EndComp
Wire Wire Line
	5300 1350 5150 1350
Wire Wire Line
	5150 1350 5150 1200
Wire Wire Line
	5300 1450 4900 1450
Wire Wire Line
	4900 1450 4900 1200
$Comp
L +5V #PWR068
U 1 1 5A734515
P 5150 1200
F 0 "#PWR068" H 5150 1050 50  0001 C CNN
F 1 "+5V" H 5150 1340 50  0000 C CNN
F 2 "" H 5150 1200 50  0001 C CNN
F 3 "" H 5150 1200 50  0001 C CNN
	1    5150 1200
	1    0    0    -1  
$EndComp
$Comp
L +3.3V #PWR069
U 1 1 5A7349A9
P 4900 1200
F 0 "#PWR069" H 4900 1050 50  0001 C CNN
F 1 "+3.3V" H 4900 1340 50  0000 C CNN
F 2 "" H 4900 1200 50  0000 C CNN
F 3 "" H 4900 1200 50  0000 C CNN
	1    4900 1200
	1    0    0    -1  
$EndComp
Wire Wire Line
	5300 2250 4900 2250
Wire Wire Line
	4900 2250 4900 2550
Wire Wire Line
	5300 2350 5150 2350
Wire Wire Line
	5150 2350 5150 2550
Wire Wire Line
	5150 2450 5300 2450
Connection ~ 5150 2450
$Comp
L GND #PWR070
U 1 1 5A735D7F
P 5150 2550
F 0 "#PWR070" H 5150 2300 50  0001 C CNN
F 1 "GND" H 5150 2400 50  0000 C CNN
F 2 "" H 5150 2550 50  0000 C CNN
F 3 "" H 5150 2550 50  0000 C CNN
	1    5150 2550
	1    0    0    -1  
$EndComp
$Comp
L AGND #PWR071
U 1 1 5A736396
P 4900 2550
F 0 "#PWR071" H 4900 2300 50  0001 C CNN
F 1 "AGND" H 4900 2350 50  0000 C CNN
F 2 "" H 4900 2550 50  0000 C CNN
F 3 "" H 4900 2550 50  0000 C CNN
	1    4900 2550
	-1   0    0    -1  
$EndComp
$Comp
L OSHW-SCHEM-PCB6mm SYM1
U 1 1 5A738751
P 20650 12500
F 0 "SYM1" H 20800 12500 50  0000 L CNN
F 1 "OSHW-SCHEM-PCB6mm" H 20650 12450 50  0001 C CNN
F 2 "Symbols:OSHW-Logo_5.7x6mm_SilkScreen" H 20700 12400 50  0001 C CNN
F 3 "" H 20650 12500 50  0000 C CNN
	1    20650 12500
	1    0    0    -1  
$EndComp
$Comp
L OSHW-SCHEM-PCB6mm SYM2
U 1 1 5A73FD3C
P 20650 12750
F 0 "SYM2" H 20800 12750 50  0000 L CNN
F 1 "OSHW-SCHEM-PCB6mm" H 20650 12700 50  0001 C CNN
F 2 "Symbols:KiCad-Logo_6mm_SilkScreen" H 20700 12650 50  0001 C CNN
F 3 "" H 20650 12750 50  0000 C CNN
	1    20650 12750
	1    0    0    -1  
$EndComp
$EndSCHEMATC
