G04 #@! TF.FileFunction,Profile,NP*
%FSLAX46Y46*%
G04 Gerber Fmt 4.6, Leading zero omitted, Abs format (unit mm)*
G04 Created by KiCad (PCBNEW 4.0.6+dfsg1-1) date Wed Nov 29 22:13:10 2017*
%MOMM*%
%LPD*%
G01*
G04 APERTURE LIST*
%ADD10C,0.100000*%
%ADD11C,0.150000*%
G04 APERTURE END LIST*
D10*
D11*
X66040000Y-27305000D02*
X300355000Y-27305000D01*
X66040000Y-107950000D02*
X66040000Y-27305000D01*
X300355000Y-107950000D02*
X66040000Y-107950000D01*
X300355000Y-27305000D02*
X300355000Y-107950000D01*
M02*
