(export (version D)
  (design
    (source /home/afshar/src/chordboard/hard/v14/chordboard/chordboard.sch)
    (date "Thu 22 Nov 2018 01:08:31 AM GMT")
    (tool "Eeschema 5.0.0+dfsg1-2~bpo9+1")
    (sheet (number 1) (name /) (tstamps /)
      (title_block
        (title)
        (company)
        (rev)
        (date)
        (source chordboard.sch)
        (comment (number 1) (value ""))
        (comment (number 2) (value ""))
        (comment (number 3) (value ""))
        (comment (number 4) (value "")))))
  (components
    (comp (ref IC1)
      (value MAX7219)
      (footprint Package_DIP:DIP-24_W7.62mm)
      (datasheet https://datasheets.maximintegrated.com/en/ds/MAX7219-MAX7221.pdf)
      (libsource (lib chordboard-components) (part MAX7219) (description ""))
      (sheetpath (names /) (tstamps /))
      (tstamp 5BEEE1BE))
    (comp (ref D32)
      (value LED)
      (footprint LED_THT:LED_D1.8mm_W3.3mm_H2.4mm)
      (datasheet ~)
      (libsource (lib Device) (part LED) (description "Light emitting diode"))
      (sheetpath (names /) (tstamps /))
      (tstamp 5BEF1668))
    (comp (ref D31)
      (value LED)
      (footprint LED_THT:LED_D1.8mm_W3.3mm_H2.4mm)
      (datasheet ~)
      (libsource (lib Device) (part LED) (description "Light emitting diode"))
      (sheetpath (names /) (tstamps /))
      (tstamp 5BEF1662))
    (comp (ref D30)
      (value LED)
      (footprint LED_THT:LED_D1.8mm_W3.3mm_H2.4mm)
      (datasheet ~)
      (libsource (lib Device) (part LED) (description "Light emitting diode"))
      (sheetpath (names /) (tstamps /))
      (tstamp 5BEF165C))
    (comp (ref D29)
      (value LED)
      (footprint LED_THT:LED_D1.8mm_W3.3mm_H2.4mm)
      (datasheet ~)
      (libsource (lib Device) (part LED) (description "Light emitting diode"))
      (sheetpath (names /) (tstamps /))
      (tstamp 5BEF1656))
    (comp (ref D28)
      (value LED)
      (footprint LED_THT:LED_D1.8mm_W3.3mm_H2.4mm)
      (datasheet ~)
      (libsource (lib Device) (part LED) (description "Light emitting diode"))
      (sheetpath (names /) (tstamps /))
      (tstamp 5BEF1650))
    (comp (ref D27)
      (value LED)
      (footprint LED_THT:LED_D1.8mm_W3.3mm_H2.4mm)
      (datasheet ~)
      (libsource (lib Device) (part LED) (description "Light emitting diode"))
      (sheetpath (names /) (tstamps /))
      (tstamp 5BEF164A))
    (comp (ref D26)
      (value LED)
      (footprint LED_THT:LED_D1.8mm_W3.3mm_H2.4mm)
      (datasheet ~)
      (libsource (lib Device) (part LED) (description "Light emitting diode"))
      (sheetpath (names /) (tstamps /))
      (tstamp 5BEF1644))
    (comp (ref D25)
      (value LED)
      (footprint LED_THT:LED_D1.8mm_W3.3mm_H2.4mm)
      (datasheet ~)
      (libsource (lib Device) (part LED) (description "Light emitting diode"))
      (sheetpath (names /) (tstamps /))
      (tstamp 5BEF163E))
    (comp (ref D24)
      (value LED)
      (footprint LED_THT:LED_D1.8mm_W3.3mm_H2.4mm)
      (datasheet ~)
      (libsource (lib Device) (part LED) (description "Light emitting diode"))
      (sheetpath (names /) (tstamps /))
      (tstamp 5BEF1618))
    (comp (ref D23)
      (value LED)
      (footprint LED_THT:LED_D1.8mm_W3.3mm_H2.4mm)
      (datasheet ~)
      (libsource (lib Device) (part LED) (description "Light emitting diode"))
      (sheetpath (names /) (tstamps /))
      (tstamp 5BEF1612))
    (comp (ref D22)
      (value LED)
      (footprint LED_THT:LED_D1.8mm_W3.3mm_H2.4mm)
      (datasheet ~)
      (libsource (lib Device) (part LED) (description "Light emitting diode"))
      (sheetpath (names /) (tstamps /))
      (tstamp 5BEF160C))
    (comp (ref D21)
      (value LED)
      (footprint LED_THT:LED_D1.8mm_W3.3mm_H2.4mm)
      (datasheet ~)
      (libsource (lib Device) (part LED) (description "Light emitting diode"))
      (sheetpath (names /) (tstamps /))
      (tstamp 5BEF1606))
    (comp (ref D20)
      (value LED)
      (footprint LED_THT:LED_D1.8mm_W3.3mm_H2.4mm)
      (datasheet ~)
      (libsource (lib Device) (part LED) (description "Light emitting diode"))
      (sheetpath (names /) (tstamps /))
      (tstamp 5BEF1600))
    (comp (ref D19)
      (value LED)
      (footprint LED_THT:LED_D1.8mm_W3.3mm_H2.4mm)
      (datasheet ~)
      (libsource (lib Device) (part LED) (description "Light emitting diode"))
      (sheetpath (names /) (tstamps /))
      (tstamp 5BEF15FA))
    (comp (ref D18)
      (value LED)
      (footprint LED_THT:LED_D1.8mm_W3.3mm_H2.4mm)
      (datasheet ~)
      (libsource (lib Device) (part LED) (description "Light emitting diode"))
      (sheetpath (names /) (tstamps /))
      (tstamp 5BEF15F4))
    (comp (ref D17)
      (value LED)
      (footprint LED_THT:LED_D1.8mm_W3.3mm_H2.4mm)
      (datasheet ~)
      (libsource (lib Device) (part LED) (description "Light emitting diode"))
      (sheetpath (names /) (tstamps /))
      (tstamp 5BEF15EE))
    (comp (ref D16)
      (value LED)
      (footprint LED_THT:LED_D1.8mm_W3.3mm_H2.4mm)
      (datasheet ~)
      (libsource (lib Device) (part LED) (description "Light emitting diode"))
      (sheetpath (names /) (tstamps /))
      (tstamp 5BEF05AB))
    (comp (ref D15)
      (value LED)
      (footprint LED_THT:LED_D1.8mm_W3.3mm_H2.4mm)
      (datasheet ~)
      (libsource (lib Device) (part LED) (description "Light emitting diode"))
      (sheetpath (names /) (tstamps /))
      (tstamp 5BEF05A4))
    (comp (ref D14)
      (value LED)
      (footprint LED_THT:LED_D1.8mm_W3.3mm_H2.4mm)
      (datasheet ~)
      (libsource (lib Device) (part LED) (description "Light emitting diode"))
      (sheetpath (names /) (tstamps /))
      (tstamp 5BEF059D))
    (comp (ref D13)
      (value LED)
      (footprint LED_THT:LED_D1.8mm_W3.3mm_H2.4mm)
      (datasheet ~)
      (libsource (lib Device) (part LED) (description "Light emitting diode"))
      (sheetpath (names /) (tstamps /))
      (tstamp 5BEF0596))
    (comp (ref D12)
      (value LED)
      (footprint LED_THT:LED_D1.8mm_W3.3mm_H2.4mm)
      (datasheet ~)
      (libsource (lib Device) (part LED) (description "Light emitting diode"))
      (sheetpath (names /) (tstamps /))
      (tstamp 5BEF058F))
    (comp (ref D11)
      (value LED)
      (footprint LED_THT:LED_D1.8mm_W3.3mm_H2.4mm)
      (datasheet ~)
      (libsource (lib Device) (part LED) (description "Light emitting diode"))
      (sheetpath (names /) (tstamps /))
      (tstamp 5BEF0588))
    (comp (ref D10)
      (value LED)
      (footprint LED_THT:LED_D1.8mm_W3.3mm_H2.4mm)
      (datasheet ~)
      (libsource (lib Device) (part LED) (description "Light emitting diode"))
      (sheetpath (names /) (tstamps /))
      (tstamp 5BEF0581))
    (comp (ref D9)
      (value LED)
      (footprint LED_THT:LED_D1.8mm_W3.3mm_H2.4mm)
      (datasheet ~)
      (libsource (lib Device) (part LED) (description "Light emitting diode"))
      (sheetpath (names /) (tstamps /))
      (tstamp 5BEF057A))
    (comp (ref D8)
      (value LED)
      (footprint LED_THT:LED_D1.8mm_W3.3mm_H2.4mm)
      (datasheet ~)
      (libsource (lib Device) (part LED) (description "Light emitting diode"))
      (sheetpath (names /) (tstamps /))
      (tstamp 5BEEEE58))
    (comp (ref D7)
      (value LED)
      (footprint LED_THT:LED_D1.8mm_W3.3mm_H2.4mm)
      (datasheet ~)
      (libsource (lib Device) (part LED) (description "Light emitting diode"))
      (sheetpath (names /) (tstamps /))
      (tstamp 5BEEEE52))
    (comp (ref D6)
      (value LED)
      (footprint LED_THT:LED_D1.8mm_W3.3mm_H2.4mm)
      (datasheet ~)
      (libsource (lib Device) (part LED) (description "Light emitting diode"))
      (sheetpath (names /) (tstamps /))
      (tstamp 5BEEEE4C))
    (comp (ref D5)
      (value LED)
      (footprint LED_THT:LED_D1.8mm_W3.3mm_H2.4mm)
      (datasheet ~)
      (libsource (lib Device) (part LED) (description "Light emitting diode"))
      (sheetpath (names /) (tstamps /))
      (tstamp 5BEEEE46))
    (comp (ref D4)
      (value LED)
      (footprint LED_THT:LED_D1.8mm_W3.3mm_H2.4mm)
      (datasheet ~)
      (libsource (lib Device) (part LED) (description "Light emitting diode"))
      (sheetpath (names /) (tstamps /))
      (tstamp 5BEEEC68))
    (comp (ref D3)
      (value LED)
      (footprint LED_THT:LED_D1.8mm_W3.3mm_H2.4mm)
      (datasheet ~)
      (libsource (lib Device) (part LED) (description "Light emitting diode"))
      (sheetpath (names /) (tstamps /))
      (tstamp 5BEEEC24))
    (comp (ref D2)
      (value LED)
      (footprint LED_THT:LED_D1.8mm_W3.3mm_H2.4mm)
      (datasheet ~)
      (libsource (lib Device) (part LED) (description "Light emitting diode"))
      (sheetpath (names /) (tstamps /))
      (tstamp 5BEEEB8E))
    (comp (ref D1)
      (value LED)
      (footprint LED_THT:LED_D1.8mm_W3.3mm_H2.4mm)
      (datasheet ~)
      (libsource (lib Device) (part LED) (description "Light emitting diode"))
      (sheetpath (names /) (tstamps /))
      (tstamp 5BEEEB24))
    (comp (ref D64)
      (value LED)
      (footprint LED_THT:LED_D1.8mm_W3.3mm_H2.4mm)
      (datasheet ~)
      (libsource (lib Device) (part LED) (description "Light emitting diode"))
      (sheetpath (names /) (tstamps /))
      (tstamp 5BEF516D))
    (comp (ref D63)
      (value LED)
      (footprint LED_THT:LED_D1.8mm_W3.3mm_H2.4mm)
      (datasheet ~)
      (libsource (lib Device) (part LED) (description "Light emitting diode"))
      (sheetpath (names /) (tstamps /))
      (tstamp 5BEF5173))
    (comp (ref D62)
      (value LED)
      (footprint LED_THT:LED_D1.8mm_W3.3mm_H2.4mm)
      (datasheet ~)
      (libsource (lib Device) (part LED) (description "Light emitting diode"))
      (sheetpath (names /) (tstamps /))
      (tstamp 5BEF5179))
    (comp (ref D61)
      (value LED)
      (footprint LED_THT:LED_D1.8mm_W3.3mm_H2.4mm)
      (datasheet ~)
      (libsource (lib Device) (part LED) (description "Light emitting diode"))
      (sheetpath (names /) (tstamps /))
      (tstamp 5BEF517F))
    (comp (ref D60)
      (value LED)
      (footprint LED_THT:LED_D1.8mm_W3.3mm_H2.4mm)
      (datasheet ~)
      (libsource (lib Device) (part LED) (description "Light emitting diode"))
      (sheetpath (names /) (tstamps /))
      (tstamp 5BEF5185))
    (comp (ref D59)
      (value LED)
      (footprint LED_THT:LED_D1.8mm_W3.3mm_H2.4mm)
      (datasheet ~)
      (libsource (lib Device) (part LED) (description "Light emitting diode"))
      (sheetpath (names /) (tstamps /))
      (tstamp 5BEF518B))
    (comp (ref D58)
      (value LED)
      (footprint LED_THT:LED_D1.8mm_W3.3mm_H2.4mm)
      (datasheet ~)
      (libsource (lib Device) (part LED) (description "Light emitting diode"))
      (sheetpath (names /) (tstamps /))
      (tstamp 5BEF5191))
    (comp (ref D57)
      (value LED)
      (footprint LED_THT:LED_D1.8mm_W3.3mm_H2.4mm)
      (datasheet ~)
      (libsource (lib Device) (part LED) (description "Light emitting diode"))
      (sheetpath (names /) (tstamps /))
      (tstamp 5BEF5197))
    (comp (ref D56)
      (value LED)
      (footprint LED_THT:LED_D1.8mm_W3.3mm_H2.4mm)
      (datasheet ~)
      (libsource (lib Device) (part LED) (description "Light emitting diode"))
      (sheetpath (names /) (tstamps /))
      (tstamp 5BEF51BD))
    (comp (ref D55)
      (value LED)
      (footprint LED_THT:LED_D1.8mm_W3.3mm_H2.4mm)
      (datasheet ~)
      (libsource (lib Device) (part LED) (description "Light emitting diode"))
      (sheetpath (names /) (tstamps /))
      (tstamp 5BEF51C3))
    (comp (ref D54)
      (value LED)
      (footprint LED_THT:LED_D1.8mm_W3.3mm_H2.4mm)
      (datasheet ~)
      (libsource (lib Device) (part LED) (description "Light emitting diode"))
      (sheetpath (names /) (tstamps /))
      (tstamp 5BEF51C9))
    (comp (ref D53)
      (value LED)
      (footprint LED_THT:LED_D1.8mm_W3.3mm_H2.4mm)
      (datasheet ~)
      (libsource (lib Device) (part LED) (description "Light emitting diode"))
      (sheetpath (names /) (tstamps /))
      (tstamp 5BEF51CF))
    (comp (ref D52)
      (value LED)
      (footprint LED_THT:LED_D1.8mm_W3.3mm_H2.4mm)
      (datasheet ~)
      (libsource (lib Device) (part LED) (description "Light emitting diode"))
      (sheetpath (names /) (tstamps /))
      (tstamp 5BEF51D5))
    (comp (ref D51)
      (value LED)
      (footprint LED_THT:LED_D1.8mm_W3.3mm_H2.4mm)
      (datasheet ~)
      (libsource (lib Device) (part LED) (description "Light emitting diode"))
      (sheetpath (names /) (tstamps /))
      (tstamp 5BEF51DB))
    (comp (ref D50)
      (value LED)
      (footprint LED_THT:LED_D1.8mm_W3.3mm_H2.4mm)
      (datasheet ~)
      (libsource (lib Device) (part LED) (description "Light emitting diode"))
      (sheetpath (names /) (tstamps /))
      (tstamp 5BEF51E1))
    (comp (ref D49)
      (value LED)
      (footprint LED_THT:LED_D1.8mm_W3.3mm_H2.4mm)
      (datasheet ~)
      (libsource (lib Device) (part LED) (description "Light emitting diode"))
      (sheetpath (names /) (tstamps /))
      (tstamp 5BEF51E7))
    (comp (ref D48)
      (value LED)
      (footprint LED_THT:LED_D1.8mm_W3.3mm_H2.4mm)
      (datasheet ~)
      (libsource (lib Device) (part LED) (description "Light emitting diode"))
      (sheetpath (names /) (tstamps /))
      (tstamp 5BEF520D))
    (comp (ref D47)
      (value LED)
      (footprint LED_THT:LED_D1.8mm_W3.3mm_H2.4mm)
      (datasheet ~)
      (libsource (lib Device) (part LED) (description "Light emitting diode"))
      (sheetpath (names /) (tstamps /))
      (tstamp 5BEF5213))
    (comp (ref D46)
      (value LED)
      (footprint LED_THT:LED_D1.8mm_W3.3mm_H2.4mm)
      (datasheet ~)
      (libsource (lib Device) (part LED) (description "Light emitting diode"))
      (sheetpath (names /) (tstamps /))
      (tstamp 5BEF5219))
    (comp (ref D45)
      (value LED)
      (footprint LED_THT:LED_D1.8mm_W3.3mm_H2.4mm)
      (datasheet ~)
      (libsource (lib Device) (part LED) (description "Light emitting diode"))
      (sheetpath (names /) (tstamps /))
      (tstamp 5BEF521F))
    (comp (ref D44)
      (value LED)
      (footprint LED_THT:LED_D1.8mm_W3.3mm_H2.4mm)
      (datasheet ~)
      (libsource (lib Device) (part LED) (description "Light emitting diode"))
      (sheetpath (names /) (tstamps /))
      (tstamp 5BEF5225))
    (comp (ref D43)
      (value LED)
      (footprint LED_THT:LED_D1.8mm_W3.3mm_H2.4mm)
      (datasheet ~)
      (libsource (lib Device) (part LED) (description "Light emitting diode"))
      (sheetpath (names /) (tstamps /))
      (tstamp 5BEF522B))
    (comp (ref D42)
      (value LED)
      (footprint LED_THT:LED_D1.8mm_W3.3mm_H2.4mm)
      (datasheet ~)
      (libsource (lib Device) (part LED) (description "Light emitting diode"))
      (sheetpath (names /) (tstamps /))
      (tstamp 5BEF5231))
    (comp (ref D41)
      (value LED)
      (footprint LED_THT:LED_D1.8mm_W3.3mm_H2.4mm)
      (datasheet ~)
      (libsource (lib Device) (part LED) (description "Light emitting diode"))
      (sheetpath (names /) (tstamps /))
      (tstamp 5BEF5237))
    (comp (ref D40)
      (value LED)
      (footprint LED_THT:LED_D1.8mm_W3.3mm_H2.4mm)
      (datasheet ~)
      (libsource (lib Device) (part LED) (description "Light emitting diode"))
      (sheetpath (names /) (tstamps /))
      (tstamp 5BEF525D))
    (comp (ref D39)
      (value LED)
      (footprint LED_THT:LED_D1.8mm_W3.3mm_H2.4mm)
      (datasheet ~)
      (libsource (lib Device) (part LED) (description "Light emitting diode"))
      (sheetpath (names /) (tstamps /))
      (tstamp 5BEF5263))
    (comp (ref D38)
      (value LED)
      (footprint LED_THT:LED_D1.8mm_W3.3mm_H2.4mm)
      (datasheet ~)
      (libsource (lib Device) (part LED) (description "Light emitting diode"))
      (sheetpath (names /) (tstamps /))
      (tstamp 5BEF5269))
    (comp (ref D37)
      (value LED)
      (footprint LED_THT:LED_D1.8mm_W3.3mm_H2.4mm)
      (datasheet ~)
      (libsource (lib Device) (part LED) (description "Light emitting diode"))
      (sheetpath (names /) (tstamps /))
      (tstamp 5BEF526F))
    (comp (ref D36)
      (value LED)
      (footprint LED_THT:LED_D1.8mm_W3.3mm_H2.4mm)
      (datasheet ~)
      (libsource (lib Device) (part LED) (description "Light emitting diode"))
      (sheetpath (names /) (tstamps /))
      (tstamp 5BEF5275))
    (comp (ref D35)
      (value LED)
      (footprint LED_THT:LED_D1.8mm_W3.3mm_H2.4mm)
      (datasheet ~)
      (libsource (lib Device) (part LED) (description "Light emitting diode"))
      (sheetpath (names /) (tstamps /))
      (tstamp 5BEF527B))
    (comp (ref D34)
      (value LED)
      (footprint LED_THT:LED_D1.8mm_W3.3mm_H2.4mm)
      (datasheet ~)
      (libsource (lib Device) (part LED) (description "Light emitting diode"))
      (sheetpath (names /) (tstamps /))
      (tstamp 5BEF5281))
    (comp (ref D33)
      (value LED)
      (footprint LED_THT:LED_D1.8mm_W3.3mm_H2.4mm)
      (datasheet ~)
      (libsource (lib Device) (part LED) (description "Light emitting diode"))
      (sheetpath (names /) (tstamps /))
      (tstamp 5BEF5287))
    (comp (ref R1)
      (value R)
      (footprint Resistor_THT:R_Axial_DIN0204_L3.6mm_D1.6mm_P7.62mm_Horizontal)
      (datasheet ~)
      (libsource (lib Device) (part R) (description Resistor))
      (sheetpath (names /) (tstamps /))
      (tstamp 5C4D3F89))
    (comp (ref SW1)
      (value SW_Push)
      (footprint Button_Switch_Keyboard:SW_Cherry_MX1A_1.00u_PCB)
      (libsource (lib Switch) (part SW_Push) (description "Push button switch, generic, two pins"))
      (sheetpath (names /) (tstamps /))
      (tstamp 5C64A223))
    (comp (ref SW2)
      (value SW_Push)
      (footprint Button_Switch_Keyboard:SW_Cherry_MX1A_1.00u_PCB)
      (libsource (lib Switch) (part SW_Push) (description "Push button switch, generic, two pins"))
      (sheetpath (names /) (tstamps /))
      (tstamp 5C6C05FB))
    (comp (ref SW3)
      (value SW_Push)
      (footprint Button_Switch_Keyboard:SW_Cherry_MX1A_1.00u_PCB)
      (libsource (lib Switch) (part SW_Push) (description "Push button switch, generic, two pins"))
      (sheetpath (names /) (tstamps /))
      (tstamp 5C6DE643))
    (comp (ref SW4)
      (value SW_Push)
      (footprint Button_Switch_Keyboard:SW_Cherry_MX1A_1.00u_PCB)
      (libsource (lib Switch) (part SW_Push) (description "Push button switch, generic, two pins"))
      (sheetpath (names /) (tstamps /))
      (tstamp 5C6DE651))
    (comp (ref SW5)
      (value SW_Push)
      (footprint Button_Switch_Keyboard:SW_Cherry_MX1A_1.00u_PCB)
      (libsource (lib Switch) (part SW_Push) (description "Push button switch, generic, two pins"))
      (sheetpath (names /) (tstamps /))
      (tstamp 5C6FD35D))
    (comp (ref SW6)
      (value SW_Push)
      (footprint Button_Switch_Keyboard:SW_Cherry_MX1A_1.00u_PCB)
      (libsource (lib Switch) (part SW_Push) (description "Push button switch, generic, two pins"))
      (sheetpath (names /) (tstamps /))
      (tstamp 5C6FD36B))
    (comp (ref SW7)
      (value SW_Push)
      (footprint Button_Switch_Keyboard:SW_Cherry_MX1A_1.00u_PCB)
      (libsource (lib Switch) (part SW_Push) (description "Push button switch, generic, two pins"))
      (sheetpath (names /) (tstamps /))
      (tstamp 5C6FD379))
    (comp (ref SW8)
      (value SW_Push)
      (footprint Button_Switch_Keyboard:SW_Cherry_MX1A_1.00u_PCB)
      (libsource (lib Switch) (part SW_Push) (description "Push button switch, generic, two pins"))
      (sheetpath (names /) (tstamps /))
      (tstamp 5C6FD387))
    (comp (ref SW9)
      (value SW_Push)
      (footprint Button_Switch_Keyboard:SW_Cherry_MX1A_1.00u_PCB)
      (libsource (lib Switch) (part SW_Push) (description "Push button switch, generic, two pins"))
      (sheetpath (names /) (tstamps /))
      (tstamp 5C869E3B))
    (comp (ref SW10)
      (value SW_Push)
      (footprint Button_Switch_Keyboard:SW_Cherry_MX1A_1.00u_PCB)
      (libsource (lib Switch) (part SW_Push) (description "Push button switch, generic, two pins"))
      (sheetpath (names /) (tstamps /))
      (tstamp 5C869E4C))
    (comp (ref SW11)
      (value SW_Push)
      (footprint Button_Switch_Keyboard:SW_Cherry_MX1A_1.00u_PCB)
      (libsource (lib Switch) (part SW_Push) (description "Push button switch, generic, two pins"))
      (sheetpath (names /) (tstamps /))
      (tstamp 5C869E5C))
    (comp (ref SW12)
      (value SW_Push)
      (footprint Button_Switch_Keyboard:SW_Cherry_MX1A_1.00u_PCB)
      (libsource (lib Switch) (part SW_Push) (description "Push button switch, generic, two pins"))
      (sheetpath (names /) (tstamps /))
      (tstamp 5C869E6C))
    (comp (ref SW13)
      (value SW_Push)
      (footprint Button_Switch_Keyboard:SW_Cherry_MX1A_1.00u_PCB)
      (libsource (lib Switch) (part SW_Push) (description "Push button switch, generic, two pins"))
      (sheetpath (names /) (tstamps /))
      (tstamp 5C869E7C))
    (comp (ref SW14)
      (value SW_Push)
      (footprint Button_Switch_Keyboard:SW_Cherry_MX1A_1.00u_PCB)
      (libsource (lib Switch) (part SW_Push) (description "Push button switch, generic, two pins"))
      (sheetpath (names /) (tstamps /))
      (tstamp 5C869E8C))
    (comp (ref SW15)
      (value SW_Push)
      (footprint Button_Switch_Keyboard:SW_Cherry_MX1A_1.00u_PCB)
      (libsource (lib Switch) (part SW_Push) (description "Push button switch, generic, two pins"))
      (sheetpath (names /) (tstamps /))
      (tstamp 5C869E9C))
    (comp (ref SW16)
      (value SW_Push)
      (footprint Button_Switch_Keyboard:SW_Cherry_MX1A_1.00u_PCB)
      (libsource (lib Switch) (part SW_Push) (description "Push button switch, generic, two pins"))
      (sheetpath (names /) (tstamps /))
      (tstamp 5C869EAC))
    (comp (ref SW17)
      (value SW_Push)
      (footprint Button_Switch_Keyboard:SW_Cherry_MX1A_1.00u_PCB)
      (libsource (lib Switch) (part SW_Push) (description "Push button switch, generic, two pins"))
      (sheetpath (names /) (tstamps /))
      (tstamp 5C8932E9))
    (comp (ref SW18)
      (value SW_Push)
      (footprint Button_Switch_Keyboard:SW_Cherry_MX1A_1.00u_PCB)
      (libsource (lib Switch) (part SW_Push) (description "Push button switch, generic, two pins"))
      (sheetpath (names /) (tstamps /))
      (tstamp 5C8932FA))
    (comp (ref SW19)
      (value SW_Push)
      (footprint Button_Switch_Keyboard:SW_Cherry_MX1A_1.00u_PCB)
      (libsource (lib Switch) (part SW_Push) (description "Push button switch, generic, two pins"))
      (sheetpath (names /) (tstamps /))
      (tstamp 5C89330A))
    (comp (ref SW20)
      (value SW_Push)
      (footprint Button_Switch_Keyboard:SW_Cherry_MX1A_1.00u_PCB)
      (libsource (lib Switch) (part SW_Push) (description "Push button switch, generic, two pins"))
      (sheetpath (names /) (tstamps /))
      (tstamp 5C89331A))
    (comp (ref SW21)
      (value SW_Push)
      (footprint Button_Switch_Keyboard:SW_Cherry_MX1A_1.00u_PCB)
      (libsource (lib Switch) (part SW_Push) (description "Push button switch, generic, two pins"))
      (sheetpath (names /) (tstamps /))
      (tstamp 5C89332A))
    (comp (ref SW22)
      (value SW_Push)
      (footprint Button_Switch_Keyboard:SW_Cherry_MX1A_1.00u_PCB)
      (libsource (lib Switch) (part SW_Push) (description "Push button switch, generic, two pins"))
      (sheetpath (names /) (tstamps /))
      (tstamp 5C89333A))
    (comp (ref SW23)
      (value SW_Push)
      (footprint Button_Switch_Keyboard:SW_Cherry_MX1A_1.00u_PCB)
      (libsource (lib Switch) (part SW_Push) (description "Push button switch, generic, two pins"))
      (sheetpath (names /) (tstamps /))
      (tstamp 5C89334A))
    (comp (ref SW24)
      (value SW_Push)
      (footprint Button_Switch_Keyboard:SW_Cherry_MX1A_1.00u_PCB)
      (libsource (lib Switch) (part SW_Push) (description "Push button switch, generic, two pins"))
      (sheetpath (names /) (tstamps /))
      (tstamp 5C89335A))
    (comp (ref SW25)
      (value SW_Push)
      (footprint Button_Switch_Keyboard:SW_Cherry_MX1A_1.00u_PCB)
      (libsource (lib Switch) (part SW_Push) (description "Push button switch, generic, two pins"))
      (sheetpath (names /) (tstamps /))
      (tstamp 5C893380))
    (comp (ref SW26)
      (value SW_Push)
      (footprint Button_Switch_Keyboard:SW_Cherry_MX1A_1.00u_PCB)
      (libsource (lib Switch) (part SW_Push) (description "Push button switch, generic, two pins"))
      (sheetpath (names /) (tstamps /))
      (tstamp 5C893391))
    (comp (ref SW27)
      (value SW_Push)
      (footprint Button_Switch_Keyboard:SW_Cherry_MX1A_1.00u_PCB)
      (libsource (lib Switch) (part SW_Push) (description "Push button switch, generic, two pins"))
      (sheetpath (names /) (tstamps /))
      (tstamp 5C8933A1))
    (comp (ref SW28)
      (value SW_Push)
      (footprint Button_Switch_Keyboard:SW_Cherry_MX1A_1.00u_PCB)
      (libsource (lib Switch) (part SW_Push) (description "Push button switch, generic, two pins"))
      (sheetpath (names /) (tstamps /))
      (tstamp 5C8933B1))
    (comp (ref SW29)
      (value SW_Push)
      (footprint Button_Switch_Keyboard:SW_Cherry_MX1A_1.00u_PCB)
      (libsource (lib Switch) (part SW_Push) (description "Push button switch, generic, two pins"))
      (sheetpath (names /) (tstamps /))
      (tstamp 5C8933C1))
    (comp (ref SW30)
      (value SW_Push)
      (footprint Button_Switch_Keyboard:SW_Cherry_MX1A_1.00u_PCB)
      (libsource (lib Switch) (part SW_Push) (description "Push button switch, generic, two pins"))
      (sheetpath (names /) (tstamps /))
      (tstamp 5C8933D1))
    (comp (ref SW31)
      (value SW_Push)
      (footprint Button_Switch_Keyboard:SW_Cherry_MX1A_1.00u_PCB)
      (libsource (lib Switch) (part SW_Push) (description "Push button switch, generic, two pins"))
      (sheetpath (names /) (tstamps /))
      (tstamp 5C8933E1))
    (comp (ref SW32)
      (value SW_Push)
      (footprint Button_Switch_Keyboard:SW_Cherry_MX1A_1.00u_PCB)
      (libsource (lib Switch) (part SW_Push) (description "Push button switch, generic, two pins"))
      (sheetpath (names /) (tstamps /))
      (tstamp 5C8933F1))
    (comp (ref SW33)
      (value SW_Push)
      (footprint Button_Switch_Keyboard:SW_Cherry_MX1A_1.00u_PCB)
      (libsource (lib Switch) (part SW_Push) (description "Push button switch, generic, two pins"))
      (sheetpath (names /) (tstamps /))
      (tstamp 5C8CC4F8))
    (comp (ref SW34)
      (value SW_Push)
      (footprint Button_Switch_Keyboard:SW_Cherry_MX1A_1.00u_PCB)
      (libsource (lib Switch) (part SW_Push) (description "Push button switch, generic, two pins"))
      (sheetpath (names /) (tstamps /))
      (tstamp 5C8CC509))
    (comp (ref SW35)
      (value SW_Push)
      (footprint Button_Switch_Keyboard:SW_Cherry_MX1A_1.00u_PCB)
      (libsource (lib Switch) (part SW_Push) (description "Push button switch, generic, two pins"))
      (sheetpath (names /) (tstamps /))
      (tstamp 5C8CC519))
    (comp (ref SW36)
      (value SW_Push)
      (footprint Button_Switch_Keyboard:SW_Cherry_MX1A_1.00u_PCB)
      (libsource (lib Switch) (part SW_Push) (description "Push button switch, generic, two pins"))
      (sheetpath (names /) (tstamps /))
      (tstamp 5C8CC529))
    (comp (ref SW37)
      (value SW_Push)
      (footprint Button_Switch_Keyboard:SW_Cherry_MX1A_1.00u_PCB)
      (libsource (lib Switch) (part SW_Push) (description "Push button switch, generic, two pins"))
      (sheetpath (names /) (tstamps /))
      (tstamp 5C8CC539))
    (comp (ref SW38)
      (value SW_Push)
      (footprint Button_Switch_Keyboard:SW_Cherry_MX1A_1.00u_PCB)
      (libsource (lib Switch) (part SW_Push) (description "Push button switch, generic, two pins"))
      (sheetpath (names /) (tstamps /))
      (tstamp 5C8CC549))
    (comp (ref SW39)
      (value SW_Push)
      (footprint Button_Switch_Keyboard:SW_Cherry_MX1A_1.00u_PCB)
      (libsource (lib Switch) (part SW_Push) (description "Push button switch, generic, two pins"))
      (sheetpath (names /) (tstamps /))
      (tstamp 5C8CC559))
    (comp (ref SW40)
      (value SW_Push)
      (footprint Button_Switch_Keyboard:SW_Cherry_MX1A_1.00u_PCB)
      (libsource (lib Switch) (part SW_Push) (description "Push button switch, generic, two pins"))
      (sheetpath (names /) (tstamps /))
      (tstamp 5C8CC569))
    (comp (ref SW41)
      (value SW_Push)
      (footprint Button_Switch_Keyboard:SW_Cherry_MX1A_1.00u_PCB)
      (libsource (lib Switch) (part SW_Push) (description "Push button switch, generic, two pins"))
      (sheetpath (names /) (tstamps /))
      (tstamp 5C8CC58F))
    (comp (ref SW42)
      (value SW_Push)
      (footprint Button_Switch_Keyboard:SW_Cherry_MX1A_1.00u_PCB)
      (libsource (lib Switch) (part SW_Push) (description "Push button switch, generic, two pins"))
      (sheetpath (names /) (tstamps /))
      (tstamp 5C8CC5A0))
    (comp (ref SW43)
      (value SW_Push)
      (footprint Button_Switch_Keyboard:SW_Cherry_MX1A_1.00u_PCB)
      (libsource (lib Switch) (part SW_Push) (description "Push button switch, generic, two pins"))
      (sheetpath (names /) (tstamps /))
      (tstamp 5C8CC5B0))
    (comp (ref SW44)
      (value SW_Push)
      (footprint Button_Switch_Keyboard:SW_Cherry_MX1A_1.00u_PCB)
      (libsource (lib Switch) (part SW_Push) (description "Push button switch, generic, two pins"))
      (sheetpath (names /) (tstamps /))
      (tstamp 5C8CC5C0))
    (comp (ref SW45)
      (value SW_Push)
      (footprint Button_Switch_Keyboard:SW_Cherry_MX1A_1.00u_PCB)
      (libsource (lib Switch) (part SW_Push) (description "Push button switch, generic, two pins"))
      (sheetpath (names /) (tstamps /))
      (tstamp 5C8CC5D0))
    (comp (ref SW46)
      (value SW_Push)
      (footprint Button_Switch_Keyboard:SW_Cherry_MX1A_1.00u_PCB)
      (libsource (lib Switch) (part SW_Push) (description "Push button switch, generic, two pins"))
      (sheetpath (names /) (tstamps /))
      (tstamp 5C8CC5E0))
    (comp (ref SW47)
      (value SW_Push)
      (footprint Button_Switch_Keyboard:SW_Cherry_MX1A_1.00u_PCB)
      (libsource (lib Switch) (part SW_Push) (description "Push button switch, generic, two pins"))
      (sheetpath (names /) (tstamps /))
      (tstamp 5C8CC5F0))
    (comp (ref SW48)
      (value SW_Push)
      (footprint Button_Switch_Keyboard:SW_Cherry_MX1A_1.00u_PCB)
      (libsource (lib Switch) (part SW_Push) (description "Push button switch, generic, two pins"))
      (sheetpath (names /) (tstamps /))
      (tstamp 5C8CC600))
    (comp (ref SW49)
      (value SW_Push)
      (footprint Button_Switch_Keyboard:SW_Cherry_MX1A_1.00u_PCB)
      (libsource (lib Switch) (part SW_Push) (description "Push button switch, generic, two pins"))
      (sheetpath (names /) (tstamps /))
      (tstamp 5C8CC626))
    (comp (ref SW50)
      (value SW_Push)
      (footprint Button_Switch_Keyboard:SW_Cherry_MX1A_1.00u_PCB)
      (libsource (lib Switch) (part SW_Push) (description "Push button switch, generic, two pins"))
      (sheetpath (names /) (tstamps /))
      (tstamp 5C8CC637))
    (comp (ref SW51)
      (value SW_Push)
      (footprint Button_Switch_Keyboard:SW_Cherry_MX1A_1.00u_PCB)
      (libsource (lib Switch) (part SW_Push) (description "Push button switch, generic, two pins"))
      (sheetpath (names /) (tstamps /))
      (tstamp 5C8CC647))
    (comp (ref SW52)
      (value SW_Push)
      (footprint Button_Switch_Keyboard:SW_Cherry_MX1A_1.00u_PCB)
      (libsource (lib Switch) (part SW_Push) (description "Push button switch, generic, two pins"))
      (sheetpath (names /) (tstamps /))
      (tstamp 5C8CC657))
    (comp (ref SW53)
      (value SW_Push)
      (footprint Button_Switch_Keyboard:SW_Cherry_MX1A_1.00u_PCB)
      (libsource (lib Switch) (part SW_Push) (description "Push button switch, generic, two pins"))
      (sheetpath (names /) (tstamps /))
      (tstamp 5C8CC667))
    (comp (ref SW54)
      (value SW_Push)
      (footprint Button_Switch_Keyboard:SW_Cherry_MX1A_1.00u_PCB)
      (libsource (lib Switch) (part SW_Push) (description "Push button switch, generic, two pins"))
      (sheetpath (names /) (tstamps /))
      (tstamp 5C8CC677))
    (comp (ref SW55)
      (value SW_Push)
      (footprint Button_Switch_Keyboard:SW_Cherry_MX1A_1.00u_PCB)
      (libsource (lib Switch) (part SW_Push) (description "Push button switch, generic, two pins"))
      (sheetpath (names /) (tstamps /))
      (tstamp 5C8CC687))
    (comp (ref SW56)
      (value SW_Push)
      (footprint Button_Switch_Keyboard:SW_Cherry_MX1A_1.00u_PCB)
      (libsource (lib Switch) (part SW_Push) (description "Push button switch, generic, two pins"))
      (sheetpath (names /) (tstamps /))
      (tstamp 5C8CC697))
    (comp (ref SW57)
      (value SW_Push)
      (footprint Button_Switch_Keyboard:SW_Cherry_MX1A_1.00u_PCB)
      (libsource (lib Switch) (part SW_Push) (description "Push button switch, generic, two pins"))
      (sheetpath (names /) (tstamps /))
      (tstamp 5C8CC6BD))
    (comp (ref SW58)
      (value SW_Push)
      (footprint Button_Switch_Keyboard:SW_Cherry_MX1A_1.00u_PCB)
      (libsource (lib Switch) (part SW_Push) (description "Push button switch, generic, two pins"))
      (sheetpath (names /) (tstamps /))
      (tstamp 5C8CC6CE))
    (comp (ref SW59)
      (value SW_Push)
      (footprint Button_Switch_Keyboard:SW_Cherry_MX1A_1.00u_PCB)
      (libsource (lib Switch) (part SW_Push) (description "Push button switch, generic, two pins"))
      (sheetpath (names /) (tstamps /))
      (tstamp 5C8CC6DE))
    (comp (ref SW60)
      (value SW_Push)
      (footprint Button_Switch_Keyboard:SW_Cherry_MX1A_1.00u_PCB)
      (libsource (lib Switch) (part SW_Push) (description "Push button switch, generic, two pins"))
      (sheetpath (names /) (tstamps /))
      (tstamp 5C8CC6EE))
    (comp (ref SW61)
      (value SW_Push)
      (footprint Button_Switch_Keyboard:SW_Cherry_MX1A_1.00u_PCB)
      (libsource (lib Switch) (part SW_Push) (description "Push button switch, generic, two pins"))
      (sheetpath (names /) (tstamps /))
      (tstamp 5C8CC6FE))
    (comp (ref SW62)
      (value SW_Push)
      (footprint Button_Switch_Keyboard:SW_Cherry_MX1A_1.00u_PCB)
      (libsource (lib Switch) (part SW_Push) (description "Push button switch, generic, two pins"))
      (sheetpath (names /) (tstamps /))
      (tstamp 5C8CC70E))
    (comp (ref SW63)
      (value SW_Push)
      (footprint Button_Switch_Keyboard:SW_Cherry_MX1A_1.00u_PCB)
      (libsource (lib Switch) (part SW_Push) (description "Push button switch, generic, two pins"))
      (sheetpath (names /) (tstamps /))
      (tstamp 5C8CC71E))
    (comp (ref SW64)
      (value SW_Push)
      (footprint Button_Switch_Keyboard:SW_Cherry_MX1A_1.00u_PCB)
      (libsource (lib Switch) (part SW_Push) (description "Push button switch, generic, two pins"))
      (sheetpath (names /) (tstamps /))
      (tstamp 5C8CC72E))
    (comp (ref H1)
      (value MountingHole)
      (footprint MountingHole:MountingHole_3.2mm_M3_Pad_Via)
      (datasheet ~)
      (libsource (lib Mechanical) (part MountingHole) (description "Mounting Hole without connection"))
      (sheetpath (names /) (tstamps /))
      (tstamp 5BF72531))
    (comp (ref H2)
      (value MountingHole)
      (footprint MountingHole:MountingHole_3.2mm_M3_Pad_Via)
      (datasheet ~)
      (libsource (lib Mechanical) (part MountingHole) (description "Mounting Hole without connection"))
      (sheetpath (names /) (tstamps /))
      (tstamp 5BF72FD8))
    (comp (ref H3)
      (value MountingHole)
      (footprint MountingHole:MountingHole_3.2mm_M3_Pad_Via)
      (datasheet ~)
      (libsource (lib Mechanical) (part MountingHole) (description "Mounting Hole without connection"))
      (sheetpath (names /) (tstamps /))
      (tstamp 5BF73178))
    (comp (ref H4)
      (value MountingHole)
      (footprint MountingHole:MountingHole_3.2mm_M3_Pad_Via)
      (datasheet ~)
      (libsource (lib Mechanical) (part MountingHole) (description "Mounting Hole without connection"))
      (sheetpath (names /) (tstamps /))
      (tstamp 5BF7331E))
    (comp (ref CD7)
      (value C)
      (footprint Capacitor_THT:C_Disc_D3.0mm_W1.6mm_P2.50mm)
      (datasheet ~)
      (libsource (lib Device) (part C) (description "Unpolarized capacitor"))
      (sheetpath (names /) (tstamps /))
      (tstamp 5BF74482))
    (comp (ref J3)
      (value Conn_01x05)
      (footprint Connector_PinSocket_2.54mm:PinSocket_1x05_P2.54mm_Vertical)
      (datasheet ~)
      (libsource (lib Connector_Generic) (part Conn_01x05) (description "Generic connector, single row, 01x05, script generated (kicad-library-utils/schlib/autogen/connector/)"))
      (sheetpath (names /) (tstamps /))
      (tstamp 5C30CA53))
    (comp (ref J4)
      (value Conn_01x05)
      (footprint Connector_PinSocket_2.54mm:PinSocket_1x05_P2.54mm_Vertical)
      (datasheet ~)
      (libsource (lib Connector_Generic) (part Conn_01x05) (description "Generic connector, single row, 01x05, script generated (kicad-library-utils/schlib/autogen/connector/)"))
      (sheetpath (names /) (tstamps /))
      (tstamp 5C4885BD))
    (comp (ref C4)
      (value C)
      (footprint Capacitor_THT:C_Disc_D3.0mm_W1.6mm_P2.50mm)
      (datasheet ~)
      (libsource (lib Device) (part C) (description "Unpolarized capacitor"))
      (sheetpath (names /) (tstamps /))
      (tstamp 5D2BCB95))
    (comp (ref C3)
      (value C)
      (footprint Capacitor_THT:C_Disc_D3.0mm_W1.6mm_P2.50mm)
      (datasheet ~)
      (libsource (lib Device) (part C) (description "Unpolarized capacitor"))
      (sheetpath (names /) (tstamps /))
      (tstamp 5D34A839))
    (comp (ref IO1)
      (value MCP23S17_SP)
      (footprint Package_DIP:DIP-28_W7.62mm)
      (datasheet http://ww1.microchip.com/downloads/en/DeviceDoc/20001952C.pdf)
      (libsource (lib Interface_Expansion) (part MCP23S17_SP) (description "16-bit I/O expander, SPI, interrupts, w pull-ups, SPDIP-28"))
      (sheetpath (names /) (tstamps /))
      (tstamp 5C94D653))
    (comp (ref IO5)
      (value MCP23S17_SP)
      (footprint Package_DIP:DIP-28_W7.62mm)
      (datasheet http://ww1.microchip.com/downloads/en/DeviceDoc/20001952C.pdf)
      (libsource (lib Interface_Expansion) (part MCP23S17_SP) (description "16-bit I/O expander, SPI, interrupts, w pull-ups, SPDIP-28"))
      (sheetpath (names /) (tstamps /))
      (tstamp 5CB760CE))
    (comp (ref IO6)
      (value MCP23S17_SP)
      (footprint Package_DIP:DIP-28_W7.62mm)
      (datasheet http://ww1.microchip.com/downloads/en/DeviceDoc/20001952C.pdf)
      (libsource (lib Interface_Expansion) (part MCP23S17_SP) (description "16-bit I/O expander, SPI, interrupts, w pull-ups, SPDIP-28"))
      (sheetpath (names /) (tstamps /))
      (tstamp 5D50C959))
    (comp (ref CD1)
      (value C)
      (footprint Capacitor_THT:C_Disc_D3.0mm_W1.6mm_P2.50mm)
      (datasheet ~)
      (libsource (lib Device) (part C) (description "Unpolarized capacitor"))
      (sheetpath (names /) (tstamps /))
      (tstamp 5D746291))
    (comp (ref CD5)
      (value C)
      (footprint Capacitor_THT:C_Disc_D3.0mm_W1.6mm_P2.50mm)
      (datasheet ~)
      (libsource (lib Device) (part C) (description "Unpolarized capacitor"))
      (sheetpath (names /) (tstamps /))
      (tstamp 5D804416))
    (comp (ref CD6)
      (value C)
      (footprint Capacitor_THT:C_Disc_D3.0mm_W1.6mm_P2.50mm)
      (datasheet ~)
      (libsource (lib Device) (part C) (description "Unpolarized capacitor"))
      (sheetpath (names /) (tstamps /))
      (tstamp 5D8C2E94))
    (comp (ref IO2)
      (value MCP23S17_SP)
      (footprint Package_DIP:DIP-28_W7.62mm)
      (datasheet http://ww1.microchip.com/downloads/en/DeviceDoc/20001952C.pdf)
      (libsource (lib Interface_Expansion) (part MCP23S17_SP) (description "16-bit I/O expander, SPI, interrupts, w pull-ups, SPDIP-28"))
      (sheetpath (names /) (tstamps /))
      (tstamp 5E36E7CA))
    (comp (ref CD2)
      (value C)
      (footprint Capacitor_THT:C_Disc_D3.0mm_W1.6mm_P2.50mm)
      (datasheet ~)
      (libsource (lib Device) (part C) (description "Unpolarized capacitor"))
      (sheetpath (names /) (tstamps /))
      (tstamp 5E36E7DA))
    (comp (ref IO3)
      (value MCP23S17_SP)
      (footprint Package_DIP:DIP-28_W7.62mm)
      (datasheet http://ww1.microchip.com/downloads/en/DeviceDoc/20001952C.pdf)
      (libsource (lib Interface_Expansion) (part MCP23S17_SP) (description "16-bit I/O expander, SPI, interrupts, w pull-ups, SPDIP-28"))
      (sheetpath (names /) (tstamps /))
      (tstamp 5F20AA90))
    (comp (ref CD3)
      (value C)
      (footprint Capacitor_THT:C_Disc_D3.0mm_W1.6mm_P2.50mm)
      (datasheet ~)
      (libsource (lib Device) (part C) (description "Unpolarized capacitor"))
      (sheetpath (names /) (tstamps /))
      (tstamp 5F20AAA0))
    (comp (ref IO4)
      (value MCP23S17_SP)
      (footprint Package_DIP:DIP-28_W7.62mm)
      (datasheet http://ww1.microchip.com/downloads/en/DeviceDoc/20001952C.pdf)
      (libsource (lib Interface_Expansion) (part MCP23S17_SP) (description "16-bit I/O expander, SPI, interrupts, w pull-ups, SPDIP-28"))
      (sheetpath (names /) (tstamps /))
      (tstamp 5F2CFDA7))
    (comp (ref CD4)
      (value C)
      (footprint Capacitor_THT:C_Disc_D3.0mm_W1.6mm_P2.50mm)
      (datasheet ~)
      (libsource (lib Device) (part C) (description "Unpolarized capacitor"))
      (sheetpath (names /) (tstamps /))
      (tstamp 5F2CFDB7))
    (comp (ref H5)
      (value MountingHole)
      (footprint MountingHole:MountingHole_3.2mm_M3_Pad_Via)
      (datasheet ~)
      (libsource (lib Mechanical) (part MountingHole) (description "Mounting Hole without connection"))
      (sheetpath (names /) (tstamps /))
      (tstamp 5F99BCC1))
    (comp (ref H6)
      (value MountingHole)
      (footprint MountingHole:MountingHole_3.2mm_M3_Pad_Via)
      (datasheet ~)
      (libsource (lib Mechanical) (part MountingHole) (description "Mounting Hole without connection"))
      (sheetpath (names /) (tstamps /))
      (tstamp 5F99BCC7))
    (comp (ref H7)
      (value MountingHole)
      (footprint MountingHole:MountingHole_3.2mm_M3_Pad_Via)
      (datasheet ~)
      (libsource (lib Mechanical) (part MountingHole) (description "Mounting Hole without connection"))
      (sheetpath (names /) (tstamps /))
      (tstamp 5F99BCCD))
    (comp (ref H8)
      (value MountingHole)
      (footprint MountingHole:MountingHole_3.2mm_M3_Pad_Via)
      (datasheet ~)
      (libsource (lib Mechanical) (part MountingHole) (description "Mounting Hole without connection"))
      (sheetpath (names /) (tstamps /))
      (tstamp 5F99BCD3))
    (comp (ref C5)
      (value C)
      (footprint Capacitor_THT:C_Disc_D3.0mm_W1.6mm_P2.50mm)
      (datasheet ~)
      (libsource (lib Device) (part C) (description "Unpolarized capacitor"))
      (sheetpath (names /) (tstamps /))
      (tstamp 653A3198))
    (comp (ref C2)
      (value C)
      (footprint Capacitor_THT:C_Disc_D3.0mm_W1.6mm_P2.50mm)
      (datasheet ~)
      (libsource (lib Device) (part C) (description "Unpolarized capacitor"))
      (sheetpath (names /) (tstamps /))
      (tstamp 653A319E))
    (comp (ref C7)
      (value C)
      (footprint Capacitor_THT:C_Disc_D3.0mm_W1.6mm_P2.50mm)
      (datasheet ~)
      (libsource (lib Device) (part C) (description "Unpolarized capacitor"))
      (sheetpath (names /) (tstamps /))
      (tstamp 65430600))
    (comp (ref C6)
      (value C)
      (footprint Capacitor_THT:C_Disc_D3.0mm_W1.6mm_P2.50mm)
      (datasheet ~)
      (libsource (lib Device) (part C) (description "Unpolarized capacitor"))
      (sheetpath (names /) (tstamps /))
      (tstamp 65430607))
    (comp (ref C9)
      (value C)
      (footprint Capacitor_THT:C_Disc_D3.0mm_W1.6mm_P2.50mm)
      (datasheet ~)
      (libsource (lib Device) (part C) (description "Unpolarized capacitor"))
      (sheetpath (names /) (tstamps /))
      (tstamp 6547A10C))
    (comp (ref C8)
      (value C)
      (footprint Capacitor_THT:C_Disc_D3.0mm_W1.6mm_P2.50mm)
      (datasheet ~)
      (libsource (lib Device) (part C) (description "Unpolarized capacitor"))
      (sheetpath (names /) (tstamps /))
      (tstamp 6547A113))
    (comp (ref C11)
      (value C)
      (footprint Capacitor_THT:C_Disc_D3.0mm_W1.6mm_P2.50mm)
      (datasheet ~)
      (libsource (lib Device) (part C) (description "Unpolarized capacitor"))
      (sheetpath (names /) (tstamps /))
      (tstamp 654C6DEC))
    (comp (ref C10)
      (value C)
      (footprint Capacitor_THT:C_Disc_D3.0mm_W1.6mm_P2.50mm)
      (datasheet ~)
      (libsource (lib Device) (part C) (description "Unpolarized capacitor"))
      (sheetpath (names /) (tstamps /))
      (tstamp 654C6DF3))
    (comp (ref C13)
      (value C)
      (footprint Capacitor_THT:C_Disc_D3.0mm_W1.6mm_P2.50mm)
      (datasheet ~)
      (libsource (lib Device) (part C) (description "Unpolarized capacitor"))
      (sheetpath (names /) (tstamps /))
      (tstamp 65796E84))
    (comp (ref C12)
      (value C)
      (footprint Capacitor_THT:C_Disc_D3.0mm_W1.6mm_P2.50mm)
      (datasheet ~)
      (libsource (lib Device) (part C) (description "Unpolarized capacitor"))
      (sheetpath (names /) (tstamps /))
      (tstamp 65796E8B))
    (comp (ref C15)
      (value C)
      (footprint Capacitor_THT:C_Disc_D3.0mm_W1.6mm_P2.50mm)
      (datasheet ~)
      (libsource (lib Device) (part C) (description "Unpolarized capacitor"))
      (sheetpath (names /) (tstamps /))
      (tstamp 658E32DA))
    (comp (ref C14)
      (value C)
      (footprint Capacitor_THT:C_Disc_D3.0mm_W1.6mm_P2.50mm)
      (datasheet ~)
      (libsource (lib Device) (part C) (description "Unpolarized capacitor"))
      (sheetpath (names /) (tstamps /))
      (tstamp 658E32E1))
    (comp (ref C17)
      (value C)
      (footprint Capacitor_THT:C_Disc_D3.0mm_W1.6mm_P2.50mm)
      (datasheet ~)
      (libsource (lib Device) (part C) (description "Unpolarized capacitor"))
      (sheetpath (names /) (tstamps /))
      (tstamp 65939634))
    (comp (ref C16)
      (value C)
      (footprint Capacitor_THT:C_Disc_D3.0mm_W1.6mm_P2.50mm)
      (datasheet ~)
      (libsource (lib Device) (part C) (description "Unpolarized capacitor"))
      (sheetpath (names /) (tstamps /))
      (tstamp 6593963B))
    (comp (ref C19)
      (value C)
      (footprint Capacitor_THT:C_Disc_D3.0mm_W1.6mm_P2.50mm)
      (datasheet ~)
      (libsource (lib Device) (part C) (description "Unpolarized capacitor"))
      (sheetpath (names /) (tstamps /))
      (tstamp 65993802))
    (comp (ref C18)
      (value C)
      (footprint Capacitor_THT:C_Disc_D3.0mm_W1.6mm_P2.50mm)
      (datasheet ~)
      (libsource (lib Device) (part C) (description "Unpolarized capacitor"))
      (sheetpath (names /) (tstamps /))
      (tstamp 65993809))
    (comp (ref C21)
      (value C)
      (footprint Capacitor_THT:C_Disc_D3.0mm_W1.6mm_P2.50mm)
      (datasheet ~)
      (libsource (lib Device) (part C) (description "Unpolarized capacitor"))
      (sheetpath (names /) (tstamps /))
      (tstamp 65993828))
    (comp (ref C20)
      (value C)
      (footprint Capacitor_THT:C_Disc_D3.0mm_W1.6mm_P2.50mm)
      (datasheet ~)
      (libsource (lib Device) (part C) (description "Unpolarized capacitor"))
      (sheetpath (names /) (tstamps /))
      (tstamp 6599382F))
    (comp (ref C27)
      (value C)
      (footprint Capacitor_THT:C_Disc_D3.0mm_W1.6mm_P2.50mm)
      (datasheet ~)
      (libsource (lib Device) (part C) (description "Unpolarized capacitor"))
      (sheetpath (names /) (tstamps /))
      (tstamp 6599384C))
    (comp (ref C26)
      (value C)
      (footprint Capacitor_THT:C_Disc_D3.0mm_W1.6mm_P2.50mm)
      (datasheet ~)
      (libsource (lib Device) (part C) (description "Unpolarized capacitor"))
      (sheetpath (names /) (tstamps /))
      (tstamp 65993853))
    (comp (ref C29)
      (value C)
      (footprint Capacitor_THT:C_Disc_D3.0mm_W1.6mm_P2.50mm)
      (datasheet ~)
      (libsource (lib Device) (part C) (description "Unpolarized capacitor"))
      (sheetpath (names /) (tstamps /))
      (tstamp 65993870))
    (comp (ref C28)
      (value C)
      (footprint Capacitor_THT:C_Disc_D3.0mm_W1.6mm_P2.50mm)
      (datasheet ~)
      (libsource (lib Device) (part C) (description "Unpolarized capacitor"))
      (sheetpath (names /) (tstamps /))
      (tstamp 65993877))
    (comp (ref C31)
      (value C)
      (footprint Capacitor_THT:C_Disc_D3.0mm_W1.6mm_P2.50mm)
      (datasheet ~)
      (libsource (lib Device) (part C) (description "Unpolarized capacitor"))
      (sheetpath (names /) (tstamps /))
      (tstamp 65993894))
    (comp (ref C30)
      (value C)
      (footprint Capacitor_THT:C_Disc_D3.0mm_W1.6mm_P2.50mm)
      (datasheet ~)
      (libsource (lib Device) (part C) (description "Unpolarized capacitor"))
      (sheetpath (names /) (tstamps /))
      (tstamp 6599389B))
    (comp (ref C33)
      (value C)
      (footprint Capacitor_THT:C_Disc_D3.0mm_W1.6mm_P2.50mm)
      (datasheet ~)
      (libsource (lib Device) (part C) (description "Unpolarized capacitor"))
      (sheetpath (names /) (tstamps /))
      (tstamp 659938B8))
    (comp (ref C32)
      (value C)
      (footprint Capacitor_THT:C_Disc_D3.0mm_W1.6mm_P2.50mm)
      (datasheet ~)
      (libsource (lib Device) (part C) (description "Unpolarized capacitor"))
      (sheetpath (names /) (tstamps /))
      (tstamp 659938BF))
    (comp (ref C35)
      (value C)
      (footprint Capacitor_THT:C_Disc_D3.0mm_W1.6mm_P2.50mm)
      (datasheet ~)
      (libsource (lib Device) (part C) (description "Unpolarized capacitor"))
      (sheetpath (names /) (tstamps /))
      (tstamp 659938DC))
    (comp (ref C34)
      (value C)
      (footprint Capacitor_THT:C_Disc_D3.0mm_W1.6mm_P2.50mm)
      (datasheet ~)
      (libsource (lib Device) (part C) (description "Unpolarized capacitor"))
      (sheetpath (names /) (tstamps /))
      (tstamp 659938E3))
    (comp (ref C37)
      (value C)
      (footprint Capacitor_THT:C_Disc_D3.0mm_W1.6mm_P2.50mm)
      (datasheet ~)
      (libsource (lib Device) (part C) (description "Unpolarized capacitor"))
      (sheetpath (names /) (tstamps /))
      (tstamp 65993900))
    (comp (ref C36)
      (value C)
      (footprint Capacitor_THT:C_Disc_D3.0mm_W1.6mm_P2.50mm)
      (datasheet ~)
      (libsource (lib Device) (part C) (description "Unpolarized capacitor"))
      (sheetpath (names /) (tstamps /))
      (tstamp 65993907))
    (comp (ref J1)
      (value OLED)
      (footprint Display:Adafruit_SSD1306)
      (datasheet ~)
      (libsource (lib Connector_Generic) (part Conn_01x08) (description "Generic connector, single row, 01x08, script generated (kicad-library-utils/schlib/autogen/connector/)"))
      (sheetpath (names /) (tstamps /))
      (tstamp 65E29144))
    (comp (ref RE1)
      (value Rotary_Encoder_Switch)
      (footprint Rotary_Encoder:RotaryEncoder_Alps_EC11E-Switch_Vertical_H20mm)
      (datasheet ~)
      (libsource (lib Device) (part Rotary_Encoder_Switch) (description "Rotary encoder, dual channel, incremental quadrate outputs, with switch"))
      (sheetpath (names /) (tstamps /))
      (tstamp 675C4F55))
    (comp (ref RE2)
      (value Rotary_Encoder_Switch)
      (footprint Rotary_Encoder:RotaryEncoder_Alps_EC11E-Switch_Vertical_H20mm)
      (datasheet ~)
      (libsource (lib Device) (part Rotary_Encoder_Switch) (description "Rotary encoder, dual channel, incremental quadrate outputs, with switch"))
      (sheetpath (names /) (tstamps /))
      (tstamp 677329FE))
    (comp (ref RE3)
      (value Rotary_Encoder_Switch)
      (footprint Rotary_Encoder:RotaryEncoder_Alps_EC11E-Switch_Vertical_H20mm)
      (datasheet ~)
      (libsource (lib Device) (part Rotary_Encoder_Switch) (description "Rotary encoder, dual channel, incremental quadrate outputs, with switch"))
      (sheetpath (names /) (tstamps /))
      (tstamp 67732BBC))
    (comp (ref RE4)
      (value Rotary_Encoder_Switch)
      (footprint Rotary_Encoder:RotaryEncoder_Alps_EC11E-Switch_Vertical_H20mm)
      (datasheet ~)
      (libsource (lib Device) (part Rotary_Encoder_Switch) (description "Rotary encoder, dual channel, incremental quadrate outputs, with switch"))
      (sheetpath (names /) (tstamps /))
      (tstamp 67732D8E))
    (comp (ref RE5)
      (value Rotary_Encoder_Switch)
      (footprint Rotary_Encoder:RotaryEncoder_Alps_EC11E-Switch_Vertical_H20mm)
      (datasheet ~)
      (libsource (lib Device) (part Rotary_Encoder_Switch) (description "Rotary encoder, dual channel, incremental quadrate outputs, with switch"))
      (sheetpath (names /) (tstamps /))
      (tstamp 67733B1A))
    (comp (ref RE6)
      (value Rotary_Encoder_Switch)
      (footprint Rotary_Encoder:RotaryEncoder_Alps_EC11E-Switch_Vertical_H20mm)
      (datasheet ~)
      (libsource (lib Device) (part Rotary_Encoder_Switch) (description "Rotary encoder, dual channel, incremental quadrate outputs, with switch"))
      (sheetpath (names /) (tstamps /))
      (tstamp 67733B20))
    (comp (ref RE7)
      (value Rotary_Encoder_Switch)
      (footprint Rotary_Encoder:RotaryEncoder_Alps_EC11E-Switch_Vertical_H20mm)
      (datasheet ~)
      (libsource (lib Device) (part Rotary_Encoder_Switch) (description "Rotary encoder, dual channel, incremental quadrate outputs, with switch"))
      (sheetpath (names /) (tstamps /))
      (tstamp 67733B26))
    (comp (ref RE8)
      (value Rotary_Encoder_Switch)
      (footprint Rotary_Encoder:RotaryEncoder_Alps_EC11E-Switch_Vertical_H20mm)
      (datasheet ~)
      (libsource (lib Device) (part Rotary_Encoder_Switch) (description "Rotary encoder, dual channel, incremental quadrate outputs, with switch"))
      (sheetpath (names /) (tstamps /))
      (tstamp 67733B2C))
    (comp (ref RE9)
      (value Rotary_Encoder_Switch)
      (footprint Rotary_Encoder:RotaryEncoder_Alps_EC11E-Switch_Vertical_H20mm)
      (datasheet ~)
      (libsource (lib Device) (part Rotary_Encoder_Switch) (description "Rotary encoder, dual channel, incremental quadrate outputs, with switch"))
      (sheetpath (names /) (tstamps /))
      (tstamp 677AD96E))
    (comp (ref RE10)
      (value Rotary_Encoder_Switch)
      (footprint Rotary_Encoder:RotaryEncoder_Alps_EC11E-Switch_Vertical_H20mm)
      (datasheet ~)
      (libsource (lib Device) (part Rotary_Encoder_Switch) (description "Rotary encoder, dual channel, incremental quadrate outputs, with switch"))
      (sheetpath (names /) (tstamps /))
      (tstamp 677AD974))
    (comp (ref RE11)
      (value Rotary_Encoder_Switch)
      (footprint Rotary_Encoder:RotaryEncoder_Alps_EC11E-Switch_Vertical_H20mm)
      (datasheet ~)
      (libsource (lib Device) (part Rotary_Encoder_Switch) (description "Rotary encoder, dual channel, incremental quadrate outputs, with switch"))
      (sheetpath (names /) (tstamps /))
      (tstamp 677AD97A))
    (comp (ref RE12)
      (value Rotary_Encoder_Switch)
      (footprint Rotary_Encoder:RotaryEncoder_Alps_EC11E-Switch_Vertical_H20mm)
      (datasheet ~)
      (libsource (lib Device) (part Rotary_Encoder_Switch) (description "Rotary encoder, dual channel, incremental quadrate outputs, with switch"))
      (sheetpath (names /) (tstamps /))
      (tstamp 677AD980))
    (comp (ref RE13)
      (value Rotary_Encoder_Switch)
      (footprint Rotary_Encoder:RotaryEncoder_Alps_EC11E-Switch_Vertical_H20mm)
      (datasheet ~)
      (libsource (lib Device) (part Rotary_Encoder_Switch) (description "Rotary encoder, dual channel, incremental quadrate outputs, with switch"))
      (sheetpath (names /) (tstamps /))
      (tstamp 677AD986))
    (comp (ref RE14)
      (value Rotary_Encoder_Switch)
      (footprint Rotary_Encoder:RotaryEncoder_Alps_EC11E-Switch_Vertical_H20mm)
      (datasheet ~)
      (libsource (lib Device) (part Rotary_Encoder_Switch) (description "Rotary encoder, dual channel, incremental quadrate outputs, with switch"))
      (sheetpath (names /) (tstamps /))
      (tstamp 677AD98C))
    (comp (ref RE15)
      (value Rotary_Encoder_Switch)
      (footprint Rotary_Encoder:RotaryEncoder_Alps_EC11E-Switch_Vertical_H20mm)
      (datasheet ~)
      (libsource (lib Device) (part Rotary_Encoder_Switch) (description "Rotary encoder, dual channel, incremental quadrate outputs, with switch"))
      (sheetpath (names /) (tstamps /))
      (tstamp 677AD992))
    (comp (ref RE16)
      (value Rotary_Encoder_Switch)
      (footprint Rotary_Encoder:RotaryEncoder_Alps_EC11E-Switch_Vertical_H20mm)
      (datasheet ~)
      (libsource (lib Device) (part Rotary_Encoder_Switch) (description "Rotary encoder, dual channel, incremental quadrate outputs, with switch"))
      (sheetpath (names /) (tstamps /))
      (tstamp 677AD998))
    (comp (ref CBIO1)
      (value Conn_02x20_Odd_Even)
      (footprint Connector_IDC:IDC-Header_2x20_P2.54mm_Vertical)
      (datasheet ~)
      (libsource (lib Connector_Generic) (part Conn_02x20_Odd_Even) (description "Generic connector, double row, 02x20, odd/even pin numbering scheme (row 1 odd numbers, row 2 even numbers), script generated (kicad-library-utils/schlib/autogen/connector/)"))
      (sheetpath (names /) (tstamps /))
      (tstamp 6782C1D4))
    (comp (ref IO7)
      (value MCP23S17_SP)
      (footprint Package_DIP:DIP-28_W7.62mm)
      (datasheet http://ww1.microchip.com/downloads/en/DeviceDoc/20001952C.pdf)
      (libsource (lib Interface_Expansion) (part MCP23S17_SP) (description "16-bit I/O expander, SPI, interrupts, w pull-ups, SPDIP-28"))
      (sheetpath (names /) (tstamps /))
      (tstamp 68413764))
    (comp (ref CD8)
      (value C)
      (footprint Capacitor_THT:C_Disc_D3.0mm_W1.6mm_P2.50mm)
      (datasheet ~)
      (libsource (lib Device) (part C) (description "Unpolarized capacitor"))
      (sheetpath (names /) (tstamps /))
      (tstamp 68413770))
    (comp (ref SW65)
      (value SW_SPST)
      (footprint Button_Switch_THT:SW_PUSH_6mm_H5mm)
      (libsource (lib Switch) (part SW_SPST) (description "Single Pole Single Throw (SPST) switch"))
      (sheetpath (names /) (tstamps /))
      (tstamp 6860D742))
    (comp (ref SW66)
      (value SW_SPST)
      (footprint Button_Switch_THT:SW_PUSH_6mm_H5mm)
      (libsource (lib Switch) (part SW_SPST) (description "Single Pole Single Throw (SPST) switch"))
      (sheetpath (names /) (tstamps /))
      (tstamp 6860D748))
    (comp (ref SW67)
      (value SW_SPST)
      (footprint Button_Switch_THT:SW_PUSH_6mm_H5mm)
      (libsource (lib Switch) (part SW_SPST) (description "Single Pole Single Throw (SPST) switch"))
      (sheetpath (names /) (tstamps /))
      (tstamp 6860D74E))
    (comp (ref SW68)
      (value SW_SPST)
      (footprint Button_Switch_THT:SW_PUSH_6mm_H5mm)
      (libsource (lib Switch) (part SW_SPST) (description "Single Pole Single Throw (SPST) switch"))
      (sheetpath (names /) (tstamps /))
      (tstamp 6860D754)))
  (libparts
    (libpart (lib Connector_Generic) (part Conn_01x05)
      (description "Generic connector, single row, 01x05, script generated (kicad-library-utils/schlib/autogen/connector/)")
      (docs ~)
      (footprints
        (fp Connector*:*_1x??_*))
      (fields
        (field (name Reference) J)
        (field (name Value) Conn_01x05))
      (pins
        (pin (num 1) (name Pin_1) (type passive))
        (pin (num 2) (name Pin_2) (type passive))
        (pin (num 3) (name Pin_3) (type passive))
        (pin (num 4) (name Pin_4) (type passive))
        (pin (num 5) (name Pin_5) (type passive))))
    (libpart (lib Connector_Generic) (part Conn_01x08)
      (description "Generic connector, single row, 01x08, script generated (kicad-library-utils/schlib/autogen/connector/)")
      (docs ~)
      (footprints
        (fp Connector*:*_1x??_*))
      (fields
        (field (name Reference) J)
        (field (name Value) Conn_01x08))
      (pins
        (pin (num 1) (name Pin_1) (type passive))
        (pin (num 2) (name Pin_2) (type passive))
        (pin (num 3) (name Pin_3) (type passive))
        (pin (num 4) (name Pin_4) (type passive))
        (pin (num 5) (name Pin_5) (type passive))
        (pin (num 6) (name Pin_6) (type passive))
        (pin (num 7) (name Pin_7) (type passive))
        (pin (num 8) (name Pin_8) (type passive))))
    (libpart (lib Connector_Generic) (part Conn_02x20_Odd_Even)
      (description "Generic connector, double row, 02x20, odd/even pin numbering scheme (row 1 odd numbers, row 2 even numbers), script generated (kicad-library-utils/schlib/autogen/connector/)")
      (docs ~)
      (footprints
        (fp Connector*:*_2x??_*))
      (fields
        (field (name Reference) J)
        (field (name Value) Conn_02x20_Odd_Even))
      (pins
        (pin (num 1) (name Pin_1) (type passive))
        (pin (num 2) (name Pin_2) (type passive))
        (pin (num 3) (name Pin_3) (type passive))
        (pin (num 4) (name Pin_4) (type passive))
        (pin (num 5) (name Pin_5) (type passive))
        (pin (num 6) (name Pin_6) (type passive))
        (pin (num 7) (name Pin_7) (type passive))
        (pin (num 8) (name Pin_8) (type passive))
        (pin (num 9) (name Pin_9) (type passive))
        (pin (num 10) (name Pin_10) (type passive))
        (pin (num 11) (name Pin_11) (type passive))
        (pin (num 12) (name Pin_12) (type passive))
        (pin (num 13) (name Pin_13) (type passive))
        (pin (num 14) (name Pin_14) (type passive))
        (pin (num 15) (name Pin_15) (type passive))
        (pin (num 16) (name Pin_16) (type passive))
        (pin (num 17) (name Pin_17) (type passive))
        (pin (num 18) (name Pin_18) (type passive))
        (pin (num 19) (name Pin_19) (type passive))
        (pin (num 20) (name Pin_20) (type passive))
        (pin (num 21) (name Pin_21) (type passive))
        (pin (num 22) (name Pin_22) (type passive))
        (pin (num 23) (name Pin_23) (type passive))
        (pin (num 24) (name Pin_24) (type passive))
        (pin (num 25) (name Pin_25) (type passive))
        (pin (num 26) (name Pin_26) (type passive))
        (pin (num 27) (name Pin_27) (type passive))
        (pin (num 28) (name Pin_28) (type passive))
        (pin (num 29) (name Pin_29) (type passive))
        (pin (num 30) (name Pin_30) (type passive))
        (pin (num 31) (name Pin_31) (type passive))
        (pin (num 32) (name Pin_32) (type passive))
        (pin (num 33) (name Pin_33) (type passive))
        (pin (num 34) (name Pin_34) (type passive))
        (pin (num 35) (name Pin_35) (type passive))
        (pin (num 36) (name Pin_36) (type passive))
        (pin (num 37) (name Pin_37) (type passive))
        (pin (num 38) (name Pin_38) (type passive))
        (pin (num 39) (name Pin_39) (type passive))
        (pin (num 40) (name Pin_40) (type passive))))
    (libpart (lib Device) (part C)
      (description "Unpolarized capacitor")
      (docs ~)
      (footprints
        (fp C_*))
      (fields
        (field (name Reference) C)
        (field (name Value) C))
      (pins
        (pin (num 1) (name ~) (type passive))
        (pin (num 2) (name ~) (type passive))))
    (libpart (lib Device) (part LED)
      (description "Light emitting diode")
      (docs ~)
      (footprints
        (fp LED*)
        (fp LED_SMD:*)
        (fp LED_THT:*))
      (fields
        (field (name Reference) D)
        (field (name Value) LED))
      (pins
        (pin (num 1) (name K) (type passive))
        (pin (num 2) (name A) (type passive))))
    (libpart (lib Device) (part R)
      (description Resistor)
      (docs ~)
      (footprints
        (fp R_*))
      (fields
        (field (name Reference) R)
        (field (name Value) R))
      (pins
        (pin (num 1) (name ~) (type passive))
        (pin (num 2) (name ~) (type passive))))
    (libpart (lib Device) (part Rotary_Encoder_Switch)
      (description "Rotary encoder, dual channel, incremental quadrate outputs, with switch")
      (docs ~)
      (footprints
        (fp RotaryEncoder*Switch*))
      (fields
        (field (name Reference) SW)
        (field (name Value) Rotary_Encoder_Switch))
      (pins
        (pin (num A) (name A) (type passive))
        (pin (num B) (name B) (type passive))
        (pin (num C) (name C) (type passive))
        (pin (num S1) (name S1) (type passive))
        (pin (num S2) (name S2) (type passive))))
    (libpart (lib Interface_Expansion) (part MCP23S17_SP)
      (description "16-bit I/O expander, SPI, interrupts, w pull-ups, SPDIP-28")
      (docs http://ww1.microchip.com/downloads/en/DeviceDoc/20001952C.pdf)
      (footprints
        (fp DIP*W7.62mm*))
      (fields
        (field (name Reference) U)
        (field (name Value) MCP23S17_SP)
        (field (name Footprint) Package_DIP:DIP-28_W7.62mm))
      (pins
        (pin (num 1) (name GPB0) (type BiDi))
        (pin (num 2) (name GPB1) (type BiDi))
        (pin (num 3) (name GPB2) (type BiDi))
        (pin (num 4) (name GPB3) (type BiDi))
        (pin (num 5) (name GPB4) (type BiDi))
        (pin (num 6) (name GPB5) (type BiDi))
        (pin (num 7) (name GPB6) (type BiDi))
        (pin (num 8) (name GPB7) (type BiDi))
        (pin (num 9) (name VDD) (type power_in))
        (pin (num 10) (name VSS) (type power_in))
        (pin (num 11) (name ~CS~) (type input))
        (pin (num 12) (name SCK) (type input))
        (pin (num 13) (name SI) (type input))
        (pin (num 14) (name SO) (type output))
        (pin (num 15) (name A0) (type input))
        (pin (num 16) (name A1) (type input))
        (pin (num 17) (name A2) (type input))
        (pin (num 18) (name ~RESET~) (type input))
        (pin (num 19) (name INTB) (type 3state))
        (pin (num 20) (name INTA) (type 3state))
        (pin (num 21) (name GPA0) (type BiDi))
        (pin (num 22) (name GPA1) (type BiDi))
        (pin (num 23) (name GPA2) (type BiDi))
        (pin (num 24) (name GPA3) (type BiDi))
        (pin (num 25) (name GPA4) (type BiDi))
        (pin (num 26) (name GPA5) (type BiDi))
        (pin (num 27) (name GPA6) (type BiDi))
        (pin (num 28) (name GPA7) (type BiDi))))
    (libpart (lib Mechanical) (part MountingHole)
      (description "Mounting Hole without connection")
      (docs ~)
      (footprints
        (fp MountingHole*))
      (fields
        (field (name Reference) H)
        (field (name Value) MountingHole)))
    (libpart (lib Switch) (part SW_Push)
      (description "Push button switch, generic, two pins")
      (fields
        (field (name Reference) SW)
        (field (name Value) SW_Push))
      (pins
        (pin (num 1) (name 1) (type passive))
        (pin (num 2) (name 2) (type passive))))
    (libpart (lib Switch) (part SW_SPST)
      (description "Single Pole Single Throw (SPST) switch")
      (fields
        (field (name Reference) SW)
        (field (name Value) SW_SPST))
      (pins
        (pin (num 1) (name A) (type passive))
        (pin (num 2) (name B) (type passive))))
    (libpart (lib chordboard-components) (part MAX7219)
      (footprints
        (fp *SO*24*))
      (fields
        (field (name Reference) IC)
        (field (name Value) MAX7219)
        (field (name Footprint) Housings_DIP:DIP-28_W7.62mm)
        (field (name Datasheet) https://datasheets.maximintegrated.com/en/ds/MAX7219-MAX7221.pdf))
      (pins
        (pin (num 1) (name DIN) (type input))
        (pin (num 2) (name DIG_0) (type input))
        (pin (num 3) (name DIG_4) (type input))
        (pin (num 4) (name GND) (type input))
        (pin (num 5) (name DIG_6) (type input))
        (pin (num 6) (name DIG_2) (type input))
        (pin (num 7) (name DIG_3) (type input))
        (pin (num 8) (name DIG_7) (type input))
        (pin (num 9) (name GND) (type input))
        (pin (num 10) (name DIG_5) (type input))
        (pin (num 11) (name DIG_1) (type input))
        (pin (num 12) (name "LOAD(~CS~)") (type input))
        (pin (num 13) (name CLK) (type input))
        (pin (num 14) (name SEG_A) (type output))
        (pin (num 15) (name SEG_F) (type output))
        (pin (num 16) (name SEG_B) (type output))
        (pin (num 17) (name SEG_G) (type output))
        (pin (num 18) (name ISET) (type input))
        (pin (num 19) (name VCC) (type input))
        (pin (num 20) (name SEG_C) (type output))
        (pin (num 21) (name SEG_E) (type output))
        (pin (num 22) (name SEG_DP) (type output))
        (pin (num 23) (name SEG_D) (type output))
        (pin (num 24) (name DOUT) (type output)))))
  (libraries
    (library (logical Connector_Generic)
      (uri /home/afshar/src/kicad/kicad-symbols-master/Connector_Generic.lib))
    (library (logical Device)
      (uri /home/afshar/src/kicad/kicad-symbols-master/Device.lib))
    (library (logical Interface_Expansion)
      (uri /home/afshar/src/kicad/kicad-symbols-master/Interface_Expansion.lib))
    (library (logical Mechanical)
      (uri /home/afshar/src/kicad/kicad-symbols-master/Mechanical.lib))
    (library (logical Switch)
      (uri /home/afshar/src/kicad/kicad-symbols-master/Switch.lib))
    (library (logical chordboard-components)
      (uri /home/afshar/src/chordboard/hard/chordboard-kicad-libs/chordboard-components.lib)))
  (nets
    (net (code 1) (name GND)
      (node (ref IO5) (pin 17))
      (node (ref IO5) (pin 15))
      (node (ref IO5) (pin 16))
      (node (ref SW68) (pin 1))
      (node (ref SW67) (pin 1))
      (node (ref SW66) (pin 1))
      (node (ref CBIO1) (pin 1))
      (node (ref RE16) (pin S2))
      (node (ref RE16) (pin C))
      (node (ref RE15) (pin S2))
      (node (ref RE15) (pin C))
      (node (ref RE14) (pin S2))
      (node (ref IO5) (pin 10))
      (node (ref CD8) (pin 2))
      (node (ref RE8) (pin C))
      (node (ref CD5) (pin 2))
      (node (ref C34) (pin 2))
      (node (ref C35) (pin 2))
      (node (ref C32) (pin 2))
      (node (ref SW65) (pin 1))
      (node (ref IO7) (pin 17))
      (node (ref IO7) (pin 15))
      (node (ref CD1) (pin 2))
      (node (ref IO7) (pin 10))
      (node (ref IO4) (pin 15))
      (node (ref IO4) (pin 10))
      (node (ref CD3) (pin 2))
      (node (ref IO2) (pin 16))
      (node (ref IO2) (pin 15))
      (node (ref CD4) (pin 2))
      (node (ref RE12) (pin S2))
      (node (ref SW21) (pin 2))
      (node (ref SW22) (pin 2))
      (node (ref SW23) (pin 2))
      (node (ref RE11) (pin C))
      (node (ref RE13) (pin S2))
      (node (ref RE13) (pin C))
      (node (ref SW24) (pin 2))
      (node (ref RE12) (pin C))
      (node (ref SW17) (pin 2))
      (node (ref RE11) (pin S2))
      (node (ref RE14) (pin C))
      (node (ref RE10) (pin S2))
      (node (ref RE10) (pin C))
      (node (ref RE9) (pin S2))
      (node (ref RE9) (pin C))
      (node (ref RE8) (pin S2))
      (node (ref SW18) (pin 2))
      (node (ref SW19) (pin 2))
      (node (ref SW20) (pin 2))
      (node (ref C33) (pin 2))
      (node (ref SW48) (pin 2))
      (node (ref SW62) (pin 2))
      (node (ref RE2) (pin S2))
      (node (ref SW40) (pin 2))
      (node (ref SW41) (pin 2))
      (node (ref SW42) (pin 2))
      (node (ref SW43) (pin 2))
      (node (ref SW44) (pin 2))
      (node (ref SW45) (pin 2))
      (node (ref SW46) (pin 2))
      (node (ref RE3) (pin C))
      (node (ref SW49) (pin 2))
      (node (ref SW50) (pin 2))
      (node (ref SW51) (pin 2))
      (node (ref SW52) (pin 2))
      (node (ref J1) (pin 8))
      (node (ref RE5) (pin S2))
      (node (ref RE5) (pin C))
      (node (ref SW58) (pin 2))
      (node (ref RE7) (pin S2))
      (node (ref SW59) (pin 2))
      (node (ref RE7) (pin C))
      (node (ref SW60) (pin 2))
      (node (ref RE6) (pin S2))
      (node (ref RE6) (pin C))
      (node (ref SW61) (pin 2))
      (node (ref SW53) (pin 2))
      (node (ref SW63) (pin 2))
      (node (ref SW64) (pin 2))
      (node (ref RE4) (pin S2))
      (node (ref CD7) (pin 2))
      (node (ref RE4) (pin C))
      (node (ref RE3) (pin S2))
      (node (ref J4) (pin 5))
      (node (ref J3) (pin 5))
      (node (ref IO1) (pin 17))
      (node (ref IC1) (pin 4))
      (node (ref IC1) (pin 9))
      (node (ref SW54) (pin 2))
      (node (ref SW47) (pin 2))
      (node (ref C4) (pin 2))
      (node (ref C3) (pin 2))
      (node (ref IO1) (pin 10))
      (node (ref IO1) (pin 15))
      (node (ref IO1) (pin 16))
      (node (ref C26) (pin 2))
      (node (ref IO6) (pin 10))
      (node (ref C37) (pin 2))
      (node (ref C27) (pin 2))
      (node (ref IO6) (pin 15))
      (node (ref CD6) (pin 2))
      (node (ref C36) (pin 2))
      (node (ref C28) (pin 2))
      (node (ref C29) (pin 2))
      (node (ref RE1) (pin S2))
      (node (ref SW55) (pin 2))
      (node (ref RE1) (pin C))
      (node (ref SW56) (pin 2))
      (node (ref RE2) (pin C))
      (node (ref SW57) (pin 2))
      (node (ref C20) (pin 2))
      (node (ref IO6) (pin 16))
      (node (ref C21) (pin 2))
      (node (ref C30) (pin 2))
      (node (ref C31) (pin 2))
      (node (ref C18) (pin 2))
      (node (ref SW30) (pin 2))
      (node (ref C19) (pin 2))
      (node (ref SW31) (pin 2))
      (node (ref C16) (pin 2))
      (node (ref C17) (pin 2))
      (node (ref SW33) (pin 2))
      (node (ref C14) (pin 2))
      (node (ref SW26) (pin 2))
      (node (ref C15) (pin 2))
      (node (ref SW27) (pin 2))
      (node (ref C6) (pin 2))
      (node (ref C12) (pin 2))
      (node (ref SW28) (pin 2))
      (node (ref C13) (pin 2))
      (node (ref SW29) (pin 2))
      (node (ref C8) (pin 2))
      (node (ref SW16) (pin 2))
      (node (ref C9) (pin 2))
      (node (ref SW15) (pin 2))
      (node (ref IO3) (pin 10))
      (node (ref C5) (pin 2))
      (node (ref SW34) (pin 2))
      (node (ref C7) (pin 2))
      (node (ref SW35) (pin 2))
      (node (ref C2) (pin 2))
      (node (ref SW37) (pin 2))
      (node (ref SW38) (pin 2))
      (node (ref SW39) (pin 2))
      (node (ref SW32) (pin 2))
      (node (ref SW10) (pin 2))
      (node (ref SW11) (pin 2))
      (node (ref C10) (pin 2))
      (node (ref SW12) (pin 2))
      (node (ref C11) (pin 2))
      (node (ref SW13) (pin 2))
      (node (ref SW14) (pin 2))
      (node (ref SW1) (pin 2))
      (node (ref SW3) (pin 2))
      (node (ref SW4) (pin 2))
      (node (ref SW5) (pin 2))
      (node (ref SW6) (pin 2))
      (node (ref SW7) (pin 2))
      (node (ref SW8) (pin 2))
      (node (ref SW9) (pin 2))
      (node (ref SW2) (pin 2))
      (node (ref SW25) (pin 2))
      (node (ref SW36) (pin 2))
      (node (ref CD2) (pin 2))
      (node (ref IO2) (pin 10))
      (node (ref IO3) (pin 17))
      (node (ref IO3) (pin 15)))
    (net (code 2) (name +3V3)
      (node (ref CD8) (pin 1))
      (node (ref IO2) (pin 9))
      (node (ref IO3) (pin 9))
      (node (ref IO7) (pin 9))
      (node (ref CD2) (pin 1))
      (node (ref CD5) (pin 1))
      (node (ref IO6) (pin 18))
      (node (ref IO4) (pin 9))
      (node (ref IO6) (pin 17))
      (node (ref IO3) (pin 18))
      (node (ref IO3) (pin 16))
      (node (ref CBIO1) (pin 4))
      (node (ref CD6) (pin 1))
      (node (ref IO4) (pin 18))
      (node (ref IO4) (pin 17))
      (node (ref IO4) (pin 16))
      (node (ref IO6) (pin 9))
      (node (ref CD4) (pin 1))
      (node (ref IO5) (pin 18))
      (node (ref J1) (pin 7))
      (node (ref IO5) (pin 9))
      (node (ref IO7) (pin 16))
      (node (ref IO1) (pin 9))
      (node (ref J4) (pin 1))
      (node (ref IO2) (pin 18))
      (node (ref IO2) (pin 17))
      (node (ref IO1) (pin 18))
      (node (ref IO7) (pin 18))
      (node (ref CD1) (pin 1))
      (node (ref CD3) (pin 1)))
    (net (code 3) (name /IO_MOSI)
      (node (ref IO3) (pin 13))
      (node (ref CBIO1) (pin 5))
      (node (ref IO2) (pin 13))
      (node (ref IO5) (pin 13))
      (node (ref IO1) (pin 13))
      (node (ref IO4) (pin 13))
      (node (ref IO7) (pin 13))
      (node (ref IO6) (pin 13))
      (node (ref J1) (pin 1)))
    (net (code 4) (name /IO_SCK)
      (node (ref IO2) (pin 12))
      (node (ref IO6) (pin 12))
      (node (ref IO1) (pin 12))
      (node (ref IO4) (pin 12))
      (node (ref IO3) (pin 12))
      (node (ref IO7) (pin 12))
      (node (ref IO5) (pin 12))
      (node (ref CBIO1) (pin 7))
      (node (ref J1) (pin 2)))
    (net (code 5) (name /IO_SS1)
      (node (ref IO2) (pin 11))
      (node (ref IO4) (pin 11))
      (node (ref IO3) (pin 11))
      (node (ref IO1) (pin 11))
      (node (ref CBIO1) (pin 6)))
    (net (code 6) (name "Net-(IO3-Pad1)")
      (node (ref IO3) (pin 1))
      (node (ref SW40) (pin 1)))
    (net (code 7) (name /IO_MISO)
      (node (ref IO3) (pin 14))
      (node (ref IO1) (pin 14))
      (node (ref IO4) (pin 14))
      (node (ref IO2) (pin 14))
      (node (ref IO6) (pin 14))
      (node (ref CBIO1) (pin 3))
      (node (ref IO5) (pin 14))
      (node (ref IO7) (pin 14)))
    (net (code 8) (name "Net-(IO3-Pad28)")
      (node (ref IO3) (pin 28))
      (node (ref SW33) (pin 1)))
    (net (code 9) (name "Net-(IO3-Pad8)")
      (node (ref SW45) (pin 1))
      (node (ref IO3) (pin 8)))
    (net (code 10) (name "Net-(IO3-Pad7)")
      (node (ref SW46) (pin 1))
      (node (ref IO3) (pin 7)))
    (net (code 11) (name "Net-(IO3-Pad6)")
      (node (ref IO3) (pin 6))
      (node (ref SW47) (pin 1)))
    (net (code 12) (name "Net-(IO3-Pad5)")
      (node (ref IO3) (pin 5))
      (node (ref SW48) (pin 1)))
    (net (code 13) (name "Net-(IO3-Pad4)")
      (node (ref IO3) (pin 4))
      (node (ref SW37) (pin 1)))
    (net (code 14) (name "Net-(IO3-Pad3)")
      (node (ref IO3) (pin 3))
      (node (ref SW38) (pin 1)))
    (net (code 15) (name "Net-(IO3-Pad27)")
      (node (ref IO3) (pin 27))
      (node (ref SW34) (pin 1)))
    (net (code 16) (name "Net-(IO3-Pad26)")
      (node (ref SW35) (pin 1))
      (node (ref IO3) (pin 26)))
    (net (code 17) (name "Net-(IO3-Pad25)")
      (node (ref SW36) (pin 1))
      (node (ref IO3) (pin 25)))
    (net (code 18) (name "Net-(IO3-Pad24)")
      (node (ref SW41) (pin 1))
      (node (ref IO3) (pin 24)))
    (net (code 19) (name "Net-(IO3-Pad23)")
      (node (ref SW42) (pin 1))
      (node (ref IO3) (pin 23)))
    (net (code 20) (name "Net-(IO3-Pad22)")
      (node (ref SW43) (pin 1))
      (node (ref IO3) (pin 22)))
    (net (code 21) (name "Net-(IO3-Pad21)")
      (node (ref IO3) (pin 21))
      (node (ref SW44) (pin 1)))
    (net (code 22) (name "Net-(IO3-Pad20)")
      (node (ref IO3) (pin 20)))
    (net (code 23) (name "Net-(IO3-Pad2)")
      (node (ref SW39) (pin 1))
      (node (ref IO3) (pin 2)))
    (net (code 24) (name "Net-(IO3-Pad19)")
      (node (ref IO3) (pin 19)))
    (net (code 25) (name "Net-(IO2-Pad1)")
      (node (ref SW24) (pin 1))
      (node (ref IO2) (pin 1)))
    (net (code 26) (name "Net-(IO2-Pad27)")
      (node (ref IO2) (pin 27))
      (node (ref SW18) (pin 1)))
    (net (code 27) (name "Net-(IO2-Pad8)")
      (node (ref SW29) (pin 1))
      (node (ref IO2) (pin 8)))
    (net (code 28) (name "Net-(IO2-Pad7)")
      (node (ref SW30) (pin 1))
      (node (ref IO2) (pin 7)))
    (net (code 29) (name "Net-(IO2-Pad6)")
      (node (ref SW31) (pin 1))
      (node (ref IO2) (pin 6)))
    (net (code 30) (name "Net-(IO2-Pad5)")
      (node (ref SW32) (pin 1))
      (node (ref IO2) (pin 5)))
    (net (code 31) (name "Net-(IO2-Pad4)")
      (node (ref IO2) (pin 4))
      (node (ref SW21) (pin 1)))
    (net (code 32) (name "Net-(IO2-Pad3)")
      (node (ref IO2) (pin 3))
      (node (ref SW22) (pin 1)))
    (net (code 33) (name "Net-(IO2-Pad28)")
      (node (ref SW17) (pin 1))
      (node (ref IO2) (pin 28)))
    (net (code 34) (name "Net-(IO2-Pad26)")
      (node (ref IO2) (pin 26))
      (node (ref SW19) (pin 1)))
    (net (code 35) (name "Net-(IO2-Pad25)")
      (node (ref IO2) (pin 25))
      (node (ref SW20) (pin 1)))
    (net (code 36) (name "Net-(IO2-Pad24)")
      (node (ref IO2) (pin 24))
      (node (ref SW25) (pin 1)))
    (net (code 37) (name "Net-(IO2-Pad23)")
      (node (ref IO2) (pin 23))
      (node (ref SW26) (pin 1)))
    (net (code 38) (name "Net-(IO2-Pad22)")
      (node (ref SW27) (pin 1))
      (node (ref IO2) (pin 22)))
    (net (code 39) (name "Net-(IO2-Pad21)")
      (node (ref SW28) (pin 1))
      (node (ref IO2) (pin 21)))
    (net (code 40) (name "Net-(IO2-Pad20)")
      (node (ref IO2) (pin 20)))
    (net (code 41) (name "Net-(IO2-Pad2)")
      (node (ref IO2) (pin 2))
      (node (ref SW23) (pin 1)))
    (net (code 42) (name "Net-(IO2-Pad19)")
      (node (ref IO2) (pin 19)))
    (net (code 43) (name "Net-(IO4-Pad20)")
      (node (ref IO4) (pin 20)))
    (net (code 44) (name "Net-(IO4-Pad2)")
      (node (ref SW55) (pin 1))
      (node (ref IO4) (pin 2)))
    (net (code 45) (name "Net-(IO4-Pad19)")
      (node (ref IO4) (pin 19)))
    (net (code 46) (name "Net-(IO4-Pad1)")
      (node (ref IO4) (pin 1))
      (node (ref SW56) (pin 1)))
    (net (code 47) (name "Net-(IO4-Pad21)")
      (node (ref IO4) (pin 21))
      (node (ref SW60) (pin 1)))
    (net (code 48) (name "Net-(IO4-Pad8)")
      (node (ref IO4) (pin 8))
      (node (ref SW61) (pin 1)))
    (net (code 49) (name "Net-(IO4-Pad7)")
      (node (ref SW62) (pin 1))
      (node (ref IO4) (pin 7)))
    (net (code 50) (name "Net-(IO4-Pad6)")
      (node (ref IO4) (pin 6))
      (node (ref SW63) (pin 1)))
    (net (code 51) (name "Net-(IO4-Pad5)")
      (node (ref IO4) (pin 5))
      (node (ref SW64) (pin 1)))
    (net (code 52) (name "Net-(IO4-Pad4)")
      (node (ref SW53) (pin 1))
      (node (ref IO4) (pin 4)))
    (net (code 53) (name "Net-(IO4-Pad3)")
      (node (ref IO4) (pin 3))
      (node (ref SW54) (pin 1)))
    (net (code 54) (name "Net-(IO4-Pad28)")
      (node (ref IO4) (pin 28))
      (node (ref SW49) (pin 1)))
    (net (code 55) (name "Net-(IO4-Pad27)")
      (node (ref IO4) (pin 27))
      (node (ref SW50) (pin 1)))
    (net (code 56) (name "Net-(IO4-Pad26)")
      (node (ref SW51) (pin 1))
      (node (ref IO4) (pin 26)))
    (net (code 57) (name "Net-(IO4-Pad25)")
      (node (ref SW52) (pin 1))
      (node (ref IO4) (pin 25)))
    (net (code 58) (name "Net-(IO4-Pad24)")
      (node (ref IO4) (pin 24))
      (node (ref SW57) (pin 1)))
    (net (code 59) (name "Net-(IO4-Pad23)")
      (node (ref SW58) (pin 1))
      (node (ref IO4) (pin 23)))
    (net (code 60) (name "Net-(IO4-Pad22)")
      (node (ref IO4) (pin 22))
      (node (ref SW59) (pin 1)))
    (net (code 61) (name "Net-(CBIO1-Pad39)")
      (node (ref CBIO1) (pin 39)))
    (net (code 62) (name /IO_DC)
      (node (ref CBIO1) (pin 9))
      (node (ref J1) (pin 3)))
    (net (code 63) (name "Net-(CBIO1-Pad40)")
      (node (ref CBIO1) (pin 40)))
    (net (code 64) (name "Net-(CBIO1-Pad38)")
      (node (ref CBIO1) (pin 38)))
    (net (code 65) (name "Net-(CBIO1-Pad37)")
      (node (ref CBIO1) (pin 37)))
    (net (code 66) (name "Net-(CBIO1-Pad36)")
      (node (ref CBIO1) (pin 36)))
    (net (code 67) (name "Net-(CBIO1-Pad35)")
      (node (ref CBIO1) (pin 35)))
    (net (code 68) (name "Net-(CBIO1-Pad34)")
      (node (ref CBIO1) (pin 34)))
    (net (code 69) (name "Net-(CBIO1-Pad33)")
      (node (ref CBIO1) (pin 33)))
    (net (code 70) (name "Net-(CBIO1-Pad32)")
      (node (ref CBIO1) (pin 32)))
    (net (code 71) (name "Net-(CBIO1-Pad31)")
      (node (ref CBIO1) (pin 31)))
    (net (code 72) (name "Net-(CBIO1-Pad30)")
      (node (ref CBIO1) (pin 30)))
    (net (code 73) (name "Net-(CBIO1-Pad29)")
      (node (ref CBIO1) (pin 29)))
    (net (code 74) (name "Net-(CBIO1-Pad28)")
      (node (ref CBIO1) (pin 28)))
    (net (code 75) (name "Net-(CBIO1-Pad27)")
      (node (ref CBIO1) (pin 27)))
    (net (code 76) (name "Net-(CBIO1-Pad26)")
      (node (ref CBIO1) (pin 26)))
    (net (code 77) (name "Net-(CBIO1-Pad25)")
      (node (ref CBIO1) (pin 25)))
    (net (code 78) (name /RE14B)
      (node (ref RE14) (pin B))
      (node (ref C33) (pin 1))
      (node (ref IO6) (pin 26)))
    (net (code 79) (name /RE13S)
      (node (ref IO7) (pin 25))
      (node (ref RE13) (pin S1)))
    (net (code 80) (name /RE13B)
      (node (ref IO6) (pin 25))
      (node (ref RE13) (pin B))
      (node (ref C31) (pin 1)))
    (net (code 81) (name /RE12S)
      (node (ref RE12) (pin S1))
      (node (ref IO7) (pin 24)))
    (net (code 82) (name /RE12B)
      (node (ref RE12) (pin B))
      (node (ref IO6) (pin 24))
      (node (ref C29) (pin 1)))
    (net (code 83) (name /RE11S)
      (node (ref RE11) (pin S1))
      (node (ref IO7) (pin 23)))
    (net (code 84) (name /RE10S)
      (node (ref IO7) (pin 22))
      (node (ref RE10) (pin S1)))
    (net (code 85) (name /RE10B)
      (node (ref C21) (pin 1))
      (node (ref IO6) (pin 22))
      (node (ref RE10) (pin B)))
    (net (code 86) (name /RE9S)
      (node (ref IO7) (pin 21))
      (node (ref RE9) (pin S1)))
    (net (code 87) (name /RE9B)
      (node (ref C19) (pin 1))
      (node (ref IO6) (pin 21))
      (node (ref RE9) (pin B)))
    (net (code 88) (name /RE8S)
      (node (ref IO7) (pin 8))
      (node (ref RE8) (pin S1)))
    (net (code 89) (name /IO_RST)
      (node (ref J1) (pin 4))
      (node (ref CBIO1) (pin 11)))
    (net (code 90) (name "Net-(CBIO1-Pad24)")
      (node (ref CBIO1) (pin 24)))
    (net (code 91) (name "Net-(CBIO1-Pad23)")
      (node (ref CBIO1) (pin 23)))
    (net (code 92) (name "Net-(CBIO1-Pad22)")
      (node (ref CBIO1) (pin 22)))
    (net (code 93) (name "Net-(CBIO1-Pad21)")
      (node (ref CBIO1) (pin 21)))
    (net (code 94) (name "Net-(CBIO1-Pad20)")
      (node (ref CBIO1) (pin 20)))
    (net (code 95) (name "Net-(CBIO1-Pad19)")
      (node (ref CBIO1) (pin 19)))
    (net (code 96) (name "Net-(CBIO1-Pad18)")
      (node (ref CBIO1) (pin 18)))
    (net (code 97) (name "Net-(CBIO1-Pad17)")
      (node (ref CBIO1) (pin 17)))
    (net (code 98) (name /LED_CS)
      (node (ref IC1) (pin 12))
      (node (ref J3) (pin 4))
      (node (ref CBIO1) (pin 16)))
    (net (code 99) (name "Net-(CBIO1-Pad15)")
      (node (ref CBIO1) (pin 15)))
    (net (code 100) (name /LED_CLK)
      (node (ref J3) (pin 3))
      (node (ref CBIO1) (pin 14))
      (node (ref IC1) (pin 13)))
    (net (code 101) (name /IO_CS)
      (node (ref CBIO1) (pin 13))
      (node (ref J1) (pin 5)))
    (net (code 102) (name /LED_DIN)
      (node (ref J3) (pin 2))
      (node (ref IC1) (pin 1))
      (node (ref CBIO1) (pin 12)))
    (net (code 103) (name /IO_SS3)
      (node (ref CBIO1) (pin 10)))
    (net (code 104) (name /RE16S)
      (node (ref RE16) (pin S1))
      (node (ref IO7) (pin 28)))
    (net (code 105) (name /RE16B)
      (node (ref RE16) (pin B))
      (node (ref C37) (pin 1))
      (node (ref IO6) (pin 28)))
    (net (code 106) (name /RE16A)
      (node (ref IO6) (pin 8))
      (node (ref C36) (pin 1))
      (node (ref RE16) (pin A)))
    (net (code 107) (name /RE15S)
      (node (ref IO7) (pin 27))
      (node (ref RE15) (pin S1)))
    (net (code 108) (name /RE14S)
      (node (ref IO7) (pin 26))
      (node (ref RE14) (pin S1)))
    (net (code 109) (name /CS3)
      (node (ref SW67) (pin 2)))
    (net (code 110) (name /CS2)
      (node (ref SW66) (pin 2)))
    (net (code 111) (name /CS1)
      (node (ref SW65) (pin 2)))
    (net (code 112) (name /CS4)
      (node (ref SW68) (pin 2)))
    (net (code 113) (name "Net-(IO7-Pad20)")
      (node (ref IO7) (pin 20)))
    (net (code 114) (name "Net-(IO7-Pad19)")
      (node (ref IO7) (pin 19)))
    (net (code 115) (name /IO_SS2)
      (node (ref IO6) (pin 11))
      (node (ref IO5) (pin 11))
      (node (ref CBIO1) (pin 8))
      (node (ref IO7) (pin 11)))
    (net (code 116) (name /RE15A)
      (node (ref C34) (pin 1))
      (node (ref IO6) (pin 7))
      (node (ref RE15) (pin A)))
    (net (code 117) (name /RE15B)
      (node (ref C35) (pin 1))
      (node (ref IO6) (pin 27))
      (node (ref RE15) (pin B)))
    (net (code 118) (name /RE11B)
      (node (ref RE11) (pin B))
      (node (ref C27) (pin 1))
      (node (ref IO6) (pin 23)))
    (net (code 119) (name /RE1S)
      (node (ref RE1) (pin S1))
      (node (ref IO7) (pin 1)))
    (net (code 120) (name +5V)
      (node (ref J3) (pin 1))
      (node (ref IC1) (pin 19))
      (node (ref CBIO1) (pin 2))
      (node (ref R1) (pin 2))
      (node (ref CD7) (pin 1)))
    (net (code 121) (name /RE7S)
      (node (ref RE7) (pin S1))
      (node (ref IO7) (pin 7)))
    (net (code 122) (name /RE6S)
      (node (ref RE6) (pin S1))
      (node (ref IO7) (pin 6)))
    (net (code 123) (name /RE5S)
      (node (ref IO7) (pin 5))
      (node (ref RE5) (pin S1)))
    (net (code 124) (name "Net-(J1-Pad6)")
      (node (ref J1) (pin 6)))
    (net (code 125) (name /RE4S)
      (node (ref RE4) (pin S1))
      (node (ref IO7) (pin 4)))
    (net (code 126) (name /RE3S)
      (node (ref IO7) (pin 3))
      (node (ref RE3) (pin S1)))
    (net (code 127) (name /RE2S)
      (node (ref RE2) (pin S1))
      (node (ref IO7) (pin 2)))
    (net (code 128) (name /X4)
      (node (ref D39) (pin 2))
      (node (ref D38) (pin 2))
      (node (ref D37) (pin 2))
      (node (ref D36) (pin 2))
      (node (ref D35) (pin 2))
      (node (ref D40) (pin 2))
      (node (ref D34) (pin 2))
      (node (ref IC1) (pin 23))
      (node (ref D33) (pin 2)))
    (net (code 129) (name /Y7)
      (node (ref D64) (pin 1))
      (node (ref D24) (pin 1))
      (node (ref D56) (pin 1))
      (node (ref D32) (pin 1))
      (node (ref D16) (pin 1))
      (node (ref IC1) (pin 8))
      (node (ref D40) (pin 1))
      (node (ref D8) (pin 1))
      (node (ref D48) (pin 1)))
    (net (code 130) (name /Y3)
      (node (ref D12) (pin 1))
      (node (ref IC1) (pin 7))
      (node (ref D20) (pin 1))
      (node (ref D52) (pin 1))
      (node (ref D4) (pin 1))
      (node (ref D60) (pin 1))
      (node (ref D28) (pin 1))
      (node (ref D44) (pin 1))
      (node (ref D36) (pin 1)))
    (net (code 131) (name /Y2)
      (node (ref IC1) (pin 6))
      (node (ref D11) (pin 1))
      (node (ref D59) (pin 1))
      (node (ref D35) (pin 1))
      (node (ref D3) (pin 1))
      (node (ref D51) (pin 1))
      (node (ref D27) (pin 1))
      (node (ref D43) (pin 1))
      (node (ref D19) (pin 1)))
    (net (code 132) (name /Y6)
      (node (ref D63) (pin 1))
      (node (ref D55) (pin 1))
      (node (ref D23) (pin 1))
      (node (ref D7) (pin 1))
      (node (ref D15) (pin 1))
      (node (ref IC1) (pin 5))
      (node (ref D31) (pin 1))
      (node (ref D47) (pin 1))
      (node (ref D39) (pin 1)))
    (net (code 133) (name /Y4)
      (node (ref IC1) (pin 3))
      (node (ref D5) (pin 1))
      (node (ref D13) (pin 1))
      (node (ref D53) (pin 1))
      (node (ref D29) (pin 1))
      (node (ref D61) (pin 1))
      (node (ref D37) (pin 1))
      (node (ref D45) (pin 1))
      (node (ref D21) (pin 1)))
    (net (code 134) (name "Net-(IC1-Pad24)")
      (node (ref IC1) (pin 24)))
    (net (code 135) (name /X0)
      (node (ref D8) (pin 2))
      (node (ref D1) (pin 2))
      (node (ref D3) (pin 2))
      (node (ref D7) (pin 2))
      (node (ref D2) (pin 2))
      (node (ref D6) (pin 2))
      (node (ref D5) (pin 2))
      (node (ref D4) (pin 2))
      (node (ref IC1) (pin 22)))
    (net (code 136) (name /X5)
      (node (ref D44) (pin 2))
      (node (ref D43) (pin 2))
      (node (ref D41) (pin 2))
      (node (ref IC1) (pin 21))
      (node (ref D48) (pin 2))
      (node (ref D42) (pin 2))
      (node (ref D45) (pin 2))
      (node (ref D46) (pin 2))
      (node (ref D47) (pin 2)))
    (net (code 137) (name /X3)
      (node (ref D29) (pin 2))
      (node (ref D25) (pin 2))
      (node (ref D26) (pin 2))
      (node (ref D27) (pin 2))
      (node (ref D28) (pin 2))
      (node (ref D30) (pin 2))
      (node (ref IC1) (pin 20))
      (node (ref D32) (pin 2))
      (node (ref D31) (pin 2)))
    (net (code 138) (name /Y0)
      (node (ref D57) (pin 1))
      (node (ref D25) (pin 1))
      (node (ref D17) (pin 1))
      (node (ref D1) (pin 1))
      (node (ref D41) (pin 1))
      (node (ref D9) (pin 1))
      (node (ref IC1) (pin 2))
      (node (ref D49) (pin 1))
      (node (ref D33) (pin 1)))
    (net (code 139) (name /X7)
      (node (ref D61) (pin 2))
      (node (ref IC1) (pin 17))
      (node (ref D57) (pin 2))
      (node (ref D58) (pin 2))
      (node (ref D59) (pin 2))
      (node (ref D60) (pin 2))
      (node (ref D62) (pin 2))
      (node (ref D63) (pin 2))
      (node (ref D64) (pin 2)))
    (net (code 140) (name /X2)
      (node (ref D24) (pin 2))
      (node (ref D23) (pin 2))
      (node (ref D17) (pin 2))
      (node (ref D18) (pin 2))
      (node (ref D19) (pin 2))
      (node (ref D20) (pin 2))
      (node (ref D21) (pin 2))
      (node (ref D22) (pin 2))
      (node (ref IC1) (pin 16)))
    (net (code 141) (name /X6)
      (node (ref D54) (pin 2))
      (node (ref D56) (pin 2))
      (node (ref D55) (pin 2))
      (node (ref D53) (pin 2))
      (node (ref D52) (pin 2))
      (node (ref D51) (pin 2))
      (node (ref IC1) (pin 15))
      (node (ref D50) (pin 2))
      (node (ref D49) (pin 2)))
    (net (code 142) (name /X1)
      (node (ref D16) (pin 2))
      (node (ref IC1) (pin 14))
      (node (ref D9) (pin 2))
      (node (ref D10) (pin 2))
      (node (ref D11) (pin 2))
      (node (ref D12) (pin 2))
      (node (ref D14) (pin 2))
      (node (ref D13) (pin 2))
      (node (ref D15) (pin 2)))
    (net (code 143) (name /Y1)
      (node (ref D50) (pin 1))
      (node (ref D2) (pin 1))
      (node (ref D26) (pin 1))
      (node (ref D42) (pin 1))
      (node (ref D34) (pin 1))
      (node (ref D58) (pin 1))
      (node (ref D18) (pin 1))
      (node (ref D10) (pin 1))
      (node (ref IC1) (pin 11)))
    (net (code 144) (name /Y5)
      (node (ref IC1) (pin 10))
      (node (ref D14) (pin 1))
      (node (ref D38) (pin 1))
      (node (ref D22) (pin 1))
      (node (ref D62) (pin 1))
      (node (ref D6) (pin 1))
      (node (ref D54) (pin 1))
      (node (ref D30) (pin 1))
      (node (ref D46) (pin 1)))
    (net (code 145) (name "Net-(IC1-Pad18)")
      (node (ref R1) (pin 1))
      (node (ref IC1) (pin 18)))
    (net (code 146) (name "Net-(J4-Pad4)")
      (node (ref J4) (pin 4)))
    (net (code 147) (name /SCL)
      (node (ref J4) (pin 3)))
    (net (code 148) (name /SDA)
      (node (ref J4) (pin 2)))
    (net (code 149) (name "Net-(IO1-Pad19)")
      (node (ref IO1) (pin 19)))
    (net (code 150) (name "Net-(IO1-Pad1)")
      (node (ref SW8) (pin 1))
      (node (ref IO1) (pin 1)))
    (net (code 151) (name "Net-(IO1-Pad2)")
      (node (ref IO1) (pin 2))
      (node (ref SW7) (pin 1)))
    (net (code 152) (name /RE14A)
      (node (ref IO6) (pin 6))
      (node (ref C32) (pin 1))
      (node (ref RE14) (pin A)))
    (net (code 153) (name /RE13A)
      (node (ref RE13) (pin A))
      (node (ref C30) (pin 1))
      (node (ref IO6) (pin 5)))
    (net (code 154) (name /RE12A)
      (node (ref RE12) (pin A))
      (node (ref IO6) (pin 4))
      (node (ref C28) (pin 1)))
    (net (code 155) (name /RE11A)
      (node (ref IO6) (pin 3))
      (node (ref C26) (pin 1))
      (node (ref RE11) (pin A)))
    (net (code 156) (name "Net-(IO6-Pad20)")
      (node (ref IO6) (pin 20)))
    (net (code 157) (name /RE10A)
      (node (ref RE10) (pin A))
      (node (ref IO6) (pin 2))
      (node (ref C20) (pin 1)))
    (net (code 158) (name "Net-(IO6-Pad19)")
      (node (ref IO6) (pin 19)))
    (net (code 159) (name /RE9A)
      (node (ref C18) (pin 1))
      (node (ref IO6) (pin 1))
      (node (ref RE9) (pin A)))
    (net (code 160) (name "Net-(IO1-Pad8)")
      (node (ref SW13) (pin 1))
      (node (ref IO1) (pin 8)))
    (net (code 161) (name "Net-(IO5-Pad19)")
      (node (ref IO5) (pin 19)))
    (net (code 162) (name /RE1A)
      (node (ref C3) (pin 1))
      (node (ref RE1) (pin A))
      (node (ref IO5) (pin 1)))
    (net (code 163) (name /RE2A)
      (node (ref IO5) (pin 2))
      (node (ref C2) (pin 1))
      (node (ref RE2) (pin A)))
    (net (code 164) (name "Net-(IO1-Pad7)")
      (node (ref SW14) (pin 1))
      (node (ref IO1) (pin 7)))
    (net (code 165) (name "Net-(IO1-Pad6)")
      (node (ref SW15) (pin 1))
      (node (ref IO1) (pin 6)))
    (net (code 166) (name "Net-(IO1-Pad5)")
      (node (ref IO1) (pin 5))
      (node (ref SW16) (pin 1)))
    (net (code 167) (name "Net-(IO1-Pad4)")
      (node (ref IO1) (pin 4))
      (node (ref SW5) (pin 1)))
    (net (code 168) (name "Net-(IO1-Pad3)")
      (node (ref SW6) (pin 1))
      (node (ref IO1) (pin 3)))
    (net (code 169) (name "Net-(IO1-Pad28)")
      (node (ref IO1) (pin 28))
      (node (ref SW1) (pin 1)))
    (net (code 170) (name "Net-(IO1-Pad27)")
      (node (ref IO1) (pin 27))
      (node (ref SW2) (pin 1)))
    (net (code 171) (name "Net-(IO1-Pad26)")
      (node (ref SW3) (pin 1))
      (node (ref IO1) (pin 26)))
    (net (code 172) (name "Net-(IO1-Pad25)")
      (node (ref IO1) (pin 25))
      (node (ref SW4) (pin 1)))
    (net (code 173) (name "Net-(IO1-Pad24)")
      (node (ref SW9) (pin 1))
      (node (ref IO1) (pin 24)))
    (net (code 174) (name "Net-(IO1-Pad23)")
      (node (ref SW10) (pin 1))
      (node (ref IO1) (pin 23)))
    (net (code 175) (name "Net-(IO1-Pad22)")
      (node (ref SW11) (pin 1))
      (node (ref IO1) (pin 22)))
    (net (code 176) (name "Net-(IO1-Pad21)")
      (node (ref SW12) (pin 1))
      (node (ref IO1) (pin 21)))
    (net (code 177) (name "Net-(IO1-Pad20)")
      (node (ref IO1) (pin 20)))
    (net (code 178) (name /RE7A)
      (node (ref C14) (pin 1))
      (node (ref IO5) (pin 7))
      (node (ref RE7) (pin A)))
    (net (code 179) (name /RE8A)
      (node (ref RE8) (pin A))
      (node (ref IO5) (pin 8))
      (node (ref C16) (pin 1)))
    (net (code 180) (name /RE6A)
      (node (ref RE6) (pin A))
      (node (ref C12) (pin 1))
      (node (ref IO5) (pin 6)))
    (net (code 181) (name /RE5A)
      (node (ref IO5) (pin 5))
      (node (ref RE5) (pin A))
      (node (ref C10) (pin 1)))
    (net (code 182) (name /RE4A)
      (node (ref RE4) (pin A))
      (node (ref IO5) (pin 4))
      (node (ref C8) (pin 1)))
    (net (code 183) (name /RE3A)
      (node (ref IO5) (pin 3))
      (node (ref C6) (pin 1))
      (node (ref RE3) (pin A)))
    (net (code 184) (name /RE8B)
      (node (ref IO5) (pin 28))
      (node (ref RE8) (pin B))
      (node (ref C17) (pin 1)))
    (net (code 185) (name /RE7B)
      (node (ref C15) (pin 1))
      (node (ref RE7) (pin B))
      (node (ref IO5) (pin 27)))
    (net (code 186) (name /RE6B)
      (node (ref IO5) (pin 26))
      (node (ref C13) (pin 1))
      (node (ref RE6) (pin B)))
    (net (code 187) (name /RE5B)
      (node (ref C11) (pin 1))
      (node (ref IO5) (pin 25))
      (node (ref RE5) (pin B)))
    (net (code 188) (name /RE4B)
      (node (ref RE4) (pin B))
      (node (ref IO5) (pin 24))
      (node (ref C9) (pin 1)))
    (net (code 189) (name /RE3B)
      (node (ref IO5) (pin 23))
      (node (ref RE3) (pin B))
      (node (ref C7) (pin 1)))
    (net (code 190) (name /RE2B)
      (node (ref RE2) (pin B))
      (node (ref C5) (pin 1))
      (node (ref IO5) (pin 22)))
    (net (code 191) (name /RE1B)
      (node (ref IO5) (pin 21))
      (node (ref RE1) (pin B))
      (node (ref C4) (pin 1)))
    (net (code 192) (name "Net-(IO5-Pad20)")
      (node (ref IO5) (pin 20)))))