EESchema Schematic File Version 4
LIBS:chordboard-cache
EELAYER 26 0
EELAYER END
$Descr A4 11693 8268
encoding utf-8
Sheet 2 2
Title ""
Date ""
Rev ""
Comp ""
Comment1 ""
Comment2 ""
Comment3 ""
Comment4 ""
$EndDescr
$Comp
L Device:C C?
U 1 1 68CFA0F9
P 2800 2350
F 0 "C?" H 2915 2396 50  0000 L CNN
F 1 "C" H 2915 2305 50  0000 L CNN
F 2 "Capacitor_THT:C_Disc_D3.0mm_W1.6mm_P2.50mm" H 2838 2200 50  0001 C CNN
F 3 "~" H 2800 2350 50  0001 C CNN
	1    2800 2350
	1    0    0    -1  
$EndComp
$Comp
L Device:C C?
U 1 1 68CFA100
P 2600 2350
F 0 "C?" H 2715 2396 50  0000 L CNN
F 1 "C" H 2715 2305 50  0000 L CNN
F 2 "Capacitor_THT:C_Disc_D3.0mm_W1.6mm_P2.50mm" H 2638 2200 50  0001 C CNN
F 3 "~" H 2600 2350 50  0001 C CNN
	1    2600 2350
	1    0    0    -1  
$EndComp
Wire Wire Line
	2600 2500 2600 2550
Wire Wire Line
	2600 2550 2700 2550
Wire Wire Line
	2800 2550 2800 2500
Wire Wire Line
	2700 2550 2700 2700
Connection ~ 2700 2550
Wire Wire Line
	2700 2550 2800 2550
$Comp
L power:GND #PWR?
U 1 1 68CFA10D
P 2700 2700
F 0 "#PWR?" H 2700 2450 50  0001 C CNN
F 1 "GND" H 2705 2527 50  0000 C CNN
F 2 "" H 2700 2700 50  0001 C CNN
F 3 "" H 2700 2700 50  0001 C CNN
	1    2700 2700
	1    0    0    -1  
$EndComp
Text Label 2600 2150 2    50   ~ 0
RE1A
Text Label 2800 2150 0    50   ~ 0
RE1B
Text Label 3250 2150 2    50   ~ 0
RE2A
Text Label 3450 2150 0    50   ~ 0
RE2B
Wire Wire Line
	2700 2150 2700 2550
Wire Wire Line
	2600 2150 2600 2200
Wire Wire Line
	2800 2150 2800 2200
$Comp
L Device:C C?
U 1 1 68CFA11A
P 3450 2350
F 0 "C?" H 3565 2396 50  0000 L CNN
F 1 "C" H 3565 2305 50  0000 L CNN
F 2 "Capacitor_THT:C_Disc_D3.0mm_W1.6mm_P2.50mm" H 3488 2200 50  0001 C CNN
F 3 "~" H 3450 2350 50  0001 C CNN
	1    3450 2350
	1    0    0    -1  
$EndComp
$Comp
L Device:C C?
U 1 1 68CFA121
P 3250 2350
F 0 "C?" H 3365 2396 50  0000 L CNN
F 1 "C" H 3365 2305 50  0000 L CNN
F 2 "Capacitor_THT:C_Disc_D3.0mm_W1.6mm_P2.50mm" H 3288 2200 50  0001 C CNN
F 3 "~" H 3250 2350 50  0001 C CNN
	1    3250 2350
	1    0    0    -1  
$EndComp
Wire Wire Line
	3250 2500 3250 2550
Wire Wire Line
	3250 2550 3350 2550
Wire Wire Line
	3450 2550 3450 2500
Wire Wire Line
	3350 2550 3350 2700
Connection ~ 3350 2550
Wire Wire Line
	3350 2550 3450 2550
$Comp
L power:GND #PWR?
U 1 1 68CFA12E
P 3350 2700
F 0 "#PWR?" H 3350 2450 50  0001 C CNN
F 1 "GND" H 3355 2527 50  0000 C CNN
F 2 "" H 3350 2700 50  0001 C CNN
F 3 "" H 3350 2700 50  0001 C CNN
	1    3350 2700
	1    0    0    -1  
$EndComp
Wire Wire Line
	3350 2150 3350 2550
Wire Wire Line
	3250 2150 3250 2200
Wire Wire Line
	3450 2150 3450 2200
$Comp
L Device:C C?
U 1 1 68CFA137
P 4100 2350
F 0 "C?" H 4215 2396 50  0000 L CNN
F 1 "C" H 4215 2305 50  0000 L CNN
F 2 "Capacitor_THT:C_Disc_D3.0mm_W1.6mm_P2.50mm" H 4138 2200 50  0001 C CNN
F 3 "~" H 4100 2350 50  0001 C CNN
	1    4100 2350
	1    0    0    -1  
$EndComp
$Comp
L Device:C C?
U 1 1 68CFA13E
P 3900 2350
F 0 "C?" H 4015 2396 50  0000 L CNN
F 1 "C" H 4015 2305 50  0000 L CNN
F 2 "Capacitor_THT:C_Disc_D3.0mm_W1.6mm_P2.50mm" H 3938 2200 50  0001 C CNN
F 3 "~" H 3900 2350 50  0001 C CNN
	1    3900 2350
	1    0    0    -1  
$EndComp
Wire Wire Line
	3900 2500 3900 2550
Wire Wire Line
	3900 2550 4000 2550
Wire Wire Line
	4100 2550 4100 2500
Wire Wire Line
	4000 2550 4000 2700
Connection ~ 4000 2550
Wire Wire Line
	4000 2550 4100 2550
$Comp
L power:GND #PWR?
U 1 1 68CFA14B
P 4000 2700
F 0 "#PWR?" H 4000 2450 50  0001 C CNN
F 1 "GND" H 4005 2527 50  0000 C CNN
F 2 "" H 4000 2700 50  0001 C CNN
F 3 "" H 4000 2700 50  0001 C CNN
	1    4000 2700
	1    0    0    -1  
$EndComp
Wire Wire Line
	4000 2150 4000 2550
Wire Wire Line
	3900 2150 3900 2200
Wire Wire Line
	4100 2150 4100 2200
$Comp
L Device:C C?
U 1 1 68CFA154
P 4750 2350
F 0 "C?" H 4865 2396 50  0000 L CNN
F 1 "C" H 4865 2305 50  0000 L CNN
F 2 "Capacitor_THT:C_Disc_D3.0mm_W1.6mm_P2.50mm" H 4788 2200 50  0001 C CNN
F 3 "~" H 4750 2350 50  0001 C CNN
	1    4750 2350
	1    0    0    -1  
$EndComp
$Comp
L Device:C C?
U 1 1 68CFA15B
P 4550 2350
F 0 "C?" H 4665 2396 50  0000 L CNN
F 1 "C" H 4665 2305 50  0000 L CNN
F 2 "Capacitor_THT:C_Disc_D3.0mm_W1.6mm_P2.50mm" H 4588 2200 50  0001 C CNN
F 3 "~" H 4550 2350 50  0001 C CNN
	1    4550 2350
	1    0    0    -1  
$EndComp
Wire Wire Line
	4550 2500 4550 2550
Wire Wire Line
	4550 2550 4650 2550
Wire Wire Line
	4750 2550 4750 2500
Wire Wire Line
	4650 2550 4650 2700
Connection ~ 4650 2550
Wire Wire Line
	4650 2550 4750 2550
$Comp
L power:GND #PWR?
U 1 1 68CFA168
P 4650 2700
F 0 "#PWR?" H 4650 2450 50  0001 C CNN
F 1 "GND" H 4655 2527 50  0000 C CNN
F 2 "" H 4650 2700 50  0001 C CNN
F 3 "" H 4650 2700 50  0001 C CNN
	1    4650 2700
	1    0    0    -1  
$EndComp
Wire Wire Line
	4650 2150 4650 2550
Wire Wire Line
	4550 2150 4550 2200
Wire Wire Line
	4750 2150 4750 2200
Text Label 3900 2150 2    50   ~ 0
RE3A
Text Label 4100 2150 0    50   ~ 0
RE3B
Text Label 4550 2150 2    50   ~ 0
RE4A
Text Label 4750 2150 0    50   ~ 0
RE4B
$Comp
L Device:Rotary_Encoder_Switch RE?
U 1 1 68CFA175
P 2700 1850
F 0 "RE?" V 2746 1620 50  0000 R CNN
F 1 "Rotary_Encoder_Switch" V 2655 1620 50  0000 R CNN
F 2 "Rotary_Encoder:RotaryEncoder_Alps_EC11E-Switch_Vertical_H20mm" H 2550 2010 50  0001 C CNN
F 3 "~" H 2700 2110 50  0001 C CNN
	1    2700 1850
	0    -1   -1   0   
$EndComp
$Comp
L Device:Rotary_Encoder_Switch RE?
U 1 1 68CFA17C
P 3350 1850
F 0 "RE?" V 3396 1620 50  0000 R CNN
F 1 "Rotary_Encoder_Switch" V 3305 1620 50  0000 R CNN
F 2 "Rotary_Encoder:RotaryEncoder_Alps_EC11E-Switch_Vertical_H20mm" H 3200 2010 50  0001 C CNN
F 3 "~" H 3350 2110 50  0001 C CNN
	1    3350 1850
	0    -1   -1   0   
$EndComp
$Comp
L Device:Rotary_Encoder_Switch RE?
U 1 1 68CFA183
P 4000 1850
F 0 "RE?" V 4046 1620 50  0000 R CNN
F 1 "Rotary_Encoder_Switch" V 3955 1620 50  0000 R CNN
F 2 "Rotary_Encoder:RotaryEncoder_Alps_EC11E-Switch_Vertical_H20mm" H 3850 2010 50  0001 C CNN
F 3 "~" H 4000 2110 50  0001 C CNN
	1    4000 1850
	0    -1   -1   0   
$EndComp
$Comp
L Device:Rotary_Encoder_Switch RE?
U 1 1 68CFA18A
P 4650 1850
F 0 "RE?" V 4696 1620 50  0000 R CNN
F 1 "Rotary_Encoder_Switch" V 4605 1620 50  0000 R CNN
F 2 "Rotary_Encoder:RotaryEncoder_Alps_EC11E-Switch_Vertical_H20mm" H 4500 2010 50  0001 C CNN
F 3 "~" H 4650 2110 50  0001 C CNN
	1    4650 1850
	0    -1   -1   0   
$EndComp
$Comp
L power:GND #PWR?
U 1 1 68CFA191
P 2800 1550
F 0 "#PWR?" H 2800 1300 50  0001 C CNN
F 1 "GND" H 2805 1377 50  0000 C CNN
F 2 "" H 2800 1550 50  0001 C CNN
F 3 "" H 2800 1550 50  0001 C CNN
	1    2800 1550
	-1   0    0    1   
$EndComp
Text Label 2600 1550 2    50   ~ 0
RE1S
Text Label 3250 1550 2    50   ~ 0
RE2S
Text Label 3900 1550 2    50   ~ 0
RE3S
Text Label 4550 1550 2    50   ~ 0
RE4S
$Comp
L power:GND #PWR?
U 1 1 68CFA19B
P 3450 1550
F 0 "#PWR?" H 3450 1300 50  0001 C CNN
F 1 "GND" H 3455 1377 50  0000 C CNN
F 2 "" H 3450 1550 50  0001 C CNN
F 3 "" H 3450 1550 50  0001 C CNN
	1    3450 1550
	-1   0    0    1   
$EndComp
$Comp
L power:GND #PWR?
U 1 1 68CFA1A1
P 4100 1550
F 0 "#PWR?" H 4100 1300 50  0001 C CNN
F 1 "GND" H 4105 1377 50  0000 C CNN
F 2 "" H 4100 1550 50  0001 C CNN
F 3 "" H 4100 1550 50  0001 C CNN
	1    4100 1550
	-1   0    0    1   
$EndComp
$Comp
L power:GND #PWR?
U 1 1 68CFA1A7
P 4750 1550
F 0 "#PWR?" H 4750 1300 50  0001 C CNN
F 1 "GND" H 4755 1377 50  0000 C CNN
F 2 "" H 4750 1550 50  0001 C CNN
F 3 "" H 4750 1550 50  0001 C CNN
	1    4750 1550
	-1   0    0    1   
$EndComp
$EndSCHEMATC
