EESchema Schematic File Version 2
LIBS:chordboard-components
LIBS:power
LIBS:device
LIBS:transistors
LIBS:conn
LIBS:linear
LIBS:regul
LIBS:74xx
LIBS:cmos4000
LIBS:adc-dac
LIBS:memory
LIBS:xilinx
LIBS:microcontrollers
LIBS:dsp
LIBS:microchip
LIBS:analog_switches
LIBS:motorola
LIBS:texas
LIBS:intel
LIBS:audio
LIBS:interface
LIBS:digital-audio
LIBS:philips
LIBS:display
LIBS:cypress
LIBS:siliconi
LIBS:opto
LIBS:atmel
LIBS:contrib
LIBS:valves
EELAYER 25 0
EELAYER END
$Descr A4 11693 8268
encoding utf-8
Sheet 1 1
Title ""
Date ""
Rev ""
Comp ""
Comment1 ""
Comment2 ""
Comment3 ""
Comment4 ""
$EndDescr
$Comp
L CHORDBOARD_IO CB1
U 1 1 5A803A71
P 2850 1600
F 0 "CB1" H 2500 350 60  0000 C CNN
F 1 "CHORDBOARD_IO" H 2850 2050 60  0000 C CNN
F 2 "chordboard-footprints:Chordboard_IO" H 2850 1600 60  0001 C CNN
F 3 "" H 2850 1600 60  0001 C CNN
	1    2850 1600
	1    0    0    -1  
$EndComp
Wire Wire Line
	3500 1300 3500 1000
Wire Wire Line
	2200 1300 2200 1000
$Comp
L +5V #PWR01
U 1 1 5A803D80
P 3500 1000
F 0 "#PWR01" H 3500 850 50  0001 C CNN
F 1 "+5V" H 3500 1140 50  0000 C CNN
F 2 "" H 3500 1000 50  0001 C CNN
F 3 "" H 3500 1000 50  0001 C CNN
	1    3500 1000
	1    0    0    -1  
$EndComp
$Comp
L +3.3V #PWR02
U 1 1 5A803D96
P 2200 1000
F 0 "#PWR02" H 2200 850 50  0001 C CNN
F 1 "+3.3V" H 2200 1140 50  0000 C CNN
F 2 "" H 2200 1000 50  0001 C CNN
F 3 "" H 2200 1000 50  0001 C CNN
	1    2200 1000
	1    0    0    -1  
$EndComp
Wire Wire Line
	2200 3000 2200 2700
Wire Wire Line
	3500 3000 3500 2700
$Comp
L GNDA #PWR03
U 1 1 5A803DB9
P 2200 3000
F 0 "#PWR03" H 2200 2750 50  0001 C CNN
F 1 "GNDA" H 2200 2850 50  0000 C CNN
F 2 "" H 2200 3000 50  0001 C CNN
F 3 "" H 2200 3000 50  0001 C CNN
	1    2200 3000
	1    0    0    -1  
$EndComp
$Comp
L GND #PWR04
U 1 1 5A803DCF
P 3500 3000
F 0 "#PWR04" H 3500 2750 50  0001 C CNN
F 1 "GND" H 3500 2850 50  0000 C CNN
F 2 "" H 3500 3000 50  0001 C CNN
F 3 "" H 3500 3000 50  0001 C CNN
	1    3500 3000
	1    0    0    -1  
$EndComp
$Comp
L GROVE_I2C J8
U 1 1 5A803DE5
P 5450 4150
F 0 "J8" H 5450 4400 50  0000 C CNN
F 1 "GROVE_I2C" V 5700 4150 50  0000 C CNN
F 2 "chordboard-footprints:GROVE_I2C_ANGLED" H 5450 4150 50  0001 C CNN
F 3 "" H 5450 4150 50  0001 C CNN
	1    5450 4150
	1    0    0    -1  
$EndComp
$Comp
L GROVE_I2C J7
U 1 1 5A803E24
P 5450 3650
F 0 "J7" H 5450 3900 50  0000 C CNN
F 1 "GROVE_I2C" V 5700 3650 50  0000 C CNN
F 2 "chordboard-footprints:GROVE_I2C_ANGLED" H 5450 3650 50  0001 C CNN
F 3 "" H 5450 3650 50  0001 C CNN
	1    5450 3650
	1    0    0    -1  
$EndComp
$Comp
L GROVE_I2C J6
U 1 1 5A803E67
P 5450 3150
F 0 "J6" H 5450 3400 50  0000 C CNN
F 1 "GROVE_I2C" V 5700 3150 50  0000 C CNN
F 2 "chordboard-footprints:GROVE_I2C_ANGLED" H 5450 3150 50  0001 C CNN
F 3 "" H 5450 3150 50  0001 C CNN
	1    5450 3150
	1    0    0    -1  
$EndComp
$Comp
L GROVE_I2C J5
U 1 1 5A803E9F
P 5450 2650
F 0 "J5" H 5450 2900 50  0000 C CNN
F 1 "GROVE_I2C" V 5700 2650 50  0000 C CNN
F 2 "chordboard-footprints:GROVE_I2C_ANGLED" H 5450 2650 50  0001 C CNN
F 3 "" H 5450 2650 50  0001 C CNN
	1    5450 2650
	1    0    0    -1  
$EndComp
Wire Wire Line
	5250 2700 4850 2700
Wire Wire Line
	4850 1900 4850 4200
$Comp
L +3.3V #PWR05
U 1 1 5A803EE0
P 4850 1900
F 0 "#PWR05" H 4850 1750 50  0001 C CNN
F 1 "+3.3V" H 4850 2040 50  0000 C CNN
F 2 "" H 4850 1900 50  0001 C CNN
F 3 "" H 4850 1900 50  0001 C CNN
	1    4850 1900
	1    0    0    -1  
$EndComp
Wire Wire Line
	4850 3200 5250 3200
Connection ~ 4850 2700
Wire Wire Line
	4850 3700 5250 3700
Connection ~ 4850 3200
Wire Wire Line
	4850 4200 5250 4200
Connection ~ 4850 3700
Wire Wire Line
	5250 2800 4750 2800
Wire Wire Line
	5250 3300 4750 3300
Wire Wire Line
	4750 3800 5250 3800
Wire Wire Line
	4750 4300 5250 4300
Wire Wire Line
	4750 2800 4750 4700
Connection ~ 4750 3300
Connection ~ 4750 3800
Connection ~ 4750 4300
$Comp
L GND #PWR06
U 1 1 5A8040AB
P 4750 4700
F 0 "#PWR06" H 4750 4450 50  0001 C CNN
F 1 "GND" H 4750 4550 50  0000 C CNN
F 2 "" H 4750 4700 50  0001 C CNN
F 3 "" H 4750 4700 50  0001 C CNN
	1    4750 4700
	1    0    0    -1  
$EndComp
Wire Wire Line
	3500 2600 5250 2600
Wire Wire Line
	3500 2500 5250 2500
Wire Wire Line
	5250 3100 4950 3100
Wire Wire Line
	5250 3000 5050 3000
Wire Wire Line
	4950 3600 5250 3600
Wire Wire Line
	5050 3500 5250 3500
Wire Wire Line
	4950 4100 5250 4100
Wire Wire Line
	5050 4000 5250 4000
Wire Wire Line
	4950 2600 4950 4100
Connection ~ 4950 3100
Connection ~ 4950 3600
Wire Wire Line
	5050 2500 5050 4000
Connection ~ 5050 3500
Connection ~ 5050 3000
Connection ~ 5050 2500
Connection ~ 4950 2600
$Comp
L GROVE_UART J2
U 1 1 5A80482D
P 1150 2650
F 0 "J2" H 1150 2900 50  0000 C CNN
F 1 "GROVE_UART" V 1400 2650 50  0000 C CNN
F 2 "chordboard-footprints:GROVE_I2C_ANGLED" H 1150 2650 50  0001 C CNN
F 3 "" H 1150 2650 50  0001 C CNN
	1    1150 2650
	-1   0    0    -1  
$EndComp
Wire Wire Line
	1450 2800 1350 2800
Wire Wire Line
	1450 2000 1450 3100
$Comp
L GND #PWR07
U 1 1 5A804CA6
P 1450 3100
F 0 "#PWR07" H 1450 2850 50  0001 C CNN
F 1 "GND" H 1450 2950 50  0000 C CNN
F 2 "" H 1450 3100 50  0001 C CNN
F 3 "" H 1450 3100 50  0001 C CNN
	1    1450 3100
	1    0    0    -1  
$EndComp
$Comp
L USB_A J1
U 1 1 5A804CE5
P 1000 1900
F 0 "J1" H 800 2350 50  0000 L CNN
F 1 "USB_A" H 800 2250 50  0000 L CNN
F 2 "Connectors:USB_A" H 1150 1850 50  0001 C CNN
F 3 "" H 1150 1850 50  0001 C CNN
	1    1000 1900
	1    0    0    1   
$EndComp
Wire Wire Line
	2200 1800 1300 1800
Wire Wire Line
	1300 1900 2200 1900
Wire Wire Line
	1300 2000 1450 2000
Connection ~ 1450 2800
Wire Wire Line
	1300 2100 1450 2100
Connection ~ 1450 2100
Wire Wire Line
	1300 1700 1450 1700
Wire Wire Line
	1450 1700 1450 1000
$Comp
L +5V #PWR08
U 1 1 5A805172
P 1450 1000
F 0 "#PWR08" H 1450 850 50  0001 C CNN
F 1 "+5V" H 1450 1140 50  0000 C CNN
F 2 "" H 1450 1000 50  0001 C CNN
F 3 "" H 1450 1000 50  0001 C CNN
	1    1450 1000
	1    0    0    -1  
$EndComp
$Comp
L SPST S1
U 1 1 5A80519B
P 1800 2200
F 0 "S1" H 1790 2285 60  0000 C CNN
F 1 "SPST" H 1800 2105 60  0000 C CNN
F 2 "Buttons_Switches_THT:SW_PUSH_6mm_h4.3mm" H 1800 2200 60  0001 C CNN
F 3 "" H 1800 2200 60  0001 C CNN
	1    1800 2200
	1    0    0    -1  
$EndComp
$Comp
L SPST S2
U 1 1 5A8051FC
P 1800 2300
F 0 "S2" H 1790 2385 60  0000 C CNN
F 1 "SPST" H 1800 2205 60  0000 C CNN
F 2 "Buttons_Switches_THT:SW_PUSH_6mm_h4.3mm" H 1800 2300 60  0001 C CNN
F 3 "" H 1800 2300 60  0001 C CNN
	1    1800 2300
	1    0    0    -1  
$EndComp
Wire Wire Line
	1950 2200 2200 2200
Wire Wire Line
	2200 2300 1950 2300
Wire Wire Line
	1650 2200 1450 2200
Connection ~ 1450 2200
Wire Wire Line
	1650 2300 1450 2300
Connection ~ 1450 2300
Wire Wire Line
	2200 2500 1350 2500
Wire Wire Line
	1350 2600 2200 2600
$Comp
L CONN_01X04 J3
U 1 1 5A805467
P 1950 1550
F 0 "J3" H 1950 1800 50  0000 C CNN
F 1 "CONN_01X04" V 2050 1550 50  0000 C CNN
F 2 "Pin_Headers:Pin_Header_Angled_1x04_Pitch2.54mm" H 1950 1550 50  0001 C CNN
F 3 "" H 1950 1550 50  0001 C CNN
	1    1950 1550
	-1   0    0    -1  
$EndComp
Wire Wire Line
	2150 1400 2200 1400
Wire Wire Line
	2200 1500 2150 1500
Wire Wire Line
	2150 1600 2200 1600
Wire Wire Line
	2200 1700 2150 1700
$Comp
L CONN_01X10 J4
U 1 1 5A8055E2
P 3850 1950
F 0 "J4" H 3850 2500 50  0000 C CNN
F 1 "CONN_01X10" V 3950 1950 50  0000 C CNN
F 2 "Pin_Headers:Pin_Header_Angled_1x10_Pitch2.54mm" H 3850 1950 50  0001 C CNN
F 3 "" H 3850 1950 50  0001 C CNN
	1    3850 1950
	1    0    0    -1  
$EndComp
Wire Wire Line
	3500 1500 3650 1500
Wire Wire Line
	3650 1600 3500 1600
Wire Wire Line
	3500 1700 3650 1700
Wire Wire Line
	3650 1800 3500 1800
Wire Wire Line
	3500 1900 3650 1900
Wire Wire Line
	3650 2000 3500 2000
Wire Wire Line
	3500 2100 3650 2100
Wire Wire Line
	3650 2200 3500 2200
Wire Wire Line
	3500 2300 3650 2300
Wire Wire Line
	3650 2400 3500 2400
$EndSCHEMATC
