G04 #@! TF.GenerationSoftware,KiCad,Pcbnew,5.0.0+dfsg1-2~bpo9+1*
G04 #@! TF.CreationDate,2018-12-15T17:57:57+00:00*
G04 #@! TF.ProjectId,chordboard,63686F7264626F6172642E6B69636164,rev?*
G04 #@! TF.SameCoordinates,Original*
G04 #@! TF.FileFunction,Soldermask,Bot*
G04 #@! TF.FilePolarity,Negative*
%FSLAX46Y46*%
G04 Gerber Fmt 4.6, Leading zero omitted, Abs format (unit mm)*
G04 Created by KiCad (PCBNEW 5.0.0+dfsg1-2~bpo9+1) date Sat Dec 15 17:57:57 2018*
%MOMM*%
%LPD*%
G01*
G04 APERTURE LIST*
%ADD10R,2.200000X2.200000*%
%ADD11C,2.200000*%
%ADD12R,2.800000X2.800000*%
%ADD13C,2.800000*%
%ADD14C,1.800000*%
%ADD15O,1.800000X1.800000*%
%ADD16C,0.100000*%
%ADD17C,1.600000*%
%ADD18O,1.600000X2.150000*%
%ADD19C,2.500000*%
%ADD20C,2.150000*%
%ADD21C,2.000000*%
%ADD22R,2.000000X2.000000*%
%ADD23C,1.200000*%
%ADD24C,6.800000*%
%ADD25O,2.600000X2.600000*%
%ADD26R,2.600000X2.600000*%
%ADD27O,2.100000X2.100000*%
%ADD28R,2.100000X2.100000*%
%ADD29C,2.400000*%
%ADD30R,1.450000X1.900000*%
%ADD31O,1.450000X1.900000*%
%ADD32C,2.100000*%
%ADD33O,2.100000X2.350000*%
G04 APERTURE END LIST*
D10*
G04 #@! TO.C,D1*
X90805000Y266700000D03*
D11*
X90805000Y264160000D03*
G04 #@! TD*
D12*
G04 #@! TO.C,J1*
X90170000Y229870000D03*
D13*
X93670000Y229870000D03*
G04 #@! TD*
D14*
G04 #@! TO.C,R1*
X92075000Y247015000D03*
D15*
X92075000Y239395000D03*
G04 #@! TD*
D16*
G04 #@! TO.C,J6*
G36*
X108449340Y238563395D02*
X108481698Y238558595D01*
X108513429Y238550647D01*
X108544229Y238539627D01*
X108573800Y238525641D01*
X108601857Y238508823D01*
X108628132Y238489337D01*
X108652369Y238467369D01*
X108674337Y238443132D01*
X108693823Y238416857D01*
X108710641Y238388800D01*
X108724627Y238359229D01*
X108735647Y238328429D01*
X108743595Y238296698D01*
X108748395Y238264340D01*
X108750000Y238231668D01*
X108750000Y236748332D01*
X108748395Y236715660D01*
X108743595Y236683302D01*
X108735647Y236651571D01*
X108724627Y236620771D01*
X108710641Y236591200D01*
X108693823Y236563143D01*
X108674337Y236536868D01*
X108652369Y236512631D01*
X108628132Y236490663D01*
X108601857Y236471177D01*
X108573800Y236454359D01*
X108544229Y236440373D01*
X108513429Y236429353D01*
X108481698Y236421405D01*
X108449340Y236416605D01*
X108416668Y236415000D01*
X107483332Y236415000D01*
X107450660Y236416605D01*
X107418302Y236421405D01*
X107386571Y236429353D01*
X107355771Y236440373D01*
X107326200Y236454359D01*
X107298143Y236471177D01*
X107271868Y236490663D01*
X107247631Y236512631D01*
X107225663Y236536868D01*
X107206177Y236563143D01*
X107189359Y236591200D01*
X107175373Y236620771D01*
X107164353Y236651571D01*
X107156405Y236683302D01*
X107151605Y236715660D01*
X107150000Y236748332D01*
X107150000Y238231668D01*
X107151605Y238264340D01*
X107156405Y238296698D01*
X107164353Y238328429D01*
X107175373Y238359229D01*
X107189359Y238388800D01*
X107206177Y238416857D01*
X107225663Y238443132D01*
X107247631Y238467369D01*
X107271868Y238489337D01*
X107298143Y238508823D01*
X107326200Y238525641D01*
X107355771Y238539627D01*
X107386571Y238550647D01*
X107418302Y238558595D01*
X107450660Y238563395D01*
X107483332Y238565000D01*
X108416668Y238565000D01*
X108449340Y238563395D01*
X108449340Y238563395D01*
G37*
D17*
X107950000Y237490000D03*
D18*
X105950000Y237490000D03*
X103950000Y237490000D03*
X101950000Y237490000D03*
G04 #@! TD*
D16*
G04 #@! TO.C,J3*
G36*
X108449340Y257613395D02*
X108481698Y257608595D01*
X108513429Y257600647D01*
X108544229Y257589627D01*
X108573800Y257575641D01*
X108601857Y257558823D01*
X108628132Y257539337D01*
X108652369Y257517369D01*
X108674337Y257493132D01*
X108693823Y257466857D01*
X108710641Y257438800D01*
X108724627Y257409229D01*
X108735647Y257378429D01*
X108743595Y257346698D01*
X108748395Y257314340D01*
X108750000Y257281668D01*
X108750000Y255798332D01*
X108748395Y255765660D01*
X108743595Y255733302D01*
X108735647Y255701571D01*
X108724627Y255670771D01*
X108710641Y255641200D01*
X108693823Y255613143D01*
X108674337Y255586868D01*
X108652369Y255562631D01*
X108628132Y255540663D01*
X108601857Y255521177D01*
X108573800Y255504359D01*
X108544229Y255490373D01*
X108513429Y255479353D01*
X108481698Y255471405D01*
X108449340Y255466605D01*
X108416668Y255465000D01*
X107483332Y255465000D01*
X107450660Y255466605D01*
X107418302Y255471405D01*
X107386571Y255479353D01*
X107355771Y255490373D01*
X107326200Y255504359D01*
X107298143Y255521177D01*
X107271868Y255540663D01*
X107247631Y255562631D01*
X107225663Y255586868D01*
X107206177Y255613143D01*
X107189359Y255641200D01*
X107175373Y255670771D01*
X107164353Y255701571D01*
X107156405Y255733302D01*
X107151605Y255765660D01*
X107150000Y255798332D01*
X107150000Y257281668D01*
X107151605Y257314340D01*
X107156405Y257346698D01*
X107164353Y257378429D01*
X107175373Y257409229D01*
X107189359Y257438800D01*
X107206177Y257466857D01*
X107225663Y257493132D01*
X107247631Y257517369D01*
X107271868Y257539337D01*
X107298143Y257558823D01*
X107326200Y257575641D01*
X107355771Y257589627D01*
X107386571Y257600647D01*
X107418302Y257608595D01*
X107450660Y257613395D01*
X107483332Y257615000D01*
X108416668Y257615000D01*
X108449340Y257613395D01*
X108449340Y257613395D01*
G37*
D17*
X107950000Y256540000D03*
D18*
X105950000Y256540000D03*
X103950000Y256540000D03*
X101950000Y256540000D03*
G04 #@! TD*
D19*
G04 #@! TO.C,SW1*
X97200000Y283260000D03*
D20*
X95940000Y285750000D03*
X91440000Y285750000D03*
D19*
X90190000Y283260000D03*
G04 #@! TD*
D21*
G04 #@! TO.C,U1*
X83820000Y267970000D03*
X83820000Y270510000D03*
X83820000Y273050000D03*
X83820000Y275590000D03*
X83820000Y265430000D03*
X83820000Y262890000D03*
X83820000Y260350000D03*
X83820000Y278130000D03*
X83820000Y280670000D03*
X83820000Y283210000D03*
X83820000Y285750000D03*
X81280000Y273050000D03*
X78740000Y273050000D03*
X76200000Y273050000D03*
X73660000Y273050000D03*
X71120000Y273050000D03*
X68580000Y285750000D03*
X68580000Y283210000D03*
X68580000Y280670000D03*
X68580000Y278130000D03*
X68580000Y275590000D03*
X68580000Y273050000D03*
X68580000Y270510000D03*
X68580000Y267970000D03*
X83820000Y257810000D03*
X83820000Y255270000D03*
X83820000Y252730000D03*
X83820000Y250190000D03*
X83820000Y247650000D03*
X83820000Y245110000D03*
X83820000Y242570000D03*
X83820000Y240030000D03*
X83820000Y237490000D03*
X83820000Y234950000D03*
X83820000Y232410000D03*
X83820000Y229870000D03*
D22*
X83820000Y227330000D03*
D21*
X68580000Y265430000D03*
X68580000Y262890000D03*
X68580000Y260350000D03*
X68580000Y257810000D03*
X68580000Y255270000D03*
X68580000Y252730000D03*
X68580000Y250190000D03*
X68580000Y247650000D03*
X68580000Y245110000D03*
X68580000Y242570000D03*
X68580000Y240030000D03*
X68580000Y237490000D03*
X68580000Y234950000D03*
X68580000Y232410000D03*
X68580000Y229870000D03*
X68580000Y227330000D03*
X71120000Y229870000D03*
X80820000Y233680000D03*
X80820000Y236220000D03*
X80820000Y238760000D03*
X80820000Y241300000D03*
X80820000Y243840000D03*
G04 #@! TD*
D23*
G04 #@! TO.C,H5*
X103712944Y231567056D03*
X103010000Y229870000D03*
X103712944Y228172944D03*
X105410000Y227470000D03*
X107107056Y228172944D03*
X107810000Y229870000D03*
X107107056Y231567056D03*
X105410000Y232270000D03*
D24*
X105410000Y229870000D03*
G04 #@! TD*
G04 #@! TO.C,H6*
X-13970000Y284480000D03*
D23*
X-13970000Y286880000D03*
X-12272944Y286177056D03*
X-11570000Y284480000D03*
X-12272944Y282782944D03*
X-13970000Y282080000D03*
X-15667056Y282782944D03*
X-16370000Y284480000D03*
X-15667056Y286177056D03*
G04 #@! TD*
G04 #@! TO.C,H7*
X-15667056Y231567056D03*
X-16370000Y229870000D03*
X-15667056Y228172944D03*
X-13970000Y227470000D03*
X-12272944Y228172944D03*
X-11570000Y229870000D03*
X-12272944Y231567056D03*
X-13970000Y232270000D03*
D24*
X-13970000Y229870000D03*
G04 #@! TD*
G04 #@! TO.C,H8*
X105410000Y284480000D03*
D23*
X105410000Y286880000D03*
X107107056Y286177056D03*
X107810000Y284480000D03*
X107107056Y282782944D03*
X105410000Y282080000D03*
X103712944Y282782944D03*
X103010000Y284480000D03*
X103712944Y286177056D03*
G04 #@! TD*
D25*
G04 #@! TO.C,D3*
X88265000Y235585000D03*
D26*
X88265000Y243205000D03*
G04 #@! TD*
D10*
G04 #@! TO.C,D5*
X93980000Y266700000D03*
D11*
X93980000Y264160000D03*
G04 #@! TD*
D27*
G04 #@! TO.C,JP7*
X60960000Y278130000D03*
D28*
X58420000Y278130000D03*
G04 #@! TD*
G04 #@! TO.C,JP8*
X58420000Y281940000D03*
D27*
X60960000Y281940000D03*
G04 #@! TD*
D14*
G04 #@! TO.C,R3*
X94615000Y247015000D03*
D15*
X94615000Y239395000D03*
G04 #@! TD*
D27*
G04 #@! TO.C,U3*
X3810000Y274320000D03*
X3810000Y271780000D03*
X3810000Y269240000D03*
X3810000Y266700000D03*
X3810000Y264160000D03*
X3810000Y261620000D03*
X3810000Y259080000D03*
X3810000Y256540000D03*
X3810000Y254000000D03*
X3810000Y251460000D03*
D28*
X3810000Y248920000D03*
X-16510000Y261620000D03*
D27*
X-16510000Y259080000D03*
X-16510000Y264160000D03*
G04 #@! TD*
D15*
G04 #@! TO.C,R5*
X41910000Y279400000D03*
D14*
X41910000Y271780000D03*
G04 #@! TD*
G04 #@! TO.C,R6*
X44450000Y271780000D03*
D15*
X44450000Y279400000D03*
G04 #@! TD*
D29*
G04 #@! TO.C,SW2*
X43180000Y262200000D03*
X43180000Y266700000D03*
X49680000Y262200000D03*
X49680000Y266700000D03*
G04 #@! TD*
G04 #@! TO.C,SW3*
X49680000Y257810000D03*
X49680000Y253310000D03*
X43180000Y257810000D03*
X43180000Y253310000D03*
G04 #@! TD*
G04 #@! TO.C,SW4*
X49530000Y248920000D03*
X49530000Y244420000D03*
X43030000Y248920000D03*
X43030000Y244420000D03*
G04 #@! TD*
D28*
G04 #@! TO.C,U4*
X17780000Y247650000D03*
D27*
X20320000Y247650000D03*
X22860000Y247650000D03*
X25400000Y247650000D03*
X27940000Y247650000D03*
X30480000Y247650000D03*
X33020000Y247650000D03*
G04 #@! TD*
D14*
G04 #@! TO.C,R7*
X49530000Y271780000D03*
D15*
X49530000Y279400000D03*
G04 #@! TD*
G04 #@! TO.C,R8*
X46990000Y279400000D03*
D14*
X46990000Y271780000D03*
G04 #@! TD*
D21*
G04 #@! TO.C,C1*
X11430000Y279400000D03*
X8930000Y279400000D03*
G04 #@! TD*
D27*
G04 #@! TO.C,JP1*
X46990000Y240030000D03*
D28*
X44450000Y240030000D03*
G04 #@! TD*
G04 #@! TO.C,JP2*
X44450000Y236220000D03*
D27*
X46990000Y236220000D03*
G04 #@! TD*
D28*
G04 #@! TO.C,J2*
X50800000Y287020000D03*
D27*
X53340000Y287020000D03*
X55880000Y287020000D03*
X58420000Y287020000D03*
X60960000Y287020000D03*
X63500000Y287020000D03*
G04 #@! TD*
D28*
G04 #@! TO.C,J4*
X63500000Y227330000D03*
D27*
X60960000Y227330000D03*
X58420000Y227330000D03*
X55880000Y227330000D03*
X53340000Y227330000D03*
X50800000Y227330000D03*
G04 #@! TD*
D18*
G04 #@! TO.C,J5*
X56230000Y270510000D03*
X58230000Y270510000D03*
X60230000Y270510000D03*
D16*
G36*
X62729340Y271583395D02*
X62761698Y271578595D01*
X62793429Y271570647D01*
X62824229Y271559627D01*
X62853800Y271545641D01*
X62881857Y271528823D01*
X62908132Y271509337D01*
X62932369Y271487369D01*
X62954337Y271463132D01*
X62973823Y271436857D01*
X62990641Y271408800D01*
X63004627Y271379229D01*
X63015647Y271348429D01*
X63023595Y271316698D01*
X63028395Y271284340D01*
X63030000Y271251668D01*
X63030000Y269768332D01*
X63028395Y269735660D01*
X63023595Y269703302D01*
X63015647Y269671571D01*
X63004627Y269640771D01*
X62990641Y269611200D01*
X62973823Y269583143D01*
X62954337Y269556868D01*
X62932369Y269532631D01*
X62908132Y269510663D01*
X62881857Y269491177D01*
X62853800Y269474359D01*
X62824229Y269460373D01*
X62793429Y269449353D01*
X62761698Y269441405D01*
X62729340Y269436605D01*
X62696668Y269435000D01*
X61763332Y269435000D01*
X61730660Y269436605D01*
X61698302Y269441405D01*
X61666571Y269449353D01*
X61635771Y269460373D01*
X61606200Y269474359D01*
X61578143Y269491177D01*
X61551868Y269510663D01*
X61527631Y269532631D01*
X61505663Y269556868D01*
X61486177Y269583143D01*
X61469359Y269611200D01*
X61455373Y269640771D01*
X61444353Y269671571D01*
X61436405Y269703302D01*
X61431605Y269735660D01*
X61430000Y269768332D01*
X61430000Y271251668D01*
X61431605Y271284340D01*
X61436405Y271316698D01*
X61444353Y271348429D01*
X61455373Y271379229D01*
X61469359Y271408800D01*
X61486177Y271436857D01*
X61505663Y271463132D01*
X61527631Y271487369D01*
X61551868Y271509337D01*
X61578143Y271528823D01*
X61606200Y271545641D01*
X61635771Y271559627D01*
X61666571Y271570647D01*
X61698302Y271578595D01*
X61730660Y271583395D01*
X61763332Y271585000D01*
X62696668Y271585000D01*
X62729340Y271583395D01*
X62729340Y271583395D01*
G37*
D17*
X62230000Y270510000D03*
G04 #@! TD*
D16*
G04 #@! TO.C,J7*
G36*
X108449340Y263963395D02*
X108481698Y263958595D01*
X108513429Y263950647D01*
X108544229Y263939627D01*
X108573800Y263925641D01*
X108601857Y263908823D01*
X108628132Y263889337D01*
X108652369Y263867369D01*
X108674337Y263843132D01*
X108693823Y263816857D01*
X108710641Y263788800D01*
X108724627Y263759229D01*
X108735647Y263728429D01*
X108743595Y263696698D01*
X108748395Y263664340D01*
X108750000Y263631668D01*
X108750000Y262148332D01*
X108748395Y262115660D01*
X108743595Y262083302D01*
X108735647Y262051571D01*
X108724627Y262020771D01*
X108710641Y261991200D01*
X108693823Y261963143D01*
X108674337Y261936868D01*
X108652369Y261912631D01*
X108628132Y261890663D01*
X108601857Y261871177D01*
X108573800Y261854359D01*
X108544229Y261840373D01*
X108513429Y261829353D01*
X108481698Y261821405D01*
X108449340Y261816605D01*
X108416668Y261815000D01*
X107483332Y261815000D01*
X107450660Y261816605D01*
X107418302Y261821405D01*
X107386571Y261829353D01*
X107355771Y261840373D01*
X107326200Y261854359D01*
X107298143Y261871177D01*
X107271868Y261890663D01*
X107247631Y261912631D01*
X107225663Y261936868D01*
X107206177Y261963143D01*
X107189359Y261991200D01*
X107175373Y262020771D01*
X107164353Y262051571D01*
X107156405Y262083302D01*
X107151605Y262115660D01*
X107150000Y262148332D01*
X107150000Y263631668D01*
X107151605Y263664340D01*
X107156405Y263696698D01*
X107164353Y263728429D01*
X107175373Y263759229D01*
X107189359Y263788800D01*
X107206177Y263816857D01*
X107225663Y263843132D01*
X107247631Y263867369D01*
X107271868Y263889337D01*
X107298143Y263908823D01*
X107326200Y263925641D01*
X107355771Y263939627D01*
X107386571Y263950647D01*
X107418302Y263958595D01*
X107450660Y263963395D01*
X107483332Y263965000D01*
X108416668Y263965000D01*
X108449340Y263963395D01*
X108449340Y263963395D01*
G37*
D17*
X107950000Y262890000D03*
D18*
X105950000Y262890000D03*
X103950000Y262890000D03*
X101950000Y262890000D03*
G04 #@! TD*
D16*
G04 #@! TO.C,J8*
G36*
X108449340Y276663395D02*
X108481698Y276658595D01*
X108513429Y276650647D01*
X108544229Y276639627D01*
X108573800Y276625641D01*
X108601857Y276608823D01*
X108628132Y276589337D01*
X108652369Y276567369D01*
X108674337Y276543132D01*
X108693823Y276516857D01*
X108710641Y276488800D01*
X108724627Y276459229D01*
X108735647Y276428429D01*
X108743595Y276396698D01*
X108748395Y276364340D01*
X108750000Y276331668D01*
X108750000Y274848332D01*
X108748395Y274815660D01*
X108743595Y274783302D01*
X108735647Y274751571D01*
X108724627Y274720771D01*
X108710641Y274691200D01*
X108693823Y274663143D01*
X108674337Y274636868D01*
X108652369Y274612631D01*
X108628132Y274590663D01*
X108601857Y274571177D01*
X108573800Y274554359D01*
X108544229Y274540373D01*
X108513429Y274529353D01*
X108481698Y274521405D01*
X108449340Y274516605D01*
X108416668Y274515000D01*
X107483332Y274515000D01*
X107450660Y274516605D01*
X107418302Y274521405D01*
X107386571Y274529353D01*
X107355771Y274540373D01*
X107326200Y274554359D01*
X107298143Y274571177D01*
X107271868Y274590663D01*
X107247631Y274612631D01*
X107225663Y274636868D01*
X107206177Y274663143D01*
X107189359Y274691200D01*
X107175373Y274720771D01*
X107164353Y274751571D01*
X107156405Y274783302D01*
X107151605Y274815660D01*
X107150000Y274848332D01*
X107150000Y276331668D01*
X107151605Y276364340D01*
X107156405Y276396698D01*
X107164353Y276428429D01*
X107175373Y276459229D01*
X107189359Y276488800D01*
X107206177Y276516857D01*
X107225663Y276543132D01*
X107247631Y276567369D01*
X107271868Y276589337D01*
X107298143Y276608823D01*
X107326200Y276625641D01*
X107355771Y276639627D01*
X107386571Y276650647D01*
X107418302Y276658595D01*
X107450660Y276663395D01*
X107483332Y276665000D01*
X108416668Y276665000D01*
X108449340Y276663395D01*
X108449340Y276663395D01*
G37*
D17*
X107950000Y275590000D03*
D18*
X105950000Y275590000D03*
X103950000Y275590000D03*
X101950000Y275590000D03*
G04 #@! TD*
G04 #@! TO.C,J9*
X101950000Y269240000D03*
X103950000Y269240000D03*
X105950000Y269240000D03*
D16*
G36*
X108449340Y270313395D02*
X108481698Y270308595D01*
X108513429Y270300647D01*
X108544229Y270289627D01*
X108573800Y270275641D01*
X108601857Y270258823D01*
X108628132Y270239337D01*
X108652369Y270217369D01*
X108674337Y270193132D01*
X108693823Y270166857D01*
X108710641Y270138800D01*
X108724627Y270109229D01*
X108735647Y270078429D01*
X108743595Y270046698D01*
X108748395Y270014340D01*
X108750000Y269981668D01*
X108750000Y268498332D01*
X108748395Y268465660D01*
X108743595Y268433302D01*
X108735647Y268401571D01*
X108724627Y268370771D01*
X108710641Y268341200D01*
X108693823Y268313143D01*
X108674337Y268286868D01*
X108652369Y268262631D01*
X108628132Y268240663D01*
X108601857Y268221177D01*
X108573800Y268204359D01*
X108544229Y268190373D01*
X108513429Y268179353D01*
X108481698Y268171405D01*
X108449340Y268166605D01*
X108416668Y268165000D01*
X107483332Y268165000D01*
X107450660Y268166605D01*
X107418302Y268171405D01*
X107386571Y268179353D01*
X107355771Y268190373D01*
X107326200Y268204359D01*
X107298143Y268221177D01*
X107271868Y268240663D01*
X107247631Y268262631D01*
X107225663Y268286868D01*
X107206177Y268313143D01*
X107189359Y268341200D01*
X107175373Y268370771D01*
X107164353Y268401571D01*
X107156405Y268433302D01*
X107151605Y268465660D01*
X107150000Y268498332D01*
X107150000Y269981668D01*
X107151605Y270014340D01*
X107156405Y270046698D01*
X107164353Y270078429D01*
X107175373Y270109229D01*
X107189359Y270138800D01*
X107206177Y270166857D01*
X107225663Y270193132D01*
X107247631Y270217369D01*
X107271868Y270239337D01*
X107298143Y270258823D01*
X107326200Y270275641D01*
X107355771Y270289627D01*
X107386571Y270300647D01*
X107418302Y270308595D01*
X107450660Y270313395D01*
X107483332Y270315000D01*
X108416668Y270315000D01*
X108449340Y270313395D01*
X108449340Y270313395D01*
G37*
D17*
X107950000Y269240000D03*
G04 #@! TD*
D30*
G04 #@! TO.C,Q1*
X57150000Y252730000D03*
D31*
X54610000Y252730000D03*
X55880000Y252730000D03*
G04 #@! TD*
G04 #@! TO.C,Q2*
X62230000Y252730000D03*
X60960000Y252730000D03*
D30*
X63500000Y252730000D03*
G04 #@! TD*
D15*
G04 #@! TO.C,R2*
X58420000Y265430000D03*
D14*
X58420000Y257810000D03*
G04 #@! TD*
G04 #@! TO.C,R4*
X55880000Y257810000D03*
D15*
X55880000Y265430000D03*
G04 #@! TD*
D14*
G04 #@! TO.C,R9*
X63500000Y257810000D03*
D15*
X63500000Y265430000D03*
G04 #@! TD*
G04 #@! TO.C,R10*
X60960000Y265430000D03*
D14*
X60960000Y257810000D03*
G04 #@! TD*
D16*
G04 #@! TO.C,J10*
G36*
X-14468553Y242473513D02*
X-14438575Y242469066D01*
X-14409176Y242461702D01*
X-14380642Y242451492D01*
X-14353245Y242438535D01*
X-14327250Y242422954D01*
X-14302908Y242404900D01*
X-14280452Y242384548D01*
X-14260100Y242362092D01*
X-14242046Y242337750D01*
X-14226465Y242311755D01*
X-14213508Y242284358D01*
X-14203298Y242255824D01*
X-14195934Y242226425D01*
X-14191487Y242196447D01*
X-14190000Y242166177D01*
X-14190000Y240433823D01*
X-14191487Y240403553D01*
X-14195934Y240373575D01*
X-14203298Y240344176D01*
X-14213508Y240315642D01*
X-14226465Y240288245D01*
X-14242046Y240262250D01*
X-14260100Y240237908D01*
X-14280452Y240215452D01*
X-14302908Y240195100D01*
X-14327250Y240177046D01*
X-14353245Y240161465D01*
X-14380642Y240148508D01*
X-14409176Y240138298D01*
X-14438575Y240130934D01*
X-14468553Y240126487D01*
X-14498823Y240125000D01*
X-15981177Y240125000D01*
X-16011447Y240126487D01*
X-16041425Y240130934D01*
X-16070824Y240138298D01*
X-16099358Y240148508D01*
X-16126755Y240161465D01*
X-16152750Y240177046D01*
X-16177092Y240195100D01*
X-16199548Y240215452D01*
X-16219900Y240237908D01*
X-16237954Y240262250D01*
X-16253535Y240288245D01*
X-16266492Y240315642D01*
X-16276702Y240344176D01*
X-16284066Y240373575D01*
X-16288513Y240403553D01*
X-16290000Y240433823D01*
X-16290000Y242166177D01*
X-16288513Y242196447D01*
X-16284066Y242226425D01*
X-16276702Y242255824D01*
X-16266492Y242284358D01*
X-16253535Y242311755D01*
X-16237954Y242337750D01*
X-16219900Y242362092D01*
X-16199548Y242384548D01*
X-16177092Y242404900D01*
X-16152750Y242422954D01*
X-16126755Y242438535D01*
X-16099358Y242451492D01*
X-16070824Y242461702D01*
X-16041425Y242469066D01*
X-16011447Y242473513D01*
X-15981177Y242475000D01*
X-14498823Y242475000D01*
X-14468553Y242473513D01*
X-14468553Y242473513D01*
G37*
D32*
X-15240000Y241300000D03*
D33*
X-12740000Y241300000D03*
X-10240000Y241300000D03*
G04 #@! TD*
D28*
G04 #@! TO.C,J11*
X45720000Y227330000D03*
D27*
X43180000Y227330000D03*
X40640000Y227330000D03*
X38100000Y227330000D03*
X35560000Y227330000D03*
X33020000Y227330000D03*
X30480000Y227330000D03*
X27940000Y227330000D03*
X25400000Y227330000D03*
X22860000Y227330000D03*
X20320000Y227330000D03*
X17780000Y227330000D03*
X15240000Y227330000D03*
X12700000Y227330000D03*
G04 #@! TD*
D21*
G04 #@! TO.C,C2*
X11430000Y276987000D03*
X8930000Y276987000D03*
G04 #@! TD*
D18*
G04 #@! TO.C,J12*
X-5365000Y283845000D03*
X-3365000Y283845000D03*
X-1365000Y283845000D03*
D16*
G36*
X1134340Y284918395D02*
X1166698Y284913595D01*
X1198429Y284905647D01*
X1229229Y284894627D01*
X1258800Y284880641D01*
X1286857Y284863823D01*
X1313132Y284844337D01*
X1337369Y284822369D01*
X1359337Y284798132D01*
X1378823Y284771857D01*
X1395641Y284743800D01*
X1409627Y284714229D01*
X1420647Y284683429D01*
X1428595Y284651698D01*
X1433395Y284619340D01*
X1435000Y284586668D01*
X1435000Y283103332D01*
X1433395Y283070660D01*
X1428595Y283038302D01*
X1420647Y283006571D01*
X1409627Y282975771D01*
X1395641Y282946200D01*
X1378823Y282918143D01*
X1359337Y282891868D01*
X1337369Y282867631D01*
X1313132Y282845663D01*
X1286857Y282826177D01*
X1258800Y282809359D01*
X1229229Y282795373D01*
X1198429Y282784353D01*
X1166698Y282776405D01*
X1134340Y282771605D01*
X1101668Y282770000D01*
X168332Y282770000D01*
X135660Y282771605D01*
X103302Y282776405D01*
X71571Y282784353D01*
X40771Y282795373D01*
X11200Y282809359D01*
X-16857Y282826177D01*
X-43132Y282845663D01*
X-67369Y282867631D01*
X-89337Y282891868D01*
X-108823Y282918143D01*
X-125641Y282946200D01*
X-139627Y282975771D01*
X-150647Y283006571D01*
X-158595Y283038302D01*
X-163395Y283070660D01*
X-165000Y283103332D01*
X-165000Y284586668D01*
X-163395Y284619340D01*
X-158595Y284651698D01*
X-150647Y284683429D01*
X-139627Y284714229D01*
X-125641Y284743800D01*
X-108823Y284771857D01*
X-89337Y284798132D01*
X-67369Y284822369D01*
X-43132Y284844337D01*
X-16857Y284863823D01*
X11200Y284880641D01*
X40771Y284894627D01*
X71571Y284905647D01*
X103302Y284913595D01*
X135660Y284918395D01*
X168332Y284920000D01*
X1101668Y284920000D01*
X1134340Y284918395D01*
X1134340Y284918395D01*
G37*
D17*
X635000Y283845000D03*
G04 #@! TD*
M02*
