M48
;DRILL file {KiCad 4.0.6+dfsg1-1} date Sun Mar 11 00:39:28 2018
;FORMAT={-:-/ absolute / inch / decimal}
FMAT,2
INCH,TZ
T1C0.016
T2C0.039
T3C0.043
%
G90
G05
M72
T1
X6.04Y-4.615
X6.4Y-4.6
X6.43Y-4.025
X6.43Y-4.175
X7.08Y-4.
X7.125Y-4.25
X7.18Y-4.1
T2
X6.425Y-4.775
X6.525Y-4.775
X6.625Y-4.775
X6.725Y-4.775
X6.825Y-4.775
X6.925Y-4.775
X7.125Y-4.675
X7.125Y-4.775
T3
X5.9Y-4.075
X5.9Y-4.2522
X5.9Y-4.4
X5.9Y-4.5772
X6.1559Y-4.075
X6.1559Y-4.2522
X6.1559Y-4.4
X6.1559Y-4.5772
T0
M30
