M48
;DRILL file {KiCad 5.0.0+dfsg1-2~bpo9+1} date Sat Dec 15 17:58:00 2018
;FORMAT={-:-/ absolute / inch / decimal}
FMAT,2
INCH,TZ
T1C0.0157
T2C0.0197
T3C0.0276
T4C0.0295
T5C0.0315
T6C0.0354
T7C0.0374
T8C0.0390
T9C0.0394
T10C0.0433
T11C0.0472
T12C0.0512
T13C0.1260
%
G90
G05
M72
T1
X0.29Y10.955
X0.715Y10.31
X0.725Y10.965
X0.77Y10.875
X0.795Y10.84
X0.8735Y10.345
X0.875Y10.875
X0.915Y10.84
X0.96Y10.
X1.0343Y10.195
X1.13Y10.7
X1.225Y10.725
X1.28Y10.875
X1.28Y10.795
X1.3231Y9.4254
X1.465Y11.0457
X1.52Y10.7
X1.555Y11.01
X1.705Y10.865
X1.705Y10.815
X1.7782Y9.5901
X1.8501Y9.5726
X1.929Y9.5089
X1.9809Y9.4617
X2.01Y11.15
X2.0895Y9.2708
X2.096Y9.1968
X2.1Y10.6927
X2.115Y10.15
X2.125Y10.815
X2.165Y10.855
X2.1652Y10.8944
X2.195Y11.15
X2.2Y10.815
X2.4933Y10.3932
X2.5656Y10.675
X2.605Y10.675
X2.6491Y9.2287
X3.1859Y10.2475
X3.4098Y9.1152
X3.5033Y10.5935
X3.75Y9.235
X3.8Y10.27
X3.8Y9.425
T2
X4.0555Y9.05
X4.0832Y9.1168
X4.0832Y8.9832
X4.15Y9.1445
X4.15Y8.9555
X4.2168Y9.1168
X4.2168Y8.9832
X4.2445Y9.05
X4.0555Y11.2
X4.0832Y11.2668
X4.0832Y11.1332
X4.15Y11.2945
X4.15Y11.1055
X4.2168Y11.2668
X4.2168Y11.1332
X4.2445Y11.2
X-0.6445Y9.05
X-0.6168Y9.1168
X-0.6168Y8.9832
X-0.55Y9.1445
X-0.55Y8.9555
X-0.4832Y9.1168
X-0.4832Y8.9832
X-0.4555Y9.05
X-0.6445Y11.2
X-0.6168Y11.2668
X-0.6168Y11.1332
X-0.55Y11.2945
X-0.55Y11.1055
X-0.4832Y11.2668
X-0.4832Y11.1332
X-0.4555Y11.2
T3
X2.4Y10.45
X2.4Y10.15
X1.75Y11.
X1.75Y10.7
X2.2Y10.45
X2.2Y10.15
X1.65Y11.
X1.65Y10.7
X1.95Y11.
X1.95Y10.7
X1.85Y11.
X1.85Y10.7
X3.725Y9.725
X3.725Y9.425
X2.3Y10.45
X2.3Y10.15
X2.5Y10.45
X2.5Y10.15
X3.625Y9.725
X3.625Y9.425
T4
X2.4Y9.95
X2.45Y9.95
X2.5Y9.95
X4.0138Y10.1
X4.0925Y10.1
X4.1713Y10.1
X4.25Y10.1
X2.2138Y10.65
X2.2925Y10.65
X2.3713Y10.65
X2.45Y10.65
X-0.2112Y11.175
X-0.1325Y11.175
X-0.0537Y11.175
X0.025Y11.175
X4.0138Y10.6
X4.0925Y10.6
X4.1713Y10.6
X4.25Y10.6
X4.0138Y10.85
X4.0925Y10.85
X4.1713Y10.85
X4.25Y10.85
X4.0138Y10.35
X4.0925Y10.35
X4.1713Y10.35
X4.25Y10.35
X2.15Y9.95
X2.2Y9.95
X2.25Y9.95
X4.0138Y9.35
X4.0925Y9.35
X4.1713Y9.35
X4.25Y9.35
T5
X0.3516Y11.
X0.45Y11.
X0.3516Y10.905
X0.45Y10.905
T6
X3.575Y10.5
X3.575Y10.4
X3.7Y10.5
X3.7Y10.4
T7
X-0.6Y9.5
X-0.5016Y9.5
X-0.4031Y9.5
T8
X3.6Y11.25
X3.7772Y11.25
T9
X2.3Y10.95
X2.4Y10.95
X2.3Y11.1
X2.4Y11.1
X2.Y11.3
X2.1Y11.3
X2.2Y11.3
X2.3Y11.3
X2.4Y11.3
X2.5Y11.3
X1.75Y9.3
X1.85Y9.3
X0.7Y9.75
X0.8Y9.75
X0.9Y9.75
X1.Y9.75
X1.1Y9.75
X1.2Y9.75
X1.3Y9.75
X1.75Y9.45
X1.85Y9.45
X-0.65Y10.4
X-0.65Y10.3
X-0.65Y10.2
X0.15Y10.8
X0.15Y10.7
X0.15Y10.6
X0.15Y10.5
X0.15Y10.4
X0.15Y10.3
X0.15Y10.2
X0.15Y10.1
X0.15Y10.
X0.15Y9.9
X0.15Y9.8
X2.Y8.95
X2.1Y8.95
X2.2Y8.95
X2.3Y8.95
X2.4Y8.95
X2.5Y8.95
X0.5Y8.95
X0.6Y8.95
X0.7Y8.95
X0.8Y8.95
X0.9Y8.95
X1.Y8.95
X1.1Y8.95
X1.2Y8.95
X1.3Y8.95
X1.4Y8.95
X1.5Y8.95
X1.6Y8.95
X1.7Y8.95
X1.8Y8.95
T10
X1.7Y10.15
X1.7Y9.9728
X1.9559Y10.15
X1.9559Y9.9728
X1.7Y10.5
X1.7Y10.3228
X1.9559Y10.5
X1.9559Y10.3228
X1.6941Y9.8
X1.6941Y9.6228
X1.95Y9.8
X1.95Y9.6228
X2.7Y11.25
X2.7Y11.15
X2.7Y11.05
X2.7Y10.95
X2.7Y10.85
X2.7Y10.75
X2.7Y10.65
X2.7Y10.55
X2.7Y10.45
X2.7Y10.35
X2.7Y10.25
X2.7Y10.15
X2.7Y10.05
X2.7Y9.95
X2.7Y9.85
X2.7Y9.75
X2.7Y9.65
X2.7Y9.55
X2.7Y9.45
X2.7Y9.35
X2.7Y9.25
X2.7Y9.15
X2.7Y9.05
X2.7Y8.95
X2.8Y10.75
X2.8Y9.05
X2.9Y10.75
X3.Y10.75
X3.1Y10.75
X3.1819Y9.6
X3.1819Y9.5
X3.1819Y9.4
X3.1819Y9.3
X3.1819Y9.2
X3.2Y10.75
X3.3Y11.25
X3.3Y11.15
X3.3Y11.05
X3.3Y10.95
X3.3Y10.85
X3.3Y10.75
X3.3Y10.65
X3.3Y10.55
X3.3Y10.45
X3.3Y10.35
X3.3Y10.25
X3.3Y10.15
X3.3Y10.05
X3.3Y9.95
X3.3Y9.85
X3.3Y9.75
X3.3Y9.65
X3.3Y9.55
X3.3Y9.45
X3.3Y9.35
X3.3Y9.25
X3.3Y9.15
X3.3Y9.05
X3.3Y8.95
X3.475Y9.575
X3.475Y9.275
T11
X3.55Y9.05
X3.6878Y9.05
T12
X3.5508Y11.152
X3.8268Y11.152
T13
X-0.55Y11.2
X4.15Y9.05
X4.15Y11.2
X-0.55Y9.05
T0
M30
