EESchema Schematic File Version 2
LIBS:chordboard-components
LIBS:Connector
LIBS:Switch
LIBS:samd11-cache
EELAYER 25 0
EELAYER END
$Descr A1 33110 23386
encoding utf-8
Sheet 1 1
Title ""
Date ""
Rev ""
Comp ""
Comment1 ""
Comment2 ""
Comment3 ""
Comment4 ""
$EndDescr
$Comp
L Mounting_Hole MK?
U 1 1 5AE1C183
P 29950 15450
F 0 "MK?" H 29950 15650 50  0000 C CNN
F 1 "Mounting_Hole" H 29950 15575 50  0000 C CNN
F 2 "chordboard-footprints:Mounting_Hole" H 29950 15450 50  0001 C CNN
F 3 "" H 29950 15450 50  0001 C CNN
	1    29950 15450
	1    0    0    -1  
$EndComp
$Comp
L Mounting_Hole MK?
U 1 1 5AE1C184
P 30150 15450
F 0 "MK?" H 30150 15650 50  0000 C CNN
F 1 "Mounting_Hole" H 30150 15575 50  0000 C CNN
F 2 "chordboard-footprints:Mounting_Hole" H 30150 15450 50  0001 C CNN
F 3 "" H 30150 15450 50  0001 C CNN
	1    30150 15450
	1    0    0    -1  
$EndComp
$Comp
L Mounting_Hole MK?
U 1 1 5AE1C185
P 30350 15450
F 0 "MK?" H 30350 15650 50  0000 C CNN
F 1 "Mounting_Hole" H 30350 15575 50  0000 C CNN
F 2 "chordboard-footprints:Mounting_Hole" H 30350 15450 50  0001 C CNN
F 3 "" H 30350 15450 50  0001 C CNN
	1    30350 15450
	1    0    0    -1  
$EndComp
$Comp
L Mounting_Hole MK?
U 1 1 5AE1C186
P 30550 15450
F 0 "MK?" H 30550 15650 50  0000 C CNN
F 1 "Mounting_Hole" H 30550 15575 50  0000 C CNN
F 2 "chordboard-footprints:Mounting_Hole" H 30550 15450 50  0001 C CNN
F 3 "" H 30550 15450 50  0001 C CNN
	1    30550 15450
	1    0    0    -1  
$EndComp
$Comp
L Mounting_Hole MK?
U 1 1 5AE1C187
P 29950 15650
F 0 "MK?" H 29950 15850 50  0000 C CNN
F 1 "Mounting_Hole" H 29950 15775 50  0000 C CNN
F 2 "chordboard-footprints:Mounting_Hole" H 29950 15650 50  0001 C CNN
F 3 "" H 29950 15650 50  0001 C CNN
	1    29950 15650
	1    0    0    -1  
$EndComp
$Comp
L Mounting_Hole MK?
U 1 1 5AE1C188
P 30150 15650
F 0 "MK?" H 30150 15850 50  0000 C CNN
F 1 "Mounting_Hole" H 30150 15775 50  0000 C CNN
F 2 "chordboard-footprints:Mounting_Hole" H 30150 15650 50  0001 C CNN
F 3 "" H 30150 15650 50  0001 C CNN
	1    30150 15650
	1    0    0    -1  
$EndComp
$Comp
L Mounting_Hole MK?
U 1 1 5AE1C189
P 30350 15650
F 0 "MK?" H 30350 15850 50  0000 C CNN
F 1 "Mounting_Hole" H 30350 15775 50  0000 C CNN
F 2 "chordboard-footprints:Mounting_Hole" H 30350 15650 50  0001 C CNN
F 3 "" H 30350 15650 50  0001 C CNN
	1    30350 15650
	1    0    0    -1  
$EndComp
$Comp
L Mounting_Hole MK?
U 1 1 5AE1C18A
P 30550 15650
F 0 "MK?" H 30550 15850 50  0000 C CNN
F 1 "Mounting_Hole" H 30550 15775 50  0000 C CNN
F 2 "chordboard-footprints:Mounting_Hole" H 30550 15650 50  0001 C CNN
F 3 "" H 30550 15650 50  0001 C CNN
	1    30550 15650
	1    0    0    -1  
$EndComp
$Comp
L Mounting_Hole MK?
U 1 1 5AE1C18B
P 30750 15450
F 0 "MK?" H 30750 15650 50  0000 C CNN
F 1 "Mounting_Hole" H 30750 15575 50  0000 C CNN
F 2 "chordboard-footprints:Mounting_Hole" H 30750 15450 50  0001 C CNN
F 3 "" H 30750 15450 50  0001 C CNN
	1    30750 15450
	1    0    0    -1  
$EndComp
$Comp
L Mounting_Hole MK?
U 1 1 5AE1C18C
P 30750 15650
F 0 "MK?" H 30750 15850 50  0000 C CNN
F 1 "Mounting_Hole" H 30750 15775 50  0000 C CNN
F 2 "chordboard-footprints:Mounting_Hole" H 30750 15650 50  0001 C CNN
F 3 "" H 30750 15650 50  0001 C CNN
	1    30750 15650
	1    0    0    -1  
$EndComp
$Comp
L GND #PWR5
U 1 1 5AE1C18F
P 22750 8750
F 0 "#PWR5" H 22750 8500 50  0001 C CNN
F 1 "GND" H 22750 8600 50  0000 C CNN
F 2 "" H 22750 8750 50  0001 C CNN
F 3 "" H 22750 8750 50  0001 C CNN
	1    22750 8750
	-1   0    0    -1  
$EndComp
$Comp
L +5V #PWR3
U 1 1 5AE1C190
P 22250 7900
F 0 "#PWR3" H 22250 7750 50  0001 C CNN
F 1 "+5V" H 22250 8040 50  0000 C CNN
F 2 "" H 22250 7900 50  0001 C CNN
F 3 "" H 22250 7900 50  0001 C CNN
	1    22250 7900
	1    0    0    -1  
$EndComp
$Comp
L C C1
U 1 1 5AE1C191
P 22250 8400
F 0 "C1" H 22260 8470 50  0000 L CNN
F 1 "0.1uF" H 22260 8320 50  0000 L CNN
F 2 "Capacitors_SMD:C_0603" H 22250 8400 50  0001 C CNN
F 3 "" H 22250 8400 50  0001 C CNN
	1    22250 8400
	1    0    0    -1  
$EndComp
$Comp
L C C2
U 1 1 5AE1C192
P 23250 8400
F 0 "C2" H 23260 8470 50  0000 L CNN
F 1 "10uF" H 23260 8320 50  0000 L CNN
F 2 "Capacitors_SMD:C_1206" H 23250 8400 50  0001 C CNN
F 3 "" H 23250 8400 50  0001 C CNN
	1    23250 8400
	1    0    0    -1  
$EndComp
$Comp
L Polyfuse F1
U 1 1 5AE1C1A2
P 20350 8050
F 0 "F1" V 20250 8050 50  0000 C CNN
F 1 "Polyfuse" V 20450 8050 50  0000 C CNN
F 2 "Fuse_Holders_and_Fuses:Fuse_SMD1206_Reflow" H 20400 7850 50  0001 L CNN
F 3 "" H 20350 8050 50  0001 C CNN
	1    20350 8050
	0    1    1    0   
$EndComp
$Comp
L VBUS #PWR1
U 1 1 5AE1C1A3
P 19550 7850
F 0 "#PWR1" H 19550 7700 50  0001 C CNN
F 1 "VBUS" H 19550 8000 50  0000 C CNN
F 2 "" H 19550 7850 50  0001 C CNN
F 3 "" H 19550 7850 50  0001 C CNN
	1    19550 7850
	1    0    0    -1  
$EndComp
$Comp
L D D1
U 1 1 5AE1C1A4
P 19900 8050
F 0 "D1" H 19900 8150 50  0000 C CNN
F 1 "D" H 19900 7950 50  0000 C CNN
F 2 "chordboard-footprints:D_SOD-123_HANDSOLDER" H 19900 8050 50  0001 C CNN
F 3 "" H 19900 8050 50  0001 C CNN
	1    19900 8050
	-1   0    0    1   
$EndComp
$Comp
L +5V #PWR2
U 1 1 5AE1C1A7
P 20900 7850
F 0 "#PWR2" H 20900 7700 50  0001 C CNN
F 1 "+5V" H 20900 7990 50  0000 C CNN
F 2 "" H 20900 7850 50  0001 C CNN
F 3 "" H 20900 7850 50  0001 C CNN
	1    20900 7850
	1    0    0    -1  
$EndComp
$Comp
L +3V3 #PWR4
U 1 1 5AE1C1A8
P 23250 7900
F 0 "#PWR4" H 23250 7750 50  0001 C CNN
F 1 "+3V3" H 23250 8040 50  0000 C CNN
F 2 "" H 23250 7900 50  0001 C CNN
F 3 "" H 23250 7900 50  0001 C CNN
	1    23250 7900
	1    0    0    -1  
$EndComp
$Comp
L C C3
U 1 1 5AE1C1A9
P 19550 8450
F 0 "C3" H 19560 8520 50  0000 L CNN
F 1 "2.2uF" H 19560 8370 50  0000 L CNN
F 2 "Capacitors_SMD:C_0805" H 19550 8450 50  0001 C CNN
F 3 "" H 19550 8450 50  0001 C CNN
	1    19550 8450
	1    0    0    -1  
$EndComp
$Comp
L GND #PWR6
U 1 1 5AE1C1AA
P 19550 8800
F 0 "#PWR6" H 19550 8550 50  0001 C CNN
F 1 "GND" H 19550 8650 50  0000 C CNN
F 2 "" H 19550 8800 50  0001 C CNN
F 3 "" H 19550 8800 50  0001 C CNN
	1    19550 8800
	-1   0    0    -1  
$EndComp
$Comp
L LD1117S33TR_SOT223 U1
U 1 1 5AE1C1AB
P 22750 8200
F 0 "U1" H 22600 8325 50  0000 C CNN
F 1 "LD1117S33TR_SOT223" H 22750 8325 50  0000 L CNN
F 2 "TO_SOT_Packages_SMD:SOT-223-3_TabPin2" H 22750 8400 50  0001 C CNN
F 3 "" H 22850 7950 50  0001 C CNN
	1    22750 8200
	1    0    0    -1  
$EndComp
$Comp
L R R3
U 1 1 5AE1C1B6
P 16600 11600
F 0 "R3" V 16650 11700 50  0000 L CNN
F 1 "2.2K" V 16600 11550 50  0000 L CNN
F 2 "Resistors_SMD:R_0603" H 16600 11600 50  0001 C CNN
F 3 "" H 16600 11600 50  0001 C CNN
	1    16600 11600
	-1   0    0    1   
$EndComp
$Comp
L R R4
U 1 1 5AE1C1B7
P 16700 11600
F 0 "R4" V 16750 11700 50  0000 L CNN
F 1 "2.2K" V 16700 11550 50  0000 L CNN
F 2 "Resistors_SMD:R_0603" H 16700 11600 50  0001 C CNN
F 3 "" H 16700 11600 50  0001 C CNN
	1    16700 11600
	-1   0    0    1   
$EndComp
$Comp
L +3V3 #PWR12
U 1 1 5AE1C1B8
P 16750 11150
F 0 "#PWR12" H 16750 11000 50  0001 C CNN
F 1 "+3V3" H 16750 11290 50  0000 C CNN
F 2 "" H 16750 11150 50  0001 C CNN
F 3 "" H 16750 11150 50  0001 C CNN
	1    16750 11150
	1    0    0    -1  
$EndComp
$Comp
L GND #PWR22
U 1 1 5AE1C1BA
P 19150 14500
F 0 "#PWR22" H 19150 14250 50  0001 C CNN
F 1 "GND" H 19150 14350 50  0000 C CNN
F 2 "" H 19150 14500 50  0001 C CNN
F 3 "" H 19150 14500 50  0001 C CNN
	1    19150 14500
	1    0    0    -1  
$EndComp
$Comp
L +3V3 #PWR16
U 1 1 5AE1C1BC
P 19100 12250
F 0 "#PWR16" H 19100 12100 50  0001 C CNN
F 1 "+3V3" H 19100 12390 50  0000 C CNN
F 2 "" H 19100 12250 50  0001 C CNN
F 3 "" H 19100 12250 50  0001 C CNN
	1    19100 12250
	1    0    0    -1  
$EndComp
Text Label 23600 11850 0    60   ~ 0
D+
$Comp
L R R5
U 1 1 5AE1C1CE
P 18450 12350
F 0 "R5" V 18500 12450 50  0000 L CNN
F 1 "1K" V 18450 12300 50  0000 L CNN
F 2 "Resistors_SMD:R_0603" H 18450 12350 50  0001 C CNN
F 3 "" H 18450 12350 50  0001 C CNN
	1    18450 12350
	0    -1   -1   0   
$EndComp
$Comp
L TPD2EUSB30 U2
U 1 1 5AE1C1CF
P 22800 12550
F 0 "U2" H 22800 12900 50  0000 C CNN
F 1 "TPD2EUSB30" H 22800 12800 50  0000 C CNN
F 2 "TO_SOT_Packages_SMD:SOT-23" H 22800 12550 50  0001 C CNN
F 3 "" H 22800 12550 50  0001 C CNN
	1    22800 12550
	1    0    0    -1  
$EndComp
$Comp
L GND #PWR19
U 1 1 5AE1C1D0
P 22800 13200
F 0 "#PWR19" H 22800 12950 50  0001 C CNN
F 1 "GND" H 22800 13050 50  0000 C CNN
F 2 "" H 22800 13200 50  0001 C CNN
F 3 "" H 22800 13200 50  0001 C CNN
	1    22800 13200
	1    0    0    -1  
$EndComp
$Comp
L GND #PWR18
U 1 1 5AE1C1D1
P 21900 12550
F 0 "#PWR18" H 21900 12300 50  0001 C CNN
F 1 "GND" H 21900 12400 50  0000 C CNN
F 2 "" H 21900 12550 50  0001 C CNN
F 3 "" H 21900 12550 50  0001 C CNN
	1    21900 12550
	1    0    0    -1  
$EndComp
Text Label 23600 11950 0    60   ~ 0
D-
$Comp
L USB_B J1
U 1 1 5AE1C1D2
P 21900 11850
F 0 "J1" H 21700 12300 50  0000 L CNN
F 1 "USB_B" H 21700 12200 50  0000 L CNN
F 2 "Connectors:USB_B" H 22050 11800 50  0001 C CNN
F 3 "" H 22050 11800 50  0001 C CNN
	1    21900 11850
	1    0    0    -1  
$EndComp
$Comp
L VBUS #PWR14
U 1 1 5AE1C1D3
P 22300 11450
F 0 "#PWR14" H 22300 11300 50  0001 C CNN
F 1 "VBUS" H 22300 11600 50  0000 C CNN
F 2 "" H 22300 11450 50  0001 C CNN
F 3 "" H 22300 11450 50  0001 C CNN
	1    22300 11450
	1    0    0    -1  
$EndComp
$Comp
L +3V3 #PWR17
U 1 1 5AE1E794
P 15100 12350
F 0 "#PWR17" H 15100 12200 50  0001 C CNN
F 1 "+3V3" H 15100 12490 50  0000 C CNN
F 2 "" H 15100 12350 50  0001 C CNN
F 3 "" H 15100 12350 50  0001 C CNN
	1    15100 12350
	1    0    0    -1  
$EndComp
$Comp
L GND #PWR20
U 1 1 5AE1E5C6
P 15100 13900
F 0 "#PWR20" H 15100 13650 50  0001 C CNN
F 1 "GND" H 15100 13750 50  0000 C CNN
F 2 "" H 15100 13900 50  0001 C CNN
F 3 "" H 15100 13900 50  0001 C CNN
	1    15100 13900
	1    0    0    -1  
$EndComp
$Comp
L SAMD11C U3
U 1 1 5AE1B9A5
P 15100 13150
F 0 "U3" H 14750 12700 60  0000 C CNN
F 1 "SAMD11C" H 15250 13250 60  0000 C CNN
F 2 "Housings_SOIC:SOIC-14_3.9x8.7mm_Pitch1.27mm" H 15300 13350 60  0001 C CNN
F 3 "" H 15300 13350 60  0001 C CNN
	1    15100 13150
	1    0    0    -1  
$EndComp
Text Label 15650 13200 0    60   ~ 0
D+
Text Label 15650 13300 0    60   ~ 0
D-
Text Label 14550 13300 2    60   ~ 0
~RST
Text Label 14400 13400 2    60   ~ 0
SWDCLK
Text Label 15800 13400 0    60   ~ 0
SWDAT
Text Label 15650 13400 0    60   ~ 0
RX
Text Label 14550 13400 2    60   ~ 0
TX
Text Label 14550 12800 2    60   ~ 0
PA05
Text Label 14550 13100 2    60   ~ 0
PA14
Text Label 14550 13200 2    60   ~ 0
PA15
Text Label 15650 12800 0    60   ~ 0
PA04
Text Label 15650 12900 0    60   ~ 0
PA02
Text Label 17300 13350 2    60   ~ 0
SWDAT
Text Label 17300 13250 2    60   ~ 0
SWDCLK
Text Label 17300 12950 2    60   ~ 0
~RST
$Comp
L GND #PWR15
U 1 1 5AE23A1F
P 12200 11650
F 0 "#PWR15" H 12200 11400 50  0001 C CNN
F 1 "GND" H 12200 11500 50  0000 C CNN
F 2 "" H 12200 11650 50  0001 C CNN
F 3 "" H 12200 11650 50  0001 C CNN
	1    12200 11650
	1    0    0    -1  
$EndComp
$Comp
L +3V3 #PWR7
U 1 1 5AE23C54
P 12200 10200
F 0 "#PWR7" H 12200 10050 50  0001 C CNN
F 1 "+3V3" H 12200 10340 50  0000 C CNN
F 2 "" H 12200 10200 50  0001 C CNN
F 3 "" H 12200 10200 50  0001 C CNN
	1    12200 10200
	1    0    0    -1  
$EndComp
$Comp
L +5V #PWR8
U 1 1 5AE23E1B
P 12450 10200
F 0 "#PWR8" H 12450 10050 50  0001 C CNN
F 1 "+5V" H 12450 10340 50  0000 C CNN
F 2 "" H 12450 10200 50  0001 C CNN
F 3 "" H 12450 10200 50  0001 C CNN
	1    12450 10200
	1    0    0    -1  
$EndComp
Text Label 12600 10700 2    60   ~ 0
TX
Text Label 12600 10800 2    60   ~ 0
RX
Text Label 12600 11200 2    60   ~ 0
PA14
Text Label 12600 11300 2    60   ~ 0
PA15
Text Label 12600 10600 2    60   ~ 0
~RST
Text Label 12600 11000 2    60   ~ 0
PA04
Text Label 12600 11100 2    60   ~ 0
PA05
Text Label 12600 11400 2    60   ~ 0
PA02
Text Label 19050 11050 2    60   ~ 0
~RST
$Comp
L C C9
U 1 1 5AE1C1CD
P 19650 11050
F 0 "C9" H 19660 11120 50  0000 L CNN
F 1 "0.1uF" H 19660 10970 50  0000 L CNN
F 2 "Capacitors_SMD:C_0603" H 19650 11050 50  0001 C CNN
F 3 "" H 19650 11050 50  0001 C CNN
	1    19650 11050
	0    1    1    0   
$EndComp
$Comp
L C C5
U 1 1 5AE1C1C8
P 13850 10750
F 0 "C5" H 13860 10820 50  0000 L CNN
F 1 "0.1uF" H 13860 10670 50  0000 L CNN
F 2 "Capacitors_SMD:C_0603" H 13850 10750 50  0001 C CNN
F 3 "" H 13850 10750 50  0001 C CNN
	1    13850 10750
	1    0    0    -1  
$EndComp
$Comp
L GND #PWR11
U 1 1 5AE1C1C7
P 13750 11050
F 0 "#PWR11" H 13750 10800 50  0001 C CNN
F 1 "GND" H 13750 10900 50  0000 C CNN
F 2 "" H 13750 11050 50  0001 C CNN
F 3 "" H 13750 11050 50  0001 C CNN
	1    13750 11050
	1    0    0    -1  
$EndComp
$Comp
L C C4
U 1 1 5AE1C1C6
P 13650 10750
F 0 "C4" H 13660 10820 50  0000 L CNN
F 1 "10uF" H 13660 10670 50  0000 L CNN
F 2 "Capacitors_SMD:C_1206" H 13650 10750 50  0001 C CNN
F 3 "" H 13650 10750 50  0001 C CNN
	1    13650 10750
	1    0    0    -1  
$EndComp
$Comp
L SPST S1
U 1 1 5AE1C1BB
P 19950 10750
F 0 "S1" H 19940 10835 60  0000 C CNN
F 1 "SPST" H 19950 10655 60  0000 C CNN
F 2 "chordboard-footprints:SW_PUSH_6mm" H 19950 10750 60  0001 C CNN
F 3 "" H 19950 10750 60  0001 C CNN
	1    19950 10750
	1    0    0    -1  
$EndComp
$Comp
L GND #PWR13
U 1 1 5AE1C1B4
P 20150 11200
F 0 "#PWR13" H 20150 10950 50  0001 C CNN
F 1 "GND" H 20150 11050 50  0000 C CNN
F 2 "" H 20150 11200 50  0001 C CNN
F 3 "" H 20150 11200 50  0001 C CNN
	1    20150 11200
	1    0    0    -1  
$EndComp
$Comp
L R R2
U 1 1 5AE1C1B3
P 19650 10750
F 0 "R2" V 19700 10850 50  0000 L CNN
F 1 "330" V 19650 10700 50  0000 L CNN
F 2 "Resistors_SMD:R_0603" H 19650 10750 50  0001 C CNN
F 3 "" H 19650 10750 50  0001 C CNN
	1    19650 10750
	0    -1   -1   0   
$EndComp
$Comp
L R R1
U 1 1 5AE1C1B2
P 19250 10750
F 0 "R1" V 19300 10850 50  0000 L CNN
F 1 "10K" V 19250 10700 50  0000 L CNN
F 2 "Resistors_SMD:R_0603" H 19250 10750 50  0001 C CNN
F 3 "" H 19250 10750 50  0001 C CNN
	1    19250 10750
	0    1    1    0   
$EndComp
$Comp
L +3V3 #PWR9
U 1 1 5AE1C1B1
P 13750 10550
F 0 "#PWR9" H 13750 10400 50  0001 C CNN
F 1 "+3V3" H 13750 10690 50  0000 C CNN
F 2 "" H 13750 10550 50  0001 C CNN
F 3 "" H 13750 10550 50  0001 C CNN
	1    13750 10550
	1    0    0    -1  
$EndComp
$Comp
L +3V3 #PWR10
U 1 1 5AE2747D
P 19050 10550
F 0 "#PWR10" H 19050 10400 50  0001 C CNN
F 1 "+3V3" H 19050 10690 50  0000 C CNN
F 2 "" H 19050 10550 50  0001 C CNN
F 3 "" H 19050 10550 50  0001 C CNN
	1    19050 10550
	1    0    0    -1  
$EndComp
$Comp
L Crystal_Small Y2
U 1 1 5AE27DF7
P 13650 13350
F 0 "Y2" H 13650 13450 50  0000 C CNN
F 1 "Crystal_Small" H 13650 13250 50  0000 C CNN
F 2 "Crystals:Crystal_SMD_3215-2pin_3.2x1.5mm" H 13650 13350 50  0001 C CNN
F 3 "" H 13650 13350 50  0001 C CNN
	1    13650 13350
	-1   0    0    -1  
$EndComp
$Comp
L C C6
U 1 1 5AE27DFD
P 13500 13550
F 0 "C6" H 13510 13620 50  0000 L CNN
F 1 "18pF" H 13510 13470 50  0000 L CNN
F 2 "Capacitors_SMD:C_0603" H 13500 13550 50  0001 C CNN
F 3 "" H 13500 13550 50  0001 C CNN
	1    13500 13550
	1    0    0    -1  
$EndComp
$Comp
L C C7
U 1 1 5AE27E03
P 13800 13550
F 0 "C7" H 13810 13620 50  0000 L CNN
F 1 "18pF" H 13810 13470 50  0000 L CNN
F 2 "Capacitors_SMD:C_0603" H 13800 13550 50  0001 C CNN
F 3 "" H 13800 13550 50  0001 C CNN
	1    13800 13550
	1    0    0    -1  
$EndComp
$Comp
L GND #PWR21
U 1 1 5AE27E09
P 13500 14450
F 0 "#PWR21" H 13500 14200 50  0001 C CNN
F 1 "GND" H 13500 14300 50  0000 C CNN
F 2 "" H 13500 14450 50  0001 C CNN
F 3 "" H 13500 14450 50  0001 C CNN
	1    13500 14450
	1    0    0    -1  
$EndComp
$Comp
L Conn_01x12 J3
U 1 1 5AE2A2CE
P 12800 10900
F 0 "J3" H 12800 11500 50  0000 C CNN
F 1 "Conn_01x12" H 12800 10200 50  0000 C CNN
F 2 "Pin_Headers:Pin_Header_Angled_1x12_Pitch2.54mm" H 12800 10900 50  0001 C CNN
F 3 "" H 12800 10900 50  0001 C CNN
	1    12800 10900
	1    0    0    -1  
$EndComp
$Comp
L R R6
U 1 1 5AE2A8D6
P 16800 11600
F 0 "R6" V 16850 11700 50  0000 L CNN
F 1 "2.2K" V 16800 11550 50  0000 L CNN
F 2 "Resistors_SMD:R_0603" H 16800 11600 50  0001 C CNN
F 3 "" H 16800 11600 50  0001 C CNN
	1    16800 11600
	-1   0    0    1   
$EndComp
$Comp
L R R7
U 1 1 5AE2AA1C
P 16900 11600
F 0 "R7" V 16950 11700 50  0000 L CNN
F 1 "2.2K" V 16900 11550 50  0000 L CNN
F 2 "Resistors_SMD:R_0603" H 16900 11600 50  0001 C CNN
F 3 "" H 16900 11600 50  0001 C CNN
	1    16900 11600
	-1   0    0    1   
$EndComp
Text Label 15800 11900 2    60   ~ 0
PA14
Text Label 15800 11800 2    60   ~ 0
PA15
Text Label 15800 12100 2    60   ~ 0
PA04
Text Label 15800 12000 2    60   ~ 0
PA05
$Comp
L SW_DIP_x04 SW1
U 1 1 5AE2BCFC
P 16200 12000
F 0 "SW1" H 16200 12350 50  0000 C CNN
F 1 "SW_DIP_x04" H 16200 11750 50  0000 C CNN
F 2 "Buttons_Switches_THT:SW_DIP_x4_W7.62mm_Slide" H 16200 12000 50  0001 C CNN
F 3 "" H 16200 12000 50  0001 C CNN
	1    16200 12000
	1    0    0    -1  
$EndComp
$Comp
L Test_Point TP1
U 1 1 5AE2DC9A
P 22550 11500
F 0 "TP1" H 22550 11770 50  0000 C CNN
F 1 "Test_Point" H 22550 11700 50  0000 C CNN
F 2 "Connectors_TestPoints:Test_Point_THTPad_1.5x1.5mm_Drill0.7mm" H 22750 11500 50  0001 C CNN
F 3 "" H 22750 11500 50  0001 C CNN
	1    22550 11500
	1    0    0    -1  
$EndComp
$Comp
L Conn_ARM_JTAG_SWD_20 J2
U 1 1 5AE2F53E
P 19050 13350
F 0 "J2" H 18850 14200 50  0000 R CNN
F 1 "Conn_ARM_JTAG_SWD_20" H 18850 14100 50  0000 R BNN
F 2 "Connectors_IDC:IDC-Header_2x10_Pitch2.54mm_Straight" H 19500 12300 50  0001 L TNN
F 3 "" V 18700 12100 50  0001 C CNN
	1    19050 13350
	-1   0    0    -1  
$EndComp
$Comp
L Test_Point TP5
U 1 1 5AE3278C
P 15350 13750
F 0 "TP5" H 15350 14020 50  0000 C CNN
F 1 "Test_Point" H 15350 13950 50  0000 C CNN
F 2 "Connectors_TestPoints:Test_Point_THTPad_1.5x1.5mm_Drill0.7mm" H 15550 13750 50  0001 C CNN
F 3 "" H 15550 13750 50  0001 C CNN
	1    15350 13750
	0    1    1    0   
$EndComp
$Comp
L Test_Point TP4
U 1 1 5AE32D33
P 15350 12500
F 0 "TP4" H 15350 12770 50  0000 C CNN
F 1 "Test_Point" H 15350 12700 50  0000 C CNN
F 2 "Connectors_TestPoints:Test_Point_THTPad_1.5x1.5mm_Drill0.7mm" H 15550 12500 50  0001 C CNN
F 3 "" H 15550 12500 50  0001 C CNN
	1    15350 12500
	0    1    1    0   
$EndComp
$Comp
L Test_Point TP2
U 1 1 5AE33915
P 22000 8000
F 0 "TP2" H 22000 8270 50  0000 C CNN
F 1 "Test_Point" H 22000 8200 50  0000 C CNN
F 2 "Connectors_TestPoints:Test_Point_THTPad_1.5x1.5mm_Drill0.7mm" H 22200 8000 50  0001 C CNN
F 3 "" H 22200 8000 50  0001 C CNN
	1    22000 8000
	0    -1   -1   0   
$EndComp
$Comp
L Test_Point TP3
U 1 1 5AE34071
P 19450 11250
F 0 "TP3" H 19450 11520 50  0000 C CNN
F 1 "Test_Point" H 19450 11450 50  0000 C CNN
F 2 "Connectors_TestPoints:Test_Point_THTPad_1.5x1.5mm_Drill0.7mm" H 19650 11250 50  0001 C CNN
F 3 "" H 19650 11250 50  0001 C CNN
	1    19450 11250
	-1   0    0    1   
$EndComp
Wire Wire Line
	23250 8200 23050 8200
Wire Wire Line
	23250 7900 23250 8300
Wire Wire Line
	22250 8200 22450 8200
Wire Wire Line
	22750 8500 22750 8750
Wire Wire Line
	22250 8600 23250 8600
Wire Wire Line
	22250 8600 22250 8500
Wire Wire Line
	23250 8600 23250 8500
Connection ~ 22750 8600
Connection ~ 22250 8200
Connection ~ 23250 8200
Wire Wire Line
	22250 7900 22250 8300
Wire Wire Line
	19550 7850 19550 8350
Wire Wire Line
	19550 8050 19750 8050
Wire Wire Line
	20050 8050 20200 8050
Wire Wire Line
	20900 8050 20900 7850
Connection ~ 19550 8050
Wire Wire Line
	19550 8550 19550 8800
Wire Wire Line
	16700 11900 16700 11700
Wire Wire Line
	16600 11800 16600 11700
Wire Wire Line
	16600 11500 16600 11400
Wire Wire Line
	16600 11400 16900 11400
Wire Wire Line
	16700 11400 16700 11500
Wire Wire Line
	16750 11400 16750 11150
Wire Wire Line
	17300 12950 18450 12950
Wire Wire Line
	17300 13250 18450 13250
Wire Wire Line
	17300 13350 18450 13350
Wire Wire Line
	19150 14150 19150 14500
Wire Wire Line
	19100 12250 19100 12500
Wire Wire Line
	20900 8050 20500 8050
Wire Wire Line
	18250 12350 18350 12350
Wire Wire Line
	18550 12350 19100 12350
Connection ~ 19100 12350
Wire Wire Line
	23200 12550 23200 11950
Connection ~ 23200 11950
Wire Wire Line
	22400 12550 22400 11850
Connection ~ 22400 11850
Wire Wire Line
	22800 12950 22800 13200
Wire Wire Line
	21900 12250 21900 12550
Wire Wire Line
	22300 11650 22200 11650
Wire Wire Line
	22300 11450 22300 11650
Wire Wire Line
	22200 11850 23600 11850
Wire Wire Line
	22200 11950 23600 11950
Wire Wire Line
	15100 12350 15100 12550
Wire Wire Line
	15100 13650 15100 13900
Wire Wire Line
	15650 13400 15800 13400
Wire Wire Line
	14550 13400 14400 13400
Wire Wire Line
	12200 10900 12200 11650
Wire Wire Line
	12200 10500 12200 10200
Wire Wire Line
	12450 10400 12450 10200
Connection ~ 20150 11050
Wire Wire Line
	19750 11050 20150 11050
Wire Wire Line
	13750 10950 13750 11050
Wire Wire Line
	13850 10950 13850 10850
Wire Wire Line
	13850 10600 13850 10650
Wire Wire Line
	13650 10850 13650 10950
Wire Wire Line
	13650 10600 13650 10650
Wire Wire Line
	20150 10750 20150 11200
Wire Wire Line
	20100 10750 20150 10750
Wire Wire Line
	19450 10750 19450 11250
Wire Wire Line
	19750 10750 19800 10750
Connection ~ 19450 10750
Wire Wire Line
	19350 10750 19550 10750
Wire Wire Line
	13650 10600 13850 10600
Wire Wire Line
	13750 10550 13750 10600
Connection ~ 13750 10600
Wire Wire Line
	13650 10950 13850 10950
Connection ~ 13750 10950
Wire Wire Line
	19150 10750 19050 10750
Wire Wire Line
	19050 10750 19050 10550
Wire Wire Line
	19050 11050 19550 11050
Connection ~ 19450 11050
Wire Wire Line
	13500 12900 13500 13450
Wire Wire Line
	13500 13350 13550 13350
Wire Wire Line
	13800 13000 13800 13450
Wire Wire Line
	13800 13350 13750 13350
Wire Wire Line
	14550 13000 13800 13000
Wire Wire Line
	14550 12900 13500 12900
Connection ~ 13800 13350
Connection ~ 13500 13350
Wire Wire Line
	13500 13650 13500 14450
Wire Wire Line
	13500 13750 13800 13750
Wire Wire Line
	13800 13750 13800 13650
Connection ~ 13500 13750
Wire Wire Line
	12200 10500 12600 10500
Wire Wire Line
	12200 11500 12600 11500
Wire Wire Line
	16800 11400 16800 11500
Connection ~ 16700 11400
Wire Wire Line
	16900 11400 16900 11500
Connection ~ 16800 11400
Connection ~ 16750 11400
Wire Wire Line
	16900 11700 16900 12100
Wire Wire Line
	16800 11700 16800 12000
Wire Wire Line
	16500 11800 16600 11800
Wire Wire Line
	16500 11900 16700 11900
Wire Wire Line
	16800 12000 16500 12000
Wire Wire Line
	16900 12100 16500 12100
Wire Wire Line
	15900 11800 15800 11800
Wire Wire Line
	15900 11900 15800 11900
Wire Wire Line
	15900 12000 15800 12000
Wire Wire Line
	15900 12100 15800 12100
Wire Wire Line
	22550 11500 22550 11550
Wire Wire Line
	22550 11550 22300 11550
Connection ~ 22300 11550
Wire Wire Line
	19050 12550 19050 12500
Wire Wire Line
	19050 12500 19150 12500
Wire Wire Line
	19150 12500 19150 12550
Connection ~ 19100 12500
Wire Wire Line
	18250 12350 18250 13250
Connection ~ 18250 13250
Wire Wire Line
	15100 13750 15350 13750
Connection ~ 15100 13750
Wire Wire Line
	15100 12500 15350 12500
Connection ~ 15100 12500
Wire Wire Line
	22250 8000 22000 8000
Connection ~ 22250 8000
Wire Wire Line
	12600 10900 12200 10900
Connection ~ 12200 11500
Wire Wire Line
	12450 10400 12600 10400
$EndSCHEMATC
