G04 #@! TF.FileFunction,Profile,NP*
%FSLAX46Y46*%
G04 Gerber Fmt 4.6, Leading zero omitted, Abs format (unit mm)*
G04 Created by KiCad (PCBNEW 4.0.7) date Thu Jul 12 22:22:09 2018*
%MOMM*%
%LPD*%
G01*
G04 APERTURE LIST*
%ADD10C,0.100000*%
%ADD11C,0.150000*%
G04 APERTURE END LIST*
D10*
D11*
X185420000Y-20320000D02*
X185420000Y43180000D01*
X-25400000Y-20320000D02*
X-25400000Y43180000D01*
X-25400000Y-20320000D02*
X185420000Y-20320000D01*
X-25400000Y43180000D02*
X185420000Y43180000D01*
M02*
