G04 #@! TF.FileFunction,Soldermask,Bot*
%FSLAX46Y46*%
G04 Gerber Fmt 4.6, Leading zero omitted, Abs format (unit mm)*
G04 Created by KiCad (PCBNEW 4.0.7) date Thu Jul 12 22:22:09 2018*
%MOMM*%
%LPD*%
G01*
G04 APERTURE LIST*
%ADD10C,0.100000*%
%ADD11R,2.000000X2.000000*%
%ADD12O,2.000000X2.000000*%
%ADD13C,5.800000*%
%ADD14C,1.000000*%
%ADD15C,2.500000*%
%ADD16C,2.150000*%
%ADD17C,2.000000*%
%ADD18R,2.100000X2.100000*%
%ADD19O,2.100000X2.100000*%
%ADD20C,1.900000*%
%ADD21C,3.400000*%
%ADD22C,1.800000*%
%ADD23O,1.800000X1.800000*%
%ADD24R,2.127200X2.127200*%
%ADD25O,2.127200X2.127200*%
%ADD26O,3.900000X3.900000*%
%ADD27R,2.200000X2.200000*%
%ADD28O,2.200000X2.200000*%
G04 APERTURE END LIST*
D10*
D11*
X73660000Y20320000D03*
D12*
X81280000Y-12700000D03*
X73660000Y17780000D03*
X81280000Y-10160000D03*
X73660000Y15240000D03*
X81280000Y-7620000D03*
X73660000Y12700000D03*
X81280000Y-5080000D03*
X73660000Y10160000D03*
X81280000Y-2540000D03*
X73660000Y7620000D03*
X81280000Y0D03*
X73660000Y5080000D03*
X81280000Y2540000D03*
X73660000Y2540000D03*
X81280000Y5080000D03*
X73660000Y0D03*
X81280000Y7620000D03*
X73660000Y-2540000D03*
X81280000Y10160000D03*
X73660000Y-5080000D03*
X81280000Y12700000D03*
X73660000Y-7620000D03*
X81280000Y15240000D03*
X73660000Y-10160000D03*
X81280000Y17780000D03*
X73660000Y-12700000D03*
X81280000Y20320000D03*
D13*
X88900000Y20320000D03*
D14*
X90925000Y20320000D03*
X90331891Y18888109D03*
X88900000Y18295000D03*
X87468109Y18888109D03*
X86875000Y20320000D03*
X87468109Y21751891D03*
X88900000Y22345000D03*
X90331891Y21751891D03*
D13*
X12700000Y-2540000D03*
D14*
X14725000Y-2540000D03*
X14131891Y-3971891D03*
X12700000Y-4565000D03*
X11268109Y-3971891D03*
X10675000Y-2540000D03*
X11268109Y-1108109D03*
X12700000Y-515000D03*
X14131891Y-1108109D03*
D13*
X180340000Y38100000D03*
D14*
X182365000Y38100000D03*
X181771891Y36668109D03*
X180340000Y36075000D03*
X178908109Y36668109D03*
X178315000Y38100000D03*
X178908109Y39531891D03*
X180340000Y40125000D03*
X181771891Y39531891D03*
D13*
X-20320000Y11268109D03*
D14*
X-18295000Y11268109D03*
X-18888109Y9836218D03*
X-20320000Y9243109D03*
X-21751891Y9836218D03*
X-22345000Y11268109D03*
X-21751891Y12700000D03*
X-20320000Y13293109D03*
X-18888109Y12700000D03*
D13*
X180340000Y-15240000D03*
D14*
X182365000Y-15240000D03*
X181771891Y-16671891D03*
X180340000Y-17265000D03*
X178908109Y-16671891D03*
X178315000Y-15240000D03*
X178908109Y-13808109D03*
X180340000Y-13215000D03*
X181771891Y-13808109D03*
D13*
X38100000Y-2540000D03*
D14*
X40125000Y-2540000D03*
X39531891Y-3971891D03*
X38100000Y-4565000D03*
X36668109Y-3971891D03*
X36075000Y-2540000D03*
X36668109Y-1108109D03*
X38100000Y-515000D03*
X39531891Y-1108109D03*
D15*
X177850000Y-3220000D03*
D16*
X180340000Y-1960000D03*
X180340000Y2540000D03*
D15*
X177850000Y3790000D03*
D13*
X-20320000Y-15240000D03*
D14*
X-18295000Y-15240000D03*
X-18888109Y-16671891D03*
X-20320000Y-17265000D03*
X-21751891Y-16671891D03*
X-22345000Y-15240000D03*
X-21751891Y-13808109D03*
X-20320000Y-13215000D03*
X-18888109Y-13808109D03*
D13*
X-20320000Y38100000D03*
D14*
X-18295000Y38100000D03*
X-18888109Y36668109D03*
X-20320000Y36075000D03*
X-21751891Y36668109D03*
X-22345000Y38100000D03*
X-21751891Y39531891D03*
X-20320000Y40125000D03*
X-18888109Y39531891D03*
D11*
X48260000Y20320000D03*
D12*
X55880000Y-12700000D03*
X48260000Y17780000D03*
X55880000Y-10160000D03*
X48260000Y15240000D03*
X55880000Y-7620000D03*
X48260000Y12700000D03*
X55880000Y-5080000D03*
X48260000Y10160000D03*
X55880000Y-2540000D03*
X48260000Y7620000D03*
X55880000Y0D03*
X48260000Y5080000D03*
X55880000Y2540000D03*
X48260000Y2540000D03*
X55880000Y5080000D03*
X48260000Y0D03*
X55880000Y7620000D03*
X48260000Y-2540000D03*
X55880000Y10160000D03*
X48260000Y-5080000D03*
X55880000Y12700000D03*
X48260000Y-7620000D03*
X55880000Y15240000D03*
X48260000Y-10160000D03*
X55880000Y17780000D03*
X48260000Y-12700000D03*
X55880000Y20320000D03*
D17*
X20320000Y0D03*
X20320000Y-2500000D03*
X45720000Y0D03*
X45720000Y-2500000D03*
X96520000Y-5080000D03*
X96520000Y-2580000D03*
D18*
X68580000Y35560000D03*
D19*
X71120000Y35560000D03*
X73660000Y35560000D03*
X76200000Y35560000D03*
X78740000Y35560000D03*
X81280000Y35560000D03*
X83820000Y35560000D03*
X86360000Y35560000D03*
D18*
X17780000Y35560000D03*
D19*
X20320000Y35560000D03*
X22860000Y35560000D03*
X25400000Y35560000D03*
X27940000Y35560000D03*
X30480000Y35560000D03*
X33020000Y35560000D03*
X35560000Y35560000D03*
D18*
X-7620000Y35560000D03*
D19*
X-5080000Y35560000D03*
X-2540000Y35560000D03*
X0Y35560000D03*
X2540000Y35560000D03*
X5080000Y35560000D03*
X7620000Y35560000D03*
X10160000Y35560000D03*
D18*
X43180000Y35560000D03*
D19*
X45720000Y35560000D03*
X48260000Y35560000D03*
X50800000Y35560000D03*
X53340000Y35560000D03*
X55880000Y35560000D03*
X58420000Y35560000D03*
X60960000Y35560000D03*
D18*
X68580000Y33020000D03*
D19*
X71120000Y33020000D03*
X73660000Y33020000D03*
X76200000Y33020000D03*
X78740000Y33020000D03*
X81280000Y33020000D03*
X83820000Y33020000D03*
X86360000Y33020000D03*
D18*
X17780000Y33020000D03*
D19*
X20320000Y33020000D03*
X22860000Y33020000D03*
X25400000Y33020000D03*
X27940000Y33020000D03*
X30480000Y33020000D03*
X33020000Y33020000D03*
X35560000Y33020000D03*
D18*
X-7620000Y33020000D03*
D19*
X-5080000Y33020000D03*
X-2540000Y33020000D03*
X0Y33020000D03*
X2540000Y33020000D03*
X5080000Y33020000D03*
X7620000Y33020000D03*
X10160000Y33020000D03*
D18*
X43180000Y33020000D03*
D19*
X45720000Y33020000D03*
X48260000Y33020000D03*
X50800000Y33020000D03*
X53340000Y33020000D03*
X55880000Y33020000D03*
X58420000Y33020000D03*
X60960000Y33020000D03*
D17*
X-5080000Y0D03*
X-5080000Y-2500000D03*
X71120000Y0D03*
X71120000Y-2500000D03*
D18*
X180340000Y29845000D03*
D19*
X180340000Y27305000D03*
X180340000Y24765000D03*
X180340000Y22225000D03*
D20*
X97030000Y29080000D03*
X99570000Y29080000D03*
X101600000Y29080000D03*
X104140000Y29080000D03*
D21*
X93980000Y31750000D03*
X107700000Y31750000D03*
D18*
X106680000Y-15240000D03*
D19*
X104140000Y-15240000D03*
X101600000Y-15240000D03*
X99060000Y-15240000D03*
X96520000Y-15240000D03*
X93980000Y-15240000D03*
X91440000Y-15240000D03*
X88900000Y-15240000D03*
D22*
X64770000Y-2540000D03*
D23*
X64770000Y-10160000D03*
D22*
X62230000Y-2540000D03*
D23*
X62230000Y-10160000D03*
D17*
X160020000Y7620000D03*
X144780000Y7620000D03*
X160020000Y10160000D03*
X160020000Y12700000D03*
X160020000Y15240000D03*
X160020000Y17780000D03*
X160020000Y20320000D03*
X160020000Y22860000D03*
X160020000Y25400000D03*
X160020000Y27940000D03*
X160020000Y30480000D03*
X160020000Y33020000D03*
X160020000Y35560000D03*
X160020000Y38100000D03*
X160020000Y40640000D03*
X144780000Y10160000D03*
X144780000Y12700000D03*
X144780000Y15240000D03*
X144780000Y17780000D03*
X144780000Y20320000D03*
X144780000Y22860000D03*
X144780000Y25400000D03*
X144780000Y27940000D03*
X144780000Y30480000D03*
X144780000Y33020000D03*
X144780000Y35560000D03*
X144780000Y38100000D03*
D11*
X144780000Y40640000D03*
X106680000Y-5080000D03*
D12*
X99060000Y17780000D03*
X106680000Y-2540000D03*
X99060000Y15240000D03*
X106680000Y0D03*
X99060000Y12700000D03*
X106680000Y2540000D03*
X99060000Y10160000D03*
X106680000Y5080000D03*
X99060000Y7620000D03*
X106680000Y7620000D03*
X99060000Y5080000D03*
X106680000Y10160000D03*
X99060000Y2540000D03*
X106680000Y12700000D03*
X99060000Y0D03*
X106680000Y15240000D03*
X99060000Y-2540000D03*
X106680000Y17780000D03*
X99060000Y-5080000D03*
D11*
X22860000Y20320000D03*
D12*
X30480000Y-12700000D03*
X22860000Y17780000D03*
X30480000Y-10160000D03*
X22860000Y15240000D03*
X30480000Y-7620000D03*
X22860000Y12700000D03*
X30480000Y-5080000D03*
X22860000Y10160000D03*
X30480000Y-2540000D03*
X22860000Y7620000D03*
X30480000Y0D03*
X22860000Y5080000D03*
X30480000Y2540000D03*
X22860000Y2540000D03*
X30480000Y5080000D03*
X22860000Y0D03*
X30480000Y7620000D03*
X22860000Y-2540000D03*
X30480000Y10160000D03*
X22860000Y-5080000D03*
X30480000Y12700000D03*
X22860000Y-7620000D03*
X30480000Y15240000D03*
X22860000Y-10160000D03*
X30480000Y17780000D03*
X22860000Y-12700000D03*
X30480000Y20320000D03*
D11*
X-2540000Y20320000D03*
D12*
X5080000Y-12700000D03*
X-2540000Y17780000D03*
X5080000Y-10160000D03*
X-2540000Y15240000D03*
X5080000Y-7620000D03*
X-2540000Y12700000D03*
X5080000Y-5080000D03*
X-2540000Y10160000D03*
X5080000Y-2540000D03*
X-2540000Y7620000D03*
X5080000Y0D03*
X-2540000Y5080000D03*
X5080000Y2540000D03*
X-2540000Y2540000D03*
X5080000Y5080000D03*
X-2540000Y0D03*
X5080000Y7620000D03*
X-2540000Y-2540000D03*
X5080000Y10160000D03*
X-2540000Y-5080000D03*
X5080000Y12700000D03*
X-2540000Y-7620000D03*
X5080000Y15240000D03*
X-2540000Y-10160000D03*
X5080000Y17780000D03*
X-2540000Y-12700000D03*
X5080000Y20320000D03*
D17*
X114300000Y0D03*
X114300000Y-2540000D03*
X114300000Y-5080000D03*
X114300000Y-7620000D03*
X114300000Y2540000D03*
X114300000Y5080000D03*
X114300000Y7620000D03*
X114300000Y-10160000D03*
X114300000Y-12700000D03*
X114300000Y-15240000D03*
X114300000Y-17780000D03*
X116840000Y-5080000D03*
X119380000Y-5080000D03*
X121920000Y-5080000D03*
X124460000Y-5080000D03*
X127000000Y-5080000D03*
X129540000Y-17780000D03*
X129540000Y-15240000D03*
X129540000Y-12700000D03*
X129540000Y-10160000D03*
X129540000Y-7620000D03*
X129540000Y-5080000D03*
X129540000Y-2540000D03*
X129540000Y0D03*
X114300000Y10160000D03*
X114300000Y12700000D03*
X114300000Y15240000D03*
X114300000Y17780000D03*
X114300000Y20320000D03*
X114300000Y22860000D03*
X114300000Y25400000D03*
X114300000Y27940000D03*
X114300000Y30480000D03*
X114300000Y33020000D03*
X114300000Y35560000D03*
X114300000Y38100000D03*
D11*
X114300000Y40640000D03*
D17*
X129540000Y2540000D03*
X129540000Y5080000D03*
X129540000Y7620000D03*
X129540000Y10160000D03*
X129540000Y12700000D03*
X129540000Y15240000D03*
X129540000Y17780000D03*
X129540000Y20320000D03*
X129540000Y22860000D03*
X129540000Y25400000D03*
X129540000Y27940000D03*
X129540000Y30480000D03*
X129540000Y33020000D03*
X129540000Y35560000D03*
X129540000Y38100000D03*
X129540000Y40640000D03*
X127000000Y38100000D03*
X117300000Y34290000D03*
X117300000Y31750000D03*
X117300000Y29210000D03*
X117300000Y26670000D03*
X117300000Y24130000D03*
D18*
X134620000Y-17780000D03*
D19*
X134620000Y-15240000D03*
X134620000Y-12700000D03*
X134620000Y-10160000D03*
X134620000Y-7620000D03*
X134620000Y-5080000D03*
X134620000Y-2540000D03*
X134620000Y0D03*
D17*
X160020000Y-10160000D03*
X157520000Y-10160000D03*
D11*
X157480000Y-15240000D03*
D17*
X159480000Y-15240000D03*
D22*
X155575000Y2540000D03*
D23*
X155575000Y-5080000D03*
D22*
X160655000Y2540000D03*
D23*
X160655000Y-5080000D03*
D22*
X158115000Y2540000D03*
D23*
X158115000Y-5080000D03*
D24*
X142240000Y-17780000D03*
D25*
X142240000Y-15240000D03*
X144780000Y-17780000D03*
X144780000Y-15240000D03*
X147320000Y-17780000D03*
X147320000Y-15240000D03*
X149860000Y-17780000D03*
X149860000Y-15240000D03*
D26*
X167640000Y-1120000D03*
D27*
X165100000Y-17780000D03*
D28*
X167640000Y-17780000D03*
X170180000Y-17780000D03*
M02*
