EESchema Schematic File Version 2
LIBS:chordboard-rescue
LIBS:chordboard-components
LIBS:ac-dc
LIBS:adc-dac
LIBS:Altera
LIBS:analog_devices
LIBS:analog_switches
LIBS:atmel
LIBS:audio
LIBS:Battery_Management
LIBS:bbd
LIBS:Bosch
LIBS:brooktre
LIBS:Connector
LIBS:contrib
LIBS:cypress
LIBS:dc-dc
LIBS:Decawave
LIBS:device
LIBS:digital-audio
LIBS:Diode
LIBS:Display
LIBS:driver_gate
LIBS:dsp
LIBS:DSP_Microchip_DSPIC33
LIBS:elec-unifil
LIBS:ESD_Protection
LIBS:Espressif
LIBS:FPGA_Actel
LIBS:ftdi
LIBS:gennum
LIBS:Graphic
LIBS:hc11
LIBS:infineon
LIBS:intel
LIBS:interface
LIBS:intersil
LIBS:ir
LIBS:Lattice
LIBS:LED
LIBS:LEM
LIBS:linear
LIBS:Logic_74xgxx
LIBS:Logic_74xx
LIBS:Logic_CMOS_4000
LIBS:Logic_CMOS_IEEE
LIBS:logic_programmable
LIBS:Logic_TTL_IEEE
LIBS:maxim
LIBS:MCU_Microchip_PIC10
LIBS:MCU_Microchip_PIC12
LIBS:MCU_Microchip_PIC16
LIBS:MCU_Microchip_PIC18
LIBS:MCU_Microchip_PIC24
LIBS:MCU_Microchip_PIC32
LIBS:MCU_NXP_Kinetis
LIBS:MCU_NXP_LPC
LIBS:MCU_NXP_S08
LIBS:MCU_Parallax
LIBS:MCU_ST_STM8
LIBS:MCU_ST_STM32
LIBS:MCU_Texas_MSP430
LIBS:Mechanical
LIBS:memory
LIBS:microchip
LIBS:microcontrollers
LIBS:modules
LIBS:Motor
LIBS:motor_drivers
LIBS:motorola
LIBS:nordicsemi
LIBS:nxp
LIBS:onsemi
LIBS:opto
LIBS:Oscillators
LIBS:philips
LIBS:power
LIBS:powerint
LIBS:Power_Management
LIBS:pspice
LIBS:references
LIBS:regul
LIBS:Relay
LIBS:RF_Bluetooth
LIBS:rfcom
LIBS:RFSolutions
LIBS:Sensor_Current
LIBS:Sensor_Humidity
LIBS:sensors
LIBS:silabs
LIBS:siliconi
LIBS:supertex
LIBS:Switch
LIBS:texas
LIBS:Transformer
LIBS:Transistor
LIBS:triac_thyristor
LIBS:Valve
LIBS:video
LIBS:wiznet
LIBS:Worldsemi
LIBS:Xicor
LIBS:xilinx
LIBS:xilinx-artix7
LIBS:xilinx-kintex7
LIBS:xilinx-spartan6
LIBS:xilinx-virtex5
LIBS:xilinx-virtex6
LIBS:xilinx-virtex7
LIBS:zetex
LIBS:Zilog
LIBS:chordboard-cache
EELAYER 25 0
EELAYER END
$Descr A1 33110 23386
encoding utf-8
Sheet 1 1
Title ""
Date ""
Rev ""
Comp ""
Comment1 ""
Comment2 ""
Comment3 ""
Comment4 ""
$EndDescr
$Comp
L Mounting_Hole MK1
U 1 1 5A6D2DB1
P 23400 7100
F 0 "MK1" H 23400 7300 50  0000 C CNN
F 1 "Mounting_Hole" H 23400 7225 50  0000 C CNN
F 2 "chordboard-footprints:Mounting_Hole" H 23400 7100 50  0001 C CNN
F 3 "" H 23400 7100 50  0001 C CNN
	1    23400 7100
	1    0    0    -1  
$EndComp
$Comp
L Mounting_Hole MK3
U 1 1 5A6D2DE4
P 23600 7100
F 0 "MK3" H 23600 7300 50  0000 C CNN
F 1 "Mounting_Hole" H 23600 7225 50  0000 C CNN
F 2 "chordboard-footprints:Mounting_Hole" H 23600 7100 50  0001 C CNN
F 3 "" H 23600 7100 50  0001 C CNN
	1    23600 7100
	1    0    0    -1  
$EndComp
$Comp
L Mounting_Hole MK5
U 1 1 5A6D2E0D
P 23800 7100
F 0 "MK5" H 23800 7300 50  0000 C CNN
F 1 "Mounting_Hole" H 23800 7225 50  0000 C CNN
F 2 "chordboard-footprints:Mounting_Hole" H 23800 7100 50  0001 C CNN
F 3 "" H 23800 7100 50  0001 C CNN
	1    23800 7100
	1    0    0    -1  
$EndComp
$Comp
L Mounting_Hole MK7
U 1 1 5A6D2E39
P 24000 7100
F 0 "MK7" H 24000 7300 50  0000 C CNN
F 1 "Mounting_Hole" H 24000 7225 50  0000 C CNN
F 2 "chordboard-footprints:Mounting_Hole" H 24000 7100 50  0001 C CNN
F 3 "" H 24000 7100 50  0001 C CNN
	1    24000 7100
	1    0    0    -1  
$EndComp
$Comp
L Mounting_Hole MK2
U 1 1 5A6D2EC5
P 23400 7300
F 0 "MK2" H 23400 7500 50  0000 C CNN
F 1 "Mounting_Hole" H 23400 7425 50  0000 C CNN
F 2 "chordboard-footprints:Mounting_Hole" H 23400 7300 50  0001 C CNN
F 3 "" H 23400 7300 50  0001 C CNN
	1    23400 7300
	1    0    0    -1  
$EndComp
$Comp
L Mounting_Hole MK4
U 1 1 5A6D2ECB
P 23600 7300
F 0 "MK4" H 23600 7500 50  0000 C CNN
F 1 "Mounting_Hole" H 23600 7425 50  0000 C CNN
F 2 "chordboard-footprints:Mounting_Hole" H 23600 7300 50  0001 C CNN
F 3 "" H 23600 7300 50  0001 C CNN
	1    23600 7300
	1    0    0    -1  
$EndComp
$Comp
L Mounting_Hole MK6
U 1 1 5A6D2ED1
P 23800 7300
F 0 "MK6" H 23800 7500 50  0000 C CNN
F 1 "Mounting_Hole" H 23800 7425 50  0000 C CNN
F 2 "chordboard-footprints:Mounting_Hole" H 23800 7300 50  0001 C CNN
F 3 "" H 23800 7300 50  0001 C CNN
	1    23800 7300
	1    0    0    -1  
$EndComp
$Comp
L Mounting_Hole MK8
U 1 1 5A6D2ED7
P 24000 7300
F 0 "MK8" H 24000 7500 50  0000 C CNN
F 1 "Mounting_Hole" H 24000 7425 50  0000 C CNN
F 2 "chordboard-footprints:Mounting_Hole" H 24000 7300 50  0001 C CNN
F 3 "" H 24000 7300 50  0001 C CNN
	1    24000 7300
	1    0    0    -1  
$EndComp
$Comp
L R R2
U 1 1 5A87D710
P 23200 12400
F 0 "R2" V 23100 12350 50  0000 C CNN
F 1 "4.7K" V 23200 12400 50  0000 C CNN
F 2 "Resistors_SMD:R_1206_HandSoldering" V 23130 12400 50  0001 C CNN
F 3 "" H 23200 12400 50  0000 C CNN
	1    23200 12400
	1    0    0    -1  
$EndComp
$Comp
L R R3
U 1 1 5A87D711
P 23300 12400
F 0 "R3" V 23400 12350 50  0000 C CNN
F 1 "4.7K" V 23300 12400 50  0000 C CNN
F 2 "Resistors_SMD:R_1206_HandSoldering" V 23230 12400 50  0001 C CNN
F 3 "" H 23300 12400 50  0000 C CNN
	1    23300 12400
	1    0    0    -1  
$EndComp
$Comp
L +3.3V #PWR01
U 1 1 5A87D712
P 23250 11250
F 0 "#PWR01" H 23250 11100 50  0001 C CNN
F 1 "+3.3V" H 23250 11390 50  0000 C CNN
F 2 "" H 23250 11250 50  0000 C CNN
F 3 "" H 23250 11250 50  0000 C CNN
	1    23250 11250
	1    0    0    -1  
$EndComp
$Comp
L GND #PWR02
U 1 1 5A87D713
P 19400 8550
F 0 "#PWR02" H 19400 8300 50  0001 C CNN
F 1 "GND" H 19400 8400 50  0000 C CNN
F 2 "" H 19400 8550 50  0000 C CNN
F 3 "" H 19400 8550 50  0000 C CNN
	1    19400 8550
	-1   0    0    1   
$EndComp
NoConn ~ 19400 11350
NoConn ~ 21400 12450
NoConn ~ 21400 12050
NoConn ~ 21400 11250
NoConn ~ 21400 11150
NoConn ~ 21400 11050
NoConn ~ 21400 10950
NoConn ~ 21400 10150
NoConn ~ 21400 10050
Text Label 19400 10150 2    60   ~ 0
AU_MCLK
Text Label 19400 9950 2    60   ~ 0
AU_BCLK
$Comp
L SW_SPST CORE_SW1
U 1 1 5A87D715
P 18700 11650
F 0 "CORE_SW1" H 18550 11700 50  0000 C CNN
F 1 "PGM" H 18900 11700 50  0000 C CNN
F 2 "Buttons_Switches_THT:SW_Tactile_SPST_Angled_PTS645Vx58-2LFS" H 18700 11650 50  0001 C CNN
F 3 "" H 18700 11650 50  0001 C CNN
	1    18700 11650
	1    0    0    -1  
$EndComp
$Comp
L GND #PWR03
U 1 1 5A87D716
P 18200 13400
F 0 "#PWR03" H 18200 13150 50  0001 C CNN
F 1 "GND" H 18200 13250 50  0000 C CNN
F 2 "" H 18200 13400 50  0000 C CNN
F 3 "" H 18200 13400 50  0000 C CNN
	1    18200 13400
	1    0    0    -1  
$EndComp
NoConn ~ 19400 11450
Text Label 19400 12850 2    60   ~ 0
AU_RX
Text Label 21400 12550 0    60   ~ 0
AU_LRCLK
Text Label 21400 12650 0    60   ~ 0
AU_TX
$Comp
L Teensy_Audio_Board U4
U 1 1 5A87D719
P 28850 10650
F 0 "U4" H 28650 11800 60  0000 C CNN
F 1 "Teensy_Audio_Board" H 28850 10100 60  0000 C CNN
F 2 "afshar-kicad-lib:Teensy_Audio_Board" H 28650 10100 60  0001 C CNN
F 3 "" H 28650 10100 60  0000 C CNN
	1    28850 10650
	1    0    0    -1  
$EndComp
Text Label 28100 10950 2    60   ~ 0
AU_MCLK
Text Label 28100 10750 2    60   ~ 0
AU_BCLK
Text Label 29550 11050 0    60   ~ 0
AU_RX
Text Label 29550 10450 0    60   ~ 0
SCL
Text Label 29550 10550 0    60   ~ 0
SDA
$Comp
L GND #PWR04
U 1 1 5A87D71A
P 27750 9900
F 0 "#PWR04" H 27750 9650 50  0001 C CNN
F 1 "GND" H 27750 9750 50  0000 C CNN
F 2 "" H 27750 9900 50  0000 C CNN
F 3 "" H 27750 9900 50  0000 C CNN
	1    27750 9900
	1    0    0    -1  
$EndComp
Text Label 29550 10150 0    60   ~ 0
AU_TX
Text Label 29550 10050 0    60   ~ 0
AU_LRCLK
$Comp
L +3.3V #PWR05
U 1 1 5A87D71B
P 30050 9400
F 0 "#PWR05" H 30050 9250 50  0001 C CNN
F 1 "+3.3V" H 30050 9540 50  0000 C CNN
F 2 "" H 30050 9400 50  0001 C CNN
F 3 "" H 30050 9400 50  0001 C CNN
	1    30050 9400
	1    0    0    -1  
$EndComp
Text Label 28100 11050 2    60   ~ 0
MISO
Text Label 19400 12950 2    60   ~ 0
SCK
Text Label 29550 10950 0    60   ~ 0
SCK
Text Label 28100 10850 2    60   ~ 0
AUSD_CS
Text Label 28100 10550 2    60   ~ 0
MOSI
Text Label 28100 10450 2    60   ~ 0
AUMEM_CS
NoConn ~ 21400 11850
NoConn ~ 21400 11950
$Comp
L +5V #PWR06
U 1 1 5A87D71D
P 22250 12150
F 0 "#PWR06" H 22250 12000 50  0001 C CNN
F 1 "+5V" H 22250 12290 50  0000 C CNN
F 2 "" H 22250 12150 50  0001 C CNN
F 3 "" H 22250 12150 50  0001 C CNN
	1    22250 12150
	1    0    0    -1  
$EndComp
$Comp
L Teensy3.6 U2
U 1 1 5A87D71E
P 20400 11050
F 0 "U2" H 20400 13350 60  0000 C CNN
F 1 "Teensy3.6" H 20400 8750 60  0000 C CNN
F 2 "chordboard-footprints:Teensy35_36_external_pins" H 20400 11050 60  0001 C CNN
F 3 "" H 20400 11050 60  0000 C CNN
	1    20400 11050
	1    0    0    -1  
$EndComp
Text Label 19400 13150 2    60   ~ 0
WIFI_RST
Text Label 21400 13150 0    60   ~ 0
WIFI_PGM
$Comp
L +3.3V #PWR07
U 1 1 5A87D71F
P 18200 10350
F 0 "#PWR07" H 18200 10200 50  0001 C CNN
F 1 "+3.3V" H 18200 10490 50  0000 C CNN
F 2 "" H 18200 10350 50  0001 C CNN
F 3 "" H 18200 10350 50  0001 C CNN
	1    18200 10350
	1    0    0    -1  
$EndComp
$Comp
L ROTARY_ENCODER_afshar ENC1
U 1 1 5A8858A7
P 26050 16150
F 0 "ENC1" H 26050 16550 60  0000 C CNN
F 1 "ROTARY_ENCODER" H 26100 15800 60  0000 C CNN
F 2 "chordboard-footprints:Rotary_Encoder_BI_EN12-HS22AF30" H 26050 15700 60  0000 C CNN
F 3 "" H 26050 16150 60  0000 C CNN
	1    26050 16150
	1    0    0    1   
$EndComp
$Comp
L C C2
U 1 1 5A8858A8
P 25800 16650
F 0 "C2" H 25810 16720 50  0000 L CNN
F 1 "0.1uF" H 25810 16570 50  0000 L CNN
F 2 "chordboard-footprints:C_0805_HandSoldering" H 25800 16650 50  0001 C CNN
F 3 "" H 25800 16650 50  0001 C CNN
	1    25800 16650
	1    0    0    -1  
$EndComp
$Comp
L C C1
U 1 1 5A8858A9
P 25300 16650
F 0 "C1" H 25310 16720 50  0000 L CNN
F 1 "0.1uF" H 25310 16570 50  0000 L CNN
F 2 "chordboard-footprints:C_0805_HandSoldering" H 25300 16650 50  0001 C CNN
F 3 "" H 25300 16650 50  0001 C CNN
	1    25300 16650
	1    0    0    -1  
$EndComp
$Comp
L GND #PWR08
U 1 1 5A8858AA
P 26550 16300
F 0 "#PWR08" H 26550 16050 50  0001 C CNN
F 1 "GND" H 26550 16150 50  0000 C CNN
F 2 "" H 26550 16300 50  0001 C CNN
F 3 "" H 26550 16300 50  0001 C CNN
	1    26550 16300
	1    0    0    -1  
$EndComp
$Comp
L GND #PWR09
U 1 1 5A8858AB
P 25550 16850
F 0 "#PWR09" H 25550 16600 50  0001 C CNN
F 1 "GND" H 25550 16700 50  0000 C CNN
F 2 "" H 25550 16850 50  0001 C CNN
F 3 "" H 25550 16850 50  0001 C CNN
	1    25550 16850
	1    0    0    -1  
$EndComp
Text Label 25800 16050 2    60   ~ 0
RE1_SW
$Comp
L ROTARY_ENCODER_afshar ENC2
U 1 1 5A8858B1
P 28250 16150
F 0 "ENC2" H 28250 16550 60  0000 C CNN
F 1 "ROTARY_ENCODER" H 28300 15800 60  0000 C CNN
F 2 "chordboard-footprints:Rotary_Encoder_BI_EN12-HS22AF30" H 28250 15700 60  0000 C CNN
F 3 "" H 28250 16150 60  0000 C CNN
	1    28250 16150
	1    0    0    1   
$EndComp
$Comp
L C C4
U 1 1 5A8858B2
P 28000 16650
F 0 "C4" H 28010 16720 50  0000 L CNN
F 1 "0.1uF" H 28010 16570 50  0000 L CNN
F 2 "chordboard-footprints:C_0805_HandSoldering" H 28000 16650 50  0001 C CNN
F 3 "" H 28000 16650 50  0001 C CNN
	1    28000 16650
	1    0    0    -1  
$EndComp
$Comp
L C C3
U 1 1 5A8858B3
P 27500 16650
F 0 "C3" H 27510 16720 50  0000 L CNN
F 1 "0.1uF" H 27510 16570 50  0000 L CNN
F 2 "chordboard-footprints:C_0805_HandSoldering" H 27500 16650 50  0001 C CNN
F 3 "" H 27500 16650 50  0001 C CNN
	1    27500 16650
	1    0    0    -1  
$EndComp
$Comp
L GND #PWR010
U 1 1 5A8858B4
P 28750 16300
F 0 "#PWR010" H 28750 16050 50  0001 C CNN
F 1 "GND" H 28750 16150 50  0000 C CNN
F 2 "" H 28750 16300 50  0001 C CNN
F 3 "" H 28750 16300 50  0001 C CNN
	1    28750 16300
	1    0    0    -1  
$EndComp
$Comp
L GND #PWR011
U 1 1 5A8858B5
P 27750 16850
F 0 "#PWR011" H 27750 16600 50  0001 C CNN
F 1 "GND" H 27750 16700 50  0000 C CNN
F 2 "" H 27750 16850 50  0001 C CNN
F 3 "" H 27750 16850 50  0001 C CNN
	1    27750 16850
	1    0    0    -1  
$EndComp
Text Label 28000 16050 2    60   ~ 0
RE2_SW
$Comp
L ROTARY_ENCODER_afshar ENC3
U 1 1 5A8858BB
P 30250 16150
F 0 "ENC3" H 30250 16550 60  0000 C CNN
F 1 "ROTARY_ENCODER" H 30300 15800 60  0000 C CNN
F 2 "chordboard-footprints:Rotary_Encoder_BI_EN12-HS22AF30" H 30250 15700 60  0000 C CNN
F 3 "" H 30250 16150 60  0000 C CNN
	1    30250 16150
	1    0    0    1   
$EndComp
$Comp
L C C6
U 1 1 5A8858BC
P 30000 16650
F 0 "C6" H 30010 16720 50  0000 L CNN
F 1 "0.1uF" H 30010 16570 50  0000 L CNN
F 2 "chordboard-footprints:C_0805_HandSoldering" H 30000 16650 50  0001 C CNN
F 3 "" H 30000 16650 50  0001 C CNN
	1    30000 16650
	1    0    0    -1  
$EndComp
$Comp
L C C5
U 1 1 5A8858BD
P 29500 16650
F 0 "C5" H 29510 16720 50  0000 L CNN
F 1 "0.1uF" H 29510 16570 50  0000 L CNN
F 2 "chordboard-footprints:C_0805_HandSoldering" H 29500 16650 50  0001 C CNN
F 3 "" H 29500 16650 50  0001 C CNN
	1    29500 16650
	1    0    0    -1  
$EndComp
$Comp
L GND #PWR012
U 1 1 5A8858BE
P 30750 16300
F 0 "#PWR012" H 30750 16050 50  0001 C CNN
F 1 "GND" H 30750 16150 50  0000 C CNN
F 2 "" H 30750 16300 50  0001 C CNN
F 3 "" H 30750 16300 50  0001 C CNN
	1    30750 16300
	1    0    0    -1  
$EndComp
$Comp
L GND #PWR013
U 1 1 5A8858BF
P 29750 16850
F 0 "#PWR013" H 29750 16600 50  0001 C CNN
F 1 "GND" H 29750 16700 50  0000 C CNN
F 2 "" H 29750 16850 50  0001 C CNN
F 3 "" H 29750 16850 50  0001 C CNN
	1    29750 16850
	1    0    0    -1  
$EndComp
Text Label 30000 16050 2    60   ~ 0
RE3_SW
Text Notes 25750 15400 0    60   ~ 0
Config: Key; Mode\nShift: Change Main mode
Text Notes 27400 15400 0    60   ~ 0
Config: Octave; spread; channel; etc.\nShift Config: change bank
Text Notes 29900 15450 0    60   ~ 0
Config: tempo\nPlay: tempo\nShift: change looper
Text Label 25300 16200 2    60   ~ 0
RE1_B
Text Label 25800 16400 2    60   ~ 0
RE1_A
Text Label 27500 16200 2    60   ~ 0
RE2_B
Text Label 28000 16400 2    60   ~ 0
RE2_A
Text Label 30000 16400 2    60   ~ 0
RE3_A
Text Label 29500 16200 2    60   ~ 0
RE3_B
Text Label 19400 11050 2    60   ~ 0
RE1_A
Text Label 19400 11150 2    60   ~ 0
RE1_B
Text Label 19400 10650 2    60   ~ 0
RE2_A
Text Label 19400 10750 2    60   ~ 0
RE2_B
Text Label 19400 11950 2    60   ~ 0
RE2_SW
Text Label 19400 10850 2    60   ~ 0
RE3_A
Text Label 19400 10950 2    60   ~ 0
RE3_B
Text Label 19400 11850 2    60   ~ 0
RE1_SW
Text Label 19400 12050 2    60   ~ 0
RE3_SW
$Comp
L KSW SW1
U 1 1 5A89A746
P 18750 12150
F 0 "SW1" H 18650 12200 60  0000 C CNN
F 1 "KSW" H 18900 12200 60  0000 C CNN
F 2 "chordboard-footprints:SW_PUSH_6mm" H 18750 12150 60  0001 C CNN
F 3 "" H 18750 12150 60  0001 C CNN
	1    18750 12150
	-1   0    0    -1  
$EndComp
$Comp
L KSW SW2
U 1 1 5A89A74C
P 18750 12250
F 0 "SW2" H 18650 12300 60  0000 C CNN
F 1 "KSW" H 18900 12300 60  0000 C CNN
F 2 "chordboard-footprints:SW_PUSH_6mm" H 19700 12300 60  0001 C CNN
F 3 "" H 18750 12250 60  0001 C CNN
	1    18750 12250
	-1   0    0    -1  
$EndComp
Text Label 23500 12950 0    60   ~ 0
SCL
Text Label 23500 13050 0    60   ~ 0
SDA
$Comp
L GNDA #PWR014
U 1 1 5A89E752
P 22250 12450
F 0 "#PWR014" H 22250 12200 50  0001 C CNN
F 1 "GNDA" H 22250 12300 50  0000 C CNN
F 2 "" H 22250 12450 50  0001 C CNN
F 3 "" H 22250 12450 50  0001 C CNN
	1    22250 12450
	1    0    0    -1  
$EndComp
$Comp
L GNDA #PWR015
U 1 1 5A89EB7E
P 29550 9850
F 0 "#PWR015" H 29550 9600 50  0001 C CNN
F 1 "GNDA" H 29550 9700 50  0000 C CNN
F 2 "" H 29550 9850 50  0001 C CNN
F 3 "" H 29550 9850 50  0001 C CNN
	1    29550 9850
	0    -1   -1   0   
$EndComp
Text Label 19400 9850 2    60   ~ 0
U3_TX
Text Label 16150 5900 2    60   ~ 0
U3_TX
Text Label 19400 9250 2    60   ~ 0
LED_DIN
Text Label 19400 9450 2    60   ~ 0
LED_LOAD
Text Label 19400 9350 2    60   ~ 0
LED_CLK
Text Label 18100 16700 0    60   ~ 0
SCL
Text Label 18100 16800 0    60   ~ 0
SDA
Text Label 19400 11750 2    60   ~ 0
CORE_RST
Text Label 19400 11650 2    60   ~ 0
CORE_PGM
Text Label 19400 13050 2    60   ~ 0
AU_VOL
Text Label 29550 10850 0    60   ~ 0
AU_VOL
Text Label 21400 11550 0    60   ~ 0
USBH_DP
Text Label 21400 11650 0    60   ~ 0
USBH_DM
$Comp
L USB_A J2
U 1 1 5A81EE8D
P 22700 11550
F 0 "J2" H 22500 12000 50  0000 L CNN
F 1 "USB_A" H 22500 11900 50  0000 L CNN
F 2 "Connectors:USB_A" H 22850 11500 50  0001 C CNN
F 3 "" H 22850 11500 50  0001 C CNN
	1    22700 11550
	-1   0    0    -1  
$EndComp
$Comp
L GND #PWR016
U 1 1 5A84B35E
P 15650 5700
F 0 "#PWR016" H 15650 5450 50  0001 C CNN
F 1 "GND" H 15650 5550 50  0000 C CNN
F 2 "" H 15650 5700 50  0001 C CNN
F 3 "" H 15650 5700 50  0001 C CNN
	1    15650 5700
	1    0    0    -1  
$EndComp
$Comp
L GROVE_I2C J4
U 1 1 5A84DEDC
P 16300 3800
F 0 "J4" H 16300 4050 50  0000 C CNN
F 1 "I2C" V 16550 3800 50  0000 C CNN
F 2 "Connectors_JST:JST_PH_S4B-PH-K_04x2.00mm_Angled" H 16300 3800 50  0001 C CNN
F 3 "" H 16300 3800 50  0001 C CNN
	1    16300 3800
	1    0    0    -1  
$EndComp
$Comp
L GROVE_I2C J5
U 1 1 5A84DFEA
P 16300 4350
F 0 "J5" H 16300 4600 50  0000 C CNN
F 1 "I2C" V 16550 4350 50  0000 C CNN
F 2 "Connectors_JST:JST_PH_S4B-PH-K_04x2.00mm_Angled" H 16300 4350 50  0001 C CNN
F 3 "" H 16300 4350 50  0001 C CNN
	1    16300 4350
	1    0    0    -1  
$EndComp
$Comp
L +3.3V #PWR017
U 1 1 5A84EEBA
P 15550 3250
F 0 "#PWR017" H 15550 3100 50  0001 C CNN
F 1 "+3.3V" H 15550 3390 50  0000 C CNN
F 2 "" H 15550 3250 50  0001 C CNN
F 3 "" H 15550 3250 50  0001 C CNN
	1    15550 3250
	1    0    0    -1  
$EndComp
Text Label 16100 3650 2    60   ~ 0
SCL
Text Label 16100 3750 2    60   ~ 0
SDA
Text Label 16100 4200 2    60   ~ 0
SCL
Text Label 16100 4300 2    60   ~ 0
SDA
$Comp
L Mounting_Hole MK9
U 1 1 5A853441
P 24200 7100
F 0 "MK9" H 24200 7300 50  0000 C CNN
F 1 "Mounting_Hole" H 24200 7225 50  0000 C CNN
F 2 "chordboard-footprints:Mounting_Hole" H 24200 7100 50  0001 C CNN
F 3 "" H 24200 7100 50  0001 C CNN
	1    24200 7100
	1    0    0    -1  
$EndComp
$Comp
L Mounting_Hole MK10
U 1 1 5A853447
P 24200 7300
F 0 "MK10" H 24200 7500 50  0000 C CNN
F 1 "Mounting_Hole" H 24200 7425 50  0000 C CNN
F 2 "chordboard-footprints:Mounting_Hole" H 24200 7300 50  0001 C CNN
F 3 "" H 24200 7300 50  0001 C CNN
	1    24200 7300
	1    0    0    -1  
$EndComp
$Comp
L MAX7219 U6
U 1 1 5A90E13D
P -2750 2850
F 0 "U6" H -2650 4200 60  0000 C CNN
F 1 "MAX7219" H -2200 3550 60  0000 C CNN
F 2 "Housings_DIP:DIP-24_W7.62mm" H -2750 2650 40  0001 L CIN
F 3 "https://datasheets.maximintegrated.com/en/ds/MAX7219-MAX7221.pdf" H -2750 2550 40  0001 L CIN
	1    -2750 2850
	1    0    0    -1  
$EndComp
Text Label -1550 1750 0    60   ~ 0
X0
Text Label -2850 1750 2    60   ~ 0
Y0
$Comp
L +5V #PWR018
U 1 1 5A90E146
P -2050 650
F 0 "#PWR018" H -2050 500 50  0001 C CNN
F 1 "+5V" H -2050 790 50  0000 C CNN
F 2 "" H -2050 650 50  0001 C CNN
F 3 "" H -2050 650 50  0001 C CNN
	1    -2050 650 
	1    0    0    -1  
$EndComp
Text Label -1550 2450 0    60   ~ 0
X7
Text Label -1550 2350 0    60   ~ 0
X6
Text Label -1550 2250 0    60   ~ 0
X5
Text Label -1550 2150 0    60   ~ 0
X4
Text Label -1550 2050 0    60   ~ 0
X3
Text Label -1550 1950 0    60   ~ 0
X2
Text Label -1550 1850 0    60   ~ 0
X1
Text Label -2850 1850 2    60   ~ 0
Y1
Text Label -2850 1950 2    60   ~ 0
Y2
Text Label -2850 2050 2    60   ~ 0
Y3
Text Label -2850 2150 2    60   ~ 0
Y4
Text Label -2850 2250 2    60   ~ 0
Y5
Text Label -2850 2350 2    60   ~ 0
Y6
Text Label -2850 2450 2    60   ~ 0
Y7
$Comp
L GND #PWR019
U 1 1 5A90E15A
P -2000 3450
F 0 "#PWR019" H -2000 3200 50  0001 C CNN
F 1 "GND" H -2000 3300 50  0000 C CNN
F 2 "" H -2000 3450 50  0000 C CNN
F 3 "" H -2000 3450 50  0000 C CNN
	1    -2000 3450
	1    0    0    -1  
$EndComp
$Comp
L C C10
U 1 1 5A90E167
P -1000 1550
F 0 "C10" H -990 1620 50  0000 L CNN
F 1 "0.1uF" H -990 1470 50  0000 L CNN
F 2 "chordboard-footprints:C_0805_HandSoldering" H -1000 1550 50  0001 C CNN
F 3 "" H -1000 1550 50  0001 C CNN
	1    -1000 1550
	-1   0    0    -1  
$EndComp
$Comp
L GND #PWR020
U 1 1 5A90E16E
P -1000 2000
F 0 "#PWR020" H -1000 1750 50  0001 C CNN
F 1 "GND" H -1000 1850 50  0000 C CNN
F 2 "" H -1000 2000 50  0000 C CNN
F 3 "" H -1000 2000 50  0000 C CNN
	1    -1000 2000
	1    0    0    -1  
$EndComp
$Comp
L CP CP1
U 1 1 5A9122F9
P -750 1550
F 0 "CP1" H -740 1620 50  0000 L CNN
F 1 "10uF" H -740 1470 50  0000 L CNN
F 2 "Capacitors_THT:CP_Radial_D4.0mm_P2.00mm" H -750 1550 50  0001 C CNN
F 3 "" H -750 1550 50  0001 C CNN
	1    -750 1550
	1    0    0    -1  
$EndComp
Text Label 19400 10250 2    60   ~ 0
MISO
Text Label 19400 9750 2    60   ~ 0
MOSI
Text Label 21450 12850 0    60   ~ 0
TFT_DC
Text Label 21450 12750 0    60   ~ 0
TFT_CS
Text Label 19400 9650 2    60   ~ 0
AUMEM_CS
NoConn ~ 21400 10850
NoConn ~ 21400 10750
NoConn ~ 21400 10650
NoConn ~ 21400 10550
NoConn ~ 21400 10450
NoConn ~ 21400 10350
NoConn ~ 21400 10250
NoConn ~ 21400 9950
NoConn ~ 21400 9850
NoConn ~ 21400 9750
NoConn ~ 21400 9650
NoConn ~ 21400 9550
NoConn ~ 21400 9450
NoConn ~ 21400 9350
NoConn ~ 21400 9250
NoConn ~ 21400 9150
NoConn ~ 21400 9050
NoConn ~ 21400 8950
Text Label 19400 10050 2    60   ~ 0
AUSD_CS
$Comp
L +3.3V #PWR021
U 1 1 5A954FEB
P 17400 14700
F 0 "#PWR021" H 17400 14550 50  0001 C CNN
F 1 "+3.3V" H 17400 14840 50  0000 C CNN
F 2 "" H 17400 14700 50  0000 C CNN
F 3 "" H 17400 14700 50  0000 C CNN
	1    17400 14700
	1    0    0    -1  
$EndComp
$Comp
L GND #PWR022
U 1 1 5A954FF1
P 18350 15250
F 0 "#PWR022" H 18350 15000 50  0001 C CNN
F 1 "GND" H 18350 15100 50  0000 C CNN
F 2 "" H 18350 15250 50  0001 C CNN
F 3 "" H 18350 15250 50  0001 C CNN
	1    18350 15250
	-1   0    0    -1  
$EndComp
$Comp
L GND #PWR023
U 1 1 5A954FF7
P 17400 18100
F 0 "#PWR023" H 17400 17850 50  0001 C CNN
F 1 "GND" H 17400 17950 50  0000 C CNN
F 2 "" H 17400 18100 50  0001 C CNN
F 3 "" H 17400 18100 50  0001 C CNN
	1    17400 18100
	-1   0    0    -1  
$EndComp
$Comp
L MCP23017 U7
U 1 1 5A954FFD
P 17400 16400
F 0 "U7" H 17300 17425 50  0000 R CNN
F 1 "MCP23017" H 17300 17350 50  0000 R CNN
F 2 "Housings_DIP:DIP-28_W7.62mm" H 17450 15450 50  0001 L CNN
F 3 "" H 17650 17400 50  0001 C CNN
	1    17400 16400
	1    0    0    -1  
$EndComp
$Comp
L KSW K1
U 1 1 5A955004
P 16700 16500
F 0 "K1" H 16600 16550 60  0000 C CNN
F 1 "KSW" H 16850 16550 60  0000 C CNN
F 2 "chordboard-footprints:CHERRY_PCB_100H" H 16700 16500 60  0001 C CNN
F 3 "" H 16700 16500 60  0001 C CNN
	1    16700 16500
	-1   0    0    -1  
$EndComp
$Comp
L KSW K2
U 1 1 5A95500B
P 16700 16600
F 0 "K2" H 16600 16650 60  0000 C CNN
F 1 "KSW" H 16850 16650 60  0000 C CNN
F 2 "chordboard-footprints:CHERRY_PCB_100H" H 17650 16650 60  0001 C CNN
F 3 "" H 16700 16600 60  0001 C CNN
	1    16700 16600
	-1   0    0    -1  
$EndComp
$Comp
L KSW K3
U 1 1 5A955012
P 16700 16700
F 0 "K3" H 16600 16750 60  0000 C CNN
F 1 "KSW" H 16850 16750 60  0000 C CNN
F 2 "chordboard-footprints:CHERRY_PCB_100H" H 17650 16750 60  0001 C CNN
F 3 "" H 16700 16700 60  0001 C CNN
	1    16700 16700
	-1   0    0    -1  
$EndComp
$Comp
L KSW K4
U 1 1 5A955019
P 16700 16800
F 0 "K4" H 16600 16850 60  0000 C CNN
F 1 "KSW" H 16850 16850 60  0000 C CNN
F 2 "chordboard-footprints:CHERRY_PCB_100H" H 17650 16850 60  0001 C CNN
F 3 "" H 16700 16800 60  0001 C CNN
	1    16700 16800
	-1   0    0    -1  
$EndComp
$Comp
L C C12
U 1 1 5A955020
P 18350 15050
F 0 "C12" H 18360 15120 50  0000 L CNN
F 1 "0.1uF" H 18360 14970 50  0000 L CNN
F 2 "chordboard-footprints:C_0805_HandSoldering" H 18350 15050 50  0001 C CNN
F 3 "" H 18350 15050 50  0001 C CNN
	1    18350 15050
	-1   0    0    -1  
$EndComp
$Comp
L KSW K5
U 1 1 5A955027
P 16700 16900
F 0 "K5" H 16600 16950 60  0000 C CNN
F 1 "KSW" H 16850 16950 60  0000 C CNN
F 2 "chordboard-footprints:CHERRY_PCB_100H" H 17650 16950 60  0001 C CNN
F 3 "" H 16700 16900 60  0001 C CNN
	1    16700 16900
	-1   0    0    -1  
$EndComp
$Comp
L KSW K6
U 1 1 5A95502E
P 16700 17000
F 0 "K6" H 16600 17050 60  0000 C CNN
F 1 "KSW" H 16850 17050 60  0000 C CNN
F 2 "chordboard-footprints:CHERRY_PCB_100H" H 17650 17050 60  0001 C CNN
F 3 "" H 16700 17000 60  0001 C CNN
	1    16700 17000
	-1   0    0    -1  
$EndComp
$Comp
L KSW K7
U 1 1 5A955035
P 16700 17100
F 0 "K7" H 16600 17150 60  0000 C CNN
F 1 "KSW" H 16850 17150 60  0000 C CNN
F 2 "chordboard-footprints:CHERRY_PCB_100H" H 17650 17150 60  0001 C CNN
F 3 "" H 16700 17100 60  0001 C CNN
	1    16700 17100
	-1   0    0    -1  
$EndComp
$Comp
L KSW K9
U 1 1 5A95503C
P 16700 15600
F 0 "K9" H 16600 15650 60  0000 C CNN
F 1 "KSW" H 16850 15650 60  0000 C CNN
F 2 "chordboard-footprints:CHERRY_PCB_100H" H 17650 15650 60  0001 C CNN
F 3 "" H 16700 15600 60  0001 C CNN
	1    16700 15600
	-1   0    0    -1  
$EndComp
$Comp
L KSW K10
U 1 1 5A955043
P 16700 15700
F 0 "K10" H 16600 15750 60  0000 C CNN
F 1 "KSW" H 16850 15750 60  0000 C CNN
F 2 "chordboard-footprints:CHERRY_PCB_100H" H 17650 15750 60  0001 C CNN
F 3 "" H 16700 15700 60  0001 C CNN
	1    16700 15700
	-1   0    0    -1  
$EndComp
$Comp
L KSW K11
U 1 1 5A95504A
P 16700 15800
F 0 "K11" H 16600 15850 60  0000 C CNN
F 1 "KSW" H 16850 15850 60  0000 C CNN
F 2 "chordboard-footprints:CHERRY_PCB_100H" H 17650 15850 60  0001 C CNN
F 3 "" H 16700 15800 60  0001 C CNN
	1    16700 15800
	-1   0    0    -1  
$EndComp
$Comp
L KSW K12
U 1 1 5A955051
P 16700 15900
F 0 "K12" H 16600 15950 60  0000 C CNN
F 1 "KSW" H 16850 15950 60  0000 C CNN
F 2 "chordboard-footprints:CHERRY_PCB_100H" H 17650 15950 60  0001 C CNN
F 3 "" H 16700 15900 60  0001 C CNN
	1    16700 15900
	-1   0    0    -1  
$EndComp
$Comp
L KSW K13
U 1 1 5A955058
P 16700 16000
F 0 "K13" H 16600 16050 60  0000 C CNN
F 1 "KSW" H 16850 16050 60  0000 C CNN
F 2 "chordboard-footprints:CHERRY_PCB_100H" H 17650 16050 60  0001 C CNN
F 3 "" H 16700 16000 60  0001 C CNN
	1    16700 16000
	-1   0    0    -1  
$EndComp
$Comp
L KSW K14
U 1 1 5A95505F
P 16700 16100
F 0 "K14" H 16600 16150 60  0000 C CNN
F 1 "KSW" H 16850 16150 60  0000 C CNN
F 2 "chordboard-footprints:CHERRY_PCB_100H" H 17650 16150 60  0001 C CNN
F 3 "" H 16700 16100 60  0001 C CNN
	1    16700 16100
	-1   0    0    -1  
$EndComp
$Comp
L KSW K8
U 1 1 5A955066
P 16700 17200
F 0 "K8" H 16600 17250 60  0000 C CNN
F 1 "KSW" H 16850 17250 60  0000 C CNN
F 2 "chordboard-footprints:CHERRY_PCB_100H" H 17650 17250 60  0001 C CNN
F 3 "" H 16700 17200 60  0001 C CNN
	1    16700 17200
	-1   0    0    -1  
$EndComp
$Comp
L KSW K15
U 1 1 5A95506D
P 16700 16200
F 0 "K15" H 16600 16250 60  0000 C CNN
F 1 "KSW" H 16850 16250 60  0000 C CNN
F 2 "chordboard-footprints:CHERRY_PCB_100H" H 17650 16250 60  0001 C CNN
F 3 "" H 16700 16200 60  0001 C CNN
	1    16700 16200
	-1   0    0    -1  
$EndComp
$Comp
L KSW K16
U 1 1 5A955074
P 16700 16300
F 0 "K16" H 16600 16350 60  0000 C CNN
F 1 "KSW" H 16850 16350 60  0000 C CNN
F 2 "chordboard-footprints:CHERRY_PCB_100H" H 17650 16350 60  0001 C CNN
F 3 "" H 16700 16300 60  0001 C CNN
	1    16700 16300
	-1   0    0    -1  
$EndComp
$Comp
L GND #PWR024
U 1 1 5A95507B
P 18100 17450
F 0 "#PWR024" H 18100 17200 50  0001 C CNN
F 1 "GND" H 18100 17300 50  0000 C CNN
F 2 "" H 18100 17450 50  0001 C CNN
F 3 "" H 18100 17450 50  0001 C CNN
	1    18100 17450
	-1   0    0    -1  
$EndComp
$Comp
L +3.3V #PWR025
U 1 1 5A955EFE
P 19900 14700
F 0 "#PWR025" H 19900 14550 50  0001 C CNN
F 1 "+3.3V" H 19900 14840 50  0000 C CNN
F 2 "" H 19900 14700 50  0000 C CNN
F 3 "" H 19900 14700 50  0000 C CNN
	1    19900 14700
	1    0    0    -1  
$EndComp
$Comp
L GND #PWR026
U 1 1 5A955F04
P 20850 15250
F 0 "#PWR026" H 20850 15000 50  0001 C CNN
F 1 "GND" H 20850 15100 50  0000 C CNN
F 2 "" H 20850 15250 50  0001 C CNN
F 3 "" H 20850 15250 50  0001 C CNN
	1    20850 15250
	-1   0    0    -1  
$EndComp
$Comp
L GND #PWR027
U 1 1 5A955F0A
P 19900 18100
F 0 "#PWR027" H 19900 17850 50  0001 C CNN
F 1 "GND" H 19900 17950 50  0000 C CNN
F 2 "" H 19900 18100 50  0001 C CNN
F 3 "" H 19900 18100 50  0001 C CNN
	1    19900 18100
	-1   0    0    -1  
$EndComp
$Comp
L MCP23017 U8
U 1 1 5A955F10
P 19900 16400
F 0 "U8" H 19800 17425 50  0000 R CNN
F 1 "MCP23017" H 19800 17350 50  0000 R CNN
F 2 "Housings_DIP:DIP-28_W7.62mm" H 19950 15450 50  0001 L CNN
F 3 "" H 20150 17400 50  0001 C CNN
	1    19900 16400
	1    0    0    -1  
$EndComp
$Comp
L KSW K17
U 1 1 5A955F17
P 19200 16500
F 0 "K17" H 19100 16550 60  0000 C CNN
F 1 "KSW" H 19350 16550 60  0000 C CNN
F 2 "chordboard-footprints:CHERRY_PCB_100H" H 19200 16500 60  0001 C CNN
F 3 "" H 19200 16500 60  0001 C CNN
	1    19200 16500
	-1   0    0    -1  
$EndComp
$Comp
L KSW K18
U 1 1 5A955F1E
P 19200 16600
F 0 "K18" H 19100 16650 60  0000 C CNN
F 1 "KSW" H 19350 16650 60  0000 C CNN
F 2 "chordboard-footprints:CHERRY_PCB_100H" H 20150 16650 60  0001 C CNN
F 3 "" H 19200 16600 60  0001 C CNN
	1    19200 16600
	-1   0    0    -1  
$EndComp
$Comp
L KSW K19
U 1 1 5A955F25
P 19200 16700
F 0 "K19" H 19100 16750 60  0000 C CNN
F 1 "KSW" H 19350 16750 60  0000 C CNN
F 2 "chordboard-footprints:CHERRY_PCB_100H" H 20150 16750 60  0001 C CNN
F 3 "" H 19200 16700 60  0001 C CNN
	1    19200 16700
	-1   0    0    -1  
$EndComp
$Comp
L KSW K20
U 1 1 5A955F2C
P 19200 16800
F 0 "K20" H 19100 16850 60  0000 C CNN
F 1 "KSW" H 19350 16850 60  0000 C CNN
F 2 "chordboard-footprints:CHERRY_PCB_100H" H 20150 16850 60  0001 C CNN
F 3 "" H 19200 16800 60  0001 C CNN
	1    19200 16800
	-1   0    0    -1  
$EndComp
$Comp
L C C13
U 1 1 5A955F33
P 20850 15050
F 0 "C13" H 20860 15120 50  0000 L CNN
F 1 "0.1uF" H 20860 14970 50  0000 L CNN
F 2 "chordboard-footprints:C_0805_HandSoldering" H 20850 15050 50  0001 C CNN
F 3 "" H 20850 15050 50  0001 C CNN
	1    20850 15050
	-1   0    0    -1  
$EndComp
$Comp
L KSW K21
U 1 1 5A955F3A
P 19200 16900
F 0 "K21" H 19100 16950 60  0000 C CNN
F 1 "KSW" H 19350 16950 60  0000 C CNN
F 2 "chordboard-footprints:CHERRY_PCB_100H" H 20150 16950 60  0001 C CNN
F 3 "" H 19200 16900 60  0001 C CNN
	1    19200 16900
	-1   0    0    -1  
$EndComp
$Comp
L KSW K22
U 1 1 5A955F41
P 19200 17000
F 0 "K22" H 19100 17050 60  0000 C CNN
F 1 "KSW" H 19350 17050 60  0000 C CNN
F 2 "chordboard-footprints:CHERRY_PCB_100H" H 20150 17050 60  0001 C CNN
F 3 "" H 19200 17000 60  0001 C CNN
	1    19200 17000
	-1   0    0    -1  
$EndComp
$Comp
L KSW K23
U 1 1 5A955F48
P 19200 17100
F 0 "K23" H 19100 17150 60  0000 C CNN
F 1 "KSW" H 19350 17150 60  0000 C CNN
F 2 "chordboard-footprints:CHERRY_PCB_100H" H 20150 17150 60  0001 C CNN
F 3 "" H 19200 17100 60  0001 C CNN
	1    19200 17100
	-1   0    0    -1  
$EndComp
$Comp
L KSW K25
U 1 1 5A955F4F
P 19200 15600
F 0 "K25" H 19100 15650 60  0000 C CNN
F 1 "KSW" H 19350 15650 60  0000 C CNN
F 2 "chordboard-footprints:CHERRY_PCB_100H" H 20150 15650 60  0001 C CNN
F 3 "" H 19200 15600 60  0001 C CNN
	1    19200 15600
	-1   0    0    -1  
$EndComp
$Comp
L KSW K26
U 1 1 5A955F56
P 19200 15700
F 0 "K26" H 19100 15750 60  0000 C CNN
F 1 "KSW" H 19350 15750 60  0000 C CNN
F 2 "chordboard-footprints:CHERRY_PCB_100H" H 20150 15750 60  0001 C CNN
F 3 "" H 19200 15700 60  0001 C CNN
	1    19200 15700
	-1   0    0    -1  
$EndComp
$Comp
L KSW K27
U 1 1 5A955F5D
P 19200 15800
F 0 "K27" H 19100 15850 60  0000 C CNN
F 1 "KSW" H 19350 15850 60  0000 C CNN
F 2 "chordboard-footprints:CHERRY_PCB_100H" H 20150 15850 60  0001 C CNN
F 3 "" H 19200 15800 60  0001 C CNN
	1    19200 15800
	-1   0    0    -1  
$EndComp
$Comp
L KSW K28
U 1 1 5A955F64
P 19200 15900
F 0 "K28" H 19100 15950 60  0000 C CNN
F 1 "KSW" H 19350 15950 60  0000 C CNN
F 2 "chordboard-footprints:CHERRY_PCB_100H" H 20150 15950 60  0001 C CNN
F 3 "" H 19200 15900 60  0001 C CNN
	1    19200 15900
	-1   0    0    -1  
$EndComp
$Comp
L KSW K29
U 1 1 5A955F6B
P 19200 16000
F 0 "K29" H 19100 16050 60  0000 C CNN
F 1 "KSW" H 19350 16050 60  0000 C CNN
F 2 "chordboard-footprints:CHERRY_PCB_100H" H 20150 16050 60  0001 C CNN
F 3 "" H 19200 16000 60  0001 C CNN
	1    19200 16000
	-1   0    0    -1  
$EndComp
$Comp
L KSW K30
U 1 1 5A955F72
P 19200 16100
F 0 "K30" H 19100 16150 60  0000 C CNN
F 1 "KSW" H 19350 16150 60  0000 C CNN
F 2 "chordboard-footprints:CHERRY_PCB_100H" H 20150 16150 60  0001 C CNN
F 3 "" H 19200 16100 60  0001 C CNN
	1    19200 16100
	-1   0    0    -1  
$EndComp
$Comp
L KSW K24
U 1 1 5A955F79
P 19200 17200
F 0 "K24" H 19100 17250 60  0000 C CNN
F 1 "KSW" H 19350 17250 60  0000 C CNN
F 2 "chordboard-footprints:CHERRY_PCB_100H" H 20150 17250 60  0001 C CNN
F 3 "" H 19200 17200 60  0001 C CNN
	1    19200 17200
	-1   0    0    -1  
$EndComp
$Comp
L KSW K31
U 1 1 5A955F80
P 19200 16200
F 0 "K31" H 19100 16250 60  0000 C CNN
F 1 "KSW" H 19350 16250 60  0000 C CNN
F 2 "chordboard-footprints:CHERRY_PCB_100H" H 20150 16250 60  0001 C CNN
F 3 "" H 19200 16200 60  0001 C CNN
	1    19200 16200
	-1   0    0    -1  
$EndComp
$Comp
L KSW K32
U 1 1 5A955F87
P 19200 16300
F 0 "K32" H 19100 16350 60  0000 C CNN
F 1 "KSW" H 19350 16350 60  0000 C CNN
F 2 "chordboard-footprints:CHERRY_PCB_100H" H 20150 16350 60  0001 C CNN
F 3 "" H 19200 16300 60  0001 C CNN
	1    19200 16300
	-1   0    0    -1  
$EndComp
$Comp
L GND #PWR028
U 1 1 5A955F8E
P 20600 17450
F 0 "#PWR028" H 20600 17200 50  0001 C CNN
F 1 "GND" H 20600 17300 50  0000 C CNN
F 2 "" H 20600 17450 50  0001 C CNN
F 3 "" H 20600 17450 50  0001 C CNN
	1    20600 17450
	-1   0    0    -1  
$EndComp
$Comp
L +3.3V #PWR029
U 1 1 5A9574B8
P 20600 17000
F 0 "#PWR029" H 20600 16850 50  0001 C CNN
F 1 "+3.3V" H 20600 17140 50  0000 C CNN
F 2 "" H 20600 17000 50  0000 C CNN
F 3 "" H 20600 17000 50  0000 C CNN
	1    20600 17000
	1    0    0    -1  
$EndComp
Text Label 20600 16700 0    60   ~ 0
SCL
Text Label 20600 16800 0    60   ~ 0
SDA
Text Label -2850 2600 2    60   ~ 0
LED_DIN
Text Label -2850 2700 2    60   ~ 0
LED_CLK
Text Label -2850 2800 2    60   ~ 0
LED_LOAD
$Comp
L +5V #PWR030
U 1 1 5A983608
P 16050 5100
F 0 "#PWR030" H 16050 4950 50  0001 C CNN
F 1 "+5V" H 16050 5240 50  0000 C CNN
F 2 "" H 16050 5100 50  0001 C CNN
F 3 "" H 16050 5100 50  0001 C CNN
	1    16050 5100
	1    0    0    -1  
$EndComp
$Comp
L +3.3VA #PWR031
U 1 1 5A9851E8
P 15800 5100
F 0 "#PWR031" H 15800 4950 50  0001 C CNN
F 1 "+3.3VA" H 15800 5240 50  0000 C CNN
F 2 "" H 15800 5100 50  0001 C CNN
F 3 "" H 15800 5100 50  0001 C CNN
	1    15800 5100
	1    0    0    -1  
$EndComp
$Comp
L R RS2
U 1 1 5A98B18F
P -2250 1250
F 0 "RS2" V -2350 1200 50  0000 C CNN
F 1 "10K" V -2250 1250 50  0000 C CNN
F 2 "Resistors_SMD:R_1206_HandSoldering" V -2320 1250 50  0001 C CNN
F 3 "" H -2250 1250 50  0000 C CNN
	1    -2250 1250
	0    1    1    0   
$EndComp
Text Label 19400 12550 2    60   ~ 0
DAC0
Text Label 19400 12650 2    60   ~ 0
DAC1
Text Label 19400 9050 2    60   ~ 0
U1_RX
Text Label 19400 9150 2    60   ~ 0
U1_TX
Text Label 19650 4650 2    60   ~ 0
WIFI_RST
Text Label 19650 4550 2    60   ~ 0
WIFI_PGM
$Comp
L KSW SW3
U 1 1 5A9EFB30
P 18750 12350
F 0 "SW3" H 18650 12400 60  0000 C CNN
F 1 "KSW" H 18900 12400 60  0000 C CNN
F 2 "chordboard-footprints:SW_PUSH_6mm" H 19700 12400 60  0001 C CNN
F 3 "" H 18750 12350 60  0001 C CNN
	1    18750 12350
	-1   0    0    -1  
$EndComp
$Comp
L 74HC245 U5
U 1 1 5A9FAFC8
P 3250 19100
F 0 "U5" H 3350 19675 50  0000 L BNN
F 1 "74HC245" H 3300 18525 50  0000 L TNN
F 2 "Housings_DIP:DIP-20_W7.62mm" H 3250 19100 50  0001 C CNN
F 3 "" H 3250 19100 50  0001 C CNN
	1    3250 19100
	1    0    0    -1  
$EndComp
$Comp
L +5V #PWR032
U 1 1 5A9FB899
P 3250 18200
F 0 "#PWR032" H 3250 18050 50  0001 C CNN
F 1 "+5V" H 3250 18340 50  0000 C CNN
F 2 "" H 3250 18200 50  0001 C CNN
F 3 "" H 3250 18200 50  0001 C CNN
	1    3250 18200
	1    0    0    -1  
$EndComp
$Comp
L GND #PWR033
U 1 1 5A9FBE2F
P 3250 20050
F 0 "#PWR033" H 3250 19800 50  0001 C CNN
F 1 "GND" H 3250 19900 50  0000 C CNN
F 2 "" H 3250 20050 50  0000 C CNN
F 3 "" H 3250 20050 50  0000 C CNN
	1    3250 20050
	1    0    0    -1  
$EndComp
$Comp
L WS2812B LEDP1
U 1 1 5A9FC10B
P 4450 18500
F 0 "LEDP1" H 4450 18300 50  0000 C CNN
F 1 "WS2812B" H 4450 18600 50  0000 C CNN
F 2 "chordboard-footprints:LED_WS2812B-PLCC4-HandSolder" H 4450 18200 50  0001 C CNN
F 3 "" H 4450 18450 50  0001 C CNN
	1    4450 18500
	1    0    0    -1  
$EndComp
$Comp
L WS2812B LEDP2
U 1 1 5A9FC55E
P 5350 18500
F 0 "LEDP2" H 5350 18300 50  0000 C CNN
F 1 "WS2812B" H 5350 18600 50  0000 C CNN
F 2 "chordboard-footprints:LED_WS2812B-PLCC4-HandSolder" H 5350 18200 50  0001 C CNN
F 3 "" H 5350 18450 50  0001 C CNN
	1    5350 18500
	1    0    0    -1  
$EndComp
$Comp
L WS2812B LEDP3
U 1 1 5A9FC791
P 6250 18500
F 0 "LEDP3" H 6250 18300 50  0000 C CNN
F 1 "WS2812B" H 6250 18600 50  0000 C CNN
F 2 "chordboard-footprints:LED_WS2812B-PLCC4-HandSolder" H 6250 18200 50  0001 C CNN
F 3 "" H 6250 18450 50  0001 C CNN
	1    6250 18500
	1    0    0    -1  
$EndComp
$Comp
L WS2812B LEDP4
U 1 1 5A9FD4F5
P 7150 18500
F 0 "LEDP4" H 7150 18300 50  0000 C CNN
F 1 "WS2812B" H 7150 18600 50  0000 C CNN
F 2 "chordboard-footprints:LED_WS2812B-PLCC4-HandSolder" H 7150 18200 50  0001 C CNN
F 3 "" H 7150 18450 50  0001 C CNN
	1    7150 18500
	1    0    0    -1  
$EndComp
$Comp
L WS2812B LEDP5
U 1 1 5A9FD71A
P 8050 18500
F 0 "LEDP5" H 8050 18300 50  0000 C CNN
F 1 "WS2812B" H 8050 18600 50  0000 C CNN
F 2 "chordboard-footprints:LED_WS2812B-PLCC4-HandSolder" H 8050 18200 50  0001 C CNN
F 3 "" H 8050 18450 50  0001 C CNN
	1    8050 18500
	1    0    0    -1  
$EndComp
$Comp
L WS2812B LEDP6
U 1 1 5A9FD952
P 8950 18500
F 0 "LEDP6" H 8950 18300 50  0000 C CNN
F 1 "WS2812B" H 8950 18600 50  0000 C CNN
F 2 "chordboard-footprints:LED_WS2812B-PLCC4-HandSolder" H 8950 18200 50  0001 C CNN
F 3 "" H 8950 18450 50  0001 C CNN
	1    8950 18500
	1    0    0    -1  
$EndComp
$Comp
L WS2812B LEDP7
U 1 1 5A9FDC26
P 9850 18500
F 0 "LEDP7" H 9850 18300 50  0000 C CNN
F 1 "WS2812B" H 9850 18600 50  0000 C CNN
F 2 "chordboard-footprints:LED_WS2812B-PLCC4-HandSolder" H 9850 18200 50  0001 C CNN
F 3 "" H 9850 18450 50  0001 C CNN
	1    9850 18500
	1    0    0    -1  
$EndComp
$Comp
L WS2812B LEDP8
U 1 1 5A9FDE58
P 10750 18500
F 0 "LEDP8" H 10750 18300 50  0000 C CNN
F 1 "WS2812B" H 10750 18600 50  0000 C CNN
F 2 "chordboard-footprints:LED_WS2812B-PLCC4-HandSolder" H 10750 18200 50  0001 C CNN
F 3 "" H 10750 18450 50  0001 C CNN
	1    10750 18500
	1    0    0    -1  
$EndComp
$Comp
L WS2812B LEDP9
U 1 1 5A9FE08D
P 11650 18500
F 0 "LEDP9" H 11650 18300 50  0000 C CNN
F 1 "WS2812B" H 11650 18600 50  0000 C CNN
F 2 "chordboard-footprints:LED_WS2812B-PLCC4-HandSolder" H 11650 18200 50  0001 C CNN
F 3 "" H 11650 18450 50  0001 C CNN
	1    11650 18500
	1    0    0    -1  
$EndComp
$Comp
L WS2812B LEDP10
U 1 1 5A9FE2BB
P 12550 18500
F 0 "LEDP10" H 12550 18300 50  0000 C CNN
F 1 "WS2812B" H 12550 18600 50  0000 C CNN
F 2 "chordboard-footprints:LED_WS2812B-PLCC4-HandSolder" H 12550 18200 50  0001 C CNN
F 3 "" H 12550 18450 50  0001 C CNN
	1    12550 18500
	1    0    0    -1  
$EndComp
$Comp
L WS2812B LEDP11
U 1 1 5A9FE650
P 13450 18500
F 0 "LEDP11" H 13450 18300 50  0000 C CNN
F 1 "WS2812B" H 13450 18600 50  0000 C CNN
F 2 "chordboard-footprints:LED_WS2812B-PLCC4-HandSolder" H 13450 18200 50  0001 C CNN
F 3 "" H 13450 18450 50  0001 C CNN
	1    13450 18500
	1    0    0    -1  
$EndComp
$Comp
L WS2812B LEDP12
U 1 1 5A9FE8A6
P 14350 18500
F 0 "LEDP12" H 14350 18300 50  0000 C CNN
F 1 "WS2812B" H 14350 18600 50  0000 C CNN
F 2 "chordboard-footprints:LED_WS2812B-PLCC4-HandSolder" H 14350 18200 50  0001 C CNN
F 3 "" H 14350 18450 50  0001 C CNN
	1    14350 18500
	1    0    0    -1  
$EndComp
Text Label 19650 5000 2    60   ~ 0
U1_RX
Text Label 19650 5100 2    60   ~ 0
U1_TX
Text Label 19400 11250 2    60   ~ 0
PIXEL_DIN
Text Label 2550 18600 2    60   ~ 0
PIXEL_DIN
$Comp
L +5V #PWR034
U 1 1 5AA0FB52
P 2250 19250
F 0 "#PWR034" H 2250 19100 50  0001 C CNN
F 1 "+5V" H 2250 19390 50  0000 C CNN
F 2 "" H 2250 19250 50  0001 C CNN
F 3 "" H 2250 19250 50  0001 C CNN
	1    2250 19250
	1    0    0    -1  
$EndComp
$Comp
L C C11
U 1 1 5AA11193
P 2250 19700
F 0 "C11" H 2260 19770 50  0000 L CNN
F 1 "0.1uF" H 2260 19620 50  0000 L CNN
F 2 "chordboard-footprints:C_0805_HandSoldering" H 2250 19700 50  0001 C CNN
F 3 "" H 2250 19700 50  0001 C CNN
	1    2250 19700
	-1   0    0    -1  
$EndComp
$Comp
L WS2812B LEDP13
U 1 1 5AA15EEA
P 15250 18500
F 0 "LEDP13" H 15250 18300 50  0000 C CNN
F 1 "WS2812B" H 15250 18600 50  0000 C CNN
F 2 "chordboard-footprints:LED_WS2812B-PLCC4-HandSolder" H 15250 18200 50  0001 C CNN
F 3 "" H 15250 18450 50  0001 C CNN
	1    15250 18500
	1    0    0    -1  
$EndComp
Wire Wire Line
	22250 12350 22250 12450
Wire Wire Line
	22250 12250 22250 12150
Connection ~ -1000 1800
Wire Wire Line
	-1000 1800 -550 1800
Wire Wire Line
	-750 1650 -750 1800
Connection ~ -1000 1250
Wire Wire Line
	-750 1250 -750 1450
Wire Wire Line
	-1000 1650 -1000 2000
Wire Wire Line
	-1000 1250 -1000 1450
Connection ~ -2050 1250
Wire Wire Line
	-2450 1250 -2350 1250
Wire Wire Line
	-2450 1250 -2450 1450
Connection ~ -2000 3100
Wire Wire Line
	-2000 3100 -2000 3450
Wire Wire Line
	-1950 3100 -1950 2950
Wire Wire Line
	-2050 3100 -1950 3100
Wire Wire Line
	-2050 2950 -2050 3100
Wire Wire Line
	-2050 650  -2050 1450
Connection ~ 15650 4900
Connection ~ 15650 4500
Wire Wire Line
	15650 4500 16100 4500
Wire Wire Line
	15650 3950 16100 3950
Wire Wire Line
	15650 3950 15650 5700
Connection ~ 15550 3850
Wire Wire Line
	15550 4400 16100 4400
Wire Wire Line
	15550 3850 16100 3850
Wire Wire Line
	21400 11550 22400 11550
Wire Wire Line
	21400 11750 22400 11750
Wire Wire Line
	21400 11650 22400 11650
Wire Wire Line
	22400 11450 21400 11450
Wire Wire Line
	21400 11350 22400 11350
Wire Wire Line
	18200 11550 19400 11550
Wire Wire Line
	18200 11550 18200 13400
Wire Wire Line
	18900 11650 19400 11650
Wire Wire Line
	18200 10350 19400 10350
Wire Wire Line
	19400 8950 19400 8550
Wire Wire Line
	21400 13050 23500 13050
Wire Wire Line
	21400 12950 23500 12950
Connection ~ 23250 12250
Wire Wire Line
	23250 12250 23250 11250
Wire Wire Line
	23200 12250 23300 12250
Connection ~ 23300 12950
Wire Wire Line
	23300 12950 23300 12500
Connection ~ 23200 13050
Wire Wire Line
	23200 13050 23200 12500
Wire Wire Line
	18200 12750 19400 12750
Wire Wire Line
	27750 9750 28100 9750
Wire Wire Line
	27750 9750 27750 9900
Wire Wire Line
	30050 9950 30050 9400
Wire Wire Line
	21400 12850 21450 12850
Wire Wire Line
	21400 12750 21450 12750
Wire Wire Line
	29550 9950 30050 9950
Connection ~ 26350 16150
Wire Wire Line
	26550 16150 26350 16150
Wire Wire Line
	26350 15950 26350 16300
Wire Wire Line
	25800 16400 25800 16550
Wire Wire Line
	25800 16200 25300 16200
Wire Wire Line
	25300 16200 25300 16550
Wire Wire Line
	25300 16750 25800 16750
Wire Wire Line
	25550 16750 25550 16850
Connection ~ 25550 16750
Wire Wire Line
	26550 16150 26550 16300
Connection ~ 28550 16150
Wire Wire Line
	28750 16150 28550 16150
Wire Wire Line
	28550 15950 28550 16300
Wire Wire Line
	28000 16400 28000 16550
Wire Wire Line
	28000 16200 27500 16200
Wire Wire Line
	27500 16200 27500 16550
Wire Wire Line
	27500 16750 28000 16750
Wire Wire Line
	27750 16750 27750 16850
Connection ~ 27750 16750
Wire Wire Line
	28750 16150 28750 16300
Connection ~ 30550 16150
Wire Wire Line
	30750 16150 30550 16150
Wire Wire Line
	30550 15950 30550 16300
Wire Wire Line
	30000 16400 30000 16550
Wire Wire Line
	30000 16200 29500 16200
Wire Wire Line
	29500 16200 29500 16550
Wire Wire Line
	29500 16750 30000 16750
Wire Wire Line
	29750 16750 29750 16850
Connection ~ 29750 16750
Wire Wire Line
	30750 16150 30750 16300
Wire Wire Line
	18900 12150 19400 12150
Wire Wire Line
	18900 12250 19400 12250
Wire Wire Line
	18600 12150 18200 12150
Wire Wire Line
	18200 12250 18600 12250
Wire Wire Line
	18500 11650 18200 11650
Connection ~ 18200 11650
Wire Wire Line
	23200 12250 23200 12300
Wire Wire Line
	23300 12250 23300 12300
Wire Wire Line
	21400 12250 22250 12250
Wire Wire Line
	21400 12350 22250 12350
Wire Wire Line
	17900 16800 18100 16800
Wire Wire Line
	17900 16700 18100 16700
Wire Wire Line
	17400 17400 17400 18100
Wire Wire Line
	18000 14800 18000 15600
Wire Wire Line
	18000 15600 17900 15600
Wire Wire Line
	17400 14700 17400 15400
Connection ~ 16500 17000
Connection ~ 16500 16900
Connection ~ 16500 16800
Connection ~ 16500 16700
Connection ~ 16500 16600
Connection ~ 16500 16500
Connection ~ 16500 16300
Connection ~ 16500 16200
Connection ~ 16500 16100
Connection ~ 16500 16000
Connection ~ 16500 15900
Connection ~ 16500 15800
Connection ~ 16500 15700
Wire Wire Line
	16500 15600 16500 17450
Connection ~ 17400 14800
Wire Wire Line
	16500 17450 17400 17450
Connection ~ 17400 17450
Wire Wire Line
	18350 14800 18350 14950
Wire Wire Line
	18350 15150 18350 15250
Wire Wire Line
	16900 15600 16850 15600
Wire Wire Line
	16550 15600 16500 15600
Wire Wire Line
	16900 15700 16850 15700
Wire Wire Line
	16550 15700 16500 15700
Wire Wire Line
	16900 15800 16850 15800
Wire Wire Line
	16900 15900 16850 15900
Wire Wire Line
	16550 15800 16500 15800
Wire Wire Line
	16550 15900 16500 15900
Wire Wire Line
	16900 16000 16850 16000
Wire Wire Line
	16550 16000 16500 16000
Wire Wire Line
	16900 16100 16850 16100
Wire Wire Line
	16550 16100 16500 16100
Wire Wire Line
	16900 16200 16850 16200
Wire Wire Line
	16900 16300 16850 16300
Wire Wire Line
	16550 16200 16500 16200
Wire Wire Line
	16550 16300 16500 16300
Wire Wire Line
	16900 16500 16850 16500
Wire Wire Line
	16550 16500 16500 16500
Wire Wire Line
	16900 16600 16850 16600
Wire Wire Line
	16550 16600 16500 16600
Wire Wire Line
	16900 16700 16850 16700
Wire Wire Line
	16900 16800 16850 16800
Wire Wire Line
	16550 16700 16500 16700
Wire Wire Line
	16550 16800 16500 16800
Wire Wire Line
	16900 16900 16850 16900
Wire Wire Line
	16550 16900 16500 16900
Wire Wire Line
	16900 17000 16850 17000
Wire Wire Line
	16550 17000 16500 17000
Wire Wire Line
	16900 17100 16850 17100
Wire Wire Line
	16900 17200 16850 17200
Connection ~ 18000 14800
Wire Wire Line
	17900 17100 18100 17100
Wire Wire Line
	18100 17200 17900 17200
Wire Wire Line
	17400 14800 18350 14800
Wire Wire Line
	16550 17100 16500 17100
Connection ~ 16500 17100
Wire Wire Line
	16550 17200 16500 17200
Connection ~ 16500 17200
Connection ~ 18100 17200
Wire Wire Line
	17900 17000 18100 17000
Wire Wire Line
	18100 17000 18100 17450
Wire Wire Line
	20400 16800 20600 16800
Wire Wire Line
	20400 16700 20600 16700
Wire Wire Line
	19900 17400 19900 18100
Wire Wire Line
	20500 14800 20500 15600
Wire Wire Line
	20500 15600 20400 15600
Wire Wire Line
	19900 14700 19900 15400
Connection ~ 19000 17000
Connection ~ 19000 16900
Connection ~ 19000 16800
Connection ~ 19000 16700
Connection ~ 19000 16600
Connection ~ 19000 16500
Connection ~ 19000 16300
Connection ~ 19000 16200
Connection ~ 19000 16100
Connection ~ 19000 16000
Connection ~ 19000 15900
Connection ~ 19000 15800
Connection ~ 19000 15700
Wire Wire Line
	19000 15600 19000 17450
Connection ~ 19900 14800
Wire Wire Line
	19000 17450 19900 17450
Connection ~ 19900 17450
Wire Wire Line
	20850 14800 20850 14950
Wire Wire Line
	20850 15150 20850 15250
Wire Wire Line
	19400 15600 19350 15600
Wire Wire Line
	19050 15600 19000 15600
Wire Wire Line
	19400 15700 19350 15700
Wire Wire Line
	19050 15700 19000 15700
Wire Wire Line
	19400 15800 19350 15800
Wire Wire Line
	19400 15900 19350 15900
Wire Wire Line
	19050 15800 19000 15800
Wire Wire Line
	19050 15900 19000 15900
Wire Wire Line
	19400 16000 19350 16000
Wire Wire Line
	19050 16000 19000 16000
Wire Wire Line
	19400 16100 19350 16100
Wire Wire Line
	19050 16100 19000 16100
Wire Wire Line
	19400 16200 19350 16200
Wire Wire Line
	19400 16300 19350 16300
Wire Wire Line
	19050 16200 19000 16200
Wire Wire Line
	19050 16300 19000 16300
Wire Wire Line
	19400 16500 19350 16500
Wire Wire Line
	19050 16500 19000 16500
Wire Wire Line
	19400 16600 19350 16600
Wire Wire Line
	19050 16600 19000 16600
Wire Wire Line
	19400 16700 19350 16700
Wire Wire Line
	19400 16800 19350 16800
Wire Wire Line
	19050 16700 19000 16700
Wire Wire Line
	19050 16800 19000 16800
Wire Wire Line
	19400 16900 19350 16900
Wire Wire Line
	19050 16900 19000 16900
Wire Wire Line
	19400 17000 19350 17000
Wire Wire Line
	19050 17000 19000 17000
Wire Wire Line
	19400 17100 19350 17100
Wire Wire Line
	19400 17200 19350 17200
Connection ~ 20500 14800
Wire Wire Line
	20400 17100 20600 17100
Wire Wire Line
	20400 17200 20600 17200
Wire Wire Line
	19900 14800 20850 14800
Wire Wire Line
	19050 17100 19000 17100
Connection ~ 19000 17100
Wire Wire Line
	19050 17200 19000 17200
Connection ~ 19000 17200
Connection ~ 20600 17200
Wire Wire Line
	20400 17000 20600 17000
Wire Wire Line
	20600 17100 20600 17450
Connection ~ 18100 17100
Wire Wire Line
	15550 3250 15550 5150
Wire Wire Line
	15550 5150 16150 5150
Connection ~ 15550 4400
Wire Wire Line
	16150 5450 15650 5450
Connection ~ 15650 5450
Wire Wire Line
	16050 5250 16150 5250
Wire Wire Line
	16050 5100 16050 5250
Wire Wire Line
	15800 5100 15800 5350
Wire Wire Line
	15800 5350 16150 5350
Wire Wire Line
	-2150 1250 -550 1250
Wire Wire Line
	3250 18200 3250 18250
Wire Wire Line
	3250 19950 3250 20050
Wire Wire Line
	3950 18600 4050 18600
Wire Wire Line
	4850 18500 4900 18500
Wire Wire Line
	4900 18500 4900 18600
Wire Wire Line
	4900 18600 4950 18600
Wire Wire Line
	5750 18500 5800 18500
Wire Wire Line
	5800 18500 5800 18600
Wire Wire Line
	5800 18600 5850 18600
Wire Wire Line
	6650 18500 6700 18500
Wire Wire Line
	6700 18500 6700 18600
Wire Wire Line
	6700 18600 6750 18600
Wire Wire Line
	7550 18500 7600 18500
Wire Wire Line
	7600 18500 7600 18600
Wire Wire Line
	7600 18600 7650 18600
Wire Wire Line
	8450 18500 8500 18500
Wire Wire Line
	8500 18500 8500 18600
Wire Wire Line
	8500 18600 8550 18600
Wire Wire Line
	9350 18500 9400 18500
Wire Wire Line
	9400 18500 9400 18600
Wire Wire Line
	9400 18600 9450 18600
Wire Wire Line
	10250 18500 10300 18500
Wire Wire Line
	10300 18500 10300 18600
Wire Wire Line
	10300 18600 10350 18600
Wire Wire Line
	11150 18500 11200 18500
Wire Wire Line
	11200 18500 11200 18600
Wire Wire Line
	11200 18600 11250 18600
Wire Wire Line
	12050 18500 12100 18500
Wire Wire Line
	12100 18500 12100 18600
Wire Wire Line
	12100 18600 12150 18600
Wire Wire Line
	12950 18500 13000 18500
Wire Wire Line
	13000 18500 13000 18600
Wire Wire Line
	13000 18600 13050 18600
Wire Wire Line
	13850 18500 13900 18500
Wire Wire Line
	13900 18500 13900 18600
Wire Wire Line
	13900 18600 13950 18600
Wire Wire Line
	2250 20000 3250 20000
Wire Wire Line
	2450 20000 2450 19600
Wire Wire Line
	2450 19600 2550 19600
Connection ~ 3250 20000
Wire Wire Line
	2550 19500 2250 19500
Wire Wire Line
	2250 19250 2250 19600
Wire Wire Line
	2250 19800 2250 20000
Connection ~ 2250 19500
Connection ~ 2450 20000
Wire Wire Line
	14750 18500 14800 18500
Wire Wire Line
	14800 18500 14800 18600
Wire Wire Line
	14800 18600 14850 18600
Wire Wire Line
	18600 12350 18200 12350
Connection ~ 18200 12350
Connection ~ 18200 12250
Connection ~ 18200 12150
Wire Wire Line
	18900 12350 19400 12350
Connection ~ 18200 12750
Wire Wire Line
	4050 18500 4050 18350
$Comp
L +5V #PWR035
U 1 1 5A9F4ED1
P 4050 18350
F 0 "#PWR035" H 4050 18200 50  0001 C CNN
F 1 "+5V" H 4050 18490 50  0000 C CNN
F 2 "" H 4050 18350 50  0001 C CNN
F 3 "" H 4050 18350 50  0001 C CNN
	1    4050 18350
	1    0    0    -1  
$EndComp
Wire Wire Line
	4950 18500 4950 18350
$Comp
L +5V #PWR036
U 1 1 5A9F50F9
P 4950 18350
F 0 "#PWR036" H 4950 18200 50  0001 C CNN
F 1 "+5V" H 4950 18490 50  0000 C CNN
F 2 "" H 4950 18350 50  0001 C CNN
F 3 "" H 4950 18350 50  0001 C CNN
	1    4950 18350
	1    0    0    -1  
$EndComp
Wire Wire Line
	5850 18500 5850 18350
$Comp
L +5V #PWR037
U 1 1 5A9F51B4
P 5850 18350
F 0 "#PWR037" H 5850 18200 50  0001 C CNN
F 1 "+5V" H 5850 18490 50  0000 C CNN
F 2 "" H 5850 18350 50  0001 C CNN
F 3 "" H 5850 18350 50  0001 C CNN
	1    5850 18350
	1    0    0    -1  
$EndComp
Wire Wire Line
	6750 18500 6750 18350
$Comp
L +5V #PWR038
U 1 1 5A9F526F
P 6750 18350
F 0 "#PWR038" H 6750 18200 50  0001 C CNN
F 1 "+5V" H 6750 18490 50  0000 C CNN
F 2 "" H 6750 18350 50  0001 C CNN
F 3 "" H 6750 18350 50  0001 C CNN
	1    6750 18350
	1    0    0    -1  
$EndComp
Wire Wire Line
	7650 18500 7650 18350
$Comp
L +5V #PWR039
U 1 1 5A9F532A
P 7650 18350
F 0 "#PWR039" H 7650 18200 50  0001 C CNN
F 1 "+5V" H 7650 18490 50  0000 C CNN
F 2 "" H 7650 18350 50  0001 C CNN
F 3 "" H 7650 18350 50  0001 C CNN
	1    7650 18350
	1    0    0    -1  
$EndComp
Wire Wire Line
	8550 18500 8550 18350
$Comp
L +5V #PWR040
U 1 1 5A9F53E5
P 8550 18350
F 0 "#PWR040" H 8550 18200 50  0001 C CNN
F 1 "+5V" H 8550 18490 50  0000 C CNN
F 2 "" H 8550 18350 50  0001 C CNN
F 3 "" H 8550 18350 50  0001 C CNN
	1    8550 18350
	1    0    0    -1  
$EndComp
Wire Wire Line
	9450 18500 9450 18350
$Comp
L +5V #PWR041
U 1 1 5A9F54A0
P 9450 18350
F 0 "#PWR041" H 9450 18200 50  0001 C CNN
F 1 "+5V" H 9450 18490 50  0000 C CNN
F 2 "" H 9450 18350 50  0001 C CNN
F 3 "" H 9450 18350 50  0001 C CNN
	1    9450 18350
	1    0    0    -1  
$EndComp
Wire Wire Line
	10350 18500 10350 18350
$Comp
L +5V #PWR042
U 1 1 5A9F555B
P 10350 18350
F 0 "#PWR042" H 10350 18200 50  0001 C CNN
F 1 "+5V" H 10350 18490 50  0000 C CNN
F 2 "" H 10350 18350 50  0001 C CNN
F 3 "" H 10350 18350 50  0001 C CNN
	1    10350 18350
	1    0    0    -1  
$EndComp
Wire Wire Line
	11250 18500 11250 18350
$Comp
L +5V #PWR043
U 1 1 5A9F5616
P 11250 18350
F 0 "#PWR043" H 11250 18200 50  0001 C CNN
F 1 "+5V" H 11250 18490 50  0000 C CNN
F 2 "" H 11250 18350 50  0001 C CNN
F 3 "" H 11250 18350 50  0001 C CNN
	1    11250 18350
	1    0    0    -1  
$EndComp
Wire Wire Line
	12150 18500 12150 18350
$Comp
L +5V #PWR044
U 1 1 5A9F5D13
P 12150 18350
F 0 "#PWR044" H 12150 18200 50  0001 C CNN
F 1 "+5V" H 12150 18490 50  0000 C CNN
F 2 "" H 12150 18350 50  0001 C CNN
F 3 "" H 12150 18350 50  0001 C CNN
	1    12150 18350
	1    0    0    -1  
$EndComp
Wire Wire Line
	13050 18500 13050 18350
$Comp
L +5V #PWR045
U 1 1 5A9F5DCE
P 13050 18350
F 0 "#PWR045" H 13050 18200 50  0001 C CNN
F 1 "+5V" H 13050 18490 50  0000 C CNN
F 2 "" H 13050 18350 50  0001 C CNN
F 3 "" H 13050 18350 50  0001 C CNN
	1    13050 18350
	1    0    0    -1  
$EndComp
Wire Wire Line
	13950 18500 13950 18350
$Comp
L +5V #PWR046
U 1 1 5A9F5E89
P 13950 18350
F 0 "#PWR046" H 13950 18200 50  0001 C CNN
F 1 "+5V" H 13950 18490 50  0000 C CNN
F 2 "" H 13950 18350 50  0001 C CNN
F 3 "" H 13950 18350 50  0001 C CNN
	1    13950 18350
	1    0    0    -1  
$EndComp
Wire Wire Line
	14850 18500 14850 18350
$Comp
L +5V #PWR047
U 1 1 5A9F5F44
P 14850 18350
F 0 "#PWR047" H 14850 18200 50  0001 C CNN
F 1 "+5V" H 14850 18490 50  0000 C CNN
F 2 "" H 14850 18350 50  0001 C CNN
F 3 "" H 14850 18350 50  0001 C CNN
	1    14850 18350
	1    0    0    -1  
$EndComp
Wire Wire Line
	15650 18600 15650 18750
$Comp
L GND #PWR048
U 1 1 5A9F634A
P 15650 18750
F 0 "#PWR048" H 15650 18500 50  0001 C CNN
F 1 "GND" H 15650 18600 50  0000 C CNN
F 2 "" H 15650 18750 50  0000 C CNN
F 3 "" H 15650 18750 50  0000 C CNN
	1    15650 18750
	1    0    0    -1  
$EndComp
Wire Wire Line
	14750 18600 14750 18750
$Comp
L GND #PWR049
U 1 1 5A9F6579
P 14750 18750
F 0 "#PWR049" H 14750 18500 50  0001 C CNN
F 1 "GND" H 14750 18600 50  0000 C CNN
F 2 "" H 14750 18750 50  0000 C CNN
F 3 "" H 14750 18750 50  0000 C CNN
	1    14750 18750
	1    0    0    -1  
$EndComp
Wire Wire Line
	13850 18600 13850 18750
$Comp
L GND #PWR050
U 1 1 5A9F6634
P 13850 18750
F 0 "#PWR050" H 13850 18500 50  0001 C CNN
F 1 "GND" H 13850 18600 50  0000 C CNN
F 2 "" H 13850 18750 50  0000 C CNN
F 3 "" H 13850 18750 50  0000 C CNN
	1    13850 18750
	1    0    0    -1  
$EndComp
Wire Wire Line
	12950 18600 12950 18750
$Comp
L GND #PWR051
U 1 1 5A9F66EF
P 12950 18750
F 0 "#PWR051" H 12950 18500 50  0001 C CNN
F 1 "GND" H 12950 18600 50  0000 C CNN
F 2 "" H 12950 18750 50  0000 C CNN
F 3 "" H 12950 18750 50  0000 C CNN
	1    12950 18750
	1    0    0    -1  
$EndComp
Wire Wire Line
	12050 18600 12050 18750
$Comp
L GND #PWR052
U 1 1 5A9F67AA
P 12050 18750
F 0 "#PWR052" H 12050 18500 50  0001 C CNN
F 1 "GND" H 12050 18600 50  0000 C CNN
F 2 "" H 12050 18750 50  0000 C CNN
F 3 "" H 12050 18750 50  0000 C CNN
	1    12050 18750
	1    0    0    -1  
$EndComp
Wire Wire Line
	11150 18600 11150 18750
$Comp
L GND #PWR053
U 1 1 5A9F6865
P 11150 18750
F 0 "#PWR053" H 11150 18500 50  0001 C CNN
F 1 "GND" H 11150 18600 50  0000 C CNN
F 2 "" H 11150 18750 50  0000 C CNN
F 3 "" H 11150 18750 50  0000 C CNN
	1    11150 18750
	1    0    0    -1  
$EndComp
Wire Wire Line
	10250 18600 10250 18750
$Comp
L GND #PWR054
U 1 1 5A9F6920
P 10250 18750
F 0 "#PWR054" H 10250 18500 50  0001 C CNN
F 1 "GND" H 10250 18600 50  0000 C CNN
F 2 "" H 10250 18750 50  0000 C CNN
F 3 "" H 10250 18750 50  0000 C CNN
	1    10250 18750
	1    0    0    -1  
$EndComp
Wire Wire Line
	9350 18600 9350 18750
$Comp
L GND #PWR055
U 1 1 5A9F6A8D
P 9350 18750
F 0 "#PWR055" H 9350 18500 50  0001 C CNN
F 1 "GND" H 9350 18600 50  0000 C CNN
F 2 "" H 9350 18750 50  0000 C CNN
F 3 "" H 9350 18750 50  0000 C CNN
	1    9350 18750
	1    0    0    -1  
$EndComp
Wire Wire Line
	8450 18600 8450 18750
$Comp
L GND #PWR056
U 1 1 5A9F6B48
P 8450 18750
F 0 "#PWR056" H 8450 18500 50  0001 C CNN
F 1 "GND" H 8450 18600 50  0000 C CNN
F 2 "" H 8450 18750 50  0000 C CNN
F 3 "" H 8450 18750 50  0000 C CNN
	1    8450 18750
	1    0    0    -1  
$EndComp
Wire Wire Line
	7550 18600 7550 18750
$Comp
L GND #PWR057
U 1 1 5A9F6C03
P 7550 18750
F 0 "#PWR057" H 7550 18500 50  0001 C CNN
F 1 "GND" H 7550 18600 50  0000 C CNN
F 2 "" H 7550 18750 50  0000 C CNN
F 3 "" H 7550 18750 50  0000 C CNN
	1    7550 18750
	1    0    0    -1  
$EndComp
Wire Wire Line
	5750 18600 5750 18750
$Comp
L GND #PWR058
U 1 1 5A9F6D70
P 5750 18750
F 0 "#PWR058" H 5750 18500 50  0001 C CNN
F 1 "GND" H 5750 18600 50  0000 C CNN
F 2 "" H 5750 18750 50  0000 C CNN
F 3 "" H 5750 18750 50  0000 C CNN
	1    5750 18750
	1    0    0    -1  
$EndComp
Wire Wire Line
	6650 18600 6650 18750
$Comp
L GND #PWR059
U 1 1 5A9F6E2B
P 6650 18750
F 0 "#PWR059" H 6650 18500 50  0001 C CNN
F 1 "GND" H 6650 18600 50  0000 C CNN
F 2 "" H 6650 18750 50  0000 C CNN
F 3 "" H 6650 18750 50  0000 C CNN
	1    6650 18750
	1    0    0    -1  
$EndComp
Wire Wire Line
	4850 18600 4850 18750
$Comp
L GND #PWR060
U 1 1 5A9F7103
P 4850 18750
F 0 "#PWR060" H 4850 18500 50  0001 C CNN
F 1 "GND" H 4850 18600 50  0000 C CNN
F 2 "" H 4850 18750 50  0000 C CNN
F 3 "" H 4850 18750 50  0000 C CNN
	1    4850 18750
	1    0    0    -1  
$EndComp
$Comp
L C C17
U 1 1 5A9FF722
P 4600 19400
F 0 "C17" H 4610 19470 50  0000 L CNN
F 1 "0.1uF" H 4610 19320 50  0000 L CNN
F 2 "chordboard-footprints:C_0805_HandSoldering" H 4600 19400 50  0001 C CNN
F 3 "" H 4600 19400 50  0001 C CNN
	1    4600 19400
	-1   0    0    -1  
$EndComp
$Comp
L C C18
U 1 1 5A9FFD01
P 4850 19400
F 0 "C18" H 4860 19470 50  0000 L CNN
F 1 "0.1uF" H 4860 19320 50  0000 L CNN
F 2 "chordboard-footprints:C_0805_HandSoldering" H 4850 19400 50  0001 C CNN
F 3 "" H 4850 19400 50  0001 C CNN
	1    4850 19400
	-1   0    0    -1  
$EndComp
Wire Wire Line
	4600 19300 7600 19300
Connection ~ 4850 19300
Wire Wire Line
	4600 19500 7600 19500
Connection ~ 4850 19500
$Comp
L C C19
U 1 1 5AA00E49
P 5100 19400
F 0 "C19" H 5110 19470 50  0000 L CNN
F 1 "0.1uF" H 5110 19320 50  0000 L CNN
F 2 "chordboard-footprints:C_0805_HandSoldering" H 5100 19400 50  0001 C CNN
F 3 "" H 5100 19400 50  0001 C CNN
	1    5100 19400
	-1   0    0    -1  
$EndComp
$Comp
L C C20
U 1 1 5AA00E4F
P 5350 19400
F 0 "C20" H 5360 19470 50  0000 L CNN
F 1 "0.1uF" H 5360 19320 50  0000 L CNN
F 2 "chordboard-footprints:C_0805_HandSoldering" H 5350 19400 50  0001 C CNN
F 3 "" H 5350 19400 50  0001 C CNN
	1    5350 19400
	-1   0    0    -1  
$EndComp
Connection ~ 5350 19300
Connection ~ 5350 19500
$Comp
L C C21
U 1 1 5AA0121D
P 5600 19400
F 0 "C21" H 5610 19470 50  0000 L CNN
F 1 "0.1uF" H 5610 19320 50  0000 L CNN
F 2 "chordboard-footprints:C_0805_HandSoldering" H 5600 19400 50  0001 C CNN
F 3 "" H 5600 19400 50  0001 C CNN
	1    5600 19400
	-1   0    0    -1  
$EndComp
$Comp
L C C22
U 1 1 5AA01223
P 5850 19400
F 0 "C22" H 5860 19470 50  0000 L CNN
F 1 "0.1uF" H 5860 19320 50  0000 L CNN
F 2 "chordboard-footprints:C_0805_HandSoldering" H 5850 19400 50  0001 C CNN
F 3 "" H 5850 19400 50  0001 C CNN
	1    5850 19400
	-1   0    0    -1  
$EndComp
Connection ~ 5850 19300
Connection ~ 5850 19500
$Comp
L C C23
U 1 1 5AA0122D
P 6100 19400
F 0 "C23" H 6110 19470 50  0000 L CNN
F 1 "0.1uF" H 6110 19320 50  0000 L CNN
F 2 "chordboard-footprints:C_0805_HandSoldering" H 6100 19400 50  0001 C CNN
F 3 "" H 6100 19400 50  0001 C CNN
	1    6100 19400
	-1   0    0    -1  
$EndComp
$Comp
L C C24
U 1 1 5AA01233
P 6350 19400
F 0 "C24" H 6360 19470 50  0000 L CNN
F 1 "0.1uF" H 6360 19320 50  0000 L CNN
F 2 "chordboard-footprints:C_0805_HandSoldering" H 6350 19400 50  0001 C CNN
F 3 "" H 6350 19400 50  0001 C CNN
	1    6350 19400
	-1   0    0    -1  
$EndComp
Connection ~ 6350 19300
Connection ~ 6350 19500
Connection ~ 5100 19300
Connection ~ 5100 19500
Connection ~ 5600 19300
Connection ~ 5600 19500
Connection ~ 6100 19300
Connection ~ 6100 19500
$Comp
L C C25
U 1 1 5AA013BD
P 6600 19400
F 0 "C25" H 6610 19470 50  0000 L CNN
F 1 "0.1uF" H 6610 19320 50  0000 L CNN
F 2 "chordboard-footprints:C_0805_HandSoldering" H 6600 19400 50  0001 C CNN
F 3 "" H 6600 19400 50  0001 C CNN
	1    6600 19400
	-1   0    0    -1  
$EndComp
$Comp
L C C26
U 1 1 5AA01604
P 6850 19400
F 0 "C26" H 6860 19470 50  0000 L CNN
F 1 "0.1uF" H 6860 19320 50  0000 L CNN
F 2 "chordboard-footprints:C_0805_HandSoldering" H 6850 19400 50  0001 C CNN
F 3 "" H 6850 19400 50  0001 C CNN
	1    6850 19400
	-1   0    0    -1  
$EndComp
$Comp
L C C27
U 1 1 5AA01A90
P 7100 19400
F 0 "C27" H 7110 19470 50  0000 L CNN
F 1 "0.1uF" H 7110 19320 50  0000 L CNN
F 2 "chordboard-footprints:C_0805_HandSoldering" H 7100 19400 50  0001 C CNN
F 3 "" H 7100 19400 50  0001 C CNN
	1    7100 19400
	-1   0    0    -1  
$EndComp
$Comp
L C C28
U 1 1 5AA01CE1
P 7350 19400
F 0 "C28" H 7360 19470 50  0000 L CNN
F 1 "0.1uF" H 7360 19320 50  0000 L CNN
F 2 "chordboard-footprints:C_0805_HandSoldering" H 7350 19400 50  0001 C CNN
F 3 "" H 7350 19400 50  0001 C CNN
	1    7350 19400
	-1   0    0    -1  
$EndComp
$Comp
L C C29
U 1 1 5AA01F35
P 7600 19400
F 0 "C29" H 7610 19470 50  0000 L CNN
F 1 "0.1uF" H 7610 19320 50  0000 L CNN
F 2 "chordboard-footprints:C_0805_HandSoldering" H 7600 19400 50  0001 C CNN
F 3 "" H 7600 19400 50  0001 C CNN
	1    7600 19400
	-1   0    0    -1  
$EndComp
Connection ~ 6600 19300
Connection ~ 6850 19300
Connection ~ 7100 19300
Connection ~ 7350 19300
Connection ~ 7350 19500
Connection ~ 7100 19500
Connection ~ 6600 19500
Connection ~ 6850 19500
Wire Wire Line
	4600 19300 4600 19150
$Comp
L +5V #PWR061
U 1 1 5AA03F7A
P 4600 19150
F 0 "#PWR061" H 4600 19000 50  0001 C CNN
F 1 "+5V" H 4600 19290 50  0000 C CNN
F 2 "" H 4600 19150 50  0001 C CNN
F 3 "" H 4600 19150 50  0001 C CNN
	1    4600 19150
	1    0    0    -1  
$EndComp
Connection ~ 4600 19300
Wire Wire Line
	4600 19500 4600 19650
$Comp
L GND #PWR062
U 1 1 5AA04283
P 4600 19650
F 0 "#PWR062" H 4600 19400 50  0001 C CNN
F 1 "GND" H 4600 19500 50  0000 C CNN
F 2 "" H 4600 19650 50  0000 C CNN
F 3 "" H 4600 19650 50  0000 C CNN
	1    4600 19650
	1    0    0    -1  
$EndComp
Connection ~ 4600 19500
$Comp
L GND #PWR063
U 1 1 5AA410B2
P 16050 6650
F 0 "#PWR063" H 16050 6400 50  0001 C CNN
F 1 "GND" H 16050 6500 50  0000 C CNN
F 2 "" H 16050 6650 50  0001 C CNN
F 3 "" H 16050 6650 50  0001 C CNN
	1    16050 6650
	1    0    0    -1  
$EndComp
$Comp
L CONN_01X06 J1
U 1 1 5AA410BA
P 16350 6050
F 0 "J1" H 16350 6400 50  0000 C CNN
F 1 "CONN_01X06" V 16450 6050 50  0000 C CNN
F 2 "Pin_Headers:Pin_Header_Straight_1x06_Pitch2.54mm" H 16350 6050 50  0001 C CNN
F 3 "" H 16350 6050 50  0001 C CNN
	1    16350 6050
	1    0    0    -1  
$EndComp
Wire Wire Line
	16150 6300 16050 6300
Wire Wire Line
	16050 6300 16050 6650
Wire Wire Line
	-550 1250 -550 1450
Connection ~ -750 1250
Wire Wire Line
	-550 1800 -550 1650
Connection ~ -750 1800
$Comp
L KSW SW4
U 1 1 5AA4D381
P 18750 12450
F 0 "SW4" H 18650 12500 60  0000 C CNN
F 1 "KSW" H 18900 12500 60  0000 C CNN
F 2 "chordboard-footprints:SW_PUSH_6mm" H 19700 12500 60  0001 C CNN
F 3 "" H 18750 12450 60  0001 C CNN
	1    18750 12450
	-1   0    0    -1  
$EndComp
Wire Wire Line
	18600 12450 18200 12450
Wire Wire Line
	18900 12450 19400 12450
Connection ~ 18200 12450
Text Label 19400 9550 2    60   ~ 0
LED2_DIN
Text Label 19400 10450 2    60   ~ 0
LED2_CLK
Text Label 19400 10550 2    60   ~ 0
LED2_LOAD
$Comp
L MAX7219 U1
U 1 1 5AA60680
P -2700 6300
F 0 "U1" H -2600 7650 60  0000 C CNN
F 1 "MAX7219" H -2150 7000 60  0000 C CNN
F 2 "Housings_DIP:DIP-24_W7.62mm" H -2700 6100 40  0001 L CIN
F 3 "https://datasheets.maximintegrated.com/en/ds/MAX7219-MAX7221.pdf" H -2700 6000 40  0001 L CIN
	1    -2700 6300
	1    0    0    -1  
$EndComp
Text Label -1500 5200 0    60   ~ 0
X20
Text Label -2800 5200 2    60   ~ 0
Y20
$Comp
L +5V #PWR064
U 1 1 5AA60688
P -2000 4100
F 0 "#PWR064" H -2000 3950 50  0001 C CNN
F 1 "+5V" H -2000 4240 50  0000 C CNN
F 2 "" H -2000 4100 50  0001 C CNN
F 3 "" H -2000 4100 50  0001 C CNN
	1    -2000 4100
	1    0    0    -1  
$EndComp
Text Label -1500 5900 0    60   ~ 0
X27
Text Label -1500 5800 0    60   ~ 0
X26
Text Label -1500 5700 0    60   ~ 0
X25
Text Label -1500 5600 0    60   ~ 0
X24
Text Label -1500 5500 0    60   ~ 0
X23
Text Label -1500 5400 0    60   ~ 0
X22
Text Label -1500 5300 0    60   ~ 0
X21
Text Label -2800 5300 2    60   ~ 0
Y21
Text Label -2800 5400 2    60   ~ 0
Y22
Text Label -2800 5500 2    60   ~ 0
Y23
Text Label -2800 5600 2    60   ~ 0
Y24
Text Label -2800 5700 2    60   ~ 0
Y25
Text Label -2800 5800 2    60   ~ 0
Y26
Text Label -2800 5900 2    60   ~ 0
Y27
$Comp
L GND #PWR065
U 1 1 5AA6069C
P -1950 6900
F 0 "#PWR065" H -1950 6650 50  0001 C CNN
F 1 "GND" H -1950 6750 50  0000 C CNN
F 2 "" H -1950 6900 50  0000 C CNN
F 3 "" H -1950 6900 50  0000 C CNN
	1    -1950 6900
	1    0    0    -1  
$EndComp
$Comp
L C C7
U 1 1 5AA606A2
P -950 5000
F 0 "C7" H -940 5070 50  0000 L CNN
F 1 "0.1uF" H -940 4920 50  0000 L CNN
F 2 "chordboard-footprints:C_0805_HandSoldering" H -950 5000 50  0001 C CNN
F 3 "" H -950 5000 50  0001 C CNN
	1    -950 5000
	-1   0    0    -1  
$EndComp
$Comp
L GND #PWR066
U 1 1 5AA606A8
P -950 5450
F 0 "#PWR066" H -950 5200 50  0001 C CNN
F 1 "GND" H -950 5300 50  0000 C CNN
F 2 "" H -950 5450 50  0000 C CNN
F 3 "" H -950 5450 50  0000 C CNN
	1    -950 5450
	1    0    0    -1  
$EndComp
$Comp
L CP CP3
U 1 1 5AA606AE
P -700 5000
F 0 "CP3" H -690 5070 50  0000 L CNN
F 1 "10uF" H -690 4920 50  0000 L CNN
F 2 "Capacitors_THT:CP_Radial_D4.0mm_P2.00mm" H -700 5000 50  0001 C CNN
F 3 "" H -700 5000 50  0001 C CNN
	1    -700 5000
	1    0    0    -1  
$EndComp
Text Label -2800 6050 2    60   ~ 0
LED2_DIN
Text Label -2800 6150 2    60   ~ 0
LED2_CLK
Text Label -2800 6250 2    60   ~ 0
LED2_LOAD
$Comp
L R RS1
U 1 1 5AA606B7
P -2200 4700
F 0 "RS1" V -2300 4650 50  0000 C CNN
F 1 "10K" V -2200 4700 50  0000 C CNN
F 2 "Resistors_SMD:R_1206_HandSoldering" V -2270 4700 50  0001 C CNN
F 3 "" H -2200 4700 50  0000 C CNN
	1    -2200 4700
	0    1    1    0   
$EndComp
Connection ~ -950 5250
Wire Wire Line
	-950 5250 -500 5250
Wire Wire Line
	-700 5100 -700 5250
Connection ~ -950 4700
Wire Wire Line
	-700 4700 -700 4900
Wire Wire Line
	-950 5100 -950 5450
Wire Wire Line
	-950 4700 -950 4900
Connection ~ -2000 4700
Wire Wire Line
	-2400 4700 -2300 4700
Wire Wire Line
	-2400 4700 -2400 4900
Connection ~ -1950 6550
Wire Wire Line
	-1950 6550 -1950 6900
Wire Wire Line
	-1900 6550 -1900 6400
Wire Wire Line
	-2000 6550 -1900 6550
Wire Wire Line
	-2000 6400 -2000 6550
Wire Wire Line
	-2000 4100 -2000 4900
Wire Wire Line
	-2100 4700 -500 4700
Wire Wire Line
	-500 4700 -500 4900
Connection ~ -700 4700
Wire Wire Line
	-500 5250 -500 5100
Connection ~ -700 5250
NoConn ~ -1500 6050
$Comp
L LED_ARGB LED1
U 1 1 5AA8CCE5
P 2450 3150
F 0 "LED1" H 2450 3520 50  0000 C CNN
F 1 "LED_ARGB" H 2450 2800 50  0000 C CNN
F 2 "chordboard-footprints:LED_D3.0mm-4" H 2450 3100 50  0001 C CNN
F 3 "" H 2450 3100 50  0001 C CNN
	1    2450 3150
	-1   0    0    1   
$EndComp
Wire Wire Line
	2650 2950 2950 2950
Wire Wire Line
	2650 3150 3050 3150
Wire Wire Line
	2650 3350 3150 3350
Wire Wire Line
	2950 2300 2950 7500
Wire Wire Line
	3050 2500 3050 7700
Wire Wire Line
	3150 7900 3150 2700
Wire Wire Line
	2250 3150 2150 3150
Wire Wire Line
	2150 3150 2150 3500
Connection ~ 2950 2300
Connection ~ 3050 2500
Connection ~ 3150 2700
$Comp
L LED_ARGB LED2
U 1 1 5AA8CD0F
P 3500 3150
F 0 "LED2" H 3500 3520 50  0000 C CNN
F 1 "LED_ARGB" H 3500 2800 50  0000 C CNN
F 2 "chordboard-footprints:LED_D3.0mm-4" H 3500 3100 50  0001 C CNN
F 3 "" H 3500 3100 50  0001 C CNN
	1    3500 3150
	-1   0    0    1   
$EndComp
Wire Wire Line
	3700 2950 4000 2950
Wire Wire Line
	3700 3150 4100 3150
Wire Wire Line
	3700 3350 4200 3350
Wire Wire Line
	4000 2300 4000 7500
Wire Wire Line
	4100 2500 4100 7700
Wire Wire Line
	4200 7900 4200 2700
Wire Wire Line
	3300 3150 3200 3150
Wire Wire Line
	3200 3150 3200 3500
Connection ~ 4000 2300
Connection ~ 4100 2500
Connection ~ 4200 2700
Wire Wire Line
	3200 3500 2000 3500
Connection ~ 2150 3500
$Comp
L LED_ARGB LED3
U 1 1 5AA8CD3B
P 2450 3800
F 0 "LED3" H 2450 4170 50  0000 C CNN
F 1 "LED_ARGB" H 2450 3450 50  0000 C CNN
F 2 "chordboard-footprints:LED_D3.0mm-4" H 2450 3750 50  0001 C CNN
F 3 "" H 2450 3750 50  0001 C CNN
	1    2450 3800
	-1   0    0    1   
$EndComp
Wire Wire Line
	2650 3600 2950 3600
Wire Wire Line
	2650 3800 3050 3800
Wire Wire Line
	2650 4000 3150 4000
Wire Wire Line
	2250 3800 2150 3800
Wire Wire Line
	2150 3800 2150 4150
Connection ~ 2950 2950
Connection ~ 3050 3150
Connection ~ 3150 3350
$Comp
L LED_ARGB LED4
U 1 1 5AA8CD62
P 3500 3800
F 0 "LED4" H 3500 4170 50  0000 C CNN
F 1 "LED_ARGB" H 3500 3450 50  0000 C CNN
F 2 "chordboard-footprints:LED_D3.0mm-4" H 3500 3750 50  0001 C CNN
F 3 "" H 3500 3750 50  0001 C CNN
	1    3500 3800
	-1   0    0    1   
$EndComp
Wire Wire Line
	3700 3600 4000 3600
Wire Wire Line
	3700 3800 4100 3800
Wire Wire Line
	3700 4000 4200 4000
Wire Wire Line
	3300 3800 3200 3800
Wire Wire Line
	3200 3800 3200 4150
Connection ~ 4000 2950
Connection ~ 4100 3150
Connection ~ 4200 3350
Wire Wire Line
	3200 4150 2000 4150
Connection ~ 2150 4150
$Comp
L LED_ARGB LED5
U 1 1 5AA8CD8B
P 2450 4450
F 0 "LED5" H 2450 4820 50  0000 C CNN
F 1 "LED_ARGB" H 2450 4100 50  0000 C CNN
F 2 "chordboard-footprints:LED_D3.0mm-4" H 2450 4400 50  0001 C CNN
F 3 "" H 2450 4400 50  0001 C CNN
	1    2450 4450
	-1   0    0    1   
$EndComp
Wire Wire Line
	2650 4250 2950 4250
Wire Wire Line
	2650 4450 3050 4450
Wire Wire Line
	2650 4650 3150 4650
Wire Wire Line
	2250 4450 2150 4450
Wire Wire Line
	2150 4450 2150 4800
Connection ~ 2950 3600
Connection ~ 3050 3800
Connection ~ 3150 4000
$Comp
L LED_ARGB LED6
U 1 1 5AA8CDB2
P 3500 4450
F 0 "LED6" H 3500 4820 50  0000 C CNN
F 1 "LED_ARGB" H 3500 4100 50  0000 C CNN
F 2 "chordboard-footprints:LED_D3.0mm-4" H 3500 4400 50  0001 C CNN
F 3 "" H 3500 4400 50  0001 C CNN
	1    3500 4450
	-1   0    0    1   
$EndComp
Wire Wire Line
	3700 4250 4000 4250
Wire Wire Line
	3700 4450 4100 4450
Wire Wire Line
	3700 4650 4200 4650
Wire Wire Line
	3300 4450 3200 4450
Wire Wire Line
	3200 4450 3200 4800
Connection ~ 4000 3600
Connection ~ 4100 3800
Connection ~ 4200 4000
Wire Wire Line
	3200 4800 2000 4800
Connection ~ 2150 4800
$Comp
L LED_ARGB LED7
U 1 1 5AA8CDDB
P 2450 5100
F 0 "LED7" H 2450 5470 50  0000 C CNN
F 1 "LED_ARGB" H 2450 4750 50  0000 C CNN
F 2 "chordboard-footprints:LED_D3.0mm-4" H 2450 5050 50  0001 C CNN
F 3 "" H 2450 5050 50  0001 C CNN
	1    2450 5100
	-1   0    0    1   
$EndComp
Wire Wire Line
	2650 4900 2950 4900
Wire Wire Line
	2650 5100 3050 5100
Wire Wire Line
	2650 5300 3150 5300
Wire Wire Line
	2250 5100 2150 5100
Wire Wire Line
	2150 5100 2150 5450
Connection ~ 2950 4250
Connection ~ 3050 4450
Connection ~ 3150 4650
$Comp
L LED_ARGB LED8
U 1 1 5AA8CE02
P 3500 5100
F 0 "LED8" H 3500 5470 50  0000 C CNN
F 1 "LED_ARGB" H 3500 4750 50  0000 C CNN
F 2 "chordboard-footprints:LED_D3.0mm-4" H 3500 5050 50  0001 C CNN
F 3 "" H 3500 5050 50  0001 C CNN
	1    3500 5100
	-1   0    0    1   
$EndComp
Wire Wire Line
	3700 4900 4000 4900
Wire Wire Line
	3700 5100 4100 5100
Wire Wire Line
	3700 5300 4200 5300
Wire Wire Line
	3300 5100 3200 5100
Wire Wire Line
	3200 5100 3200 5450
Connection ~ 4000 4250
Connection ~ 4100 4450
Connection ~ 4200 4650
Wire Wire Line
	3200 5450 2000 5450
Connection ~ 2150 5450
$Comp
L LED_ARGB LED9
U 1 1 5AA8CE2B
P 2450 5750
F 0 "LED9" H 2450 6120 50  0000 C CNN
F 1 "LED_ARGB" H 2450 5400 50  0000 C CNN
F 2 "chordboard-footprints:LED_D3.0mm-4" H 2450 5700 50  0001 C CNN
F 3 "" H 2450 5700 50  0001 C CNN
	1    2450 5750
	-1   0    0    1   
$EndComp
Wire Wire Line
	2650 5550 2950 5550
Wire Wire Line
	2650 5750 3050 5750
Wire Wire Line
	2650 5950 3150 5950
Wire Wire Line
	2250 5750 2150 5750
Wire Wire Line
	2150 5750 2150 6100
Connection ~ 2950 4900
Connection ~ 3050 5100
Connection ~ 3150 5300
$Comp
L LED_ARGB LED10
U 1 1 5AA8CE52
P 3500 5750
F 0 "LED10" H 3500 6120 50  0000 C CNN
F 1 "LED_ARGB" H 3500 5400 50  0000 C CNN
F 2 "chordboard-footprints:LED_D3.0mm-4" H 3500 5700 50  0001 C CNN
F 3 "" H 3500 5700 50  0001 C CNN
	1    3500 5750
	-1   0    0    1   
$EndComp
Wire Wire Line
	3700 5550 4000 5550
Wire Wire Line
	3700 5750 4100 5750
Wire Wire Line
	3700 5950 4200 5950
Wire Wire Line
	3300 5750 3200 5750
Wire Wire Line
	3200 5750 3200 6100
Connection ~ 4000 4900
Connection ~ 4100 5100
Connection ~ 4200 5300
Wire Wire Line
	3200 6100 2000 6100
Connection ~ 2150 6100
$Comp
L LED_ARGB LED11
U 1 1 5AA8CE7B
P 2450 6400
F 0 "LED11" H 2450 6770 50  0000 C CNN
F 1 "LED_ARGB" H 2450 6050 50  0000 C CNN
F 2 "chordboard-footprints:LED_D3.0mm-4" H 2450 6350 50  0001 C CNN
F 3 "" H 2450 6350 50  0001 C CNN
	1    2450 6400
	-1   0    0    1   
$EndComp
Wire Wire Line
	2650 6200 2950 6200
Wire Wire Line
	2650 6400 3050 6400
Wire Wire Line
	2650 6600 3150 6600
Wire Wire Line
	2250 6400 2150 6400
Wire Wire Line
	2150 6400 2150 6750
Connection ~ 2950 5550
Connection ~ 3050 5750
Connection ~ 3150 5950
$Comp
L LED_ARGB LED12
U 1 1 5AA8CEA2
P 3500 6400
F 0 "LED12" H 3500 6770 50  0000 C CNN
F 1 "LED_ARGB" H 3500 6050 50  0000 C CNN
F 2 "chordboard-footprints:LED_D3.0mm-4" H 3500 6350 50  0001 C CNN
F 3 "" H 3500 6350 50  0001 C CNN
	1    3500 6400
	-1   0    0    1   
$EndComp
Wire Wire Line
	3700 6200 4000 6200
Wire Wire Line
	3700 6400 4100 6400
Wire Wire Line
	3700 6600 4200 6600
Wire Wire Line
	3300 6400 3200 6400
Wire Wire Line
	3200 6400 3200 6750
Connection ~ 4000 5550
Connection ~ 4100 5750
Connection ~ 4200 5950
Wire Wire Line
	3200 6750 2000 6750
Connection ~ 2150 6750
$Comp
L LED_ARGB LED13
U 1 1 5AA8CECB
P 2450 7050
F 0 "LED13" H 2450 7420 50  0000 C CNN
F 1 "LED_ARGB" H 2450 6700 50  0000 C CNN
F 2 "chordboard-footprints:LED_D3.0mm-4" H 2450 7000 50  0001 C CNN
F 3 "" H 2450 7000 50  0001 C CNN
	1    2450 7050
	-1   0    0    1   
$EndComp
Wire Wire Line
	2650 6850 2950 6850
Wire Wire Line
	2650 7050 3050 7050
Wire Wire Line
	2650 7250 3150 7250
Wire Wire Line
	2250 7050 2150 7050
Wire Wire Line
	2150 7050 2150 7400
Connection ~ 2950 6200
Connection ~ 3050 6400
Connection ~ 3150 6600
$Comp
L LED_ARGB LED14
U 1 1 5AA8CEF2
P 3500 7050
F 0 "LED14" H 3500 7420 50  0000 C CNN
F 1 "LED_ARGB" H 3500 6700 50  0000 C CNN
F 2 "chordboard-footprints:LED_D3.0mm-4" H 3500 7000 50  0001 C CNN
F 3 "" H 3500 7000 50  0001 C CNN
	1    3500 7050
	-1   0    0    1   
$EndComp
Wire Wire Line
	3700 6850 4000 6850
Wire Wire Line
	3700 7050 4100 7050
Wire Wire Line
	3700 7250 4200 7250
Wire Wire Line
	3300 7050 3200 7050
Wire Wire Line
	3200 7050 3200 7400
Connection ~ 4000 6200
Connection ~ 4100 6400
Connection ~ 4200 6600
Wire Wire Line
	3200 7400 2000 7400
Connection ~ 2150 7400
$Comp
L LED_ARGB LED15
U 1 1 5AA8CF1B
P 2450 7700
F 0 "LED15" H 2450 8070 50  0000 C CNN
F 1 "LED_ARGB" H 2450 7350 50  0000 C CNN
F 2 "chordboard-footprints:LED_D3.0mm-4" H 2450 7650 50  0001 C CNN
F 3 "" H 2450 7650 50  0001 C CNN
	1    2450 7700
	-1   0    0    1   
$EndComp
Wire Wire Line
	2950 7500 2650 7500
Wire Wire Line
	3050 7700 2650 7700
Wire Wire Line
	2650 7900 3150 7900
Wire Wire Line
	2250 7700 2150 7700
Wire Wire Line
	2150 7700 2150 8050
Connection ~ 2950 6850
Connection ~ 3050 7050
Connection ~ 3150 7250
$Comp
L LED_ARGB LED16
U 1 1 5AA8CF42
P 3500 7700
F 0 "LED16" H 3500 8070 50  0000 C CNN
F 1 "LED_ARGB" H 3500 7350 50  0000 C CNN
F 2 "chordboard-footprints:LED_D3.0mm-4" H 3500 7650 50  0001 C CNN
F 3 "" H 3500 7650 50  0001 C CNN
	1    3500 7700
	-1   0    0    1   
$EndComp
Wire Wire Line
	4000 7500 3700 7500
Wire Wire Line
	4100 7700 3700 7700
Wire Wire Line
	3700 7900 4200 7900
Wire Wire Line
	3300 7700 3200 7700
Wire Wire Line
	3200 7700 3200 8050
Connection ~ 4000 6850
Connection ~ 4100 7050
Connection ~ 4200 7250
Wire Wire Line
	3200 8050 2000 8050
Connection ~ 2150 8050
$Comp
L LED_ARGB LED17
U 1 1 5AA8CF6B
P 5100 9250
F 0 "LED17" H 5100 9620 50  0000 C CNN
F 1 "LED_ARGB" H 5100 8900 50  0000 C CNN
F 2 "chordboard-footprints:LED_D3.0mm-4" H 5100 9200 50  0001 C CNN
F 3 "" H 5100 9200 50  0001 C CNN
	1    5100 9250
	-1   0    0    1   
$EndComp
Wire Wire Line
	5300 9050 5600 9050
Wire Wire Line
	5300 9250 5700 9250
Wire Wire Line
	5300 9450 5800 9450
Wire Wire Line
	5600 8400 5600 13600
Wire Wire Line
	5700 8600 5700 13800
Wire Wire Line
	5800 14000 5800 8800
Wire Wire Line
	4900 9250 4800 9250
Wire Wire Line
	4800 9250 4800 9600
Connection ~ 5600 8400
Connection ~ 5700 8600
Connection ~ 5800 8800
$Comp
L LED_ARGB LED18
U 1 1 5AA8CF95
P 6150 9250
F 0 "LED18" H 6150 9620 50  0000 C CNN
F 1 "LED_ARGB" H 6150 8900 50  0000 C CNN
F 2 "chordboard-footprints:LED_D3.0mm-4" H 6150 9200 50  0001 C CNN
F 3 "" H 6150 9200 50  0001 C CNN
	1    6150 9250
	-1   0    0    1   
$EndComp
Wire Wire Line
	6350 9050 6650 9050
Wire Wire Line
	6350 9250 6750 9250
Wire Wire Line
	6350 9450 6850 9450
Wire Wire Line
	6650 8400 6650 13600
Wire Wire Line
	6750 8600 6750 13800
Wire Wire Line
	6850 14000 6850 8800
Wire Wire Line
	5950 9250 5850 9250
Wire Wire Line
	5850 9250 5850 9600
Connection ~ 6650 8400
Connection ~ 6750 8600
Connection ~ 6850 8800
Wire Wire Line
	5850 9600 4650 9600
Connection ~ 4800 9600
$Comp
L LED_ARGB LED19
U 1 1 5AA8CFC1
P 5100 9900
F 0 "LED19" H 5100 10270 50  0000 C CNN
F 1 "LED_ARGB" H 5100 9550 50  0000 C CNN
F 2 "chordboard-footprints:LED_D3.0mm-4" H 5100 9850 50  0001 C CNN
F 3 "" H 5100 9850 50  0001 C CNN
	1    5100 9900
	-1   0    0    1   
$EndComp
Wire Wire Line
	5300 9700 5600 9700
Wire Wire Line
	5300 9900 5700 9900
Wire Wire Line
	5300 10100 5800 10100
Wire Wire Line
	4900 9900 4800 9900
Wire Wire Line
	4800 9900 4800 10250
Connection ~ 5600 9050
Connection ~ 5700 9250
Connection ~ 5800 9450
$Comp
L LED_ARGB LED20
U 1 1 5AA8CFE8
P 6150 9900
F 0 "LED20" H 6150 10270 50  0000 C CNN
F 1 "LED_ARGB" H 6150 9550 50  0000 C CNN
F 2 "chordboard-footprints:LED_D3.0mm-4" H 6150 9850 50  0001 C CNN
F 3 "" H 6150 9850 50  0001 C CNN
	1    6150 9900
	-1   0    0    1   
$EndComp
Wire Wire Line
	6350 9700 6650 9700
Wire Wire Line
	6350 9900 6750 9900
Wire Wire Line
	6350 10100 6850 10100
Wire Wire Line
	5950 9900 5850 9900
Wire Wire Line
	5850 9900 5850 10250
Connection ~ 6650 9050
Connection ~ 6750 9250
Connection ~ 6850 9450
Wire Wire Line
	5850 10250 4650 10250
Connection ~ 4800 10250
$Comp
L LED_ARGB LED21
U 1 1 5AA8D011
P 5100 10550
F 0 "LED21" H 5100 10920 50  0000 C CNN
F 1 "LED_ARGB" H 5100 10200 50  0000 C CNN
F 2 "chordboard-footprints:LED_D3.0mm-4" H 5100 10500 50  0001 C CNN
F 3 "" H 5100 10500 50  0001 C CNN
	1    5100 10550
	-1   0    0    1   
$EndComp
Wire Wire Line
	5300 10350 5600 10350
Wire Wire Line
	5300 10550 5700 10550
Wire Wire Line
	5300 10750 5800 10750
Wire Wire Line
	4900 10550 4800 10550
Wire Wire Line
	4800 10550 4800 10900
Connection ~ 5600 9700
Connection ~ 5700 9900
Connection ~ 5800 10100
$Comp
L LED_ARGB LED22
U 1 1 5AA8D038
P 6150 10550
F 0 "LED22" H 6150 10920 50  0000 C CNN
F 1 "LED_ARGB" H 6150 10200 50  0000 C CNN
F 2 "chordboard-footprints:LED_D3.0mm-4" H 6150 10500 50  0001 C CNN
F 3 "" H 6150 10500 50  0001 C CNN
	1    6150 10550
	-1   0    0    1   
$EndComp
Wire Wire Line
	6350 10350 6650 10350
Wire Wire Line
	6350 10550 6750 10550
Wire Wire Line
	6350 10750 6850 10750
Wire Wire Line
	5950 10550 5850 10550
Wire Wire Line
	5850 10550 5850 10900
Connection ~ 6650 9700
Connection ~ 6750 9900
Connection ~ 6850 10100
Wire Wire Line
	5850 10900 4650 10900
Connection ~ 4800 10900
$Comp
L LED_ARGB LED23
U 1 1 5AA8D061
P 5100 11200
F 0 "LED23" H 5100 11570 50  0000 C CNN
F 1 "LED_ARGB" H 5100 10850 50  0000 C CNN
F 2 "chordboard-footprints:LED_D3.0mm-4" H 5100 11150 50  0001 C CNN
F 3 "" H 5100 11150 50  0001 C CNN
	1    5100 11200
	-1   0    0    1   
$EndComp
Wire Wire Line
	5300 11000 5600 11000
Wire Wire Line
	5300 11200 5700 11200
Wire Wire Line
	5300 11400 5800 11400
Wire Wire Line
	4900 11200 4800 11200
Wire Wire Line
	4800 11200 4800 11550
Connection ~ 5600 10350
Connection ~ 5700 10550
Connection ~ 5800 10750
$Comp
L LED_ARGB LED24
U 1 1 5AA8D088
P 6150 11200
F 0 "LED24" H 6150 11570 50  0000 C CNN
F 1 "LED_ARGB" H 6150 10850 50  0000 C CNN
F 2 "chordboard-footprints:LED_D3.0mm-4" H 6150 11150 50  0001 C CNN
F 3 "" H 6150 11150 50  0001 C CNN
	1    6150 11200
	-1   0    0    1   
$EndComp
Wire Wire Line
	6350 11000 6650 11000
Wire Wire Line
	6350 11200 6750 11200
Wire Wire Line
	6350 11400 6850 11400
Wire Wire Line
	5950 11200 5850 11200
Wire Wire Line
	5850 11200 5850 11550
Connection ~ 6650 10350
Connection ~ 6750 10550
Connection ~ 6850 10750
Wire Wire Line
	5850 11550 4650 11550
Connection ~ 4800 11550
$Comp
L LED_ARGB LED25
U 1 1 5AA8D0B1
P 5100 11850
F 0 "LED25" H 5100 12220 50  0000 C CNN
F 1 "LED_ARGB" H 5100 11500 50  0000 C CNN
F 2 "chordboard-footprints:LED_D3.0mm-4" H 5100 11800 50  0001 C CNN
F 3 "" H 5100 11800 50  0001 C CNN
	1    5100 11850
	-1   0    0    1   
$EndComp
Wire Wire Line
	5300 11650 5600 11650
Wire Wire Line
	5300 11850 5700 11850
Wire Wire Line
	5300 12050 5800 12050
Wire Wire Line
	4900 11850 4800 11850
Wire Wire Line
	4800 11850 4800 12200
Connection ~ 5600 11000
Connection ~ 5700 11200
Connection ~ 5800 11400
$Comp
L LED_ARGB LED26
U 1 1 5AA8D0D8
P 6150 11850
F 0 "LED26" H 6150 12220 50  0000 C CNN
F 1 "LED_ARGB" H 6150 11500 50  0000 C CNN
F 2 "chordboard-footprints:LED_D3.0mm-4" H 6150 11800 50  0001 C CNN
F 3 "" H 6150 11800 50  0001 C CNN
	1    6150 11850
	-1   0    0    1   
$EndComp
Wire Wire Line
	6350 11650 6650 11650
Wire Wire Line
	6350 11850 6750 11850
Wire Wire Line
	6350 12050 6850 12050
Wire Wire Line
	5950 11850 5850 11850
Wire Wire Line
	5850 11850 5850 12200
Connection ~ 6650 11000
Connection ~ 6750 11200
Connection ~ 6850 11400
Wire Wire Line
	5850 12200 4650 12200
Connection ~ 4800 12200
$Comp
L LED_ARGB LED27
U 1 1 5AA8D101
P 5100 12500
F 0 "LED27" H 5100 12870 50  0000 C CNN
F 1 "LED_ARGB" H 5100 12150 50  0000 C CNN
F 2 "chordboard-footprints:LED_D3.0mm-4" H 5100 12450 50  0001 C CNN
F 3 "" H 5100 12450 50  0001 C CNN
	1    5100 12500
	-1   0    0    1   
$EndComp
Wire Wire Line
	5300 12300 5600 12300
Wire Wire Line
	5300 12500 5700 12500
Wire Wire Line
	5300 12700 5800 12700
Wire Wire Line
	4900 12500 4800 12500
Wire Wire Line
	4800 12500 4800 12850
Connection ~ 5600 11650
Connection ~ 5700 11850
Connection ~ 5800 12050
$Comp
L LED_ARGB LED28
U 1 1 5AA8D128
P 6150 12500
F 0 "LED28" H 6150 12870 50  0000 C CNN
F 1 "LED_ARGB" H 6150 12150 50  0000 C CNN
F 2 "chordboard-footprints:LED_D3.0mm-4" H 6150 12450 50  0001 C CNN
F 3 "" H 6150 12450 50  0001 C CNN
	1    6150 12500
	-1   0    0    1   
$EndComp
Wire Wire Line
	6350 12300 6650 12300
Wire Wire Line
	6350 12500 6750 12500
Wire Wire Line
	6350 12700 6850 12700
Wire Wire Line
	5950 12500 5850 12500
Wire Wire Line
	5850 12500 5850 12850
Connection ~ 6650 11650
Connection ~ 6750 11850
Connection ~ 6850 12050
Wire Wire Line
	5850 12850 4650 12850
Connection ~ 4800 12850
$Comp
L LED_ARGB LED29
U 1 1 5AA8D151
P 5100 13150
F 0 "LED29" H 5100 13520 50  0000 C CNN
F 1 "LED_ARGB" H 5100 12800 50  0000 C CNN
F 2 "chordboard-footprints:LED_D3.0mm-4" H 5100 13100 50  0001 C CNN
F 3 "" H 5100 13100 50  0001 C CNN
	1    5100 13150
	-1   0    0    1   
$EndComp
Wire Wire Line
	5300 12950 5600 12950
Wire Wire Line
	5300 13150 5700 13150
Wire Wire Line
	5300 13350 5800 13350
Wire Wire Line
	4900 13150 4800 13150
Wire Wire Line
	4800 13150 4800 13500
Connection ~ 5600 12300
Connection ~ 5700 12500
Connection ~ 5800 12700
$Comp
L LED_ARGB LED30
U 1 1 5AA8D178
P 6150 13150
F 0 "LED30" H 6150 13520 50  0000 C CNN
F 1 "LED_ARGB" H 6150 12800 50  0000 C CNN
F 2 "chordboard-footprints:LED_D3.0mm-4" H 6150 13100 50  0001 C CNN
F 3 "" H 6150 13100 50  0001 C CNN
	1    6150 13150
	-1   0    0    1   
$EndComp
Wire Wire Line
	6350 12950 6650 12950
Wire Wire Line
	6350 13150 6750 13150
Wire Wire Line
	6350 13350 6850 13350
Wire Wire Line
	5950 13150 5850 13150
Wire Wire Line
	5850 13150 5850 13500
Connection ~ 6650 12300
Connection ~ 6750 12500
Connection ~ 6850 12700
Wire Wire Line
	5850 13500 4650 13500
Connection ~ 4800 13500
$Comp
L LED_ARGB LED31
U 1 1 5AA8D1A1
P 5100 13800
F 0 "LED31" H 5100 14170 50  0000 C CNN
F 1 "LED_ARGB" H 5100 13450 50  0000 C CNN
F 2 "chordboard-footprints:LED_D3.0mm-4" H 5100 13750 50  0001 C CNN
F 3 "" H 5100 13750 50  0001 C CNN
	1    5100 13800
	-1   0    0    1   
$EndComp
Wire Wire Line
	5600 13600 5300 13600
Wire Wire Line
	5700 13800 5300 13800
Wire Wire Line
	5300 14000 5800 14000
Wire Wire Line
	4900 13800 4800 13800
Wire Wire Line
	4800 13800 4800 14150
Connection ~ 5600 12950
Connection ~ 5700 13150
Connection ~ 5800 13350
$Comp
L LED_ARGB LED32
U 1 1 5AA8D1C8
P 6150 13800
F 0 "LED32" H 6150 14170 50  0000 C CNN
F 1 "LED_ARGB" H 6150 13450 50  0000 C CNN
F 2 "chordboard-footprints:LED_D3.0mm-4" H 6150 13750 50  0001 C CNN
F 3 "" H 6150 13750 50  0001 C CNN
	1    6150 13800
	-1   0    0    1   
$EndComp
Wire Wire Line
	6650 13600 6350 13600
Wire Wire Line
	6750 13800 6350 13800
Wire Wire Line
	6350 14000 6850 14000
Wire Wire Line
	5950 13800 5850 13800
Wire Wire Line
	5850 13800 5850 14150
Connection ~ 6650 12950
Connection ~ 6750 13150
Connection ~ 6850 13350
Wire Wire Line
	5850 14150 4650 14150
Connection ~ 4800 14150
Text Label 2950 2300 0    60   ~ 0
Y0
Text Label 3050 2500 0    60   ~ 0
Y1
Text Label 3150 2700 0    60   ~ 0
Y2
Text Label 4000 2300 0    60   ~ 0
Y3
Text Label 4100 2500 0    60   ~ 0
Y4
Text Label 4200 2700 0    60   ~ 0
Y5
Text Label 5600 8400 0    60   ~ 0
Y20
Text Label 5700 8600 0    60   ~ 0
Y21
Text Label 5800 8800 0    60   ~ 0
Y22
Text Label 6650 8400 0    60   ~ 0
Y23
Text Label 6750 8600 0    60   ~ 0
Y24
Text Label 6850 8800 0    60   ~ 0
Y25
Text Label 2000 3500 2    60   ~ 0
X0
Text Label 2000 4150 2    60   ~ 0
X1
Text Label 2000 4800 2    60   ~ 0
X2
Text Label 2000 5450 2    60   ~ 0
X3
Text Label 2000 6100 2    60   ~ 0
X4
Text Label 2000 6750 2    60   ~ 0
X5
Text Label 2000 7400 2    60   ~ 0
X6
Text Label 2000 8050 2    60   ~ 0
X7
Text Label 4650 9600 2    60   ~ 0
X20
Text Label 4650 10250 2    60   ~ 0
X21
Text Label 4650 10900 2    60   ~ 0
X22
Text Label 4650 11550 2    60   ~ 0
X23
Text Label 4650 12200 2    60   ~ 0
X24
Text Label 4650 12850 2    60   ~ 0
X25
Text Label 4650 13500 2    60   ~ 0
X26
Text Label 4650 14150 2    60   ~ 0
X27
$Comp
L CONN_01X02 J3
U 1 1 5AA961D4
P 19850 4600
F 0 "J3" H 19850 4750 50  0000 C CNN
F 1 "CONN_01X02" V 19950 4600 50  0000 C CNN
F 2 "Pin_Headers:Pin_Header_Straight_1x02_Pitch2.54mm" H 19850 4600 50  0001 C CNN
F 3 "" H 19850 4600 50  0001 C CNN
	1    19850 4600
	1    0    0    -1  
$EndComp
$Comp
L CONN_01X06 J7
U 1 1 5AA9737A
P 19850 5150
F 0 "J7" H 19850 5500 50  0000 C CNN
F 1 "CONN_01X06" V 19950 5150 50  0000 C CNN
F 2 "Pin_Headers:Pin_Header_Straight_1x06_Pitch2.54mm" H 19850 5150 50  0001 C CNN
F 3 "" H 19850 5150 50  0001 C CNN
	1    19850 5150
	1    0    0    -1  
$EndComp
$Comp
L GND #PWR067
U 1 1 5AA977BC
P 19550 5750
F 0 "#PWR067" H 19550 5500 50  0001 C CNN
F 1 "GND" H 19550 5600 50  0000 C CNN
F 2 "" H 19550 5750 50  0001 C CNN
F 3 "" H 19550 5750 50  0001 C CNN
	1    19550 5750
	1    0    0    -1  
$EndComp
Wire Wire Line
	19550 5400 19550 5750
Wire Wire Line
	19550 5400 19650 5400
Wire Wire Line
	19650 5200 19550 5200
$Comp
L +5V #PWR068
U 1 1 5AA98E08
P 19550 5200
F 0 "#PWR068" H 19550 5050 50  0001 C CNN
F 1 "+5V" H 19550 5340 50  0000 C CNN
F 2 "" H 19550 5200 50  0001 C CNN
F 3 "" H 19550 5200 50  0001 C CNN
	1    19550 5200
	0    -1   -1   0   
$EndComp
$Comp
L CP CP2
U 1 1 5AB41323
P -550 1550
F 0 "CP2" H -540 1620 50  0000 L CNN
F 1 "10uF" H -540 1470 50  0000 L CNN
F 2 "Capacitors_SMD:c_elec_4x4.5" H -550 1550 50  0001 C CNN
F 3 "" H -550 1550 50  0001 C CNN
	1    -550 1550
	1    0    0    -1  
$EndComp
$Comp
L CP CP4
U 1 1 5AB4178F
P -500 5000
F 0 "CP4" H -490 5070 50  0000 L CNN
F 1 "10uF" H -490 4920 50  0000 L CNN
F 2 "Capacitors_SMD:c_elec_4x4.5" H -500 5000 50  0001 C CNN
F 3 "" H -500 5000 50  0001 C CNN
	1    -500 5000
	1    0    0    -1  
$EndComp
$Comp
L SYM_Arrow45_Large SYM1
U 1 1 5AB574DD
P 11550 8450
F 0 "SYM1" H 11550 8610 50  0001 C CNN
F 1 "SYM_Arrow45_Large" H 11550 8310 50  0001 C CNN
F 2 "chordboard-footprints:CHORDBOARD_LOGO" H 11550 8450 50  0001 C CNN
F 3 "" H 11550 8450 50  0001 C CNN
	1    11550 8450
	1    0    0    -1  
$EndComp
$EndSCHEMATC
