EESchema Schematic File Version 4
LIBS:chordboard-cache
EELAYER 26 0
EELAYER END
$Descr A3 16535 11693
encoding utf-8
Sheet 3 5
Title ""
Date ""
Rev ""
Comp ""
Comment1 ""
Comment2 ""
Comment3 ""
Comment4 ""
$EndDescr
$Comp
L led:LED-RGB-CA LED1
U 1 1 5A946EF9
P 6750 2700
AR Path="/5A944550/5A946EF9" Ref="LED1"  Part="1" 
AR Path="/5A94A2CB/5A946EF9" Ref="LED17"  Part="1" 
F 0 "LED17" H 6750 2900 60  0000 C CNN
F 1 "LED-RGB-CA" H 6750 2500 60  0000 C CNN
F 2 "afshar-kicad-lib:LED_D3.0mm-4" H 6600 2800 60  0001 C CNN
F 3 "" H 6750 2900 60  0001 C CNN
	1    6750 2700
	-1   0    0    1   
$EndComp
$Comp
L led:LED-RGB-CA LED9
U 1 1 5A946F00
P 8200 2700
AR Path="/5A944550/5A946F00" Ref="LED9"  Part="1" 
AR Path="/5A94A2CB/5A946F00" Ref="LED25"  Part="1" 
F 0 "LED25" H 8200 2900 60  0000 C CNN
F 1 "LED-RGB-CA" H 8200 2500 60  0000 C CNN
F 2 "afshar-kicad-lib:LED_D3.0mm-4" H 8050 2800 60  0001 C CNN
F 3 "" H 8200 2900 60  0001 C CNN
	1    8200 2700
	-1   0    0    1   
$EndComp
$Comp
L led:LED-RGB-CA LED2
U 1 1 5A946F07
P 6750 3600
AR Path="/5A944550/5A946F07" Ref="LED2"  Part="1" 
AR Path="/5A94A2CB/5A946F07" Ref="LED18"  Part="1" 
F 0 "LED18" H 6750 3800 60  0000 C CNN
F 1 "LED-RGB-CA" H 6750 3400 60  0000 C CNN
F 2 "afshar-kicad-lib:LED_D3.0mm-4" H 6600 3700 60  0001 C CNN
F 3 "" H 6750 3800 60  0001 C CNN
	1    6750 3600
	-1   0    0    1   
$EndComp
$Comp
L led:LED-RGB-CA LED10
U 1 1 5A946F29
P 8200 3600
AR Path="/5A944550/5A946F29" Ref="LED10"  Part="1" 
AR Path="/5A94A2CB/5A946F29" Ref="LED26"  Part="1" 
F 0 "LED26" H 8200 3800 60  0000 C CNN
F 1 "LED-RGB-CA" H 8200 3400 60  0000 C CNN
F 2 "afshar-kicad-lib:LED_D3.0mm-4" H 8050 3700 60  0001 C CNN
F 3 "" H 8200 3800 60  0001 C CNN
	1    8200 3600
	-1   0    0    1   
$EndComp
$Comp
L led:LED-RGB-CA LED3
U 1 1 5A946F3D
P 6750 4550
AR Path="/5A944550/5A946F3D" Ref="LED3"  Part="1" 
AR Path="/5A94A2CB/5A946F3D" Ref="LED19"  Part="1" 
F 0 "LED19" H 6750 4750 60  0000 C CNN
F 1 "LED-RGB-CA" H 6750 4350 60  0000 C CNN
F 2 "afshar-kicad-lib:LED_D3.0mm-4" H 6600 4650 60  0001 C CNN
F 3 "" H 6750 4750 60  0001 C CNN
	1    6750 4550
	-1   0    0    1   
$EndComp
$Comp
L led:LED-RGB-CA LED11
U 1 1 5A946F44
P 8200 4550
AR Path="/5A944550/5A946F44" Ref="LED11"  Part="1" 
AR Path="/5A94A2CB/5A946F44" Ref="LED27"  Part="1" 
F 0 "LED27" H 8200 4750 60  0000 C CNN
F 1 "LED-RGB-CA" H 8200 4350 60  0000 C CNN
F 2 "afshar-kicad-lib:LED_D3.0mm-4" H 8050 4650 60  0001 C CNN
F 3 "" H 8200 4750 60  0001 C CNN
	1    8200 4550
	-1   0    0    1   
$EndComp
$Comp
L led:LED-RGB-CA LED4
U 1 1 5A946F4B
P 6750 5500
AR Path="/5A944550/5A946F4B" Ref="LED4"  Part="1" 
AR Path="/5A94A2CB/5A946F4B" Ref="LED20"  Part="1" 
F 0 "LED20" H 6750 5700 60  0000 C CNN
F 1 "LED-RGB-CA" H 6750 5300 60  0000 C CNN
F 2 "afshar-kicad-lib:LED_D3.0mm-4" H 6600 5600 60  0001 C CNN
F 3 "" H 6750 5700 60  0001 C CNN
	1    6750 5500
	-1   0    0    1   
$EndComp
$Comp
L led:LED-RGB-CA LED12
U 1 1 5A946F67
P 8200 5500
AR Path="/5A944550/5A946F67" Ref="LED12"  Part="1" 
AR Path="/5A94A2CB/5A946F67" Ref="LED28"  Part="1" 
F 0 "LED28" H 8200 5700 60  0000 C CNN
F 1 "LED-RGB-CA" H 8200 5300 60  0000 C CNN
F 2 "afshar-kicad-lib:LED_D3.0mm-4" H 8050 5600 60  0001 C CNN
F 3 "" H 8200 5700 60  0001 C CNN
	1    8200 5500
	-1   0    0    1   
$EndComp
$Comp
L led:LED-RGB-CA LED5
U 1 1 5A946F81
P 6750 6450
AR Path="/5A944550/5A946F81" Ref="LED5"  Part="1" 
AR Path="/5A94A2CB/5A946F81" Ref="LED21"  Part="1" 
F 0 "LED21" H 6750 6650 60  0000 C CNN
F 1 "LED-RGB-CA" H 6750 6250 60  0000 C CNN
F 2 "afshar-kicad-lib:LED_D3.0mm-4" H 6600 6550 60  0001 C CNN
F 3 "" H 6750 6650 60  0001 C CNN
	1    6750 6450
	-1   0    0    1   
$EndComp
$Comp
L led:LED-RGB-CA LED13
U 1 1 5A946F88
P 8200 6450
AR Path="/5A944550/5A946F88" Ref="LED13"  Part="1" 
AR Path="/5A94A2CB/5A946F88" Ref="LED29"  Part="1" 
F 0 "LED29" H 8200 6650 60  0000 C CNN
F 1 "LED-RGB-CA" H 8200 6250 60  0000 C CNN
F 2 "afshar-kicad-lib:LED_D3.0mm-4" H 8050 6550 60  0001 C CNN
F 3 "" H 8200 6650 60  0001 C CNN
	1    8200 6450
	-1   0    0    1   
$EndComp
$Comp
L led:LED-RGB-CA LED6
U 1 1 5A946F8F
P 6750 7350
AR Path="/5A944550/5A946F8F" Ref="LED6"  Part="1" 
AR Path="/5A94A2CB/5A946F8F" Ref="LED22"  Part="1" 
F 0 "LED22" H 6750 7550 60  0000 C CNN
F 1 "LED-RGB-CA" H 6750 7150 60  0000 C CNN
F 2 "afshar-kicad-lib:LED_D3.0mm-4" H 6600 7450 60  0001 C CNN
F 3 "" H 6750 7550 60  0001 C CNN
	1    6750 7350
	-1   0    0    1   
$EndComp
$Comp
L led:LED-RGB-CA LED14
U 1 1 5A946FAB
P 8200 7350
AR Path="/5A944550/5A946FAB" Ref="LED14"  Part="1" 
AR Path="/5A94A2CB/5A946FAB" Ref="LED30"  Part="1" 
F 0 "LED30" H 8200 7550 60  0000 C CNN
F 1 "LED-RGB-CA" H 8200 7150 60  0000 C CNN
F 2 "afshar-kicad-lib:LED_D3.0mm-4" H 8050 7450 60  0001 C CNN
F 3 "" H 8200 7550 60  0001 C CNN
	1    8200 7350
	-1   0    0    1   
$EndComp
$Comp
L led:LED-RGB-CA LED7
U 1 1 5A946FC5
P 6750 8300
AR Path="/5A944550/5A946FC5" Ref="LED7"  Part="1" 
AR Path="/5A94A2CB/5A946FC5" Ref="LED23"  Part="1" 
F 0 "LED23" H 6750 8500 60  0000 C CNN
F 1 "LED-RGB-CA" H 6750 8100 60  0000 C CNN
F 2 "afshar-kicad-lib:LED_D3.0mm-4" H 6600 8400 60  0001 C CNN
F 3 "" H 6750 8500 60  0001 C CNN
	1    6750 8300
	-1   0    0    1   
$EndComp
$Comp
L led:LED-RGB-CA LED15
U 1 1 5A946FCC
P 8200 8300
AR Path="/5A944550/5A946FCC" Ref="LED15"  Part="1" 
AR Path="/5A94A2CB/5A946FCC" Ref="LED31"  Part="1" 
F 0 "LED31" H 8200 8500 60  0000 C CNN
F 1 "LED-RGB-CA" H 8200 8100 60  0000 C CNN
F 2 "afshar-kicad-lib:LED_D3.0mm-4" H 8050 8400 60  0001 C CNN
F 3 "" H 8200 8500 60  0001 C CNN
	1    8200 8300
	-1   0    0    1   
$EndComp
$Comp
L led:LED-RGB-CA LED8
U 1 1 5A946FD3
P 6750 9250
AR Path="/5A944550/5A946FD3" Ref="LED8"  Part="1" 
AR Path="/5A94A2CB/5A946FD3" Ref="LED24"  Part="1" 
F 0 "LED24" H 6750 9450 60  0000 C CNN
F 1 "LED-RGB-CA" H 6750 9050 60  0000 C CNN
F 2 "afshar-kicad-lib:LED_D3.0mm-4" H 6600 9350 60  0001 C CNN
F 3 "" H 6750 9450 60  0001 C CNN
	1    6750 9250
	-1   0    0    1   
$EndComp
$Comp
L led:LED-RGB-CA LED16
U 1 1 5A946FEF
P 8200 9250
AR Path="/5A944550/5A946FEF" Ref="LED16"  Part="1" 
AR Path="/5A94A2CB/5A946FEF" Ref="LED32"  Part="1" 
F 0 "LED32" H 8200 9450 60  0000 C CNN
F 1 "LED-RGB-CA" H 8200 9050 60  0000 C CNN
F 2 "afshar-kicad-lib:LED_D3.0mm-4" H 8050 9350 60  0001 C CNN
F 3 "" H 8200 9450 60  0001 C CNN
	1    8200 9250
	-1   0    0    1   
$EndComp
$Comp
L chordboard-rescue:MAX7219 U6
U 1 1 5A9470B9
P 2150 5550
AR Path="/5A944550/5A9470B9" Ref="U6"  Part="1" 
AR Path="/5A94A2CB/5A9470B9" Ref="U7"  Part="1" 
F 0 "U7" H 2250 6900 60  0000 C CNN
F 1 "MAX7219" H 2700 6250 60  0000 C CNN
F 2 "Housings_SOIC:SOIC-24W_7.5x15.4mm_Pitch1.27mm" H 2150 5350 40  0001 L CIN
F 3 "https://datasheets.maximintegrated.com/en/ds/MAX7219-MAX7221.pdf" H 2150 5250 40  0001 L CIN
	1    2150 5550
	1    0    0    -1  
$EndComp
Text Label 3350 4450 0    60   ~ 0
X0
Text Label 2050 5150 2    60   ~ 0
Y0
$Comp
L chordboard-rescue:+5V #PWR047
U 1 1 5A9470C3
P 2850 3700
AR Path="/5A944550/5A9470C3" Ref="#PWR047"  Part="1" 
AR Path="/5A94A2CB/5A9470C3" Ref="#PWR050"  Part="1" 
F 0 "#PWR050" H 2850 3550 50  0001 C CNN
F 1 "+5V" H 2850 3840 50  0000 C CNN
F 2 "" H 2850 3700 50  0001 C CNN
F 3 "" H 2850 3700 50  0001 C CNN
	1    2850 3700
	1    0    0    -1  
$EndComp
Text Label 3350 4550 0    60   ~ 0
X7
Text Label 3350 4650 0    60   ~ 0
X6
Text Label 3350 4750 0    60   ~ 0
X5
Text Label 3350 4850 0    60   ~ 0
X4
Text Label 3350 4950 0    60   ~ 0
X3
Text Label 3350 5050 0    60   ~ 0
X2
Text Label 3350 5150 0    60   ~ 0
X1
Text Label 2050 5050 2    60   ~ 0
Y1
Text Label 2050 4950 2    60   ~ 0
Y2
Text Label 2050 4850 2    60   ~ 0
Y3
Text Label 2050 4750 2    60   ~ 0
Y4
Text Label 2050 4650 2    60   ~ 0
Y5
Text Label 2050 4550 2    60   ~ 0
Y6
Text Label 2050 4450 2    60   ~ 0
Y7
Text Label 5700 3200 2    60   ~ 0
X0
Text Label 5650 4150 2    60   ~ 0
X1
Text Label 5700 5050 2    60   ~ 0
X2
Text Label 5650 6050 2    60   ~ 0
X3
Text Label 5700 6950 2    60   ~ 0
X4
Text Label 5650 7900 2    60   ~ 0
X5
Text Label 5700 8800 2    60   ~ 0
X6
Text Label 5650 9800 2    60   ~ 0
X7
Text Label 7350 1650 0    60   ~ 0
Y0
Text Label 7450 1750 0    60   ~ 0
Y1
Text Label 7550 1850 0    60   ~ 0
Y2
Text Label 8800 1650 0    60   ~ 0
Y3
Text Label 8900 1750 0    60   ~ 0
Y4
Text Label 9000 1850 0    60   ~ 0
Y5
$Comp
L chordboard-rescue:GND #PWR048
U 1 1 5A9470EF
P 2900 6150
AR Path="/5A944550/5A9470EF" Ref="#PWR048"  Part="1" 
AR Path="/5A94A2CB/5A9470EF" Ref="#PWR051"  Part="1" 
F 0 "#PWR051" H 2900 5900 50  0001 C CNN
F 1 "GND" H 2900 6000 50  0000 C CNN
F 2 "" H 2900 6150 50  0000 C CNN
F 3 "" H 2900 6150 50  0000 C CNN
	1    2900 6150
	1    0    0    -1  
$EndComp
$Comp
L chordboard-components:R R6
U 1 1 5A9470F7
P 2650 3950
AR Path="/5A944550/5A9470F7" Ref="R6"  Part="1" 
AR Path="/5A94A2CB/5A9470F7" Ref="R7"  Part="1" 
F 0 "R7" V 2550 3900 50  0000 C CNN
F 1 "10K" V 2650 3950 50  0000 C CNN
F 2 "Resistors_SMD:R_1206_HandSoldering" V 2580 3950 50  0001 C CNN
F 3 "" H 2650 3950 50  0000 C CNN
	1    2650 3950
	0    1    1    0   
$EndComp
$Comp
L chordboard-components:C C11
U 1 1 5A947101
P 3900 4250
AR Path="/5A944550/5A947101" Ref="C11"  Part="1" 
AR Path="/5A94A2CB/5A947101" Ref="C12"  Part="1" 
F 0 "C12" H 3910 4320 50  0000 L CNN
F 1 "0.1uF" H 3910 4170 50  0000 L CNN
F 2 "Capacitors_SMD:C_1206_HandSoldering" H 3900 4250 50  0001 C CNN
F 3 "" H 3900 4250 50  0001 C CNN
	1    3900 4250
	-1   0    0    -1  
$EndComp
$Comp
L chordboard-rescue:GND #PWR049
U 1 1 5A947109
P 3900 4700
AR Path="/5A944550/5A947109" Ref="#PWR049"  Part="1" 
AR Path="/5A94A2CB/5A947109" Ref="#PWR052"  Part="1" 
F 0 "#PWR052" H 3900 4450 50  0001 C CNN
F 1 "GND" H 3900 4550 50  0000 C CNN
F 2 "" H 3900 4700 50  0000 C CNN
F 3 "" H 3900 4700 50  0000 C CNN
	1    3900 4700
	1    0    0    -1  
$EndComp
Text HLabel 2050 5350 0    60   Input ~ 0
DIN
Text HLabel 3350 5350 2    60   Output ~ 0
DOUT
Text HLabel 2450 5650 3    60   Input ~ 0
CLK
Text HLabel 2550 5650 3    60   Input ~ 0
LOAD
Wire Wire Line
	7000 2600 7350 2600
Wire Wire Line
	7000 2700 7450 2700
Wire Wire Line
	7000 2800 7550 2800
Wire Wire Line
	6500 2700 6300 2700
Wire Wire Line
	6300 2700 6300 3200
Wire Wire Line
	7350 1650 7350 9150
Wire Wire Line
	7450 1750 7450 9250
Wire Wire Line
	7550 1850 7550 9350
Wire Wire Line
	8450 2600 8800 2600
Wire Wire Line
	8450 2700 8900 2700
Wire Wire Line
	8450 2800 9000 2800
Wire Wire Line
	7950 2700 7750 2700
Wire Wire Line
	8800 1650 8800 9150
Wire Wire Line
	8900 1750 8900 9250
Wire Wire Line
	9000 1850 9000 9350
Wire Wire Line
	7750 2700 7750 3200
Connection ~ 6300 3200
Wire Wire Line
	7350 3500 7000 3500
Wire Wire Line
	7450 3600 7000 3600
Wire Wire Line
	7550 3700 7000 3700
Wire Wire Line
	6500 3600 6300 3600
Connection ~ 7750 3200
Wire Wire Line
	6300 3600 6300 4150
Wire Wire Line
	8800 3500 8450 3500
Wire Wire Line
	8900 3600 8450 3600
Wire Wire Line
	9000 3700 8450 3700
Wire Wire Line
	7950 3600 7750 3600
Wire Wire Line
	7750 3600 7750 4150
Connection ~ 6300 4150
Connection ~ 7750 4150
Connection ~ 7350 2600
Connection ~ 7450 2700
Connection ~ 7550 2800
Connection ~ 9000 2800
Connection ~ 8900 2700
Connection ~ 8800 2600
Wire Wire Line
	7350 4450 7000 4450
Wire Wire Line
	7450 4550 7000 4550
Wire Wire Line
	7550 4650 7000 4650
Wire Wire Line
	6500 4550 6300 4550
Wire Wire Line
	6300 4550 6300 5050
Wire Wire Line
	8800 4450 8450 4450
Wire Wire Line
	8900 4550 8450 4550
Wire Wire Line
	9000 4650 8450 4650
Wire Wire Line
	7950 4550 7750 4550
Wire Wire Line
	7750 4550 7750 5050
Connection ~ 6300 5050
Wire Wire Line
	7350 5400 7000 5400
Wire Wire Line
	7450 5500 7000 5500
Wire Wire Line
	7550 5600 7000 5600
Wire Wire Line
	6500 5500 6300 5500
Connection ~ 7750 5050
Wire Wire Line
	6300 5500 6300 6050
Wire Wire Line
	8800 5400 8450 5400
Wire Wire Line
	8900 5500 8450 5500
Wire Wire Line
	9000 5600 8450 5600
Wire Wire Line
	7950 5500 7750 5500
Wire Wire Line
	7750 5500 7750 6050
Connection ~ 6300 6050
Connection ~ 7750 6050
Connection ~ 7350 4450
Connection ~ 7450 4550
Connection ~ 7550 4650
Connection ~ 9000 4650
Connection ~ 8900 4550
Connection ~ 8800 4450
Connection ~ 7550 3700
Connection ~ 7450 3600
Connection ~ 7350 3500
Connection ~ 8800 3500
Connection ~ 8900 3600
Connection ~ 9000 3700
Wire Wire Line
	7350 6350 7000 6350
Wire Wire Line
	7450 6450 7000 6450
Wire Wire Line
	7550 6550 7000 6550
Wire Wire Line
	6500 6450 6300 6450
Wire Wire Line
	6300 6450 6300 6950
Wire Wire Line
	8800 6350 8450 6350
Wire Wire Line
	8900 6450 8450 6450
Wire Wire Line
	9000 6550 8450 6550
Wire Wire Line
	7950 6450 7750 6450
Wire Wire Line
	7750 6450 7750 6950
Connection ~ 6300 6950
Wire Wire Line
	7350 7250 7000 7250
Wire Wire Line
	7450 7350 7000 7350
Wire Wire Line
	7550 7450 7000 7450
Wire Wire Line
	6500 7350 6300 7350
Connection ~ 7750 6950
Wire Wire Line
	6300 7350 6300 7900
Wire Wire Line
	8800 7250 8450 7250
Wire Wire Line
	8900 7350 8450 7350
Wire Wire Line
	9000 7450 8450 7450
Wire Wire Line
	7950 7350 7750 7350
Wire Wire Line
	7750 7350 7750 7900
Connection ~ 6300 7900
Connection ~ 7750 7900
Connection ~ 7350 6350
Connection ~ 7450 6450
Connection ~ 7550 6550
Connection ~ 9000 6550
Connection ~ 8900 6450
Connection ~ 8800 6350
Connection ~ 7550 5600
Connection ~ 7450 5500
Connection ~ 7350 5400
Connection ~ 8800 5400
Connection ~ 8900 5500
Connection ~ 9000 5600
Wire Wire Line
	7350 8200 7000 8200
Wire Wire Line
	7450 8300 7000 8300
Wire Wire Line
	7550 8400 7000 8400
Wire Wire Line
	6500 8300 6300 8300
Wire Wire Line
	6300 8300 6300 8800
Wire Wire Line
	8800 8200 8450 8200
Wire Wire Line
	8900 8300 8450 8300
Wire Wire Line
	9000 8400 8450 8400
Wire Wire Line
	7950 8300 7750 8300
Wire Wire Line
	7750 8300 7750 8800
Connection ~ 6300 8800
Wire Wire Line
	7350 9150 7000 9150
Wire Wire Line
	7450 9250 7000 9250
Wire Wire Line
	7550 9350 7000 9350
Wire Wire Line
	6500 9250 6300 9250
Connection ~ 7750 8800
Wire Wire Line
	6300 9250 6300 9800
Wire Wire Line
	8800 9150 8450 9150
Wire Wire Line
	8900 9250 8450 9250
Wire Wire Line
	9000 9350 8450 9350
Wire Wire Line
	7950 9250 7750 9250
Wire Wire Line
	7750 9250 7750 9800
Connection ~ 6300 9800
Connection ~ 7750 9800
Connection ~ 7350 8200
Connection ~ 7450 8300
Connection ~ 7550 8400
Connection ~ 9000 8400
Connection ~ 8900 8300
Connection ~ 8800 8200
Connection ~ 7550 7450
Connection ~ 7450 7350
Connection ~ 7350 7250
Connection ~ 8800 7250
Connection ~ 8900 7350
Connection ~ 9000 7450
Wire Wire Line
	2850 3700 2850 4150
Wire Wire Line
	2850 5650 2850 5800
Wire Wire Line
	2850 5800 2950 5800
Wire Wire Line
	2950 5800 2950 5650
Wire Wire Line
	2900 5800 2900 6150
Connection ~ 2900 5800
Wire Wire Line
	2450 4150 2450 3950
Wire Wire Line
	2450 3950 2550 3950
Wire Wire Line
	2750 3950 3900 3950
Connection ~ 2850 3950
Wire Wire Line
	3900 3950 3900 4150
Wire Wire Line
	3900 4350 3900 4700
Wire Wire Line
	5700 6950 10100 6950
Connection ~ 9200 9800
Connection ~ 9200 5050
Connection ~ 9200 6050
Connection ~ 9200 6950
Connection ~ 9200 7900
Connection ~ 9200 8800
Connection ~ 9200 4150
Connection ~ 9200 3200
Wire Wire Line
	5650 9800 10100 9800
Wire Wire Line
	5650 7900 10100 7900
Wire Wire Line
	5650 6050 10100 6050
Wire Wire Line
	5700 5050 10100 5050
Wire Wire Line
	5650 4150 10100 4150
Wire Wire Line
	5700 3200 10100 3200
Wire Wire Line
	5700 8800 10100 8800
Text Label 10800 1900 0    60   ~ 0
Y7
Text Label 9850 1900 0    60   ~ 0
Y6
Wire Wire Line
	10800 9300 10600 9300
Wire Wire Line
	9850 9300 9700 9300
Wire Wire Line
	10100 9300 10300 9300
Wire Wire Line
	10100 9800 10100 9300
Wire Wire Line
	9200 9300 9400 9300
Wire Wire Line
	9200 9800 9200 9300
Connection ~ 10800 8300
Connection ~ 9850 8300
Wire Wire Line
	9200 8300 9400 8300
Wire Wire Line
	10800 8300 10600 8300
Wire Wire Line
	9850 8300 9700 8300
Wire Wire Line
	10100 8300 10300 8300
Wire Wire Line
	10100 8800 10100 8300
Wire Wire Line
	9200 8800 9200 8300
Connection ~ 10800 7400
Connection ~ 9850 7400
Wire Wire Line
	10800 7400 10600 7400
Wire Wire Line
	9850 7400 9700 7400
Wire Wire Line
	10100 7400 10300 7400
Wire Wire Line
	10100 7900 10100 7400
Wire Wire Line
	9200 7400 9400 7400
Wire Wire Line
	9200 7900 9200 7400
Connection ~ 10800 6450
Connection ~ 9850 6450
Wire Wire Line
	10800 6450 10600 6450
Wire Wire Line
	9850 6450 9700 6450
Wire Wire Line
	10100 6450 10300 6450
Wire Wire Line
	10100 6950 10100 6450
Wire Wire Line
	9200 6450 9400 6450
Wire Wire Line
	9200 6950 9200 6450
Connection ~ 10800 5550
Connection ~ 9850 5550
Wire Wire Line
	10800 5550 10600 5550
Wire Wire Line
	9850 5550 9700 5550
Wire Wire Line
	10100 5550 10300 5550
Wire Wire Line
	10100 6050 10100 5550
Wire Wire Line
	9200 5550 9400 5550
Wire Wire Line
	9200 6050 9200 5550
Connection ~ 10800 4550
Connection ~ 9850 4550
Wire Wire Line
	10800 4550 10600 4550
Wire Wire Line
	9850 4550 9700 4550
Wire Wire Line
	10100 4550 10300 4550
Wire Wire Line
	10100 5050 10100 4550
Wire Wire Line
	9200 4550 9400 4550
Wire Wire Line
	9200 5050 9200 4550
Connection ~ 10800 3650
Connection ~ 9850 3650
Wire Wire Line
	10800 3650 10600 3650
Wire Wire Line
	9850 3650 9700 3650
Wire Wire Line
	10100 3650 10300 3650
Wire Wire Line
	10100 4150 10100 3650
Wire Wire Line
	9200 3650 9400 3650
Wire Wire Line
	9200 4150 9200 3650
Connection ~ 10800 2700
Connection ~ 9850 2700
Wire Wire Line
	10800 1900 10800 9300
Wire Wire Line
	9850 1900 9850 9300
Wire Wire Line
	10600 2700 10800 2700
Wire Wire Line
	9700 2700 9850 2700
Wire Wire Line
	10100 2700 10300 2700
Wire Wire Line
	10100 3200 10100 2700
$Comp
L chordboard-components:LED LEDM1
U 1 1 5A94700A
P 9550 2700
AR Path="/5A944550/5A94700A" Ref="LEDM1"  Part="1" 
AR Path="/5A94A2CB/5A94700A" Ref="LEDM17"  Part="1" 
F 0 "LEDM17" H 9500 2750 60  0000 R CNN
F 1 "LED" H 9600 2750 60  0000 L CNN
F 2 "LEDs:LED_D1.8mm_W3.3mm_H2.4mm" H 9550 2700 60  0001 C CNN
F 3 "" H 9550 2700 60  0001 C CNN
	1    9550 2700
	1    0    0    -1  
$EndComp
Wire Wire Line
	9200 2700 9400 2700
Wire Wire Line
	9200 3200 9200 2700
$Comp
L chordboard-components:LED LEDM2
U 1 1 5A808891
P 9550 3650
AR Path="/5A944550/5A808891" Ref="LEDM2"  Part="1" 
AR Path="/5A94A2CB/5A808891" Ref="LEDM18"  Part="1" 
F 0 "LEDM18" H 9500 3700 60  0000 R CNN
F 1 "LED" H 9600 3700 60  0000 L CNN
F 2 "LEDs:LED_D1.8mm_W3.3mm_H2.4mm" H 9550 3650 60  0001 C CNN
F 3 "" H 9550 3650 60  0001 C CNN
	1    9550 3650
	1    0    0    -1  
$EndComp
$Comp
L chordboard-components:LED LEDM3
U 1 1 5A80890A
P 9550 4550
AR Path="/5A944550/5A80890A" Ref="LEDM3"  Part="1" 
AR Path="/5A94A2CB/5A80890A" Ref="LEDM19"  Part="1" 
F 0 "LEDM19" H 9500 4600 60  0000 R CNN
F 1 "LED" H 9600 4600 60  0000 L CNN
F 2 "LEDs:LED_D1.8mm_W3.3mm_H2.4mm" H 9550 4550 60  0001 C CNN
F 3 "" H 9550 4550 60  0001 C CNN
	1    9550 4550
	1    0    0    -1  
$EndComp
$Comp
L chordboard-components:LED LEDM4
U 1 1 5A808A5A
P 9550 5550
AR Path="/5A944550/5A808A5A" Ref="LEDM4"  Part="1" 
AR Path="/5A94A2CB/5A808A5A" Ref="LEDM20"  Part="1" 
F 0 "LEDM20" H 9500 5600 60  0000 R CNN
F 1 "LED" H 9600 5600 60  0000 L CNN
F 2 "LEDs:LED_D1.8mm_W3.3mm_H2.4mm" H 9550 5550 60  0001 C CNN
F 3 "" H 9550 5550 60  0001 C CNN
	1    9550 5550
	1    0    0    -1  
$EndComp
$Comp
L chordboard-components:LED LEDM5
U 1 1 5A808AEA
P 9550 6450
AR Path="/5A944550/5A808AEA" Ref="LEDM5"  Part="1" 
AR Path="/5A94A2CB/5A808AEA" Ref="LEDM21"  Part="1" 
F 0 "LEDM21" H 9500 6500 60  0000 R CNN
F 1 "LED" H 9600 6500 60  0000 L CNN
F 2 "LEDs:LED_D1.8mm_W3.3mm_H2.4mm" H 9550 6450 60  0001 C CNN
F 3 "" H 9550 6450 60  0001 C CNN
	1    9550 6450
	1    0    0    -1  
$EndComp
$Comp
L chordboard-components:LED LEDM6
U 1 1 5A808B74
P 9550 7400
AR Path="/5A944550/5A808B74" Ref="LEDM6"  Part="1" 
AR Path="/5A94A2CB/5A808B74" Ref="LEDM22"  Part="1" 
F 0 "LEDM22" H 9500 7450 60  0000 R CNN
F 1 "LED" H 9600 7450 60  0000 L CNN
F 2 "LEDs:LED_D1.8mm_W3.3mm_H2.4mm" H 9550 7400 60  0001 C CNN
F 3 "" H 9550 7400 60  0001 C CNN
	1    9550 7400
	1    0    0    -1  
$EndComp
$Comp
L chordboard-components:LED LEDM7
U 1 1 5A808C8F
P 9550 8300
AR Path="/5A944550/5A808C8F" Ref="LEDM7"  Part="1" 
AR Path="/5A94A2CB/5A808C8F" Ref="LEDM23"  Part="1" 
F 0 "LEDM23" H 9500 8350 60  0000 R CNN
F 1 "LED" H 9600 8350 60  0000 L CNN
F 2 "LEDs:LED_D1.8mm_W3.3mm_H2.4mm" H 9550 8300 60  0001 C CNN
F 3 "" H 9550 8300 60  0001 C CNN
	1    9550 8300
	1    0    0    -1  
$EndComp
$EndSCHEMATC
