EESchema Schematic File Version 4
LIBS:chordboard-cache
EELAYER 26 0
EELAYER END
$Descr A0 46811 33110
encoding utf-8
Sheet 1 1
Title ""
Date ""
Rev ""
Comp ""
Comment1 ""
Comment2 ""
Comment3 ""
Comment4 ""
$EndDescr
$Comp
L Mechanical:MountingHole H1
U 1 1 671782C8
P 7650 3850
F 0 "H1" H 7750 3896 50  0000 L CNN
F 1 "MountingHole" H 7750 3805 50  0000 L CNN
F 2 "MountingHole:MountingHole_3.2mm_M3_Pad_Via" H 7650 3850 50  0001 C CNN
F 3 "~" H 7650 3850 50  0001 C CNN
	1    7650 3850
	1    0    0    -1  
$EndComp
$Comp
L Mechanical:MountingHole H2
U 1 1 671782CE
P 7650 4050
F 0 "H2" H 7750 4096 50  0000 L CNN
F 1 "MountingHole" H 7750 4005 50  0000 L CNN
F 2 "MountingHole:MountingHole_3.2mm_M3_Pad_Via" H 7650 4050 50  0001 C CNN
F 3 "~" H 7650 4050 50  0001 C CNN
	1    7650 4050
	1    0    0    -1  
$EndComp
$Comp
L Mechanical:MountingHole H3
U 1 1 671782D4
P 7650 4250
F 0 "H3" H 7750 4296 50  0000 L CNN
F 1 "MountingHole" H 7750 4205 50  0000 L CNN
F 2 "MountingHole:MountingHole_3.2mm_M3_Pad_Via" H 7650 4250 50  0001 C CNN
F 3 "~" H 7650 4250 50  0001 C CNN
	1    7650 4250
	1    0    0    -1  
$EndComp
$Comp
L Mechanical:MountingHole H4
U 1 1 671782DA
P 7650 4450
F 0 "H4" H 7750 4496 50  0000 L CNN
F 1 "MountingHole" H 7750 4405 50  0000 L CNN
F 2 "MountingHole:MountingHole_3.2mm_M3_Pad_Via" H 7650 4450 50  0001 C CNN
F 3 "~" H 7650 4450 50  0001 C CNN
	1    7650 4450
	1    0    0    -1  
$EndComp
$Comp
L Device:C C2
U 1 1 68CFA0F9
P 9000 2700
F 0 "C2" H 9115 2746 50  0000 L CNN
F 1 "C" H 9115 2655 50  0000 L CNN
F 2 "Capacitor_THT:C_Disc_D3.0mm_W1.6mm_P2.50mm" H 9038 2550 50  0001 C CNN
F 3 "~" H 9000 2700 50  0001 C CNN
	1    9000 2700
	1    0    0    -1  
$EndComp
$Comp
L Device:C C1
U 1 1 68CFA100
P 8800 2700
F 0 "C1" H 8915 2746 50  0000 L CNN
F 1 "C" H 8915 2655 50  0000 L CNN
F 2 "Capacitor_THT:C_Disc_D3.0mm_W1.6mm_P2.50mm" H 8838 2550 50  0001 C CNN
F 3 "~" H 8800 2700 50  0001 C CNN
	1    8800 2700
	1    0    0    -1  
$EndComp
Wire Wire Line
	8800 2850 8800 2900
Wire Wire Line
	8800 2900 8900 2900
Wire Wire Line
	9000 2900 9000 2850
Wire Wire Line
	8900 2900 8900 3050
Connection ~ 8900 2900
Wire Wire Line
	8900 2900 9000 2900
Text Label 8800 2500 2    50   ~ 0
RE1A
Text Label 9000 2500 0    50   ~ 0
RE1B
Text Label 9450 2500 2    50   ~ 0
RE2A
Text Label 9650 2500 0    50   ~ 0
RE2B
Wire Wire Line
	8900 2500 8900 2900
Wire Wire Line
	8800 2500 8800 2550
Wire Wire Line
	9000 2500 9000 2550
$Comp
L Device:C C4
U 1 1 68CFA11A
P 9650 2700
F 0 "C4" H 9765 2746 50  0000 L CNN
F 1 "C" H 9765 2655 50  0000 L CNN
F 2 "Capacitor_THT:C_Disc_D3.0mm_W1.6mm_P2.50mm" H 9688 2550 50  0001 C CNN
F 3 "~" H 9650 2700 50  0001 C CNN
	1    9650 2700
	1    0    0    -1  
$EndComp
$Comp
L Device:C C3
U 1 1 68CFA121
P 9450 2700
F 0 "C3" H 9565 2746 50  0000 L CNN
F 1 "C" H 9565 2655 50  0000 L CNN
F 2 "Capacitor_THT:C_Disc_D3.0mm_W1.6mm_P2.50mm" H 9488 2550 50  0001 C CNN
F 3 "~" H 9450 2700 50  0001 C CNN
	1    9450 2700
	1    0    0    -1  
$EndComp
Wire Wire Line
	9450 2850 9450 2900
Wire Wire Line
	9450 2900 9550 2900
Wire Wire Line
	9650 2900 9650 2850
Wire Wire Line
	9550 2900 9550 3050
Connection ~ 9550 2900
Wire Wire Line
	9550 2900 9650 2900
Wire Wire Line
	9550 2500 9550 2900
Wire Wire Line
	9450 2500 9450 2550
Wire Wire Line
	9650 2500 9650 2550
Wire Wire Line
	5050 3750 5200 3750
$Comp
L Device:R R4
U 1 1 5C0168EF
P 5350 3750
F 0 "R4" V 5350 3600 50  0000 C CNN
F 1 "R" V 5250 3900 50  0000 C CNN
F 2 "Resistor_THT:R_Axial_DIN0204_L3.6mm_D1.6mm_P7.62mm_Horizontal" V 5280 3750 50  0001 C CNN
F 3 "~" H 5350 3750 50  0001 C CNN
	1    5350 3750
	0    1    -1   0   
$EndComp
$Comp
L Device:LED LED1
U 1 1 5C0168F5
P 5650 3750
F 0 "LED1" H 5500 3800 50  0000 C CNN
F 1 "LED" H 5350 3800 50  0000 C CNN
F 2 "LED_THT:LED_D1.8mm_W3.3mm_H2.4mm" H 5650 3750 50  0001 C CNN
F 3 "~" H 5650 3750 50  0001 C CNN
	1    5650 3750
	-1   0    0    -1  
$EndComp
Wire Wire Line
	5800 3750 6300 3750
Wire Wire Line
	5050 3850 5200 3850
$Comp
L Device:R R5
U 1 1 5C01F0FE
P 5350 3850
F 0 "R5" V 5350 3700 50  0000 C CNN
F 1 "R" V 5450 4000 50  0000 C CNN
F 2 "Resistor_THT:R_Axial_DIN0204_L3.6mm_D1.6mm_P7.62mm_Horizontal" V 5280 3850 50  0001 C CNN
F 3 "~" H 5350 3850 50  0001 C CNN
	1    5350 3850
	0    1    -1   0   
$EndComp
$Comp
L Device:LED LED2
U 1 1 5C01F104
P 5650 3850
F 0 "LED2" H 5500 3900 50  0000 C CNN
F 1 "LED" H 5350 3900 50  0000 C CNN
F 2 "LED_THT:LED_D1.8mm_W3.3mm_H2.4mm" H 5650 3850 50  0001 C CNN
F 3 "~" H 5650 3850 50  0001 C CNN
	1    5650 3850
	-1   0    0    -1  
$EndComp
Wire Wire Line
	5800 3850 6300 3850
$Comp
L Device:Rotary_Encoder RE1
U 1 1 5C0422B2
P 8900 2200
F 0 "RE1" V 8891 1970 50  0000 R CNN
F 1 "Rotary_Encoder" V 8800 1970 50  0000 R CNN
F 2 "Rotary_Encoder:RotaryEncoder_Alps_EC11E_Vertical_H20mm" H 8750 2360 50  0001 C CNN
F 3 "~" H 8900 2460 50  0001 C CNN
	1    8900 2200
	0    -1   -1   0   
$EndComp
$Comp
L Device:Rotary_Encoder RE2
U 1 1 5C0452CF
P 9550 2200
F 0 "RE2" V 9541 1970 50  0000 R CNN
F 1 "Rotary_Encoder" V 9450 1970 50  0000 R CNN
F 2 "Rotary_Encoder:RotaryEncoder_Alps_EC11E_Vertical_H20mm" H 9400 2360 50  0001 C CNN
F 3 "~" H 9550 2460 50  0001 C CNN
	1    9550 2200
	0    -1   -1   0   
$EndComp
$Comp
L Switch:SW_SPST CSW7
U 1 1 5C06CF00
P 5250 3150
F 0 "CSW7" H 4700 3200 50  0000 C CNN
F 1 "SW_SPST" H 5000 3200 50  0000 C CNN
F 2 "Button_Switch_THT:SW_PUSH_6mm_H9.5mm" H 5250 3150 50  0001 C CNN
F 3 "" H 5250 3150 50  0001 C CNN
	1    5250 3150
	-1   0    0    -1  
$EndComp
$Comp
L teensy:Teensy-LC U3
U 1 1 5C092AF2
P 3950 3100
F 0 "U3" H 3975 4337 60  0000 C CNN
F 1 "Teensy-LC" H 3975 4231 60  0000 C CNN
F 2 "chordboard-footprints:Teensy30_31_32_LC_Outside" H 3950 2550 60  0001 C CNN
F 3 "" H 3950 2550 60  0000 C CNN
	1    3950 3100
	1    0    0    -1  
$EndComp
Text Label 2900 3150 2    50   ~ 0
RE1A
Text Label 2900 3350 2    50   ~ 0
RE2A
Text Label 2900 3250 2    50   ~ 0
RE1B
Text Label 2900 3450 2    50   ~ 0
RE2B
Wire Wire Line
	2900 2150 2500 2150
Text Label 2500 2150 2    50   ~ 0
LC_GND
Wire Wire Line
	6300 3850 6300 3800
Wire Wire Line
	6300 3800 6500 3800
Connection ~ 6300 3800
Wire Wire Line
	6300 3800 6300 3750
Text Label 6500 3800 0    50   ~ 0
LC_GND
Text Label 2900 2250 2    50   ~ 0
LC_RX
Text Label 2900 2350 2    50   ~ 0
LC_TX
$Comp
L Switch:SW_SPST CSW8
U 1 1 5C0B28B4
P 5250 3250
F 0 "CSW8" H 4700 3300 50  0000 C CNN
F 1 "SW_SPST" H 5000 3300 50  0000 C CNN
F 2 "Button_Switch_THT:SW_PUSH_6mm_H9.5mm" H 5250 3250 50  0001 C CNN
F 3 "" H 5250 3250 50  0001 C CNN
	1    5250 3250
	-1   0    0    -1  
$EndComp
$Comp
L Switch:SW_SPST CSW9
U 1 1 5C0B2995
P 5250 3350
F 0 "CSW9" H 4700 3400 50  0000 C CNN
F 1 "SW_SPST" H 5000 3400 50  0000 C CNN
F 2 "Button_Switch_THT:SW_PUSH_6mm_H9.5mm" H 5250 3350 50  0001 C CNN
F 3 "" H 5250 3350 50  0001 C CNN
	1    5250 3350
	-1   0    0    -1  
$EndComp
$Comp
L Switch:SW_SPST CSW10
U 1 1 5C0B29F5
P 5250 3450
F 0 "CSW10" H 4700 3500 50  0000 C CNN
F 1 "SW_SPST" H 5000 3500 50  0000 C CNN
F 2 "Button_Switch_THT:SW_PUSH_6mm_H9.5mm" H 5250 3450 50  0001 C CNN
F 3 "" H 5250 3450 50  0001 C CNN
	1    5250 3450
	-1   0    0    -1  
$EndComp
$Comp
L Switch:SW_SPST CSW12
U 1 1 5C0B2A57
P 5250 3950
F 0 "CSW12" H 4700 4000 50  0000 C CNN
F 1 "SW_SPST" H 5000 4000 50  0000 C CNN
F 2 "Button_Switch_THT:SW_PUSH_6mm_H9.5mm" H 5250 3950 50  0001 C CNN
F 3 "" H 5250 3950 50  0001 C CNN
	1    5250 3950
	-1   0    0    -1  
$EndComp
$Comp
L Switch:SW_SPST CSW13
U 1 1 5C0B2AC1
P 5250 4050
F 0 "CSW13" H 4700 4100 50  0000 C CNN
F 1 "SW_SPST" H 5000 4100 50  0000 C CNN
F 2 "Button_Switch_THT:SW_PUSH_6mm_H9.5mm" H 5250 4050 50  0001 C CNN
F 3 "" H 5250 4050 50  0001 C CNN
	1    5250 4050
	-1   0    0    -1  
$EndComp
Text Label 5050 3550 0    50   ~ 0
LC_SCL
Text Label 5050 3650 0    50   ~ 0
LC_SDA
$Comp
L Switch:SW_SPST CSW1
U 1 1 5C0B9233
P 2700 2450
F 0 "CSW1" H 2150 2500 50  0000 C CNN
F 1 "SW_SPST" H 2450 2500 50  0000 C CNN
F 2 "Button_Switch_THT:SW_PUSH_6mm_H9.5mm" H 2700 2450 50  0001 C CNN
F 3 "" H 2700 2450 50  0001 C CNN
	1    2700 2450
	1    0    0    -1  
$EndComp
$Comp
L Switch:SW_SPST CSW2
U 1 1 5C0B9239
P 2700 2550
F 0 "CSW2" H 2150 2600 50  0000 C CNN
F 1 "SW_SPST" H 2450 2600 50  0000 C CNN
F 2 "Button_Switch_THT:SW_PUSH_6mm_H9.5mm" H 2700 2550 50  0001 C CNN
F 3 "" H 2700 2550 50  0001 C CNN
	1    2700 2550
	1    0    0    -1  
$EndComp
$Comp
L Switch:SW_SPST CSW3
U 1 1 5C0B923F
P 2700 2650
F 0 "CSW3" H 2150 2700 50  0000 C CNN
F 1 "SW_SPST" H 2450 2700 50  0000 C CNN
F 2 "Button_Switch_THT:SW_PUSH_6mm_H9.5mm" H 2700 2650 50  0001 C CNN
F 3 "" H 2700 2650 50  0001 C CNN
	1    2700 2650
	1    0    0    -1  
$EndComp
$Comp
L Switch:SW_SPST CSW4
U 1 1 5C0B9245
P 2700 2750
F 0 "CSW4" H 2150 2800 50  0000 C CNN
F 1 "SW_SPST" H 2450 2800 50  0000 C CNN
F 2 "Button_Switch_THT:SW_PUSH_6mm_H9.5mm" H 2700 2750 50  0001 C CNN
F 3 "" H 2700 2750 50  0001 C CNN
	1    2700 2750
	1    0    0    -1  
$EndComp
$Comp
L Switch:SW_SPST CSW5
U 1 1 5C0BD122
P 2700 2850
F 0 "CSW5" H 2150 2900 50  0000 C CNN
F 1 "SW_SPST" H 2450 2900 50  0000 C CNN
F 2 "Button_Switch_THT:SW_PUSH_6mm_H9.5mm" H 2700 2850 50  0001 C CNN
F 3 "" H 2700 2850 50  0001 C CNN
	1    2700 2850
	1    0    0    -1  
$EndComp
$Comp
L Switch:SW_SPST CSW6
U 1 1 5C0BD19C
P 2700 2950
F 0 "CSW6" H 2150 3000 50  0000 C CNN
F 1 "SW_SPST" H 2450 3000 50  0000 C CNN
F 2 "Button_Switch_THT:SW_PUSH_6mm_H9.5mm" H 2700 2950 50  0001 C CNN
F 3 "" H 2700 2950 50  0001 C CNN
	1    2700 2950
	1    0    0    -1  
$EndComp
Wire Wire Line
	2500 2450 2500 2550
Connection ~ 2500 2550
Wire Wire Line
	2500 2550 2500 2650
Connection ~ 2500 2650
Wire Wire Line
	2500 2650 2500 2750
Connection ~ 2500 2750
Wire Wire Line
	2500 2750 2500 2850
Connection ~ 2500 2850
Wire Wire Line
	2500 2850 2500 2950
Connection ~ 2500 2950
Text Label 2500 4200 2    50   ~ 0
LC_GND
Wire Wire Line
	2500 2450 2500 2150
Connection ~ 2500 2450
Wire Wire Line
	5450 3150 5450 3250
Wire Wire Line
	5450 3550 6500 3550
Wire Wire Line
	6500 3550 6500 3800
Connection ~ 5450 3250
Wire Wire Line
	5450 3250 5450 3350
Connection ~ 5450 3350
Wire Wire Line
	5450 3350 5450 3450
Connection ~ 5450 3450
Wire Wire Line
	5450 3450 5450 3550
Wire Wire Line
	5450 3150 5450 2950
Wire Wire Line
	5450 2950 5050 2950
Connection ~ 5450 3150
$Comp
L chordboard-components:GROVE_I2C J7
U 1 1 5C0C8156
P 6450 2450
F 0 "J7" H 6777 2501 50  0000 L CNN
F 1 "GROVE_I2C" H 6777 2410 50  0000 L CNN
F 2 "Connector_JST:JST_PH_B4B-PH-K_1x04_P2.00mm_Vertical" H 6450 2450 50  0001 C CNN
F 3 "" H 6450 2450 50  0001 C CNN
	1    6450 2450
	1    0    0    -1  
$EndComp
Text Label 6250 2300 2    50   ~ 0
LC_SCL
Text Label 6250 2400 2    50   ~ 0
LC_SDA
Text Label 6250 2500 2    50   ~ 0
LC_5V
Text Label 6250 2600 2    50   ~ 0
LC_GND
Text Label 5050 2850 0    50   ~ 0
LC_5V
Wire Wire Line
	5450 3950 5450 4050
Connection ~ 5450 4050
Wire Wire Line
	5450 4050 5450 4200
Wire Wire Line
	6500 3800 6500 4200
Wire Wire Line
	6500 4200 5450 4200
Connection ~ 6500 3800
Wire Wire Line
	2500 2950 2500 3850
$Comp
L Switch:SW_SPST SW3
U 1 1 5C0D65ED
P 2700 3850
F 0 "SW3" H 2700 4085 50  0000 C CNN
F 1 "SW_SPST" H 2700 3994 50  0000 C CNN
F 2 "Button_Switch_THT:SW_Tactile_SPST_Angled_PTS645Vx58-2LFS" H 2700 3850 50  0001 C CNN
F 3 "" H 2700 3850 50  0001 C CNN
	1    2700 3850
	1    0    0    -1  
$EndComp
Connection ~ 2500 3850
Wire Wire Line
	2500 3850 2500 4200
Text Label 6250 2800 2    50   ~ 0
LC_RX
Text Label 6250 2900 2    50   ~ 0
LC_TX
$Comp
L chordboard-components:GROVE_I2C J8
U 1 1 5C0DD8B9
P 6450 2950
F 0 "J8" H 6777 3001 50  0000 L CNN
F 1 "GROVE_I2C" H 6777 2910 50  0000 L CNN
F 2 "Connector_JST:JST_PH_B4B-PH-K_1x04_P2.00mm_Vertical" H 6450 2950 50  0001 C CNN
F 3 "" H 6450 2950 50  0001 C CNN
	1    6450 2950
	1    0    0    -1  
$EndComp
Text Label 6250 3000 2    50   ~ 0
LC_5V
Text Label 6250 3100 2    50   ~ 0
LC_GND
Text Label 9250 3100 3    50   ~ 0
LC_GND
Wire Wire Line
	8900 3050 9250 3050
Wire Wire Line
	9250 3100 9250 3050
Connection ~ 9250 3050
Wire Wire Line
	9250 3050 9550 3050
$Comp
L chordboard-components:MCP23017 U?
U 1 1 5C1C2E4A
P 11750 3900
F 0 "U?" H 11750 5078 50  0000 C CNN
F 1 "MCP23017" H 11750 4987 50  0000 C CNN
F 2 "" H 11800 2950 50  0001 L CNN
F 3 "http://ww1.microchip.com/downloads/en/DeviceDoc/20001952C.pdf" H 12000 4900 50  0001 C CNN
	1    11750 3900
	1    0    0    -1  
$EndComp
$EndSCHEMATC
