EESchema Schematic File Version 2
LIBS:pic16test-rescue
LIBS:power
LIBS:chordboard-components
LIBS:MCU_Microchip_PIC16
LIBS:Connector
LIBS:device
LIBS:regul
LIBS:Switch
LIBS:ESP32
LIBS:ESP32-footprints-Shem-Lib
LIBS:espressif-xess
LIBS:Kicad-Teensy
LIBS:memory
LIBS:microchip
LIBS:atmel
LIBS:pic16test-cache
EELAYER 25 0
EELAYER END
$Descr A4 11693 8268
encoding utf-8
Sheet 4 4
Title ""
Date ""
Rev ""
Comp ""
Comment1 ""
Comment2 ""
Comment3 ""
Comment4 ""
$EndDescr
$Comp
L MK66FX1M0VLQ18-Teensy U?
U 1 1 5AE86108
P 16650 10600
F 0 "U?" H 16000 13750 60  0000 C CNN
F 1 "MK66FX1M0VLQ18-Teensy" H 16800 13750 60  0000 C CNN
F 2 "Housings_QFP:LQFP-144_20x20mm_Pitch0.5mm" H 16500 12850 60  0001 C CNN
F 3 "" H 16500 12850 60  0001 C CNN
	1    16650 10600
	1    0    0    -1  
$EndComp
$Comp
L Crystal_Small Y?
U 1 1 5AE8610F
P 15550 9850
F 0 "Y?" H 15550 9950 50  0000 C CNN
F 1 "Crystal_Small" H 15550 9750 50  0000 C CNN
F 2 "Crystals:Crystal_SMD_5032-2pin_5.0x3.2mm_HandSoldering" H 15550 9850 50  0001 C CNN
F 3 "" H 15550 9850 50  0001 C CNN
	1    15550 9850
	0    1    1    0   
$EndComp
$Comp
L Crystal_Small Y?
U 1 1 5AE86116
P 15550 10250
F 0 "Y?" H 15550 10350 50  0000 C CNN
F 1 "Crystal_Small" H 15550 10150 50  0000 C CNN
F 2 "Crystals:Crystal_SMD_5032-2pin_5.0x3.2mm_HandSoldering" H 15550 10250 50  0001 C CNN
F 3 "" H 15550 10250 50  0001 C CNN
	1    15550 10250
	0    1    1    0   
$EndComp
$Comp
L USB_A J?
U 1 1 5AE8611D
P 10200 9450
F 0 "J?" H 10000 9900 50  0000 L CNN
F 1 "USB_A" H 10000 9800 50  0000 L CNN
F 2 "Connectors:USB_B" H 10350 9400 50  0001 C CNN
F 3 "" H 10350 9400 50  0001 C CNN
	1    10200 9450
	1    0    0    1   
$EndComp
$Comp
L R R?
U 1 1 5AE86124
P 15450 9350
F 0 "R?" V 15500 9450 50  0000 L CNN
F 1 "R" V 15450 9300 50  0000 L CNN
F 2 "Resistors_SMD:R_0805_HandSoldering" H 15450 9350 50  0001 C CNN
F 3 "" H 15450 9350 50  0001 C CNN
	1    15450 9350
	0    1    1    0   
$EndComp
$Comp
L R R?
U 1 1 5AE8612B
P 15450 9450
F 0 "R?" V 15500 9550 50  0000 L CNN
F 1 "R" V 15450 9400 50  0000 L CNN
F 2 "Resistors_SMD:R_0805_HandSoldering" H 15450 9450 50  0001 C CNN
F 3 "" H 15450 9450 50  0001 C CNN
	1    15450 9450
	0    1    1    0   
$EndComp
$Comp
L USB_A J?
U 1 1 5AE86132
P 12450 10900
F 0 "J?" H 12250 11350 50  0000 L CNN
F 1 "USB_A" H 12250 11250 50  0000 L CNN
F 2 "Connectors:USB_A" H 12600 10850 50  0001 C CNN
F 3 "" H 12600 10850 50  0001 C CNN
	1    12450 10900
	1    0    0    1   
$EndComp
$Comp
L R R?
U 1 1 5AE86139
P 15450 10800
F 0 "R?" V 15500 10900 50  0000 L CNN
F 1 "R" V 15450 10750 50  0000 L CNN
F 2 "Resistors_SMD:R_0805_HandSoldering" H 15450 10800 50  0001 C CNN
F 3 "" H 15450 10800 50  0001 C CNN
	1    15450 10800
	0    1    1    0   
$EndComp
$Comp
L R R?
U 1 1 5AE86140
P 15450 10900
F 0 "R?" V 15500 11000 50  0000 L CNN
F 1 "R" V 15450 10850 50  0000 L CNN
F 2 "Resistors_SMD:R_0805_HandSoldering" H 15450 10900 50  0001 C CNN
F 3 "" H 15450 10900 50  0001 C CNN
	1    15450 10900
	0    1    1    0   
$EndComp
$Comp
L TPD3S014 U?
U 1 1 5AE86147
P 13450 10500
F 0 "U?" H 13250 10650 60  0000 C CNN
F 1 "TPD3S014" H 13700 10800 60  0000 C CNN
F 2 "TO_SOT_Packages_SMD:SOT-23-5_HandSoldering" H 13450 10250 60  0001 C CNN
F 3 "" H 13450 10250 60  0001 C CNN
	1    13450 10500
	1    0    0    -1  
$EndComp
$Comp
L +5V #PWR?
U 1 1 5AE8614E
P 13450 9850
F 0 "#PWR?" H 13450 9700 50  0001 C CNN
F 1 "+5V" H 13450 9990 50  0000 C CNN
F 2 "" H 13450 9850 50  0001 C CNN
F 3 "" H 13450 9850 50  0001 C CNN
	1    13450 9850
	1    0    0    -1  
$EndComp
$Comp
L GND #PWR?
U 1 1 5AE86154
P 13450 11100
F 0 "#PWR?" H 13450 10850 50  0001 C CNN
F 1 "GND" H 13450 10950 50  0000 C CNN
F 2 "" H 13450 11100 50  0001 C CNN
F 3 "" H 13450 11100 50  0001 C CNN
	1    13450 11100
	-1   0    0    -1  
$EndComp
$Comp
L GND #PWR?
U 1 1 5AE8615A
P 10650 9900
F 0 "#PWR?" H 10650 9650 50  0001 C CNN
F 1 "GND" H 10650 9750 50  0000 C CNN
F 2 "" H 10650 9900 50  0001 C CNN
F 3 "" H 10650 9900 50  0001 C CNN
	1    10650 9900
	-1   0    0    -1  
$EndComp
$Comp
L VBUS #PWR?
U 1 1 5AE86160
P 10650 9000
F 0 "#PWR?" H 10650 8850 50  0001 C CNN
F 1 "VBUS" H 10650 9150 50  0000 C CNN
F 2 "" H 10650 9000 50  0001 C CNN
F 3 "" H 10650 9000 50  0001 C CNN
	1    10650 9000
	1    0    0    -1  
$EndComp
$Comp
L Micro_SD_Card J?
U 1 1 5AE86166
P 10650 11800
F 0 "J?" H 10000 12400 50  0000 C CNN
F 1 "Micro_SD_Card" H 11300 12400 50  0000 R CNN
F 2 "Connectors:microSD_Card_Receptacle_Wuerth_693072010801" H 11800 12100 50  0001 C CNN
F 3 "" H 10650 11800 50  0001 C CNN
	1    10650 11800
	-1   0    0    -1  
$EndComp
$Comp
L +3V3 #PWR?
U 1 1 5AE8616D
P 11800 11250
F 0 "#PWR?" H 11800 11100 50  0001 C CNN
F 1 "+3V3" H 11800 11390 50  0000 C CNN
F 2 "" H 11800 11250 50  0001 C CNN
F 3 "" H 11800 11250 50  0001 C CNN
	1    11800 11250
	1    0    0    -1  
$EndComp
$Comp
L Conn_ARM_JTAG_SWD_10 J?
U 1 1 5AE86173
P 25400 10850
F 0 "J?" H 25300 11500 50  0000 R CNN
F 1 "Conn_ARM_JTAG_SWD_10" H 25300 11400 50  0000 R BNN
F 2 "Pin_Headers:Pin_Header_Straight_2x05_Pitch1.27mm_SMD" H 25450 10300 50  0001 L TNN
F 3 "" V 25050 9600 50  0001 C CNN
	1    25400 10850
	1    0    0    -1  
$EndComp
$Comp
L GND #PWR?
U 1 1 5AE8617A
P 11800 12500
F 0 "#PWR?" H 11800 12250 50  0001 C CNN
F 1 "GND" H 11800 12350 50  0000 C CNN
F 2 "" H 11800 12500 50  0001 C CNN
F 3 "" H 11800 12500 50  0001 C CNN
	1    11800 12500
	-1   0    0    -1  
$EndComp
Text Label 15750 13200 2    60   ~ 0
JTAG_TCLK
Text Label 15750 13000 2    60   ~ 0
JTAG_TDI
Text Label 15750 13300 2    60   ~ 0
JTAG_TDO
Text Label 15750 13100 2    60   ~ 0
JTAG_TMS
Text Label 25900 10750 0    60   ~ 0
JTAG_TCLK
Text Label 25900 10850 0    60   ~ 0
JTAG_TMS
Text Label 25900 10950 0    60   ~ 0
JTAG_TDO
Text Label 25900 11050 0    60   ~ 0
JTAG_TDI
Text Label 15750 12900 2    60   ~ 0
RESET
Text Label 25900 10550 0    60   ~ 0
RESET
$Comp
L +3V3 #PWR?
U 1 1 5AE8618A
P 25400 10200
F 0 "#PWR?" H 25400 10050 50  0001 C CNN
F 1 "+3V3" H 25400 10340 50  0000 C CNN
F 2 "" H 25400 10200 50  0001 C CNN
F 3 "" H 25400 10200 50  0001 C CNN
	1    25400 10200
	1    0    0    -1  
$EndComp
$Comp
L GND #PWR?
U 1 1 5AE86190
P 25350 11800
F 0 "#PWR?" H 25350 11550 50  0001 C CNN
F 1 "GND" H 25350 11650 50  0000 C CNN
F 2 "" H 25350 11800 50  0001 C CNN
F 3 "" H 25350 11800 50  0001 C CNN
	1    25350 11800
	-1   0    0    -1  
$EndComp
$Comp
L +3V3 #PWR?
U 1 1 5AE86196
P 15650 7150
F 0 "#PWR?" H 15650 7000 50  0001 C CNN
F 1 "+3V3" H 15650 7290 50  0000 C CNN
F 2 "" H 15650 7150 50  0001 C CNN
F 3 "" H 15650 7150 50  0001 C CNN
	1    15650 7150
	1    0    0    -1  
$EndComp
$Comp
L L_Core_Ferrite_Small L?
U 1 1 5AE8619C
P 14900 9050
F 0 "L?" H 14950 9090 50  0000 L CNN
F 1 "L_Core_Ferrite_Small" H 14950 9000 50  0000 L CNN
F 2 "Choke_SMD:Choke_SMD_1206_Handsoldering" H 14900 9050 50  0001 C CNN
F 3 "" H 14900 9050 50  0001 C CNN
	1    14900 9050
	0    -1   -1   0   
$EndComp
$Comp
L GND #PWR?
U 1 1 5AE861A3
P 15650 14600
F 0 "#PWR?" H 15650 14350 50  0001 C CNN
F 1 "GND" H 15650 14450 50  0000 C CNN
F 2 "" H 15650 14600 50  0001 C CNN
F 3 "" H 15650 14600 50  0001 C CNN
	1    15650 14600
	-1   0    0    -1  
$EndComp
Text Label 17500 12100 0    60   ~ 0
U0_RX
Text Label 17500 12000 0    60   ~ 0
U0_TX
$Comp
L GND #PWR?
U 1 1 5AE861AB
P 14500 9100
F 0 "#PWR?" H 14500 8850 50  0001 C CNN
F 1 "GND" H 14500 8950 50  0000 C CNN
F 2 "" H 14500 9100 50  0001 C CNN
F 3 "" H 14500 9100 50  0001 C CNN
	1    14500 9100
	-1   0    0    -1  
$EndComp
Text Label 17500 8050 0    60   ~ 0
SCL
Text Label 17500 8150 0    60   ~ 0
SDA
$Comp
L SGTL5000 U?
U 1 1 5AE861B3
P 20100 10000
F 0 "U?" V 20150 10050 60  0000 C CNN
F 1 "SGTL5000" V 20050 10050 60  0000 C CNN
F 2 "Housings_DFN_QFN:QFN-32-1EP_5x5mm_Pitch0.5mm" H 20100 10050 60  0001 C CNN
F 3 "" H 20100 10050 60  0000 C CNN
	1    20100 10000
	1    0    0    -1  
$EndComp
Text Label 17500 7650 0    60   ~ 0
I2SLRCK
Text Label 17500 7750 0    60   ~ 0
I2STX
Text Label 17500 11000 0    60   ~ 0
I2SMCLK
Text Label 17500 11200 0    60   ~ 0
I2SBCLK
Text Label 17500 8650 0    60   ~ 0
I2SRX
Text Label 17500 10900 0    60   ~ 0
MISO
Text Label 17500 8550 0    60   ~ 0
SCLK
Text Label 17500 11400 0    60   ~ 0
MOSI
Text Label 17500 11100 0    60   ~ 0
CS0
Text Label 17500 11500 0    60   ~ 0
CS1
Text Label 17500 7950 0    60   ~ 0
CS2
Text Label 17500 7850 0    60   ~ 0
CS3
$Comp
L +1V8 #PWR?
U 1 1 5AE861C6
P 19900 8050
F 0 "#PWR?" H 19900 7900 50  0001 C CNN
F 1 "+1V8" H 19900 8190 50  0000 C CNN
F 2 "" H 19900 8050 50  0001 C CNN
F 3 "" H 19900 8050 50  0001 C CNN
	1    19900 8050
	1    0    0    -1  
$EndComp
$Comp
L GND #PWR?
U 1 1 5AE861CC
P 20200 11500
F 0 "#PWR?" H 20200 11250 50  0001 C CNN
F 1 "GND" H 20200 11350 50  0000 C CNN
F 2 "" H 20200 11500 50  0001 C CNN
F 3 "" H 20200 11500 50  0001 C CNN
	1    20200 11500
	-1   0    0    -1  
$EndComp
Text Label 19400 9500 2    60   ~ 0
SCL
Text Label 19400 9400 2    60   ~ 0
SDA
Text Label 19400 9700 2    60   ~ 0
I2SMCLK
Text Label 19400 9800 2    60   ~ 0
I2SBCLK
Text Label 19400 9900 2    60   ~ 0
I2SLRCK
Text Label 19400 10000 2    60   ~ 0
I2STX
Text Label 19400 10100 2    60   ~ 0
I2SRX
$Comp
L C C?
U 1 1 5AE861D9
P 19000 10350
F 0 "C?" H 19010 10420 50  0000 L CNN
F 1 "0.15uF" H 19010 10270 50  0000 L CNN
F 2 "chordboard-footprints:C_0805_HandSoldering" H 19000 10350 50  0001 C CNN
F 3 "" H 19000 10350 50  0001 C CNN
	1    19000 10350
	0    1    1    0   
$EndComp
$Comp
L GND #PWR?
U 1 1 5AE861E0
P 18800 11500
F 0 "#PWR?" H 18800 11250 50  0001 C CNN
F 1 "GND" H 18800 11350 50  0000 C CNN
F 2 "" H 18800 11500 50  0001 C CNN
F 3 "" H 18800 11500 50  0001 C CNN
	1    18800 11500
	-1   0    0    -1  
$EndComp
$Comp
L C C?
U 1 1 5AE861E6
P 20900 9250
F 0 "C?" H 20910 9320 50  0000 L CNN
F 1 "2.2uF" H 20910 9170 50  0000 L CNN
F 2 "chordboard-footprints:C_0805_HandSoldering" H 20900 9250 50  0001 C CNN
F 3 "" H 20900 9250 50  0001 C CNN
	1    20900 9250
	-1   0    0    1   
$EndComp
$Comp
L C C?
U 1 1 5AE861ED
P 21100 9250
F 0 "C?" H 21110 9320 50  0000 L CNN
F 1 "2.2uF" H 21110 9170 50  0000 L CNN
F 2 "chordboard-footprints:C_0805_HandSoldering" H 21100 9250 50  0001 C CNN
F 3 "" H 21100 9250 50  0001 C CNN
	1    21100 9250
	-1   0    0    1   
$EndComp
$Comp
L C C?
U 1 1 5AE861F4
P 21300 9250
F 0 "C?" H 21310 9320 50  0000 L CNN
F 1 "2.2uF" H 21310 9170 50  0000 L CNN
F 2 "chordboard-footprints:C_0805_HandSoldering" H 21300 9250 50  0001 C CNN
F 3 "" H 21300 9250 50  0001 C CNN
	1    21300 9250
	-1   0    0    1   
$EndComp
$Comp
L C C?
U 1 1 5AE861FB
P 21500 9250
F 0 "C?" H 21510 9320 50  0000 L CNN
F 1 "2.2uF" H 21510 9170 50  0000 L CNN
F 2 "chordboard-footprints:C_0805_HandSoldering" H 21500 9250 50  0001 C CNN
F 3 "" H 21500 9250 50  0001 C CNN
	1    21500 9250
	-1   0    0    1   
$EndComp
$Comp
L Audio-Jack-3 J?
U 1 1 5AE86202
P 21800 10100
F 0 "J?" H 21750 10275 50  0000 C CNN
F 1 "Audio-Jack-3" H 21900 10030 50  0000 C CNN
F 2 "Connectors:Stereo_Jack_3.5mm_Switch_Ledino_KB3SPRS" H 22050 10200 50  0001 C CNN
F 3 "" H 22050 10200 50  0001 C CNN
	1    21800 10100
	-1   0    0    -1  
$EndComp
$Comp
L Audio-Jack-3 J?
U 1 1 5AE86209
P 21750 9000
F 0 "J?" H 21700 9175 50  0000 C CNN
F 1 "Audio-Jack-3" H 21850 8930 50  0000 C CNN
F 2 "Connectors:Stereo_Jack_3.5mm_Switch_Ledino_KB3SPRS" H 22000 9100 50  0001 C CNN
F 3 "" H 22000 9100 50  0001 C CNN
	1    21750 9000
	-1   0    0    1   
$EndComp
$Comp
L Audio-Jack-3 J?
U 1 1 5AE86210
P 21750 8700
F 0 "J?" H 21700 8875 50  0000 C CNN
F 1 "Audio-Jack-3" H 21850 8630 50  0000 C CNN
F 2 "Connectors:Stereo_Jack_3.5mm_Switch_Ledino_KB3SPRS" H 22000 8800 50  0001 C CNN
F 3 "" H 22000 8800 50  0001 C CNN
	1    21750 8700
	-1   0    0    -1  
$EndComp
$Comp
L GND #PWR?
U 1 1 5AE86217
P 22350 9150
F 0 "#PWR?" H 22350 8900 50  0001 C CNN
F 1 "GND" H 22350 9000 50  0000 C CNN
F 2 "" H 22350 9150 50  0001 C CNN
F 3 "" H 22350 9150 50  0001 C CNN
	1    22350 9150
	-1   0    0    -1  
$EndComp
$Comp
L C C?
U 1 1 5AE8621D
P 21200 10400
F 0 "C?" H 21210 10470 50  0000 L CNN
F 1 "0.1uF" H 21210 10320 50  0000 L CNN
F 2 "chordboard-footprints:C_0805_HandSoldering" H 21200 10400 50  0001 C CNN
F 3 "" H 21200 10400 50  0001 C CNN
	1    21200 10400
	0    -1   -1   0   
$EndComp
$Comp
L R R?
U 1 1 5AE86224
P 21200 10550
F 0 "R?" V 21250 10650 50  0000 L CNN
F 1 "2.2K" V 21200 10500 50  0000 L CNN
F 2 "Resistors_SMD:R_0805_HandSoldering" H 21200 10550 50  0001 C CNN
F 3 "" H 21200 10550 50  0001 C CNN
	1    21200 10550
	0    1    1    0   
$EndComp
$Comp
L Microphone MK?
U 1 1 5AE8622B
P 21950 10700
F 0 "MK?" H 21800 10750 50  0000 R CNN
F 1 "Microphone" H 21800 10675 50  0000 R CNN
F 2 "" V 21950 10800 50  0001 C CNN
F 3 "" V 21950 10800 50  0001 C CNN
	1    21950 10700
	1    0    0    -1  
$EndComp
$Comp
L C C?
U 1 1 5AE86232
P 21000 10950
F 0 "C?" H 21010 11020 50  0000 L CNN
F 1 "2.2uF" H 21010 10870 50  0000 L CNN
F 2 "chordboard-footprints:C_0805_HandSoldering" H 21000 10950 50  0001 C CNN
F 3 "" H 21000 10950 50  0001 C CNN
	1    21000 10950
	-1   0    0    1   
$EndComp
$Comp
L GND #PWR?
U 1 1 5AE86239
P 21000 11250
F 0 "#PWR?" H 21000 11000 50  0001 C CNN
F 1 "GND" H 21000 11100 50  0000 C CNN
F 2 "" H 21000 11250 50  0001 C CNN
F 3 "" H 21000 11250 50  0001 C CNN
	1    21000 11250
	-1   0    0    -1  
$EndComp
$Comp
L GND #PWR?
U 1 1 5AE8623F
P 21950 11200
F 0 "#PWR?" H 21950 10950 50  0001 C CNN
F 1 "GND" H 21950 11050 50  0000 C CNN
F 2 "" H 21950 11200 50  0001 C CNN
F 3 "" H 21950 11200 50  0001 C CNN
	1    21950 11200
	-1   0    0    -1  
$EndComp
$Comp
L +3V3 #PWR?
U 1 1 5AE86245
P 20100 8050
F 0 "#PWR?" H 20100 7900 50  0001 C CNN
F 1 "+3V3" H 20100 8190 50  0000 C CNN
F 2 "" H 20100 8050 50  0001 C CNN
F 3 "" H 20100 8050 50  0001 C CNN
	1    20100 8050
	1    0    0    -1  
$EndComp
$Comp
L Ferrite_Bead_Small L?
U 1 1 5AE8624B
P 20300 8350
F 0 "L?" H 20375 8400 50  0000 L CNN
F 1 "600" H 20375 8300 50  0000 L CNN
F 2 "Choke_SMD:Choke_SMD_1206_Handsoldering" V 20230 8350 50  0001 C CNN
F 3 "" H 20300 8350 50  0001 C CNN
	1    20300 8350
	1    0    0    -1  
$EndComp
$Comp
L C C?
U 1 1 5AE86252
P 20500 8600
F 0 "C?" H 20510 8670 50  0000 L CNN
F 1 "0.1uF" H 20510 8520 50  0000 L CNN
F 2 "chordboard-footprints:C_0805_HandSoldering" H 20500 8600 50  0001 C CNN
F 3 "" H 20500 8600 50  0001 C CNN
	1    20500 8600
	1    0    0    -1  
$EndComp
$Comp
L C C?
U 1 1 5AE86259
P 20700 8600
F 0 "C?" H 20710 8670 50  0000 L CNN
F 1 "10uF" H 20710 8520 50  0000 L CNN
F 2 "Capacitors_SMD:C_1206_HandSoldering" H 20700 8600 50  0001 C CNN
F 3 "" H 20700 8600 50  0001 C CNN
	1    20700 8600
	1    0    0    -1  
$EndComp
$Comp
L GND #PWR?
U 1 1 5AE86260
P 20600 8900
F 0 "#PWR?" H 20600 8650 50  0001 C CNN
F 1 "GND" H 20600 8750 50  0000 C CNN
F 2 "" H 20600 8900 50  0001 C CNN
F 3 "" H 20600 8900 50  0001 C CNN
	1    20600 8900
	-1   0    0    -1  
$EndComp
$Comp
L R R?
U 1 1 5AE86266
P 18100 7850
F 0 "R?" V 18150 7950 50  0000 L CNN
F 1 "2.2K" V 18100 7800 50  0000 L CNN
F 2 "Resistors_SMD:R_0805_HandSoldering" H 18100 7850 50  0001 C CNN
F 3 "" H 18100 7850 50  0001 C CNN
	1    18100 7850
	-1   0    0    1   
$EndComp
$Comp
L R R?
U 1 1 5AE8626D
P 18300 7850
F 0 "R?" V 18350 7950 50  0000 L CNN
F 1 "2.2K" V 18300 7800 50  0000 L CNN
F 2 "Resistors_SMD:R_0805_HandSoldering" H 18300 7850 50  0001 C CNN
F 3 "" H 18300 7850 50  0001 C CNN
	1    18300 7850
	-1   0    0    1   
$EndComp
$Comp
L +3V3 #PWR?
U 1 1 5AE86274
P 18200 7450
F 0 "#PWR?" H 18200 7300 50  0001 C CNN
F 1 "+3V3" H 18200 7590 50  0000 C CNN
F 2 "" H 18200 7450 50  0001 C CNN
F 3 "" H 18200 7450 50  0001 C CNN
	1    18200 7450
	1    0    0    -1  
$EndComp
$Comp
L 25LC_EEPROM U?
U 1 1 5AE8627A
P 23400 10700
F 0 "U?" H 23100 10950 50  0000 L CNN
F 1 "25LC_EEPROM" H 23450 10950 50  0000 L CNN
F 2 "Housings_SOIC:SOIC-8_3.9x4.9mm_Pitch1.27mm" H 23050 10650 50  0001 C CNN
F 3 "" H 23050 10650 50  0001 C CNN
	1    23400 10700
	1    0    0    -1  
$EndComp
Text Label 23000 10800 2    60   ~ 0
CS0
$Comp
L +3V3 #PWR?
U 1 1 5AE86282
P 23400 10000
F 0 "#PWR?" H 23400 9850 50  0001 C CNN
F 1 "+3V3" H 23400 10140 50  0000 C CNN
F 2 "" H 23400 10000 50  0001 C CNN
F 3 "" H 23400 10000 50  0001 C CNN
	1    23400 10000
	1    0    0    -1  
$EndComp
Text Label 23800 10600 0    60   ~ 0
SCLK
Text Label 23800 10700 0    60   ~ 0
MOSI
Text Label 23800 10800 0    60   ~ 0
MISO
$Comp
L GND #PWR?
U 1 1 5AE8628B
P 23400 11250
F 0 "#PWR?" H 23400 11000 50  0001 C CNN
F 1 "GND" H 23400 11100 50  0000 C CNN
F 2 "" H 23400 11250 50  0001 C CNN
F 3 "" H 23400 11250 50  0001 C CNN
	1    23400 11250
	-1   0    0    -1  
$EndComp
$Comp
L R R?
U 1 1 5AE86291
P 22750 10300
F 0 "R?" V 22800 10400 50  0000 L CNN
F 1 "10K" V 22750 10250 50  0000 L CNN
F 2 "Resistors_SMD:R_0805_HandSoldering" H 22750 10300 50  0001 C CNN
F 3 "" H 22750 10300 50  0001 C CNN
	1    22750 10300
	-1   0    0    1   
$EndComp
NoConn ~ 17500 8850
NoConn ~ 17500 8950
Text Label 17500 10100 0    60   ~ 0
RE2_A
Text Label 17500 12700 0    60   ~ 0
RE2_B
Text Label 17500 9350 0    60   ~ 0
RE3_A
Text Label 17500 9250 0    60   ~ 0
RE3_B
Text Label 17500 13000 0    60   ~ 0
RE1_A
Text Label 17500 12800 0    60   ~ 0
RE1_B
Text Label 17500 10200 0    60   ~ 0
RE2_SW
Text Label 17500 12900 0    60   ~ 0
RE1_SW
Text Label 17500 9150 0    60   ~ 0
RE3_SW
Text Label 17500 9900 0    60   ~ 0
U4_TX
Text Label 17500 10000 0    60   ~ 0
U4_RX
Text Label 17500 13700 0    60   ~ 0
SH1
Text Label 17500 13800 0    60   ~ 0
SH2
Text Label 17500 13900 0    60   ~ 0
SH3
Text Label 17500 14000 0    60   ~ 0
SH4
Text Label 17500 10300 0    60   ~ 0
IO28
Text Label 17500 10400 0    60   ~ 0
IO27
Text Label 17500 10500 0    60   ~ 0
IO26
Text Label 17500 10600 0    60   ~ 0
IO25
Text Label 17500 10700 0    60   ~ 0
IO24
Text Label 17500 9650 0    60   ~ 0
U5_TX
Text Label 17500 9550 0    60   ~ 0
U5_RX
Text Label 17500 11800 0    60   ~ 0
PIXEL0
Text Label 17500 11700 0    60   ~ 0
PIXEL1
Text Label 17500 12400 0    60   ~ 0
IO40
Text Label 17500 12500 0    60   ~ 0
IO41
Text Label 17500 12600 0    60   ~ 0
IO42
Text Label 17500 13300 0    60   ~ 0
IO47
Text Label 17500 13400 0    60   ~ 0
IO48
Text Label 17500 13500 0    60   ~ 0
IO49
Text Label 17500 9050 0    60   ~ 0
IO39
Text Label 17500 9450 0    60   ~ 0
IO35
Text Label 17500 8250 0    60   ~ 0
IO17
Text Label 17500 8350 0    60   ~ 0
IO16
Text Label 17500 8450 0    60   ~ 0
IO15
Text Label 17500 11300 0    60   ~ 0
IO8
Text Label 17500 11600 0    60   ~ 0
IO5
Text Label 17500 11900 0    60   ~ 0
IO2
Text Label 17500 14100 0    60   ~ 0
IO55
Text Label 17500 14200 0    60   ~ 0
IO56
Text Label 17500 14300 0    60   ~ 0
IO57
Text Label 18100 14050 0    60   ~ 0
IO55
Text Label 18100 14150 0    60   ~ 0
IO56
Text Label 18100 14250 0    60   ~ 0
IO57
Text Label 18100 13750 0    60   ~ 0
IO47
Text Label 18100 13850 0    60   ~ 0
IO48
Text Label 18100 13950 0    60   ~ 0
IO49
Text Label 18100 13450 0    60   ~ 0
IO40
Text Label 18100 13550 0    60   ~ 0
IO41
Text Label 18100 13650 0    60   ~ 0
IO42
Text Label 18100 13350 0    60   ~ 0
IO2
Text Label 18100 13250 0    60   ~ 0
IO5
Text Label 18100 13150 0    60   ~ 0
IO8
Text Label 18100 12650 0    60   ~ 0
IO28
Text Label 18100 12750 0    60   ~ 0
IO27
Text Label 18100 12850 0    60   ~ 0
IO26
Text Label 18100 12950 0    60   ~ 0
IO25
Text Label 18100 13050 0    60   ~ 0
IO24
Text Label 18100 12550 0    60   ~ 0
IO35
Text Label 18100 12450 0    60   ~ 0
IO39
Text Label 18100 12150 0    60   ~ 0
IO17
Text Label 18100 12250 0    60   ~ 0
IO16
Text Label 18100 12350 0    60   ~ 0
IO15
Wire Wire Line
	15550 10150 15550 10100
Wire Wire Line
	15550 10100 15750 10100
Wire Wire Line
	15550 10350 15550 10400
Wire Wire Line
	15550 10400 15750 10400
Wire Wire Line
	15750 10000 15550 10000
Wire Wire Line
	15550 10000 15550 9950
Wire Wire Line
	15750 9650 15550 9650
Wire Wire Line
	15550 9650 15550 9750
Wire Wire Line
	15550 9350 15750 9350
Wire Wire Line
	15750 9450 15550 9450
Wire Wire Line
	10500 9350 15350 9350
Wire Wire Line
	15350 9450 10500 9450
Wire Wire Line
	15550 10800 15750 10800
Wire Wire Line
	15750 10900 15550 10900
Wire Wire Line
	12750 10800 14300 10800
Wire Wire Line
	14300 10800 15350 10800
Wire Wire Line
	12750 10900 14200 10900
Wire Wire Line
	14200 10900 15350 10900
Wire Wire Line
	13450 10050 13450 9850
Wire Wire Line
	12750 10700 12950 10700
Wire Wire Line
	12950 10700 12950 10600
Wire Wire Line
	13950 10600 15750 10600
Wire Wire Line
	13950 10350 14200 10350
Wire Wire Line
	14200 10350 14200 10900
Connection ~ 14200 10900
Wire Wire Line
	13950 10450 14300 10450
Wire Wire Line
	14300 10450 14300 10800
Connection ~ 14300 10800
Wire Wire Line
	12750 11000 13450 11000
Wire Wire Line
	13450 10900 13450 11000
Wire Wire Line
	13450 11000 13450 11100
Connection ~ 13450 11000
Wire Wire Line
	10650 9550 10650 9650
Wire Wire Line
	10650 9650 10650 9900
Wire Wire Line
	10500 9550 10650 9550
Wire Wire Line
	10500 9650 10650 9650
Connection ~ 10650 9650
Wire Wire Line
	10500 9250 10650 9250
Wire Wire Line
	10650 9250 10650 9000
Wire Wire Line
	11550 11500 15750 11500
Wire Wire Line
	15750 11600 11550 11600
Wire Wire Line
	11550 11700 15750 11700
Wire Wire Line
	15750 11900 11550 11900
Wire Wire Line
	11550 12100 15750 12100
Wire Wire Line
	11550 12200 15750 12200
Wire Wire Line
	11550 11800 11800 11800
Wire Wire Line
	11800 11800 11800 11250
Wire Wire Line
	11550 12000 11800 12000
Wire Wire Line
	11800 12000 11800 12500
Wire Wire Line
	25400 10200 25400 10250
Wire Wire Line
	25400 11600 25400 11450
Wire Wire Line
	25300 11600 25350 11600
Wire Wire Line
	25350 11600 25400 11600
Wire Wire Line
	25300 11600 25300 11450
Wire Wire Line
	25350 11600 25350 11800
Connection ~ 25350 11600
Wire Wire Line
	15650 8250 15750 8250
Wire Wire Line
	15650 7150 15650 7650
Wire Wire Line
	15650 7650 15650 7750
Wire Wire Line
	15650 7750 15650 7850
Wire Wire Line
	15650 7850 15650 7950
Wire Wire Line
	15650 7950 15650 8050
Wire Wire Line
	15650 8050 15650 8150
Wire Wire Line
	15650 8150 15650 8250
Wire Wire Line
	15650 8250 15650 8550
Wire Wire Line
	15650 8550 15650 8750
Wire Wire Line
	15650 8150 15750 8150
Wire Wire Line
	15650 8050 15750 8050
Connection ~ 15650 8150
Wire Wire Line
	15650 7950 15750 7950
Connection ~ 15650 8050
Wire Wire Line
	15650 7850 15750 7850
Connection ~ 15650 7950
Wire Wire Line
	15650 7750 15750 7750
Connection ~ 15650 7850
Wire Wire Line
	15650 7650 15750 7650
Connection ~ 15650 7750
Connection ~ 15650 7650
Wire Wire Line
	15000 9050 15650 9050
Wire Wire Line
	15650 9050 15750 9050
Wire Wire Line
	15650 9050 15650 9150
Wire Wire Line
	15650 9150 15750 9150
Wire Wire Line
	15650 8550 15750 8550
Connection ~ 15650 8250
Wire Wire Line
	15650 8750 15750 8750
Connection ~ 15650 8550
Connection ~ 15650 9050
Wire Wire Line
	14800 9050 14500 9050
Wire Wire Line
	14500 9050 14500 9100
Wire Wire Line
	15750 13500 15650 13500
Wire Wire Line
	15650 13500 15650 13600
Wire Wire Line
	15650 13600 15650 13700
Wire Wire Line
	15650 13700 15650 13800
Wire Wire Line
	15650 13800 15650 13900
Wire Wire Line
	15650 13900 15650 14000
Wire Wire Line
	15650 14000 15650 14100
Wire Wire Line
	15650 14100 15650 14200
Wire Wire Line
	15650 14200 15650 14300
Wire Wire Line
	15650 14300 15650 14600
Wire Wire Line
	15650 13600 15750 13600
Wire Wire Line
	15650 13700 15750 13700
Connection ~ 15650 13600
Wire Wire Line
	15650 13800 15750 13800
Connection ~ 15650 13700
Wire Wire Line
	15650 13900 15750 13900
Connection ~ 15650 13800
Wire Wire Line
	15650 14000 15750 14000
Connection ~ 15650 13900
Wire Wire Line
	15650 14100 15750 14100
Connection ~ 15650 14000
Wire Wire Line
	15650 14200 15750 14200
Connection ~ 15650 14100
Wire Wire Line
	15650 14300 15750 14300
Connection ~ 15650 14200
Connection ~ 15650 14300
Wire Wire Line
	19900 8950 19900 8050
Wire Wire Line
	20300 8450 20300 8500
Wire Wire Line
	20300 8500 20300 8950
Wire Wire Line
	19900 11100 19900 11250
Wire Wire Line
	19900 11250 20100 11250
Wire Wire Line
	20100 11250 20200 11250
Wire Wire Line
	20200 11250 20300 11250
Wire Wire Line
	20300 11250 20500 11250
Wire Wire Line
	20100 11250 20100 11100
Wire Wire Line
	20300 11250 20300 11100
Connection ~ 20100 11250
Wire Wire Line
	20500 11250 20500 11100
Connection ~ 20300 11250
Wire Wire Line
	20200 11250 20200 11500
Connection ~ 20200 11250
Wire Wire Line
	19100 10350 19400 10350
Wire Wire Line
	18800 10350 18800 10550
Wire Wire Line
	18800 10550 18800 10650
Wire Wire Line
	18800 10650 18800 11500
Wire Wire Line
	18800 10350 18900 10350
Wire Wire Line
	19400 10550 18800 10550
Connection ~ 18800 10550
Wire Wire Line
	19400 10650 18800 10650
Connection ~ 18800 10650
Wire Wire Line
	20800 9400 20900 9400
Wire Wire Line
	20900 9400 20900 9350
Wire Wire Line
	20800 9500 21100 9500
Wire Wire Line
	21100 9500 21100 9350
Wire Wire Line
	20800 9600 21300 9600
Wire Wire Line
	21300 9600 21300 9350
Wire Wire Line
	20800 9700 21500 9700
Wire Wire Line
	21500 9700 21500 9350
Wire Wire Line
	20900 9150 20900 8600
Wire Wire Line
	20900 8600 21550 8600
Wire Wire Line
	21100 9150 21100 8700
Wire Wire Line
	21100 8700 21550 8700
Wire Wire Line
	21550 9000 21300 9000
Wire Wire Line
	21300 9000 21300 9150
Wire Wire Line
	21500 9150 21500 9100
Wire Wire Line
	21500 9100 21550 9100
Wire Wire Line
	20800 10000 21600 10000
Wire Wire Line
	21950 8800 21950 8850
Wire Wire Line
	21950 8850 21950 8900
Wire Wire Line
	21950 8850 22350 8850
Connection ~ 21950 8850
Wire Wire Line
	21600 10100 20800 10100
Wire Wire Line
	20800 10400 21100 10400
Wire Wire Line
	20800 10550 21000 10550
Wire Wire Line
	21000 10550 21100 10550
Wire Wire Line
	21300 10400 21500 10400
Wire Wire Line
	21500 10400 21950 10400
Wire Wire Line
	21500 10400 21500 10550
Wire Wire Line
	21500 10550 21300 10550
Connection ~ 21500 10400
Wire Wire Line
	21950 10400 21950 10500
Wire Wire Line
	21000 10550 21000 10850
Connection ~ 21000 10550
Wire Wire Line
	21000 11050 21000 11250
Wire Wire Line
	21950 10900 21950 11200
Wire Wire Line
	22350 8850 22350 9150
Wire Wire Line
	22000 10200 20800 10200
Wire Wire Line
	20100 8050 20100 8200
Wire Wire Line
	20100 8200 20100 8950
Wire Wire Line
	20300 8250 20300 8200
Wire Wire Line
	20300 8200 20100 8200
Connection ~ 20100 8200
Wire Wire Line
	20300 8500 20500 8500
Wire Wire Line
	20500 8500 20700 8500
Connection ~ 20300 8500
Connection ~ 20500 8500
Wire Wire Line
	20700 8800 20700 8700
Wire Wire Line
	20500 8800 20600 8800
Wire Wire Line
	20600 8800 20700 8800
Wire Wire Line
	20500 8800 20500 8700
Wire Wire Line
	20600 8900 20600 8800
Connection ~ 20600 8800
Wire Wire Line
	17500 8050 18100 8050
Wire Wire Line
	17500 8150 18300 8150
Wire Wire Line
	18300 8150 18300 7950
Wire Wire Line
	18100 8050 18100 7950
Wire Wire Line
	18100 7750 18100 7650
Wire Wire Line
	18100 7650 18200 7650
Wire Wire Line
	18200 7650 18300 7650
Wire Wire Line
	18300 7650 18300 7750
Wire Wire Line
	18200 7650 18200 7450
Connection ~ 18200 7650
Wire Wire Line
	22950 10700 23000 10700
Wire Wire Line
	22950 10400 22950 10600
Wire Wire Line
	22950 10600 22950 10700
Wire Wire Line
	22950 10600 23000 10600
Wire Wire Line
	23400 10400 22950 10400
Connection ~ 22950 10600
Wire Wire Line
	23400 10000 23400 10100
Wire Wire Line
	23400 10100 23400 10400
Wire Wire Line
	23400 11000 23400 11250
Wire Wire Line
	23000 10800 22750 10800
Wire Wire Line
	22750 10800 22750 10400
Wire Wire Line
	22750 10200 22750 10100
Wire Wire Line
	22750 10100 23400 10100
Connection ~ 23400 10100
$EndSCHEMATC
