EESchema Schematic File Version 4
EELAYER 26 0
EELAYER END
$Descr A4 11693 8268
encoding utf-8
Sheet 1 1
Title ""
Date ""
Rev ""
Comp ""
Comment1 ""
Comment2 ""
Comment3 ""
Comment4 ""
$EndDescr
Text Notes 3150 4350 0    60   ~ 0
10K = 100mA\n5.0K = 200mA\n2.0K = 500mA\n1.0K = 1000mA
Wire Wire Line
	3400 3200 3300 3200
Wire Wire Line
	3300 3200 3300 3300
Wire Wire Line
	3300 3500 3300 3650
Wire Wire Line
	3800 3400 3800 3650
Wire Wire Line
	4200 3000 4650 3000
Wire Wire Line
	4650 2300 4650 2500
Wire Wire Line
	3800 2300 3800 2500
Connection ~ 4650 3000
Wire Wire Line
	5150 3000 5400 3000
Wire Wire Line
	5400 3000 5400 3250
Wire Wire Line
	4200 2500 4650 2500
Connection ~ 4650 2500
Wire Wire Line
	2850 2500 3800 2500
Connection ~ 3800 2500
Wire Wire Line
	2850 2500 2850 2800
Wire Wire Line
	2850 3000 2850 3650
Wire Wire Line
	4650 3550 4650 3650
Wire Wire Line
	4200 3200 4300 3200
Wire Wire Line
	4300 3200 4300 3300
Text Label 4300 3300 3    60   ~ 0
CHG_STAT
$Comp
L MCP73831-2-OT U?
U 1 1 5A97FA3F
P 3800 3100
F 0 "U?" H 3500 3350 50  0000 L CNN
F 1 "MCP73831" H 3850 3350 50  0000 L CNN
F 2 "TO_SOT_Packages_SMD:SOT-23-5" H 3850 2850 50  0001 L CIN
F 3 "" H 3650 3050 50  0001 C CNN
	1    3800 3100
	1    0    0    -1  
$EndComp
$Comp
L GND #PWR?
U 1 1 5A97FA46
P 4650 3650
F 0 "#PWR?" H 4650 3400 50  0001 C CNN
F 1 "GND" H 4650 3500 50  0000 C CNN
F 2 "" H 4650 3650 50  0001 C CNN
F 3 "" H 4650 3650 50  0001 C CNN
	1    4650 3650
	-1   0    0    -1  
$EndComp
$Comp
L C C?
U 1 1 5A97FA4C
P 4650 3450
F 0 "C?" H 4660 3520 50  0000 L CNN
F 1 "10uF" H 4660 3370 50  0000 L CNN
F 2 "Capacitors_THT:CP_Radial_D4.0mm_P2.00mm" H 4650 3450 50  0001 C CNN
F 3 "" H 4650 3450 50  0001 C CNN
	1    4650 3450
	1    0    0    -1  
$EndComp
$Comp
L GND #PWR?
U 1 1 5A97FA53
P 2850 3650
F 0 "#PWR?" H 2850 3400 50  0001 C CNN
F 1 "GND" H 2850 3500 50  0000 C CNN
F 2 "" H 2850 3650 50  0001 C CNN
F 3 "" H 2850 3650 50  0001 C CNN
	1    2850 3650
	-1   0    0    -1  
$EndComp
$Comp
L D_Schottky D?
U 1 1 5A97FA59
P 4050 2500
F 0 "D?" H 4050 2600 50  0000 C CNN
F 1 "MBR120" H 4050 2400 50  0000 C CNN
F 2 "Diodes_SMD:D_SOD-123F" H 4050 2500 50  0001 C CNN
F 3 "" H 4050 2500 50  0001 C CNN
	1    4050 2500
	1    0    0    -1  
$EndComp
$Comp
L +BATT #PWR?
U 1 1 5A97FA60
P 4650 2300
F 0 "#PWR?" H 4650 2150 50  0001 C CNN
F 1 "+BATT" H 4650 2440 50  0000 C CNN
F 2 "" H 4650 2300 50  0001 C CNN
F 3 "" H 4650 2300 50  0001 C CNN
	1    4650 2300
	1    0    0    -1  
$EndComp
$Comp
L GND #PWR?
U 1 1 5A97FA66
P 5400 3250
F 0 "#PWR?" H 5400 3000 50  0001 C CNN
F 1 "GND" H 5400 3100 50  0000 C CNN
F 2 "" H 5400 3250 50  0001 C CNN
F 3 "" H 5400 3250 50  0001 C CNN
	1    5400 3250
	1    0    0    -1  
$EndComp
$Comp
L Battery BT?
U 1 1 5A97FA6C
P 4950 3000
F 0 "BT?" H 5050 3100 50  0000 L CNN
F 1 "Battery" H 5050 3000 50  0000 L CNN
F 2 "Connectors_JST:JST_PH_S2B-PH-K_02x2.00mm_Angled" V 4950 3060 50  0001 C CNN
F 3 "" V 4950 3060 50  0001 C CNN
	1    4950 3000
	0    -1   -1   0   
$EndComp
$Comp
L C C?
U 1 1 5A97FA73
P 2850 2900
F 0 "C?" H 2860 2970 50  0000 L CNN
F 1 "10uF" H 2860 2820 50  0000 L CNN
F 2 "Capacitors_THT:CP_Radial_D4.0mm_P2.00mm" H 2850 2900 50  0001 C CNN
F 3 "" H 2850 2900 50  0001 C CNN
	1    2850 2900
	1    0    0    -1  
$EndComp
$Comp
L GND #PWR?
U 1 1 5A97FA7A
P 3800 3650
F 0 "#PWR?" H 3800 3400 50  0001 C CNN
F 1 "GND" H 3800 3500 50  0000 C CNN
F 2 "" H 3800 3650 50  0001 C CNN
F 3 "" H 3800 3650 50  0001 C CNN
	1    3800 3650
	1    0    0    -1  
$EndComp
$Comp
L GND #PWR?
U 1 1 5A97FA80
P 3300 3650
F 0 "#PWR?" H 3300 3400 50  0001 C CNN
F 1 "GND" H 3300 3500 50  0000 C CNN
F 2 "" H 3300 3650 50  0001 C CNN
F 3 "" H 3300 3650 50  0001 C CNN
	1    3300 3650
	-1   0    0    -1  
$EndComp
$Comp
L R R?
U 1 1 5A97FA86
P 3300 3400
F 0 "R?" H 3330 3420 50  0000 L CNN
F 1 "10K" H 3330 3360 50  0000 L CNN
F 2 "Resistors_THT:R_Axial_DIN0207_L6.3mm_D2.5mm_P7.62mm_Horizontal" H 3300 3400 50  0001 C CNN
F 3 "" H 3300 3400 50  0001 C CNN
	1    3300 3400
	-1   0    0    -1  
$EndComp
$Comp
L +5V #PWR?
U 1 1 5A97FA8D
P 3800 2100
F 0 "#PWR?" H 3800 1950 50  0001 C CNN
F 1 "+5V" H 3800 2240 50  0000 C CNN
F 2 "" H 3800 2100 50  0001 C CNN
F 3 "" H 3800 2100 50  0001 C CNN
	1    3800 2100
	1    0    0    -1  
$EndComp
$Comp
L Jumper JP?
U 1 1 5A97FA93
P 3800 2200
F 0 "JP?" H 3750 2250 50  0000 R CNN
F 1 "JWTX" H 3850 2250 50  0000 L CNN
F 2 "Pin_Headers:Pin_Header_Straight_1x02_Pitch2.54mm" H 3800 2200 50  0001 C CNN
F 3 "" H 3800 2200 50  0001 C CNN
	1    3800 2200
	0    1    1    0   
$EndComp
Wire Wire Line
	4650 3000 4750 3000
Wire Wire Line
	4650 3000 4650 3350
Wire Wire Line
	4650 2500 4650 3000
Wire Wire Line
	3800 2500 3800 2800
Wire Wire Line
	3800 2500 3900 2500
$EndSCHEMATC
