EESchema Schematic File Version 2
LIBS:pic16test-rescue
LIBS:power
LIBS:chordboard-components
LIBS:MCU_Microchip_PIC16
LIBS:Connector
LIBS:device
LIBS:regul
LIBS:Switch
LIBS:ESP32
LIBS:ESP32-footprints-Shem-Lib
LIBS:espressif-xess
LIBS:Kicad-Teensy
LIBS:memory
LIBS:microchip
LIBS:atmel
LIBS:Transistor
LIBS:ftdi
LIBS:texas
LIBS:ESD_Protection
LIBS:SparkFun-Connectors
LIBS:pic16test-cache
EELAYER 25 0
EELAYER END
$Descr A4 11693 8268
encoding utf-8
Sheet 2 4
Title ""
Date ""
Rev ""
Comp ""
Comment1 ""
Comment2 ""
Comment3 ""
Comment4 ""
$EndDescr
$Comp
L +3.3V #PWR031
U 1 1 5ADE815B
P 3200 1700
F 0 "#PWR031" H 3200 1550 50  0001 C CNN
F 1 "+3.3V" H 3200 1840 50  0000 C CNN
F 2 "" H 3200 1700 50  0000 C CNN
F 3 "" H 3200 1700 50  0000 C CNN
	1    3200 1700
	1    0    0    -1  
$EndComp
$Comp
L GND #PWR032
U 1 1 5ADE8161
P 4150 2250
F 0 "#PWR032" H 4150 2000 50  0001 C CNN
F 1 "GND" H 4150 2100 50  0000 C CNN
F 2 "" H 4150 2250 50  0001 C CNN
F 3 "" H 4150 2250 50  0001 C CNN
	1    4150 2250
	-1   0    0    -1  
$EndComp
$Comp
L GND #PWR033
U 1 1 5ADE8167
P 3200 4450
F 0 "#PWR033" H 3200 4200 50  0001 C CNN
F 1 "GND" H 3200 4300 50  0000 C CNN
F 2 "" H 3200 4450 50  0001 C CNN
F 3 "" H 3200 4450 50  0001 C CNN
	1    3200 4450
	-1   0    0    -1  
$EndComp
$Comp
L MCP23017 U10
U 1 1 5ADE816D
P 3200 3400
F 0 "U10" H 3100 4425 50  0000 R CNN
F 1 "MCP23017" H 3100 4350 50  0000 R CNN
F 2 "Housings_SOIC:SOIC-28W_7.5x17.9mm_Pitch1.27mm" H 3250 2450 50  0001 L CNN
F 3 "" H 3450 4400 50  0001 C CNN
	1    3200 3400
	1    0    0    -1  
$EndComp
$Comp
L C C18
U 1 1 5ADE8174
P 4150 2050
F 0 "C18" H 4160 2120 50  0000 L CNN
F 1 "0.1uF" H 4160 1970 50  0000 L CNN
F 2 "Capacitors_SMD:C_0603" H 4150 2050 50  0001 C CNN
F 3 "" H 4150 2050 50  0001 C CNN
	1    4150 2050
	-1   0    0    -1  
$EndComp
$Comp
L GND #PWR034
U 1 1 5ADE817B
P 3900 4450
F 0 "#PWR034" H 3900 4200 50  0001 C CNN
F 1 "GND" H 3900 4300 50  0000 C CNN
F 2 "" H 3900 4450 50  0001 C CNN
F 3 "" H 3900 4450 50  0001 C CNN
	1    3900 4450
	-1   0    0    -1  
$EndComp
Text HLabel 3900 3700 2    60   Input ~ 0
SCL
Text HLabel 3900 3800 2    60   Input ~ 0
SDA
Text HLabel 3900 4000 2    60   Input ~ 0
A0
Text Label 2700 3500 2    60   ~ 0
K0
Text Label 2700 3600 2    60   ~ 0
K1
Text Label 2700 3700 2    60   ~ 0
K2
Text Label 2700 3800 2    60   ~ 0
K3
Text Label 2700 3900 2    60   ~ 0
K4
Text Label 2700 4000 2    60   ~ 0
K5
Text Label 2700 4100 2    60   ~ 0
K6
Text Label 2700 4200 2    60   ~ 0
K7
Text Label 2700 2700 2    60   ~ 0
K9
Text Label 2700 2800 2    60   ~ 0
K10
Text Label 2700 2900 2    60   ~ 0
K11
Text Label 2700 3000 2    60   ~ 0
K12
Text Label 2700 3100 2    60   ~ 0
K13
Text Label 2700 3200 2    60   ~ 0
K14
Text Label 2700 3300 2    60   ~ 0
K15
Text Label 2700 2600 2    60   ~ 0
K8
$Comp
L Conn_01x08_Male J12
U 1 1 5ADE832B
P 2250 2900
F 0 "J12" H 2250 3300 50  0000 C CNN
F 1 "Conn_01x08_Male" H 2250 2400 50  0000 C CNN
F 2 "Pin_Headers:Pin_Header_Straight_1x08_Pitch2.54mm" H 2250 2900 50  0001 C CNN
F 3 "" H 2250 2900 50  0001 C CNN
	1    2250 2900
	1    0    0    -1  
$EndComp
Wire Wire Line
	3700 3800 3900 3800
Wire Wire Line
	3700 3700 3900 3700
Wire Wire Line
	3200 4400 3200 4450
Wire Wire Line
	3800 1800 3800 2600
Wire Wire Line
	3800 2600 3700 2600
Wire Wire Line
	3200 1700 3200 2400
Connection ~ 3200 1800
Wire Wire Line
	4150 1800 4150 1950
Wire Wire Line
	4150 2150 4150 2250
Wire Wire Line
	2700 2600 2450 2600
Wire Wire Line
	2700 2700 2450 2700
Wire Wire Line
	2700 2800 2450 2800
Wire Wire Line
	2700 2900 2450 2900
Wire Wire Line
	2700 3000 2450 3000
Wire Wire Line
	2700 3100 2450 3100
Wire Wire Line
	2700 3200 2450 3200
Wire Wire Line
	2700 3300 2450 3300
Wire Wire Line
	2700 3500 2450 3500
Wire Wire Line
	2700 3600 2450 3600
Wire Wire Line
	2700 3700 2450 3700
Wire Wire Line
	2700 3800 2450 3800
Wire Wire Line
	2700 3900 2450 3900
Wire Wire Line
	2700 4000 2450 4000
Wire Wire Line
	2700 4100 2450 4100
Wire Wire Line
	2700 4200 2450 4200
Connection ~ 3800 1800
Wire Wire Line
	3700 4100 3900 4100
Wire Wire Line
	3700 4200 3900 4200
Wire Wire Line
	3200 1800 4150 1800
Wire Wire Line
	3700 4000 3900 4000
Wire Wire Line
	3900 4100 3900 4450
$Comp
L Conn_01x08_Male J14
U 1 1 5ADE8550
P 2250 3800
F 0 "J14" H 2250 4200 50  0000 C CNN
F 1 "Conn_01x08_Male" H 2250 3300 50  0000 C CNN
F 2 "Pin_Headers:Pin_Header_Straight_1x08_Pitch2.54mm" H 2250 3800 50  0001 C CNN
F 3 "" H 2250 3800 50  0001 C CNN
	1    2250 3800
	1    0    0    -1  
$EndComp
$Comp
L +3.3V #PWR035
U 1 1 5ADE88CB
P 5950 1700
F 0 "#PWR035" H 5950 1550 50  0001 C CNN
F 1 "+3.3V" H 5950 1840 50  0000 C CNN
F 2 "" H 5950 1700 50  0000 C CNN
F 3 "" H 5950 1700 50  0000 C CNN
	1    5950 1700
	1    0    0    -1  
$EndComp
$Comp
L GND #PWR036
U 1 1 5ADE88D1
P 6900 2250
F 0 "#PWR036" H 6900 2000 50  0001 C CNN
F 1 "GND" H 6900 2100 50  0000 C CNN
F 2 "" H 6900 2250 50  0001 C CNN
F 3 "" H 6900 2250 50  0001 C CNN
	1    6900 2250
	-1   0    0    -1  
$EndComp
$Comp
L GND #PWR037
U 1 1 5ADE88D7
P 5950 4450
F 0 "#PWR037" H 5950 4200 50  0001 C CNN
F 1 "GND" H 5950 4300 50  0000 C CNN
F 2 "" H 5950 4450 50  0001 C CNN
F 3 "" H 5950 4450 50  0001 C CNN
	1    5950 4450
	-1   0    0    -1  
$EndComp
$Comp
L MCP23017 U11
U 1 1 5ADE88DD
P 5950 3400
F 0 "U11" H 5850 4425 50  0000 R CNN
F 1 "MCP23017" H 5850 4350 50  0000 R CNN
F 2 "Housings_SOIC:SOIC-28W_7.5x17.9mm_Pitch1.27mm" H 6000 2450 50  0001 L CNN
F 3 "" H 6200 4400 50  0001 C CNN
	1    5950 3400
	1    0    0    -1  
$EndComp
$Comp
L C C19
U 1 1 5ADE88E3
P 6900 2050
F 0 "C19" H 6910 2120 50  0000 L CNN
F 1 "0.1uF" H 6910 1970 50  0000 L CNN
F 2 "Capacitors_SMD:C_0603" H 6900 2050 50  0001 C CNN
F 3 "" H 6900 2050 50  0001 C CNN
	1    6900 2050
	-1   0    0    -1  
$EndComp
$Comp
L GND #PWR038
U 1 1 5ADE88E9
P 6650 4450
F 0 "#PWR038" H 6650 4200 50  0001 C CNN
F 1 "GND" H 6650 4300 50  0000 C CNN
F 2 "" H 6650 4450 50  0001 C CNN
F 3 "" H 6650 4450 50  0001 C CNN
	1    6650 4450
	-1   0    0    -1  
$EndComp
Text HLabel 6650 3700 2    60   Input ~ 0
SCL
Text HLabel 6650 3800 2    60   Input ~ 0
SDA
Text HLabel 6650 4000 2    60   Input ~ 0
A1
Text Label 5450 3500 2    60   ~ 0
K16
Text Label 5450 3600 2    60   ~ 0
K17
Text Label 5450 3700 2    60   ~ 0
K18
Text Label 5450 3800 2    60   ~ 0
K19
Text Label 5450 3900 2    60   ~ 0
K20
Text Label 5450 4000 2    60   ~ 0
K21
Text Label 5450 4100 2    60   ~ 0
K22
Text Label 5450 4200 2    60   ~ 0
K23
Text Label 5450 2700 2    60   ~ 0
K25
Text Label 5450 2800 2    60   ~ 0
K26
Text Label 5450 2900 2    60   ~ 0
K27
Text Label 5450 3000 2    60   ~ 0
K28
Text Label 5450 3100 2    60   ~ 0
K29
Text Label 5450 3200 2    60   ~ 0
K30
Text Label 5450 3300 2    60   ~ 0
K31
$Comp
L Conn_01x08_Male J13
U 1 1 5ADE8902
P 5000 2900
F 0 "J13" H 5000 3300 50  0000 C CNN
F 1 "Conn_01x08_Male" H 5000 2400 50  0000 C CNN
F 2 "Pin_Headers:Pin_Header_Straight_1x08_Pitch2.54mm" H 5000 2900 50  0001 C CNN
F 3 "" H 5000 2900 50  0001 C CNN
	1    5000 2900
	1    0    0    -1  
$EndComp
Wire Wire Line
	6450 3800 6650 3800
Wire Wire Line
	6450 3700 6650 3700
Wire Wire Line
	5950 4400 5950 4450
Wire Wire Line
	6550 1800 6550 2600
Wire Wire Line
	6550 2600 6450 2600
Wire Wire Line
	5950 1700 5950 2400
Connection ~ 5950 1800
Wire Wire Line
	6900 1800 6900 1950
Wire Wire Line
	6900 2150 6900 2250
Wire Wire Line
	5450 2600 5200 2600
Wire Wire Line
	5450 2700 5200 2700
Wire Wire Line
	5450 2800 5200 2800
Wire Wire Line
	5450 2900 5200 2900
Wire Wire Line
	5450 3000 5200 3000
Wire Wire Line
	5450 3100 5200 3100
Wire Wire Line
	5450 3200 5200 3200
Wire Wire Line
	5450 3300 5200 3300
Wire Wire Line
	5450 3500 5200 3500
Wire Wire Line
	5450 3600 5200 3600
Wire Wire Line
	5450 3700 5200 3700
Wire Wire Line
	5450 3800 5200 3800
Wire Wire Line
	5450 3900 5200 3900
Wire Wire Line
	5450 4000 5200 4000
Wire Wire Line
	5450 4100 5200 4100
Wire Wire Line
	5450 4200 5200 4200
Connection ~ 6550 1800
Wire Wire Line
	6450 4100 6650 4100
Wire Wire Line
	6450 4200 6650 4200
Wire Wire Line
	5950 1800 6900 1800
Connection ~ 6650 4200
Wire Wire Line
	6450 4000 6650 4000
Wire Wire Line
	6650 4100 6650 4450
$Comp
L Conn_01x08_Male J15
U 1 1 5ADE892D
P 5000 3800
F 0 "J15" H 5000 4200 50  0000 C CNN
F 1 "Conn_01x08_Male" H 5000 3300 50  0000 C CNN
F 2 "Pin_Headers:Pin_Header_Straight_1x08_Pitch2.54mm" H 5000 3800 50  0001 C CNN
F 3 "" H 5000 3800 50  0001 C CNN
	1    5000 3800
	1    0    0    -1  
$EndComp
Connection ~ 3900 4200
Text Label 5450 2600 2    60   ~ 0
K24
Text Label 6450 4000 0    60   ~ 0
A1
Text Label 3700 4000 0    60   ~ 0
A0
$EndSCHEMATC
