(export (version D)
  (design
    (source /home/afshar/src/chordboard/hard/l0/leftpad.sch)
    (date "Mon 03 Dec 2018 09:39:07 PM GMT")
    (tool "Eeschema 5.0.0+dfsg1-2~bpo9+1")
    (sheet (number 1) (name /) (tstamps /)
      (title_block
        (title)
        (company)
        (rev)
        (date)
        (source leftpad.sch)
        (comment (number 1) (value ""))
        (comment (number 2) (value ""))
        (comment (number 3) (value ""))
        (comment (number 4) (value "")))))
  (components
    (comp (ref LED1)
      (value LED_ARGB)
      (footprint chordboard-footprints:LED_D3.0mm-4)
      (libsource (lib leftpad-rescue) (part LED_ARGB) (description ""))
      (sheetpath (names /) (tstamps /))
      (tstamp 5AA7AE0B))
    (comp (ref J1)
      (value HT16K33)
      (footprint chordboard-footprints:SOIC-28W_7.5x17.9mm_Pitch1.27mm_HANDSOLDER)
      (libsource (lib eurocad1) (part HT16K33) (description ""))
      (sheetpath (names /) (tstamps /))
      (tstamp 5AAABC44))
    (comp (ref Q2)
      (value BSS138)
      (footprint TO_SOT_Packages_SMD:SOT-23)
      (libsource (lib Transistor) (part BSS138) (description "50V Vds, 0.22 A Id, N-channel MOSFET, SOT-23"))
      (sheetpath (names /) (tstamps /))
      (tstamp 5AAABC4B))
    (comp (ref R3)
      (value R)
      (footprint Resistor_THT:R_Axial_DIN0207_L6.3mm_D2.5mm_P10.16mm_Horizontal)
      (libsource (lib chordboard-components) (part R) (description "Resistor, small symbol"))
      (sheetpath (names /) (tstamps /))
      (tstamp 5AAABC5D))
    (comp (ref R4)
      (value R)
      (footprint Resistor_THT:R_Axial_DIN0207_L6.3mm_D2.5mm_P10.16mm_Horizontal)
      (libsource (lib chordboard-components) (part R) (description "Resistor, small symbol"))
      (sheetpath (names /) (tstamps /))
      (tstamp 5AAABC64))
    (comp (ref Q1)
      (value BSS138)
      (footprint TO_SOT_Packages_SMD:SOT-23)
      (libsource (lib Transistor) (part BSS138) (description "50V Vds, 0.22 A Id, N-channel MOSFET, SOT-23"))
      (sheetpath (names /) (tstamps /))
      (tstamp 5AAABC79))
    (comp (ref R1)
      (value R)
      (footprint Resistor_THT:R_Axial_DIN0207_L6.3mm_D2.5mm_P10.16mm_Horizontal)
      (libsource (lib chordboard-components) (part R) (description "Resistor, small symbol"))
      (sheetpath (names /) (tstamps /))
      (tstamp 5AAABC8B))
    (comp (ref R2)
      (value R)
      (footprint Resistor_THT:R_Axial_DIN0207_L6.3mm_D2.5mm_P10.16mm_Horizontal)
      (libsource (lib chordboard-components) (part R) (description "Resistor, small symbol"))
      (sheetpath (names /) (tstamps /))
      (tstamp 5AAABC92))
    (comp (ref LED2)
      (value LED_ARGB)
      (footprint chordboard-footprints:LED_D3.0mm-4)
      (libsource (lib leftpad-rescue) (part LED_ARGB) (description ""))
      (sheetpath (names /) (tstamps /))
      (tstamp 5AB8CC86))
    (comp (ref LED3)
      (value LED_ARGB)
      (footprint chordboard-footprints:LED_D3.0mm-4)
      (libsource (lib leftpad-rescue) (part LED_ARGB) (description ""))
      (sheetpath (names /) (tstamps /))
      (tstamp 5AB8EA57))
    (comp (ref LED4)
      (value LED_ARGB)
      (footprint chordboard-footprints:LED_D3.0mm-4)
      (libsource (lib leftpad-rescue) (part LED_ARGB) (description ""))
      (sheetpath (names /) (tstamps /))
      (tstamp 5AB8EA65))
    (comp (ref LED5)
      (value LED_ARGB)
      (footprint chordboard-footprints:LED_D3.0mm-4)
      (libsource (lib leftpad-rescue) (part LED_ARGB) (description ""))
      (sheetpath (names /) (tstamps /))
      (tstamp 5AB8EDA8))
    (comp (ref LED6)
      (value LED_ARGB)
      (footprint chordboard-footprints:LED_D3.0mm-4)
      (libsource (lib leftpad-rescue) (part LED_ARGB) (description ""))
      (sheetpath (names /) (tstamps /))
      (tstamp 5AB8EDB6))
    (comp (ref LED7)
      (value LED_ARGB)
      (footprint chordboard-footprints:LED_D3.0mm-4)
      (libsource (lib leftpad-rescue) (part LED_ARGB) (description ""))
      (sheetpath (names /) (tstamps /))
      (tstamp 5AB8EDC7))
    (comp (ref LED8)
      (value LED_ARGB)
      (footprint chordboard-footprints:LED_D3.0mm-4)
      (libsource (lib leftpad-rescue) (part LED_ARGB) (description ""))
      (sheetpath (names /) (tstamps /))
      (tstamp 5AB8EDD5))
    (comp (ref LED9)
      (value LED_ARGB)
      (footprint chordboard-footprints:LED_D3.0mm-4)
      (libsource (lib leftpad-rescue) (part LED_ARGB) (description ""))
      (sheetpath (names /) (tstamps /))
      (tstamp 5AB8F8CA))
    (comp (ref LED10)
      (value LED_ARGB)
      (footprint chordboard-footprints:LED_D3.0mm-4)
      (libsource (lib leftpad-rescue) (part LED_ARGB) (description ""))
      (sheetpath (names /) (tstamps /))
      (tstamp 5AB8F8D8))
    (comp (ref LED11)
      (value LED_ARGB)
      (footprint chordboard-footprints:LED_D3.0mm-4)
      (libsource (lib leftpad-rescue) (part LED_ARGB) (description ""))
      (sheetpath (names /) (tstamps /))
      (tstamp 5AB8F8E9))
    (comp (ref LED12)
      (value LED_ARGB)
      (footprint chordboard-footprints:LED_D3.0mm-4)
      (libsource (lib leftpad-rescue) (part LED_ARGB) (description ""))
      (sheetpath (names /) (tstamps /))
      (tstamp 5AB8F8F7))
    (comp (ref LED13)
      (value LED_ARGB)
      (footprint chordboard-footprints:LED_D3.0mm-4)
      (libsource (lib leftpad-rescue) (part LED_ARGB) (description ""))
      (sheetpath (names /) (tstamps /))
      (tstamp 5AB8F908))
    (comp (ref LED14)
      (value LED_ARGB)
      (footprint chordboard-footprints:LED_D3.0mm-4)
      (libsource (lib leftpad-rescue) (part LED_ARGB) (description ""))
      (sheetpath (names /) (tstamps /))
      (tstamp 5AB8F916))
    (comp (ref LED15)
      (value LED_ARGB)
      (footprint chordboard-footprints:LED_D3.0mm-4)
      (libsource (lib leftpad-rescue) (part LED_ARGB) (description ""))
      (sheetpath (names /) (tstamps /))
      (tstamp 5AB8F927))
    (comp (ref LED16)
      (value LED_ARGB)
      (footprint chordboard-footprints:LED_D3.0mm-4)
      (libsource (lib leftpad-rescue) (part LED_ARGB) (description ""))
      (sheetpath (names /) (tstamps /))
      (tstamp 5AB8F935))
    (comp (ref LED17)
      (value LED_ARGB)
      (footprint chordboard-footprints:LED_D3.0mm-4)
      (libsource (lib leftpad-rescue) (part LED_ARGB) (description ""))
      (sheetpath (names /) (tstamps /))
      (tstamp 5AB90C12))
    (comp (ref LED18)
      (value LED_ARGB)
      (footprint chordboard-footprints:LED_D3.0mm-4)
      (libsource (lib leftpad-rescue) (part LED_ARGB) (description ""))
      (sheetpath (names /) (tstamps /))
      (tstamp 5AB90C1F))
    (comp (ref LED19)
      (value LED_ARGB)
      (footprint chordboard-footprints:LED_D3.0mm-4)
      (libsource (lib leftpad-rescue) (part LED_ARGB) (description ""))
      (sheetpath (names /) (tstamps /))
      (tstamp 5AB90C2F))
    (comp (ref LED20)
      (value LED_ARGB)
      (footprint chordboard-footprints:LED_D3.0mm-4)
      (libsource (lib leftpad-rescue) (part LED_ARGB) (description ""))
      (sheetpath (names /) (tstamps /))
      (tstamp 5AB90C3C))
    (comp (ref LED21)
      (value LED_ARGB)
      (footprint chordboard-footprints:LED_D3.0mm-4)
      (libsource (lib leftpad-rescue) (part LED_ARGB) (description ""))
      (sheetpath (names /) (tstamps /))
      (tstamp 5AB90C4C))
    (comp (ref LED22)
      (value LED_ARGB)
      (footprint chordboard-footprints:LED_D3.0mm-4)
      (libsource (lib leftpad-rescue) (part LED_ARGB) (description ""))
      (sheetpath (names /) (tstamps /))
      (tstamp 5AB90C59))
    (comp (ref LED23)
      (value LED_ARGB)
      (footprint chordboard-footprints:LED_D3.0mm-4)
      (libsource (lib leftpad-rescue) (part LED_ARGB) (description ""))
      (sheetpath (names /) (tstamps /))
      (tstamp 5AB90C69))
    (comp (ref LED24)
      (value LED_ARGB)
      (footprint chordboard-footprints:LED_D3.0mm-4)
      (libsource (lib leftpad-rescue) (part LED_ARGB) (description ""))
      (sheetpath (names /) (tstamps /))
      (tstamp 5AB90C76))
    (comp (ref LED25)
      (value LED_ARGB)
      (footprint chordboard-footprints:LED_D3.0mm-4)
      (libsource (lib leftpad-rescue) (part LED_ARGB) (description ""))
      (sheetpath (names /) (tstamps /))
      (tstamp 5AB90C86))
    (comp (ref LED26)
      (value LED_ARGB)
      (footprint chordboard-footprints:LED_D3.0mm-4)
      (libsource (lib leftpad-rescue) (part LED_ARGB) (description ""))
      (sheetpath (names /) (tstamps /))
      (tstamp 5AB90C93))
    (comp (ref LED27)
      (value LED_ARGB)
      (footprint chordboard-footprints:LED_D3.0mm-4)
      (libsource (lib leftpad-rescue) (part LED_ARGB) (description ""))
      (sheetpath (names /) (tstamps /))
      (tstamp 5AB90CA3))
    (comp (ref LED28)
      (value LED_ARGB)
      (footprint chordboard-footprints:LED_D3.0mm-4)
      (libsource (lib leftpad-rescue) (part LED_ARGB) (description ""))
      (sheetpath (names /) (tstamps /))
      (tstamp 5AB90CB0))
    (comp (ref LED29)
      (value LED_ARGB)
      (footprint chordboard-footprints:LED_D3.0mm-4)
      (libsource (lib leftpad-rescue) (part LED_ARGB) (description ""))
      (sheetpath (names /) (tstamps /))
      (tstamp 5AB90CC0))
    (comp (ref LED30)
      (value LED_ARGB)
      (footprint chordboard-footprints:LED_D3.0mm-4)
      (libsource (lib leftpad-rescue) (part LED_ARGB) (description ""))
      (sheetpath (names /) (tstamps /))
      (tstamp 5AB90CCD))
    (comp (ref LED31)
      (value LED_ARGB)
      (footprint chordboard-footprints:LED_D3.0mm-4)
      (libsource (lib leftpad-rescue) (part LED_ARGB) (description ""))
      (sheetpath (names /) (tstamps /))
      (tstamp 5AB90CDD))
    (comp (ref LED32)
      (value LED_ARGB)
      (footprint chordboard-footprints:LED_D3.0mm-4)
      (libsource (lib leftpad-rescue) (part LED_ARGB) (description ""))
      (sheetpath (names /) (tstamps /))
      (tstamp 5AB90CEA))
    (comp (ref R5)
      (value R)
      (footprint Resistor_THT:R_Axial_DIN0207_L6.3mm_D2.5mm_P10.16mm_Horizontal)
      (libsource (lib chordboard-components) (part R) (description "Resistor, small symbol"))
      (sheetpath (names /) (tstamps /))
      (tstamp 5AB9E111))
    (comp (ref R6)
      (value R)
      (footprint Resistor_THT:R_Axial_DIN0207_L6.3mm_D2.5mm_P10.16mm_Horizontal)
      (libsource (lib chordboard-components) (part R) (description "Resistor, small symbol"))
      (sheetpath (names /) (tstamps /))
      (tstamp 5AB9E207))
    (comp (ref R7)
      (value R)
      (footprint Resistor_THT:R_Axial_DIN0207_L6.3mm_D2.5mm_P10.16mm_Horizontal)
      (libsource (lib chordboard-components) (part R) (description "Resistor, small symbol"))
      (sheetpath (names /) (tstamps /))
      (tstamp 5AB9E2E3))
    (comp (ref D1)
      (value 1N4148)
      (footprint Diodes_THT:D_DO-35_SOD27_Horizontal_RM10)
      (libsource (lib Diode1) (part 1N4148) (description "100V 0.15A standard switching diode, DO-35"))
      (sheetpath (names /) (tstamps /))
      (tstamp 5AB9E566))
    (comp (ref K1)
      (value KSW)
      (footprint chordboard-footprints:CHERRY_PCB_100H)
      (libsource (lib chordboard-components) (part KSW) (description "Keyboard SPST switch, e.g. Cherry."))
      (sheetpath (names /) (tstamps /))
      (tstamp 5ABA075D))
    (comp (ref K2)
      (value KSW)
      (footprint chordboard-footprints:CHERRY_PCB_100H)
      (libsource (lib chordboard-components) (part KSW) (description "Keyboard SPST switch, e.g. Cherry."))
      (sheetpath (names /) (tstamps /))
      (tstamp 5ABA0F2A))
    (comp (ref K3)
      (value KSW)
      (footprint chordboard-footprints:CHERRY_PCB_100H)
      (libsource (lib chordboard-components) (part KSW) (description "Keyboard SPST switch, e.g. Cherry."))
      (sheetpath (names /) (tstamps /))
      (tstamp 5ABA167D))
    (comp (ref K4)
      (value KSW)
      (footprint chordboard-footprints:CHERRY_PCB_100H)
      (libsource (lib chordboard-components) (part KSW) (description "Keyboard SPST switch, e.g. Cherry."))
      (sheetpath (names /) (tstamps /))
      (tstamp 5ABA1BCF))
    (comp (ref K5)
      (value KSW)
      (footprint chordboard-footprints:CHERRY_PCB_100H)
      (libsource (lib chordboard-components) (part KSW) (description "Keyboard SPST switch, e.g. Cherry."))
      (sheetpath (names /) (tstamps /))
      (tstamp 5ABA1CDD))
    (comp (ref K6)
      (value KSW)
      (footprint chordboard-footprints:CHERRY_PCB_100H)
      (libsource (lib chordboard-components) (part KSW) (description "Keyboard SPST switch, e.g. Cherry."))
      (sheetpath (names /) (tstamps /))
      (tstamp 5ABA1DDE))
    (comp (ref K7)
      (value KSW)
      (footprint chordboard-footprints:CHERRY_PCB_100H)
      (libsource (lib chordboard-components) (part KSW) (description "Keyboard SPST switch, e.g. Cherry."))
      (sheetpath (names /) (tstamps /))
      (tstamp 5ABA1EDE))
    (comp (ref K8)
      (value KSW)
      (footprint chordboard-footprints:CHERRY_PCB_100H)
      (libsource (lib chordboard-components) (part KSW) (description "Keyboard SPST switch, e.g. Cherry."))
      (sheetpath (names /) (tstamps /))
      (tstamp 5ABA202E))
    (comp (ref K9)
      (value KSW)
      (footprint chordboard-footprints:CHERRY_PCB_100H)
      (libsource (lib chordboard-components) (part KSW) (description "Keyboard SPST switch, e.g. Cherry."))
      (sheetpath (names /) (tstamps /))
      (tstamp 5ABA2138))
    (comp (ref K10)
      (value KSW)
      (footprint chordboard-footprints:CHERRY_PCB_100H)
      (libsource (lib chordboard-components) (part KSW) (description "Keyboard SPST switch, e.g. Cherry."))
      (sheetpath (names /) (tstamps /))
      (tstamp 5ABA2241))
    (comp (ref K11)
      (value KSW)
      (footprint chordboard-footprints:CHERRY_PCB_100H)
      (libsource (lib chordboard-components) (part KSW) (description "Keyboard SPST switch, e.g. Cherry."))
      (sheetpath (names /) (tstamps /))
      (tstamp 5ABA248D))
    (comp (ref K12)
      (value KSW)
      (footprint chordboard-footprints:CHERRY_PCB_100H)
      (libsource (lib chordboard-components) (part KSW) (description "Keyboard SPST switch, e.g. Cherry."))
      (sheetpath (names /) (tstamps /))
      (tstamp 5ABA259C))
    (comp (ref D2)
      (value 1N4148)
      (footprint Diodes_THT:D_DO-35_SOD27_Horizontal_RM10)
      (libsource (lib Diode1) (part 1N4148) (description "100V 0.15A standard switching diode, DO-35"))
      (sheetpath (names /) (tstamps /))
      (tstamp 5ABA3CB7))
    (comp (ref K13)
      (value KSW)
      (footprint chordboard-footprints:CHERRY_PCB_100H)
      (libsource (lib chordboard-components) (part KSW) (description "Keyboard SPST switch, e.g. Cherry."))
      (sheetpath (names /) (tstamps /))
      (tstamp 5ABA4267))
    (comp (ref K14)
      (value KSW)
      (footprint chordboard-footprints:CHERRY_PCB_100H)
      (libsource (lib chordboard-components) (part KSW) (description "Keyboard SPST switch, e.g. Cherry."))
      (sheetpath (names /) (tstamps /))
      (tstamp 5ABA426D))
    (comp (ref K15)
      (value KSW)
      (footprint chordboard-footprints:CHERRY_PCB_100H)
      (libsource (lib chordboard-components) (part KSW) (description "Keyboard SPST switch, e.g. Cherry."))
      (sheetpath (names /) (tstamps /))
      (tstamp 5ABA4277))
    (comp (ref K16)
      (value KSW)
      (footprint chordboard-footprints:CHERRY_PCB_100H)
      (libsource (lib chordboard-components) (part KSW) (description "Keyboard SPST switch, e.g. Cherry."))
      (sheetpath (names /) (tstamps /))
      (tstamp 5ABA4281))
    (comp (ref K17)
      (value KSW)
      (footprint chordboard-footprints:CHERRY_PCB_100H)
      (libsource (lib chordboard-components) (part KSW) (description "Keyboard SPST switch, e.g. Cherry."))
      (sheetpath (names /) (tstamps /))
      (tstamp 5ABA4287))
    (comp (ref K18)
      (value KSW)
      (footprint chordboard-footprints:CHERRY_PCB_100H)
      (libsource (lib chordboard-components) (part KSW) (description "Keyboard SPST switch, e.g. Cherry."))
      (sheetpath (names /) (tstamps /))
      (tstamp 5ABA428D))
    (comp (ref K19)
      (value KSW)
      (footprint chordboard-footprints:CHERRY_PCB_100H)
      (libsource (lib chordboard-components) (part KSW) (description "Keyboard SPST switch, e.g. Cherry."))
      (sheetpath (names /) (tstamps /))
      (tstamp 5ABA4293))
    (comp (ref K20)
      (value KSW)
      (footprint chordboard-footprints:CHERRY_PCB_100H)
      (libsource (lib chordboard-components) (part KSW) (description "Keyboard SPST switch, e.g. Cherry."))
      (sheetpath (names /) (tstamps /))
      (tstamp 5ABA4299))
    (comp (ref K21)
      (value KSW)
      (footprint chordboard-footprints:CHERRY_PCB_100H)
      (libsource (lib chordboard-components) (part KSW) (description "Keyboard SPST switch, e.g. Cherry."))
      (sheetpath (names /) (tstamps /))
      (tstamp 5ABA429F))
    (comp (ref K22)
      (value KSW)
      (footprint chordboard-footprints:CHERRY_PCB_100H)
      (libsource (lib chordboard-components) (part KSW) (description "Keyboard SPST switch, e.g. Cherry."))
      (sheetpath (names /) (tstamps /))
      (tstamp 5ABA42A5))
    (comp (ref K23)
      (value KSW)
      (footprint chordboard-footprints:CHERRY_PCB_100H)
      (libsource (lib chordboard-components) (part KSW) (description "Keyboard SPST switch, e.g. Cherry."))
      (sheetpath (names /) (tstamps /))
      (tstamp 5ABA42AB))
    (comp (ref K24)
      (value KSW)
      (footprint chordboard-footprints:CHERRY_PCB_100H)
      (libsource (lib chordboard-components) (part KSW) (description "Keyboard SPST switch, e.g. Cherry."))
      (sheetpath (names /) (tstamps /))
      (tstamp 5ABA42B1))
    (comp (ref D3)
      (value 1N4148)
      (footprint Diodes_THT:D_DO-35_SOD27_Horizontal_RM10)
      (libsource (lib Diode1) (part 1N4148) (description "100V 0.15A standard switching diode, DO-35"))
      (sheetpath (names /) (tstamps /))
      (tstamp 5ABA42C7))
    (comp (ref K25)
      (value KSW)
      (footprint chordboard-footprints:CHERRY_PCB_100H)
      (libsource (lib chordboard-components) (part KSW) (description "Keyboard SPST switch, e.g. Cherry."))
      (sheetpath (names /) (tstamps /))
      (tstamp 5ABA4692))
    (comp (ref K26)
      (value KSW)
      (footprint chordboard-footprints:CHERRY_PCB_100H)
      (libsource (lib chordboard-components) (part KSW) (description "Keyboard SPST switch, e.g. Cherry."))
      (sheetpath (names /) (tstamps /))
      (tstamp 5ABA4698))
    (comp (ref K27)
      (value KSW)
      (footprint chordboard-footprints:CHERRY_PCB_100H)
      (libsource (lib chordboard-components) (part KSW) (description "Keyboard SPST switch, e.g. Cherry."))
      (sheetpath (names /) (tstamps /))
      (tstamp 5ABA46A2))
    (comp (ref K28)
      (value KSW)
      (footprint chordboard-footprints:CHERRY_PCB_100H)
      (libsource (lib chordboard-components) (part KSW) (description "Keyboard SPST switch, e.g. Cherry."))
      (sheetpath (names /) (tstamps /))
      (tstamp 5ABA46AC))
    (comp (ref K29)
      (value KSW)
      (footprint chordboard-footprints:CHERRY_PCB_100H)
      (libsource (lib chordboard-components) (part KSW) (description "Keyboard SPST switch, e.g. Cherry."))
      (sheetpath (names /) (tstamps /))
      (tstamp 5ABA46B2))
    (comp (ref K30)
      (value KSW)
      (footprint chordboard-footprints:CHERRY_PCB_100H)
      (libsource (lib chordboard-components) (part KSW) (description "Keyboard SPST switch, e.g. Cherry."))
      (sheetpath (names /) (tstamps /))
      (tstamp 5ABA46B8))
    (comp (ref K31)
      (value KSW)
      (footprint chordboard-footprints:CHERRY_PCB_100H)
      (libsource (lib chordboard-components) (part KSW) (description "Keyboard SPST switch, e.g. Cherry."))
      (sheetpath (names /) (tstamps /))
      (tstamp 5ABA46BE))
    (comp (ref K32)
      (value KSW)
      (footprint chordboard-footprints:CHERRY_PCB_100H)
      (libsource (lib chordboard-components) (part KSW) (description "Keyboard SPST switch, e.g. Cherry."))
      (sheetpath (names /) (tstamps /))
      (tstamp 5ABA46C4))
    (comp (ref K33)
      (value KSW)
      (footprint chordboard-footprints:SW_PUSH_6mm)
      (libsource (lib chordboard-components) (part KSW) (description "Keyboard SPST switch, e.g. Cherry."))
      (sheetpath (names /) (tstamps /))
      (tstamp 5ABA46CA))
    (comp (ref K34)
      (value KSW)
      (footprint chordboard-footprints:SW_PUSH_6mm)
      (libsource (lib chordboard-components) (part KSW) (description "Keyboard SPST switch, e.g. Cherry."))
      (sheetpath (names /) (tstamps /))
      (tstamp 5ABA46D0))
    (comp (ref K35)
      (value KSW)
      (footprint chordboard-footprints:SW_PUSH_6mm)
      (libsource (lib chordboard-components) (part KSW) (description "Keyboard SPST switch, e.g. Cherry."))
      (sheetpath (names /) (tstamps /))
      (tstamp 5ABA46D6))
    (comp (ref K36)
      (value KSW)
      (footprint chordboard-footprints:SW_PUSH_6mm)
      (libsource (lib chordboard-components) (part KSW) (description "Keyboard SPST switch, e.g. Cherry."))
      (sheetpath (names /) (tstamps /))
      (tstamp 5ABA46DC))
    (comp (ref D4)
      (value 1N4148)
      (footprint Diodes_THT:D_DO-35_SOD27_Horizontal_RM10)
      (libsource (lib Diode1) (part 1N4148) (description "100V 0.15A standard switching diode, DO-35"))
      (sheetpath (names /) (tstamps /))
      (tstamp 5ABA46F2))
    (comp (ref JP1)
      (value Jumper)
      (footprint Pin_Headers:Pin_Header_Straight_1x02_Pitch2.54mm)
      (libsource (lib chordboard-components) (part Jumper) (description "Jumper, normally open"))
      (sheetpath (names /) (tstamps /))
      (tstamp 5ABAC61F))
    (comp (ref JP2)
      (value Jumper)
      (footprint Pin_Headers:Pin_Header_Straight_1x02_Pitch2.54mm)
      (libsource (lib chordboard-components) (part Jumper) (description "Jumper, normally open"))
      (sheetpath (names /) (tstamps /))
      (tstamp 5ABAC79A))
    (comp (ref JP3)
      (value Jumper)
      (footprint Pin_Headers:Pin_Header_Straight_1x02_Pitch2.54mm)
      (libsource (lib chordboard-components) (part Jumper) (description "Jumper, normally open"))
      (sheetpath (names /) (tstamps /))
      (tstamp 5ABAC8FB)))
  (libparts
    (libpart (lib Diode1) (part 1N4148)
      (aliases
        (alias 1N4448)
        (alias 1N4149)
        (alias 1N4151)
        (alias 1N914)
        (alias BA243)
        (alias BA244)
        (alias BA282)
        (alias BA283)
        (alias BAV17)
        (alias BAV18)
        (alias BAV19)
        (alias BAV20)
        (alias BAV21)
        (alias BAW75)
        (alias BAW76)
        (alias BAY93))
      (description "100V 0.15A standard switching diode, DO-35")
      (docs http://www.nxp.com/documents/data_sheet/1N4148_1N4448.pdf)
      (footprints
        (fp D*DO?35*)
        (fp D*SOD27*))
      (fields
        (field (name Reference) D)
        (field (name Value) 1N4148)
        (field (name Footprint) Diodes_THT:D_DO-35_SOD27_Horizontal_RM10))
      (pins
        (pin (num 1) (name K) (type passive))
        (pin (num 2) (name A) (type passive))))
    (libpart (lib Transistor) (part BSS138)
      (aliases
        (alias 2N7002)
        (alias MMBF170))
      (description "50V Vds, 0.22 A Id, N-channel MOSFET, SOT-23")
      (docs https://www.fairchildsemi.com/datasheets/BS/BSS138.pdf)
      (footprints
        (fp SOT?23*))
      (fields
        (field (name Reference) Q)
        (field (name Value) BSS138)
        (field (name Footprint) TO_SOT_Packages_SMD:SOT-23))
      (pins
        (pin (num 1) (name G) (type input))
        (pin (num 2) (name S) (type passive))
        (pin (num 3) (name D) (type passive))))
    (libpart (lib chordboard-components) (part Jumper)
      (description "Jumper, normally open")
      (fields
        (field (name Reference) JP)
        (field (name Value) Jumper))
      (pins
        (pin (num 1) (name 1) (type passive))
        (pin (num 2) (name 2) (type passive))))
    (libpart (lib chordboard-components) (part KSW)
      (description "Keyboard SPST switch, e.g. Cherry.")
      (footprints
        (fp SPST_*))
      (fields
        (field (name Reference) K)
        (field (name Value) KSW)
        (field (name Footprint) Keyboard:CHERRY_PCB_100H))
      (pins
        (pin (num 1) (name ~) (type passive))
        (pin (num 2) (name ~) (type passive))))
    (libpart (lib chordboard-components) (part R)
      (description "Resistor, small symbol")
      (footprints
        (fp R_*))
      (fields
        (field (name Reference) R)
        (field (name Value) R))
      (pins
        (pin (num 1) (name ~) (type passive))
        (pin (num 2) (name ~) (type passive))))
    (libpart (lib eurocad1) (part HT16K33)
      (fields
        (field (name Reference) J)
        (field (name Value) HT16K33))
      (pins
        (pin (num 1) (name VSS) (type power_in))
        (pin (num 2) (name COM0_AD) (type output))
        (pin (num 3) (name COM1_KS0) (type output))
        (pin (num 4) (name COM2_KS1) (type output))
        (pin (num 5) (name COM3_KS2) (type output))
        (pin (num 6) (name COM4) (type output))
        (pin (num 7) (name COM5) (type output))
        (pin (num 8) (name COM6) (type output))
        (pin (num 9) (name COM7) (type output))
        (pin (num 10) (name ROW15_K13_INT) (type BiDi))
        (pin (num 11) (name ROW14_K12) (type BiDi))
        (pin (num 12) (name ROW13_K11) (type BiDi))
        (pin (num 13) (name ROW12_K10) (type BiDi))
        (pin (num 14) (name ROW11_K9) (type BiDi))
        (pin (num 15) (name ROW10_K8) (type BiDi))
        (pin (num 16) (name ROW9_K7) (type BiDi))
        (pin (num 17) (name ROW8_K6) (type BiDi))
        (pin (num 18) (name ROW7_K5) (type BiDi))
        (pin (num 19) (name ROW6_K4) (type BiDi))
        (pin (num 20) (name ROW5_K3) (type BiDi))
        (pin (num 21) (name ROW4_K2) (type BiDi))
        (pin (num 22) (name ROW3_K1) (type BiDi))
        (pin (num 23) (name ROW2_A0) (type BiDi))
        (pin (num 24) (name ROW1_A1) (type BiDi))
        (pin (num 25) (name ROW0_A2) (type BiDi))
        (pin (num 26) (name SCL) (type input))
        (pin (num 27) (name SDA) (type BiDi))
        (pin (num 28) (name VDD) (type power_in))))
    (libpart (lib leftpad-rescue) (part LED_ARGB)
      (fields
        (field (name Reference) D)
        (field (name Value) LED_ARGB))
      (pins
        (pin (num 1) (name A) (type passive))
        (pin (num 2) (name RK) (type passive))
        (pin (num 3) (name GK) (type passive))
        (pin (num 4) (name BK) (type passive)))))
  (libraries
    (library (logical Diode1)
      (uri /home/afshar/src/kicad-libraries/kicad-library/library/Diode.lib))
    (library (logical Transistor)
      (uri /home/afshar/src/kicad-libraries/kicad-library/library/Transistor.lib))
    (library (logical chordboard-components)
      (uri /home/afshar/src/chordboard/hard/chordboard-kicad-libs/chordboard-components.lib))
    (library (logical eurocad1)
      (uri /home/afshar/src/kicad-libraries/nebs-eurocad/eurocad.lib))
    (library (logical leftpad-rescue)
      (uri /home/afshar/src/chordboard/hard/l0/leftpad-rescue.lib)))
  (nets
    (net (code 1) (name "Net-(D3-Pad1)")
      (node (ref K20) (pin 2))
      (node (ref K21) (pin 2))
      (node (ref K19) (pin 2))
      (node (ref K22) (pin 2))
      (node (ref K23) (pin 2))
      (node (ref K13) (pin 2))
      (node (ref K24) (pin 2))
      (node (ref K14) (pin 2))
      (node (ref D3) (pin 1))
      (node (ref K15) (pin 2))
      (node (ref K16) (pin 2))
      (node (ref K17) (pin 2))
      (node (ref K18) (pin 2)))
    (net (code 2) (name "Net-(D4-Pad1)")
      (node (ref K35) (pin 2))
      (node (ref K32) (pin 2))
      (node (ref K33) (pin 2))
      (node (ref K34) (pin 2))
      (node (ref K31) (pin 2))
      (node (ref K30) (pin 2))
      (node (ref K29) (pin 2))
      (node (ref K28) (pin 2))
      (node (ref K36) (pin 2))
      (node (ref K25) (pin 2))
      (node (ref K26) (pin 2))
      (node (ref K27) (pin 2))
      (node (ref D4) (pin 1)))
    (net (code 3) (name "Net-(D2-Pad1)")
      (node (ref K2) (pin 2))
      (node (ref K1) (pin 2))
      (node (ref K4) (pin 2))
      (node (ref D2) (pin 1))
      (node (ref K3) (pin 2))
      (node (ref K12) (pin 2))
      (node (ref K5) (pin 2))
      (node (ref K11) (pin 2))
      (node (ref K10) (pin 2))
      (node (ref K9) (pin 2))
      (node (ref K8) (pin 2))
      (node (ref K7) (pin 2))
      (node (ref K6) (pin 2)))
    (net (code 4) (name "Net-(JP1-Pad1)")
      (node (ref R5) (pin 1))
      (node (ref JP1) (pin 1)))
    (net (code 5) (name "Net-(JP2-Pad1)")
      (node (ref R6) (pin 1))
      (node (ref JP2) (pin 1)))
    (net (code 6) (name "Net-(JP3-Pad1)")
      (node (ref JP3) (pin 1))
      (node (ref R7) (pin 1)))
    (net (code 7) (name "Net-(D1-Pad1)")
      (node (ref R5) (pin 2))
      (node (ref R7) (pin 2))
      (node (ref R6) (pin 2))
      (node (ref D1) (pin 1)))
    (net (code 8) (name /K1)
      (node (ref K1) (pin 1))
      (node (ref LED8) (pin 1))
      (node (ref LED7) (pin 1))
      (node (ref K25) (pin 1))
      (node (ref K13) (pin 1))
      (node (ref J1) (pin 22)))
    (net (code 9) (name /A0)
      (node (ref J1) (pin 23))
      (node (ref LED5) (pin 1))
      (node (ref LED6) (pin 1))
      (node (ref JP1) (pin 2)))
    (net (code 10) (name /K3)
      (node (ref J1) (pin 20))
      (node (ref LED12) (pin 1))
      (node (ref K27) (pin 1))
      (node (ref LED11) (pin 1))
      (node (ref K15) (pin 1))
      (node (ref K3) (pin 1)))
    (net (code 11) (name /K2)
      (node (ref LED9) (pin 1))
      (node (ref LED10) (pin 1))
      (node (ref K14) (pin 1))
      (node (ref K26) (pin 1))
      (node (ref K2) (pin 1))
      (node (ref J1) (pin 21)))
    (net (code 12) (name +3V3)
      (node (ref R1) (pin 1))
      (node (ref Q1) (pin 1))
      (node (ref Q2) (pin 1))
      (node (ref R3) (pin 1)))
    (net (code 13) (name /SCL)
      (node (ref R3) (pin 2))
      (node (ref Q2) (pin 2)))
    (net (code 14) (name /SCL5)
      (node (ref R4) (pin 2))
      (node (ref J1) (pin 26))
      (node (ref Q2) (pin 3)))
    (net (code 15) (name +5V)
      (node (ref R4) (pin 1))
      (node (ref R2) (pin 1))
      (node (ref J1) (pin 28)))
    (net (code 16) (name /C5)
      (node (ref LED24) (pin 2))
      (node (ref LED18) (pin 2))
      (node (ref LED10) (pin 2))
      (node (ref LED14) (pin 2))
      (node (ref LED20) (pin 2))
      (node (ref LED4) (pin 2))
      (node (ref LED28) (pin 2))
      (node (ref LED22) (pin 2))
      (node (ref LED16) (pin 2))
      (node (ref LED26) (pin 2))
      (node (ref LED2) (pin 2))
      (node (ref LED8) (pin 2))
      (node (ref J1) (pin 7))
      (node (ref LED6) (pin 2))
      (node (ref LED12) (pin 2))
      (node (ref LED32) (pin 2))
      (node (ref LED30) (pin 2)))
    (net (code 17) (name "Net-(J1-Pad8)")
      (node (ref J1) (pin 8)))
    (net (code 18) (name "Net-(J1-Pad9)")
      (node (ref J1) (pin 9)))
    (net (code 19) (name GND)
      (node (ref J1) (pin 1)))
    (net (code 20) (name /A2)
      (node (ref LED2) (pin 1))
      (node (ref J1) (pin 25))
      (node (ref JP3) (pin 2))
      (node (ref LED1) (pin 1)))
    (net (code 21) (name /A1)
      (node (ref LED3) (pin 1))
      (node (ref J1) (pin 24))
      (node (ref JP2) (pin 2))
      (node (ref LED4) (pin 1)))
    (net (code 22) (name /SDA5)
      (node (ref Q1) (pin 3))
      (node (ref R2) (pin 2))
      (node (ref J1) (pin 27)))
    (net (code 23) (name /SDA)
      (node (ref Q1) (pin 2))
      (node (ref R1) (pin 2)))
    (net (code 24) (name /K11)
      (node (ref K11) (pin 1))
      (node (ref J1) (pin 12))
      (node (ref K35) (pin 1))
      (node (ref LED28) (pin 1))
      (node (ref LED27) (pin 1))
      (node (ref K23) (pin 1)))
    (net (code 25) (name /K9)
      (node (ref K9) (pin 1))
      (node (ref J1) (pin 14))
      (node (ref LED23) (pin 1))
      (node (ref K33) (pin 1))
      (node (ref LED24) (pin 1))
      (node (ref K21) (pin 1)))
    (net (code 26) (name /K10)
      (node (ref K34) (pin 1))
      (node (ref K10) (pin 1))
      (node (ref K22) (pin 1))
      (node (ref LED26) (pin 1))
      (node (ref J1) (pin 13))
      (node (ref LED25) (pin 1)))
    (net (code 27) (name /INT)
      (node (ref LED32) (pin 1))
      (node (ref LED31) (pin 1))
      (node (ref J1) (pin 10)))
    (net (code 28) (name /K12)
      (node (ref LED29) (pin 1))
      (node (ref K24) (pin 1))
      (node (ref LED30) (pin 1))
      (node (ref K12) (pin 1))
      (node (ref J1) (pin 11))
      (node (ref K36) (pin 1)))
    (net (code 29) (name /K6)
      (node (ref K6) (pin 1))
      (node (ref LED17) (pin 1))
      (node (ref K30) (pin 1))
      (node (ref K18) (pin 1))
      (node (ref J1) (pin 17))
      (node (ref LED18) (pin 1)))
    (net (code 30) (name /K4)
      (node (ref LED13) (pin 1))
      (node (ref J1) (pin 19))
      (node (ref LED14) (pin 1))
      (node (ref K4) (pin 1))
      (node (ref K28) (pin 1))
      (node (ref K16) (pin 1)))
    (net (code 31) (name /K5)
      (node (ref J1) (pin 18))
      (node (ref LED15) (pin 1))
      (node (ref LED16) (pin 1))
      (node (ref K29) (pin 1))
      (node (ref K5) (pin 1))
      (node (ref K17) (pin 1)))
    (net (code 32) (name /K8)
      (node (ref LED22) (pin 1))
      (node (ref K20) (pin 1))
      (node (ref J1) (pin 15))
      (node (ref K32) (pin 1))
      (node (ref K8) (pin 1))
      (node (ref LED21) (pin 1)))
    (net (code 33) (name /C2)
      (node (ref LED21) (pin 2))
      (node (ref LED27) (pin 2))
      (node (ref J1) (pin 4))
      (node (ref LED15) (pin 2))
      (node (ref LED3) (pin 2))
      (node (ref LED1) (pin 2))
      (node (ref LED25) (pin 2))
      (node (ref LED9) (pin 2))
      (node (ref LED13) (pin 2))
      (node (ref LED31) (pin 2))
      (node (ref LED29) (pin 2))
      (node (ref LED19) (pin 2))
      (node (ref LED17) (pin 2))
      (node (ref LED5) (pin 2))
      (node (ref D3) (pin 2))
      (node (ref LED11) (pin 2))
      (node (ref LED23) (pin 2))
      (node (ref LED7) (pin 2)))
    (net (code 34) (name /C1)
      (node (ref LED29) (pin 3))
      (node (ref LED15) (pin 3))
      (node (ref LED27) (pin 3))
      (node (ref LED25) (pin 3))
      (node (ref LED17) (pin 3))
      (node (ref LED31) (pin 3))
      (node (ref LED21) (pin 3))
      (node (ref LED19) (pin 3))
      (node (ref J1) (pin 3))
      (node (ref LED1) (pin 3))
      (node (ref LED7) (pin 3))
      (node (ref LED13) (pin 3))
      (node (ref LED11) (pin 3))
      (node (ref LED23) (pin 3))
      (node (ref LED9) (pin 3))
      (node (ref LED3) (pin 3))
      (node (ref LED5) (pin 3))
      (node (ref D2) (pin 2)))
    (net (code 35) (name /AD)
      (node (ref LED13) (pin 4))
      (node (ref LED17) (pin 4))
      (node (ref LED9) (pin 4))
      (node (ref LED25) (pin 4))
      (node (ref LED31) (pin 4))
      (node (ref D1) (pin 2))
      (node (ref LED5) (pin 4))
      (node (ref LED7) (pin 4))
      (node (ref LED19) (pin 4))
      (node (ref LED29) (pin 4))
      (node (ref LED11) (pin 4))
      (node (ref LED1) (pin 4))
      (node (ref J1) (pin 2))
      (node (ref LED21) (pin 4))
      (node (ref LED3) (pin 4))
      (node (ref LED15) (pin 4))
      (node (ref LED27) (pin 4))
      (node (ref LED23) (pin 4)))
    (net (code 36) (name /K7)
      (node (ref LED19) (pin 1))
      (node (ref K19) (pin 1))
      (node (ref LED20) (pin 1))
      (node (ref K7) (pin 1))
      (node (ref J1) (pin 16))
      (node (ref K31) (pin 1)))
    (net (code 37) (name /C4)
      (node (ref LED18) (pin 3))
      (node (ref LED14) (pin 3))
      (node (ref LED20) (pin 3))
      (node (ref LED22) (pin 3))
      (node (ref LED16) (pin 3))
      (node (ref LED28) (pin 3))
      (node (ref LED6) (pin 3))
      (node (ref LED26) (pin 3))
      (node (ref LED10) (pin 3))
      (node (ref LED12) (pin 3))
      (node (ref LED2) (pin 3))
      (node (ref J1) (pin 6))
      (node (ref LED8) (pin 3))
      (node (ref LED30) (pin 3))
      (node (ref LED32) (pin 3))
      (node (ref LED4) (pin 3))
      (node (ref LED24) (pin 3)))
    (net (code 38) (name /C3)
      (node (ref LED8) (pin 4))
      (node (ref LED6) (pin 4))
      (node (ref LED12) (pin 4))
      (node (ref LED10) (pin 4))
      (node (ref LED20) (pin 4))
      (node (ref LED4) (pin 4))
      (node (ref LED28) (pin 4))
      (node (ref D4) (pin 2))
      (node (ref LED18) (pin 4))
      (node (ref LED24) (pin 4))
      (node (ref LED14) (pin 4))
      (node (ref LED16) (pin 4))
      (node (ref LED32) (pin 4))
      (node (ref LED30) (pin 4))
      (node (ref J1) (pin 5))
      (node (ref LED2) (pin 4))
      (node (ref LED22) (pin 4))
      (node (ref LED26) (pin 4)))))