EESchema Schematic File Version 2
LIBS:chordboard-rescue
LIBS:chordboard-components
LIBS:Kicad-Teensy
LIBS:ESP32-footprints-Shem-Lib
LIBS:MCU_NXP_Kinetis
LIBS:nxp
LIBS:texas
LIBS:Logic_74xx
LIBS:atmel
LIBS:eurocad
LIBS:Transistor
LIBS:power
LIBS:chordboard-cache
EELAYER 25 0
EELAYER END
$Descr A1 23386 33110 portrait
encoding utf-8
Sheet 2 2
Title ""
Date ""
Rev ""
Comp ""
Comment1 ""
Comment2 ""
Comment3 ""
Comment4 ""
$EndDescr
$Comp
L LED_ARGB LED1
U 1 1 5AA7AE0B
P 5250 6450
F 0 "LED1" H 5250 6820 50  0000 C CNN
F 1 "LED_ARGB" H 5250 6100 50  0000 C CNN
F 2 "chordboard-footprints:LED_D3.0mm-4" H 5250 6400 50  0001 C CNN
F 3 "" H 5250 6400 50  0001 C CNN
	1    5250 6450
	-1   0    0    1   
$EndComp
Wire Wire Line
	5450 6250 5500 6250
Wire Wire Line
	5450 6450 5500 6450
Wire Wire Line
	5450 6650 5500 6650
$Comp
L R R9
U 1 1 5AA7AE15
P 5600 6250
F 0 "R9" V 5650 6350 50  0000 L CNN
F 1 "R" V 5600 6200 50  0000 L CNN
F 2 "Resistors_SMD:R_0805_HandSoldering" H 5600 6250 50  0001 C CNN
F 3 "" H 5600 6250 50  0001 C CNN
	1    5600 6250
	0    1    1    0   
$EndComp
$Comp
L R R11
U 1 1 5AA7AE1C
P 5600 6450
F 0 "R11" V 5650 6550 50  0000 L CNN
F 1 "R" V 5600 6400 50  0000 L CNN
F 2 "Resistors_SMD:R_0805_HandSoldering" H 5600 6450 50  0001 C CNN
F 3 "" H 5600 6450 50  0001 C CNN
	1    5600 6450
	0    1    1    0   
$EndComp
$Comp
L R R13
U 1 1 5AA7AE23
P 5600 6650
F 0 "R13" V 5650 6750 50  0000 L CNN
F 1 "R" V 5600 6600 50  0000 L CNN
F 2 "Resistors_SMD:R_0805_HandSoldering" H 5600 6650 50  0001 C CNN
F 3 "" H 5600 6650 50  0001 C CNN
	1    5600 6650
	0    1    1    0   
$EndComp
Wire Wire Line
	5700 6250 5750 6250
Wire Wire Line
	5750 5600 5750 10800
Wire Wire Line
	5700 6450 5850 6450
Wire Wire Line
	5850 5800 5850 11000
Wire Wire Line
	5700 6650 5950 6650
Wire Wire Line
	5950 6000 5950 11200
Wire Wire Line
	5050 6450 4950 6450
Wire Wire Line
	4950 6450 4950 6800
Connection ~ 5750 5600
Connection ~ 5850 5800
Connection ~ 5950 6000
$Comp
L LED_ARGB LED2
U 1 1 5AA7AE35
P 6300 6450
F 0 "LED2" H 6300 6820 50  0000 C CNN
F 1 "LED_ARGB" H 6300 6100 50  0000 C CNN
F 2 "chordboard-footprints:LED_D3.0mm-4" H 6300 6400 50  0001 C CNN
F 3 "" H 6300 6400 50  0001 C CNN
	1    6300 6450
	-1   0    0    1   
$EndComp
Wire Wire Line
	6500 6250 6550 6250
Wire Wire Line
	6500 6450 6550 6450
Wire Wire Line
	6500 6650 6550 6650
$Comp
L R R10
U 1 1 5AA7AE3F
P 6650 6250
F 0 "R10" V 6700 6350 50  0000 L CNN
F 1 "R" V 6650 6200 50  0000 L CNN
F 2 "Resistors_SMD:R_0805_HandSoldering" H 6650 6250 50  0001 C CNN
F 3 "" H 6650 6250 50  0001 C CNN
	1    6650 6250
	0    1    1    0   
$EndComp
$Comp
L R R12
U 1 1 5AA7AE46
P 6650 6450
F 0 "R12" V 6700 6550 50  0000 L CNN
F 1 "R" V 6650 6400 50  0000 L CNN
F 2 "Resistors_SMD:R_0805_HandSoldering" H 6650 6450 50  0001 C CNN
F 3 "" H 6650 6450 50  0001 C CNN
	1    6650 6450
	0    1    1    0   
$EndComp
$Comp
L R R14
U 1 1 5AA7AE4D
P 6650 6650
F 0 "R14" V 6700 6750 50  0000 L CNN
F 1 "R" V 6650 6600 50  0000 L CNN
F 2 "Resistors_SMD:R_0805_HandSoldering" H 6650 6650 50  0001 C CNN
F 3 "" H 6650 6650 50  0001 C CNN
	1    6650 6650
	0    1    1    0   
$EndComp
Wire Wire Line
	6750 6250 6800 6250
Wire Wire Line
	6800 5600 6800 10800
Wire Wire Line
	6750 6450 6900 6450
Wire Wire Line
	6900 5800 6900 11000
Wire Wire Line
	6750 6650 7000 6650
Wire Wire Line
	7000 6000 7000 11200
Wire Wire Line
	6100 6450 6000 6450
Wire Wire Line
	6000 6450 6000 6800
Connection ~ 6800 5600
Connection ~ 6900 5800
Connection ~ 7000 6000
Wire Wire Line
	6000 6800 4800 6800
Connection ~ 4950 6800
$Comp
L LED_ARGB LED3
U 1 1 5AA7AE61
P 5250 7100
F 0 "LED3" H 5250 7470 50  0000 C CNN
F 1 "LED_ARGB" H 5250 6750 50  0000 C CNN
F 2 "chordboard-footprints:LED_D3.0mm-4" H 5250 7050 50  0001 C CNN
F 3 "" H 5250 7050 50  0001 C CNN
	1    5250 7100
	-1   0    0    1   
$EndComp
Wire Wire Line
	5450 6900 5500 6900
Wire Wire Line
	5450 7100 5500 7100
Wire Wire Line
	5450 7300 5500 7300
$Comp
L R R15
U 1 1 5AA7AE6B
P 5600 6900
F 0 "R15" V 5650 7000 50  0000 L CNN
F 1 "R" V 5600 6850 50  0000 L CNN
F 2 "Resistors_SMD:R_0805_HandSoldering" H 5600 6900 50  0001 C CNN
F 3 "" H 5600 6900 50  0001 C CNN
	1    5600 6900
	0    1    1    0   
$EndComp
$Comp
L R R17
U 1 1 5AA7AE72
P 5600 7100
F 0 "R17" V 5650 7200 50  0000 L CNN
F 1 "R" V 5600 7050 50  0000 L CNN
F 2 "Resistors_SMD:R_0805_HandSoldering" H 5600 7100 50  0001 C CNN
F 3 "" H 5600 7100 50  0001 C CNN
	1    5600 7100
	0    1    1    0   
$EndComp
$Comp
L R R19
U 1 1 5AA7AE79
P 5600 7300
F 0 "R19" V 5650 7400 50  0000 L CNN
F 1 "R" V 5600 7250 50  0000 L CNN
F 2 "Resistors_SMD:R_0805_HandSoldering" H 5600 7300 50  0001 C CNN
F 3 "" H 5600 7300 50  0001 C CNN
	1    5600 7300
	0    1    1    0   
$EndComp
Wire Wire Line
	5750 6900 5700 6900
Wire Wire Line
	5850 7100 5700 7100
Wire Wire Line
	5950 7300 5700 7300
Wire Wire Line
	5050 7100 4950 7100
Wire Wire Line
	4950 7100 4950 7450
Connection ~ 5750 6250
Connection ~ 5850 6450
Connection ~ 5950 6650
$Comp
L LED_ARGB LED4
U 1 1 5AA7AE88
P 6300 7100
F 0 "LED4" H 6300 7470 50  0000 C CNN
F 1 "LED_ARGB" H 6300 6750 50  0000 C CNN
F 2 "chordboard-footprints:LED_D3.0mm-4" H 6300 7050 50  0001 C CNN
F 3 "" H 6300 7050 50  0001 C CNN
	1    6300 7100
	-1   0    0    1   
$EndComp
Wire Wire Line
	6500 6900 6550 6900
Wire Wire Line
	6500 7100 6550 7100
Wire Wire Line
	6500 7300 6550 7300
$Comp
L R R16
U 1 1 5AA7AE92
P 6650 6900
F 0 "R16" V 6700 7000 50  0000 L CNN
F 1 "R" V 6650 6850 50  0000 L CNN
F 2 "Resistors_SMD:R_0805_HandSoldering" H 6650 6900 50  0001 C CNN
F 3 "" H 6650 6900 50  0001 C CNN
	1    6650 6900
	0    1    1    0   
$EndComp
$Comp
L R R18
U 1 1 5AA7AE99
P 6650 7100
F 0 "R18" V 6700 7200 50  0000 L CNN
F 1 "R" V 6650 7050 50  0000 L CNN
F 2 "Resistors_SMD:R_0805_HandSoldering" H 6650 7100 50  0001 C CNN
F 3 "" H 6650 7100 50  0001 C CNN
	1    6650 7100
	0    1    1    0   
$EndComp
$Comp
L R R20
U 1 1 5AA7AEA0
P 6650 7300
F 0 "R20" V 6700 7400 50  0000 L CNN
F 1 "R" V 6650 7250 50  0000 L CNN
F 2 "Resistors_SMD:R_0805_HandSoldering" H 6650 7300 50  0001 C CNN
F 3 "" H 6650 7300 50  0001 C CNN
	1    6650 7300
	0    1    1    0   
$EndComp
Wire Wire Line
	6800 6900 6750 6900
Wire Wire Line
	6900 7100 6750 7100
Wire Wire Line
	7000 7300 6750 7300
Wire Wire Line
	6100 7100 6000 7100
Wire Wire Line
	6000 7100 6000 7450
Connection ~ 6800 6250
Connection ~ 6900 6450
Connection ~ 7000 6650
Wire Wire Line
	6000 7450 4800 7450
Connection ~ 4950 7450
$Comp
L LED_ARGB LED5
U 1 1 5AA7AEB1
P 5250 7750
F 0 "LED5" H 5250 8120 50  0000 C CNN
F 1 "LED_ARGB" H 5250 7400 50  0000 C CNN
F 2 "chordboard-footprints:LED_D3.0mm-4" H 5250 7700 50  0001 C CNN
F 3 "" H 5250 7700 50  0001 C CNN
	1    5250 7750
	-1   0    0    1   
$EndComp
Wire Wire Line
	5450 7550 5500 7550
Wire Wire Line
	5450 7750 5500 7750
Wire Wire Line
	5450 7950 5500 7950
$Comp
L R R21
U 1 1 5AA7AEBB
P 5600 7550
F 0 "R21" V 5650 7650 50  0000 L CNN
F 1 "R" V 5600 7500 50  0000 L CNN
F 2 "Resistors_SMD:R_0805_HandSoldering" H 5600 7550 50  0001 C CNN
F 3 "" H 5600 7550 50  0001 C CNN
	1    5600 7550
	0    1    1    0   
$EndComp
$Comp
L R R23
U 1 1 5AA7AEC2
P 5600 7750
F 0 "R23" V 5650 7850 50  0000 L CNN
F 1 "R" V 5600 7700 50  0000 L CNN
F 2 "Resistors_SMD:R_0805_HandSoldering" H 5600 7750 50  0001 C CNN
F 3 "" H 5600 7750 50  0001 C CNN
	1    5600 7750
	0    1    1    0   
$EndComp
$Comp
L R R25
U 1 1 5AA7AEC9
P 5600 7950
F 0 "R25" V 5650 8050 50  0000 L CNN
F 1 "R" V 5600 7900 50  0000 L CNN
F 2 "Resistors_SMD:R_0805_HandSoldering" H 5600 7950 50  0001 C CNN
F 3 "" H 5600 7950 50  0001 C CNN
	1    5600 7950
	0    1    1    0   
$EndComp
Wire Wire Line
	5750 7550 5700 7550
Wire Wire Line
	5850 7750 5700 7750
Wire Wire Line
	5950 7950 5700 7950
Wire Wire Line
	5050 7750 4950 7750
Wire Wire Line
	4950 7750 4950 8100
Connection ~ 5750 6900
Connection ~ 5850 7100
Connection ~ 5950 7300
$Comp
L LED_ARGB LED6
U 1 1 5AA7AED8
P 6300 7750
F 0 "LED6" H 6300 8120 50  0000 C CNN
F 1 "LED_ARGB" H 6300 7400 50  0000 C CNN
F 2 "chordboard-footprints:LED_D3.0mm-4" H 6300 7700 50  0001 C CNN
F 3 "" H 6300 7700 50  0001 C CNN
	1    6300 7750
	-1   0    0    1   
$EndComp
Wire Wire Line
	6500 7550 6550 7550
Wire Wire Line
	6500 7750 6550 7750
Wire Wire Line
	6500 7950 6550 7950
$Comp
L R R22
U 1 1 5AA7AEE2
P 6650 7550
F 0 "R22" V 6700 7650 50  0000 L CNN
F 1 "R" V 6650 7500 50  0000 L CNN
F 2 "Resistors_SMD:R_0805_HandSoldering" H 6650 7550 50  0001 C CNN
F 3 "" H 6650 7550 50  0001 C CNN
	1    6650 7550
	0    1    1    0   
$EndComp
$Comp
L R R24
U 1 1 5AA7AEE9
P 6650 7750
F 0 "R24" V 6700 7850 50  0000 L CNN
F 1 "R" V 6650 7700 50  0000 L CNN
F 2 "Resistors_SMD:R_0805_HandSoldering" H 6650 7750 50  0001 C CNN
F 3 "" H 6650 7750 50  0001 C CNN
	1    6650 7750
	0    1    1    0   
$EndComp
$Comp
L R R26
U 1 1 5AA7AEF0
P 6650 7950
F 0 "R26" V 6700 8050 50  0000 L CNN
F 1 "R" V 6650 7900 50  0000 L CNN
F 2 "Resistors_SMD:R_0805_HandSoldering" H 6650 7950 50  0001 C CNN
F 3 "" H 6650 7950 50  0001 C CNN
	1    6650 7950
	0    1    1    0   
$EndComp
Wire Wire Line
	6800 7550 6750 7550
Wire Wire Line
	6900 7750 6750 7750
Wire Wire Line
	7000 7950 6750 7950
Wire Wire Line
	6100 7750 6000 7750
Wire Wire Line
	6000 7750 6000 8100
Connection ~ 6800 6900
Connection ~ 6900 7100
Connection ~ 7000 7300
Wire Wire Line
	6000 8100 4800 8100
Connection ~ 4950 8100
$Comp
L LED_ARGB LED7
U 1 1 5AA7AF01
P 5250 8400
F 0 "LED7" H 5250 8770 50  0000 C CNN
F 1 "LED_ARGB" H 5250 8050 50  0000 C CNN
F 2 "chordboard-footprints:LED_D3.0mm-4" H 5250 8350 50  0001 C CNN
F 3 "" H 5250 8350 50  0001 C CNN
	1    5250 8400
	-1   0    0    1   
$EndComp
Wire Wire Line
	5450 8200 5500 8200
Wire Wire Line
	5450 8400 5500 8400
Wire Wire Line
	5450 8600 5500 8600
$Comp
L R R27
U 1 1 5AA7AF0B
P 5600 8200
F 0 "R27" V 5650 8300 50  0000 L CNN
F 1 "R" V 5600 8150 50  0000 L CNN
F 2 "Resistors_SMD:R_0805_HandSoldering" H 5600 8200 50  0001 C CNN
F 3 "" H 5600 8200 50  0001 C CNN
	1    5600 8200
	0    1    1    0   
$EndComp
$Comp
L R R29
U 1 1 5AA7AF12
P 5600 8400
F 0 "R29" V 5650 8500 50  0000 L CNN
F 1 "R" V 5600 8350 50  0000 L CNN
F 2 "Resistors_SMD:R_0805_HandSoldering" H 5600 8400 50  0001 C CNN
F 3 "" H 5600 8400 50  0001 C CNN
	1    5600 8400
	0    1    1    0   
$EndComp
$Comp
L R R31
U 1 1 5AA7AF19
P 5600 8600
F 0 "R31" V 5650 8700 50  0000 L CNN
F 1 "R" V 5600 8550 50  0000 L CNN
F 2 "Resistors_SMD:R_0805_HandSoldering" H 5600 8600 50  0001 C CNN
F 3 "" H 5600 8600 50  0001 C CNN
	1    5600 8600
	0    1    1    0   
$EndComp
Wire Wire Line
	5750 8200 5700 8200
Wire Wire Line
	5850 8400 5700 8400
Wire Wire Line
	5950 8600 5700 8600
Wire Wire Line
	5050 8400 4950 8400
Wire Wire Line
	4950 8400 4950 8750
Connection ~ 5750 7550
Connection ~ 5850 7750
Connection ~ 5950 7950
$Comp
L LED_ARGB LED8
U 1 1 5AA7AF28
P 6300 8400
F 0 "LED8" H 6300 8770 50  0000 C CNN
F 1 "LED_ARGB" H 6300 8050 50  0000 C CNN
F 2 "chordboard-footprints:LED_D3.0mm-4" H 6300 8350 50  0001 C CNN
F 3 "" H 6300 8350 50  0001 C CNN
	1    6300 8400
	-1   0    0    1   
$EndComp
Wire Wire Line
	6500 8200 6550 8200
Wire Wire Line
	6500 8400 6550 8400
Wire Wire Line
	6500 8600 6550 8600
$Comp
L R R28
U 1 1 5AA7AF32
P 6650 8200
F 0 "R28" V 6700 8300 50  0000 L CNN
F 1 "R" V 6650 8150 50  0000 L CNN
F 2 "Resistors_SMD:R_0805_HandSoldering" H 6650 8200 50  0001 C CNN
F 3 "" H 6650 8200 50  0001 C CNN
	1    6650 8200
	0    1    1    0   
$EndComp
$Comp
L R R30
U 1 1 5AA7AF39
P 6650 8400
F 0 "R30" V 6700 8500 50  0000 L CNN
F 1 "R" V 6650 8350 50  0000 L CNN
F 2 "Resistors_SMD:R_0805_HandSoldering" H 6650 8400 50  0001 C CNN
F 3 "" H 6650 8400 50  0001 C CNN
	1    6650 8400
	0    1    1    0   
$EndComp
$Comp
L R R32
U 1 1 5AA7AF40
P 6650 8600
F 0 "R32" V 6700 8700 50  0000 L CNN
F 1 "R" V 6650 8550 50  0000 L CNN
F 2 "Resistors_SMD:R_0805_HandSoldering" H 6650 8600 50  0001 C CNN
F 3 "" H 6650 8600 50  0001 C CNN
	1    6650 8600
	0    1    1    0   
$EndComp
Wire Wire Line
	6800 8200 6750 8200
Wire Wire Line
	6900 8400 6750 8400
Wire Wire Line
	7000 8600 6750 8600
Wire Wire Line
	6100 8400 6000 8400
Wire Wire Line
	6000 8400 6000 8750
Connection ~ 6800 7550
Connection ~ 6900 7750
Connection ~ 7000 7950
Wire Wire Line
	6000 8750 4800 8750
Connection ~ 4950 8750
$Comp
L LED_ARGB LED9
U 1 1 5AA7AF51
P 5250 9050
F 0 "LED9" H 5250 9420 50  0000 C CNN
F 1 "LED_ARGB" H 5250 8700 50  0000 C CNN
F 2 "chordboard-footprints:LED_D3.0mm-4" H 5250 9000 50  0001 C CNN
F 3 "" H 5250 9000 50  0001 C CNN
	1    5250 9050
	-1   0    0    1   
$EndComp
Wire Wire Line
	5450 8850 5500 8850
Wire Wire Line
	5450 9050 5500 9050
Wire Wire Line
	5450 9250 5500 9250
$Comp
L R R33
U 1 1 5AA7AF5B
P 5600 8850
F 0 "R33" V 5650 8950 50  0000 L CNN
F 1 "R" V 5600 8800 50  0000 L CNN
F 2 "Resistors_SMD:R_0805_HandSoldering" H 5600 8850 50  0001 C CNN
F 3 "" H 5600 8850 50  0001 C CNN
	1    5600 8850
	0    1    1    0   
$EndComp
$Comp
L R R35
U 1 1 5AA7AF62
P 5600 9050
F 0 "R35" V 5650 9150 50  0000 L CNN
F 1 "R" V 5600 9000 50  0000 L CNN
F 2 "Resistors_SMD:R_0805_HandSoldering" H 5600 9050 50  0001 C CNN
F 3 "" H 5600 9050 50  0001 C CNN
	1    5600 9050
	0    1    1    0   
$EndComp
$Comp
L R R37
U 1 1 5AA7AF69
P 5600 9250
F 0 "R37" V 5650 9350 50  0000 L CNN
F 1 "R" V 5600 9200 50  0000 L CNN
F 2 "Resistors_SMD:R_0805_HandSoldering" H 5600 9250 50  0001 C CNN
F 3 "" H 5600 9250 50  0001 C CNN
	1    5600 9250
	0    1    1    0   
$EndComp
Wire Wire Line
	5750 8850 5700 8850
Wire Wire Line
	5850 9050 5700 9050
Wire Wire Line
	5950 9250 5700 9250
Wire Wire Line
	5050 9050 4950 9050
Wire Wire Line
	4950 9050 4950 9400
Connection ~ 5750 8200
Connection ~ 5850 8400
Connection ~ 5950 8600
$Comp
L LED_ARGB LED10
U 1 1 5AA7AF78
P 6300 9050
F 0 "LED10" H 6300 9420 50  0000 C CNN
F 1 "LED_ARGB" H 6300 8700 50  0000 C CNN
F 2 "chordboard-footprints:LED_D3.0mm-4" H 6300 9000 50  0001 C CNN
F 3 "" H 6300 9000 50  0001 C CNN
	1    6300 9050
	-1   0    0    1   
$EndComp
Wire Wire Line
	6500 8850 6550 8850
Wire Wire Line
	6500 9050 6550 9050
Wire Wire Line
	6500 9250 6550 9250
$Comp
L R R34
U 1 1 5AA7AF82
P 6650 8850
F 0 "R34" V 6700 8950 50  0000 L CNN
F 1 "R" V 6650 8800 50  0000 L CNN
F 2 "Resistors_SMD:R_0805_HandSoldering" H 6650 8850 50  0001 C CNN
F 3 "" H 6650 8850 50  0001 C CNN
	1    6650 8850
	0    1    1    0   
$EndComp
$Comp
L R R36
U 1 1 5AA7AF89
P 6650 9050
F 0 "R36" V 6700 9150 50  0000 L CNN
F 1 "R" V 6650 9000 50  0000 L CNN
F 2 "Resistors_SMD:R_0805_HandSoldering" H 6650 9050 50  0001 C CNN
F 3 "" H 6650 9050 50  0001 C CNN
	1    6650 9050
	0    1    1    0   
$EndComp
$Comp
L R R38
U 1 1 5AA7AF90
P 6650 9250
F 0 "R38" V 6700 9350 50  0000 L CNN
F 1 "R" V 6650 9200 50  0000 L CNN
F 2 "Resistors_SMD:R_0805_HandSoldering" H 6650 9250 50  0001 C CNN
F 3 "" H 6650 9250 50  0001 C CNN
	1    6650 9250
	0    1    1    0   
$EndComp
Wire Wire Line
	6800 8850 6750 8850
Wire Wire Line
	6900 9050 6750 9050
Wire Wire Line
	7000 9250 6750 9250
Wire Wire Line
	6100 9050 6000 9050
Wire Wire Line
	6000 9050 6000 9400
Connection ~ 6800 8200
Connection ~ 6900 8400
Connection ~ 7000 8600
Wire Wire Line
	6000 9400 4800 9400
Connection ~ 4950 9400
$Comp
L LED_ARGB LED11
U 1 1 5AA7AFA1
P 5250 9700
F 0 "LED11" H 5250 10070 50  0000 C CNN
F 1 "LED_ARGB" H 5250 9350 50  0000 C CNN
F 2 "chordboard-footprints:LED_D3.0mm-4" H 5250 9650 50  0001 C CNN
F 3 "" H 5250 9650 50  0001 C CNN
	1    5250 9700
	-1   0    0    1   
$EndComp
Wire Wire Line
	5450 9500 5500 9500
Wire Wire Line
	5450 9700 5500 9700
Wire Wire Line
	5450 9900 5500 9900
$Comp
L R R39
U 1 1 5AA7AFAB
P 5600 9500
F 0 "R39" V 5650 9600 50  0000 L CNN
F 1 "R" V 5600 9450 50  0000 L CNN
F 2 "Resistors_SMD:R_0805_HandSoldering" H 5600 9500 50  0001 C CNN
F 3 "" H 5600 9500 50  0001 C CNN
	1    5600 9500
	0    1    1    0   
$EndComp
$Comp
L R R41
U 1 1 5AA7AFB2
P 5600 9700
F 0 "R41" V 5650 9800 50  0000 L CNN
F 1 "R" V 5600 9650 50  0000 L CNN
F 2 "Resistors_SMD:R_0805_HandSoldering" H 5600 9700 50  0001 C CNN
F 3 "" H 5600 9700 50  0001 C CNN
	1    5600 9700
	0    1    1    0   
$EndComp
$Comp
L R R43
U 1 1 5AA7AFB9
P 5600 9900
F 0 "R43" V 5650 10000 50  0000 L CNN
F 1 "R" V 5600 9850 50  0000 L CNN
F 2 "Resistors_SMD:R_0805_HandSoldering" H 5600 9900 50  0001 C CNN
F 3 "" H 5600 9900 50  0001 C CNN
	1    5600 9900
	0    1    1    0   
$EndComp
Wire Wire Line
	5750 9500 5700 9500
Wire Wire Line
	5850 9700 5700 9700
Wire Wire Line
	5950 9900 5700 9900
Wire Wire Line
	5050 9700 4950 9700
Wire Wire Line
	4950 9700 4950 10050
Connection ~ 5750 8850
Connection ~ 5850 9050
Connection ~ 5950 9250
$Comp
L LED_ARGB LED12
U 1 1 5AA7AFC8
P 6300 9700
F 0 "LED12" H 6300 10070 50  0000 C CNN
F 1 "LED_ARGB" H 6300 9350 50  0000 C CNN
F 2 "chordboard-footprints:LED_D3.0mm-4" H 6300 9650 50  0001 C CNN
F 3 "" H 6300 9650 50  0001 C CNN
	1    6300 9700
	-1   0    0    1   
$EndComp
Wire Wire Line
	6500 9500 6550 9500
Wire Wire Line
	6500 9700 6550 9700
Wire Wire Line
	6500 9900 6550 9900
$Comp
L R R40
U 1 1 5AA7AFD2
P 6650 9500
F 0 "R40" V 6700 9600 50  0000 L CNN
F 1 "R" V 6650 9450 50  0000 L CNN
F 2 "Resistors_SMD:R_0805_HandSoldering" H 6650 9500 50  0001 C CNN
F 3 "" H 6650 9500 50  0001 C CNN
	1    6650 9500
	0    1    1    0   
$EndComp
$Comp
L R R42
U 1 1 5AA7AFD9
P 6650 9700
F 0 "R42" V 6700 9800 50  0000 L CNN
F 1 "R" V 6650 9650 50  0000 L CNN
F 2 "Resistors_SMD:R_0805_HandSoldering" H 6650 9700 50  0001 C CNN
F 3 "" H 6650 9700 50  0001 C CNN
	1    6650 9700
	0    1    1    0   
$EndComp
$Comp
L R R44
U 1 1 5AA7AFE0
P 6650 9900
F 0 "R44" V 6700 10000 50  0000 L CNN
F 1 "R" V 6650 9850 50  0000 L CNN
F 2 "Resistors_SMD:R_0805_HandSoldering" H 6650 9900 50  0001 C CNN
F 3 "" H 6650 9900 50  0001 C CNN
	1    6650 9900
	0    1    1    0   
$EndComp
Wire Wire Line
	6800 9500 6750 9500
Wire Wire Line
	6900 9700 6750 9700
Wire Wire Line
	7000 9900 6750 9900
Wire Wire Line
	6100 9700 6000 9700
Wire Wire Line
	6000 9700 6000 10050
Connection ~ 6800 8850
Connection ~ 6900 9050
Connection ~ 7000 9250
Wire Wire Line
	6000 10050 4800 10050
Connection ~ 4950 10050
$Comp
L LED_ARGB LED13
U 1 1 5AA7AFF1
P 5250 10350
F 0 "LED13" H 5250 10720 50  0000 C CNN
F 1 "LED_ARGB" H 5250 10000 50  0000 C CNN
F 2 "chordboard-footprints:LED_D3.0mm-4" H 5250 10300 50  0001 C CNN
F 3 "" H 5250 10300 50  0001 C CNN
	1    5250 10350
	-1   0    0    1   
$EndComp
Wire Wire Line
	5450 10150 5500 10150
Wire Wire Line
	5450 10350 5500 10350
Wire Wire Line
	5450 10550 5500 10550
$Comp
L R R45
U 1 1 5AA7AFFB
P 5600 10150
F 0 "R45" V 5650 10250 50  0000 L CNN
F 1 "R" V 5600 10100 50  0000 L CNN
F 2 "Resistors_SMD:R_0805_HandSoldering" H 5600 10150 50  0001 C CNN
F 3 "" H 5600 10150 50  0001 C CNN
	1    5600 10150
	0    1    1    0   
$EndComp
$Comp
L R R47
U 1 1 5AA7B002
P 5600 10350
F 0 "R47" V 5650 10450 50  0000 L CNN
F 1 "R" V 5600 10300 50  0000 L CNN
F 2 "Resistors_SMD:R_0805_HandSoldering" H 5600 10350 50  0001 C CNN
F 3 "" H 5600 10350 50  0001 C CNN
	1    5600 10350
	0    1    1    0   
$EndComp
$Comp
L R R49
U 1 1 5AA7B009
P 5600 10550
F 0 "R49" V 5650 10650 50  0000 L CNN
F 1 "R" V 5600 10500 50  0000 L CNN
F 2 "Resistors_SMD:R_0805_HandSoldering" H 5600 10550 50  0001 C CNN
F 3 "" H 5600 10550 50  0001 C CNN
	1    5600 10550
	0    1    1    0   
$EndComp
Wire Wire Line
	5750 10150 5700 10150
Wire Wire Line
	5850 10350 5700 10350
Wire Wire Line
	5950 10550 5700 10550
Wire Wire Line
	5050 10350 4950 10350
Wire Wire Line
	4950 10350 4950 10700
Connection ~ 5750 9500
Connection ~ 5850 9700
Connection ~ 5950 9900
$Comp
L LED_ARGB LED14
U 1 1 5AA7B018
P 6300 10350
F 0 "LED14" H 6300 10720 50  0000 C CNN
F 1 "LED_ARGB" H 6300 10000 50  0000 C CNN
F 2 "chordboard-footprints:LED_D3.0mm-4" H 6300 10300 50  0001 C CNN
F 3 "" H 6300 10300 50  0001 C CNN
	1    6300 10350
	-1   0    0    1   
$EndComp
Wire Wire Line
	6500 10150 6550 10150
Wire Wire Line
	6500 10350 6550 10350
Wire Wire Line
	6500 10550 6550 10550
$Comp
L R R46
U 1 1 5AA7B022
P 6650 10150
F 0 "R46" V 6700 10250 50  0000 L CNN
F 1 "R" V 6650 10100 50  0000 L CNN
F 2 "Resistors_SMD:R_0805_HandSoldering" H 6650 10150 50  0001 C CNN
F 3 "" H 6650 10150 50  0001 C CNN
	1    6650 10150
	0    1    1    0   
$EndComp
$Comp
L R R48
U 1 1 5AA7B029
P 6650 10350
F 0 "R48" V 6700 10450 50  0000 L CNN
F 1 "R" V 6650 10300 50  0000 L CNN
F 2 "Resistors_SMD:R_0805_HandSoldering" H 6650 10350 50  0001 C CNN
F 3 "" H 6650 10350 50  0001 C CNN
	1    6650 10350
	0    1    1    0   
$EndComp
$Comp
L R R50
U 1 1 5AA7B030
P 6650 10550
F 0 "R50" V 6700 10650 50  0000 L CNN
F 1 "R" V 6650 10500 50  0000 L CNN
F 2 "Resistors_SMD:R_0805_HandSoldering" H 6650 10550 50  0001 C CNN
F 3 "" H 6650 10550 50  0001 C CNN
	1    6650 10550
	0    1    1    0   
$EndComp
Wire Wire Line
	6800 10150 6750 10150
Wire Wire Line
	6900 10350 6750 10350
Wire Wire Line
	7000 10550 6750 10550
Wire Wire Line
	6100 10350 6000 10350
Wire Wire Line
	6000 10350 6000 10700
Connection ~ 6800 9500
Connection ~ 6900 9700
Connection ~ 7000 9900
Wire Wire Line
	6000 10700 4800 10700
Connection ~ 4950 10700
$Comp
L LED_ARGB LED15
U 1 1 5AA7B041
P 5250 11000
F 0 "LED15" H 5250 11370 50  0000 C CNN
F 1 "LED_ARGB" H 5250 10650 50  0000 C CNN
F 2 "chordboard-footprints:LED_D3.0mm-4" H 5250 10950 50  0001 C CNN
F 3 "" H 5250 10950 50  0001 C CNN
	1    5250 11000
	-1   0    0    1   
$EndComp
Wire Wire Line
	5450 10800 5500 10800
Wire Wire Line
	5450 11000 5500 11000
Wire Wire Line
	5450 11200 5500 11200
$Comp
L R R51
U 1 1 5AA7B04B
P 5600 10800
F 0 "R51" V 5650 10900 50  0000 L CNN
F 1 "R" V 5600 10750 50  0000 L CNN
F 2 "Resistors_SMD:R_0805_HandSoldering" H 5600 10800 50  0001 C CNN
F 3 "" H 5600 10800 50  0001 C CNN
	1    5600 10800
	0    1    1    0   
$EndComp
$Comp
L R R53
U 1 1 5AA7B052
P 5600 11000
F 0 "R53" V 5650 11100 50  0000 L CNN
F 1 "R" V 5600 10950 50  0000 L CNN
F 2 "Resistors_SMD:R_0805_HandSoldering" H 5600 11000 50  0001 C CNN
F 3 "" H 5600 11000 50  0001 C CNN
	1    5600 11000
	0    1    1    0   
$EndComp
$Comp
L R R55
U 1 1 5AA7B059
P 5600 11200
F 0 "R55" V 5650 11300 50  0000 L CNN
F 1 "R" V 5600 11150 50  0000 L CNN
F 2 "Resistors_SMD:R_0805_HandSoldering" H 5600 11200 50  0001 C CNN
F 3 "" H 5600 11200 50  0001 C CNN
	1    5600 11200
	0    1    1    0   
$EndComp
Wire Wire Line
	5750 10800 5700 10800
Wire Wire Line
	5850 11000 5700 11000
Wire Wire Line
	5950 11200 5700 11200
Wire Wire Line
	5050 11000 4950 11000
Wire Wire Line
	4950 11000 4950 11350
Connection ~ 5750 10150
Connection ~ 5850 10350
Connection ~ 5950 10550
$Comp
L LED_ARGB LED16
U 1 1 5AA7B068
P 6300 11000
F 0 "LED16" H 6300 11370 50  0000 C CNN
F 1 "LED_ARGB" H 6300 10650 50  0000 C CNN
F 2 "chordboard-footprints:LED_D3.0mm-4" H 6300 10950 50  0001 C CNN
F 3 "" H 6300 10950 50  0001 C CNN
	1    6300 11000
	-1   0    0    1   
$EndComp
Wire Wire Line
	6500 10800 6550 10800
Wire Wire Line
	6500 11000 6550 11000
Wire Wire Line
	6500 11200 6550 11200
$Comp
L R R52
U 1 1 5AA7B072
P 6650 10800
F 0 "R52" V 6700 10900 50  0000 L CNN
F 1 "R" V 6650 10750 50  0000 L CNN
F 2 "Resistors_SMD:R_0805_HandSoldering" H 6650 10800 50  0001 C CNN
F 3 "" H 6650 10800 50  0001 C CNN
	1    6650 10800
	0    1    1    0   
$EndComp
$Comp
L R R54
U 1 1 5AA7B079
P 6650 11000
F 0 "R54" V 6700 11100 50  0000 L CNN
F 1 "R" V 6650 10950 50  0000 L CNN
F 2 "Resistors_SMD:R_0805_HandSoldering" H 6650 11000 50  0001 C CNN
F 3 "" H 6650 11000 50  0001 C CNN
	1    6650 11000
	0    1    1    0   
$EndComp
$Comp
L R R56
U 1 1 5AA7B080
P 6650 11200
F 0 "R56" V 6700 11300 50  0000 L CNN
F 1 "R" V 6650 11150 50  0000 L CNN
F 2 "Resistors_SMD:R_0805_HandSoldering" H 6650 11200 50  0001 C CNN
F 3 "" H 6650 11200 50  0001 C CNN
	1    6650 11200
	0    1    1    0   
$EndComp
Wire Wire Line
	6800 10800 6750 10800
Wire Wire Line
	6900 11000 6750 11000
Wire Wire Line
	7000 11200 6750 11200
Wire Wire Line
	6100 11000 6000 11000
Wire Wire Line
	6000 11000 6000 11350
Connection ~ 6800 10150
Connection ~ 6900 10350
Connection ~ 7000 10550
Wire Wire Line
	6000 11350 4800 11350
Connection ~ 4950 11350
Text Label 5750 5600 0    60   ~ 0
Y0
Text Label 5850 5800 0    60   ~ 0
Y1
Text Label 5950 6000 0    60   ~ 0
Y2
Text Label 6800 5600 0    60   ~ 0
Y3
Text Label 6900 5800 0    60   ~ 0
Y4
Text Label 7000 6000 0    60   ~ 0
Y5
Text Label 4800 6800 2    60   ~ 0
X0
Text Label 4800 7450 2    60   ~ 0
X1
Text Label 4800 8100 2    60   ~ 0
X2
Text Label 4800 8750 2    60   ~ 0
X3
Text Label 4800 9400 2    60   ~ 0
X4
Text Label 4800 10050 2    60   ~ 0
X5
Text Label 4800 10700 2    60   ~ 0
X6
Text Label 4800 11350 2    60   ~ 0
X7
$Comp
L KSW K9
U 1 1 5AA7D641
P 8000 7250
F 0 "K9" H 7900 7300 60  0000 C CNN
F 1 "KSW" H 8150 7300 60  0000 C CNN
F 2 "chordboard-footprints:CHERRY_PCB_100H" H 8000 7250 60  0001 C CNN
F 3 "" H 8000 7250 60  0001 C CNN
	1    8000 7250
	-1   0    0    -1  
$EndComp
$Comp
L KSW K10
U 1 1 5AA7D648
P 8000 7350
F 0 "K10" H 7900 7400 60  0000 C CNN
F 1 "KSW" H 8150 7400 60  0000 C CNN
F 2 "chordboard-footprints:CHERRY_PCB_100H" H 8950 7400 60  0001 C CNN
F 3 "" H 8000 7350 60  0001 C CNN
	1    8000 7350
	-1   0    0    -1  
$EndComp
$Comp
L KSW K11
U 1 1 5AA7D64F
P 8000 7450
F 0 "K11" H 7900 7500 60  0000 C CNN
F 1 "KSW" H 8150 7500 60  0000 C CNN
F 2 "chordboard-footprints:CHERRY_PCB_100H" H 8950 7500 60  0001 C CNN
F 3 "" H 8000 7450 60  0001 C CNN
	1    8000 7450
	-1   0    0    -1  
$EndComp
$Comp
L KSW K12
U 1 1 5AA7D656
P 8000 7550
F 0 "K12" H 7900 7600 60  0000 C CNN
F 1 "KSW" H 8150 7600 60  0000 C CNN
F 2 "chordboard-footprints:CHERRY_PCB_100H" H 8950 7600 60  0001 C CNN
F 3 "" H 8000 7550 60  0001 C CNN
	1    8000 7550
	-1   0    0    -1  
$EndComp
$Comp
L KSW K13
U 1 1 5AA7D65D
P 8000 7650
F 0 "K13" H 7900 7700 60  0000 C CNN
F 1 "KSW" H 8150 7700 60  0000 C CNN
F 2 "chordboard-footprints:CHERRY_PCB_100H" H 8950 7700 60  0001 C CNN
F 3 "" H 8000 7650 60  0001 C CNN
	1    8000 7650
	-1   0    0    -1  
$EndComp
$Comp
L KSW K14
U 1 1 5AA7D664
P 8000 7750
F 0 "K14" H 7900 7800 60  0000 C CNN
F 1 "KSW" H 8150 7800 60  0000 C CNN
F 2 "chordboard-footprints:CHERRY_PCB_100H" H 8950 7800 60  0001 C CNN
F 3 "" H 8000 7750 60  0001 C CNN
	1    8000 7750
	-1   0    0    -1  
$EndComp
$Comp
L KSW K15
U 1 1 5AA7D66B
P 8000 7850
F 0 "K15" H 7900 7900 60  0000 C CNN
F 1 "KSW" H 8150 7900 60  0000 C CNN
F 2 "chordboard-footprints:CHERRY_PCB_100H" H 8950 7900 60  0001 C CNN
F 3 "" H 8000 7850 60  0001 C CNN
	1    8000 7850
	-1   0    0    -1  
$EndComp
$Comp
L KSW K1
U 1 1 5AA7D672
P 8000 6450
F 0 "K1" H 7900 6500 60  0000 C CNN
F 1 "KSW" H 8150 6500 60  0000 C CNN
F 2 "chordboard-footprints:CHERRY_PCB_100H" H 8950 6500 60  0001 C CNN
F 3 "" H 8000 6450 60  0001 C CNN
	1    8000 6450
	-1   0    0    -1  
$EndComp
$Comp
L KSW K2
U 1 1 5AA7D679
P 8000 6550
F 0 "K2" H 7900 6600 60  0000 C CNN
F 1 "KSW" H 8150 6600 60  0000 C CNN
F 2 "chordboard-footprints:CHERRY_PCB_100H" H 8950 6600 60  0001 C CNN
F 3 "" H 8000 6550 60  0001 C CNN
	1    8000 6550
	-1   0    0    -1  
$EndComp
$Comp
L KSW K3
U 1 1 5AA7D680
P 8000 6650
F 0 "K3" H 7900 6700 60  0000 C CNN
F 1 "KSW" H 8150 6700 60  0000 C CNN
F 2 "chordboard-footprints:CHERRY_PCB_100H" H 8950 6700 60  0001 C CNN
F 3 "" H 8000 6650 60  0001 C CNN
	1    8000 6650
	-1   0    0    -1  
$EndComp
$Comp
L KSW K4
U 1 1 5AA7D687
P 8000 6750
F 0 "K4" H 7900 6800 60  0000 C CNN
F 1 "KSW" H 8150 6800 60  0000 C CNN
F 2 "chordboard-footprints:CHERRY_PCB_100H" H 8950 6800 60  0001 C CNN
F 3 "" H 8000 6750 60  0001 C CNN
	1    8000 6750
	-1   0    0    -1  
$EndComp
$Comp
L KSW K5
U 1 1 5AA7D68E
P 8000 6850
F 0 "K5" H 7900 6900 60  0000 C CNN
F 1 "KSW" H 8150 6900 60  0000 C CNN
F 2 "chordboard-footprints:CHERRY_PCB_100H" H 8950 6900 60  0001 C CNN
F 3 "" H 8000 6850 60  0001 C CNN
	1    8000 6850
	-1   0    0    -1  
$EndComp
$Comp
L KSW K6
U 1 1 5AA7D695
P 8000 6950
F 0 "K6" H 7900 7000 60  0000 C CNN
F 1 "KSW" H 8150 7000 60  0000 C CNN
F 2 "chordboard-footprints:CHERRY_PCB_100H" H 8950 7000 60  0001 C CNN
F 3 "" H 8000 6950 60  0001 C CNN
	1    8000 6950
	-1   0    0    -1  
$EndComp
$Comp
L KSW K16
U 1 1 5AA7D69C
P 8000 7950
F 0 "K16" H 7900 8000 60  0000 C CNN
F 1 "KSW" H 8150 8000 60  0000 C CNN
F 2 "chordboard-footprints:CHERRY_PCB_100H" H 8950 8000 60  0001 C CNN
F 3 "" H 8000 7950 60  0001 C CNN
	1    8000 7950
	-1   0    0    -1  
$EndComp
$Comp
L KSW K7
U 1 1 5AA7D6A3
P 8000 7050
F 0 "K7" H 7900 7100 60  0000 C CNN
F 1 "KSW" H 8150 7100 60  0000 C CNN
F 2 "chordboard-footprints:CHERRY_PCB_100H" H 8950 7100 60  0001 C CNN
F 3 "" H 8000 7050 60  0001 C CNN
	1    8000 7050
	-1   0    0    -1  
$EndComp
$Comp
L KSW K8
U 1 1 5AA7D6AA
P 8000 7150
F 0 "K8" H 7900 7200 60  0000 C CNN
F 1 "KSW" H 8150 7200 60  0000 C CNN
F 2 "chordboard-footprints:CHERRY_PCB_100H" H 8950 7200 60  0001 C CNN
F 3 "" H 8000 7150 60  0001 C CNN
	1    8000 7150
	-1   0    0    -1  
$EndComp
Connection ~ 7800 7750
Connection ~ 7800 7650
Connection ~ 7800 7550
Connection ~ 7800 7450
Connection ~ 7800 7350
Connection ~ 7800 7250
Connection ~ 7800 7150
Connection ~ 7800 7050
Connection ~ 7800 6950
Connection ~ 7800 6850
Connection ~ 7800 6750
Connection ~ 7800 6650
Connection ~ 7800 6550
Wire Wire Line
	7800 6450 7800 8350
Wire Wire Line
	7850 6450 7800 6450
Wire Wire Line
	7850 6550 7800 6550
Wire Wire Line
	7850 6650 7800 6650
Wire Wire Line
	7850 6750 7800 6750
Wire Wire Line
	7850 6850 7800 6850
Wire Wire Line
	7850 6950 7800 6950
Wire Wire Line
	7850 7050 7800 7050
Wire Wire Line
	7850 7150 7800 7150
Wire Wire Line
	7850 7250 7800 7250
Wire Wire Line
	7850 7350 7800 7350
Wire Wire Line
	7850 7450 7800 7450
Wire Wire Line
	7850 7550 7800 7550
Wire Wire Line
	7850 7650 7800 7650
Wire Wire Line
	7850 7750 7800 7750
Wire Wire Line
	7850 7850 7800 7850
Connection ~ 7800 7850
Wire Wire Line
	7800 7950 7850 7950
Connection ~ 7800 7950
$Comp
L GND #PWR034
U 1 1 5AA7EB12
P 7800 8350
F 0 "#PWR034" H 7800 8100 50  0001 C CNN
F 1 "GND" H 7800 8200 50  0000 C CNN
F 2 "" H 7800 8350 50  0001 C CNN
F 3 "" H 7800 8350 50  0001 C CNN
	1    7800 8350
	1    0    0    -1  
$EndComp
Text GLabel 8150 6450 2    60   Input ~ 0
K0
Text GLabel 8150 6550 2    60   Input ~ 0
K1
Text GLabel 8150 6650 2    60   Input ~ 0
K2
Text GLabel 8150 6750 2    60   Input ~ 0
K3
Text GLabel 8150 6850 2    60   Input ~ 0
K4
Text GLabel 8150 6950 2    60   Input ~ 0
K5
Text GLabel 8150 7050 2    60   Input ~ 0
K6
Text GLabel 8150 7150 2    60   Input ~ 0
K7
Text GLabel 8150 7250 2    60   Input ~ 0
K8
Text GLabel 8150 7350 2    60   Input ~ 0
K9
Text GLabel 8150 7450 2    60   Input ~ 0
K10
Text GLabel 8150 7550 2    60   Input ~ 0
K11
Text GLabel 8150 7650 2    60   Input ~ 0
K12
Text GLabel 8150 7750 2    60   Input ~ 0
K13
Text GLabel 8150 7850 2    60   Input ~ 0
K14
Text GLabel 8150 7950 2    60   Input ~ 0
K15
Text GLabel 6800 5600 1    60   Input ~ 0
Y3
Text GLabel 6900 5800 1    60   Input ~ 0
Y4
Text GLabel 7000 6000 1    60   Input ~ 0
Y5
Text GLabel 5750 5600 1    60   Input ~ 0
Y0
Text GLabel 5850 5800 1    60   Input ~ 0
Y1
Text GLabel 5950 6000 1    60   Input ~ 0
Y2
Text GLabel 4800 6800 0    60   Input ~ 0
X0
Text GLabel 4800 7450 0    60   Input ~ 0
X1
Text GLabel 4800 8100 0    60   Input ~ 0
X2
Text GLabel 4800 8750 0    60   Input ~ 0
X3
Text GLabel 4800 9400 0    60   Input ~ 0
X4
Text GLabel 4800 10050 0    60   Input ~ 0
X5
Text GLabel 4800 10700 0    60   Input ~ 0
X6
Text GLabel 4800 11350 0    60   Input ~ 0
X7
$Comp
L CONN_02X20 J13
U 1 1 5AA864B1
P 9200 7300
F 0 "J13" H 9200 8350 50  0000 C CNN
F 1 "CONN_02X20" V 9200 7300 50  0000 C CNN
F 2 "Pin_Headers:Pin_Header_Straight_2x20_Pitch2.54mm" H 9200 6350 50  0001 C CNN
F 3 "" H 9200 6350 50  0001 C CNN
	1    9200 7300
	1    0    0    -1  
$EndComp
Wire Wire Line
	8150 6450 8950 6450
Wire Wire Line
	8950 6550 8150 6550
Wire Wire Line
	8150 6650 8950 6650
Wire Wire Line
	8950 6750 8150 6750
Wire Wire Line
	8150 6850 8950 6850
Wire Wire Line
	8150 6950 8950 6950
Wire Wire Line
	8150 7050 8950 7050
Wire Wire Line
	8150 7150 8950 7150
Wire Wire Line
	8150 7250 8950 7250
Wire Wire Line
	8150 7350 8950 7350
Wire Wire Line
	8150 7450 8950 7450
Wire Wire Line
	8150 7550 8950 7550
Wire Wire Line
	8150 7650 8950 7650
Wire Wire Line
	8150 7750 8950 7750
Wire Wire Line
	8150 7850 8950 7850
Wire Wire Line
	8150 7950 8950 7950
Wire Wire Line
	9450 8250 9550 8250
Wire Wire Line
	9550 8250 9550 8350
$Comp
L GND #PWR035
U 1 1 5AA877C4
P 9550 8350
F 0 "#PWR035" H 9550 8100 50  0001 C CNN
F 1 "GND" H 9550 8200 50  0000 C CNN
F 2 "" H 9550 8350 50  0001 C CNN
F 3 "" H 9550 8350 50  0001 C CNN
	1    9550 8350
	1    0    0    -1  
$EndComp
Text GLabel 9450 6350 2    60   Input ~ 0
X0
Text GLabel 9450 6450 2    60   Input ~ 0
X1
Text GLabel 9450 6550 2    60   Input ~ 0
X2
Text GLabel 9450 6650 2    60   Input ~ 0
X3
Text GLabel 9450 6750 2    60   Input ~ 0
X4
Text GLabel 9450 6850 2    60   Input ~ 0
X5
Text GLabel 9450 6950 2    60   Input ~ 0
X6
Text GLabel 9450 7050 2    60   Input ~ 0
X7
Text GLabel 9450 7150 2    60   Input ~ 0
Y0
Text GLabel 9450 7250 2    60   Input ~ 0
Y1
Text GLabel 9450 7350 2    60   Input ~ 0
Y2
Text GLabel 9450 7450 2    60   Input ~ 0
Y3
Text GLabel 9450 7550 2    60   Input ~ 0
Y4
Text GLabel 9450 7650 2    60   Input ~ 0
Y5
Wire Wire Line
	8950 6350 8750 6350
Wire Wire Line
	8750 6350 8750 6200
$Comp
L +3.3V #PWR036
U 1 1 5AA894B3
P 8750 6200
F 0 "#PWR036" H 8750 6050 50  0001 C CNN
F 1 "+3.3V" H 8750 6340 50  0000 C CNN
F 2 "" H 8750 6200 50  0001 C CNN
F 3 "" H 8750 6200 50  0001 C CNN
	1    8750 6200
	1    0    0    -1  
$EndComp
Connection ~ 12950 9050
Wire Wire Line
	12950 8950 12950 9400
Wire Wire Line
	12750 8950 12950 8950
Connection ~ 12950 9150
Connection ~ 11350 9150
Wire Wire Line
	11350 9150 11400 9150
Connection ~ 11350 9050
Wire Wire Line
	11350 9050 11400 9050
Wire Wire Line
	12250 6750 13200 6750
Wire Wire Line
	12950 9150 12750 9150
Wire Wire Line
	12750 9050 12950 9050
Connection ~ 12850 6750
Wire Wire Line
	11750 9150 11700 9150
Wire Wire Line
	11750 9050 11700 9050
Wire Wire Line
	11350 8950 11400 8950
Wire Wire Line
	11750 8950 11700 8950
Wire Wire Line
	11350 8850 11400 8850
Wire Wire Line
	11750 8850 11700 8850
Wire Wire Line
	11350 8750 11400 8750
Wire Wire Line
	11350 8650 11400 8650
Wire Wire Line
	11750 8750 11700 8750
Wire Wire Line
	11750 8650 11700 8650
Wire Wire Line
	11350 8550 11400 8550
Wire Wire Line
	11750 8550 11700 8550
Wire Wire Line
	11350 8450 11400 8450
Wire Wire Line
	11750 8450 11700 8450
Wire Wire Line
	11350 8250 11400 8250
Wire Wire Line
	11350 8150 11400 8150
Wire Wire Line
	11750 8250 11700 8250
Wire Wire Line
	11750 8150 11700 8150
Wire Wire Line
	11350 8050 11400 8050
Wire Wire Line
	11750 8050 11700 8050
Wire Wire Line
	11350 7950 11400 7950
Wire Wire Line
	11750 7950 11700 7950
Wire Wire Line
	11350 7850 11400 7850
Wire Wire Line
	11350 7750 11400 7750
Wire Wire Line
	11750 7850 11700 7850
Wire Wire Line
	11750 7750 11700 7750
Wire Wire Line
	11400 7650 11350 7650
Wire Wire Line
	11750 7650 11700 7650
Wire Wire Line
	11400 7550 11350 7550
Wire Wire Line
	11750 7550 11700 7550
Wire Wire Line
	13200 7100 13200 7200
Wire Wire Line
	13200 6750 13200 6900
Connection ~ 12250 9400
Wire Wire Line
	11350 9400 12250 9400
Connection ~ 12250 6750
Wire Wire Line
	11350 7550 11350 9400
Connection ~ 11350 7650
Connection ~ 11350 7750
Connection ~ 11350 7850
Connection ~ 11350 7950
Connection ~ 11350 8050
Connection ~ 11350 8150
Connection ~ 11350 8250
Connection ~ 11350 8450
Connection ~ 11350 8550
Connection ~ 11350 8650
Connection ~ 11350 8750
Connection ~ 11350 8850
Connection ~ 11350 8950
Wire Wire Line
	12250 6650 12250 7350
Wire Wire Line
	12850 7550 12750 7550
Wire Wire Line
	12850 6750 12850 7550
Wire Wire Line
	12250 9350 12250 10050
Wire Wire Line
	12750 8650 12950 8650
Wire Wire Line
	12750 8750 12950 8750
$Comp
L GND #PWR037
U 1 1 5AA8E522
P 12950 9400
F 0 "#PWR037" H 12950 9150 50  0001 C CNN
F 1 "GND" H 12950 9250 50  0000 C CNN
F 2 "" H 12950 9400 50  0001 C CNN
F 3 "" H 12950 9400 50  0001 C CNN
	1    12950 9400
	-1   0    0    -1  
$EndComp
$Comp
L C C8
U 1 1 5AA8E528
P 13200 7000
F 0 "C8" H 13210 7070 50  0000 L CNN
F 1 "0.1uF" H 13210 6920 50  0000 L CNN
F 2 "chordboard-footprints:C_0805_HandSoldering" H 13200 7000 50  0001 C CNN
F 3 "" H 13200 7000 50  0001 C CNN
	1    13200 7000
	-1   0    0    -1  
$EndComp
$Comp
L MCP23017 U13
U 1 1 5AA8E52F
P 12250 8350
F 0 "U13" H 12150 9375 50  0000 R CNN
F 1 "MCP23017" H 12150 9300 50  0000 R CNN
F 2 "Housings_DIP:DIP-28_W7.62mm" H 12300 7400 50  0001 L CNN
F 3 "" H 12500 9350 50  0001 C CNN
	1    12250 8350
	1    0    0    -1  
$EndComp
$Comp
L GND #PWR038
U 1 1 5AA8E536
P 12250 10050
F 0 "#PWR038" H 12250 9800 50  0001 C CNN
F 1 "GND" H 12250 9900 50  0000 C CNN
F 2 "" H 12250 10050 50  0001 C CNN
F 3 "" H 12250 10050 50  0001 C CNN
	1    12250 10050
	-1   0    0    -1  
$EndComp
$Comp
L GND #PWR039
U 1 1 5AA8E53C
P 13200 7200
F 0 "#PWR039" H 13200 6950 50  0001 C CNN
F 1 "GND" H 13200 7050 50  0000 C CNN
F 2 "" H 13200 7200 50  0001 C CNN
F 3 "" H 13200 7200 50  0001 C CNN
	1    13200 7200
	-1   0    0    -1  
$EndComp
$Comp
L +3.3V #PWR040
U 1 1 5AA8E542
P 12250 6650
F 0 "#PWR040" H 12250 6500 50  0001 C CNN
F 1 "+3.3V" H 12250 6790 50  0000 C CNN
F 2 "" H 12250 6650 50  0000 C CNN
F 3 "" H 12250 6650 50  0000 C CNN
	1    12250 6650
	1    0    0    -1  
$EndComp
Text Label 12950 8750 0    60   ~ 0
SDA
Text Label 12950 8650 0    60   ~ 0
SCL
Connection ~ 16300 7800
Wire Wire Line
	16500 7800 16500 7650
Connection ~ 16300 7250
Wire Wire Line
	16500 7250 16500 7450
Wire Wire Line
	14900 7250 16500 7250
Wire Wire Line
	15000 6650 15000 7450
Wire Wire Line
	15000 8950 15000 9100
Wire Wire Line
	15000 9100 15100 9100
Wire Wire Line
	15100 9100 15100 8950
Wire Wire Line
	15050 9100 15050 9450
Connection ~ 15050 9100
Wire Wire Line
	14600 7250 14600 7450
Wire Wire Line
	14600 7250 14700 7250
Connection ~ 15000 7250
Wire Wire Line
	16050 7250 16050 7450
Wire Wire Line
	16050 7650 16050 8000
Wire Wire Line
	16300 7250 16300 7450
Connection ~ 16050 7250
Wire Wire Line
	16300 7650 16300 7800
Wire Wire Line
	16050 7800 16500 7800
Connection ~ 16050 7800
$Comp
L R RS3
U 1 1 5AA8F29F
P 14800 7250
F 0 "RS3" V 14700 7200 50  0000 C CNN
F 1 "10K" V 14800 7250 50  0000 C CNN
F 2 "Resistors_SMD:R_1206_HandSoldering" V 14730 7250 50  0001 C CNN
F 3 "" H 14800 7250 50  0000 C CNN
	1    14800 7250
	0    1    1    0   
$EndComp
Text Label 14200 8800 2    60   ~ 0
LED_LOAD
Text Label 14200 8700 2    60   ~ 0
LED_CLK
Text Label 14200 8600 2    60   ~ 0
LED_DIN
$Comp
L CP CP3
U 1 1 5AA8F2A9
P 16300 7550
F 0 "CP3" H 16310 7620 50  0000 L CNN
F 1 "10uF" H 16310 7470 50  0000 L CNN
F 2 "Capacitors_SMD:CP_Elec_4x4.5" H 16300 7550 50  0001 C CNN
F 3 "" H 16300 7550 50  0001 C CNN
	1    16300 7550
	1    0    0    -1  
$EndComp
$Comp
L GND #PWR041
U 1 1 5AA8F2B0
P 16050 8000
F 0 "#PWR041" H 16050 7750 50  0001 C CNN
F 1 "GND" H 16050 7850 50  0000 C CNN
F 2 "" H 16050 8000 50  0000 C CNN
F 3 "" H 16050 8000 50  0000 C CNN
	1    16050 8000
	1    0    0    -1  
$EndComp
$Comp
L C C9
U 1 1 5AA8F2B6
P 16050 7550
F 0 "C9" H 16060 7620 50  0000 L CNN
F 1 "0.1uF" H 16060 7470 50  0000 L CNN
F 2 "chordboard-footprints:C_0805_HandSoldering" H 16050 7550 50  0001 C CNN
F 3 "" H 16050 7550 50  0001 C CNN
	1    16050 7550
	-1   0    0    -1  
$EndComp
$Comp
L GND #PWR042
U 1 1 5AA8F2BD
P 15050 9450
F 0 "#PWR042" H 15050 9200 50  0001 C CNN
F 1 "GND" H 15050 9300 50  0000 C CNN
F 2 "" H 15050 9450 50  0000 C CNN
F 3 "" H 15050 9450 50  0000 C CNN
	1    15050 9450
	1    0    0    -1  
$EndComp
Text Label 14200 8450 2    60   ~ 0
Y7
Text Label 14200 8350 2    60   ~ 0
Y6
Text Label 14200 8250 2    60   ~ 0
Y5
Text Label 14200 8150 2    60   ~ 0
Y4
Text Label 14200 8050 2    60   ~ 0
Y3
Text Label 14200 7950 2    60   ~ 0
Y2
Text Label 14200 7850 2    60   ~ 0
Y1
Text Label 15500 7850 0    60   ~ 0
X1
Text Label 15500 7950 0    60   ~ 0
X2
Text Label 15500 8050 0    60   ~ 0
X3
Text Label 15500 8150 0    60   ~ 0
X4
Text Label 15500 8250 0    60   ~ 0
X5
Text Label 15500 8350 0    60   ~ 0
X6
Text Label 15500 8450 0    60   ~ 0
X7
$Comp
L +5V #PWR043
U 1 1 5AA8F2D1
P 15000 6650
F 0 "#PWR043" H 15000 6500 50  0001 C CNN
F 1 "+5V" H 15000 6790 50  0000 C CNN
F 2 "" H 15000 6650 50  0001 C CNN
F 3 "" H 15000 6650 50  0001 C CNN
	1    15000 6650
	1    0    0    -1  
$EndComp
Text Label 14200 7750 2    60   ~ 0
Y0
Text Label 15500 7750 0    60   ~ 0
X0
$Comp
L MAX7219 U14
U 1 1 5AA8F2D9
P 14300 8850
F 0 "U14" H 14400 10200 60  0000 C CNN
F 1 "MAX7219" H 14850 9550 60  0000 C CNN
F 2 "Housings_DIP:DIP-24_W7.62mm" H 14300 8650 40  0001 L CIN
F 3 "https://datasheets.maximintegrated.com/en/ds/MAX7219-MAX7221.pdf" H 14300 8550 40  0001 L CIN
	1    14300 8850
	1    0    0    -1  
$EndComp
$Comp
L Mounting_Hole MK11
U 1 1 5AAA1E2F
P 10800 6000
F 0 "MK11" H 10800 6200 50  0000 C CNN
F 1 "Mounting_Hole" H 10800 6125 50  0000 C CNN
F 2 "chordboard-footprints:Mounting_Hole" H 10800 6000 50  0001 C CNN
F 3 "" H 10800 6000 50  0001 C CNN
	1    10800 6000
	1    0    0    -1  
$EndComp
$Comp
L Mounting_Hole MK12
U 1 1 5AAA1F5C
P 11150 6000
F 0 "MK12" H 11150 6200 50  0000 C CNN
F 1 "Mounting_Hole" H 11150 6125 50  0000 C CNN
F 2 "chordboard-footprints:Mounting_Hole" H 11150 6000 50  0001 C CNN
F 3 "" H 11150 6000 50  0001 C CNN
	1    11150 6000
	1    0    0    -1  
$EndComp
$Comp
L Mounting_Hole MK13
U 1 1 5AAA2085
P 11500 6000
F 0 "MK13" H 11500 6200 50  0000 C CNN
F 1 "Mounting_Hole" H 11500 6125 50  0000 C CNN
F 2 "chordboard-footprints:Mounting_Hole" H 11500 6000 50  0001 C CNN
F 3 "" H 11500 6000 50  0001 C CNN
	1    11500 6000
	1    0    0    -1  
$EndComp
$Comp
L Mounting_Hole MK14
U 1 1 5AAA21AF
P 11850 6000
F 0 "MK14" H 11850 6200 50  0000 C CNN
F 1 "Mounting_Hole" H 11850 6125 50  0000 C CNN
F 2 "chordboard-footprints:Mounting_Hole" H 11850 6000 50  0001 C CNN
F 3 "" H 11850 6000 50  0001 C CNN
	1    11850 6000
	1    0    0    -1  
$EndComp
$Comp
L HT16K33 J?
U 1 1 5AAABC44
P 9400 13400
F 0 "J?" H 9400 12050 60  0000 C CNN
F 1 "HT16K33" H 9400 14650 60  0000 C CNN
F 2 "chordboard-footprints:SOIC-28W_7.5x17.9mm_Pitch1.27mm_HANDSOLDER" H 9400 14550 60  0001 C CNN
F 3 "" H 9400 14550 60  0000 C CNN
	1    9400 13400
	1    0    0    -1  
$EndComp
$Comp
L BSS138 Q?
U 1 1 5AAABC4B
P 9200 11150
F 0 "Q?" H 9400 11225 50  0000 L CNN
F 1 "BSS138" H 9400 11150 50  0000 L CNN
F 2 "TO_SOT_Packages_SMD:SOT-23" H 9400 11075 50  0001 L CIN
F 3 "" H 9200 11150 50  0001 L CNN
	1    9200 11150
	0    1    1    0   
$EndComp
Wire Wire Line
	9000 11250 8800 11250
Wire Wire Line
	9400 11250 9600 11250
Text Label 8800 11250 2    60   ~ 0
SCL
Text Label 9600 11250 0    60   ~ 0
SCL5
Wire Wire Line
	9200 10950 9200 10850
$Comp
L +3.3V #PWR?
U 1 1 5AAABC57
P 9200 10850
F 0 "#PWR?" H 9200 10700 50  0001 C CNN
F 1 "+3.3V" H 9200 10990 50  0000 C CNN
F 2 "" H 9200 10850 50  0001 C CNN
F 3 "" H 9200 10850 50  0001 C CNN
	1    9200 10850
	1    0    0    -1  
$EndComp
$Comp
L R R?
U 1 1 5AAABC5D
P 8950 11050
F 0 "R?" V 9000 11150 50  0000 L CNN
F 1 "R" V 8950 11000 50  0000 L CNN
F 2 "Resistors_SMD:R_0805_HandSoldering" H 8950 11050 50  0001 C CNN
F 3 "" H 8950 11050 50  0001 C CNN
	1    8950 11050
	1    0    0    -1  
$EndComp
$Comp
L R R?
U 1 1 5AAABC64
P 9450 11050
F 0 "R?" V 9500 11150 50  0000 L CNN
F 1 "R" V 9450 11000 50  0000 L CNN
F 2 "Resistors_SMD:R_0805_HandSoldering" H 9450 11050 50  0001 C CNN
F 3 "" H 9450 11050 50  0001 C CNN
	1    9450 11050
	1    0    0    -1  
$EndComp
Wire Wire Line
	9450 11150 9450 11250
Connection ~ 9450 11250
Wire Wire Line
	8950 11150 8950 11250
Connection ~ 8950 11250
$Comp
L +5V #PWR?
U 1 1 5AAABC6F
P 9450 10850
F 0 "#PWR?" H 9450 10700 50  0001 C CNN
F 1 "+5V" H 9450 10990 50  0000 C CNN
F 2 "" H 9450 10850 50  0001 C CNN
F 3 "" H 9450 10850 50  0001 C CNN
	1    9450 10850
	1    0    0    -1  
$EndComp
Wire Wire Line
	9450 10850 9450 10950
Wire Wire Line
	8950 10950 8950 10900
Wire Wire Line
	8950 10900 9200 10900
Connection ~ 9200 10900
$Comp
L BSS138 Q?
U 1 1 5AAABC79
P 9200 10100
F 0 "Q?" H 9400 10175 50  0000 L CNN
F 1 "BSS138" H 9400 10100 50  0000 L CNN
F 2 "TO_SOT_Packages_SMD:SOT-23" H 9400 10025 50  0001 L CIN
F 3 "" H 9200 10100 50  0001 L CNN
	1    9200 10100
	0    1    1    0   
$EndComp
Wire Wire Line
	9000 10200 8800 10200
Wire Wire Line
	9400 10200 9600 10200
Text Label 8800 10200 2    60   ~ 0
SDA
Text Label 9600 10200 0    60   ~ 0
SDA5
Wire Wire Line
	9200 9900 9200 9800
$Comp
L +3.3V #PWR?
U 1 1 5AAABC85
P 9200 9800
F 0 "#PWR?" H 9200 9650 50  0001 C CNN
F 1 "+3.3V" H 9200 9940 50  0000 C CNN
F 2 "" H 9200 9800 50  0001 C CNN
F 3 "" H 9200 9800 50  0001 C CNN
	1    9200 9800
	1    0    0    -1  
$EndComp
$Comp
L R R?
U 1 1 5AAABC8B
P 8950 10000
F 0 "R?" V 9000 10100 50  0000 L CNN
F 1 "R" V 8950 9950 50  0000 L CNN
F 2 "Resistors_SMD:R_0805_HandSoldering" H 8950 10000 50  0001 C CNN
F 3 "" H 8950 10000 50  0001 C CNN
	1    8950 10000
	1    0    0    -1  
$EndComp
$Comp
L R R?
U 1 1 5AAABC92
P 9450 10000
F 0 "R?" V 9500 10100 50  0000 L CNN
F 1 "R" V 9450 9950 50  0000 L CNN
F 2 "Resistors_SMD:R_0805_HandSoldering" H 9450 10000 50  0001 C CNN
F 3 "" H 9450 10000 50  0001 C CNN
	1    9450 10000
	1    0    0    -1  
$EndComp
Wire Wire Line
	9450 10100 9450 10200
Connection ~ 9450 10200
Wire Wire Line
	8950 10100 8950 10200
Connection ~ 8950 10200
$Comp
L +5V #PWR?
U 1 1 5AAABC9D
P 9450 9800
F 0 "#PWR?" H 9450 9650 50  0001 C CNN
F 1 "+5V" H 9450 9940 50  0000 C CNN
F 2 "" H 9450 9800 50  0001 C CNN
F 3 "" H 9450 9800 50  0001 C CNN
	1    9450 9800
	1    0    0    -1  
$EndComp
Wire Wire Line
	9450 9800 9450 9900
Wire Wire Line
	8950 9900 8950 9850
Wire Wire Line
	8950 9850 9200 9850
Connection ~ 9200 9850
Text Label 8750 12450 2    60   ~ 0
SCL5
Text Label 8750 12550 2    60   ~ 0
SDA5
$EndSCHEMATC
