EESchema Schematic File Version 2
LIBS:chordboard-components
LIBS:Connector
LIBS:MCU_Microchip_PIC16
LIBS:power
LIBS:regul
LIBS:device
LIBS:MCU_Microchip_PIC18
LIBS:atmel
LIBS:MCU_Microchip_PIC32
LIBS:MCU_Microchip_PIC24
LIBS:tinkerforge
LIBS:SparkFun-Connectors
LIBS:MCU_NXP_Kinetis
LIBS:pictest-cache
EELAYER 25 0
EELAYER END
$Descr A1 33110 23386
encoding utf-8
Sheet 1 1
Title ""
Date ""
Rev ""
Comp ""
Comment1 ""
Comment2 ""
Comment3 ""
Comment4 ""
$EndDescr
$Comp
L PIC_ICSP J1
U 1 1 5ADB935E
P 9400 5100
F 0 "J1" H 9400 5400 50  0000 C CNN
F 1 "PIC_ICSP" H 9400 4700 50  0000 C CNN
F 2 "Pin_Headers:Pin_Header_Straight_1x06_Pitch2.54mm" H 9400 5100 50  0001 C CNN
F 3 "" H 9400 5100 50  0001 C CNN
	1    9400 5100
	1    0    0    -1  
$EndComp
$Comp
L +5V #PWR01
U 1 1 5AD85EB7
P 13700 2450
F 0 "#PWR01" H 13700 2300 50  0001 C CNN
F 1 "+5V" H 13700 2590 50  0000 C CNN
F 2 "" H 13700 2450 50  0001 C CNN
F 3 "" H 13700 2450 50  0001 C CNN
	1    13700 2450
	1    0    0    -1  
$EndComp
$Comp
L D_Schottky D1
U 1 1 5AD85A4C
P 13950 2750
F 0 "D1" H 13950 2850 50  0000 C CNN
F 1 "D_Schottky" H 13950 2650 50  0000 C CNN
F 2 "chordboard-footprints:D_SOD-123_HANDSOLDER" H 13950 2750 50  0001 C CNN
F 3 "" H 13950 2750 50  0001 C CNN
	1    13950 2750
	1    0    0    -1  
$EndComp
Connection ~ 14150 3500
Wire Wire Line
	14150 3500 14450 3500
Wire Wire Line
	14150 3400 14150 3600
Wire Wire Line
	14150 3400 14450 3400
$Comp
L USB_A J3
U 1 1 5AD92940
P 14750 3300
F 0 "J3" H 14550 3750 50  0000 L CNN
F 1 "USB_A" H 14550 3650 50  0000 L CNN
F 2 "Connectors:USB_B" H 14900 3250 50  0001 C CNN
F 3 "" H 14900 3250 50  0001 C CNN
	1    14750 3300
	-1   0    0    1   
$EndComp
Wire Wire Line
	13200 3300 14450 3300
Wire Wire Line
	13200 3200 14450 3200
Wire Wire Line
	14150 2450 14150 3100
Wire Wire Line
	14150 3100 14450 3100
$Comp
L GND #PWR02
U 1 1 5AD926DC
P 14150 3600
F 0 "#PWR02" H 14150 3350 50  0001 C CNN
F 1 "GND" H 14150 3450 50  0000 C CNN
F 2 "" H 14150 3600 50  0001 C CNN
F 3 "" H 14150 3600 50  0001 C CNN
	1    14150 3600
	-1   0    0    -1  
$EndComp
$Comp
L VBUS #PWR03
U 1 1 5AD926D6
P 14150 2450
F 0 "#PWR03" H 14150 2300 50  0001 C CNN
F 1 "VBUS" H 14150 2600 50  0000 C CNN
F 2 "" H 14150 2450 50  0001 C CNN
F 3 "" H 14150 2450 50  0001 C CNN
	1    14150 2450
	-1   0    0    -1  
$EndComp
Text Label 13200 3900 0    60   ~ 0
MCLR
$Comp
L +5V #PWR04
U 1 1 5AD9174C
P 12000 2450
F 0 "#PWR04" H 12000 2300 50  0001 C CNN
F 1 "+5V" H 12000 2590 50  0000 C CNN
F 2 "" H 12000 2450 50  0001 C CNN
F 3 "" H 12000 2450 50  0001 C CNN
	1    12000 2450
	1    0    0    -1  
$EndComp
Wire Wire Line
	12000 2600 12000 2450
$Comp
L GND #PWR05
U 1 1 5AD91470
P 13700 4550
F 0 "#PWR05" H 13700 4300 50  0001 C CNN
F 1 "GND" H 13700 4400 50  0000 C CNN
F 2 "" H 13700 4550 50  0001 C CNN
F 3 "" H 13700 4550 50  0001 C CNN
	1    13700 4550
	1    0    0    -1  
$EndComp
Wire Wire Line
	13700 4250 13700 4550
$Comp
L C_Small C3
U 1 1 5AD9137A
P 13700 4150
F 0 "C3" H 13710 4220 50  0000 L CNN
F 1 "470nF" H 13710 4070 50  0000 L CNN
F 2 "Capacitors_SMD:C_0805_HandSoldering" H 13700 4150 50  0001 C CNN
F 3 "" H 13700 4150 50  0001 C CNN
	1    13700 4150
	1    0    0    -1  
$EndComp
Wire Wire Line
	13700 3700 13700 4050
Wire Wire Line
	13200 3700 13700 3700
Connection ~ 8400 3300
Connection ~ 8100 3300
$Comp
L GND #PWR06
U 1 1 5AD910AD
P 8250 4200
F 0 "#PWR06" H 8250 3950 50  0001 C CNN
F 1 "GND" H 8250 4050 50  0000 C CNN
F 2 "" H 8250 4200 50  0001 C CNN
F 3 "" H 8250 4200 50  0001 C CNN
	1    8250 4200
	1    0    0    -1  
$EndComp
Wire Wire Line
	11950 5000 11950 4900
Connection ~ 8250 3700
Wire Wire Line
	8250 3700 8250 4200
Connection ~ 11950 4900
Wire Wire Line
	12000 4900 12000 4800
Wire Wire Line
	11900 4900 12000 4900
Wire Wire Line
	11900 4800 11900 4900
$Comp
L GND #PWR07
U 1 1 5AD90E9D
P 11950 5000
F 0 "#PWR07" H 11950 4750 50  0001 C CNN
F 1 "GND" H 11950 4850 50  0000 C CNN
F 2 "" H 11950 5000 50  0001 C CNN
F 3 "" H 11950 5000 50  0001 C CNN
	1    11950 5000
	1    0    0    -1  
$EndComp
Wire Wire Line
	8400 3700 8400 3600
Wire Wire Line
	8100 3700 8400 3700
Wire Wire Line
	8100 3600 8100 3700
$Comp
L C_Small C1
U 1 1 5AD90E23
P 8100 3500
F 0 "C1" H 8110 3570 50  0000 L CNN
F 1 "22pF" H 8110 3420 50  0000 L CNN
F 2 "Capacitors_SMD:C_0805_HandSoldering" H 8100 3500 50  0001 C CNN
F 3 "" H 8100 3500 50  0001 C CNN
	1    8100 3500
	1    0    0    -1  
$EndComp
Wire Wire Line
	8100 2900 8100 3400
$Comp
L C_Small C2
U 1 1 5AD90D65
P 8400 3500
F 0 "C2" H 8410 3570 50  0000 L CNN
F 1 "22pF" H 8410 3420 50  0000 L CNN
F 2 "Capacitors_SMD:C_0805_HandSoldering" H 8400 3500 50  0001 C CNN
F 3 "" H 8400 3500 50  0001 C CNN
	1    8400 3500
	1    0    0    -1  
$EndComp
Wire Wire Line
	8400 2900 8400 3400
$Comp
L Crystal Y1
U 1 1 5AD90BC8
P 8250 3300
F 0 "Y1" H 8250 3450 50  0000 C CNN
F 1 "Crystal" H 8250 3150 50  0000 C CNN
F 2 "Crystals:Crystal_SMD_HC49-SD" H 8250 3300 50  0001 C CNN
F 3 "" H 8250 3300 50  0001 C CNN
	1    8250 3300
	-1   0    0    1   
$EndComp
$Comp
L PIC18F2550-I/SO U1
U 1 1 5AD8732D
P 12000 3700
F 0 "U1" H 11000 4700 50  0000 C CNN
F 1 "PIC18F2550-I/SO" H 12650 2700 50  0000 C CNN
F 2 "Housings_SOIC:SOIC-28W_7.5x17.9mm_Pitch1.27mm" H 12000 3700 50  0001 C CIN
F 3 "" H 12000 3250 50  0001 C CNN
	1    12000 3700
	1    0    0    -1  
$EndComp
Text Label 9200 4900 2    60   ~ 0
MCLR
Text Label 9200 5300 2    60   ~ 0
PGC
Text Label 9200 5200 2    60   ~ 0
PGD
Wire Wire Line
	9200 5100 8900 5100
Wire Wire Line
	8900 5100 8900 5350
Wire Wire Line
	8900 5000 9200 5000
Wire Wire Line
	8900 4700 8900 5000
$Comp
L GND #PWR08
U 1 1 5ADBD753
P 8900 5350
F 0 "#PWR08" H 8900 5100 50  0001 C CNN
F 1 "GND" H 8900 5200 50  0000 C CNN
F 2 "" H 8900 5350 50  0001 C CNN
F 3 "" H 8900 5350 50  0001 C CNN
	1    8900 5350
	1    0    0    -1  
$EndComp
$Comp
L +5V #PWR09
U 1 1 5ADBD78B
P 8900 4700
F 0 "#PWR09" H 8900 4550 50  0001 C CNN
F 1 "+5V" H 8900 4840 50  0000 C CNN
F 2 "" H 8900 4700 50  0001 C CNN
F 3 "" H 8900 4700 50  0001 C CNN
	1    8900 4700
	1    0    0    -1  
$EndComp
Text Label 13450 3100 0    60   ~ 0
CS1
Text Label 15700 2950 2    60   ~ 0
MCLR
$Comp
L R R1
U 1 1 5ADBDC42
P 15700 2700
F 0 "R1" V 15750 2800 50  0000 L CNN
F 1 "R" V 15700 2650 50  0000 L CNN
F 2 "Resistors_SMD:R_1206_HandSoldering" H 15700 2700 50  0001 C CNN
F 3 "" H 15700 2700 50  0001 C CNN
	1    15700 2700
	-1   0    0    1   
$EndComp
Wire Wire Line
	15700 2600 15700 2550
$Comp
L +5V #PWR010
U 1 1 5ADBDD53
P 15700 2550
F 0 "#PWR010" H 15700 2400 50  0001 C CNN
F 1 "+5V" H 15700 2690 50  0000 C CNN
F 2 "" H 15700 2550 50  0001 C CNN
F 3 "" H 15700 2550 50  0001 C CNN
	1    15700 2550
	1    0    0    -1  
$EndComp
Wire Wire Line
	15700 2800 15700 2950
$Comp
L KSW K1
U 1 1 5ADBDE90
P 15700 3100
F 0 "K1" H 15600 3150 60  0000 C CNN
F 1 "KSW" H 15850 3150 60  0000 C CNN
F 2 "Buttons_Switches_SMD:SW_SPST_B3U-1000P-B" H 16650 3150 60  0001 C CNN
F 3 "" H 15700 3100 60  0001 C CNN
	1    15700 3100
	0    1    1    0   
$EndComp
Wire Wire Line
	15700 3300 15700 3250
$Comp
L GND #PWR011
U 1 1 5ADBE093
P 15700 3300
F 0 "#PWR011" H 15700 3050 50  0001 C CNN
F 1 "GND" H 15700 3150 50  0000 C CNN
F 2 "" H 15700 3300 50  0001 C CNN
F 3 "" H 15700 3300 50  0001 C CNN
	1    15700 3300
	1    0    0    -1  
$EndComp
Text Label 10800 4000 2    60   ~ 0
RB2
Text Label 10800 4100 2    60   ~ 0
RB3
Text Label 10800 4200 2    60   ~ 0
RB4
Text Label 10800 3800 2    60   ~ 0
RB0
Text Label 10800 3900 2    60   ~ 0
RB1
Text Label 13200 3400 0    60   ~ 0
RC6
Text Label 13200 3500 0    60   ~ 0
RC7
Text Label 13200 2900 0    60   ~ 0
RC0
Text Label 10800 4300 2    60   ~ 0
RB5
Text Label 10800 4400 2    60   ~ 0
RB6
Text Label 10800 4500 2    60   ~ 0
RB7
Wire Wire Line
	10800 4300 10550 4300
Wire Wire Line
	10800 4400 10550 4400
Wire Wire Line
	10800 4500 10550 4500
Text Label 10550 4500 2    60   ~ 0
PGD
Text Label 10550 4400 2    60   ~ 0
PGC
Text Label 10550 4300 2    60   ~ 0
PGM
Wire Wire Line
	13200 3100 13450 3100
Text Label 13200 3000 0    60   ~ 0
RC1
Text Label 13200 3100 0    60   ~ 0
RC2
Text Label 10800 3500 2    60   ~ 0
OSC2
Text Label 10800 3600 2    60   ~ 0
OSC1
Text Label 8400 2900 0    60   ~ 0
OSC2
Text Label 8100 2900 2    60   ~ 0
OSC1
$Comp
L R R3
U 1 1 5ADCB52B
P 8250 3050
F 0 "R3" V 8300 3150 50  0000 L CNN
F 1 "1M" V 8250 3000 50  0000 L CNN
F 2 "Resistors_SMD:R_1206_HandSoldering" H 8250 3050 50  0001 C CNN
F 3 "" H 8250 3050 50  0001 C CNN
	1    8250 3050
	0    -1   -1   0   
$EndComp
Wire Wire Line
	8350 3050 8400 3050
Connection ~ 8400 3050
Wire Wire Line
	8150 3050 8100 3050
Connection ~ 8100 3050
Text Label 10800 2900 2    60   ~ 0
RA0
Text Label 10800 3000 2    60   ~ 0
RA1
Text Label 10800 3100 2    60   ~ 0
RA2
Text Label 10800 3200 2    60   ~ 0
RA3
Text Label 10800 3300 2    60   ~ 0
RA4
Text Label 10800 3400 2    60   ~ 0
RA5
NoConn ~ 9200 5400
$Comp
L C_Small C4
U 1 1 5ADCC750
P 8750 5050
F 0 "C4" H 8760 5120 50  0000 L CNN
F 1 "0.1uF" H 8760 4970 50  0000 L CNN
F 2 "Capacitors_SMD:C_0805_HandSoldering" H 8750 5050 50  0001 C CNN
F 3 "" H 8750 5050 50  0001 C CNN
	1    8750 5050
	1    0    0    -1  
$EndComp
Wire Wire Line
	8750 4950 8750 4850
Wire Wire Line
	8750 4850 8900 4850
Connection ~ 8900 4850
Wire Wire Line
	8750 5150 8750 5250
Wire Wire Line
	8750 5250 8900 5250
Connection ~ 8900 5250
Text Label 16150 2950 2    60   ~ 0
CS1
$Comp
L GND #PWR012
U 1 1 5ADBE22A
P 16150 3300
F 0 "#PWR012" H 16150 3050 50  0001 C CNN
F 1 "GND" H 16150 3150 50  0000 C CNN
F 2 "" H 16150 3300 50  0001 C CNN
F 3 "" H 16150 3300 50  0001 C CNN
	1    16150 3300
	1    0    0    -1  
$EndComp
Wire Wire Line
	16150 3300 16150 3250
$Comp
L KSW K2
U 1 1 5ADBE223
P 16150 3100
F 0 "K2" H 16050 3150 60  0000 C CNN
F 1 "KSW" H 16300 3150 60  0000 C CNN
F 2 "Buttons_Switches_SMD:SW_SPST_B3U-1000P-B" H 17100 3150 60  0001 C CNN
F 3 "" H 16150 3100 60  0001 C CNN
	1    16150 3100
	0    1    1    0   
$EndComp
Wire Wire Line
	16150 2800 16150 2950
$Comp
L +5V #PWR013
U 1 1 5ADBE21C
P 16150 2550
F 0 "#PWR013" H 16150 2400 50  0001 C CNN
F 1 "+5V" H 16150 2690 50  0000 C CNN
F 2 "" H 16150 2550 50  0001 C CNN
F 3 "" H 16150 2550 50  0001 C CNN
	1    16150 2550
	1    0    0    -1  
$EndComp
Wire Wire Line
	16150 2600 16150 2550
$Comp
L R R2
U 1 1 5ADBE215
P 16150 2700
F 0 "R2" V 16200 2800 50  0000 L CNN
F 1 "R" V 16150 2650 50  0000 L CNN
F 2 "Resistors_SMD:R_1206_HandSoldering" H 16150 2700 50  0001 C CNN
F 3 "" H 16150 2700 50  0001 C CNN
	1    16150 2700
	-1   0    0    1   
$EndComp
Text Label 13200 3200 0    60   ~ 0
RC4
Text Label 13200 3300 0    60   ~ 0
RC5
Wire Wire Line
	14100 2750 14150 2750
Connection ~ 14150 2750
Wire Wire Line
	13700 2450 13700 2750
Wire Wire Line
	13700 2750 13800 2750
$Comp
L Conn_01x12 J2
U 1 1 5ADCD4C7
P 14800 4900
F 0 "J2" H 14800 5500 50  0000 C CNN
F 1 "Conn_01x12" H 14800 4200 50  0000 C CNN
F 2 "Pin_Headers:Pin_Header_Straight_1x12_Pitch2.54mm" H 14800 4900 50  0001 C CNN
F 3 "" H 14800 4900 50  0001 C CNN
	1    14800 4900
	1    0    0    -1  
$EndComp
$Comp
L Conn_01x12 J4
U 1 1 5ADCD548
P 15400 4900
F 0 "J4" H 15400 5500 50  0000 C CNN
F 1 "Conn_01x12" H 15400 4200 50  0000 C CNN
F 2 "Pin_Headers:Pin_Header_Straight_1x12_Pitch2.54mm" H 15400 4900 50  0001 C CNN
F 3 "" H 15400 4900 50  0001 C CNN
	1    15400 4900
	-1   0    0    -1  
$EndComp
Text Label 15600 5400 0    60   ~ 0
RC6
Text Label 15600 5300 0    60   ~ 0
RC7
Text Label 15600 5000 0    60   ~ 0
RB2
Text Label 15600 4900 0    60   ~ 0
RB3
Text Label 15600 4800 0    60   ~ 0
RB4
Text Label 15600 5200 0    60   ~ 0
RB0
Text Label 15600 5100 0    60   ~ 0
RB1
Text Label 15600 4700 0    60   ~ 0
RB5
Text Label 15600 4600 0    60   ~ 0
RB6
Text Label 15600 4500 0    60   ~ 0
RB7
Text Label 14600 5200 2    60   ~ 0
RC0
Text Label 14600 5300 2    60   ~ 0
RC1
Text Label 14600 5400 2    60   ~ 0
RC2
Text Label 14600 4600 2    60   ~ 0
RA0
Text Label 14600 4700 2    60   ~ 0
RA1
Text Label 14600 4800 2    60   ~ 0
RA2
Text Label 14600 4900 2    60   ~ 0
RA3
Text Label 14600 5000 2    60   ~ 0
RA4
Text Label 14600 5100 2    60   ~ 0
RA5
Text Label 14600 4500 2    60   ~ 0
MCLR
Wire Wire Line
	15600 4400 15700 4400
Wire Wire Line
	15700 4400 15700 4300
Wire Wire Line
	15600 5500 15700 5500
Wire Wire Line
	15700 5500 15700 5600
Wire Wire Line
	14600 4400 14500 4400
Wire Wire Line
	14500 4400 14500 4300
Wire Wire Line
	14600 5500 14500 5500
Wire Wire Line
	14500 5500 14500 5600
$Comp
L GND #PWR?
U 1 1 5ADCE513
P 14500 5600
F 0 "#PWR?" H 14500 5350 50  0001 C CNN
F 1 "GND" H 14500 5450 50  0000 C CNN
F 2 "" H 14500 5600 50  0001 C CNN
F 3 "" H 14500 5600 50  0001 C CNN
	1    14500 5600
	1    0    0    -1  
$EndComp
$Comp
L GND #PWR?
U 1 1 5ADCE54E
P 15700 5600
F 0 "#PWR?" H 15700 5350 50  0001 C CNN
F 1 "GND" H 15700 5450 50  0000 C CNN
F 2 "" H 15700 5600 50  0001 C CNN
F 3 "" H 15700 5600 50  0001 C CNN
	1    15700 5600
	1    0    0    -1  
$EndComp
$Comp
L +5V #PWR?
U 1 1 5ADCE5F3
P 14500 4300
F 0 "#PWR?" H 14500 4150 50  0001 C CNN
F 1 "+5V" H 14500 4440 50  0000 C CNN
F 2 "" H 14500 4300 50  0001 C CNN
F 3 "" H 14500 4300 50  0001 C CNN
	1    14500 4300
	1    0    0    -1  
$EndComp
$Comp
L +5V #PWR?
U 1 1 5ADCE62E
P 15700 4300
F 0 "#PWR?" H 15700 4150 50  0001 C CNN
F 1 "+5V" H 15700 4440 50  0000 C CNN
F 2 "" H 15700 4300 50  0001 C CNN
F 3 "" H 15700 4300 50  0001 C CNN
	1    15700 4300
	1    0    0    -1  
$EndComp
$EndSCHEMATC
