EESchema Schematic File Version 2
LIBS:chordboard-rescue
LIBS:maxim
LIBS:chordboard-components
LIBS:power
LIBS:device
LIBS:transistors
LIBS:conn
LIBS:linear
LIBS:regul
LIBS:74xx
LIBS:cmos4000
LIBS:adc-dac
LIBS:memory
LIBS:xilinx
LIBS:microcontrollers
LIBS:dsp
LIBS:microchip
LIBS:analog_switches
LIBS:motorola
LIBS:texas
LIBS:intel
LIBS:audio
LIBS:interface
LIBS:digital-audio
LIBS:philips
LIBS:display
LIBS:cypress
LIBS:siliconi
LIBS:opto
LIBS:atmel
LIBS:contrib
LIBS:valves
LIBS:switches
LIBS:mechanical
LIBS:Kicad-Teensy
LIBS:chordboard-cache
EELAYER 25 0
EELAYER END
$Descr A4 11693 8268
encoding utf-8
Sheet 2 2
Title ""
Date ""
Rev ""
Comp ""
Comment1 ""
Comment2 ""
Comment3 ""
Comment4 ""
$EndDescr
$Comp
L 74HC245 U?
U 1 1 5AA961B9
P -50 3450
F 0 "U?" H 50  4025 50  0000 L BNN
F 1 "74HC245" H 0   2875 50  0000 L TNN
F 2 "Housings_DIP:DIP-20_W7.62mm" H -50 3450 50  0001 C CNN
F 3 "" H -50 3450 50  0001 C CNN
	1    -50  3450
	1    0    0    -1  
$EndComp
$Comp
L +5V #PWR?
U 1 1 5AA961C0
P -50 2550
F 0 "#PWR?" H -50 2400 50  0001 C CNN
F 1 "+5V" H -50 2690 50  0000 C CNN
F 2 "" H -50 2550 50  0001 C CNN
F 3 "" H -50 2550 50  0001 C CNN
	1    -50  2550
	1    0    0    -1  
$EndComp
$Comp
L GND #PWR?
U 1 1 5AA961C6
P -50 4400
F 0 "#PWR?" H -50 4150 50  0001 C CNN
F 1 "GND" H -50 4250 50  0000 C CNN
F 2 "" H -50 4400 50  0000 C CNN
F 3 "" H -50 4400 50  0000 C CNN
	1    -50  4400
	1    0    0    -1  
$EndComp
$Comp
L WS2812B LEDP?
U 1 1 5AA961CC
P 1150 2850
F 0 "LEDP?" H 1150 2650 50  0000 C CNN
F 1 "WS2812B" H 1150 2950 50  0000 C CNN
F 2 "chordboard-footprints:LED_WS2812B-PLCC4-HandSolder" H 1150 2550 50  0001 C CNN
F 3 "" H 1150 2800 50  0001 C CNN
	1    1150 2850
	1    0    0    -1  
$EndComp
$Comp
L WS2812B LEDP?
U 1 1 5AA961D3
P 2050 2850
F 0 "LEDP?" H 2050 2650 50  0000 C CNN
F 1 "WS2812B" H 2050 2950 50  0000 C CNN
F 2 "chordboard-footprints:LED_WS2812B-PLCC4-HandSolder" H 2050 2550 50  0001 C CNN
F 3 "" H 2050 2800 50  0001 C CNN
	1    2050 2850
	1    0    0    -1  
$EndComp
$Comp
L WS2812B LEDP?
U 1 1 5AA961DA
P 2950 2850
F 0 "LEDP?" H 2950 2650 50  0000 C CNN
F 1 "WS2812B" H 2950 2950 50  0000 C CNN
F 2 "chordboard-footprints:LED_WS2812B-PLCC4-HandSolder" H 2950 2550 50  0001 C CNN
F 3 "" H 2950 2800 50  0001 C CNN
	1    2950 2850
	1    0    0    -1  
$EndComp
$Comp
L WS2812B LEDP?
U 1 1 5AA961E1
P 3850 2850
F 0 "LEDP?" H 3850 2650 50  0000 C CNN
F 1 "WS2812B" H 3850 2950 50  0000 C CNN
F 2 "chordboard-footprints:LED_WS2812B-PLCC4-HandSolder" H 3850 2550 50  0001 C CNN
F 3 "" H 3850 2800 50  0001 C CNN
	1    3850 2850
	1    0    0    -1  
$EndComp
$Comp
L WS2812B LEDP?
U 1 1 5AA961E8
P 4750 2850
F 0 "LEDP?" H 4750 2650 50  0000 C CNN
F 1 "WS2812B" H 4750 2950 50  0000 C CNN
F 2 "chordboard-footprints:LED_WS2812B-PLCC4-HandSolder" H 4750 2550 50  0001 C CNN
F 3 "" H 4750 2800 50  0001 C CNN
	1    4750 2850
	1    0    0    -1  
$EndComp
$Comp
L WS2812B LEDP?
U 1 1 5AA961EF
P 5650 2850
F 0 "LEDP?" H 5650 2650 50  0000 C CNN
F 1 "WS2812B" H 5650 2950 50  0000 C CNN
F 2 "chordboard-footprints:LED_WS2812B-PLCC4-HandSolder" H 5650 2550 50  0001 C CNN
F 3 "" H 5650 2800 50  0001 C CNN
	1    5650 2850
	1    0    0    -1  
$EndComp
$Comp
L WS2812B LEDP?
U 1 1 5AA961F6
P 6550 2850
F 0 "LEDP?" H 6550 2650 50  0000 C CNN
F 1 "WS2812B" H 6550 2950 50  0000 C CNN
F 2 "chordboard-footprints:LED_WS2812B-PLCC4-HandSolder" H 6550 2550 50  0001 C CNN
F 3 "" H 6550 2800 50  0001 C CNN
	1    6550 2850
	1    0    0    -1  
$EndComp
$Comp
L WS2812B LEDP?
U 1 1 5AA961FD
P 7450 2850
F 0 "LEDP?" H 7450 2650 50  0000 C CNN
F 1 "WS2812B" H 7450 2950 50  0000 C CNN
F 2 "chordboard-footprints:LED_WS2812B-PLCC4-HandSolder" H 7450 2550 50  0001 C CNN
F 3 "" H 7450 2800 50  0001 C CNN
	1    7450 2850
	1    0    0    -1  
$EndComp
$Comp
L WS2812B LEDP?
U 1 1 5AA96204
P 8350 2850
F 0 "LEDP?" H 8350 2650 50  0000 C CNN
F 1 "WS2812B" H 8350 2950 50  0000 C CNN
F 2 "chordboard-footprints:LED_WS2812B-PLCC4-HandSolder" H 8350 2550 50  0001 C CNN
F 3 "" H 8350 2800 50  0001 C CNN
	1    8350 2850
	1    0    0    -1  
$EndComp
$Comp
L WS2812B LEDP?
U 1 1 5AA9620B
P 9250 2850
F 0 "LEDP?" H 9250 2650 50  0000 C CNN
F 1 "WS2812B" H 9250 2950 50  0000 C CNN
F 2 "chordboard-footprints:LED_WS2812B-PLCC4-HandSolder" H 9250 2550 50  0001 C CNN
F 3 "" H 9250 2800 50  0001 C CNN
	1    9250 2850
	1    0    0    -1  
$EndComp
$Comp
L WS2812B LEDP?
U 1 1 5AA96212
P 10150 2850
F 0 "LEDP?" H 10150 2650 50  0000 C CNN
F 1 "WS2812B" H 10150 2950 50  0000 C CNN
F 2 "chordboard-footprints:LED_WS2812B-PLCC4-HandSolder" H 10150 2550 50  0001 C CNN
F 3 "" H 10150 2800 50  0001 C CNN
	1    10150 2850
	1    0    0    -1  
$EndComp
$Comp
L WS2812B LEDP?
U 1 1 5AA96219
P 11050 2850
F 0 "LEDP?" H 11050 2650 50  0000 C CNN
F 1 "WS2812B" H 11050 2950 50  0000 C CNN
F 2 "chordboard-footprints:LED_WS2812B-PLCC4-HandSolder" H 11050 2550 50  0001 C CNN
F 3 "" H 11050 2800 50  0001 C CNN
	1    11050 2850
	1    0    0    -1  
$EndComp
Text Label -750 2950 2    60   ~ 0
PIXEL_DIN
$Comp
L +5V #PWR?
U 1 1 5AA96221
P -1050 3600
F 0 "#PWR?" H -1050 3450 50  0001 C CNN
F 1 "+5V" H -1050 3740 50  0000 C CNN
F 2 "" H -1050 3600 50  0001 C CNN
F 3 "" H -1050 3600 50  0001 C CNN
	1    -1050 3600
	1    0    0    -1  
$EndComp
$Comp
L C C?
U 1 1 5AA96227
P -1050 4050
F 0 "C?" H -1040 4120 50  0000 L CNN
F 1 "0.1uF" H -1040 3970 50  0000 L CNN
F 2 "chordboard-footprints:C_0805_HandSoldering" H -1050 4050 50  0001 C CNN
F 3 "" H -1050 4050 50  0001 C CNN
	1    -1050 4050
	-1   0    0    -1  
$EndComp
$Comp
L WS2812B LEDP?
U 1 1 5AA9622E
P 11950 2850
F 0 "LEDP?" H 11950 2650 50  0000 C CNN
F 1 "WS2812B" H 11950 2950 50  0000 C CNN
F 2 "chordboard-footprints:LED_WS2812B-PLCC4-HandSolder" H 11950 2550 50  0001 C CNN
F 3 "" H 11950 2800 50  0001 C CNN
	1    11950 2850
	1    0    0    -1  
$EndComp
Wire Wire Line
	-50  2550 -50  2600
Wire Wire Line
	-50  4300 -50  4400
Wire Wire Line
	650  2950 750  2950
Wire Wire Line
	1550 2850 1600 2850
Wire Wire Line
	1600 2850 1600 2950
Wire Wire Line
	1600 2950 1650 2950
Wire Wire Line
	2450 2850 2500 2850
Wire Wire Line
	2500 2850 2500 2950
Wire Wire Line
	2500 2950 2550 2950
Wire Wire Line
	3350 2850 3400 2850
Wire Wire Line
	3400 2850 3400 2950
Wire Wire Line
	3400 2950 3450 2950
Wire Wire Line
	4250 2850 4300 2850
Wire Wire Line
	4300 2850 4300 2950
Wire Wire Line
	4300 2950 4350 2950
Wire Wire Line
	5150 2850 5200 2850
Wire Wire Line
	5200 2850 5200 2950
Wire Wire Line
	5200 2950 5250 2950
Wire Wire Line
	6050 2850 6100 2850
Wire Wire Line
	6100 2850 6100 2950
Wire Wire Line
	6100 2950 6150 2950
Wire Wire Line
	6950 2850 7000 2850
Wire Wire Line
	7000 2850 7000 2950
Wire Wire Line
	7000 2950 7050 2950
Wire Wire Line
	7850 2850 7900 2850
Wire Wire Line
	7900 2850 7900 2950
Wire Wire Line
	7900 2950 7950 2950
Wire Wire Line
	8750 2850 8800 2850
Wire Wire Line
	8800 2850 8800 2950
Wire Wire Line
	8800 2950 8850 2950
Wire Wire Line
	9650 2850 9700 2850
Wire Wire Line
	9700 2850 9700 2950
Wire Wire Line
	9700 2950 9750 2950
Wire Wire Line
	10550 2850 10600 2850
Wire Wire Line
	10600 2850 10600 2950
Wire Wire Line
	10600 2950 10650 2950
Wire Wire Line
	-1050 4350 -50  4350
Wire Wire Line
	-850 4350 -850 3950
Wire Wire Line
	-850 3950 -750 3950
Connection ~ -50  4350
Wire Wire Line
	-750 3850 -1050 3850
Wire Wire Line
	-1050 3600 -1050 3950
Wire Wire Line
	-1050 4150 -1050 4350
Connection ~ -1050 3850
Connection ~ -850 4350
Wire Wire Line
	11450 2850 11500 2850
Wire Wire Line
	11500 2850 11500 2950
Wire Wire Line
	11500 2950 11550 2950
Wire Wire Line
	750  2850 750  2700
$Comp
L +5V #PWR?
U 1 1 5AA96266
P 750 2700
F 0 "#PWR?" H 750 2550 50  0001 C CNN
F 1 "+5V" H 750 2840 50  0000 C CNN
F 2 "" H 750 2700 50  0001 C CNN
F 3 "" H 750 2700 50  0001 C CNN
	1    750  2700
	1    0    0    -1  
$EndComp
Wire Wire Line
	1650 2850 1650 2700
$Comp
L +5V #PWR?
U 1 1 5AA9626D
P 1650 2700
F 0 "#PWR?" H 1650 2550 50  0001 C CNN
F 1 "+5V" H 1650 2840 50  0000 C CNN
F 2 "" H 1650 2700 50  0001 C CNN
F 3 "" H 1650 2700 50  0001 C CNN
	1    1650 2700
	1    0    0    -1  
$EndComp
Wire Wire Line
	2550 2850 2550 2700
$Comp
L +5V #PWR?
U 1 1 5AA96274
P 2550 2700
F 0 "#PWR?" H 2550 2550 50  0001 C CNN
F 1 "+5V" H 2550 2840 50  0000 C CNN
F 2 "" H 2550 2700 50  0001 C CNN
F 3 "" H 2550 2700 50  0001 C CNN
	1    2550 2700
	1    0    0    -1  
$EndComp
Wire Wire Line
	3450 2850 3450 2700
$Comp
L +5V #PWR?
U 1 1 5AA9627B
P 3450 2700
F 0 "#PWR?" H 3450 2550 50  0001 C CNN
F 1 "+5V" H 3450 2840 50  0000 C CNN
F 2 "" H 3450 2700 50  0001 C CNN
F 3 "" H 3450 2700 50  0001 C CNN
	1    3450 2700
	1    0    0    -1  
$EndComp
Wire Wire Line
	4350 2850 4350 2700
$Comp
L +5V #PWR?
U 1 1 5AA96282
P 4350 2700
F 0 "#PWR?" H 4350 2550 50  0001 C CNN
F 1 "+5V" H 4350 2840 50  0000 C CNN
F 2 "" H 4350 2700 50  0001 C CNN
F 3 "" H 4350 2700 50  0001 C CNN
	1    4350 2700
	1    0    0    -1  
$EndComp
Wire Wire Line
	5250 2850 5250 2700
$Comp
L +5V #PWR?
U 1 1 5AA96289
P 5250 2700
F 0 "#PWR?" H 5250 2550 50  0001 C CNN
F 1 "+5V" H 5250 2840 50  0000 C CNN
F 2 "" H 5250 2700 50  0001 C CNN
F 3 "" H 5250 2700 50  0001 C CNN
	1    5250 2700
	1    0    0    -1  
$EndComp
Wire Wire Line
	6150 2850 6150 2700
$Comp
L +5V #PWR?
U 1 1 5AA96290
P 6150 2700
F 0 "#PWR?" H 6150 2550 50  0001 C CNN
F 1 "+5V" H 6150 2840 50  0000 C CNN
F 2 "" H 6150 2700 50  0001 C CNN
F 3 "" H 6150 2700 50  0001 C CNN
	1    6150 2700
	1    0    0    -1  
$EndComp
Wire Wire Line
	7050 2850 7050 2700
$Comp
L +5V #PWR?
U 1 1 5AA96297
P 7050 2700
F 0 "#PWR?" H 7050 2550 50  0001 C CNN
F 1 "+5V" H 7050 2840 50  0000 C CNN
F 2 "" H 7050 2700 50  0001 C CNN
F 3 "" H 7050 2700 50  0001 C CNN
	1    7050 2700
	1    0    0    -1  
$EndComp
Wire Wire Line
	7950 2850 7950 2700
$Comp
L +5V #PWR?
U 1 1 5AA9629E
P 7950 2700
F 0 "#PWR?" H 7950 2550 50  0001 C CNN
F 1 "+5V" H 7950 2840 50  0000 C CNN
F 2 "" H 7950 2700 50  0001 C CNN
F 3 "" H 7950 2700 50  0001 C CNN
	1    7950 2700
	1    0    0    -1  
$EndComp
Wire Wire Line
	8850 2850 8850 2700
$Comp
L +5V #PWR?
U 1 1 5AA962A5
P 8850 2700
F 0 "#PWR?" H 8850 2550 50  0001 C CNN
F 1 "+5V" H 8850 2840 50  0000 C CNN
F 2 "" H 8850 2700 50  0001 C CNN
F 3 "" H 8850 2700 50  0001 C CNN
	1    8850 2700
	1    0    0    -1  
$EndComp
Wire Wire Line
	9750 2850 9750 2700
$Comp
L +5V #PWR?
U 1 1 5AA962AC
P 9750 2700
F 0 "#PWR?" H 9750 2550 50  0001 C CNN
F 1 "+5V" H 9750 2840 50  0000 C CNN
F 2 "" H 9750 2700 50  0001 C CNN
F 3 "" H 9750 2700 50  0001 C CNN
	1    9750 2700
	1    0    0    -1  
$EndComp
Wire Wire Line
	10650 2850 10650 2700
$Comp
L +5V #PWR?
U 1 1 5AA962B3
P 10650 2700
F 0 "#PWR?" H 10650 2550 50  0001 C CNN
F 1 "+5V" H 10650 2840 50  0000 C CNN
F 2 "" H 10650 2700 50  0001 C CNN
F 3 "" H 10650 2700 50  0001 C CNN
	1    10650 2700
	1    0    0    -1  
$EndComp
Wire Wire Line
	11550 2850 11550 2700
$Comp
L +5V #PWR?
U 1 1 5AA962BA
P 11550 2700
F 0 "#PWR?" H 11550 2550 50  0001 C CNN
F 1 "+5V" H 11550 2840 50  0000 C CNN
F 2 "" H 11550 2700 50  0001 C CNN
F 3 "" H 11550 2700 50  0001 C CNN
	1    11550 2700
	1    0    0    -1  
$EndComp
Wire Wire Line
	12350 2950 12350 3100
$Comp
L GND #PWR?
U 1 1 5AA962C1
P 12350 3100
F 0 "#PWR?" H 12350 2850 50  0001 C CNN
F 1 "GND" H 12350 2950 50  0000 C CNN
F 2 "" H 12350 3100 50  0000 C CNN
F 3 "" H 12350 3100 50  0000 C CNN
	1    12350 3100
	1    0    0    -1  
$EndComp
Wire Wire Line
	11450 2950 11450 3100
$Comp
L GND #PWR?
U 1 1 5AA962C8
P 11450 3100
F 0 "#PWR?" H 11450 2850 50  0001 C CNN
F 1 "GND" H 11450 2950 50  0000 C CNN
F 2 "" H 11450 3100 50  0000 C CNN
F 3 "" H 11450 3100 50  0000 C CNN
	1    11450 3100
	1    0    0    -1  
$EndComp
Wire Wire Line
	10550 2950 10550 3100
$Comp
L GND #PWR?
U 1 1 5AA962CF
P 10550 3100
F 0 "#PWR?" H 10550 2850 50  0001 C CNN
F 1 "GND" H 10550 2950 50  0000 C CNN
F 2 "" H 10550 3100 50  0000 C CNN
F 3 "" H 10550 3100 50  0000 C CNN
	1    10550 3100
	1    0    0    -1  
$EndComp
Wire Wire Line
	9650 2950 9650 3100
$Comp
L GND #PWR?
U 1 1 5AA962D6
P 9650 3100
F 0 "#PWR?" H 9650 2850 50  0001 C CNN
F 1 "GND" H 9650 2950 50  0000 C CNN
F 2 "" H 9650 3100 50  0000 C CNN
F 3 "" H 9650 3100 50  0000 C CNN
	1    9650 3100
	1    0    0    -1  
$EndComp
Wire Wire Line
	8750 2950 8750 3100
$Comp
L GND #PWR?
U 1 1 5AA962DD
P 8750 3100
F 0 "#PWR?" H 8750 2850 50  0001 C CNN
F 1 "GND" H 8750 2950 50  0000 C CNN
F 2 "" H 8750 3100 50  0000 C CNN
F 3 "" H 8750 3100 50  0000 C CNN
	1    8750 3100
	1    0    0    -1  
$EndComp
Wire Wire Line
	7850 2950 7850 3100
$Comp
L GND #PWR?
U 1 1 5AA962E4
P 7850 3100
F 0 "#PWR?" H 7850 2850 50  0001 C CNN
F 1 "GND" H 7850 2950 50  0000 C CNN
F 2 "" H 7850 3100 50  0000 C CNN
F 3 "" H 7850 3100 50  0000 C CNN
	1    7850 3100
	1    0    0    -1  
$EndComp
Wire Wire Line
	6950 2950 6950 3100
$Comp
L GND #PWR?
U 1 1 5AA962EB
P 6950 3100
F 0 "#PWR?" H 6950 2850 50  0001 C CNN
F 1 "GND" H 6950 2950 50  0000 C CNN
F 2 "" H 6950 3100 50  0000 C CNN
F 3 "" H 6950 3100 50  0000 C CNN
	1    6950 3100
	1    0    0    -1  
$EndComp
Wire Wire Line
	6050 2950 6050 3100
$Comp
L GND #PWR?
U 1 1 5AA962F2
P 6050 3100
F 0 "#PWR?" H 6050 2850 50  0001 C CNN
F 1 "GND" H 6050 2950 50  0000 C CNN
F 2 "" H 6050 3100 50  0000 C CNN
F 3 "" H 6050 3100 50  0000 C CNN
	1    6050 3100
	1    0    0    -1  
$EndComp
Wire Wire Line
	5150 2950 5150 3100
$Comp
L GND #PWR?
U 1 1 5AA962F9
P 5150 3100
F 0 "#PWR?" H 5150 2850 50  0001 C CNN
F 1 "GND" H 5150 2950 50  0000 C CNN
F 2 "" H 5150 3100 50  0000 C CNN
F 3 "" H 5150 3100 50  0000 C CNN
	1    5150 3100
	1    0    0    -1  
$EndComp
Wire Wire Line
	4250 2950 4250 3100
$Comp
L GND #PWR?
U 1 1 5AA96300
P 4250 3100
F 0 "#PWR?" H 4250 2850 50  0001 C CNN
F 1 "GND" H 4250 2950 50  0000 C CNN
F 2 "" H 4250 3100 50  0000 C CNN
F 3 "" H 4250 3100 50  0000 C CNN
	1    4250 3100
	1    0    0    -1  
$EndComp
Wire Wire Line
	2450 2950 2450 3100
$Comp
L GND #PWR?
U 1 1 5AA96307
P 2450 3100
F 0 "#PWR?" H 2450 2850 50  0001 C CNN
F 1 "GND" H 2450 2950 50  0000 C CNN
F 2 "" H 2450 3100 50  0000 C CNN
F 3 "" H 2450 3100 50  0000 C CNN
	1    2450 3100
	1    0    0    -1  
$EndComp
Wire Wire Line
	3350 2950 3350 3100
$Comp
L GND #PWR?
U 1 1 5AA9630E
P 3350 3100
F 0 "#PWR?" H 3350 2850 50  0001 C CNN
F 1 "GND" H 3350 2950 50  0000 C CNN
F 2 "" H 3350 3100 50  0000 C CNN
F 3 "" H 3350 3100 50  0000 C CNN
	1    3350 3100
	1    0    0    -1  
$EndComp
Wire Wire Line
	1550 2950 1550 3100
$Comp
L GND #PWR?
U 1 1 5AA96315
P 1550 3100
F 0 "#PWR?" H 1550 2850 50  0001 C CNN
F 1 "GND" H 1550 2950 50  0000 C CNN
F 2 "" H 1550 3100 50  0000 C CNN
F 3 "" H 1550 3100 50  0000 C CNN
	1    1550 3100
	1    0    0    -1  
$EndComp
$Comp
L C C?
U 1 1 5AA9631B
P 1300 3750
F 0 "C?" H 1310 3820 50  0000 L CNN
F 1 "0.1uF" H 1310 3670 50  0000 L CNN
F 2 "chordboard-footprints:C_0805_HandSoldering" H 1300 3750 50  0001 C CNN
F 3 "" H 1300 3750 50  0001 C CNN
	1    1300 3750
	-1   0    0    -1  
$EndComp
$Comp
L C C?
U 1 1 5AA96322
P 1550 3750
F 0 "C?" H 1560 3820 50  0000 L CNN
F 1 "0.1uF" H 1560 3670 50  0000 L CNN
F 2 "chordboard-footprints:C_0805_HandSoldering" H 1550 3750 50  0001 C CNN
F 3 "" H 1550 3750 50  0001 C CNN
	1    1550 3750
	-1   0    0    -1  
$EndComp
Wire Wire Line
	1300 3650 4300 3650
Connection ~ 1550 3650
Wire Wire Line
	1300 3850 4300 3850
Connection ~ 1550 3850
$Comp
L C C?
U 1 1 5AA9632D
P 1800 3750
F 0 "C?" H 1810 3820 50  0000 L CNN
F 1 "0.1uF" H 1810 3670 50  0000 L CNN
F 2 "chordboard-footprints:C_0805_HandSoldering" H 1800 3750 50  0001 C CNN
F 3 "" H 1800 3750 50  0001 C CNN
	1    1800 3750
	-1   0    0    -1  
$EndComp
$Comp
L C C?
U 1 1 5AA96334
P 2050 3750
F 0 "C?" H 2060 3820 50  0000 L CNN
F 1 "0.1uF" H 2060 3670 50  0000 L CNN
F 2 "chordboard-footprints:C_0805_HandSoldering" H 2050 3750 50  0001 C CNN
F 3 "" H 2050 3750 50  0001 C CNN
	1    2050 3750
	-1   0    0    -1  
$EndComp
Connection ~ 2050 3650
Connection ~ 2050 3850
$Comp
L C C?
U 1 1 5AA9633D
P 2300 3750
F 0 "C?" H 2310 3820 50  0000 L CNN
F 1 "0.1uF" H 2310 3670 50  0000 L CNN
F 2 "chordboard-footprints:C_0805_HandSoldering" H 2300 3750 50  0001 C CNN
F 3 "" H 2300 3750 50  0001 C CNN
	1    2300 3750
	-1   0    0    -1  
$EndComp
$Comp
L C C?
U 1 1 5AA96344
P 2550 3750
F 0 "C?" H 2560 3820 50  0000 L CNN
F 1 "0.1uF" H 2560 3670 50  0000 L CNN
F 2 "chordboard-footprints:C_0805_HandSoldering" H 2550 3750 50  0001 C CNN
F 3 "" H 2550 3750 50  0001 C CNN
	1    2550 3750
	-1   0    0    -1  
$EndComp
Connection ~ 2550 3650
Connection ~ 2550 3850
$Comp
L C C?
U 1 1 5AA9634D
P 2800 3750
F 0 "C?" H 2810 3820 50  0000 L CNN
F 1 "0.1uF" H 2810 3670 50  0000 L CNN
F 2 "chordboard-footprints:C_0805_HandSoldering" H 2800 3750 50  0001 C CNN
F 3 "" H 2800 3750 50  0001 C CNN
	1    2800 3750
	-1   0    0    -1  
$EndComp
$Comp
L C C?
U 1 1 5AA96354
P 3050 3750
F 0 "C?" H 3060 3820 50  0000 L CNN
F 1 "0.1uF" H 3060 3670 50  0000 L CNN
F 2 "chordboard-footprints:C_0805_HandSoldering" H 3050 3750 50  0001 C CNN
F 3 "" H 3050 3750 50  0001 C CNN
	1    3050 3750
	-1   0    0    -1  
$EndComp
Connection ~ 3050 3650
Connection ~ 3050 3850
Connection ~ 1800 3650
Connection ~ 1800 3850
Connection ~ 2300 3650
Connection ~ 2300 3850
Connection ~ 2800 3650
Connection ~ 2800 3850
$Comp
L C C?
U 1 1 5AA96363
P 3300 3750
F 0 "C?" H 3310 3820 50  0000 L CNN
F 1 "0.1uF" H 3310 3670 50  0000 L CNN
F 2 "chordboard-footprints:C_0805_HandSoldering" H 3300 3750 50  0001 C CNN
F 3 "" H 3300 3750 50  0001 C CNN
	1    3300 3750
	-1   0    0    -1  
$EndComp
$Comp
L C C?
U 1 1 5AA9636A
P 3550 3750
F 0 "C?" H 3560 3820 50  0000 L CNN
F 1 "0.1uF" H 3560 3670 50  0000 L CNN
F 2 "chordboard-footprints:C_0805_HandSoldering" H 3550 3750 50  0001 C CNN
F 3 "" H 3550 3750 50  0001 C CNN
	1    3550 3750
	-1   0    0    -1  
$EndComp
$Comp
L C C?
U 1 1 5AA96371
P 3800 3750
F 0 "C?" H 3810 3820 50  0000 L CNN
F 1 "0.1uF" H 3810 3670 50  0000 L CNN
F 2 "chordboard-footprints:C_0805_HandSoldering" H 3800 3750 50  0001 C CNN
F 3 "" H 3800 3750 50  0001 C CNN
	1    3800 3750
	-1   0    0    -1  
$EndComp
$Comp
L C C?
U 1 1 5AA96378
P 4050 3750
F 0 "C?" H 4060 3820 50  0000 L CNN
F 1 "0.1uF" H 4060 3670 50  0000 L CNN
F 2 "chordboard-footprints:C_0805_HandSoldering" H 4050 3750 50  0001 C CNN
F 3 "" H 4050 3750 50  0001 C CNN
	1    4050 3750
	-1   0    0    -1  
$EndComp
$Comp
L C C?
U 1 1 5AA9637F
P 4300 3750
F 0 "C?" H 4310 3820 50  0000 L CNN
F 1 "0.1uF" H 4310 3670 50  0000 L CNN
F 2 "chordboard-footprints:C_0805_HandSoldering" H 4300 3750 50  0001 C CNN
F 3 "" H 4300 3750 50  0001 C CNN
	1    4300 3750
	-1   0    0    -1  
$EndComp
Connection ~ 3300 3650
Connection ~ 3550 3650
Connection ~ 3800 3650
Connection ~ 4050 3650
Connection ~ 4050 3850
Connection ~ 3800 3850
Connection ~ 3300 3850
Connection ~ 3550 3850
Wire Wire Line
	1300 3650 1300 3500
$Comp
L +5V #PWR?
U 1 1 5AA9638F
P 1300 3500
F 0 "#PWR?" H 1300 3350 50  0001 C CNN
F 1 "+5V" H 1300 3640 50  0000 C CNN
F 2 "" H 1300 3500 50  0001 C CNN
F 3 "" H 1300 3500 50  0001 C CNN
	1    1300 3500
	1    0    0    -1  
$EndComp
Connection ~ 1300 3650
Wire Wire Line
	1300 3850 1300 4000
$Comp
L GND #PWR?
U 1 1 5AA96397
P 1300 4000
F 0 "#PWR?" H 1300 3750 50  0001 C CNN
F 1 "GND" H 1300 3850 50  0000 C CNN
F 2 "" H 1300 4000 50  0000 C CNN
F 3 "" H 1300 4000 50  0000 C CNN
	1    1300 4000
	1    0    0    -1  
$EndComp
Connection ~ 1300 3850
$EndSCHEMATC
