EESchema Schematic File Version 2
LIBS:pic16test-rescue
LIBS:power
LIBS:chordboard-components
LIBS:MCU_Microchip_PIC16
LIBS:Connector
LIBS:device
LIBS:regul
LIBS:Switch
LIBS:ESP32
LIBS:ESP32-footprints-Shem-Lib
LIBS:espressif-xess
LIBS:Kicad-Teensy
LIBS:memory
LIBS:microchip
LIBS:atmel
LIBS:Transistor
LIBS:ftdi
LIBS:texas
LIBS:ESD_Protection
LIBS:SparkFun-Connectors
LIBS:pic16test-cache
EELAYER 25 0
EELAYER END
$Descr A1 33110 23386
encoding utf-8
Sheet 4 4
Title ""
Date ""
Rev ""
Comp ""
Comment1 ""
Comment2 ""
Comment3 ""
Comment4 ""
$EndDescr
Text Label 3850 2800 2    60   ~ 0
WIFI_TXD2
$Comp
L GND #PWR?
U 1 1 5AFEEC45
P 3750 3550
F 0 "#PWR?" H 3750 3300 50  0001 C CNN
F 1 "GND" H 3750 3400 50  0000 C CNN
F 2 "" H 3750 3550 50  0001 C CNN
F 3 "" H 3750 3550 50  0001 C CNN
	1    3750 3550
	1    0    0    -1  
$EndComp
$Comp
L Conn_01x06 J?
U 1 1 5AFEEC4B
P 4050 2950
F 0 "J?" H 4050 3300 50  0000 C CNN
F 1 "CONN_01X06" V 4150 2950 50  0000 C CNN
F 2 "Pin_Headers:Pin_Header_Straight_1x06_Pitch2.54mm" H 4050 2950 50  0001 C CNN
F 3 "" H 4050 2950 50  0001 C CNN
	1    4050 2950
	1    0    0    -1  
$EndComp
$Comp
L GND #PWR?
U 1 1 5AFEEC52
P 11800 4650
F 0 "#PWR?" H 11800 4400 50  0001 C CNN
F 1 "GND" H 11800 4500 50  0000 C CNN
F 2 "" H 11800 4650 50  0001 C CNN
F 3 "" H 11800 4650 50  0001 C CNN
	1    11800 4650
	-1   0    0    -1  
$EndComp
$Comp
L +5V #PWR?
U 1 1 5AFEEC58
P 11300 3800
F 0 "#PWR?" H 11300 3650 50  0001 C CNN
F 1 "+5V" H 11300 3940 50  0000 C CNN
F 2 "" H 11300 3800 50  0001 C CNN
F 3 "" H 11300 3800 50  0001 C CNN
	1    11300 3800
	1    0    0    -1  
$EndComp
$Comp
L C C?
U 1 1 5AFEEC5E
P 11300 4300
F 0 "C?" H 11310 4370 50  0000 L CNN
F 1 "0.1uF" H 11310 4220 50  0000 L CNN
F 2 "Capacitors_SMD:C_0603" H 11300 4300 50  0001 C CNN
F 3 "" H 11300 4300 50  0001 C CNN
	1    11300 4300
	1    0    0    -1  
$EndComp
$Comp
L C C?
U 1 1 5AFEEC65
P 12300 4300
F 0 "C?" H 12310 4370 50  0000 L CNN
F 1 "10uF" H 12310 4220 50  0000 L CNN
F 2 "Capacitors_SMD:C_1206" H 12300 4300 50  0001 C CNN
F 3 "" H 12300 4300 50  0001 C CNN
	1    12300 4300
	1    0    0    -1  
$EndComp
Text Label 2750 2800 2    60   ~ 0
U3_TX
$Comp
L GND #PWR?
U 1 1 5AFEEC6D
P 2650 3550
F 0 "#PWR?" H 2650 3300 50  0001 C CNN
F 1 "GND" H 2650 3400 50  0000 C CNN
F 2 "" H 2650 3550 50  0001 C CNN
F 3 "" H 2650 3550 50  0001 C CNN
	1    2650 3550
	1    0    0    -1  
$EndComp
$Comp
L Conn_01x06 J?
U 1 1 5AFEEC73
P 2950 2950
F 0 "J?" H 2950 3300 50  0000 C CNN
F 1 "CONN_01X06" V 3050 2950 50  0000 C CNN
F 2 "Pin_Headers:Pin_Header_Straight_1x06_Pitch2.54mm" H 2950 2950 50  0001 C CNN
F 3 "" H 2950 2950 50  0001 C CNN
	1    2950 2950
	1    0    0    -1  
$EndComp
$Comp
L GND #PWR?
U 1 1 5AFEEC7A
P 4800 3550
F 0 "#PWR?" H 4800 3300 50  0001 C CNN
F 1 "GND" H 4800 3400 50  0000 C CNN
F 2 "" H 4800 3550 50  0001 C CNN
F 3 "" H 4800 3550 50  0001 C CNN
	1    4800 3550
	1    0    0    -1  
$EndComp
$Comp
L Conn_01x06 J?
U 1 1 5AFEEC80
P 5100 2950
F 0 "J?" H 5100 3300 50  0000 C CNN
F 1 "CONN_01X06" V 5200 2950 50  0000 C CNN
F 2 "Pin_Headers:Pin_Header_Straight_1x06_Pitch2.54mm" H 5100 2950 50  0001 C CNN
F 3 "" H 5100 2950 50  0001 C CNN
	1    5100 2950
	1    0    0    -1  
$EndComp
Text Label 4900 2800 2    60   ~ 0
WIFI_TXD
Text Label 4900 2900 2    60   ~ 0
WIFI_RXD
Text Label 3850 2900 2    60   ~ 0
WIFI_RXD2
$Comp
L Polyfuse F?
U 1 1 5AFEEC8A
P 9400 3950
F 0 "F?" V 9300 3950 50  0000 C CNN
F 1 "Polyfuse" V 9500 3950 50  0000 C CNN
F 2 "Fuse_Holders_and_Fuses:Fuse_SMD1206_Reflow" H 9450 3750 50  0001 L CNN
F 3 "" H 9400 3950 50  0001 C CNN
	1    9400 3950
	0    1    1    0   
$EndComp
$Comp
L VBUS #PWR?
U 1 1 5AFEEC91
P 8600 3750
F 0 "#PWR?" H 8600 3600 50  0001 C CNN
F 1 "VBUS" H 8600 3900 50  0000 C CNN
F 2 "" H 8600 3750 50  0001 C CNN
F 3 "" H 8600 3750 50  0001 C CNN
	1    8600 3750
	1    0    0    -1  
$EndComp
$Comp
L D D?
U 1 1 5AFEEC97
P 8950 3950
F 0 "D?" H 8950 4050 50  0000 C CNN
F 1 "D" H 8950 3850 50  0000 C CNN
F 2 "chordboard-footprints:D_SOD-123_HANDSOLDER" H 8950 3950 50  0001 C CNN
F 3 "" H 8950 3950 50  0001 C CNN
	1    8950 3950
	-1   0    0    1   
$EndComp
$Comp
L +5V #PWR?
U 1 1 5AFEEC9E
P 9950 3750
F 0 "#PWR?" H 9950 3600 50  0001 C CNN
F 1 "+5V" H 9950 3890 50  0000 C CNN
F 2 "" H 9950 3750 50  0001 C CNN
F 3 "" H 9950 3750 50  0001 C CNN
	1    9950 3750
	1    0    0    -1  
$EndComp
$Comp
L +3V3 #PWR?
U 1 1 5AFEECA4
P 12300 3800
F 0 "#PWR?" H 12300 3650 50  0001 C CNN
F 1 "+3V3" H 12300 3940 50  0000 C CNN
F 2 "" H 12300 3800 50  0001 C CNN
F 3 "" H 12300 3800 50  0001 C CNN
	1    12300 3800
	1    0    0    -1  
$EndComp
$Comp
L C C?
U 1 1 5AFEECAA
P 8600 4350
F 0 "C?" H 8610 4420 50  0000 L CNN
F 1 "2.2uF" H 8610 4270 50  0000 L CNN
F 2 "Capacitors_SMD:C_0805" H 8600 4350 50  0001 C CNN
F 3 "" H 8600 4350 50  0001 C CNN
	1    8600 4350
	1    0    0    -1  
$EndComp
$Comp
L GND #PWR?
U 1 1 5AFEECB1
P 8600 4700
F 0 "#PWR?" H 8600 4450 50  0001 C CNN
F 1 "GND" H 8600 4550 50  0000 C CNN
F 2 "" H 8600 4700 50  0001 C CNN
F 3 "" H 8600 4700 50  0001 C CNN
	1    8600 4700
	-1   0    0    -1  
$EndComp
$Comp
L LD1117S33TR_SOT223 U?
U 1 1 5AFEECB7
P 11800 4100
F 0 "U?" H 11650 4225 50  0000 C CNN
F 1 "LD1117S33TR_SOT223" H 11800 4225 50  0000 L CNN
F 2 "TO_SOT_Packages_SMD:SOT-223-3_TabPin2" H 11800 4300 50  0001 C CNN
F 3 "" H 11900 3850 50  0001 C CNN
	1    11800 4100
	1    0    0    -1  
$EndComp
$Comp
L SAMD21E U?
U 1 1 5AFEECBE
P 3750 6450
F 0 "U?" H 3350 5500 60  0000 C CNN
F 1 "SAMD21E" V 3750 6400 60  0000 C CNN
F 2 "Housings_QFP:TQFP-32_7x7mm_Pitch0.8mm" H 3700 6500 60  0001 C CNN
F 3 "" H 3700 6500 60  0001 C CNN
	1    3750 6450
	1    0    0    -1  
$EndComp
$Comp
L Crystal_Small Y?
U 1 1 5AFEECC5
P 2250 6350
F 0 "Y?" H 2250 6450 50  0000 C CNN
F 1 "Crystal_Small" H 2250 6250 50  0000 C CNN
F 2 "Crystals:Crystal_SMD_3215-2pin_3.2x1.5mm" H 2250 6350 50  0001 C CNN
F 3 "" H 2250 6350 50  0001 C CNN
	1    2250 6350
	-1   0    0    -1  
$EndComp
$Comp
L C C?
U 1 1 5AFEECCC
P 2100 6550
F 0 "C?" H 2110 6620 50  0000 L CNN
F 1 "18pF" H 2110 6470 50  0000 L CNN
F 2 "Capacitors_SMD:C_0603" H 2100 6550 50  0001 C CNN
F 3 "" H 2100 6550 50  0001 C CNN
	1    2100 6550
	1    0    0    -1  
$EndComp
$Comp
L C C?
U 1 1 5AFEECD3
P 2400 6550
F 0 "C?" H 2410 6620 50  0000 L CNN
F 1 "18pF" H 2410 6470 50  0000 L CNN
F 2 "Capacitors_SMD:C_0603" H 2400 6550 50  0001 C CNN
F 3 "" H 2400 6550 50  0001 C CNN
	1    2400 6550
	1    0    0    -1  
$EndComp
$Comp
L GND #PWR?
U 1 1 5AFEECDA
P 2100 7450
F 0 "#PWR?" H 2100 7200 50  0001 C CNN
F 1 "GND" H 2100 7300 50  0000 C CNN
F 2 "" H 2100 7450 50  0001 C CNN
F 3 "" H 2100 7450 50  0001 C CNN
	1    2100 7450
	1    0    0    -1  
$EndComp
$Comp
L +3V3 #PWR?
U 1 1 5AFEECE0
P 3850 4750
F 0 "#PWR?" H 3850 4600 50  0001 C CNN
F 1 "+3V3" H 3850 4890 50  0000 C CNN
F 2 "" H 3850 4750 50  0001 C CNN
F 3 "" H 3850 4750 50  0001 C CNN
	1    3850 4750
	1    0    0    -1  
$EndComp
$Comp
L R R?
U 1 1 5AFEECE6
P 4200 5150
F 0 "R?" V 4250 5250 50  0000 L CNN
F 1 "10K" V 4200 5100 50  0000 L CNN
F 2 "Resistors_SMD:R_0603" H 4200 5150 50  0001 C CNN
F 3 "" H 4200 5150 50  0001 C CNN
	1    4200 5150
	0    1    1    0   
$EndComp
$Comp
L R R?
U 1 1 5AFEECED
P 4600 5150
F 0 "R?" V 4650 5250 50  0000 L CNN
F 1 "330" V 4600 5100 50  0000 L CNN
F 2 "Resistors_SMD:R_0603" H 4600 5150 50  0001 C CNN
F 3 "" H 4600 5150 50  0001 C CNN
	1    4600 5150
	0    -1   -1   0   
$EndComp
$Comp
L GND #PWR?
U 1 1 5AFEECF4
P 5100 5450
F 0 "#PWR?" H 5100 5200 50  0001 C CNN
F 1 "GND" H 5100 5300 50  0000 C CNN
F 2 "" H 5100 5450 50  0001 C CNN
F 3 "" H 5100 5450 50  0001 C CNN
	1    5100 5450
	1    0    0    -1  
$EndComp
$Comp
L GND #PWR?
U 1 1 5AFEECFA
P 3750 7700
F 0 "#PWR?" H 3750 7450 50  0001 C CNN
F 1 "GND" H 3750 7550 50  0000 C CNN
F 2 "" H 3750 7700 50  0001 C CNN
F 3 "" H 3750 7700 50  0001 C CNN
	1    3750 7700
	1    0    0    -1  
$EndComp
Text Label 4350 7200 0    60   ~ 0
SDA
Text Label 4350 7100 0    60   ~ 0
SCL
$Comp
L R R?
U 1 1 5AFEED02
P 6750 6900
F 0 "R?" V 6800 7000 50  0000 L CNN
F 1 "2.2K" V 6750 6850 50  0000 L CNN
F 2 "Resistors_SMD:R_0603" H 6750 6900 50  0001 C CNN
F 3 "" H 6750 6900 50  0001 C CNN
	1    6750 6900
	-1   0    0    1   
$EndComp
$Comp
L R R?
U 1 1 5AFEED09
P 6850 6900
F 0 "R?" V 6900 7000 50  0000 L CNN
F 1 "2.2K" V 6850 6850 50  0000 L CNN
F 2 "Resistors_SMD:R_0603" H 6850 6900 50  0001 C CNN
F 3 "" H 6850 6900 50  0001 C CNN
	1    6850 6900
	-1   0    0    1   
$EndComp
$Comp
L +3V3 #PWR?
U 1 1 5AFEED10
P 6800 6450
F 0 "#PWR?" H 6800 6300 50  0001 C CNN
F 1 "+3V3" H 6800 6590 50  0000 C CNN
F 2 "" H 6800 6450 50  0001 C CNN
F 3 "" H 6800 6450 50  0001 C CNN
	1    6800 6450
	1    0    0    -1  
$EndComp
Text Label 4350 6600 0    60   ~ 0
D-
Text Label 4350 6500 0    60   ~ 0
D+
$Comp
L Conn_ARM_JTAG_SWD_10_SAMD J?
U 1 1 5AFEED18
P 5850 6200
F 0 "J?" H 5750 6850 50  0000 R CNN
F 1 "Conn_ARM_JTAG_SWD_10_SAMD" H 5750 6750 50  0000 R BNN
F 2 "Connectors_IDC:IDC-Header_2x05_Pitch2.54mm_Straight" H 5900 5650 50  0001 L TNN
F 3 "" V 5500 4950 50  0001 C CNN
	1    5850 6200
	-1   0    0    -1  
$EndComp
$Comp
L GND #PWR?
U 1 1 5AFEED1F
P 5900 7650
F 0 "#PWR?" H 5900 7400 50  0001 C CNN
F 1 "GND" H 5900 7500 50  0000 C CNN
F 2 "" H 5900 7650 50  0001 C CNN
F 3 "" H 5900 7650 50  0001 C CNN
	1    5900 7650
	1    0    0    -1  
$EndComp
$Comp
L SPST S?
U 1 1 5AFEED25
P 4900 5150
F 0 "S?" H 4890 5235 60  0000 C CNN
F 1 "SPST" H 4900 5055 60  0000 C CNN
F 2 "Buttons_Switches_SMD:SW_SPST_B3U-1000P-B" H 4900 5150 60  0001 C CNN
F 3 "" H 4900 5150 60  0001 C CNN
	1    4900 5150
	1    0    0    -1  
$EndComp
$Comp
L +3V3 #PWR?
U 1 1 5AFEED2C
P 5850 5300
F 0 "#PWR?" H 5850 5150 50  0001 C CNN
F 1 "+3V3" H 5850 5440 50  0000 C CNN
F 2 "" H 5850 5300 50  0001 C CNN
F 3 "" H 5850 5300 50  0001 C CNN
	1    5850 5300
	1    0    0    -1  
$EndComp
Text Label 12650 7750 0    60   ~ 0
D+
Text Label 3150 5900 2    60   ~ 0
OSC0
Text Label 3150 6000 2    60   ~ 0
OSC1
$Comp
L C C?
U 1 1 5AFEED35
P 3350 5400
F 0 "C?" H 3360 5470 50  0000 L CNN
F 1 "1uF" H 3360 5320 50  0000 L CNN
F 2 "Capacitors_SMD:C_0603" H 3350 5400 50  0001 C CNN
F 3 "" H 3350 5400 50  0001 C CNN
	1    3350 5400
	1    0    0    -1  
$EndComp
$Comp
L C C?
U 1 1 5AFEED3C
P 2450 5400
F 0 "C?" H 2460 5470 50  0000 L CNN
F 1 "10uF" H 2460 5320 50  0000 L CNN
F 2 "Capacitors_SMD:C_1206" H 2450 5400 50  0001 C CNN
F 3 "" H 2450 5400 50  0001 C CNN
	1    2450 5400
	1    0    0    -1  
$EndComp
$Comp
L GND #PWR?
U 1 1 5AFEED43
P 1650 5750
F 0 "#PWR?" H 1650 5500 50  0001 C CNN
F 1 "GND" H 1650 5600 50  0000 C CNN
F 2 "" H 1650 5750 50  0001 C CNN
F 3 "" H 1650 5750 50  0001 C CNN
	1    1650 5750
	1    0    0    -1  
$EndComp
$Comp
L C C?
U 1 1 5AFEED49
P 2650 5400
F 0 "C?" H 2660 5470 50  0000 L CNN
F 1 "0.1uF" H 2660 5320 50  0000 L CNN
F 2 "Capacitors_SMD:C_0603" H 2650 5400 50  0001 C CNN
F 3 "" H 2650 5400 50  0001 C CNN
	1    2650 5400
	1    0    0    -1  
$EndComp
$Comp
L C C?
U 1 1 5AFEED50
P 2850 5400
F 0 "C?" H 2860 5470 50  0000 L CNN
F 1 "10uF" H 2860 5320 50  0000 L CNN
F 2 "Capacitors_SMD:C_1206" H 2850 5400 50  0001 C CNN
F 3 "" H 2850 5400 50  0001 C CNN
	1    2850 5400
	1    0    0    -1  
$EndComp
$Comp
L C C?
U 1 1 5AFEED57
P 3050 5400
F 0 "C?" H 3060 5470 50  0000 L CNN
F 1 "0.1uF" H 3060 5320 50  0000 L CNN
F 2 "Capacitors_SMD:C_0603" H 3050 5400 50  0001 C CNN
F 3 "" H 3050 5400 50  0001 C CNN
	1    3050 5400
	1    0    0    -1  
$EndComp
$Comp
L L_Core_Ferrite L?
U 1 1 5AFEED5E
P 9400 3300
F 0 "L?" V 9350 3300 50  0000 C CNN
F 1 "L_Core_Ferrite" V 9510 3300 50  0000 C CNN
F 2 "Capacitors_SMD:C_0805" H 9400 3300 50  0001 C CNN
F 3 "" H 9400 3300 50  0001 C CNN
	1    9400 3300
	0    1    1    0   
$EndComp
$Comp
L L_Core_Ferrite L?
U 1 1 5AFEED65
P 3550 4950
F 0 "L?" V 3500 4950 50  0000 C CNN
F 1 "L_Core_Ferrite" V 3660 4950 50  0000 C CNN
F 2 "Capacitors_SMD:C_0805" H 3550 4950 50  0001 C CNN
F 3 "" H 3550 4950 50  0001 C CNN
	1    3550 4950
	0    1    1    0   
$EndComp
$Comp
L C C?
U 1 1 5AFEED6C
P 4800 5550
F 0 "C?" H 4810 5620 50  0000 L CNN
F 1 "0.1uF" H 4810 5470 50  0000 L CNN
F 2 "Capacitors_SMD:C_0603" H 4800 5550 50  0001 C CNN
F 3 "" H 4800 5550 50  0001 C CNN
	1    4800 5550
	1    0    0    -1  
$EndComp
$Comp
L R R?
U 1 1 5AFEED73
P 5500 5400
F 0 "R?" V 5550 5500 50  0000 L CNN
F 1 "1K" V 5500 5350 50  0000 L CNN
F 2 "Resistors_SMD:R_0603" H 5500 5400 50  0001 C CNN
F 3 "" H 5500 5400 50  0001 C CNN
	1    5500 5400
	0    -1   -1   0   
$EndComp
Wire Wire Line
	3850 3200 3750 3200
Wire Wire Line
	3750 3200 3750 3550
Wire Wire Line
	12300 4100 12100 4100
Wire Wire Line
	12300 3800 12300 4200
Wire Wire Line
	11300 4100 11500 4100
Wire Wire Line
	11800 4400 11800 4650
Wire Wire Line
	11300 4500 12300 4500
Wire Wire Line
	11300 4500 11300 4400
Wire Wire Line
	12300 4500 12300 4400
Connection ~ 11800 4500
Connection ~ 11300 4100
Connection ~ 12300 4100
Wire Wire Line
	11300 3800 11300 4200
Wire Wire Line
	2750 3200 2650 3200
Wire Wire Line
	2650 3200 2650 3550
Wire Wire Line
	4900 3200 4800 3200
Wire Wire Line
	4800 3200 4800 3550
Wire Wire Line
	8600 3750 8600 4250
Wire Wire Line
	8600 3950 8800 3950
Wire Wire Line
	9100 3950 9250 3950
Wire Wire Line
	9950 3950 9950 3750
Connection ~ 8600 3950
Wire Wire Line
	8600 4450 8600 4700
Wire Wire Line
	2100 5900 2100 6450
Wire Wire Line
	2100 6350 2150 6350
Wire Wire Line
	2400 6000 2400 6450
Wire Wire Line
	2400 6350 2350 6350
Wire Wire Line
	3150 6000 2400 6000
Wire Wire Line
	3150 5900 2100 5900
Connection ~ 2400 6350
Connection ~ 2100 6350
Wire Wire Line
	2100 6650 2100 7450
Wire Wire Line
	2100 6750 2400 6750
Wire Wire Line
	2400 6750 2400 6650
Connection ~ 2100 6750
Wire Wire Line
	3850 4750 3850 5650
Wire Wire Line
	4300 5150 4500 5150
Connection ~ 4400 5150
Wire Wire Line
	2850 5150 3750 5150
Wire Wire Line
	3850 5150 4100 5150
Wire Wire Line
	4700 5150 4750 5150
Wire Wire Line
	3700 7450 3800 7450
Wire Wire Line
	3750 7450 3750 7700
Connection ~ 3750 7450
Wire Wire Line
	4350 7100 6750 7100
Wire Wire Line
	4350 7200 6850 7200
Wire Wire Line
	6850 7200 6850 7000
Wire Wire Line
	6750 7100 6750 7000
Wire Wire Line
	6750 6800 6750 6700
Wire Wire Line
	6750 6700 6850 6700
Wire Wire Line
	6850 6700 6850 6800
Wire Wire Line
	6800 6700 6800 6450
Connection ~ 6800 6700
Wire Wire Line
	4400 5150 4400 5900
Wire Wire Line
	4350 5900 5350 5900
Connection ~ 4400 5900
Wire Wire Line
	4350 6100 5350 6100
Wire Wire Line
	4350 6200 5350 6200
Wire Wire Line
	5850 6800 5850 6850
Wire Wire Line
	5850 6850 5950 6850
Wire Wire Line
	5950 6850 5950 6800
Wire Wire Line
	5900 6850 5900 7650
Connection ~ 5900 6850
Wire Wire Line
	5050 5150 5100 5150
Wire Wire Line
	5100 5150 5100 5450
Wire Wire Line
	5850 5300 5850 5600
Wire Wire Line
	9950 3950 9550 3950
Connection ~ 3850 5150
Wire Wire Line
	3650 5650 3650 5250
Wire Wire Line
	3650 5250 3350 5250
Wire Wire Line
	3350 5250 3350 5300
Wire Wire Line
	3350 5650 3350 5500
Wire Wire Line
	3750 4950 3750 5650
Wire Wire Line
	2450 4800 3850 4800
Wire Wire Line
	2450 4800 2450 5300
Connection ~ 3850 4800
Wire Wire Line
	2450 5500 2450 5650
Wire Wire Line
	2650 5300 2650 4800
Connection ~ 2650 4800
Wire Wire Line
	2650 5650 2650 5500
Wire Wire Line
	2850 5150 2850 5300
Wire Wire Line
	2850 5650 2850 5500
Wire Wire Line
	3050 5300 3050 5150
Wire Wire Line
	3050 5650 3050 5500
Connection ~ 3750 5150
Connection ~ 3050 5150
Wire Wire Line
	3750 4950 3700 4950
Wire Wire Line
	3400 4950 3350 4950
Wire Wire Line
	3350 4950 3350 4800
Connection ~ 3350 4800
Wire Wire Line
	1650 5650 3350 5650
Connection ~ 3050 5650
Connection ~ 2850 5650
Connection ~ 2650 5650
Wire Wire Line
	1650 5650 1650 5750
Connection ~ 2450 5650
Wire Wire Line
	4800 5450 4800 5400
Wire Wire Line
	4800 5400 5100 5400
Connection ~ 5100 5400
Wire Wire Line
	4800 5650 4800 5900
Connection ~ 4800 5900
Wire Wire Line
	5300 6200 5300 5400
Wire Wire Line
	5300 5400 5400 5400
Connection ~ 5300 6200
Wire Wire Line
	5600 5400 5850 5400
Connection ~ 5850 5400
$Comp
L TPD2EUSB30 U?
U 1 1 5AFEEDE4
P 11850 8450
F 0 "U?" H 11850 8800 50  0000 C CNN
F 1 "TPD2EUSB30" H 11850 8700 50  0000 C CNN
F 2 "TO_SOT_Packages_SMD:SOT-23" H 11850 8450 50  0001 C CNN
F 3 "" H 11850 8450 50  0001 C CNN
	1    11850 8450
	1    0    0    -1  
$EndComp
$Comp
L GND #PWR?
U 1 1 5AFEEDEB
P 11850 9100
F 0 "#PWR?" H 11850 8850 50  0001 C CNN
F 1 "GND" H 11850 8950 50  0000 C CNN
F 2 "" H 11850 9100 50  0001 C CNN
F 3 "" H 11850 9100 50  0001 C CNN
	1    11850 9100
	1    0    0    -1  
$EndComp
$Comp
L GND #PWR?
U 1 1 5AFEEDF1
P 10950 8450
F 0 "#PWR?" H 10950 8200 50  0001 C CNN
F 1 "GND" H 10950 8300 50  0000 C CNN
F 2 "" H 10950 8450 50  0001 C CNN
F 3 "" H 10950 8450 50  0001 C CNN
	1    10950 8450
	1    0    0    -1  
$EndComp
Wire Wire Line
	12250 8450 12250 7850
Connection ~ 12250 7850
Wire Wire Line
	11450 8450 11450 7750
Connection ~ 11450 7750
Wire Wire Line
	11850 8850 11850 9100
Text Label 12650 7850 0    60   ~ 0
D-
$Comp
L USB_B J?
U 1 1 5AFEEDFD
P 10950 7750
F 0 "J?" H 10750 8200 50  0000 L CNN
F 1 "USB_B" H 10750 8100 50  0000 L CNN
F 2 "Connectors:USB_B" H 11100 7700 50  0001 C CNN
F 3 "" H 11100 7700 50  0001 C CNN
	1    10950 7750
	1    0    0    -1  
$EndComp
Wire Wire Line
	10950 8150 10950 8450
Wire Wire Line
	11250 7550 11350 7550
Wire Wire Line
	11350 7550 11350 7350
$Comp
L VBUS #PWR?
U 1 1 5AFEEE07
P 11350 7350
F 0 "#PWR?" H 11350 7200 50  0001 C CNN
F 1 "VBUS" H 11350 7500 50  0000 C CNN
F 2 "" H 11350 7350 50  0001 C CNN
F 3 "" H 11350 7350 50  0001 C CNN
	1    11350 7350
	1    0    0    -1  
$EndComp
Wire Wire Line
	11250 7750 12650 7750
Wire Wire Line
	11250 7850 12650 7850
Text Label 3150 6900 2    60   ~ 0
TX1
Text Label 3150 7000 2    60   ~ 0
RX1
Text Label 3150 7100 2    60   ~ 0
TX2
Text Label 3150 7200 2    60   ~ 0
RX2
Text Label 4350 7000 0    60   ~ 0
MOSI
Text Label 4350 6900 0    60   ~ 0
SCK
Text Label 4350 6800 0    60   ~ 0
MISO
Text Label 4350 6700 0    60   ~ 0
SS
Text Label 4350 6400 0    60   ~ 0
CS
$EndSCHEMATC
