(export (version D)
  (design
    (source /home/afshar/src/chordboard/hard/v11/fe.sch)
    (date "Sat 14 Jul 2018 04:02:53 PM BST")
    (tool "Eeschema 4.0.7")
    (sheet (number 1) (name /) (tstamps /)
      (title_block
        (title)
        (company)
        (rev)
        (date)
        (source fe.sch)
        (comment (number 1) (value ""))
        (comment (number 2) (value ""))
        (comment (number 3) (value ""))
        (comment (number 4) (value "")))))
  (components
    (comp (ref S1)
      (value SPST)
      (footprint chordboard-footprints:CHERRY_PCB_100H)
      (libsource (lib chordboard-components) (part SPST))
      (sheetpath (names /) (tstamps /))
      (tstamp 5B489E2B))
    (comp (ref S2)
      (value SPST)
      (footprint chordboard-footprints:CHERRY_PCB_100H)
      (libsource (lib chordboard-components) (part SPST))
      (sheetpath (names /) (tstamps /))
      (tstamp 5B489E82))
    (comp (ref S3)
      (value SPST)
      (footprint chordboard-footprints:CHERRY_PCB_100H)
      (libsource (lib chordboard-components) (part SPST))
      (sheetpath (names /) (tstamps /))
      (tstamp 5B489EA6))
    (comp (ref S4)
      (value SPST)
      (footprint chordboard-footprints:CHERRY_PCB_100H)
      (libsource (lib chordboard-components) (part SPST))
      (sheetpath (names /) (tstamps /))
      (tstamp 5B489EC1))
    (comp (ref S5)
      (value SPST)
      (footprint chordboard-footprints:CHERRY_PCB_100H)
      (libsource (lib chordboard-components) (part SPST))
      (sheetpath (names /) (tstamps /))
      (tstamp 5B489EDF))
    (comp (ref S6)
      (value SPST)
      (footprint chordboard-footprints:CHERRY_PCB_100H)
      (libsource (lib chordboard-components) (part SPST))
      (sheetpath (names /) (tstamps /))
      (tstamp 5B489F14))
    (comp (ref S7)
      (value SPST)
      (footprint chordboard-footprints:CHERRY_PCB_100H)
      (libsource (lib chordboard-components) (part SPST))
      (sheetpath (names /) (tstamps /))
      (tstamp 5B489F42))
    (comp (ref S8)
      (value SPST)
      (footprint chordboard-footprints:CHERRY_PCB_100H)
      (libsource (lib chordboard-components) (part SPST))
      (sheetpath (names /) (tstamps /))
      (tstamp 5B489F6B))
    (comp (ref S9)
      (value SPST)
      (footprint chordboard-footprints:CHERRY_PCB_100H)
      (libsource (lib chordboard-components) (part SPST))
      (sheetpath (names /) (tstamps /))
      (tstamp 5B48B079))
    (comp (ref S10)
      (value SPST)
      (footprint chordboard-footprints:CHERRY_PCB_100H)
      (libsource (lib chordboard-components) (part SPST))
      (sheetpath (names /) (tstamps /))
      (tstamp 5B48B07F))
    (comp (ref S11)
      (value SPST)
      (footprint chordboard-footprints:CHERRY_PCB_100H)
      (libsource (lib chordboard-components) (part SPST))
      (sheetpath (names /) (tstamps /))
      (tstamp 5B48B085))
    (comp (ref S12)
      (value SPST)
      (footprint chordboard-footprints:CHERRY_PCB_100H)
      (libsource (lib chordboard-components) (part SPST))
      (sheetpath (names /) (tstamps /))
      (tstamp 5B48B08B))
    (comp (ref S13)
      (value SPST)
      (footprint chordboard-footprints:CHERRY_PCB_100H)
      (libsource (lib chordboard-components) (part SPST))
      (sheetpath (names /) (tstamps /))
      (tstamp 5B48B091))
    (comp (ref S14)
      (value SPST)
      (footprint chordboard-footprints:CHERRY_PCB_100H)
      (libsource (lib chordboard-components) (part SPST))
      (sheetpath (names /) (tstamps /))
      (tstamp 5B48B097))
    (comp (ref S15)
      (value SPST)
      (footprint chordboard-footprints:CHERRY_PCB_100H)
      (libsource (lib chordboard-components) (part SPST))
      (sheetpath (names /) (tstamps /))
      (tstamp 5B48B09D))
    (comp (ref S16)
      (value SPST)
      (footprint chordboard-footprints:CHERRY_PCB_100H)
      (libsource (lib chordboard-components) (part SPST))
      (sheetpath (names /) (tstamps /))
      (tstamp 5B48B0A3))
    (comp (ref J2)
      (value Conn_01x08)
      (footprint Pin_Headers:Pin_Header_Straight_1x08_Pitch2.54mm)
      (libsource (lib Connector) (part Conn_01x08))
      (sheetpath (names /) (tstamps /))
      (tstamp 5B48B194))
    (comp (ref J1)
      (value Conn_01x08)
      (footprint Pin_Headers:Pin_Header_Straight_1x08_Pitch2.54mm)
      (libsource (lib Connector) (part Conn_01x08))
      (sheetpath (names /) (tstamps /))
      (tstamp 5B48B674))
    (comp (ref S17)
      (value SPST)
      (footprint chordboard-footprints:CHERRY_PCB_100H)
      (libsource (lib chordboard-components) (part SPST))
      (sheetpath (names /) (tstamps /))
      (tstamp 5B48BFD3))
    (comp (ref S19)
      (value SPST)
      (footprint chordboard-footprints:CHERRY_PCB_100H)
      (libsource (lib chordboard-components) (part SPST))
      (sheetpath (names /) (tstamps /))
      (tstamp 5B48BFD9))
    (comp (ref S21)
      (value SPST)
      (footprint chordboard-footprints:CHERRY_PCB_100H)
      (libsource (lib chordboard-components) (part SPST))
      (sheetpath (names /) (tstamps /))
      (tstamp 5B48BFDF))
    (comp (ref S23)
      (value SPST)
      (footprint chordboard-footprints:CHERRY_PCB_100H)
      (libsource (lib chordboard-components) (part SPST))
      (sheetpath (names /) (tstamps /))
      (tstamp 5B48BFE5))
    (comp (ref S25)
      (value SPST)
      (footprint chordboard-footprints:CHERRY_PCB_100H)
      (libsource (lib chordboard-components) (part SPST))
      (sheetpath (names /) (tstamps /))
      (tstamp 5B48BFEB))
    (comp (ref S27)
      (value SPST)
      (footprint chordboard-footprints:CHERRY_PCB_100H)
      (libsource (lib chordboard-components) (part SPST))
      (sheetpath (names /) (tstamps /))
      (tstamp 5B48BFF1))
    (comp (ref S29)
      (value SPST)
      (footprint chordboard-footprints:CHERRY_PCB_100H)
      (libsource (lib chordboard-components) (part SPST))
      (sheetpath (names /) (tstamps /))
      (tstamp 5B48BFF7))
    (comp (ref S31)
      (value SPST)
      (footprint chordboard-footprints:CHERRY_PCB_100H)
      (libsource (lib chordboard-components) (part SPST))
      (sheetpath (names /) (tstamps /))
      (tstamp 5B48BFFD))
    (comp (ref S18)
      (value SPST)
      (footprint chordboard-footprints:CHERRY_PCB_100H)
      (libsource (lib chordboard-components) (part SPST))
      (sheetpath (names /) (tstamps /))
      (tstamp 5B48C003))
    (comp (ref S20)
      (value SPST)
      (footprint chordboard-footprints:CHERRY_PCB_100H)
      (libsource (lib chordboard-components) (part SPST))
      (sheetpath (names /) (tstamps /))
      (tstamp 5B48C009))
    (comp (ref S22)
      (value SPST)
      (footprint chordboard-footprints:CHERRY_PCB_100H)
      (libsource (lib chordboard-components) (part SPST))
      (sheetpath (names /) (tstamps /))
      (tstamp 5B48C00F))
    (comp (ref S24)
      (value SPST)
      (footprint chordboard-footprints:CHERRY_PCB_100H)
      (libsource (lib chordboard-components) (part SPST))
      (sheetpath (names /) (tstamps /))
      (tstamp 5B48C015))
    (comp (ref S26)
      (value SPST)
      (footprint chordboard-footprints:CHERRY_PCB_100H)
      (libsource (lib chordboard-components) (part SPST))
      (sheetpath (names /) (tstamps /))
      (tstamp 5B48C01B))
    (comp (ref S28)
      (value SPST)
      (footprint chordboard-footprints:CHERRY_PCB_100H)
      (libsource (lib chordboard-components) (part SPST))
      (sheetpath (names /) (tstamps /))
      (tstamp 5B48C021))
    (comp (ref S30)
      (value SPST)
      (footprint chordboard-footprints:CHERRY_PCB_100H)
      (libsource (lib chordboard-components) (part SPST))
      (sheetpath (names /) (tstamps /))
      (tstamp 5B48C027))
    (comp (ref S32)
      (value SPST)
      (footprint chordboard-footprints:CHERRY_PCB_100H)
      (libsource (lib chordboard-components) (part SPST))
      (sheetpath (names /) (tstamps /))
      (tstamp 5B48C02D))
    (comp (ref J4)
      (value Conn_01x08)
      (footprint Pin_Headers:Pin_Header_Straight_1x08_Pitch2.54mm)
      (libsource (lib Connector) (part Conn_01x08))
      (sheetpath (names /) (tstamps /))
      (tstamp 5B48C033))
    (comp (ref J3)
      (value Conn_01x08)
      (footprint Pin_Headers:Pin_Header_Straight_1x08_Pitch2.54mm)
      (libsource (lib Connector) (part Conn_01x08))
      (sheetpath (names /) (tstamps /))
      (tstamp 5B48C039))
    (comp (ref D1)
      (value Neopixel_THT)
      (footprint LEDs:LED_D5.0mm-4)
      (libsource (lib LED) (part Neopixel_THT))
      (sheetpath (names /) (tstamps /))
      (tstamp 5B48D129))
    (comp (ref D2)
      (value Neopixel_THT)
      (footprint LEDs:LED_D5.0mm-4)
      (libsource (lib LED) (part Neopixel_THT))
      (sheetpath (names /) (tstamps /))
      (tstamp 5B48D601))
    (comp (ref D3)
      (value Neopixel_THT)
      (footprint LEDs:LED_D5.0mm-4)
      (libsource (lib LED) (part Neopixel_THT))
      (sheetpath (names /) (tstamps /))
      (tstamp 5B48D6A3))
    (comp (ref D4)
      (value Neopixel_THT)
      (footprint LEDs:LED_D5.0mm-4)
      (libsource (lib LED) (part Neopixel_THT))
      (sheetpath (names /) (tstamps /))
      (tstamp 5B48D744))
    (comp (ref D5)
      (value Neopixel_THT)
      (footprint LEDs:LED_D5.0mm-4)
      (libsource (lib LED) (part Neopixel_THT))
      (sheetpath (names /) (tstamps /))
      (tstamp 5B48D7EC))
    (comp (ref D6)
      (value Neopixel_THT)
      (footprint LEDs:LED_D5.0mm-4)
      (libsource (lib LED) (part Neopixel_THT))
      (sheetpath (names /) (tstamps /))
      (tstamp 5B48D895))
    (comp (ref D7)
      (value Neopixel_THT)
      (footprint LEDs:LED_D5.0mm-4)
      (libsource (lib LED) (part Neopixel_THT))
      (sheetpath (names /) (tstamps /))
      (tstamp 5B48D9AB))
    (comp (ref D8)
      (value Neopixel_THT)
      (footprint LEDs:LED_D5.0mm-4)
      (libsource (lib LED) (part Neopixel_THT))
      (sheetpath (names /) (tstamps /))
      (tstamp 5B48DAED))
    (comp (ref D9)
      (value Neopixel_THT)
      (footprint LEDs:LED_D5.0mm-4)
      (libsource (lib LED) (part Neopixel_THT))
      (sheetpath (names /) (tstamps /))
      (tstamp 5B49252E))
    (comp (ref D10)
      (value Neopixel_THT)
      (footprint LEDs:LED_D5.0mm-4)
      (libsource (lib LED) (part Neopixel_THT))
      (sheetpath (names /) (tstamps /))
      (tstamp 5B492534))
    (comp (ref D11)
      (value Neopixel_THT)
      (footprint LEDs:LED_D5.0mm-4)
      (libsource (lib LED) (part Neopixel_THT))
      (sheetpath (names /) (tstamps /))
      (tstamp 5B49253A))
    (comp (ref D12)
      (value Neopixel_THT)
      (footprint LEDs:LED_D5.0mm-4)
      (libsource (lib LED) (part Neopixel_THT))
      (sheetpath (names /) (tstamps /))
      (tstamp 5B492540))
    (comp (ref D13)
      (value Neopixel_THT)
      (footprint LEDs:LED_D5.0mm-4)
      (libsource (lib LED) (part Neopixel_THT))
      (sheetpath (names /) (tstamps /))
      (tstamp 5B492546))
    (comp (ref D14)
      (value Neopixel_THT)
      (footprint LEDs:LED_D5.0mm-4)
      (libsource (lib LED) (part Neopixel_THT))
      (sheetpath (names /) (tstamps /))
      (tstamp 5B49254C))
    (comp (ref D15)
      (value Neopixel_THT)
      (footprint LEDs:LED_D5.0mm-4)
      (libsource (lib LED) (part Neopixel_THT))
      (sheetpath (names /) (tstamps /))
      (tstamp 5B492552))
    (comp (ref D16)
      (value Neopixel_THT)
      (footprint LEDs:LED_D5.0mm-4)
      (libsource (lib LED) (part Neopixel_THT))
      (sheetpath (names /) (tstamps /))
      (tstamp 5B492558))
    (comp (ref D17)
      (value Neopixel_THT)
      (footprint LEDs:LED_D5.0mm-4)
      (libsource (lib LED) (part Neopixel_THT))
      (sheetpath (names /) (tstamps /))
      (tstamp 5B492D61))
    (comp (ref D18)
      (value Neopixel_THT)
      (footprint LEDs:LED_D5.0mm-4)
      (libsource (lib LED) (part Neopixel_THT))
      (sheetpath (names /) (tstamps /))
      (tstamp 5B492D67))
    (comp (ref D19)
      (value Neopixel_THT)
      (footprint LEDs:LED_D5.0mm-4)
      (libsource (lib LED) (part Neopixel_THT))
      (sheetpath (names /) (tstamps /))
      (tstamp 5B492D6D))
    (comp (ref D20)
      (value Neopixel_THT)
      (footprint LEDs:LED_D5.0mm-4)
      (libsource (lib LED) (part Neopixel_THT))
      (sheetpath (names /) (tstamps /))
      (tstamp 5B492D73))
    (comp (ref D21)
      (value Neopixel_THT)
      (footprint LEDs:LED_D5.0mm-4)
      (libsource (lib LED) (part Neopixel_THT))
      (sheetpath (names /) (tstamps /))
      (tstamp 5B492D79))
    (comp (ref D22)
      (value Neopixel_THT)
      (footprint LEDs:LED_D5.0mm-4)
      (libsource (lib LED) (part Neopixel_THT))
      (sheetpath (names /) (tstamps /))
      (tstamp 5B492D7F))
    (comp (ref D23)
      (value Neopixel_THT)
      (footprint LEDs:LED_D5.0mm-4)
      (libsource (lib LED) (part Neopixel_THT))
      (sheetpath (names /) (tstamps /))
      (tstamp 5B492D85))
    (comp (ref D24)
      (value Neopixel_THT)
      (footprint LEDs:LED_D5.0mm-4)
      (libsource (lib LED) (part Neopixel_THT))
      (sheetpath (names /) (tstamps /))
      (tstamp 5B492D8B))
    (comp (ref D25)
      (value Neopixel_THT)
      (footprint LEDs:LED_D5.0mm-4)
      (libsource (lib LED) (part Neopixel_THT))
      (sheetpath (names /) (tstamps /))
      (tstamp 5B492E08))
    (comp (ref D26)
      (value Neopixel_THT)
      (footprint LEDs:LED_D5.0mm-4)
      (libsource (lib LED) (part Neopixel_THT))
      (sheetpath (names /) (tstamps /))
      (tstamp 5B492E0E))
    (comp (ref D27)
      (value Neopixel_THT)
      (footprint LEDs:LED_D5.0mm-4)
      (libsource (lib LED) (part Neopixel_THT))
      (sheetpath (names /) (tstamps /))
      (tstamp 5B492E14))
    (comp (ref D28)
      (value Neopixel_THT)
      (footprint LEDs:LED_D5.0mm-4)
      (libsource (lib LED) (part Neopixel_THT))
      (sheetpath (names /) (tstamps /))
      (tstamp 5B492E1A))
    (comp (ref D29)
      (value Neopixel_THT)
      (footprint LEDs:LED_D5.0mm-4)
      (libsource (lib LED) (part Neopixel_THT))
      (sheetpath (names /) (tstamps /))
      (tstamp 5B492E20))
    (comp (ref D30)
      (value Neopixel_THT)
      (footprint LEDs:LED_D5.0mm-4)
      (libsource (lib LED) (part Neopixel_THT))
      (sheetpath (names /) (tstamps /))
      (tstamp 5B492E26))
    (comp (ref D31)
      (value Neopixel_THT)
      (footprint LEDs:LED_D5.0mm-4)
      (libsource (lib LED) (part Neopixel_THT))
      (sheetpath (names /) (tstamps /))
      (tstamp 5B492E2C))
    (comp (ref D32)
      (value Neopixel_THT)
      (footprint LEDs:LED_D5.0mm-4)
      (libsource (lib LED) (part Neopixel_THT))
      (sheetpath (names /) (tstamps /))
      (tstamp 5B492E32))
    (comp (ref U1)
      (value ROTARY_ENCODER)
      (footprint chordboard-footprints:Rotary_Encoder_BI_EN12-HS22AF30)
      (libsource (lib chordboard-components) (part ROTARY_ENCODER))
      (sheetpath (names /) (tstamps /))
      (tstamp 5B493B11))
    (comp (ref U2)
      (value ROTARY_ENCODER)
      (footprint chordboard-footprints:Rotary_Encoder_BI_EN12-HS22AF30)
      (libsource (lib chordboard-components) (part ROTARY_ENCODER))
      (sheetpath (names /) (tstamps /))
      (tstamp 5B49433A))
    (comp (ref U3)
      (value ROTARY_ENCODER)
      (footprint chordboard-footprints:Rotary_Encoder_BI_EN12-HS22AF30)
      (libsource (lib chordboard-components) (part ROTARY_ENCODER))
      (sheetpath (names /) (tstamps /))
      (tstamp 5B494479))
    (comp (ref U4)
      (value ROTARY_ENCODER)
      (footprint chordboard-footprints:Rotary_Encoder_BI_EN12-HS22AF30)
      (libsource (lib chordboard-components) (part ROTARY_ENCODER))
      (sheetpath (names /) (tstamps /))
      (tstamp 5B49448A))
    (comp (ref U5)
      (value ROTARY_ENCODER)
      (footprint chordboard-footprints:Rotary_Encoder_BI_EN12-HS22AF30)
      (libsource (lib chordboard-components) (part ROTARY_ENCODER))
      (sheetpath (names /) (tstamps /))
      (tstamp 5B49478B))
    (comp (ref U6)
      (value ROTARY_ENCODER)
      (footprint chordboard-footprints:Rotary_Encoder_BI_EN12-HS22AF30)
      (libsource (lib chordboard-components) (part ROTARY_ENCODER))
      (sheetpath (names /) (tstamps /))
      (tstamp 5B49479C))
    (comp (ref U7)
      (value ROTARY_ENCODER)
      (footprint chordboard-footprints:Rotary_Encoder_BI_EN12-HS22AF30)
      (libsource (lib chordboard-components) (part ROTARY_ENCODER))
      (sheetpath (names /) (tstamps /))
      (tstamp 5B4947AD))
    (comp (ref U8)
      (value ROTARY_ENCODER)
      (footprint chordboard-footprints:Rotary_Encoder_BI_EN12-HS22AF30)
      (libsource (lib chordboard-components) (part ROTARY_ENCODER))
      (sheetpath (names /) (tstamps /))
      (tstamp 5B4947BE))
    (comp (ref S33)
      (value SPST)
      (footprint chordboard-footprints:SW_PUSH_6mm)
      (libsource (lib chordboard-components) (part SPST))
      (sheetpath (names /) (tstamps /))
      (tstamp 5B494F62))
    (comp (ref S34)
      (value SPST)
      (footprint chordboard-footprints:SW_PUSH_6mm)
      (libsource (lib chordboard-components) (part SPST))
      (sheetpath (names /) (tstamps /))
      (tstamp 5B495D31))
    (comp (ref S35)
      (value SPST)
      (footprint chordboard-footprints:SW_PUSH_6mm)
      (libsource (lib chordboard-components) (part SPST))
      (sheetpath (names /) (tstamps /))
      (tstamp 5B495E2B))
    (comp (ref S36)
      (value SPST)
      (footprint chordboard-footprints:SW_PUSH_6mm)
      (libsource (lib chordboard-components) (part SPST))
      (sheetpath (names /) (tstamps /))
      (tstamp 5B495F28))
    (comp (ref S37)
      (value SPST)
      (footprint chordboard-footprints:SW_PUSH_6mm)
      (libsource (lib chordboard-components) (part SPST))
      (sheetpath (names /) (tstamps /))
      (tstamp 5B4960D0))
    (comp (ref S38)
      (value SPST)
      (footprint chordboard-footprints:SW_PUSH_6mm)
      (libsource (lib chordboard-components) (part SPST))
      (sheetpath (names /) (tstamps /))
      (tstamp 5B4960D6))
    (comp (ref S39)
      (value SPST)
      (footprint chordboard-footprints:SW_PUSH_6mm)
      (libsource (lib chordboard-components) (part SPST))
      (sheetpath (names /) (tstamps /))
      (tstamp 5B4960DC))
    (comp (ref S40)
      (value SPST)
      (footprint chordboard-footprints:SW_PUSH_6mm)
      (libsource (lib chordboard-components) (part SPST))
      (sheetpath (names /) (tstamps /))
      (tstamp 5B4960E2))
    (comp (ref J5)
      (value Conn_01x08)
      (footprint Pin_Headers:Pin_Header_Straight_1x08_Pitch2.54mm)
      (libsource (lib Connector) (part Conn_01x08))
      (sheetpath (names /) (tstamps /))
      (tstamp 5B496798))
    (comp (ref MK1)
      (value Mounting_Hole)
      (footprint Mounting_Holes:MountingHole_2.5mm_Pad_Via)
      (libsource (lib Mechanical) (part Mounting_Hole))
      (sheetpath (names /) (tstamps /))
      (tstamp 5B4982A9))
    (comp (ref MK5)
      (value Mounting_Hole)
      (footprint Mounting_Holes:MountingHole_2.5mm_Pad_Via)
      (libsource (lib Mechanical) (part Mounting_Hole))
      (sheetpath (names /) (tstamps /))
      (tstamp 5B498558))
    (comp (ref MK9)
      (value Mounting_Hole)
      (footprint Mounting_Holes:MountingHole_2.5mm_Pad_Via)
      (libsource (lib Mechanical) (part Mounting_Hole))
      (sheetpath (names /) (tstamps /))
      (tstamp 5B498697))
    (comp (ref MK2)
      (value Mounting_Hole)
      (footprint Mounting_Holes:MountingHole_2.5mm_Pad_Via)
      (libsource (lib Mechanical) (part Mounting_Hole))
      (sheetpath (names /) (tstamps /))
      (tstamp 5B49890C))
    (comp (ref MK6)
      (value Mounting_Hole)
      (footprint Mounting_Holes:MountingHole_2.5mm_Pad_Via)
      (libsource (lib Mechanical) (part Mounting_Hole))
      (sheetpath (names /) (tstamps /))
      (tstamp 5B498A48))
    (comp (ref MK10)
      (value Mounting_Hole)
      (footprint Mounting_Holes:MountingHole_2.5mm_Pad_Via)
      (libsource (lib Mechanical) (part Mounting_Hole))
      (sheetpath (names /) (tstamps /))
      (tstamp 5B498D1F))
    (comp (ref MK3)
      (value Mounting_Hole)
      (footprint Mounting_Holes:MountingHole_2.5mm_Pad_Via)
      (libsource (lib Mechanical) (part Mounting_Hole))
      (sheetpath (names /) (tstamps /))
      (tstamp 5B4994A1))
    (comp (ref MK7)
      (value Mounting_Hole)
      (footprint Mounting_Holes:MountingHole_2.5mm_Pad_Via)
      (libsource (lib Mechanical) (part Mounting_Hole))
      (sheetpath (names /) (tstamps /))
      (tstamp 5B4994A7))
    (comp (ref MK11)
      (value Mounting_Hole)
      (footprint Mounting_Holes:MountingHole_2.5mm_Pad_Via)
      (libsource (lib Mechanical) (part Mounting_Hole))
      (sheetpath (names /) (tstamps /))
      (tstamp 5B4994AD))
    (comp (ref MK4)
      (value Mounting_Hole)
      (footprint Mounting_Holes:MountingHole_2.5mm_Pad_Via)
      (libsource (lib Mechanical) (part Mounting_Hole))
      (sheetpath (names /) (tstamps /))
      (tstamp 5B4994B9))
    (comp (ref MK8)
      (value Mounting_Hole)
      (footprint Mounting_Holes:MountingHole_2.5mm_Pad_Via)
      (libsource (lib Mechanical) (part Mounting_Hole))
      (sheetpath (names /) (tstamps /))
      (tstamp 5B4994BF))
    (comp (ref J7)
      (value Conn_01x08)
      (footprint Pin_Headers:Pin_Header_Straight_1x08_Pitch2.54mm)
      (libsource (lib Connector) (part Conn_01x08))
      (sheetpath (names /) (tstamps /))
      (tstamp 5B49CB2F))
    (comp (ref J8)
      (value Conn_01x08)
      (footprint Pin_Headers:Pin_Header_Straight_1x08_Pitch2.54mm)
      (libsource (lib Connector) (part Conn_01x08))
      (sheetpath (names /) (tstamps /))
      (tstamp 5B49D159))
    (comp (ref J6)
      (value Conn_01x08)
      (footprint Pin_Headers:Pin_Header_Straight_1x08_Pitch2.54mm)
      (libsource (lib Connector) (part Conn_01x08))
      (sheetpath (names /) (tstamps /))
      (tstamp 5B4A1325))
    (comp (ref J9)
      (value Conn_01x04)
      (footprint chordboard-footprints:oled_128x32)
      (libsource (lib Connector) (part Conn_01x04))
      (sheetpath (names /) (tstamps /))
      (tstamp 5B4A4162))
    (comp (ref J10)
      (value Conn_01x04)
      (footprint chordboard-footprints:oled_128x32)
      (libsource (lib Connector) (part Conn_01x04))
      (sheetpath (names /) (tstamps /))
      (tstamp 5B4A4436)))
  (libparts
    (libpart (lib Connector) (part Conn_01x04)
      (description "Generic connector, single row, 01x04")
      (docs ~)
      (footprints
        (fp Connector*:*_??x*mm*)
        (fp Connector*:*1x??x*mm*)
        (fp Pin?Header?Straight?1X*)
        (fp Pin?Header?Angled?1X*)
        (fp Socket?Strip?Straight?1X*)
        (fp Socket?Strip?Angled?1X*))
      (fields
        (field (name Reference) J)
        (field (name Value) Conn_01x04))
      (pins
        (pin (num 1) (name Pin_1) (type passive))
        (pin (num 2) (name Pin_2) (type passive))
        (pin (num 3) (name Pin_3) (type passive))
        (pin (num 4) (name Pin_4) (type passive))))
    (libpart (lib Connector) (part Conn_01x08)
      (description "Generic connector, single row, 01x08")
      (docs ~)
      (footprints
        (fp Connector*:*_??x*mm*)
        (fp Connector*:*1x??x*mm*)
        (fp Pin?Header?Straight?1X*)
        (fp Pin?Header?Angled?1X*)
        (fp Socket?Strip?Straight?1X*)
        (fp Socket?Strip?Angled?1X*))
      (fields
        (field (name Reference) J)
        (field (name Value) Conn_01x08))
      (pins
        (pin (num 1) (name Pin_1) (type passive))
        (pin (num 2) (name Pin_2) (type passive))
        (pin (num 3) (name Pin_3) (type passive))
        (pin (num 4) (name Pin_4) (type passive))
        (pin (num 5) (name Pin_5) (type passive))
        (pin (num 6) (name Pin_6) (type passive))
        (pin (num 7) (name Pin_7) (type passive))
        (pin (num 8) (name Pin_8) (type passive))))
    (libpart (lib Mechanical) (part Mounting_Hole)
      (description "Mounting Hole without connection")
      (footprints
        (fp Mounting?Hole*)
        (fp Hole*))
      (fields
        (field (name Reference) MK)
        (field (name Value) Mounting_Hole)))
    (libpart (lib LED) (part Neopixel_THT)
      (description "WS2812B (\"Neopixel\") digital RGB LED, 5mm/8mm LED package")
      (docs https://www.adafruit.com/product/1938)
      (footprints
        (fp LED*D5.0mm*)
        (fp LED*D8.0mm*))
      (fields
        (field (name Reference) D)
        (field (name Value) Neopixel_THT))
      (pins
        (pin (num 1) (name DOUT) (type output))
        (pin (num 2) (name GND) (type power_in))
        (pin (num 3) (name 5V) (type power_in))
        (pin (num 4) (name DIN) (type input))))
    (libpart (lib chordboard-components) (part ROTARY_ENCODER)
      (fields
        (field (name Reference) U)
        (field (name Value) ROTARY_ENCODER))
      (pins
        (pin (num A) (name IN_A) (type input))
        (pin (num B) (name IN_B) (type input))
        (pin (num C) (name COM) (type input))
        (pin (num SW1) (name SW1) (type input))
        (pin (num SW2) (name SW2) (type input))))
    (libpart (lib chordboard-components) (part SPST)
      (footprints
        (fp SPST_*))
      (fields
        (field (name Reference) S)
        (field (name Value) SPST))
      (pins
        (pin (num 1) (name ~) (type passive))
        (pin (num 2) (name ~) (type passive)))))
  (libraries
    (library (logical Mechanical)
      (uri /home/afshar/src/kicad-libraries/kicad-library/library/Mechanical.lib))
    (library (logical chordboard-components)
      (uri /home/afshar/src/chordboard/hard/chordboard-kicad-libs/chordboard-components.lib))
    (library (logical Connector)
      (uri /home/afshar/src/kicad-libraries/kicad-library/library/Connector.lib))
    (library (logical LED)
      (uri /home/afshar/src/kicad-libraries/kicad-library/library/LED.lib)))
  (nets
    (net (code 1) (name +5V)
      (node (ref D14) (pin 3))
      (node (ref D13) (pin 3))
      (node (ref D12) (pin 3))
      (node (ref D11) (pin 3))
      (node (ref D10) (pin 3))
      (node (ref D5) (pin 3))
      (node (ref D6) (pin 3))
      (node (ref D16) (pin 3))
      (node (ref D15) (pin 3))
      (node (ref D18) (pin 3))
      (node (ref D17) (pin 3))
      (node (ref D1) (pin 3))
      (node (ref D4) (pin 3))
      (node (ref D25) (pin 3))
      (node (ref D32) (pin 3))
      (node (ref D3) (pin 3))
      (node (ref D31) (pin 3))
      (node (ref D2) (pin 3))
      (node (ref D30) (pin 3))
      (node (ref D29) (pin 3))
      (node (ref D9) (pin 3))
      (node (ref D7) (pin 3))
      (node (ref D8) (pin 3))
      (node (ref D24) (pin 3))
      (node (ref D28) (pin 3))
      (node (ref D27) (pin 3))
      (node (ref D26) (pin 3))
      (node (ref D23) (pin 3))
      (node (ref D22) (pin 3))
      (node (ref D21) (pin 3))
      (node (ref D20) (pin 3))
      (node (ref D19) (pin 3)))
    (net (code 2) (name "Net-(D10-Pad1)")
      (node (ref D10) (pin 1))
      (node (ref D11) (pin 4)))
    (net (code 3) (name "Net-(D10-Pad4)")
      (node (ref D9) (pin 1))
      (node (ref D10) (pin 4)))
    (net (code 4) (name "Net-(D11-Pad1)")
      (node (ref D11) (pin 1))
      (node (ref D12) (pin 4)))
    (net (code 5) (name "Net-(D12-Pad1)")
      (node (ref D13) (pin 4))
      (node (ref D12) (pin 1)))
    (net (code 6) (name "Net-(D13-Pad1)")
      (node (ref D14) (pin 4))
      (node (ref D13) (pin 1)))
    (net (code 7) (name "Net-(D14-Pad1)")
      (node (ref D15) (pin 4))
      (node (ref D14) (pin 1)))
    (net (code 8) (name "Net-(D15-Pad1)")
      (node (ref D15) (pin 1))
      (node (ref D16) (pin 4)))
    (net (code 9) (name "Net-(D1-Pad1)")
      (node (ref D1) (pin 1))
      (node (ref D2) (pin 4)))
    (net (code 10) (name "Net-(D2-Pad1)")
      (node (ref D3) (pin 4))
      (node (ref D2) (pin 1)))
    (net (code 11) (name "Net-(D3-Pad1)")
      (node (ref D3) (pin 1))
      (node (ref D4) (pin 4)))
    (net (code 12) (name "Net-(D4-Pad1)")
      (node (ref D5) (pin 4))
      (node (ref D4) (pin 1)))
    (net (code 13) (name "Net-(D5-Pad1)")
      (node (ref D6) (pin 4))
      (node (ref D5) (pin 1)))
    (net (code 14) (name "Net-(D6-Pad1)")
      (node (ref D6) (pin 1))
      (node (ref D7) (pin 4)))
    (net (code 15) (name "Net-(D7-Pad1)")
      (node (ref D7) (pin 1))
      (node (ref D8) (pin 4)))
    (net (code 16) (name GND)
      (node (ref D9) (pin 2))
      (node (ref D4) (pin 2))
      (node (ref D14) (pin 2))
      (node (ref D13) (pin 2))
      (node (ref D12) (pin 2))
      (node (ref D10) (pin 2))
      (node (ref D11) (pin 2))
      (node (ref U4) (pin C))
      (node (ref D6) (pin 2))
      (node (ref D2) (pin 2))
      (node (ref D1) (pin 2))
      (node (ref D8) (pin 2))
      (node (ref D7) (pin 2))
      (node (ref D3) (pin 2))
      (node (ref D5) (pin 2))
      (node (ref U3) (pin SW2))
      (node (ref U3) (pin C))
      (node (ref U2) (pin C))
      (node (ref U1) (pin SW2))
      (node (ref U1) (pin C))
      (node (ref U2) (pin SW2))
      (node (ref D28) (pin 2))
      (node (ref D16) (pin 2))
      (node (ref D24) (pin 2))
      (node (ref D23) (pin 2))
      (node (ref D22) (pin 2))
      (node (ref D21) (pin 2))
      (node (ref D20) (pin 2))
      (node (ref D19) (pin 2))
      (node (ref D27) (pin 2))
      (node (ref D15) (pin 2))
      (node (ref D18) (pin 2))
      (node (ref D17) (pin 2))
      (node (ref S3) (pin 2))
      (node (ref S30) (pin 2))
      (node (ref S28) (pin 2))
      (node (ref S26) (pin 2))
      (node (ref S24) (pin 2))
      (node (ref S22) (pin 2))
      (node (ref S12) (pin 2))
      (node (ref S11) (pin 2))
      (node (ref S10) (pin 2))
      (node (ref S9) (pin 2))
      (node (ref S8) (pin 2))
      (node (ref S7) (pin 2))
      (node (ref S6) (pin 2))
      (node (ref S5) (pin 2))
      (node (ref S4) (pin 2))
      (node (ref S32) (pin 2))
      (node (ref S2) (pin 2))
      (node (ref S1) (pin 2))
      (node (ref S16) (pin 2))
      (node (ref S15) (pin 2))
      (node (ref S14) (pin 2))
      (node (ref S13) (pin 2))
      (node (ref D30) (pin 2))
      (node (ref D26) (pin 2))
      (node (ref D25) (pin 2))
      (node (ref D32) (pin 2))
      (node (ref D31) (pin 2))
      (node (ref D29) (pin 2))
      (node (ref S20) (pin 2))
      (node (ref S18) (pin 2))
      (node (ref S31) (pin 2))
      (node (ref S29) (pin 2))
      (node (ref S27) (pin 2))
      (node (ref S25) (pin 2))
      (node (ref S23) (pin 2))
      (node (ref S21) (pin 2))
      (node (ref S19) (pin 2))
      (node (ref S17) (pin 2))
      (node (ref S35) (pin 2))
      (node (ref U6) (pin C))
      (node (ref S40) (pin 2))
      (node (ref U5) (pin SW2))
      (node (ref U5) (pin C))
      (node (ref U4) (pin SW2))
      (node (ref S39) (pin 2))
      (node (ref S38) (pin 2))
      (node (ref S37) (pin 2))
      (node (ref S36) (pin 2))
      (node (ref U6) (pin SW2))
      (node (ref S33) (pin 2))
      (node (ref U8) (pin SW2))
      (node (ref U8) (pin C))
      (node (ref S34) (pin 2))
      (node (ref U7) (pin SW2))
      (node (ref U7) (pin C)))
    (net (code 17) (name "Net-(J6-Pad8)")
      (node (ref J6) (pin 8))
      (node (ref U8) (pin SW1)))
    (net (code 18) (name "Net-(J5-Pad1)")
      (node (ref S33) (pin 1))
      (node (ref J5) (pin 1)))
    (net (code 19) (name "Net-(J5-Pad2)")
      (node (ref S34) (pin 1))
      (node (ref J5) (pin 2)))
    (net (code 20) (name "Net-(J5-Pad3)")
      (node (ref J5) (pin 3))
      (node (ref S35) (pin 1)))
    (net (code 21) (name "Net-(J5-Pad4)")
      (node (ref J5) (pin 4))
      (node (ref S36) (pin 1)))
    (net (code 22) (name "Net-(J5-Pad5)")
      (node (ref J5) (pin 5))
      (node (ref S37) (pin 1)))
    (net (code 23) (name "Net-(J5-Pad6)")
      (node (ref J5) (pin 6))
      (node (ref S38) (pin 1)))
    (net (code 24) (name "Net-(J5-Pad7)")
      (node (ref J5) (pin 7))
      (node (ref S39) (pin 1)))
    (net (code 25) (name "Net-(J5-Pad8)")
      (node (ref J5) (pin 8))
      (node (ref S40) (pin 1)))
    (net (code 26) (name "Net-(J6-Pad4)")
      (node (ref J6) (pin 4))
      (node (ref U4) (pin SW1)))
    (net (code 27) (name "Net-(J7-Pad6)")
      (node (ref J7) (pin 6))
      (node (ref U6) (pin B)))
    (net (code 28) (name "Net-(J6-Pad6)")
      (node (ref U6) (pin SW1))
      (node (ref J6) (pin 6)))
    (net (code 29) (name "Net-(J7-Pad7)")
      (node (ref J7) (pin 7))
      (node (ref U7) (pin B)))
    (net (code 30) (name "Net-(J8-Pad6)")
      (node (ref U6) (pin A))
      (node (ref J8) (pin 6)))
    (net (code 31) (name "Net-(J8-Pad7)")
      (node (ref J8) (pin 7))
      (node (ref U3) (pin B)))
    (net (code 32) (name "Net-(J8-Pad8)")
      (node (ref J8) (pin 8))
      (node (ref U8) (pin A)))
    (net (code 33) (name "Net-(J8-Pad5)")
      (node (ref U5) (pin A))
      (node (ref J8) (pin 5)))
    (net (code 34) (name "Net-(J7-Pad1)")
      (node (ref J7) (pin 1))
      (node (ref U1) (pin B)))
    (net (code 35) (name "Net-(J7-Pad3)")
      (node (ref U7) (pin A))
      (node (ref J7) (pin 3)))
    (net (code 36) (name "Net-(J7-Pad4)")
      (node (ref U4) (pin B))
      (node (ref J7) (pin 4)))
    (net (code 37) (name "Net-(J7-Pad5)")
      (node (ref J7) (pin 5))
      (node (ref U5) (pin B)))
    (net (code 38) (name "Net-(J7-Pad8)")
      (node (ref J7) (pin 8))
      (node (ref U8) (pin B)))
    (net (code 39) (name "Net-(J8-Pad1)")
      (node (ref J8) (pin 1))
      (node (ref U1) (pin A)))
    (net (code 40) (name "Net-(J8-Pad3)")
      (node (ref U3) (pin A))
      (node (ref J8) (pin 3)))
    (net (code 41) (name "Net-(J8-Pad4)")
      (node (ref J8) (pin 4))
      (node (ref U4) (pin A)))
    (net (code 42) (name "Net-(J8-Pad2)")
      (node (ref J8) (pin 2))
      (node (ref U2) (pin A)))
    (net (code 43) (name "Net-(J7-Pad2)")
      (node (ref U2) (pin B))
      (node (ref J7) (pin 2)))
    (net (code 44) (name "Net-(D8-Pad1)")
      (node (ref D8) (pin 1))
      (node (ref D9) (pin 4)))
    (net (code 45) (name "Net-(D16-Pad1)")
      (node (ref D16) (pin 1))
      (node (ref D17) (pin 4)))
    (net (code 46) (name "Net-(D24-Pad1)")
      (node (ref D24) (pin 1))
      (node (ref D25) (pin 4)))
    (net (code 47) (name "Net-(J6-Pad5)")
      (node (ref U5) (pin SW1))
      (node (ref J6) (pin 5)))
    (net (code 48) (name "Net-(J6-Pad7)")
      (node (ref J6) (pin 7))
      (node (ref U7) (pin SW1)))
    (net (code 49) (name "Net-(J9-Pad1)")
      (node (ref J9) (pin 1)))
    (net (code 50) (name "Net-(J9-Pad2)")
      (node (ref J9) (pin 2)))
    (net (code 51) (name "Net-(J9-Pad3)")
      (node (ref J9) (pin 3)))
    (net (code 52) (name "Net-(J9-Pad4)")
      (node (ref J9) (pin 4)))
    (net (code 53) (name "Net-(J10-Pad1)")
      (node (ref J10) (pin 1)))
    (net (code 54) (name "Net-(J10-Pad2)")
      (node (ref J10) (pin 2)))
    (net (code 55) (name "Net-(J10-Pad3)")
      (node (ref J10) (pin 3)))
    (net (code 56) (name "Net-(J10-Pad4)")
      (node (ref J10) (pin 4)))
    (net (code 57) (name "Net-(J6-Pad2)")
      (node (ref U2) (pin SW1))
      (node (ref J6) (pin 2)))
    (net (code 58) (name "Net-(J6-Pad1)")
      (node (ref J6) (pin 1))
      (node (ref U1) (pin SW1)))
    (net (code 59) (name "Net-(J6-Pad3)")
      (node (ref J6) (pin 3))
      (node (ref U3) (pin SW1)))
    (net (code 60) (name "Net-(D28-Pad1)")
      (node (ref D29) (pin 4))
      (node (ref D28) (pin 1)))
    (net (code 61) (name "Net-(D25-Pad1)")
      (node (ref D26) (pin 4))
      (node (ref D25) (pin 1)))
    (net (code 62) (name "Net-(D26-Pad1)")
      (node (ref D26) (pin 1))
      (node (ref D27) (pin 4)))
    (net (code 63) (name "Net-(D27-Pad1)")
      (node (ref D27) (pin 1))
      (node (ref D28) (pin 4)))
    (net (code 64) (name "Net-(D29-Pad1)")
      (node (ref D30) (pin 4))
      (node (ref D29) (pin 1)))
    (net (code 65) (name "Net-(D30-Pad1)")
      (node (ref D31) (pin 4))
      (node (ref D30) (pin 1)))
    (net (code 66) (name "Net-(D31-Pad1)")
      (node (ref D32) (pin 4))
      (node (ref D31) (pin 1)))
    (net (code 67) (name "Net-(D19-Pad1)")
      (node (ref D20) (pin 4))
      (node (ref D19) (pin 1)))
    (net (code 68) (name "Net-(D17-Pad1)")
      (node (ref D17) (pin 1))
      (node (ref D18) (pin 4)))
    (net (code 69) (name "Net-(D18-Pad1)")
      (node (ref D18) (pin 1))
      (node (ref D19) (pin 4)))
    (net (code 70) (name "Net-(D20-Pad1)")
      (node (ref D21) (pin 4))
      (node (ref D20) (pin 1)))
    (net (code 71) (name "Net-(D21-Pad1)")
      (node (ref D22) (pin 4))
      (node (ref D21) (pin 1)))
    (net (code 72) (name "Net-(D22-Pad1)")
      (node (ref D23) (pin 4))
      (node (ref D22) (pin 1)))
    (net (code 73) (name "Net-(D23-Pad1)")
      (node (ref D24) (pin 4))
      (node (ref D23) (pin 1)))
    (net (code 74) (name "Net-(J3-Pad6)")
      (node (ref S22) (pin 1))
      (node (ref J3) (pin 6)))
    (net (code 75) (name "Net-(J3-Pad7)")
      (node (ref J3) (pin 7))
      (node (ref S23) (pin 1)))
    (net (code 76) (name "Net-(J3-Pad8)")
      (node (ref J3) (pin 8))
      (node (ref S24) (pin 1)))
    (net (code 77) (name /PIXEL_IN)
      (node (ref D1) (pin 4)))
    (net (code 78) (name "Net-(J3-Pad5)")
      (node (ref S21) (pin 1))
      (node (ref J3) (pin 5)))
    (net (code 79) (name "Net-(J2-Pad5)")
      (node (ref J2) (pin 5))
      (node (ref S13) (pin 1)))
    (net (code 80) (name "Net-(J2-Pad6)")
      (node (ref S14) (pin 1))
      (node (ref J2) (pin 6)))
    (net (code 81) (name "Net-(J2-Pad7)")
      (node (ref S15) (pin 1))
      (node (ref J2) (pin 7)))
    (net (code 82) (name "Net-(J2-Pad8)")
      (node (ref S16) (pin 1))
      (node (ref J2) (pin 8)))
    (net (code 83) (name "Net-(J2-Pad1)")
      (node (ref J2) (pin 1))
      (node (ref S9) (pin 1)))
    (net (code 84) (name "Net-(J2-Pad2)")
      (node (ref J2) (pin 2))
      (node (ref S10) (pin 1)))
    (net (code 85) (name "Net-(J2-Pad3)")
      (node (ref J2) (pin 3))
      (node (ref S11) (pin 1)))
    (net (code 86) (name "Net-(J2-Pad4)")
      (node (ref J2) (pin 4))
      (node (ref S12) (pin 1)))
    (net (code 87) (name "Net-(J1-Pad1)")
      (node (ref S1) (pin 1))
      (node (ref J1) (pin 1)))
    (net (code 88) (name "Net-(J1-Pad2)")
      (node (ref J1) (pin 2))
      (node (ref S2) (pin 1)))
    (net (code 89) (name "Net-(J1-Pad3)")
      (node (ref S3) (pin 1))
      (node (ref J1) (pin 3)))
    (net (code 90) (name "Net-(J1-Pad4)")
      (node (ref S4) (pin 1))
      (node (ref J1) (pin 4)))
    (net (code 91) (name "Net-(J1-Pad5)")
      (node (ref S5) (pin 1))
      (node (ref J1) (pin 5)))
    (net (code 92) (name "Net-(J1-Pad6)")
      (node (ref S6) (pin 1))
      (node (ref J1) (pin 6)))
    (net (code 93) (name "Net-(J1-Pad7)")
      (node (ref S7) (pin 1))
      (node (ref J1) (pin 7)))
    (net (code 94) (name "Net-(J1-Pad8)")
      (node (ref J1) (pin 8))
      (node (ref S8) (pin 1)))
    (net (code 95) (name "Net-(J4-Pad1)")
      (node (ref S25) (pin 1))
      (node (ref J4) (pin 1)))
    (net (code 96) (name "Net-(J4-Pad2)")
      (node (ref S26) (pin 1))
      (node (ref J4) (pin 2)))
    (net (code 97) (name "Net-(J4-Pad4)")
      (node (ref S28) (pin 1))
      (node (ref J4) (pin 4)))
    (net (code 98) (name "Net-(J4-Pad6)")
      (node (ref S30) (pin 1))
      (node (ref J4) (pin 6)))
    (net (code 99) (name "Net-(J4-Pad8)")
      (node (ref J4) (pin 8))
      (node (ref S32) (pin 1)))
    (net (code 100) (name "Net-(J4-Pad3)")
      (node (ref J4) (pin 3))
      (node (ref S27) (pin 1)))
    (net (code 101) (name "Net-(J4-Pad5)")
      (node (ref J4) (pin 5))
      (node (ref S29) (pin 1)))
    (net (code 102) (name "Net-(J4-Pad7)")
      (node (ref J4) (pin 7))
      (node (ref S31) (pin 1)))
    (net (code 103) (name "Net-(J3-Pad1)")
      (node (ref J3) (pin 1))
      (node (ref S17) (pin 1)))
    (net (code 104) (name "Net-(J3-Pad2)")
      (node (ref S18) (pin 1))
      (node (ref J3) (pin 2)))
    (net (code 105) (name "Net-(J3-Pad3)")
      (node (ref S19) (pin 1))
      (node (ref J3) (pin 3)))
    (net (code 106) (name "Net-(J3-Pad4)")
      (node (ref J3) (pin 4))
      (node (ref S20) (pin 1)))
    (net (code 107) (name "Net-(D32-Pad1)")
      (node (ref D32) (pin 1)))))