EESchema Schematic File Version 2
LIBS:ac-dc
LIBS:adc-dac
LIBS:Altera
LIBS:analog_devices
LIBS:analog_switches
LIBS:atmel
LIBS:audio
LIBS:Battery_Management
LIBS:bbd
LIBS:Bosch
LIBS:brooktre
LIBS:Connector
LIBS:contrib
LIBS:cypress
LIBS:dc-dc
LIBS:Decawave
LIBS:device
LIBS:digital-audio
LIBS:Diode
LIBS:Display
LIBS:driver_gate
LIBS:dsp
LIBS:DSP_Microchip_DSPIC33
LIBS:elec-unifil
LIBS:ESD_Protection
LIBS:Espressif
LIBS:FPGA_Actel
LIBS:ftdi
LIBS:gennum
LIBS:Graphic
LIBS:hc11
LIBS:infineon
LIBS:intel
LIBS:interface
LIBS:intersil
LIBS:ir
LIBS:Lattice
LIBS:LED
LIBS:LEM
LIBS:linear
LIBS:Logic_74xgxx
LIBS:Logic_74xx
LIBS:Logic_CMOS_4000
LIBS:Logic_CMOS_IEEE
LIBS:logic_programmable
LIBS:Logic_TTL_IEEE
LIBS:maxim
LIBS:MCU_Microchip_PIC10
LIBS:MCU_Microchip_PIC12
LIBS:MCU_Microchip_PIC16
LIBS:MCU_Microchip_PIC18
LIBS:MCU_Microchip_PIC24
LIBS:MCU_Microchip_PIC32
LIBS:MCU_NXP_Kinetis
LIBS:MCU_NXP_LPC
LIBS:MCU_NXP_S08
LIBS:MCU_Parallax
LIBS:MCU_ST_STM8
LIBS:MCU_ST_STM32
LIBS:MCU_Texas_MSP430
LIBS:Mechanical
LIBS:memory
LIBS:microchip
LIBS:microcontrollers
LIBS:modules
LIBS:Motor
LIBS:motor_drivers
LIBS:motorola
LIBS:nordicsemi
LIBS:nxp
LIBS:onsemi
LIBS:opto
LIBS:Oscillators
LIBS:philips
LIBS:power
LIBS:powerint
LIBS:Power_Management
LIBS:pspice
LIBS:references
LIBS:regul
LIBS:Relay
LIBS:RF_Bluetooth
LIBS:rfcom
LIBS:RFSolutions
LIBS:Sensor_Current
LIBS:Sensor_Humidity
LIBS:sensors
LIBS:silabs
LIBS:siliconi
LIBS:supertex
LIBS:Switch
LIBS:texas
LIBS:Transformer
LIBS:Transistor
LIBS:triac_thyristor
LIBS:Valve
LIBS:video
LIBS:wiznet
LIBS:Worldsemi
LIBS:Xicor
LIBS:xilinx
LIBS:xilinx-artix7
LIBS:xilinx-kintex7
LIBS:xilinx-spartan6
LIBS:xilinx-virtex5
LIBS:xilinx-virtex6
LIBS:xilinx-virtex7
LIBS:zetex
LIBS:Zilog
LIBS:chordboard-components
EELAYER 25 0
EELAYER END
$Descr A4 11693 8268
encoding utf-8
Sheet 1 1
Title ""
Date ""
Rev ""
Comp ""
Comment1 ""
Comment2 ""
Comment3 ""
Comment4 ""
$EndDescr
$Comp
L SPST S1
U 1 1 5B489E2B
P 1750 -1450
F 0 "S1" H 1740 -1365 60  0000 C CNN
F 1 "SPST" H 1750 -1545 60  0000 C CNN
F 2 "chordboard-footprints:CHERRY_PCB_100H" H 1750 -1450 60  0001 C CNN
F 3 "" H 1750 -1450 60  0001 C CNN
	1    1750 -1450
	1    0    0    -1  
$EndComp
$Comp
L SPST S2
U 1 1 5B489E82
P 1750 -1350
F 0 "S2" H 1740 -1265 60  0000 C CNN
F 1 "SPST" H 1750 -1445 60  0000 C CNN
F 2 "chordboard-footprints:CHERRY_PCB_100H" H 1750 -1350 60  0001 C CNN
F 3 "" H 1750 -1350 60  0001 C CNN
	1    1750 -1350
	1    0    0    -1  
$EndComp
$Comp
L SPST S3
U 1 1 5B489EA6
P 1750 -1250
F 0 "S3" H 1740 -1165 60  0000 C CNN
F 1 "SPST" H 1750 -1345 60  0000 C CNN
F 2 "chordboard-footprints:CHERRY_PCB_100H" H 1750 -1250 60  0001 C CNN
F 3 "" H 1750 -1250 60  0001 C CNN
	1    1750 -1250
	1    0    0    -1  
$EndComp
$Comp
L SPST S4
U 1 1 5B489EC1
P 1750 -1150
F 0 "S4" H 1740 -1065 60  0000 C CNN
F 1 "SPST" H 1750 -1245 60  0000 C CNN
F 2 "chordboard-footprints:CHERRY_PCB_100H" H 1750 -1150 60  0001 C CNN
F 3 "" H 1750 -1150 60  0001 C CNN
	1    1750 -1150
	1    0    0    -1  
$EndComp
$Comp
L SPST S5
U 1 1 5B489EDF
P 1750 -1050
F 0 "S5" H 1740 -965 60  0000 C CNN
F 1 "SPST" H 1750 -1145 60  0000 C CNN
F 2 "chordboard-footprints:CHERRY_PCB_100H" H 1750 -1050 60  0001 C CNN
F 3 "" H 1750 -1050 60  0001 C CNN
	1    1750 -1050
	1    0    0    -1  
$EndComp
$Comp
L SPST S6
U 1 1 5B489F14
P 1750 -950
F 0 "S6" H 1740 -865 60  0000 C CNN
F 1 "SPST" H 1750 -1045 60  0000 C CNN
F 2 "chordboard-footprints:CHERRY_PCB_100H" H 1750 -950 60  0001 C CNN
F 3 "" H 1750 -950 60  0001 C CNN
	1    1750 -950
	1    0    0    -1  
$EndComp
$Comp
L SPST S7
U 1 1 5B489F42
P 1750 -850
F 0 "S7" H 1740 -765 60  0000 C CNN
F 1 "SPST" H 1750 -945 60  0000 C CNN
F 2 "chordboard-footprints:CHERRY_PCB_100H" H 1750 -850 60  0001 C CNN
F 3 "" H 1750 -850 60  0001 C CNN
	1    1750 -850
	1    0    0    -1  
$EndComp
$Comp
L SPST S8
U 1 1 5B489F6B
P 1750 -750
F 0 "S8" H 1740 -665 60  0000 C CNN
F 1 "SPST" H 1750 -845 60  0000 C CNN
F 2 "chordboard-footprints:CHERRY_PCB_100H" H 1750 -750 60  0001 C CNN
F 3 "" H 1750 -750 60  0001 C CNN
	1    1750 -750
	1    0    0    -1  
$EndComp
$Comp
L SPST S9
U 1 1 5B48B079
P 2600 -1450
F 0 "S9" H 2590 -1365 60  0000 C CNN
F 1 "SPST" H 2600 -1545 60  0000 C CNN
F 2 "chordboard-footprints:CHERRY_PCB_100H" H 2600 -1450 60  0001 C CNN
F 3 "" H 2600 -1450 60  0001 C CNN
	1    2600 -1450
	1    0    0    -1  
$EndComp
$Comp
L SPST S10
U 1 1 5B48B07F
P 2600 -1350
F 0 "S10" H 2590 -1265 60  0000 C CNN
F 1 "SPST" H 2600 -1445 60  0000 C CNN
F 2 "chordboard-footprints:CHERRY_PCB_100H" H 2600 -1350 60  0001 C CNN
F 3 "" H 2600 -1350 60  0001 C CNN
	1    2600 -1350
	1    0    0    -1  
$EndComp
$Comp
L SPST S11
U 1 1 5B48B085
P 2600 -1250
F 0 "S11" H 2590 -1165 60  0000 C CNN
F 1 "SPST" H 2600 -1345 60  0000 C CNN
F 2 "chordboard-footprints:CHERRY_PCB_100H" H 2600 -1250 60  0001 C CNN
F 3 "" H 2600 -1250 60  0001 C CNN
	1    2600 -1250
	1    0    0    -1  
$EndComp
$Comp
L SPST S12
U 1 1 5B48B08B
P 2600 -1150
F 0 "S12" H 2590 -1065 60  0000 C CNN
F 1 "SPST" H 2600 -1245 60  0000 C CNN
F 2 "chordboard-footprints:CHERRY_PCB_100H" H 2600 -1150 60  0001 C CNN
F 3 "" H 2600 -1150 60  0001 C CNN
	1    2600 -1150
	1    0    0    -1  
$EndComp
$Comp
L SPST S13
U 1 1 5B48B091
P 2600 -1050
F 0 "S13" H 2590 -965 60  0000 C CNN
F 1 "SPST" H 2600 -1145 60  0000 C CNN
F 2 "chordboard-footprints:CHERRY_PCB_100H" H 2600 -1050 60  0001 C CNN
F 3 "" H 2600 -1050 60  0001 C CNN
	1    2600 -1050
	1    0    0    -1  
$EndComp
$Comp
L SPST S14
U 1 1 5B48B097
P 2600 -950
F 0 "S14" H 2590 -865 60  0000 C CNN
F 1 "SPST" H 2600 -1045 60  0000 C CNN
F 2 "chordboard-footprints:CHERRY_PCB_100H" H 2600 -950 60  0001 C CNN
F 3 "" H 2600 -950 60  0001 C CNN
	1    2600 -950
	1    0    0    -1  
$EndComp
$Comp
L SPST S15
U 1 1 5B48B09D
P 2600 -850
F 0 "S15" H 2590 -765 60  0000 C CNN
F 1 "SPST" H 2600 -945 60  0000 C CNN
F 2 "chordboard-footprints:CHERRY_PCB_100H" H 2600 -850 60  0001 C CNN
F 3 "" H 2600 -850 60  0001 C CNN
	1    2600 -850
	1    0    0    -1  
$EndComp
$Comp
L SPST S16
U 1 1 5B48B0A3
P 2600 -750
F 0 "S16" H 2590 -665 60  0000 C CNN
F 1 "SPST" H 2600 -845 60  0000 C CNN
F 2 "chordboard-footprints:CHERRY_PCB_100H" H 2600 -750 60  0001 C CNN
F 3 "" H 2600 -750 60  0001 C CNN
	1    2600 -750
	1    0    0    -1  
$EndComp
$Comp
L Conn_01x08 J2
U 1 1 5B48B194
P 2250 -1150
F 0 "J2" H 2250 -750 50  0000 C CNN
F 1 "Conn_01x08" H 2250 -1650 50  0000 C CNN
F 2 "Pin_Headers:Pin_Header_Straight_1x08_Pitch2.54mm" H 2250 -1150 50  0001 C CNN
F 3 "" H 2250 -1150 50  0001 C CNN
	1    2250 -1150
	-1   0    0    -1  
$EndComp
$Comp
L Conn_01x08 J1
U 1 1 5B48B674
P 1400 -1150
F 0 "J1" H 1400 -750 50  0000 C CNN
F 1 "Conn_01x08" H 1400 -1650 50  0000 C CNN
F 2 "Pin_Headers:Pin_Header_Straight_1x08_Pitch2.54mm" H 1400 -1150 50  0001 C CNN
F 3 "" H 1400 -1150 50  0001 C CNN
	1    1400 -1150
	-1   0    0    -1  
$EndComp
$Comp
L GND #PWR01
U 1 1 5B48B916
P 1950 -500
F 0 "#PWR01" H 1950 -750 50  0001 C CNN
F 1 "GND" H 1950 -650 50  0000 C CNN
F 2 "" H 1950 -500 50  0001 C CNN
F 3 "" H 1950 -500 50  0001 C CNN
	1    1950 -500
	1    0    0    -1  
$EndComp
$Comp
L GND #PWR02
U 1 1 5B48B982
P 2800 -500
F 0 "#PWR02" H 2800 -750 50  0001 C CNN
F 1 "GND" H 2800 -650 50  0000 C CNN
F 2 "" H 2800 -500 50  0001 C CNN
F 3 "" H 2800 -500 50  0001 C CNN
	1    2800 -500
	1    0    0    -1  
$EndComp
$Comp
L SPST S17
U 1 1 5B48BFD3
P 3450 -1450
F 0 "S17" H 3440 -1365 60  0000 C CNN
F 1 "SPST" H 3450 -1545 60  0000 C CNN
F 2 "chordboard-footprints:CHERRY_PCB_100H" H 3450 -1450 60  0001 C CNN
F 3 "" H 3450 -1450 60  0001 C CNN
	1    3450 -1450
	1    0    0    -1  
$EndComp
$Comp
L SPST S19
U 1 1 5B48BFD9
P 3450 -1250
F 0 "S19" H 3440 -1165 60  0000 C CNN
F 1 "SPST" H 3450 -1345 60  0000 C CNN
F 2 "chordboard-footprints:CHERRY_PCB_100H" H 3450 -1250 60  0001 C CNN
F 3 "" H 3450 -1250 60  0001 C CNN
	1    3450 -1250
	1    0    0    -1  
$EndComp
$Comp
L SPST S21
U 1 1 5B48BFDF
P 3450 -1050
F 0 "S21" H 3440 -965 60  0000 C CNN
F 1 "SPST" H 3450 -1145 60  0000 C CNN
F 2 "chordboard-footprints:CHERRY_PCB_100H" H 3450 -1050 60  0001 C CNN
F 3 "" H 3450 -1050 60  0001 C CNN
	1    3450 -1050
	1    0    0    -1  
$EndComp
$Comp
L SPST S23
U 1 1 5B48BFE5
P 3450 -850
F 0 "S23" H 3440 -765 60  0000 C CNN
F 1 "SPST" H 3450 -945 60  0000 C CNN
F 2 "chordboard-footprints:CHERRY_PCB_100H" H 3450 -850 60  0001 C CNN
F 3 "" H 3450 -850 60  0001 C CNN
	1    3450 -850
	1    0    0    -1  
$EndComp
$Comp
L SPST S25
U 1 1 5B48BFEB
P 4300 -1450
F 0 "S25" H 4290 -1365 60  0000 C CNN
F 1 "SPST" H 4300 -1545 60  0000 C CNN
F 2 "chordboard-footprints:CHERRY_PCB_100H" H 4300 -1450 60  0001 C CNN
F 3 "" H 4300 -1450 60  0001 C CNN
	1    4300 -1450
	1    0    0    -1  
$EndComp
$Comp
L SPST S27
U 1 1 5B48BFF1
P 4300 -1250
F 0 "S27" H 4290 -1165 60  0000 C CNN
F 1 "SPST" H 4300 -1345 60  0000 C CNN
F 2 "chordboard-footprints:CHERRY_PCB_100H" H 4300 -1250 60  0001 C CNN
F 3 "" H 4300 -1250 60  0001 C CNN
	1    4300 -1250
	1    0    0    -1  
$EndComp
$Comp
L SPST S29
U 1 1 5B48BFF7
P 4300 -1050
F 0 "S29" H 4290 -965 60  0000 C CNN
F 1 "SPST" H 4300 -1145 60  0000 C CNN
F 2 "chordboard-footprints:CHERRY_PCB_100H" H 4300 -1050 60  0001 C CNN
F 3 "" H 4300 -1050 60  0001 C CNN
	1    4300 -1050
	1    0    0    -1  
$EndComp
$Comp
L SPST S31
U 1 1 5B48BFFD
P 4300 -850
F 0 "S31" H 4290 -765 60  0000 C CNN
F 1 "SPST" H 4300 -945 60  0000 C CNN
F 2 "chordboard-footprints:CHERRY_PCB_100H" H 4300 -850 60  0001 C CNN
F 3 "" H 4300 -850 60  0001 C CNN
	1    4300 -850
	1    0    0    -1  
$EndComp
$Comp
L SPST S18
U 1 1 5B48C003
P 3450 -1350
F 0 "S18" H 3440 -1265 60  0000 C CNN
F 1 "SPST" H 3450 -1445 60  0000 C CNN
F 2 "chordboard-footprints:CHERRY_PCB_100H" H 3450 -1350 60  0001 C CNN
F 3 "" H 3450 -1350 60  0001 C CNN
	1    3450 -1350
	1    0    0    -1  
$EndComp
$Comp
L SPST S20
U 1 1 5B48C009
P 3450 -1150
F 0 "S20" H 3440 -1065 60  0000 C CNN
F 1 "SPST" H 3450 -1245 60  0000 C CNN
F 2 "chordboard-footprints:CHERRY_PCB_100H" H 3450 -1150 60  0001 C CNN
F 3 "" H 3450 -1150 60  0001 C CNN
	1    3450 -1150
	1    0    0    -1  
$EndComp
$Comp
L SPST S22
U 1 1 5B48C00F
P 3450 -950
F 0 "S22" H 3440 -865 60  0000 C CNN
F 1 "SPST" H 3450 -1045 60  0000 C CNN
F 2 "chordboard-footprints:CHERRY_PCB_100H" H 3450 -950 60  0001 C CNN
F 3 "" H 3450 -950 60  0001 C CNN
	1    3450 -950
	1    0    0    -1  
$EndComp
$Comp
L SPST S24
U 1 1 5B48C015
P 3450 -750
F 0 "S24" H 3440 -665 60  0000 C CNN
F 1 "SPST" H 3450 -845 60  0000 C CNN
F 2 "chordboard-footprints:CHERRY_PCB_100H" H 3450 -750 60  0001 C CNN
F 3 "" H 3450 -750 60  0001 C CNN
	1    3450 -750
	1    0    0    -1  
$EndComp
$Comp
L SPST S26
U 1 1 5B48C01B
P 4300 -1350
F 0 "S26" H 4290 -1265 60  0000 C CNN
F 1 "SPST" H 4300 -1445 60  0000 C CNN
F 2 "chordboard-footprints:CHERRY_PCB_100H" H 4300 -1350 60  0001 C CNN
F 3 "" H 4300 -1350 60  0001 C CNN
	1    4300 -1350
	1    0    0    -1  
$EndComp
$Comp
L SPST S28
U 1 1 5B48C021
P 4300 -1150
F 0 "S28" H 4290 -1065 60  0000 C CNN
F 1 "SPST" H 4300 -1245 60  0000 C CNN
F 2 "chordboard-footprints:CHERRY_PCB_100H" H 4300 -1150 60  0001 C CNN
F 3 "" H 4300 -1150 60  0001 C CNN
	1    4300 -1150
	1    0    0    -1  
$EndComp
$Comp
L SPST S30
U 1 1 5B48C027
P 4300 -950
F 0 "S30" H 4290 -865 60  0000 C CNN
F 1 "SPST" H 4300 -1045 60  0000 C CNN
F 2 "chordboard-footprints:CHERRY_PCB_100H" H 4300 -950 60  0001 C CNN
F 3 "" H 4300 -950 60  0001 C CNN
	1    4300 -950
	1    0    0    -1  
$EndComp
$Comp
L SPST S32
U 1 1 5B48C02D
P 4300 -750
F 0 "S32" H 4290 -665 60  0000 C CNN
F 1 "SPST" H 4300 -845 60  0000 C CNN
F 2 "chordboard-footprints:CHERRY_PCB_100H" H 4300 -750 60  0001 C CNN
F 3 "" H 4300 -750 60  0001 C CNN
	1    4300 -750
	1    0    0    -1  
$EndComp
$Comp
L Conn_01x08 J4
U 1 1 5B48C033
P 3950 -1150
F 0 "J4" H 3950 -750 50  0000 C CNN
F 1 "Conn_01x08" H 3950 -1650 50  0000 C CNN
F 2 "Pin_Headers:Pin_Header_Straight_1x08_Pitch2.54mm" H 3950 -1150 50  0001 C CNN
F 3 "" H 3950 -1150 50  0001 C CNN
	1    3950 -1150
	-1   0    0    -1  
$EndComp
$Comp
L Conn_01x08 J3
U 1 1 5B48C039
P 3100 -1150
F 0 "J3" H 3100 -750 50  0000 C CNN
F 1 "Conn_01x08" H 3100 -1650 50  0000 C CNN
F 2 "Pin_Headers:Pin_Header_Straight_1x08_Pitch2.54mm" H 3100 -1150 50  0001 C CNN
F 3 "" H 3100 -1150 50  0001 C CNN
	1    3100 -1150
	-1   0    0    -1  
$EndComp
$Comp
L GND #PWR03
U 1 1 5B48C05F
P 3650 -500
F 0 "#PWR03" H 3650 -750 50  0001 C CNN
F 1 "GND" H 3650 -650 50  0000 C CNN
F 2 "" H 3650 -500 50  0001 C CNN
F 3 "" H 3650 -500 50  0001 C CNN
	1    3650 -500
	1    0    0    -1  
$EndComp
$Comp
L GND #PWR04
U 1 1 5B48C065
P 4500 -500
F 0 "#PWR04" H 4500 -750 50  0001 C CNN
F 1 "GND" H 4500 -650 50  0000 C CNN
F 2 "" H 4500 -500 50  0001 C CNN
F 3 "" H 4500 -500 50  0001 C CNN
	1    4500 -500
	1    0    0    -1  
$EndComp
$Comp
L Neopixel_THT D1
U 1 1 5B48D129
P 1750 1200
F 0 "D1" H 1850 1425 50  0000 L BNN
F 1 "Neopixel_THT" H 1850 975 50  0000 L TNN
F 2 "LEDs:LED_D5.0mm-4" H 1850 900 50  0001 L TNN
F 3 "" H 1850 825 50  0001 L TNN
	1    1750 1200
	1    0    0    -1  
$EndComp
$Comp
L Neopixel_THT D2
U 1 1 5B48D601
P 2600 1200
F 0 "D2" H 2700 1425 50  0000 L BNN
F 1 "Neopixel_THT" H 2700 975 50  0000 L TNN
F 2 "LEDs:LED_D5.0mm-4" H 2700 900 50  0001 L TNN
F 3 "" H 2700 825 50  0001 L TNN
	1    2600 1200
	1    0    0    -1  
$EndComp
$Comp
L Neopixel_THT D3
U 1 1 5B48D6A3
P 3450 1200
F 0 "D3" H 3550 1425 50  0000 L BNN
F 1 "Neopixel_THT" H 3550 975 50  0000 L TNN
F 2 "LEDs:LED_D5.0mm-4" H 3550 900 50  0001 L TNN
F 3 "" H 3550 825 50  0001 L TNN
	1    3450 1200
	1    0    0    -1  
$EndComp
$Comp
L Neopixel_THT D4
U 1 1 5B48D744
P 4300 1200
F 0 "D4" H 4400 1425 50  0000 L BNN
F 1 "Neopixel_THT" H 4400 975 50  0000 L TNN
F 2 "LEDs:LED_D5.0mm-4" H 4400 900 50  0001 L TNN
F 3 "" H 4400 825 50  0001 L TNN
	1    4300 1200
	1    0    0    -1  
$EndComp
$Comp
L Neopixel_THT D5
U 1 1 5B48D7EC
P 5150 1200
F 0 "D5" H 5250 1425 50  0000 L BNN
F 1 "Neopixel_THT" H 5250 975 50  0000 L TNN
F 2 "LEDs:LED_D5.0mm-4" H 5250 900 50  0001 L TNN
F 3 "" H 5250 825 50  0001 L TNN
	1    5150 1200
	1    0    0    -1  
$EndComp
$Comp
L Neopixel_THT D6
U 1 1 5B48D895
P 6000 1200
F 0 "D6" H 6100 1425 50  0000 L BNN
F 1 "Neopixel_THT" H 6100 975 50  0000 L TNN
F 2 "LEDs:LED_D5.0mm-4" H 6100 900 50  0001 L TNN
F 3 "" H 6100 825 50  0001 L TNN
	1    6000 1200
	1    0    0    -1  
$EndComp
$Comp
L Neopixel_THT D7
U 1 1 5B48D9AB
P 6850 1200
F 0 "D7" H 6950 1425 50  0000 L BNN
F 1 "Neopixel_THT" H 6950 975 50  0000 L TNN
F 2 "LEDs:LED_D5.0mm-4" H 6950 900 50  0001 L TNN
F 3 "" H 6950 825 50  0001 L TNN
	1    6850 1200
	1    0    0    -1  
$EndComp
$Comp
L Neopixel_THT D8
U 1 1 5B48DAED
P 7700 1200
F 0 "D8" H 7800 1425 50  0000 L BNN
F 1 "Neopixel_THT" H 7800 975 50  0000 L TNN
F 2 "LEDs:LED_D5.0mm-4" H 7800 900 50  0001 L TNN
F 3 "" H 7800 825 50  0001 L TNN
	1    7700 1200
	1    0    0    -1  
$EndComp
$Comp
L GND #PWR05
U 1 1 5B48E17A
P 1750 1550
F 0 "#PWR05" H 1750 1300 50  0001 C CNN
F 1 "GND" H 1750 1400 50  0000 C CNN
F 2 "" H 1750 1550 50  0001 C CNN
F 3 "" H 1750 1550 50  0001 C CNN
	1    1750 1550
	1    0    0    -1  
$EndComp
$Comp
L +5V #PWR06
U 1 1 5B48E3C1
P 1750 850
F 0 "#PWR06" H 1750 700 50  0001 C CNN
F 1 "+5V" H 1750 990 50  0000 C CNN
F 2 "" H 1750 850 50  0001 C CNN
F 3 "" H 1750 850 50  0001 C CNN
	1    1750 850 
	1    0    0    -1  
$EndComp
$Comp
L +5V #PWR07
U 1 1 5B48E794
P 2600 850
F 0 "#PWR07" H 2600 700 50  0001 C CNN
F 1 "+5V" H 2600 990 50  0000 C CNN
F 2 "" H 2600 850 50  0001 C CNN
F 3 "" H 2600 850 50  0001 C CNN
	1    2600 850 
	1    0    0    -1  
$EndComp
$Comp
L +5V #PWR08
U 1 1 5B48E7CA
P 3450 850
F 0 "#PWR08" H 3450 700 50  0001 C CNN
F 1 "+5V" H 3450 990 50  0000 C CNN
F 2 "" H 3450 850 50  0001 C CNN
F 3 "" H 3450 850 50  0001 C CNN
	1    3450 850 
	1    0    0    -1  
$EndComp
$Comp
L +5V #PWR09
U 1 1 5B48E8B4
P 4300 850
F 0 "#PWR09" H 4300 700 50  0001 C CNN
F 1 "+5V" H 4300 990 50  0000 C CNN
F 2 "" H 4300 850 50  0001 C CNN
F 3 "" H 4300 850 50  0001 C CNN
	1    4300 850 
	1    0    0    -1  
$EndComp
$Comp
L +5V #PWR010
U 1 1 5B48E8EA
P 5150 850
F 0 "#PWR010" H 5150 700 50  0001 C CNN
F 1 "+5V" H 5150 990 50  0000 C CNN
F 2 "" H 5150 850 50  0001 C CNN
F 3 "" H 5150 850 50  0001 C CNN
	1    5150 850 
	1    0    0    -1  
$EndComp
$Comp
L +5V #PWR011
U 1 1 5B48E920
P 6000 850
F 0 "#PWR011" H 6000 700 50  0001 C CNN
F 1 "+5V" H 6000 990 50  0000 C CNN
F 2 "" H 6000 850 50  0001 C CNN
F 3 "" H 6000 850 50  0001 C CNN
	1    6000 850 
	1    0    0    -1  
$EndComp
$Comp
L +5V #PWR012
U 1 1 5B48E956
P 6850 850
F 0 "#PWR012" H 6850 700 50  0001 C CNN
F 1 "+5V" H 6850 990 50  0000 C CNN
F 2 "" H 6850 850 50  0001 C CNN
F 3 "" H 6850 850 50  0001 C CNN
	1    6850 850 
	1    0    0    -1  
$EndComp
$Comp
L +5V #PWR013
U 1 1 5B48E98C
P 7700 850
F 0 "#PWR013" H 7700 700 50  0001 C CNN
F 1 "+5V" H 7700 990 50  0000 C CNN
F 2 "" H 7700 850 50  0001 C CNN
F 3 "" H 7700 850 50  0001 C CNN
	1    7700 850 
	1    0    0    -1  
$EndComp
$Comp
L GND #PWR014
U 1 1 5B48EC3C
P 2600 1550
F 0 "#PWR014" H 2600 1300 50  0001 C CNN
F 1 "GND" H 2600 1400 50  0000 C CNN
F 2 "" H 2600 1550 50  0001 C CNN
F 3 "" H 2600 1550 50  0001 C CNN
	1    2600 1550
	1    0    0    -1  
$EndComp
$Comp
L GND #PWR015
U 1 1 5B48EC72
P 3450 1550
F 0 "#PWR015" H 3450 1300 50  0001 C CNN
F 1 "GND" H 3450 1400 50  0000 C CNN
F 2 "" H 3450 1550 50  0001 C CNN
F 3 "" H 3450 1550 50  0001 C CNN
	1    3450 1550
	1    0    0    -1  
$EndComp
$Comp
L GND #PWR016
U 1 1 5B48ED89
P 4300 1550
F 0 "#PWR016" H 4300 1300 50  0001 C CNN
F 1 "GND" H 4300 1400 50  0000 C CNN
F 2 "" H 4300 1550 50  0001 C CNN
F 3 "" H 4300 1550 50  0001 C CNN
	1    4300 1550
	1    0    0    -1  
$EndComp
$Comp
L GND #PWR017
U 1 1 5B48EDBF
P 5150 1550
F 0 "#PWR017" H 5150 1300 50  0001 C CNN
F 1 "GND" H 5150 1400 50  0000 C CNN
F 2 "" H 5150 1550 50  0001 C CNN
F 3 "" H 5150 1550 50  0001 C CNN
	1    5150 1550
	1    0    0    -1  
$EndComp
$Comp
L GND #PWR018
U 1 1 5B48EDF5
P 6000 1550
F 0 "#PWR018" H 6000 1300 50  0001 C CNN
F 1 "GND" H 6000 1400 50  0000 C CNN
F 2 "" H 6000 1550 50  0001 C CNN
F 3 "" H 6000 1550 50  0001 C CNN
	1    6000 1550
	1    0    0    -1  
$EndComp
$Comp
L GND #PWR019
U 1 1 5B48EE58
P 6850 1550
F 0 "#PWR019" H 6850 1300 50  0001 C CNN
F 1 "GND" H 6850 1400 50  0000 C CNN
F 2 "" H 6850 1550 50  0001 C CNN
F 3 "" H 6850 1550 50  0001 C CNN
	1    6850 1550
	1    0    0    -1  
$EndComp
$Comp
L GND #PWR020
U 1 1 5B48EE8E
P 7700 1550
F 0 "#PWR020" H 7700 1300 50  0001 C CNN
F 1 "GND" H 7700 1400 50  0000 C CNN
F 2 "" H 7700 1550 50  0001 C CNN
F 3 "" H 7700 1550 50  0001 C CNN
	1    7700 1550
	1    0    0    -1  
$EndComp
$Comp
L Neopixel_THT D9
U 1 1 5B49252E
P 7700 2350
F 0 "D9" H 7800 2575 50  0000 L BNN
F 1 "Neopixel_THT" H 7800 2125 50  0000 L TNN
F 2 "LEDs:LED_D5.0mm-4" H 7800 2050 50  0001 L TNN
F 3 "" H 7800 1975 50  0001 L TNN
	1    7700 2350
	-1   0    0    -1  
$EndComp
$Comp
L Neopixel_THT D10
U 1 1 5B492534
P 6850 2350
F 0 "D10" H 6950 2575 50  0000 L BNN
F 1 "Neopixel_THT" H 6950 2125 50  0000 L TNN
F 2 "LEDs:LED_D5.0mm-4" H 6950 2050 50  0001 L TNN
F 3 "" H 6950 1975 50  0001 L TNN
	1    6850 2350
	-1   0    0    -1  
$EndComp
$Comp
L Neopixel_THT D11
U 1 1 5B49253A
P 6000 2350
F 0 "D11" H 6100 2575 50  0000 L BNN
F 1 "Neopixel_THT" H 6100 2125 50  0000 L TNN
F 2 "LEDs:LED_D5.0mm-4" H 6100 2050 50  0001 L TNN
F 3 "" H 6100 1975 50  0001 L TNN
	1    6000 2350
	-1   0    0    -1  
$EndComp
$Comp
L Neopixel_THT D12
U 1 1 5B492540
P 5150 2350
F 0 "D12" H 5250 2575 50  0000 L BNN
F 1 "Neopixel_THT" H 5250 2125 50  0000 L TNN
F 2 "LEDs:LED_D5.0mm-4" H 5250 2050 50  0001 L TNN
F 3 "" H 5250 1975 50  0001 L TNN
	1    5150 2350
	-1   0    0    -1  
$EndComp
$Comp
L Neopixel_THT D13
U 1 1 5B492546
P 4300 2350
F 0 "D13" H 4400 2575 50  0000 L BNN
F 1 "Neopixel_THT" H 4400 2125 50  0000 L TNN
F 2 "LEDs:LED_D5.0mm-4" H 4400 2050 50  0001 L TNN
F 3 "" H 4400 1975 50  0001 L TNN
	1    4300 2350
	-1   0    0    -1  
$EndComp
$Comp
L Neopixel_THT D14
U 1 1 5B49254C
P 3450 2350
F 0 "D14" H 3550 2575 50  0000 L BNN
F 1 "Neopixel_THT" H 3550 2125 50  0000 L TNN
F 2 "LEDs:LED_D5.0mm-4" H 3550 2050 50  0001 L TNN
F 3 "" H 3550 1975 50  0001 L TNN
	1    3450 2350
	-1   0    0    -1  
$EndComp
$Comp
L Neopixel_THT D15
U 1 1 5B492552
P 2600 2350
F 0 "D15" H 2700 2575 50  0000 L BNN
F 1 "Neopixel_THT" H 2700 2125 50  0000 L TNN
F 2 "LEDs:LED_D5.0mm-4" H 2700 2050 50  0001 L TNN
F 3 "" H 2700 1975 50  0001 L TNN
	1    2600 2350
	-1   0    0    -1  
$EndComp
$Comp
L Neopixel_THT D16
U 1 1 5B492558
P 1750 2350
F 0 "D16" H 1850 2575 50  0000 L BNN
F 1 "Neopixel_THT" H 1850 2125 50  0000 L TNN
F 2 "LEDs:LED_D5.0mm-4" H 1850 2050 50  0001 L TNN
F 3 "" H 1850 1975 50  0001 L TNN
	1    1750 2350
	-1   0    0    -1  
$EndComp
$Comp
L GND #PWR021
U 1 1 5B49255F
P 7700 2700
F 0 "#PWR021" H 7700 2450 50  0001 C CNN
F 1 "GND" H 7700 2550 50  0000 C CNN
F 2 "" H 7700 2700 50  0001 C CNN
F 3 "" H 7700 2700 50  0001 C CNN
	1    7700 2700
	-1   0    0    -1  
$EndComp
$Comp
L +5V #PWR022
U 1 1 5B492566
P 7700 2000
F 0 "#PWR022" H 7700 1850 50  0001 C CNN
F 1 "+5V" H 7700 2140 50  0000 C CNN
F 2 "" H 7700 2000 50  0001 C CNN
F 3 "" H 7700 2000 50  0001 C CNN
	1    7700 2000
	-1   0    0    -1  
$EndComp
$Comp
L +5V #PWR023
U 1 1 5B49256D
P 6850 2000
F 0 "#PWR023" H 6850 1850 50  0001 C CNN
F 1 "+5V" H 6850 2140 50  0000 C CNN
F 2 "" H 6850 2000 50  0001 C CNN
F 3 "" H 6850 2000 50  0001 C CNN
	1    6850 2000
	-1   0    0    -1  
$EndComp
$Comp
L +5V #PWR024
U 1 1 5B492574
P 6000 2000
F 0 "#PWR024" H 6000 1850 50  0001 C CNN
F 1 "+5V" H 6000 2140 50  0000 C CNN
F 2 "" H 6000 2000 50  0001 C CNN
F 3 "" H 6000 2000 50  0001 C CNN
	1    6000 2000
	-1   0    0    -1  
$EndComp
$Comp
L +5V #PWR025
U 1 1 5B49257B
P 5150 2000
F 0 "#PWR025" H 5150 1850 50  0001 C CNN
F 1 "+5V" H 5150 2140 50  0000 C CNN
F 2 "" H 5150 2000 50  0001 C CNN
F 3 "" H 5150 2000 50  0001 C CNN
	1    5150 2000
	-1   0    0    -1  
$EndComp
$Comp
L +5V #PWR026
U 1 1 5B492582
P 4300 2000
F 0 "#PWR026" H 4300 1850 50  0001 C CNN
F 1 "+5V" H 4300 2140 50  0000 C CNN
F 2 "" H 4300 2000 50  0001 C CNN
F 3 "" H 4300 2000 50  0001 C CNN
	1    4300 2000
	-1   0    0    -1  
$EndComp
$Comp
L +5V #PWR027
U 1 1 5B492589
P 3450 2000
F 0 "#PWR027" H 3450 1850 50  0001 C CNN
F 1 "+5V" H 3450 2140 50  0000 C CNN
F 2 "" H 3450 2000 50  0001 C CNN
F 3 "" H 3450 2000 50  0001 C CNN
	1    3450 2000
	-1   0    0    -1  
$EndComp
$Comp
L +5V #PWR028
U 1 1 5B492590
P 2600 2000
F 0 "#PWR028" H 2600 1850 50  0001 C CNN
F 1 "+5V" H 2600 2140 50  0000 C CNN
F 2 "" H 2600 2000 50  0001 C CNN
F 3 "" H 2600 2000 50  0001 C CNN
	1    2600 2000
	-1   0    0    -1  
$EndComp
$Comp
L +5V #PWR029
U 1 1 5B492597
P 1750 2000
F 0 "#PWR029" H 1750 1850 50  0001 C CNN
F 1 "+5V" H 1750 2140 50  0000 C CNN
F 2 "" H 1750 2000 50  0001 C CNN
F 3 "" H 1750 2000 50  0001 C CNN
	1    1750 2000
	-1   0    0    -1  
$EndComp
$Comp
L GND #PWR030
U 1 1 5B49259E
P 6850 2700
F 0 "#PWR030" H 6850 2450 50  0001 C CNN
F 1 "GND" H 6850 2550 50  0000 C CNN
F 2 "" H 6850 2700 50  0001 C CNN
F 3 "" H 6850 2700 50  0001 C CNN
	1    6850 2700
	-1   0    0    -1  
$EndComp
$Comp
L GND #PWR031
U 1 1 5B4925A5
P 6000 2700
F 0 "#PWR031" H 6000 2450 50  0001 C CNN
F 1 "GND" H 6000 2550 50  0000 C CNN
F 2 "" H 6000 2700 50  0001 C CNN
F 3 "" H 6000 2700 50  0001 C CNN
	1    6000 2700
	-1   0    0    -1  
$EndComp
$Comp
L GND #PWR032
U 1 1 5B4925AC
P 5150 2700
F 0 "#PWR032" H 5150 2450 50  0001 C CNN
F 1 "GND" H 5150 2550 50  0000 C CNN
F 2 "" H 5150 2700 50  0001 C CNN
F 3 "" H 5150 2700 50  0001 C CNN
	1    5150 2700
	-1   0    0    -1  
$EndComp
$Comp
L GND #PWR033
U 1 1 5B4925B3
P 4300 2700
F 0 "#PWR033" H 4300 2450 50  0001 C CNN
F 1 "GND" H 4300 2550 50  0000 C CNN
F 2 "" H 4300 2700 50  0001 C CNN
F 3 "" H 4300 2700 50  0001 C CNN
	1    4300 2700
	-1   0    0    -1  
$EndComp
$Comp
L GND #PWR034
U 1 1 5B4925BA
P 3450 2700
F 0 "#PWR034" H 3450 2450 50  0001 C CNN
F 1 "GND" H 3450 2550 50  0000 C CNN
F 2 "" H 3450 2700 50  0001 C CNN
F 3 "" H 3450 2700 50  0001 C CNN
	1    3450 2700
	-1   0    0    -1  
$EndComp
$Comp
L GND #PWR035
U 1 1 5B4925C1
P 2600 2700
F 0 "#PWR035" H 2600 2450 50  0001 C CNN
F 1 "GND" H 2600 2550 50  0000 C CNN
F 2 "" H 2600 2700 50  0001 C CNN
F 3 "" H 2600 2700 50  0001 C CNN
	1    2600 2700
	-1   0    0    -1  
$EndComp
$Comp
L GND #PWR036
U 1 1 5B4925C8
P 1750 2700
F 0 "#PWR036" H 1750 2450 50  0001 C CNN
F 1 "GND" H 1750 2550 50  0000 C CNN
F 2 "" H 1750 2700 50  0001 C CNN
F 3 "" H 1750 2700 50  0001 C CNN
	1    1750 2700
	-1   0    0    -1  
$EndComp
$Comp
L Neopixel_THT D17
U 1 1 5B492D61
P 1750 3500
F 0 "D17" H 1850 3725 50  0000 L BNN
F 1 "Neopixel_THT" H 1850 3275 50  0000 L TNN
F 2 "LEDs:LED_D5.0mm-4" H 1850 3200 50  0001 L TNN
F 3 "" H 1850 3125 50  0001 L TNN
	1    1750 3500
	1    0    0    -1  
$EndComp
$Comp
L Neopixel_THT D18
U 1 1 5B492D67
P 2600 3500
F 0 "D18" H 2700 3725 50  0000 L BNN
F 1 "Neopixel_THT" H 2700 3275 50  0000 L TNN
F 2 "LEDs:LED_D5.0mm-4" H 2700 3200 50  0001 L TNN
F 3 "" H 2700 3125 50  0001 L TNN
	1    2600 3500
	1    0    0    -1  
$EndComp
$Comp
L Neopixel_THT D19
U 1 1 5B492D6D
P 3450 3500
F 0 "D19" H 3550 3725 50  0000 L BNN
F 1 "Neopixel_THT" H 3550 3275 50  0000 L TNN
F 2 "LEDs:LED_D5.0mm-4" H 3550 3200 50  0001 L TNN
F 3 "" H 3550 3125 50  0001 L TNN
	1    3450 3500
	1    0    0    -1  
$EndComp
$Comp
L Neopixel_THT D20
U 1 1 5B492D73
P 4300 3500
F 0 "D20" H 4400 3725 50  0000 L BNN
F 1 "Neopixel_THT" H 4400 3275 50  0000 L TNN
F 2 "LEDs:LED_D5.0mm-4" H 4400 3200 50  0001 L TNN
F 3 "" H 4400 3125 50  0001 L TNN
	1    4300 3500
	1    0    0    -1  
$EndComp
$Comp
L Neopixel_THT D21
U 1 1 5B492D79
P 5150 3500
F 0 "D21" H 5250 3725 50  0000 L BNN
F 1 "Neopixel_THT" H 5250 3275 50  0000 L TNN
F 2 "LEDs:LED_D5.0mm-4" H 5250 3200 50  0001 L TNN
F 3 "" H 5250 3125 50  0001 L TNN
	1    5150 3500
	1    0    0    -1  
$EndComp
$Comp
L Neopixel_THT D22
U 1 1 5B492D7F
P 6000 3500
F 0 "D22" H 6100 3725 50  0000 L BNN
F 1 "Neopixel_THT" H 6100 3275 50  0000 L TNN
F 2 "LEDs:LED_D5.0mm-4" H 6100 3200 50  0001 L TNN
F 3 "" H 6100 3125 50  0001 L TNN
	1    6000 3500
	1    0    0    -1  
$EndComp
$Comp
L Neopixel_THT D23
U 1 1 5B492D85
P 6850 3500
F 0 "D23" H 6950 3725 50  0000 L BNN
F 1 "Neopixel_THT" H 6950 3275 50  0000 L TNN
F 2 "LEDs:LED_D5.0mm-4" H 6950 3200 50  0001 L TNN
F 3 "" H 6950 3125 50  0001 L TNN
	1    6850 3500
	1    0    0    -1  
$EndComp
$Comp
L Neopixel_THT D24
U 1 1 5B492D8B
P 7700 3500
F 0 "D24" H 7800 3725 50  0000 L BNN
F 1 "Neopixel_THT" H 7800 3275 50  0000 L TNN
F 2 "LEDs:LED_D5.0mm-4" H 7800 3200 50  0001 L TNN
F 3 "" H 7800 3125 50  0001 L TNN
	1    7700 3500
	1    0    0    -1  
$EndComp
$Comp
L GND #PWR037
U 1 1 5B492D92
P 1750 3850
F 0 "#PWR037" H 1750 3600 50  0001 C CNN
F 1 "GND" H 1750 3700 50  0000 C CNN
F 2 "" H 1750 3850 50  0001 C CNN
F 3 "" H 1750 3850 50  0001 C CNN
	1    1750 3850
	1    0    0    -1  
$EndComp
$Comp
L +5V #PWR038
U 1 1 5B492D99
P 1750 3150
F 0 "#PWR038" H 1750 3000 50  0001 C CNN
F 1 "+5V" H 1750 3290 50  0000 C CNN
F 2 "" H 1750 3150 50  0001 C CNN
F 3 "" H 1750 3150 50  0001 C CNN
	1    1750 3150
	1    0    0    -1  
$EndComp
$Comp
L +5V #PWR039
U 1 1 5B492DA0
P 2600 3150
F 0 "#PWR039" H 2600 3000 50  0001 C CNN
F 1 "+5V" H 2600 3290 50  0000 C CNN
F 2 "" H 2600 3150 50  0001 C CNN
F 3 "" H 2600 3150 50  0001 C CNN
	1    2600 3150
	1    0    0    -1  
$EndComp
$Comp
L +5V #PWR040
U 1 1 5B492DA7
P 3450 3150
F 0 "#PWR040" H 3450 3000 50  0001 C CNN
F 1 "+5V" H 3450 3290 50  0000 C CNN
F 2 "" H 3450 3150 50  0001 C CNN
F 3 "" H 3450 3150 50  0001 C CNN
	1    3450 3150
	1    0    0    -1  
$EndComp
$Comp
L +5V #PWR041
U 1 1 5B492DAE
P 4300 3150
F 0 "#PWR041" H 4300 3000 50  0001 C CNN
F 1 "+5V" H 4300 3290 50  0000 C CNN
F 2 "" H 4300 3150 50  0001 C CNN
F 3 "" H 4300 3150 50  0001 C CNN
	1    4300 3150
	1    0    0    -1  
$EndComp
$Comp
L +5V #PWR042
U 1 1 5B492DB5
P 5150 3150
F 0 "#PWR042" H 5150 3000 50  0001 C CNN
F 1 "+5V" H 5150 3290 50  0000 C CNN
F 2 "" H 5150 3150 50  0001 C CNN
F 3 "" H 5150 3150 50  0001 C CNN
	1    5150 3150
	1    0    0    -1  
$EndComp
$Comp
L +5V #PWR043
U 1 1 5B492DBC
P 6000 3150
F 0 "#PWR043" H 6000 3000 50  0001 C CNN
F 1 "+5V" H 6000 3290 50  0000 C CNN
F 2 "" H 6000 3150 50  0001 C CNN
F 3 "" H 6000 3150 50  0001 C CNN
	1    6000 3150
	1    0    0    -1  
$EndComp
$Comp
L +5V #PWR044
U 1 1 5B492DC3
P 6850 3150
F 0 "#PWR044" H 6850 3000 50  0001 C CNN
F 1 "+5V" H 6850 3290 50  0000 C CNN
F 2 "" H 6850 3150 50  0001 C CNN
F 3 "" H 6850 3150 50  0001 C CNN
	1    6850 3150
	1    0    0    -1  
$EndComp
$Comp
L +5V #PWR045
U 1 1 5B492DCA
P 7700 3150
F 0 "#PWR045" H 7700 3000 50  0001 C CNN
F 1 "+5V" H 7700 3290 50  0000 C CNN
F 2 "" H 7700 3150 50  0001 C CNN
F 3 "" H 7700 3150 50  0001 C CNN
	1    7700 3150
	1    0    0    -1  
$EndComp
$Comp
L GND #PWR046
U 1 1 5B492DD1
P 2600 3850
F 0 "#PWR046" H 2600 3600 50  0001 C CNN
F 1 "GND" H 2600 3700 50  0000 C CNN
F 2 "" H 2600 3850 50  0001 C CNN
F 3 "" H 2600 3850 50  0001 C CNN
	1    2600 3850
	1    0    0    -1  
$EndComp
$Comp
L GND #PWR047
U 1 1 5B492DD8
P 3450 3850
F 0 "#PWR047" H 3450 3600 50  0001 C CNN
F 1 "GND" H 3450 3700 50  0000 C CNN
F 2 "" H 3450 3850 50  0001 C CNN
F 3 "" H 3450 3850 50  0001 C CNN
	1    3450 3850
	1    0    0    -1  
$EndComp
$Comp
L GND #PWR048
U 1 1 5B492DDF
P 4300 3850
F 0 "#PWR048" H 4300 3600 50  0001 C CNN
F 1 "GND" H 4300 3700 50  0000 C CNN
F 2 "" H 4300 3850 50  0001 C CNN
F 3 "" H 4300 3850 50  0001 C CNN
	1    4300 3850
	1    0    0    -1  
$EndComp
$Comp
L GND #PWR049
U 1 1 5B492DE6
P 5150 3850
F 0 "#PWR049" H 5150 3600 50  0001 C CNN
F 1 "GND" H 5150 3700 50  0000 C CNN
F 2 "" H 5150 3850 50  0001 C CNN
F 3 "" H 5150 3850 50  0001 C CNN
	1    5150 3850
	1    0    0    -1  
$EndComp
$Comp
L GND #PWR050
U 1 1 5B492DED
P 6000 3850
F 0 "#PWR050" H 6000 3600 50  0001 C CNN
F 1 "GND" H 6000 3700 50  0000 C CNN
F 2 "" H 6000 3850 50  0001 C CNN
F 3 "" H 6000 3850 50  0001 C CNN
	1    6000 3850
	1    0    0    -1  
$EndComp
$Comp
L GND #PWR051
U 1 1 5B492DF4
P 6850 3850
F 0 "#PWR051" H 6850 3600 50  0001 C CNN
F 1 "GND" H 6850 3700 50  0000 C CNN
F 2 "" H 6850 3850 50  0001 C CNN
F 3 "" H 6850 3850 50  0001 C CNN
	1    6850 3850
	1    0    0    -1  
$EndComp
$Comp
L GND #PWR052
U 1 1 5B492DFB
P 7700 3850
F 0 "#PWR052" H 7700 3600 50  0001 C CNN
F 1 "GND" H 7700 3700 50  0000 C CNN
F 2 "" H 7700 3850 50  0001 C CNN
F 3 "" H 7700 3850 50  0001 C CNN
	1    7700 3850
	1    0    0    -1  
$EndComp
$Comp
L Neopixel_THT D25
U 1 1 5B492E08
P 7700 4650
F 0 "D25" H 7800 4875 50  0000 L BNN
F 1 "Neopixel_THT" H 7800 4425 50  0000 L TNN
F 2 "LEDs:LED_D5.0mm-4" H 7800 4350 50  0001 L TNN
F 3 "" H 7800 4275 50  0001 L TNN
	1    7700 4650
	-1   0    0    -1  
$EndComp
$Comp
L Neopixel_THT D26
U 1 1 5B492E0E
P 6850 4650
F 0 "D26" H 6950 4875 50  0000 L BNN
F 1 "Neopixel_THT" H 6950 4425 50  0000 L TNN
F 2 "LEDs:LED_D5.0mm-4" H 6950 4350 50  0001 L TNN
F 3 "" H 6950 4275 50  0001 L TNN
	1    6850 4650
	-1   0    0    -1  
$EndComp
$Comp
L Neopixel_THT D27
U 1 1 5B492E14
P 6000 4650
F 0 "D27" H 6100 4875 50  0000 L BNN
F 1 "Neopixel_THT" H 6100 4425 50  0000 L TNN
F 2 "LEDs:LED_D5.0mm-4" H 6100 4350 50  0001 L TNN
F 3 "" H 6100 4275 50  0001 L TNN
	1    6000 4650
	-1   0    0    -1  
$EndComp
$Comp
L Neopixel_THT D28
U 1 1 5B492E1A
P 5150 4650
F 0 "D28" H 5250 4875 50  0000 L BNN
F 1 "Neopixel_THT" H 5250 4425 50  0000 L TNN
F 2 "LEDs:LED_D5.0mm-4" H 5250 4350 50  0001 L TNN
F 3 "" H 5250 4275 50  0001 L TNN
	1    5150 4650
	-1   0    0    -1  
$EndComp
$Comp
L Neopixel_THT D29
U 1 1 5B492E20
P 4300 4650
F 0 "D29" H 4400 4875 50  0000 L BNN
F 1 "Neopixel_THT" H 4400 4425 50  0000 L TNN
F 2 "LEDs:LED_D5.0mm-4" H 4400 4350 50  0001 L TNN
F 3 "" H 4400 4275 50  0001 L TNN
	1    4300 4650
	-1   0    0    -1  
$EndComp
$Comp
L Neopixel_THT D30
U 1 1 5B492E26
P 3450 4650
F 0 "D30" H 3550 4875 50  0000 L BNN
F 1 "Neopixel_THT" H 3550 4425 50  0000 L TNN
F 2 "LEDs:LED_D5.0mm-4" H 3550 4350 50  0001 L TNN
F 3 "" H 3550 4275 50  0001 L TNN
	1    3450 4650
	-1   0    0    -1  
$EndComp
$Comp
L Neopixel_THT D31
U 1 1 5B492E2C
P 2600 4650
F 0 "D31" H 2700 4875 50  0000 L BNN
F 1 "Neopixel_THT" H 2700 4425 50  0000 L TNN
F 2 "LEDs:LED_D5.0mm-4" H 2700 4350 50  0001 L TNN
F 3 "" H 2700 4275 50  0001 L TNN
	1    2600 4650
	-1   0    0    -1  
$EndComp
$Comp
L Neopixel_THT D32
U 1 1 5B492E32
P 1750 4650
F 0 "D32" H 1850 4875 50  0000 L BNN
F 1 "Neopixel_THT" H 1850 4425 50  0000 L TNN
F 2 "LEDs:LED_D5.0mm-4" H 1850 4350 50  0001 L TNN
F 3 "" H 1850 4275 50  0001 L TNN
	1    1750 4650
	-1   0    0    -1  
$EndComp
$Comp
L GND #PWR053
U 1 1 5B492E39
P 7700 5000
F 0 "#PWR053" H 7700 4750 50  0001 C CNN
F 1 "GND" H 7700 4850 50  0000 C CNN
F 2 "" H 7700 5000 50  0001 C CNN
F 3 "" H 7700 5000 50  0001 C CNN
	1    7700 5000
	-1   0    0    -1  
$EndComp
$Comp
L +5V #PWR054
U 1 1 5B492E40
P 7700 4300
F 0 "#PWR054" H 7700 4150 50  0001 C CNN
F 1 "+5V" H 7700 4440 50  0000 C CNN
F 2 "" H 7700 4300 50  0001 C CNN
F 3 "" H 7700 4300 50  0001 C CNN
	1    7700 4300
	-1   0    0    -1  
$EndComp
$Comp
L +5V #PWR055
U 1 1 5B492E47
P 6850 4300
F 0 "#PWR055" H 6850 4150 50  0001 C CNN
F 1 "+5V" H 6850 4440 50  0000 C CNN
F 2 "" H 6850 4300 50  0001 C CNN
F 3 "" H 6850 4300 50  0001 C CNN
	1    6850 4300
	-1   0    0    -1  
$EndComp
$Comp
L +5V #PWR056
U 1 1 5B492E4E
P 6000 4300
F 0 "#PWR056" H 6000 4150 50  0001 C CNN
F 1 "+5V" H 6000 4440 50  0000 C CNN
F 2 "" H 6000 4300 50  0001 C CNN
F 3 "" H 6000 4300 50  0001 C CNN
	1    6000 4300
	-1   0    0    -1  
$EndComp
$Comp
L +5V #PWR057
U 1 1 5B492E55
P 5150 4300
F 0 "#PWR057" H 5150 4150 50  0001 C CNN
F 1 "+5V" H 5150 4440 50  0000 C CNN
F 2 "" H 5150 4300 50  0001 C CNN
F 3 "" H 5150 4300 50  0001 C CNN
	1    5150 4300
	-1   0    0    -1  
$EndComp
$Comp
L +5V #PWR058
U 1 1 5B492E5C
P 4300 4300
F 0 "#PWR058" H 4300 4150 50  0001 C CNN
F 1 "+5V" H 4300 4440 50  0000 C CNN
F 2 "" H 4300 4300 50  0001 C CNN
F 3 "" H 4300 4300 50  0001 C CNN
	1    4300 4300
	-1   0    0    -1  
$EndComp
$Comp
L +5V #PWR059
U 1 1 5B492E63
P 3450 4300
F 0 "#PWR059" H 3450 4150 50  0001 C CNN
F 1 "+5V" H 3450 4440 50  0000 C CNN
F 2 "" H 3450 4300 50  0001 C CNN
F 3 "" H 3450 4300 50  0001 C CNN
	1    3450 4300
	-1   0    0    -1  
$EndComp
$Comp
L +5V #PWR060
U 1 1 5B492E6A
P 2600 4300
F 0 "#PWR060" H 2600 4150 50  0001 C CNN
F 1 "+5V" H 2600 4440 50  0000 C CNN
F 2 "" H 2600 4300 50  0001 C CNN
F 3 "" H 2600 4300 50  0001 C CNN
	1    2600 4300
	-1   0    0    -1  
$EndComp
$Comp
L +5V #PWR061
U 1 1 5B492E71
P 1750 4300
F 0 "#PWR061" H 1750 4150 50  0001 C CNN
F 1 "+5V" H 1750 4440 50  0000 C CNN
F 2 "" H 1750 4300 50  0001 C CNN
F 3 "" H 1750 4300 50  0001 C CNN
	1    1750 4300
	-1   0    0    -1  
$EndComp
$Comp
L GND #PWR062
U 1 1 5B492E78
P 6850 5000
F 0 "#PWR062" H 6850 4750 50  0001 C CNN
F 1 "GND" H 6850 4850 50  0000 C CNN
F 2 "" H 6850 5000 50  0001 C CNN
F 3 "" H 6850 5000 50  0001 C CNN
	1    6850 5000
	-1   0    0    -1  
$EndComp
$Comp
L GND #PWR063
U 1 1 5B492E7F
P 6000 5000
F 0 "#PWR063" H 6000 4750 50  0001 C CNN
F 1 "GND" H 6000 4850 50  0000 C CNN
F 2 "" H 6000 5000 50  0001 C CNN
F 3 "" H 6000 5000 50  0001 C CNN
	1    6000 5000
	-1   0    0    -1  
$EndComp
$Comp
L GND #PWR064
U 1 1 5B492E86
P 5150 5000
F 0 "#PWR064" H 5150 4750 50  0001 C CNN
F 1 "GND" H 5150 4850 50  0000 C CNN
F 2 "" H 5150 5000 50  0001 C CNN
F 3 "" H 5150 5000 50  0001 C CNN
	1    5150 5000
	-1   0    0    -1  
$EndComp
$Comp
L GND #PWR065
U 1 1 5B492E8D
P 4300 5000
F 0 "#PWR065" H 4300 4750 50  0001 C CNN
F 1 "GND" H 4300 4850 50  0000 C CNN
F 2 "" H 4300 5000 50  0001 C CNN
F 3 "" H 4300 5000 50  0001 C CNN
	1    4300 5000
	-1   0    0    -1  
$EndComp
$Comp
L GND #PWR066
U 1 1 5B492E94
P 3450 5000
F 0 "#PWR066" H 3450 4750 50  0001 C CNN
F 1 "GND" H 3450 4850 50  0000 C CNN
F 2 "" H 3450 5000 50  0001 C CNN
F 3 "" H 3450 5000 50  0001 C CNN
	1    3450 5000
	-1   0    0    -1  
$EndComp
$Comp
L GND #PWR067
U 1 1 5B492E9B
P 2600 5000
F 0 "#PWR067" H 2600 4750 50  0001 C CNN
F 1 "GND" H 2600 4850 50  0000 C CNN
F 2 "" H 2600 5000 50  0001 C CNN
F 3 "" H 2600 5000 50  0001 C CNN
	1    2600 5000
	-1   0    0    -1  
$EndComp
$Comp
L GND #PWR068
U 1 1 5B492EA2
P 1750 5000
F 0 "#PWR068" H 1750 4750 50  0001 C CNN
F 1 "GND" H 1750 4850 50  0000 C CNN
F 2 "" H 1750 5000 50  0001 C CNN
F 3 "" H 1750 5000 50  0001 C CNN
	1    1750 5000
	-1   0    0    -1  
$EndComp
$Comp
L ROTARY_ENCODER U1
U 1 1 5B493B11
P 7150 -1250
F 0 "U1" H 7100 -850 60  0000 C CNN
F 1 "ROTARY_ENCODER" H 7200 -1600 60  0000 C CNN
F 2 "chordboard-footprints:Rotary_Encoder_BI_EN12-HS22AF30" H 7150 -1250 60  0001 C CNN
F 3 "" H 7150 -1250 60  0000 C CNN
	1    7150 -1250
	0    1    1    0   
$EndComp
$Comp
L GND #PWR069
U 1 1 5B494171
P 7150 -700
F 0 "#PWR069" H 7150 -950 50  0001 C CNN
F 1 "GND" H 7150 -850 50  0000 C CNN
F 2 "" H 7150 -700 50  0001 C CNN
F 3 "" H 7150 -700 50  0001 C CNN
	1    7150 -700
	1    0    0    -1  
$EndComp
$Comp
L ROTARY_ENCODER U2
U 1 1 5B49433A
P 7950 -1250
F 0 "U2" H 7900 -850 60  0000 C CNN
F 1 "ROTARY_ENCODER" H 8000 -1600 60  0000 C CNN
F 2 "chordboard-footprints:Rotary_Encoder_BI_EN12-HS22AF30" H 7950 -1250 60  0001 C CNN
F 3 "" H 7950 -1250 60  0000 C CNN
	1    7950 -1250
	0    1    1    0   
$EndComp
$Comp
L GND #PWR070
U 1 1 5B494345
P 7950 -700
F 0 "#PWR070" H 7950 -950 50  0001 C CNN
F 1 "GND" H 7950 -850 50  0000 C CNN
F 2 "" H 7950 -700 50  0001 C CNN
F 3 "" H 7950 -700 50  0001 C CNN
	1    7950 -700
	1    0    0    -1  
$EndComp
$Comp
L ROTARY_ENCODER U3
U 1 1 5B494479
P 8750 -1250
F 0 "U3" H 8700 -850 60  0000 C CNN
F 1 "ROTARY_ENCODER" H 8800 -1600 60  0000 C CNN
F 2 "chordboard-footprints:Rotary_Encoder_BI_EN12-HS22AF30" H 8750 -1250 60  0001 C CNN
F 3 "" H 8750 -1250 60  0000 C CNN
	1    8750 -1250
	0    1    1    0   
$EndComp
$Comp
L GND #PWR071
U 1 1 5B494484
P 8750 -700
F 0 "#PWR071" H 8750 -950 50  0001 C CNN
F 1 "GND" H 8750 -850 50  0000 C CNN
F 2 "" H 8750 -700 50  0001 C CNN
F 3 "" H 8750 -700 50  0001 C CNN
	1    8750 -700
	1    0    0    -1  
$EndComp
$Comp
L ROTARY_ENCODER U4
U 1 1 5B49448A
P 9550 -1250
F 0 "U4" H 9500 -850 60  0000 C CNN
F 1 "ROTARY_ENCODER" H 9600 -1600 60  0000 C CNN
F 2 "chordboard-footprints:Rotary_Encoder_BI_EN12-HS22AF30" H 9550 -1250 60  0001 C CNN
F 3 "" H 9550 -1250 60  0000 C CNN
	1    9550 -1250
	0    1    1    0   
$EndComp
$Comp
L GND #PWR072
U 1 1 5B494495
P 9550 -700
F 0 "#PWR072" H 9550 -950 50  0001 C CNN
F 1 "GND" H 9550 -850 50  0000 C CNN
F 2 "" H 9550 -700 50  0001 C CNN
F 3 "" H 9550 -700 50  0001 C CNN
	1    9550 -700
	1    0    0    -1  
$EndComp
$Comp
L ROTARY_ENCODER U5
U 1 1 5B49478B
P 10400 -1250
F 0 "U5" H 10350 -850 60  0000 C CNN
F 1 "ROTARY_ENCODER" H 10450 -1600 60  0000 C CNN
F 2 "chordboard-footprints:Rotary_Encoder_BI_EN12-HS22AF30" H 10400 -1250 60  0001 C CNN
F 3 "" H 10400 -1250 60  0000 C CNN
	1    10400 -1250
	0    1    1    0   
$EndComp
$Comp
L GND #PWR073
U 1 1 5B494796
P 10400 -700
F 0 "#PWR073" H 10400 -950 50  0001 C CNN
F 1 "GND" H 10400 -850 50  0000 C CNN
F 2 "" H 10400 -700 50  0001 C CNN
F 3 "" H 10400 -700 50  0001 C CNN
	1    10400 -700
	1    0    0    -1  
$EndComp
$Comp
L ROTARY_ENCODER U6
U 1 1 5B49479C
P 11200 -1250
F 0 "U6" H 11150 -850 60  0000 C CNN
F 1 "ROTARY_ENCODER" H 11250 -1600 60  0000 C CNN
F 2 "chordboard-footprints:Rotary_Encoder_BI_EN12-HS22AF30" H 11200 -1250 60  0001 C CNN
F 3 "" H 11200 -1250 60  0000 C CNN
	1    11200 -1250
	0    1    1    0   
$EndComp
$Comp
L GND #PWR074
U 1 1 5B4947A7
P 11200 -700
F 0 "#PWR074" H 11200 -950 50  0001 C CNN
F 1 "GND" H 11200 -850 50  0000 C CNN
F 2 "" H 11200 -700 50  0001 C CNN
F 3 "" H 11200 -700 50  0001 C CNN
	1    11200 -700
	1    0    0    -1  
$EndComp
$Comp
L ROTARY_ENCODER U7
U 1 1 5B4947AD
P 12000 -1250
F 0 "U7" H 11950 -850 60  0000 C CNN
F 1 "ROTARY_ENCODER" H 12050 -1600 60  0000 C CNN
F 2 "chordboard-footprints:Rotary_Encoder_BI_EN12-HS22AF30" H 12000 -1250 60  0001 C CNN
F 3 "" H 12000 -1250 60  0000 C CNN
	1    12000 -1250
	0    1    1    0   
$EndComp
$Comp
L GND #PWR075
U 1 1 5B4947B8
P 12000 -700
F 0 "#PWR075" H 12000 -950 50  0001 C CNN
F 1 "GND" H 12000 -850 50  0000 C CNN
F 2 "" H 12000 -700 50  0001 C CNN
F 3 "" H 12000 -700 50  0001 C CNN
	1    12000 -700
	1    0    0    -1  
$EndComp
$Comp
L ROTARY_ENCODER U8
U 1 1 5B4947BE
P 12800 -1250
F 0 "U8" H 12750 -850 60  0000 C CNN
F 1 "ROTARY_ENCODER" H 12850 -1600 60  0000 C CNN
F 2 "chordboard-footprints:Rotary_Encoder_BI_EN12-HS22AF30" H 12800 -1250 60  0001 C CNN
F 3 "" H 12800 -1250 60  0000 C CNN
	1    12800 -1250
	0    1    1    0   
$EndComp
$Comp
L GND #PWR076
U 1 1 5B4947C9
P 12800 -700
F 0 "#PWR076" H 12800 -950 50  0001 C CNN
F 1 "GND" H 12800 -850 50  0000 C CNN
F 2 "" H 12800 -700 50  0001 C CNN
F 3 "" H 12800 -700 50  0001 C CNN
	1    12800 -700
	1    0    0    -1  
$EndComp
$Comp
L SPST S33
U 1 1 5B494F62
P 5150 -1450
F 0 "S33" H 5140 -1365 60  0000 C CNN
F 1 "SPST" H 5150 -1545 60  0000 C CNN
F 2 "chordboard-footprints:SW_PUSH_6mm" H 5150 -1450 60  0001 C CNN
F 3 "" H 5150 -1450 60  0001 C CNN
	1    5150 -1450
	1    0    0    -1  
$EndComp
$Comp
L SPST S34
U 1 1 5B495D31
P 5150 -1350
F 0 "S34" H 5140 -1265 60  0000 C CNN
F 1 "SPST" H 5150 -1445 60  0000 C CNN
F 2 "chordboard-footprints:SW_PUSH_6mm" H 5150 -1350 60  0001 C CNN
F 3 "" H 5150 -1350 60  0001 C CNN
	1    5150 -1350
	1    0    0    -1  
$EndComp
$Comp
L SPST S35
U 1 1 5B495E2B
P 5150 -1250
F 0 "S35" H 5140 -1165 60  0000 C CNN
F 1 "SPST" H 5150 -1345 60  0000 C CNN
F 2 "chordboard-footprints:SW_PUSH_6mm" H 5150 -1250 60  0001 C CNN
F 3 "" H 5150 -1250 60  0001 C CNN
	1    5150 -1250
	1    0    0    -1  
$EndComp
$Comp
L SPST S36
U 1 1 5B495F28
P 5150 -1150
F 0 "S36" H 5140 -1065 60  0000 C CNN
F 1 "SPST" H 5150 -1245 60  0000 C CNN
F 2 "chordboard-footprints:SW_PUSH_6mm" H 5150 -1150 60  0001 C CNN
F 3 "" H 5150 -1150 60  0001 C CNN
	1    5150 -1150
	1    0    0    -1  
$EndComp
$Comp
L SPST S37
U 1 1 5B4960D0
P 5150 -1050
F 0 "S37" H 5140 -965 60  0000 C CNN
F 1 "SPST" H 5150 -1145 60  0000 C CNN
F 2 "chordboard-footprints:SW_PUSH_6mm" H 5150 -1050 60  0001 C CNN
F 3 "" H 5150 -1050 60  0001 C CNN
	1    5150 -1050
	1    0    0    -1  
$EndComp
$Comp
L SPST S38
U 1 1 5B4960D6
P 5150 -950
F 0 "S38" H 5140 -865 60  0000 C CNN
F 1 "SPST" H 5150 -1045 60  0000 C CNN
F 2 "chordboard-footprints:SW_PUSH_6mm" H 5150 -950 60  0001 C CNN
F 3 "" H 5150 -950 60  0001 C CNN
	1    5150 -950
	1    0    0    -1  
$EndComp
$Comp
L SPST S39
U 1 1 5B4960DC
P 5150 -850
F 0 "S39" H 5140 -765 60  0000 C CNN
F 1 "SPST" H 5150 -945 60  0000 C CNN
F 2 "chordboard-footprints:SW_PUSH_6mm" H 5150 -850 60  0001 C CNN
F 3 "" H 5150 -850 60  0001 C CNN
	1    5150 -850
	1    0    0    -1  
$EndComp
$Comp
L SPST S40
U 1 1 5B4960E2
P 5150 -750
F 0 "S40" H 5140 -665 60  0000 C CNN
F 1 "SPST" H 5150 -845 60  0000 C CNN
F 2 "chordboard-footprints:SW_PUSH_6mm" H 5150 -750 60  0001 C CNN
F 3 "" H 5150 -750 60  0001 C CNN
	1    5150 -750
	1    0    0    -1  
$EndComp
$Comp
L Conn_01x08 J5
U 1 1 5B496798
P 4800 -1150
F 0 "J5" H 4800 -750 50  0000 C CNN
F 1 "Conn_01x08" H 4800 -1650 50  0000 C CNN
F 2 "Pin_Headers:Pin_Header_Straight_1x08_Pitch2.54mm" H 4800 -1150 50  0001 C CNN
F 3 "" H 4800 -1150 50  0001 C CNN
	1    4800 -1150
	-1   0    0    -1  
$EndComp
$Comp
L GND #PWR077
U 1 1 5B497030
P 5350 -500
F 0 "#PWR077" H 5350 -750 50  0001 C CNN
F 1 "GND" H 5350 -650 50  0000 C CNN
F 2 "" H 5350 -500 50  0001 C CNN
F 3 "" H 5350 -500 50  0001 C CNN
	1    5350 -500
	1    0    0    -1  
$EndComp
$Comp
L Mounting_Hole MK1
U 1 1 5B4982A9
P 9850 1650
F 0 "MK1" H 9850 1850 50  0000 C CNN
F 1 "Mounting_Hole" H 9850 1775 50  0000 C CNN
F 2 "Mounting_Holes:MountingHole_2.5mm_Pad_Via" H 9850 1650 50  0001 C CNN
F 3 "" H 9850 1650 50  0001 C CNN
	1    9850 1650
	1    0    0    -1  
$EndComp
$Comp
L Mounting_Hole MK5
U 1 1 5B498558
P 9850 1950
F 0 "MK5" H 9850 2150 50  0000 C CNN
F 1 "Mounting_Hole" H 9850 2075 50  0000 C CNN
F 2 "Mounting_Holes:MountingHole_2.5mm_Pad_Via" H 9850 1950 50  0001 C CNN
F 3 "" H 9850 1950 50  0001 C CNN
	1    9850 1950
	1    0    0    -1  
$EndComp
$Comp
L Mounting_Hole MK9
U 1 1 5B498697
P 9850 2250
F 0 "MK9" H 9850 2450 50  0000 C CNN
F 1 "Mounting_Hole" H 9850 2375 50  0000 C CNN
F 2 "Mounting_Holes:MountingHole_2.5mm_Pad_Via" H 9850 2250 50  0001 C CNN
F 3 "" H 9850 2250 50  0001 C CNN
	1    9850 2250
	1    0    0    -1  
$EndComp
$Comp
L Mounting_Hole MK2
U 1 1 5B49890C
P 10100 1650
F 0 "MK2" H 10100 1850 50  0000 C CNN
F 1 "Mounting_Hole" H 10100 1775 50  0000 C CNN
F 2 "Mounting_Holes:MountingHole_2.5mm_Pad_Via" H 10100 1650 50  0001 C CNN
F 3 "" H 10100 1650 50  0001 C CNN
	1    10100 1650
	1    0    0    -1  
$EndComp
$Comp
L Mounting_Hole MK6
U 1 1 5B498A48
P 10100 1950
F 0 "MK6" H 10100 2150 50  0000 C CNN
F 1 "Mounting_Hole" H 10100 2075 50  0000 C CNN
F 2 "Mounting_Holes:MountingHole_2.5mm_Pad_Via" H 10100 1950 50  0001 C CNN
F 3 "" H 10100 1950 50  0001 C CNN
	1    10100 1950
	1    0    0    -1  
$EndComp
$Comp
L Mounting_Hole MK10
U 1 1 5B498D1F
P 10100 2250
F 0 "MK10" H 10100 2450 50  0000 C CNN
F 1 "Mounting_Hole" H 10100 2375 50  0000 C CNN
F 2 "Mounting_Holes:MountingHole_2.5mm_Pad_Via" H 10100 2250 50  0001 C CNN
F 3 "" H 10100 2250 50  0001 C CNN
	1    10100 2250
	1    0    0    -1  
$EndComp
$Comp
L Mounting_Hole MK3
U 1 1 5B4994A1
P 10350 1650
F 0 "MK3" H 10350 1850 50  0000 C CNN
F 1 "Mounting_Hole" H 10350 1775 50  0000 C CNN
F 2 "Mounting_Holes:MountingHole_2.5mm_Pad_Via" H 10350 1650 50  0001 C CNN
F 3 "" H 10350 1650 50  0001 C CNN
	1    10350 1650
	1    0    0    -1  
$EndComp
$Comp
L Mounting_Hole MK7
U 1 1 5B4994A7
P 10350 1950
F 0 "MK7" H 10350 2150 50  0000 C CNN
F 1 "Mounting_Hole" H 10350 2075 50  0000 C CNN
F 2 "Mounting_Holes:MountingHole_2.5mm_Pad_Via" H 10350 1950 50  0001 C CNN
F 3 "" H 10350 1950 50  0001 C CNN
	1    10350 1950
	1    0    0    -1  
$EndComp
$Comp
L Mounting_Hole MK11
U 1 1 5B4994AD
P 10350 2250
F 0 "MK11" H 10350 2450 50  0000 C CNN
F 1 "Mounting_Hole" H 10350 2375 50  0000 C CNN
F 2 "Mounting_Holes:MountingHole_2.5mm_Pad_Via" H 10350 2250 50  0001 C CNN
F 3 "" H 10350 2250 50  0001 C CNN
	1    10350 2250
	1    0    0    -1  
$EndComp
$Comp
L Mounting_Hole MK4
U 1 1 5B4994B9
P 10600 1650
F 0 "MK4" H 10600 1850 50  0000 C CNN
F 1 "Mounting_Hole" H 10600 1775 50  0000 C CNN
F 2 "Mounting_Holes:MountingHole_2.5mm_Pad_Via" H 10600 1650 50  0001 C CNN
F 3 "" H 10600 1650 50  0001 C CNN
	1    10600 1650
	1    0    0    -1  
$EndComp
$Comp
L Mounting_Hole MK8
U 1 1 5B4994BF
P 10600 1950
F 0 "MK8" H 10600 2150 50  0000 C CNN
F 1 "Mounting_Hole" H 10600 2075 50  0000 C CNN
F 2 "Mounting_Holes:MountingHole_2.5mm_Pad_Via" H 10600 1950 50  0001 C CNN
F 3 "" H 10600 1950 50  0001 C CNN
	1    10600 1950
	1    0    0    -1  
$EndComp
Text Label 1350 1200 2    60   ~ 0
PIXEL_IN
$Comp
L Conn_01x08 J7
U 1 1 5B49CB2F
P 7500 -3050
F 0 "J7" H 7500 -2650 50  0000 C CNN
F 1 "Conn_01x08" H 7500 -3550 50  0000 C CNN
F 2 "Pin_Headers:Pin_Header_Straight_1x08_Pitch2.54mm" H 7500 -3050 50  0001 C CNN
F 3 "" H 7500 -3050 50  0001 C CNN
	1    7500 -3050
	0    -1   -1   0   
$EndComp
$Comp
L Conn_01x08 J8
U 1 1 5B49D159
P 8500 -3050
F 0 "J8" H 8500 -2650 50  0000 C CNN
F 1 "Conn_01x08" H 8500 -3550 50  0000 C CNN
F 2 "Pin_Headers:Pin_Header_Straight_1x08_Pitch2.54mm" H 8500 -3050 50  0001 C CNN
F 3 "" H 8500 -3050 50  0001 C CNN
	1    8500 -3050
	0    -1   -1   0   
$EndComp
Wire Wire Line
	1900 -1450 1950 -1450
Wire Wire Line
	1950 -1450 1950 -500
Wire Wire Line
	1950 -1350 1900 -1350
Wire Wire Line
	1950 -1250 1900 -1250
Connection ~ 1950 -1350
Wire Wire Line
	1950 -1150 1900 -1150
Connection ~ 1950 -1250
Wire Wire Line
	1950 -1050 1900 -1050
Connection ~ 1950 -1150
Wire Wire Line
	1950 -950 1900 -950
Connection ~ 1950 -1050
Wire Wire Line
	1950 -850 1900 -850
Connection ~ 1950 -950
Wire Wire Line
	1950 -750 1900 -750
Connection ~ 1950 -850
Connection ~ 1950 -750
Wire Wire Line
	2750 -1450 2800 -1450
Wire Wire Line
	2800 -1450 2800 -500
Wire Wire Line
	2800 -1350 2750 -1350
Wire Wire Line
	2800 -1250 2750 -1250
Connection ~ 2800 -1350
Wire Wire Line
	2800 -1150 2750 -1150
Connection ~ 2800 -1250
Wire Wire Line
	2800 -1050 2750 -1050
Connection ~ 2800 -1150
Wire Wire Line
	2800 -950 2750 -950
Connection ~ 2800 -1050
Wire Wire Line
	2800 -850 2750 -850
Connection ~ 2800 -950
Wire Wire Line
	2800 -750 2750 -750
Connection ~ 2800 -850
Connection ~ 2800 -750
Wire Wire Line
	3600 -1450 3650 -1450
Wire Wire Line
	3650 -1450 3650 -500
Wire Wire Line
	3650 -1350 3600 -1350
Wire Wire Line
	3650 -1250 3600 -1250
Connection ~ 3650 -1350
Wire Wire Line
	3650 -1150 3600 -1150
Connection ~ 3650 -1250
Wire Wire Line
	3650 -1050 3600 -1050
Connection ~ 3650 -1150
Wire Wire Line
	3650 -950 3600 -950
Connection ~ 3650 -1050
Wire Wire Line
	3650 -850 3600 -850
Connection ~ 3650 -950
Wire Wire Line
	3650 -750 3600 -750
Connection ~ 3650 -850
Connection ~ 3650 -750
Wire Wire Line
	4450 -1450 4500 -1450
Wire Wire Line
	4500 -1450 4500 -500
Wire Wire Line
	4500 -1350 4450 -1350
Wire Wire Line
	4500 -1250 4450 -1250
Connection ~ 4500 -1350
Wire Wire Line
	4500 -1150 4450 -1150
Connection ~ 4500 -1250
Wire Wire Line
	4500 -1050 4450 -1050
Connection ~ 4500 -1150
Wire Wire Line
	4500 -950 4450 -950
Connection ~ 4500 -1050
Wire Wire Line
	4500 -850 4450 -850
Connection ~ 4500 -950
Wire Wire Line
	4500 -750 4450 -750
Connection ~ 4500 -850
Connection ~ 4500 -750
Wire Wire Line
	1750 1500 1750 1550
Wire Wire Line
	1750 900  1750 850 
Wire Wire Line
	2600 900  2600 850 
Wire Wire Line
	3450 900  3450 850 
Wire Wire Line
	4300 900  4300 850 
Wire Wire Line
	5150 900  5150 850 
Wire Wire Line
	6000 900  6000 850 
Wire Wire Line
	6850 900  6850 850 
Wire Wire Line
	7700 900  7700 850 
Wire Wire Line
	2600 1500 2600 1550
Wire Wire Line
	3450 1500 3450 1550
Wire Wire Line
	4300 1500 4300 1550
Wire Wire Line
	5150 1500 5150 1550
Wire Wire Line
	6000 1500 6000 1550
Wire Wire Line
	6850 1500 6850 1550
Wire Wire Line
	7700 1500 7700 1550
Wire Wire Line
	2150 1200 2200 1200
Wire Wire Line
	3000 1200 3050 1200
Wire Wire Line
	3850 1200 3900 1200
Wire Wire Line
	4700 1200 4750 1200
Wire Wire Line
	5550 1200 5600 1200
Wire Wire Line
	6400 1200 6450 1200
Wire Wire Line
	7250 1200 7300 1200
Wire Wire Line
	7700 2650 7700 2700
Wire Wire Line
	7700 2050 7700 2000
Wire Wire Line
	6850 2050 6850 2000
Wire Wire Line
	6000 2050 6000 2000
Wire Wire Line
	5150 2050 5150 2000
Wire Wire Line
	4300 2050 4300 2000
Wire Wire Line
	3450 2050 3450 2000
Wire Wire Line
	2600 2050 2600 2000
Wire Wire Line
	1750 2050 1750 2000
Wire Wire Line
	6850 2650 6850 2700
Wire Wire Line
	6000 2650 6000 2700
Wire Wire Line
	5150 2650 5150 2700
Wire Wire Line
	4300 2650 4300 2700
Wire Wire Line
	3450 2650 3450 2700
Wire Wire Line
	2600 2650 2600 2700
Wire Wire Line
	1750 2650 1750 2700
Wire Wire Line
	7300 2350 7250 2350
Wire Wire Line
	6450 2350 6400 2350
Wire Wire Line
	5600 2350 5550 2350
Wire Wire Line
	4750 2350 4700 2350
Wire Wire Line
	3900 2350 3850 2350
Wire Wire Line
	3050 2350 3000 2350
Wire Wire Line
	2200 2350 2150 2350
Wire Wire Line
	1750 3800 1750 3850
Wire Wire Line
	1750 3200 1750 3150
Wire Wire Line
	2600 3200 2600 3150
Wire Wire Line
	3450 3200 3450 3150
Wire Wire Line
	4300 3200 4300 3150
Wire Wire Line
	5150 3200 5150 3150
Wire Wire Line
	6000 3200 6000 3150
Wire Wire Line
	6850 3200 6850 3150
Wire Wire Line
	7700 3200 7700 3150
Wire Wire Line
	2600 3800 2600 3850
Wire Wire Line
	3450 3800 3450 3850
Wire Wire Line
	4300 3800 4300 3850
Wire Wire Line
	5150 3800 5150 3850
Wire Wire Line
	6000 3800 6000 3850
Wire Wire Line
	6850 3800 6850 3850
Wire Wire Line
	7700 3800 7700 3850
Wire Wire Line
	2150 3500 2200 3500
Wire Wire Line
	3000 3500 3050 3500
Wire Wire Line
	3850 3500 3900 3500
Wire Wire Line
	4700 3500 4750 3500
Wire Wire Line
	5550 3500 5600 3500
Wire Wire Line
	6400 3500 6450 3500
Wire Wire Line
	7250 3500 7300 3500
Wire Wire Line
	7700 4950 7700 5000
Wire Wire Line
	7700 4350 7700 4300
Wire Wire Line
	6850 4350 6850 4300
Wire Wire Line
	6000 4350 6000 4300
Wire Wire Line
	5150 4350 5150 4300
Wire Wire Line
	4300 4350 4300 4300
Wire Wire Line
	3450 4350 3450 4300
Wire Wire Line
	2600 4350 2600 4300
Wire Wire Line
	1750 4350 1750 4300
Wire Wire Line
	6850 4950 6850 5000
Wire Wire Line
	6000 4950 6000 5000
Wire Wire Line
	5150 4950 5150 5000
Wire Wire Line
	4300 4950 4300 5000
Wire Wire Line
	3450 4950 3450 5000
Wire Wire Line
	2600 4950 2600 5000
Wire Wire Line
	1750 4950 1750 5000
Wire Wire Line
	7300 4650 7250 4650
Wire Wire Line
	6450 4650 6400 4650
Wire Wire Line
	5600 4650 5550 4650
Wire Wire Line
	4750 4650 4700 4650
Wire Wire Line
	3900 4650 3850 4650
Wire Wire Line
	3050 4650 3000 4650
Wire Wire Line
	2200 4650 2150 4650
Wire Wire Line
	6950 -950 6950 -900
Wire Wire Line
	6950 -900 7300 -900
Wire Wire Line
	7300 -900 7300 -950
Wire Wire Line
	7150 -900 7150 -700
Connection ~ 7150 -900
Wire Wire Line
	7750 -950 7750 -900
Wire Wire Line
	7750 -900 8100 -900
Wire Wire Line
	8100 -900 8100 -950
Wire Wire Line
	7950 -900 7950 -700
Connection ~ 7950 -900
Wire Wire Line
	8550 -950 8550 -900
Wire Wire Line
	8550 -900 8900 -900
Wire Wire Line
	8900 -900 8900 -950
Wire Wire Line
	8750 -900 8750 -700
Connection ~ 8750 -900
Wire Wire Line
	9350 -950 9350 -900
Wire Wire Line
	9350 -900 9700 -900
Wire Wire Line
	9700 -900 9700 -950
Wire Wire Line
	9550 -900 9550 -700
Connection ~ 9550 -900
Wire Wire Line
	10200 -950 10200 -900
Wire Wire Line
	10200 -900 10550 -900
Wire Wire Line
	10550 -900 10550 -950
Wire Wire Line
	10400 -900 10400 -700
Connection ~ 10400 -900
Wire Wire Line
	11000 -950 11000 -900
Wire Wire Line
	11000 -900 11350 -900
Wire Wire Line
	11350 -900 11350 -950
Wire Wire Line
	11200 -900 11200 -700
Connection ~ 11200 -900
Wire Wire Line
	11800 -950 11800 -900
Wire Wire Line
	11800 -900 12150 -900
Wire Wire Line
	12150 -900 12150 -950
Wire Wire Line
	12000 -900 12000 -700
Connection ~ 12000 -900
Wire Wire Line
	12600 -950 12600 -900
Wire Wire Line
	12600 -900 12950 -900
Wire Wire Line
	12950 -900 12950 -950
Wire Wire Line
	12800 -900 12800 -700
Connection ~ 12800 -900
Wire Wire Line
	5300 -1450 5350 -1450
Wire Wire Line
	5350 -1450 5350 -500
Wire Wire Line
	5350 -1350 5300 -1350
Wire Wire Line
	5350 -1250 5300 -1250
Connection ~ 5350 -1350
Wire Wire Line
	5350 -1150 5300 -1150
Connection ~ 5350 -1250
Wire Wire Line
	5350 -1050 5300 -1050
Connection ~ 5350 -1150
Wire Wire Line
	5350 -950 5300 -950
Connection ~ 5350 -1050
Wire Wire Line
	5350 -850 5300 -850
Connection ~ 5350 -950
Wire Wire Line
	5350 -750 5300 -750
Connection ~ 5350 -850
Connection ~ 5350 -750
Wire Wire Line
	8100 1200 8150 1200
Wire Wire Line
	8150 1200 8150 2350
Wire Wire Line
	8150 2350 8100 2350
Wire Wire Line
	1350 2350 1300 2350
Wire Wire Line
	1300 2350 1300 3500
Wire Wire Line
	1300 3500 1350 3500
Wire Wire Line
	8100 3500 8150 3500
Wire Wire Line
	8150 3500 8150 4650
Wire Wire Line
	8150 4650 8100 4650
Wire Wire Line
	7200 -2850 7200 -1500
Wire Wire Line
	7300 -2850 7300 -1800
Wire Wire Line
	7300 -1800 8000 -1800
Wire Wire Line
	8000 -1800 8000 -1500
Wire Wire Line
	7400 -2850 7400 -1950
Wire Wire Line
	7400 -1950 12250 -1950
Wire Wire Line
	8800 -2850 8800 -1500
Wire Wire Line
	7500 -2850 7500 -2100
Wire Wire Line
	7500 -2100 9600 -2100
Wire Wire Line
	9600 -2100 9600 -1500
Wire Wire Line
	7600 -2850 7600 -2250
Wire Wire Line
	7600 -2250 10450 -2250
Wire Wire Line
	10450 -2250 10450 -1500
Wire Wire Line
	7700 -2850 7700 -2400
Wire Wire Line
	7700 -2400 11250 -2400
Wire Wire Line
	11250 -2400 11250 -1500
Wire Wire Line
	12050 -1500 12050 -2550
Wire Wire Line
	12050 -2550 7800 -2550
Wire Wire Line
	7800 -2550 7800 -2850
Wire Wire Line
	7900 -2850 7900 -2650
Wire Wire Line
	7900 -2650 12850 -2650
Wire Wire Line
	12850 -2650 12850 -1500
Wire Wire Line
	8200 -2850 8200 -1700
Wire Wire Line
	8200 -1700 7400 -1700
Wire Wire Line
	7400 -1700 7400 -1500
Wire Wire Line
	8300 -2850 8300 -1600
Wire Wire Line
	8300 -1600 8200 -1600
Wire Wire Line
	8200 -1600 8200 -1500
Wire Wire Line
	8400 -2850 8400 -1600
Wire Wire Line
	8400 -1600 9000 -1600
Wire Wire Line
	9000 -1600 9000 -1500
Wire Wire Line
	8500 -2850 8500 -1700
Wire Wire Line
	8500 -1700 9800 -1700
Wire Wire Line
	9800 -1700 9800 -1500
Wire Wire Line
	8600 -2850 8600 -1800
Wire Wire Line
	8600 -1800 10650 -1800
Wire Wire Line
	10650 -1800 10650 -1500
Wire Wire Line
	8700 -2850 8700 -1900
Wire Wire Line
	8700 -1900 11450 -1900
Wire Wire Line
	11450 -1900 11450 -1500
Wire Wire Line
	12250 -1950 12250 -1500
Wire Wire Line
	8900 -2850 8900 -2000
Wire Wire Line
	8900 -2000 13050 -2000
Wire Wire Line
	13050 -2000 13050 -1500
$Comp
L Conn_01x08 J6
U 1 1 5B4A1325
P 6500 -3050
F 0 "J6" H 6500 -2650 50  0000 C CNN
F 1 "Conn_01x08" H 6500 -3550 50  0000 C CNN
F 2 "Pin_Headers:Pin_Header_Straight_1x08_Pitch2.54mm" H 6500 -3050 50  0001 C CNN
F 3 "" H 6500 -3050 50  0001 C CNN
	1    6500 -3050
	0    -1   -1   0   
$EndComp
Wire Wire Line
	7050 -1500 7050 -2000
Wire Wire Line
	7050 -2000 6200 -2000
Wire Wire Line
	6200 -2000 6200 -2850
Wire Wire Line
	6300 -2850 6300 -2050
Wire Wire Line
	6300 -2050 7850 -2050
Wire Wire Line
	7850 -2050 7850 -1500
Wire Wire Line
	8650 -1500 8650 -1750
Wire Wire Line
	8650 -1750 8100 -1750
Wire Wire Line
	8100 -1750 8100 -2150
Wire Wire Line
	8100 -2150 6400 -2150
Wire Wire Line
	6400 -2150 6400 -2850
Wire Wire Line
	9450 -1500 9450 -2200
Wire Wire Line
	9450 -2200 6500 -2200
Wire Wire Line
	6500 -2200 6500 -2850
Wire Wire Line
	6600 -2850 6600 -2300
Wire Wire Line
	6600 -2300 10300 -2300
Wire Wire Line
	10300 -2300 10300 -1500
Wire Wire Line
	11100 -1500 11100 -2350
Wire Wire Line
	11100 -2350 6700 -2350
Wire Wire Line
	6700 -2350 6700 -2850
Wire Wire Line
	6800 -2850 6800 -2450
Wire Wire Line
	6800 -2450 11900 -2450
Wire Wire Line
	11900 -2450 11900 -1500
Wire Wire Line
	12700 -1500 12700 -2500
Wire Wire Line
	12700 -2500 6900 -2500
Wire Wire Line
	6900 -2500 6900 -2850
$Comp
L Conn_01x04 J9
U 1 1 5B4A4162
P 12400 1400
F 0 "J9" H 12400 1600 50  0000 C CNN
F 1 "Conn_01x04" H 12400 1100 50  0000 C CNN
F 2 "chordboard-footprints:oled_128x32" H 12400 1400 50  0001 C CNN
F 3 "" H 12400 1400 50  0001 C CNN
	1    12400 1400
	1    0    0    -1  
$EndComp
$Comp
L Conn_01x04 J10
U 1 1 5B4A4436
P 12400 2350
F 0 "J10" H 12400 2550 50  0000 C CNN
F 1 "Conn_01x04" H 12400 2050 50  0000 C CNN
F 2 "chordboard-footprints:oled_128x32" H 12400 2350 50  0001 C CNN
F 3 "" H 12400 2350 50  0001 C CNN
	1    12400 2350
	1    0    0    -1  
$EndComp
$EndSCHEMATC
