EESchema Schematic File Version 2
LIBS:chordboard-rescue
LIBS:maxim
LIBS:chordboard-components
LIBS:afshar
LIBS:power
LIBS:device
LIBS:transistors
LIBS:conn
LIBS:linear
LIBS:regul
LIBS:74xx
LIBS:cmos4000
LIBS:adc-dac
LIBS:memory
LIBS:xilinx
LIBS:microcontrollers
LIBS:dsp
LIBS:microchip
LIBS:analog_switches
LIBS:motorola
LIBS:texas
LIBS:intel
LIBS:audio
LIBS:interface
LIBS:digital-audio
LIBS:philips
LIBS:display
LIBS:cypress
LIBS:siliconi
LIBS:opto
LIBS:atmel
LIBS:contrib
LIBS:valves
LIBS:switches
LIBS:standard
LIBS:mechanical
LIBS:led
LIBS:akn_maxim
LIBS:SparkFun-Electromechanical
LIBS:chordboard-cache
EELAYER 25 0
EELAYER END
$Descr A4 11693 8268
encoding utf-8
Sheet 2 2
Title ""
Date ""
Rev ""
Comp ""
Comment1 ""
Comment2 ""
Comment3 ""
Comment4 ""
$EndDescr
$Comp
L LED LEDR?
U 1 1 5A99371E
P 2250 2050
F 0 "LEDR?" H 2500 2000 60  0000 R CNN
F 1 "LED" H 2300 2100 60  0000 L CNN
F 2 "LEDs:LED_D1.8mm_W3.3mm_H2.4mm" H 2250 2050 60  0001 C CNN
F 3 "" H 2250 2050 60  0001 C CNN
	1    2250 2050
	1    0    0    -1  
$EndComp
Text Label 2000 2150 2    60   ~ 0
X0
Text Label 2000 3550 2    60   ~ 0
X7
Text Label 2000 3350 2    60   ~ 0
X6
Text Label 2000 3150 2    60   ~ 0
X5
Text Label 2000 2950 2    60   ~ 0
X4
Text Label 2000 2750 2    60   ~ 0
X3
Text Label 2000 2550 2    60   ~ 0
X2
Text Label 2000 2350 2    60   ~ 0
X1
$Comp
L LED LEDR?
U 1 1 5A99372D
P 2750 2050
F 0 "LEDR?" H 3000 2000 60  0000 R CNN
F 1 "LED" H 2800 2100 60  0000 L CNN
F 2 "LEDs:LED_D1.8mm_W3.3mm_H2.4mm" H 2750 2050 60  0001 C CNN
F 3 "" H 2750 2050 60  0001 C CNN
	1    2750 2050
	1    0    0    -1  
$EndComp
$Comp
L LED LEDR?
U 1 1 5A993734
P 3250 2050
F 0 "LEDR?" H 3500 2000 60  0000 R CNN
F 1 "LED" H 3300 2100 60  0000 L CNN
F 2 "LEDs:LED_D1.8mm_W3.3mm_H2.4mm" H 3250 2050 60  0001 C CNN
F 3 "" H 3250 2050 60  0001 C CNN
	1    3250 2050
	1    0    0    -1  
$EndComp
$Comp
L LED LEDR?
U 1 1 5A99373B
P 3750 2050
F 0 "LEDR?" H 4000 2000 60  0000 R CNN
F 1 "LED" H 3800 2100 60  0000 L CNN
F 2 "LEDs:LED_D1.8mm_W3.3mm_H2.4mm" H 3750 2050 60  0001 C CNN
F 3 "" H 3750 2050 60  0001 C CNN
	1    3750 2050
	1    0    0    -1  
$EndComp
$Comp
L LED LEDR?
U 1 1 5A993742
P 4250 2050
F 0 "LEDR?" H 4500 2000 60  0000 R CNN
F 1 "LED" H 4300 2100 60  0000 L CNN
F 2 "LEDs:LED_D1.8mm_W3.3mm_H2.4mm" H 4250 2050 60  0001 C CNN
F 3 "" H 4250 2050 60  0001 C CNN
	1    4250 2050
	1    0    0    -1  
$EndComp
$Comp
L LED LEDR?
U 1 1 5A993749
P 4750 2050
F 0 "LEDR?" H 5000 2000 60  0000 R CNN
F 1 "LED" H 4800 2100 60  0000 L CNN
F 2 "LEDs:LED_D1.8mm_W3.3mm_H2.4mm" H 4750 2050 60  0001 C CNN
F 3 "" H 4750 2050 60  0001 C CNN
	1    4750 2050
	1    0    0    -1  
$EndComp
$Comp
L LED LEDR?
U 1 1 5A993750
P 5250 2050
F 0 "LEDR?" H 5500 2000 60  0000 R CNN
F 1 "LED" H 5300 2100 60  0000 L CNN
F 2 "LEDs:LED_D1.8mm_W3.3mm_H2.4mm" H 5250 2050 60  0001 C CNN
F 3 "" H 5250 2050 60  0001 C CNN
	1    5250 2050
	1    0    0    -1  
$EndComp
$Comp
L LED LEDR?
U 1 1 5A993757
P 5750 2050
F 0 "LEDR?" H 6000 2000 60  0000 R CNN
F 1 "LED" H 5800 2100 60  0000 L CNN
F 2 "LEDs:LED_D1.8mm_W3.3mm_H2.4mm" H 5750 2050 60  0001 C CNN
F 3 "" H 5750 2050 60  0001 C CNN
	1    5750 2050
	1    0    0    -1  
$EndComp
$Comp
L LED LEDR?
U 1 1 5A99375E
P 2250 2250
F 0 "LEDR?" H 2500 2200 60  0000 R CNN
F 1 "LED" H 2300 2300 60  0000 L CNN
F 2 "LEDs:LED_D1.8mm_W3.3mm_H2.4mm" H 2250 2250 60  0001 C CNN
F 3 "" H 2250 2250 60  0001 C CNN
	1    2250 2250
	1    0    0    -1  
$EndComp
$Comp
L LED LEDR?
U 1 1 5A993765
P 2750 2250
F 0 "LEDR?" H 3000 2200 60  0000 R CNN
F 1 "LED" H 2800 2300 60  0000 L CNN
F 2 "LEDs:LED_D1.8mm_W3.3mm_H2.4mm" H 2750 2250 60  0001 C CNN
F 3 "" H 2750 2250 60  0001 C CNN
	1    2750 2250
	1    0    0    -1  
$EndComp
$Comp
L LED LEDR?
U 1 1 5A99376C
P 3250 2250
F 0 "LEDR?" H 3500 2200 60  0000 R CNN
F 1 "LED" H 3300 2300 60  0000 L CNN
F 2 "LEDs:LED_D1.8mm_W3.3mm_H2.4mm" H 3250 2250 60  0001 C CNN
F 3 "" H 3250 2250 60  0001 C CNN
	1    3250 2250
	1    0    0    -1  
$EndComp
$Comp
L LED LEDR?
U 1 1 5A993773
P 3750 2250
F 0 "LEDR?" H 4000 2200 60  0000 R CNN
F 1 "LED" H 3800 2300 60  0000 L CNN
F 2 "LEDs:LED_D1.8mm_W3.3mm_H2.4mm" H 3750 2250 60  0001 C CNN
F 3 "" H 3750 2250 60  0001 C CNN
	1    3750 2250
	1    0    0    -1  
$EndComp
$Comp
L LED LEDR?
U 1 1 5A99377A
P 4250 2250
F 0 "LEDR?" H 4500 2200 60  0000 R CNN
F 1 "LED" H 4300 2300 60  0000 L CNN
F 2 "LEDs:LED_D1.8mm_W3.3mm_H2.4mm" H 4250 2250 60  0001 C CNN
F 3 "" H 4250 2250 60  0001 C CNN
	1    4250 2250
	1    0    0    -1  
$EndComp
$Comp
L LED LEDR?
U 1 1 5A993781
P 4750 2250
F 0 "LEDR?" H 5000 2200 60  0000 R CNN
F 1 "LED" H 4800 2300 60  0000 L CNN
F 2 "LEDs:LED_D1.8mm_W3.3mm_H2.4mm" H 4750 2250 60  0001 C CNN
F 3 "" H 4750 2250 60  0001 C CNN
	1    4750 2250
	1    0    0    -1  
$EndComp
$Comp
L LED LEDR?
U 1 1 5A993788
P 5250 2250
F 0 "LEDR?" H 5500 2200 60  0000 R CNN
F 1 "LED" H 5300 2300 60  0000 L CNN
F 2 "LEDs:LED_D1.8mm_W3.3mm_H2.4mm" H 5250 2250 60  0001 C CNN
F 3 "" H 5250 2250 60  0001 C CNN
	1    5250 2250
	1    0    0    -1  
$EndComp
$Comp
L LED LEDR?
U 1 1 5A99378F
P 5750 2250
F 0 "LEDR?" H 6000 2200 60  0000 R CNN
F 1 "LED" H 5800 2300 60  0000 L CNN
F 2 "LEDs:LED_D1.8mm_W3.3mm_H2.4mm" H 5750 2250 60  0001 C CNN
F 3 "" H 5750 2250 60  0001 C CNN
	1    5750 2250
	1    0    0    -1  
$EndComp
$Comp
L LED LEDR?
U 1 1 5A993796
P 2250 2450
F 0 "LEDR?" H 2500 2400 60  0000 R CNN
F 1 "LED" H 2300 2500 60  0000 L CNN
F 2 "LEDs:LED_D1.8mm_W3.3mm_H2.4mm" H 2250 2450 60  0001 C CNN
F 3 "" H 2250 2450 60  0001 C CNN
	1    2250 2450
	1    0    0    -1  
$EndComp
$Comp
L LED LEDR?
U 1 1 5A99379D
P 2750 2450
F 0 "LEDR?" H 3000 2400 60  0000 R CNN
F 1 "LED" H 2800 2500 60  0000 L CNN
F 2 "LEDs:LED_D1.8mm_W3.3mm_H2.4mm" H 2750 2450 60  0001 C CNN
F 3 "" H 2750 2450 60  0001 C CNN
	1    2750 2450
	1    0    0    -1  
$EndComp
$Comp
L LED LEDR?
U 1 1 5A9937A4
P 3250 2450
F 0 "LEDR?" H 3500 2400 60  0000 R CNN
F 1 "LED" H 3300 2500 60  0000 L CNN
F 2 "LEDs:LED_D1.8mm_W3.3mm_H2.4mm" H 3250 2450 60  0001 C CNN
F 3 "" H 3250 2450 60  0001 C CNN
	1    3250 2450
	1    0    0    -1  
$EndComp
$Comp
L LED LEDR?
U 1 1 5A9937AB
P 3750 2450
F 0 "LEDR?" H 4000 2400 60  0000 R CNN
F 1 "LED" H 3800 2500 60  0000 L CNN
F 2 "LEDs:LED_D1.8mm_W3.3mm_H2.4mm" H 3750 2450 60  0001 C CNN
F 3 "" H 3750 2450 60  0001 C CNN
	1    3750 2450
	1    0    0    -1  
$EndComp
$Comp
L LED LEDR?
U 1 1 5A9937B2
P 4250 2450
F 0 "LEDR?" H 4500 2400 60  0000 R CNN
F 1 "LED" H 4300 2500 60  0000 L CNN
F 2 "LEDs:LED_D1.8mm_W3.3mm_H2.4mm" H 4250 2450 60  0001 C CNN
F 3 "" H 4250 2450 60  0001 C CNN
	1    4250 2450
	1    0    0    -1  
$EndComp
$Comp
L LED LEDR?
U 1 1 5A9937B9
P 4750 2450
F 0 "LEDR?" H 5000 2400 60  0000 R CNN
F 1 "LED" H 4800 2500 60  0000 L CNN
F 2 "LEDs:LED_D1.8mm_W3.3mm_H2.4mm" H 4750 2450 60  0001 C CNN
F 3 "" H 4750 2450 60  0001 C CNN
	1    4750 2450
	1    0    0    -1  
$EndComp
$Comp
L LED LEDR?
U 1 1 5A9937C0
P 5250 2450
F 0 "LEDR?" H 5500 2400 60  0000 R CNN
F 1 "LED" H 5300 2500 60  0000 L CNN
F 2 "LEDs:LED_D1.8mm_W3.3mm_H2.4mm" H 5250 2450 60  0001 C CNN
F 3 "" H 5250 2450 60  0001 C CNN
	1    5250 2450
	1    0    0    -1  
$EndComp
$Comp
L LED LEDR?
U 1 1 5A9937C7
P 5750 2450
F 0 "LEDR?" H 6000 2400 60  0000 R CNN
F 1 "LED" H 5800 2500 60  0000 L CNN
F 2 "LEDs:LED_D1.8mm_W3.3mm_H2.4mm" H 5750 2450 60  0001 C CNN
F 3 "" H 5750 2450 60  0001 C CNN
	1    5750 2450
	1    0    0    -1  
$EndComp
$Comp
L LED LEDR?
U 1 1 5A9937CE
P 2250 2650
F 0 "LEDR?" H 2500 2600 60  0000 R CNN
F 1 "LED" H 2300 2700 60  0000 L CNN
F 2 "LEDs:LED_D1.8mm_W3.3mm_H2.4mm" H 2250 2650 60  0001 C CNN
F 3 "" H 2250 2650 60  0001 C CNN
	1    2250 2650
	1    0    0    -1  
$EndComp
$Comp
L LED LEDR?
U 1 1 5A9937D5
P 2750 2650
F 0 "LEDR?" H 3000 2600 60  0000 R CNN
F 1 "LED" H 2800 2700 60  0000 L CNN
F 2 "LEDs:LED_D1.8mm_W3.3mm_H2.4mm" H 2750 2650 60  0001 C CNN
F 3 "" H 2750 2650 60  0001 C CNN
	1    2750 2650
	1    0    0    -1  
$EndComp
$Comp
L LED LEDR?
U 1 1 5A9937DC
P 3250 2650
F 0 "LEDR?" H 3500 2600 60  0000 R CNN
F 1 "LED" H 3300 2700 60  0000 L CNN
F 2 "LEDs:LED_D1.8mm_W3.3mm_H2.4mm" H 3250 2650 60  0001 C CNN
F 3 "" H 3250 2650 60  0001 C CNN
	1    3250 2650
	1    0    0    -1  
$EndComp
$Comp
L LED LEDR?
U 1 1 5A9937E3
P 3750 2650
F 0 "LEDR?" H 4000 2600 60  0000 R CNN
F 1 "LED" H 3800 2700 60  0000 L CNN
F 2 "LEDs:LED_D1.8mm_W3.3mm_H2.4mm" H 3750 2650 60  0001 C CNN
F 3 "" H 3750 2650 60  0001 C CNN
	1    3750 2650
	1    0    0    -1  
$EndComp
$Comp
L LED LEDR?
U 1 1 5A9937EA
P 4250 2650
F 0 "LEDR?" H 4500 2600 60  0000 R CNN
F 1 "LED" H 4300 2700 60  0000 L CNN
F 2 "LEDs:LED_D1.8mm_W3.3mm_H2.4mm" H 4250 2650 60  0001 C CNN
F 3 "" H 4250 2650 60  0001 C CNN
	1    4250 2650
	1    0    0    -1  
$EndComp
$Comp
L LED LEDR?
U 1 1 5A9937F1
P 4750 2650
F 0 "LEDR?" H 5000 2600 60  0000 R CNN
F 1 "LED" H 4800 2700 60  0000 L CNN
F 2 "LEDs:LED_D1.8mm_W3.3mm_H2.4mm" H 4750 2650 60  0001 C CNN
F 3 "" H 4750 2650 60  0001 C CNN
	1    4750 2650
	1    0    0    -1  
$EndComp
$Comp
L LED LEDR?
U 1 1 5A9937F8
P 5250 2650
F 0 "LEDR?" H 5500 2600 60  0000 R CNN
F 1 "LED" H 5300 2700 60  0000 L CNN
F 2 "LEDs:LED_D1.8mm_W3.3mm_H2.4mm" H 5250 2650 60  0001 C CNN
F 3 "" H 5250 2650 60  0001 C CNN
	1    5250 2650
	1    0    0    -1  
$EndComp
$Comp
L LED LEDR?
U 1 1 5A9937FF
P 5750 2650
F 0 "LEDR?" H 6000 2600 60  0000 R CNN
F 1 "LED" H 5800 2700 60  0000 L CNN
F 2 "LEDs:LED_D1.8mm_W3.3mm_H2.4mm" H 5750 2650 60  0001 C CNN
F 3 "" H 5750 2650 60  0001 C CNN
	1    5750 2650
	1    0    0    -1  
$EndComp
$Comp
L LED LEDG?
U 1 1 5A993806
P 2250 2850
F 0 "LEDG?" H 2500 2800 60  0000 R CNN
F 1 "LED" H 2300 2900 60  0000 L CNN
F 2 "LEDs:LED_D1.8mm_W3.3mm_H2.4mm" H 2250 2850 60  0001 C CNN
F 3 "" H 2250 2850 60  0001 C CNN
	1    2250 2850
	1    0    0    -1  
$EndComp
$Comp
L LED LEDG?
U 1 1 5A99380D
P 2750 2850
F 0 "LEDG?" H 3000 2800 60  0000 R CNN
F 1 "LED" H 2800 2900 60  0000 L CNN
F 2 "LEDs:LED_D1.8mm_W3.3mm_H2.4mm" H 2750 2850 60  0001 C CNN
F 3 "" H 2750 2850 60  0001 C CNN
	1    2750 2850
	1    0    0    -1  
$EndComp
$Comp
L LED LEDG?
U 1 1 5A993814
P 3250 2850
F 0 "LEDG?" H 3500 2800 60  0000 R CNN
F 1 "LED" H 3300 2900 60  0000 L CNN
F 2 "LEDs:LED_D1.8mm_W3.3mm_H2.4mm" H 3250 2850 60  0001 C CNN
F 3 "" H 3250 2850 60  0001 C CNN
	1    3250 2850
	1    0    0    -1  
$EndComp
$Comp
L LED LEDG?
U 1 1 5A99381B
P 3750 2850
F 0 "LEDG?" H 4000 2800 60  0000 R CNN
F 1 "LED" H 3800 2900 60  0000 L CNN
F 2 "LEDs:LED_D1.8mm_W3.3mm_H2.4mm" H 3750 2850 60  0001 C CNN
F 3 "" H 3750 2850 60  0001 C CNN
	1    3750 2850
	1    0    0    -1  
$EndComp
$Comp
L LED LEDG?
U 1 1 5A993822
P 4250 2850
F 0 "LEDG?" H 4500 2800 60  0000 R CNN
F 1 "LED" H 4300 2900 60  0000 L CNN
F 2 "LEDs:LED_D1.8mm_W3.3mm_H2.4mm" H 4250 2850 60  0001 C CNN
F 3 "" H 4250 2850 60  0001 C CNN
	1    4250 2850
	1    0    0    -1  
$EndComp
$Comp
L LED LEDG?
U 1 1 5A993829
P 4750 2850
F 0 "LEDG?" H 5000 2800 60  0000 R CNN
F 1 "LED" H 4800 2900 60  0000 L CNN
F 2 "LEDs:LED_D1.8mm_W3.3mm_H2.4mm" H 4750 2850 60  0001 C CNN
F 3 "" H 4750 2850 60  0001 C CNN
	1    4750 2850
	1    0    0    -1  
$EndComp
$Comp
L LED LEDG?
U 1 1 5A993830
P 5250 2850
F 0 "LEDG?" H 5500 2800 60  0000 R CNN
F 1 "LED" H 5300 2900 60  0000 L CNN
F 2 "LEDs:LED_D1.8mm_W3.3mm_H2.4mm" H 5250 2850 60  0001 C CNN
F 3 "" H 5250 2850 60  0001 C CNN
	1    5250 2850
	1    0    0    -1  
$EndComp
$Comp
L LED LEDG?
U 1 1 5A993837
P 5750 2850
F 0 "LEDG?" H 6000 2800 60  0000 R CNN
F 1 "LED" H 5800 2900 60  0000 L CNN
F 2 "LEDs:LED_D1.8mm_W3.3mm_H2.4mm" H 5750 2850 60  0001 C CNN
F 3 "" H 5750 2850 60  0001 C CNN
	1    5750 2850
	1    0    0    -1  
$EndComp
$Comp
L LED LEDG?
U 1 1 5A99383E
P 2250 3050
F 0 "LEDG?" H 2500 3000 60  0000 R CNN
F 1 "LED" H 2300 3100 60  0000 L CNN
F 2 "LEDs:LED_D1.8mm_W3.3mm_H2.4mm" H 2250 3050 60  0001 C CNN
F 3 "" H 2250 3050 60  0001 C CNN
	1    2250 3050
	1    0    0    -1  
$EndComp
$Comp
L LED LEDG?
U 1 1 5A993845
P 2750 3050
F 0 "LEDG?" H 3000 3000 60  0000 R CNN
F 1 "LED" H 2800 3100 60  0000 L CNN
F 2 "LEDs:LED_D1.8mm_W3.3mm_H2.4mm" H 2750 3050 60  0001 C CNN
F 3 "" H 2750 3050 60  0001 C CNN
	1    2750 3050
	1    0    0    -1  
$EndComp
$Comp
L LED LEDG?
U 1 1 5A99384C
P 3250 3050
F 0 "LEDG?" H 3500 3000 60  0000 R CNN
F 1 "LED" H 3300 3100 60  0000 L CNN
F 2 "LEDs:LED_D1.8mm_W3.3mm_H2.4mm" H 3250 3050 60  0001 C CNN
F 3 "" H 3250 3050 60  0001 C CNN
	1    3250 3050
	1    0    0    -1  
$EndComp
$Comp
L LED LEDG?
U 1 1 5A993853
P 3750 3050
F 0 "LEDG?" H 4000 3000 60  0000 R CNN
F 1 "LED" H 3800 3100 60  0000 L CNN
F 2 "LEDs:LED_D1.8mm_W3.3mm_H2.4mm" H 3750 3050 60  0001 C CNN
F 3 "" H 3750 3050 60  0001 C CNN
	1    3750 3050
	1    0    0    -1  
$EndComp
$Comp
L LED LEDG?
U 1 1 5A99385A
P 4250 3050
F 0 "LEDG?" H 4500 3000 60  0000 R CNN
F 1 "LED" H 4300 3100 60  0000 L CNN
F 2 "LEDs:LED_D1.8mm_W3.3mm_H2.4mm" H 4250 3050 60  0001 C CNN
F 3 "" H 4250 3050 60  0001 C CNN
	1    4250 3050
	1    0    0    -1  
$EndComp
$Comp
L LED LEDG?
U 1 1 5A993861
P 4750 3050
F 0 "LEDG?" H 5000 3000 60  0000 R CNN
F 1 "LED" H 4800 3100 60  0000 L CNN
F 2 "LEDs:LED_D1.8mm_W3.3mm_H2.4mm" H 4750 3050 60  0001 C CNN
F 3 "" H 4750 3050 60  0001 C CNN
	1    4750 3050
	1    0    0    -1  
$EndComp
$Comp
L LED LEDG?
U 1 1 5A993868
P 5250 3050
F 0 "LEDG?" H 5500 3000 60  0000 R CNN
F 1 "LED" H 5300 3100 60  0000 L CNN
F 2 "LEDs:LED_D1.8mm_W3.3mm_H2.4mm" H 5250 3050 60  0001 C CNN
F 3 "" H 5250 3050 60  0001 C CNN
	1    5250 3050
	1    0    0    -1  
$EndComp
$Comp
L LED LEDG?
U 1 1 5A99386F
P 5750 3050
F 0 "LEDG?" H 6000 3000 60  0000 R CNN
F 1 "LED" H 5800 3100 60  0000 L CNN
F 2 "LEDs:LED_D1.8mm_W3.3mm_H2.4mm" H 5750 3050 60  0001 C CNN
F 3 "" H 5750 3050 60  0001 C CNN
	1    5750 3050
	1    0    0    -1  
$EndComp
$Comp
L LED LEDO?
U 1 1 5A993876
P 2250 3250
F 0 "LEDO?" H 2500 3200 60  0000 R CNN
F 1 "LED" H 2300 3300 60  0000 L CNN
F 2 "LEDs:LED_D1.8mm_W3.3mm_H2.4mm" H 2250 3250 60  0001 C CNN
F 3 "" H 2250 3250 60  0001 C CNN
	1    2250 3250
	1    0    0    -1  
$EndComp
$Comp
L LED LEDO?
U 1 1 5A99387D
P 2750 3250
F 0 "LEDO?" H 3000 3200 60  0000 R CNN
F 1 "LED" H 2800 3300 60  0000 L CNN
F 2 "LEDs:LED_D1.8mm_W3.3mm_H2.4mm" H 2750 3250 60  0001 C CNN
F 3 "" H 2750 3250 60  0001 C CNN
	1    2750 3250
	1    0    0    -1  
$EndComp
$Comp
L LED LEDO?
U 1 1 5A993884
P 3250 3250
F 0 "LEDO?" H 3500 3200 60  0000 R CNN
F 1 "LED" H 3300 3300 60  0000 L CNN
F 2 "LEDs:LED_D1.8mm_W3.3mm_H2.4mm" H 3250 3250 60  0001 C CNN
F 3 "" H 3250 3250 60  0001 C CNN
	1    3250 3250
	1    0    0    -1  
$EndComp
$Comp
L LED LEDO?
U 1 1 5A99388B
P 3750 3250
F 0 "LEDO?" H 4000 3200 60  0000 R CNN
F 1 "LED" H 3800 3300 60  0000 L CNN
F 2 "LEDs:LED_D1.8mm_W3.3mm_H2.4mm" H 3750 3250 60  0001 C CNN
F 3 "" H 3750 3250 60  0001 C CNN
	1    3750 3250
	1    0    0    -1  
$EndComp
$Comp
L LED LEDO?
U 1 1 5A993892
P 4250 3250
F 0 "LEDO?" H 4500 3200 60  0000 R CNN
F 1 "LED" H 4300 3300 60  0000 L CNN
F 2 "LEDs:LED_D1.8mm_W3.3mm_H2.4mm" H 4250 3250 60  0001 C CNN
F 3 "" H 4250 3250 60  0001 C CNN
	1    4250 3250
	1    0    0    -1  
$EndComp
$Comp
L LED LEDO?
U 1 1 5A993899
P 4750 3250
F 0 "LEDO?" H 5000 3200 60  0000 R CNN
F 1 "LED" H 4800 3300 60  0000 L CNN
F 2 "LEDs:LED_D1.8mm_W3.3mm_H2.4mm" H 4750 3250 60  0001 C CNN
F 3 "" H 4750 3250 60  0001 C CNN
	1    4750 3250
	1    0    0    -1  
$EndComp
$Comp
L LED LEDO?
U 1 1 5A9938A0
P 5250 3250
F 0 "LEDO?" H 5500 3200 60  0000 R CNN
F 1 "LED" H 5300 3300 60  0000 L CNN
F 2 "LEDs:LED_D1.8mm_W3.3mm_H2.4mm" H 5250 3250 60  0001 C CNN
F 3 "" H 5250 3250 60  0001 C CNN
	1    5250 3250
	1    0    0    -1  
$EndComp
$Comp
L LED LEDO?
U 1 1 5A9938A7
P 5750 3250
F 0 "LEDO?" H 6000 3200 60  0000 R CNN
F 1 "LED" H 5800 3300 60  0000 L CNN
F 2 "LEDs:LED_D1.8mm_W3.3mm_H2.4mm" H 5750 3250 60  0001 C CNN
F 3 "" H 5750 3250 60  0001 C CNN
	1    5750 3250
	1    0    0    -1  
$EndComp
$Comp
L LED LEDO?
U 1 1 5A9938AE
P 2250 3450
F 0 "LEDO?" H 2500 3400 60  0000 R CNN
F 1 "LED" H 2300 3500 60  0000 L CNN
F 2 "LEDs:LED_D1.8mm_W3.3mm_H2.4mm" H 2250 3450 60  0001 C CNN
F 3 "" H 2250 3450 60  0001 C CNN
	1    2250 3450
	1    0    0    -1  
$EndComp
$Comp
L LED LEDO?
U 1 1 5A9938B5
P 2750 3450
F 0 "LEDO?" H 3000 3400 60  0000 R CNN
F 1 "LED" H 2800 3500 60  0000 L CNN
F 2 "LEDs:LED_D1.8mm_W3.3mm_H2.4mm" H 2750 3450 60  0001 C CNN
F 3 "" H 2750 3450 60  0001 C CNN
	1    2750 3450
	1    0    0    -1  
$EndComp
$Comp
L LED LEDO?
U 1 1 5A9938BC
P 3250 3450
F 0 "LEDO?" H 3500 3400 60  0000 R CNN
F 1 "LED" H 3300 3500 60  0000 L CNN
F 2 "LEDs:LED_D1.8mm_W3.3mm_H2.4mm" H 3250 3450 60  0001 C CNN
F 3 "" H 3250 3450 60  0001 C CNN
	1    3250 3450
	1    0    0    -1  
$EndComp
$Comp
L LED LEDO?
U 1 1 5A9938C3
P 3750 3450
F 0 "LEDO?" H 4000 3400 60  0000 R CNN
F 1 "LED" H 3800 3500 60  0000 L CNN
F 2 "LEDs:LED_D1.8mm_W3.3mm_H2.4mm" H 3750 3450 60  0001 C CNN
F 3 "" H 3750 3450 60  0001 C CNN
	1    3750 3450
	1    0    0    -1  
$EndComp
$Comp
L LED LEDY?
U 1 1 5A9938CA
P 4250 3450
F 0 "LEDY?" H 4500 3400 60  0000 R CNN
F 1 "LED" H 4300 3500 60  0000 L CNN
F 2 "LEDs:LED_D1.8mm_W3.3mm_H2.4mm" H 4250 3450 60  0001 C CNN
F 3 "" H 4250 3450 60  0001 C CNN
	1    4250 3450
	1    0    0    -1  
$EndComp
$Comp
L LED LEDY?
U 1 1 5A9938D1
P 4750 3450
F 0 "LEDY?" H 5000 3400 60  0000 R CNN
F 1 "LED" H 4800 3500 60  0000 L CNN
F 2 "LEDs:LED_D1.8mm_W3.3mm_H2.4mm" H 4750 3450 60  0001 C CNN
F 3 "" H 4750 3450 60  0001 C CNN
	1    4750 3450
	1    0    0    -1  
$EndComp
$Comp
L LED LEDY?
U 1 1 5A9938D8
P 5250 3450
F 0 "LEDY?" H 5500 3400 60  0000 R CNN
F 1 "LED" H 5300 3500 60  0000 L CNN
F 2 "LEDs:LED_D1.8mm_W3.3mm_H2.4mm" H 5250 3450 60  0001 C CNN
F 3 "" H 5250 3450 60  0001 C CNN
	1    5250 3450
	1    0    0    -1  
$EndComp
$Comp
L LED LEDY?
U 1 1 5A9938DF
P 5750 3450
F 0 "LEDY?" H 6000 3400 60  0000 R CNN
F 1 "LED" H 5800 3500 60  0000 L CNN
F 2 "LEDs:LED_D1.8mm_W3.3mm_H2.4mm" H 5750 3450 60  0001 C CNN
F 3 "" H 5750 3450 60  0001 C CNN
	1    5750 3450
	1    0    0    -1  
$EndComp
Text Label 2500 1850 1    60   ~ 0
Y0
Text Label 3000 1850 1    60   ~ 0
Y1
Text Label 3500 1850 1    60   ~ 0
Y2
Text Label 4000 1850 1    60   ~ 0
Y3
Text Label 4500 1850 1    60   ~ 0
Y4
Text Label 5000 1850 1    60   ~ 0
Y5
Text Label 5500 1850 1    60   ~ 0
Y6
Text Label 6000 1850 1    60   ~ 0
Y7
Connection ~ 6000 2250
Connection ~ 5500 2250
Connection ~ 5000 2250
Connection ~ 4500 2250
Connection ~ 4000 2250
Connection ~ 3500 2250
Connection ~ 3000 2250
Connection ~ 2500 2250
Connection ~ 6000 2050
Connection ~ 5500 2050
Connection ~ 5000 2050
Connection ~ 4500 2050
Connection ~ 4000 2050
Connection ~ 3500 2050
Connection ~ 3000 2050
Connection ~ 2500 2050
Connection ~ 5100 2350
Connection ~ 4600 2350
Wire Wire Line
	6000 2250 5900 2250
Wire Wire Line
	5600 2350 5600 2250
Wire Wire Line
	5500 2250 5400 2250
Wire Wire Line
	5100 2350 5100 2250
Wire Wire Line
	5000 2250 4900 2250
Wire Wire Line
	4600 2350 4600 2250
Connection ~ 4100 2350
Connection ~ 3600 2350
Wire Wire Line
	4100 2350 4100 2250
Wire Wire Line
	4500 2250 4400 2250
Wire Wire Line
	4000 2250 3900 2250
Connection ~ 3100 2350
Wire Wire Line
	3600 2350 3600 2250
Wire Wire Line
	3500 2250 3400 2250
Connection ~ 2600 2350
Wire Wire Line
	3100 2350 3100 2250
Wire Wire Line
	3000 2250 2900 2250
Connection ~ 2100 2350
Wire Wire Line
	2600 2350 2600 2250
Wire Wire Line
	2500 2250 2400 2250
Wire Wire Line
	2100 2350 2100 2250
Wire Wire Line
	2000 2350 5600 2350
Connection ~ 5100 2150
Connection ~ 4600 2150
Wire Wire Line
	6000 1850 6000 3450
Wire Wire Line
	5900 2050 6000 2050
Wire Wire Line
	5600 2150 5600 2050
Wire Wire Line
	5500 1850 5500 3450
Wire Wire Line
	5400 2050 5500 2050
Wire Wire Line
	5100 2150 5100 2050
Wire Wire Line
	5000 1850 5000 3450
Wire Wire Line
	4900 2050 5000 2050
Wire Wire Line
	4600 2150 4600 2050
Connection ~ 4100 2150
Connection ~ 3600 2150
Wire Wire Line
	4100 2150 4100 2050
Wire Wire Line
	4500 1850 4500 3450
Wire Wire Line
	4400 2050 4500 2050
Wire Wire Line
	4000 1850 4000 3450
Wire Wire Line
	3900 2050 4000 2050
Connection ~ 3100 2150
Wire Wire Line
	3600 2150 3600 2050
Wire Wire Line
	3500 1850 3500 3450
Wire Wire Line
	3400 2050 3500 2050
Connection ~ 2600 2150
Wire Wire Line
	3100 2150 3100 2050
Wire Wire Line
	3000 1850 3000 3450
Wire Wire Line
	2900 2050 3000 2050
Connection ~ 2100 2150
Wire Wire Line
	2600 2150 2600 2050
Wire Wire Line
	2500 1850 2500 3450
Wire Wire Line
	2400 2050 2500 2050
Wire Wire Line
	2100 2150 2100 2050
Wire Wire Line
	2000 2150 5600 2150
Connection ~ 6000 2650
Connection ~ 5500 2650
Connection ~ 5000 2650
Connection ~ 4500 2650
Connection ~ 4000 2650
Connection ~ 3500 2650
Connection ~ 3000 2650
Connection ~ 2500 2650
Connection ~ 6000 2450
Connection ~ 5500 2450
Connection ~ 5000 2450
Connection ~ 4500 2450
Connection ~ 4000 2450
Connection ~ 3500 2450
Connection ~ 3000 2450
Connection ~ 2500 2450
Connection ~ 5100 2750
Connection ~ 4600 2750
Wire Wire Line
	6000 2650 5900 2650
Wire Wire Line
	5600 2750 5600 2650
Wire Wire Line
	5500 2650 5400 2650
Wire Wire Line
	5100 2750 5100 2650
Wire Wire Line
	5000 2650 4900 2650
Wire Wire Line
	4600 2750 4600 2650
Connection ~ 4100 2750
Connection ~ 3600 2750
Wire Wire Line
	4100 2750 4100 2650
Wire Wire Line
	4500 2650 4400 2650
Wire Wire Line
	4000 2650 3900 2650
Connection ~ 3100 2750
Wire Wire Line
	3600 2750 3600 2650
Wire Wire Line
	3500 2650 3400 2650
Connection ~ 2600 2750
Wire Wire Line
	3100 2750 3100 2650
Wire Wire Line
	3000 2650 2900 2650
Connection ~ 2100 2750
Wire Wire Line
	2600 2750 2600 2650
Wire Wire Line
	2500 2650 2400 2650
Wire Wire Line
	2100 2750 2100 2650
Wire Wire Line
	2000 2750 5600 2750
Connection ~ 5100 2550
Connection ~ 4600 2550
Wire Wire Line
	6000 2450 5900 2450
Wire Wire Line
	5600 2550 5600 2450
Wire Wire Line
	5500 2450 5400 2450
Wire Wire Line
	5100 2550 5100 2450
Wire Wire Line
	5000 2450 4900 2450
Wire Wire Line
	4600 2550 4600 2450
Connection ~ 4100 2550
Connection ~ 3600 2550
Wire Wire Line
	4100 2550 4100 2450
Wire Wire Line
	4500 2450 4400 2450
Wire Wire Line
	4000 2450 3900 2450
Connection ~ 3100 2550
Wire Wire Line
	3600 2550 3600 2450
Wire Wire Line
	3500 2450 3400 2450
Connection ~ 2600 2550
Wire Wire Line
	3100 2550 3100 2450
Wire Wire Line
	3000 2450 2900 2450
Connection ~ 2100 2550
Wire Wire Line
	2600 2550 2600 2450
Wire Wire Line
	2500 2450 2400 2450
Wire Wire Line
	2100 2550 2100 2450
Wire Wire Line
	2000 2550 5600 2550
Connection ~ 2500 2850
Wire Wire Line
	2500 2850 2400 2850
Wire Wire Line
	2100 2950 2100 2850
Connection ~ 3000 2850
Wire Wire Line
	3000 2850 2900 2850
Wire Wire Line
	2600 2950 2600 2850
Connection ~ 3500 2850
Wire Wire Line
	3500 2850 3400 2850
Wire Wire Line
	3100 2950 3100 2850
Connection ~ 4000 2850
Wire Wire Line
	4000 2850 3900 2850
Wire Wire Line
	3600 2950 3600 2850
Connection ~ 4500 2850
Wire Wire Line
	4500 2850 4400 2850
Wire Wire Line
	4100 2950 4100 2850
Connection ~ 5000 2850
Wire Wire Line
	5000 2850 4900 2850
Wire Wire Line
	4600 2950 4600 2850
Connection ~ 5500 2850
Wire Wire Line
	5500 2850 5400 2850
Wire Wire Line
	5100 2950 5100 2850
Connection ~ 6000 2850
Wire Wire Line
	6000 2850 5900 2850
Wire Wire Line
	5600 2950 5600 2850
Wire Wire Line
	2000 2950 5600 2950
Connection ~ 2100 2950
Connection ~ 2600 2950
Connection ~ 3100 2950
Connection ~ 3600 2950
Connection ~ 4100 2950
Connection ~ 4600 2950
Connection ~ 5100 2950
Wire Wire Line
	6000 2050 6000 3050
Wire Wire Line
	5500 2050 5500 3050
Wire Wire Line
	5000 2050 5000 3050
Wire Wire Line
	4500 2050 4500 3050
Wire Wire Line
	4000 2050 4000 3050
Wire Wire Line
	3500 2050 3500 3050
Wire Wire Line
	3000 2050 3000 3050
Wire Wire Line
	2500 2050 2500 3050
Connection ~ 2500 3050
Wire Wire Line
	2500 3050 2400 3050
Wire Wire Line
	2100 3150 2100 3050
Connection ~ 3000 3050
Wire Wire Line
	3000 3050 2900 3050
Wire Wire Line
	2600 3150 2600 3050
Connection ~ 3500 3050
Wire Wire Line
	3500 3050 3400 3050
Wire Wire Line
	3100 3150 3100 3050
Connection ~ 4000 3050
Wire Wire Line
	4000 3050 3900 3050
Wire Wire Line
	3600 3150 3600 3050
Connection ~ 4500 3050
Wire Wire Line
	4500 3050 4400 3050
Wire Wire Line
	4100 3150 4100 3050
Connection ~ 5000 3050
Wire Wire Line
	5000 3050 4900 3050
Wire Wire Line
	4600 3150 4600 3050
Connection ~ 5500 3050
Wire Wire Line
	5500 3050 5400 3050
Wire Wire Line
	5100 3150 5100 3050
Connection ~ 6000 3050
Wire Wire Line
	6000 3050 5900 3050
Wire Wire Line
	5600 3150 5600 3050
Wire Wire Line
	2000 3150 5600 3150
Connection ~ 2100 3150
Connection ~ 2600 3150
Connection ~ 3100 3150
Connection ~ 3600 3150
Connection ~ 4100 3150
Connection ~ 4600 3150
Connection ~ 5100 3150
Wire Wire Line
	6000 2250 6000 2650
Wire Wire Line
	5500 2250 5500 2650
Wire Wire Line
	5000 2250 5000 2650
Wire Wire Line
	4500 2250 4500 2650
Wire Wire Line
	4000 2250 4000 2650
Wire Wire Line
	3500 2250 3500 2650
Wire Wire Line
	3000 2250 3000 2650
Wire Wire Line
	2500 2250 2500 2650
Connection ~ 2500 3250
Wire Wire Line
	2500 3250 2400 3250
Wire Wire Line
	2100 3350 2100 3250
Connection ~ 3000 3250
Wire Wire Line
	3000 3250 2900 3250
Wire Wire Line
	2600 3350 2600 3250
Connection ~ 3500 3250
Wire Wire Line
	3500 3250 3400 3250
Wire Wire Line
	3100 3350 3100 3250
Connection ~ 4000 3250
Wire Wire Line
	4000 3250 3900 3250
Wire Wire Line
	3600 3350 3600 3250
Connection ~ 4500 3250
Wire Wire Line
	4500 3250 4400 3250
Wire Wire Line
	4100 3350 4100 3250
Connection ~ 5000 3250
Wire Wire Line
	5000 3250 4900 3250
Wire Wire Line
	4600 3350 4600 3250
Connection ~ 5500 3250
Wire Wire Line
	5500 3250 5400 3250
Wire Wire Line
	5100 3350 5100 3250
Connection ~ 6000 3250
Wire Wire Line
	6000 3250 5900 3250
Wire Wire Line
	5600 3350 5600 3250
Wire Wire Line
	2000 3350 5600 3350
Connection ~ 2100 3350
Connection ~ 2600 3350
Connection ~ 3100 3350
Connection ~ 3600 3350
Connection ~ 4100 3350
Connection ~ 4600 3350
Connection ~ 5100 3350
Connection ~ 2500 3450
Wire Wire Line
	2500 3450 2400 3450
Wire Wire Line
	2100 3550 2100 3450
Connection ~ 3000 3450
Wire Wire Line
	3000 3450 2900 3450
Wire Wire Line
	2600 3550 2600 3450
Connection ~ 3500 3450
Wire Wire Line
	3500 3450 3400 3450
Wire Wire Line
	3100 3550 3100 3450
Connection ~ 4000 3450
Wire Wire Line
	4000 3450 3900 3450
Wire Wire Line
	3600 3550 3600 3450
Connection ~ 4500 3450
Wire Wire Line
	4500 3450 4400 3450
Wire Wire Line
	4100 3550 4100 3450
Connection ~ 5000 3450
Wire Wire Line
	5000 3450 4900 3450
Wire Wire Line
	4600 3550 4600 3450
Connection ~ 5500 3450
Wire Wire Line
	5500 3450 5400 3450
Wire Wire Line
	5100 3550 5100 3450
Connection ~ 6000 3450
Wire Wire Line
	6000 3450 5900 3450
Wire Wire Line
	5600 3550 5600 3450
Wire Wire Line
	2000 3550 5600 3550
Connection ~ 2100 3550
Connection ~ 2600 3550
Connection ~ 3100 3550
Connection ~ 3600 3550
Connection ~ 4100 3550
Connection ~ 4600 3550
Connection ~ 5100 3550
$EndSCHEMATC
