EESchema Schematic File Version 2
LIBS:chordboard-components
LIBS:power
LIBS:device
LIBS:transistors
LIBS:conn
LIBS:linear
LIBS:regul
LIBS:74xx
LIBS:cmos4000
LIBS:adc-dac
LIBS:memory
LIBS:xilinx
LIBS:microcontrollers
LIBS:dsp
LIBS:microchip
LIBS:analog_switches
LIBS:motorola
LIBS:texas
LIBS:intel
LIBS:audio
LIBS:interface
LIBS:digital-audio
LIBS:philips
LIBS:display
LIBS:cypress
LIBS:siliconi
LIBS:opto
LIBS:atmel
LIBS:contrib
LIBS:valves
LIBS:wifi-cache
EELAYER 25 0
EELAYER END
$Descr A4 11693 8268
encoding utf-8
Sheet 1 1
Title ""
Date ""
Rev ""
Comp ""
Comment1 ""
Comment2 ""
Comment3 ""
Comment4 ""
$EndDescr
$Comp
L +3.3VA #PWR01
U 1 1 5AA7147E
P 2800 2850
F 0 "#PWR01" H 2800 2700 50  0001 C CNN
F 1 "+3.3VA" H 2800 2990 50  0000 C CNN
F 2 "" H 2800 2850 50  0001 C CNN
F 3 "" H 2800 2850 50  0001 C CNN
	1    2800 2850
	1    0    0    -1  
$EndComp
$Comp
L +3.3VA #PWR02
U 1 1 5AA71484
P 4500 2150
F 0 "#PWR02" H 4500 2000 50  0001 C CNN
F 1 "+3.3VA" H 4500 2290 50  0000 C CNN
F 2 "" H 4500 2150 50  0001 C CNN
F 3 "" H 4500 2150 50  0001 C CNN
	1    4500 2150
	1    0    0    -1  
$EndComp
$Comp
L +3.3VA #PWR03
U 1 1 5AA7148A
P 8800 3050
F 0 "#PWR03" H 8800 2900 50  0001 C CNN
F 1 "+3.3VA" H 8800 3190 50  0000 C CNN
F 2 "" H 8800 3050 50  0001 C CNN
F 3 "" H 8800 3050 50  0001 C CNN
	1    8800 3050
	1    0    0    -1  
$EndComp
$Comp
L GND #PWR04
U 1 1 5AA71490
P 8300 3900
F 0 "#PWR04" H 8300 3650 50  0001 C CNN
F 1 "GND" H 8300 3750 50  0000 C CNN
F 2 "" H 8300 3900 50  0001 C CNN
F 3 "" H 8300 3900 50  0001 C CNN
	1    8300 3900
	-1   0    0    -1  
$EndComp
$Comp
L +5V #PWR05
U 1 1 5AA71496
P 7800 3100
F 0 "#PWR05" H 7800 2950 50  0001 C CNN
F 1 "+5V" H 7800 3240 50  0000 C CNN
F 2 "" H 7800 3100 50  0001 C CNN
F 3 "" H 7800 3100 50  0001 C CNN
	1    7800 3100
	1    0    0    -1  
$EndComp
$Comp
L C C2
U 1 1 5AA7149C
P 7800 3550
F 0 "C2" H 7810 3620 50  0000 L CNN
F 1 "0.1uF" H 7810 3470 50  0000 L CNN
F 2 "chordboard-footprints:C_0805_HandSoldering" H 7800 3550 50  0001 C CNN
F 3 "" H 7800 3550 50  0001 C CNN
	1    7800 3550
	1    0    0    -1  
$EndComp
$Comp
L C C3
U 1 1 5AA714A3
P 8800 3550
F 0 "C3" H 8810 3620 50  0000 L CNN
F 1 "10uF" H 8810 3470 50  0000 L CNN
F 2 "Capacitors_SMD:C_1206_HandSoldering" H 8800 3550 50  0001 C CNN
F 3 "" H 8800 3550 50  0001 C CNN
	1    8800 3550
	1    0    0    -1  
$EndComp
$Comp
L LD1117S33TR U2
U 1 1 5AA714AA
P 8300 3400
F 0 "U2" H 8300 3650 50  0000 C CNN
F 1 "LD1117S33TR" H 8300 3600 50  0000 C CNN
F 2 "TO_SOT_Packages_SMD:SOT-223" H 8300 3500 50  0001 C CNN
F 3 "" H 8300 3400 50  0001 C CNN
	1    8300 3400
	1    0    0    -1  
$EndComp
$Comp
L GND #PWR06
U 1 1 5AA714B1
P 5250 2500
F 0 "#PWR06" H 5250 2250 50  0001 C CNN
F 1 "GND" H 5250 2350 50  0000 C CNN
F 2 "" H 5250 2500 50  0001 C CNN
F 3 "" H 5250 2500 50  0001 C CNN
	1    5250 2500
	1    0    0    -1  
$EndComp
$Comp
L C C1
U 1 1 5AA714B7
P 5250 2350
F 0 "C1" H 5260 2420 50  0000 L CNN
F 1 "10uF" H 5260 2270 50  0000 L CNN
F 2 "Capacitors_SMD:C_1206_HandSoldering" H 5250 2350 50  0001 C CNN
F 3 "" H 5250 2350 50  0001 C CNN
	1    5250 2350
	1    0    0    -1  
$EndComp
$Comp
L GND #PWR07
U 1 1 5AA714BE
P 6450 3600
F 0 "#PWR07" H 6450 3350 50  0001 C CNN
F 1 "GND" H 6450 3450 50  0000 C CNN
F 2 "" H 6450 3600 50  0001 C CNN
F 3 "" H 6450 3600 50  0001 C CNN
	1    6450 3600
	1    0    0    -1  
$EndComp
Text Label 6550 2950 2    60   ~ 0
WIFI_RXD
Text Label 6550 2850 2    60   ~ 0
WIFI_TXD
Text Label 1100 3750 2    60   ~ 0
WIFI_RST
Text Label 1100 3500 2    60   ~ 0
WIFI_PGM
$Comp
L GND #PWR08
U 1 1 5AA714C8
P 1650 4000
F 0 "#PWR08" H 1650 3750 50  0001 C CNN
F 1 "GND" H 1650 3850 50  0000 C CNN
F 2 "" H 1650 4000 50  0001 C CNN
F 3 "" H 1650 4000 50  0001 C CNN
	1    1650 4000
	1    0    0    -1  
$EndComp
$Comp
L GND #PWR09
U 1 1 5AA714CE
P 2800 4050
F 0 "#PWR09" H 2800 3800 50  0001 C CNN
F 1 "GND" H 2800 3900 50  0000 C CNN
F 2 "" H 2800 4050 50  0001 C CNN
F 3 "" H 2800 4050 50  0001 C CNN
	1    2800 4050
	1    0    0    -1  
$EndComp
$Comp
L R RW5
U 1 1 5AA714D4
P 2600 3750
F 0 "RW5" V 2650 3850 50  0000 L CNN
F 1 "10K" V 2600 3700 50  0000 L CNN
F 2 "Resistors_SMD:R_0805_HandSoldering" H 2600 3750 50  0001 C CNN
F 3 "" H 2600 3750 50  0001 C CNN
	1    2600 3750
	0    1    1    0   
$EndComp
$Comp
L R RW4
U 1 1 5AA714DB
P 2600 3600
F 0 "RW4" V 2650 3700 50  0000 L CNN
F 1 "10K" V 2600 3550 50  0000 L CNN
F 2 "Resistors_SMD:R_0805_HandSoldering" H 2600 3600 50  0001 C CNN
F 3 "" H 2600 3600 50  0001 C CNN
	1    2600 3600
	0    1    1    0   
$EndComp
$Comp
L R RW3
U 1 1 5AA714E2
P 2600 3450
F 0 "RW3" V 2650 3550 50  0000 L CNN
F 1 "10K" V 2600 3400 50  0000 L CNN
F 2 "Resistors_SMD:R_0805_HandSoldering" H 2600 3450 50  0001 C CNN
F 3 "" H 2600 3450 50  0001 C CNN
	1    2600 3450
	0    1    1    0   
$EndComp
$Comp
L R RW2
U 1 1 5AA714E9
P 2600 3300
F 0 "RW2" V 2650 3400 50  0000 L CNN
F 1 "10K" V 2600 3250 50  0000 L CNN
F 2 "Resistors_SMD:R_0805_HandSoldering" H 2600 3300 50  0001 C CNN
F 3 "" H 2600 3300 50  0001 C CNN
	1    2600 3300
	0    1    1    0   
$EndComp
$Comp
L R RW1
U 1 1 5AA714F0
P 2600 3150
F 0 "RW1" V 2650 3250 50  0000 L CNN
F 1 "10K" V 2600 3100 50  0000 L CNN
F 2 "Resistors_SMD:R_0805_HandSoldering" H 2600 3150 50  0001 C CNN
F 3 "" H 2600 3150 50  0001 C CNN
	1    2600 3150
	0    1    1    0   
$EndComp
Text Label 2350 3750 2    60   ~ 0
WIFI_15
Text Label 2350 3600 2    60   ~ 0
WIFI_02
Text Label 2350 3450 2    60   ~ 0
WIFI_PGM
Text Label 5400 3450 0    60   ~ 0
WIFI_15
Text Label 5400 3350 0    60   ~ 0
WIFI_02
Text Label 2350 3150 2    60   ~ 0
WIFI_EN
Text Label 2350 3300 2    60   ~ 0
WIFI_RST
Text Label 3600 3050 2    60   ~ 0
WIFI_EN
$Comp
L CONN_01X06 J1
U 1 1 5AA714FF
P 6750 3000
F 0 "J1" H 6750 3350 50  0000 C CNN
F 1 "CONN_01X06" V 6850 3000 50  0000 C CNN
F 2 "Pin_Headers:Pin_Header_Straight_1x06_Pitch2.54mm" H 6750 3000 50  0001 C CNN
F 3 "" H 6750 3000 50  0001 C CNN
	1    6750 3000
	1    0    0    -1  
$EndComp
$Comp
L SPST S2
U 1 1 5AA71506
P 1350 3750
F 0 "S2" H 1340 3835 60  0000 C CNN
F 1 "WRST" H 1350 3655 60  0000 C CNN
F 2 "chordboard-footprints:SW_PUSH_6mm" H 1350 3750 60  0001 C CNN
F 3 "" H 1350 3750 60  0001 C CNN
	1    1350 3750
	-1   0    0    1   
$EndComp
$Comp
L SPST S1
U 1 1 5AA7150D
P 1350 3500
F 0 "S1" H 1340 3585 60  0000 C CNN
F 1 "WPGM" H 1350 3405 60  0000 C CNN
F 2 "chordboard-footprints:SW_PUSH_6mm" H 1350 3500 60  0001 C CNN
F 3 "" H 1350 3500 60  0001 C CNN
	1    1350 3500
	-1   0    0    1   
$EndComp
Text Label 5400 3150 0    60   ~ 0
WIFI_CMDOUT
Text Label 5400 3050 0    60   ~ 0
WIFI_CMDIN
Text Label 5400 3250 0    60   ~ 0
WIFI_PGM
Text Label 5400 2950 0    60   ~ 0
WIFI_RXD
Text Label 5400 2850 0    60   ~ 0
WIFI_TXD
Text Label 3600 2850 2    60   ~ 0
WIFI_RST
$Comp
L GND #PWR010
U 1 1 5AA7151A
P 4500 4100
F 0 "#PWR010" H 4500 3850 50  0001 C CNN
F 1 "GND" H 4500 3950 50  0000 C CNN
F 2 "" H 4500 4100 50  0001 C CNN
F 3 "" H 4500 4100 50  0001 C CNN
	1    4500 4100
	1    0    0    -1  
$EndComp
$Comp
L ESP-12 U1
U 1 1 5AA71520
P 4500 3150
F 0 "U1" H 4500 3050 50  0000 C CNN
F 1 "ESP-12" H 4500 3250 50  0000 C CNN
F 2 "chordboard-footprints:ESP-12_smd" H 4500 3150 50  0001 C CNN
F 3 "" H 4500 3150 50  0001 C CNN
	1    4500 3150
	1    0    0    -1  
$EndComp
Wire Wire Line
	4500 4050 4500 4100
Wire Wire Line
	4500 2150 4500 2250
Wire Wire Line
	2700 3750 2800 3750
Wire Wire Line
	2800 3750 2800 4050
Wire Wire Line
	2800 3600 2700 3600
Wire Wire Line
	2800 2850 2800 3600
Wire Wire Line
	2800 3450 2700 3450
Wire Wire Line
	2800 3300 2700 3300
Connection ~ 2800 3450
Wire Wire Line
	2800 3150 2700 3150
Connection ~ 2800 3300
Connection ~ 2800 3150
Wire Wire Line
	2350 3150 2500 3150
Wire Wire Line
	2350 3300 2500 3300
Wire Wire Line
	2350 3450 2500 3450
Wire Wire Line
	2350 3600 2500 3600
Wire Wire Line
	2350 3750 2500 3750
Wire Wire Line
	1500 3500 1650 3500
Wire Wire Line
	1650 3500 1650 4000
Wire Wire Line
	1650 3750 1500 3750
Connection ~ 1650 3750
Wire Wire Line
	1200 3500 1100 3500
Wire Wire Line
	1200 3750 1100 3750
Wire Wire Line
	6550 3250 6450 3250
Wire Wire Line
	6450 3250 6450 3600
Wire Wire Line
	4500 2200 5250 2200
Connection ~ 4500 2200
Wire Wire Line
	5250 2200 5250 2250
Wire Wire Line
	5250 2500 5250 2450
Wire Wire Line
	8800 3350 8700 3350
Wire Wire Line
	8800 3050 8800 3450
Wire Wire Line
	7800 3350 7900 3350
Wire Wire Line
	8300 3650 8300 3900
Wire Wire Line
	7800 3750 8800 3750
Wire Wire Line
	7800 3750 7800 3650
Wire Wire Line
	8800 3750 8800 3650
Connection ~ 8300 3750
Connection ~ 7800 3350
Connection ~ 8800 3350
Wire Wire Line
	7800 3100 7800 3450
$Comp
L +5V #PWR011
U 1 1 5AA47B1F
P 6550 3050
F 0 "#PWR011" H 6550 2900 50  0001 C CNN
F 1 "+5V" H 6550 3190 50  0000 C CNN
F 2 "" H 6550 3050 50  0001 C CNN
F 3 "" H 6550 3050 50  0001 C CNN
	1    6550 3050
	0    -1   -1   0   
$EndComp
$Comp
L CONN_01X02 J2
U 1 1 5AA47B60
P 6750 2500
F 0 "J2" H 6750 2650 50  0000 C CNN
F 1 "CONN_01X02" V 6850 2500 50  0000 C CNN
F 2 "Pin_Headers:Pin_Header_Straight_1x02_Pitch2.54mm" H 6750 2500 50  0001 C CNN
F 3 "" H 6750 2500 50  0001 C CNN
	1    6750 2500
	1    0    0    -1  
$EndComp
Text Label 6550 2550 2    60   ~ 0
WIFI_RST
Text Label 6550 2450 2    60   ~ 0
WIFI_PGM
$EndSCHEMATC
