G04 #@! TF.FileFunction,Copper,L2,Bot,Signal*
%FSLAX46Y46*%
G04 Gerber Fmt 4.6, Leading zero omitted, Abs format (unit mm)*
G04 Created by KiCad (PCBNEW 4.0.6+dfsg1-1) date Sun Dec 24 15:50:49 2017*
%MOMM*%
%LPD*%
G01*
G04 APERTURE LIST*
%ADD10C,0.100000*%
%ADD11C,1.600000*%
%ADD12R,1.600000X1.600000*%
%ADD13R,1.500000X1.500000*%
%ADD14C,1.500000*%
%ADD15C,2.286000*%
%ADD16C,5.400000*%
%ADD17C,0.600000*%
%ADD18O,1.600000X1.600000*%
%ADD19C,1.800000*%
%ADD20C,4.000000*%
%ADD21C,0.250000*%
G04 APERTURE END LIST*
D10*
D11*
X213995000Y-73025000D03*
X213995000Y-75565000D03*
X213995000Y-78105000D03*
X213995000Y-80645000D03*
X213995000Y-70485000D03*
X213995000Y-67945000D03*
X213995000Y-65405000D03*
X213995000Y-83185000D03*
X213995000Y-85725000D03*
X213995000Y-88265000D03*
X213995000Y-90805000D03*
X198755000Y-90805000D03*
X198755000Y-88265000D03*
X198755000Y-85725000D03*
X198755000Y-83185000D03*
X198755000Y-80645000D03*
X198755000Y-78105000D03*
X198755000Y-75565000D03*
X198755000Y-73025000D03*
X213995000Y-62865000D03*
X213995000Y-60325000D03*
X213995000Y-57785000D03*
X213995000Y-55245000D03*
X213995000Y-52705000D03*
X213995000Y-50165000D03*
X213995000Y-47625000D03*
X213995000Y-45085000D03*
X213995000Y-42545000D03*
X213995000Y-40005000D03*
X213995000Y-37465000D03*
X213995000Y-34925000D03*
D12*
X213995000Y-32385000D03*
D11*
X198755000Y-70485000D03*
X198755000Y-67945000D03*
X198755000Y-65405000D03*
X198755000Y-62865000D03*
X198755000Y-60325000D03*
X198755000Y-57785000D03*
X198755000Y-55245000D03*
X198755000Y-52705000D03*
X198755000Y-50165000D03*
X198755000Y-47625000D03*
X198755000Y-45085000D03*
X198755000Y-42545000D03*
X198755000Y-40005000D03*
X198755000Y-37465000D03*
X198755000Y-34925000D03*
X198755000Y-32385000D03*
D13*
X209804000Y-57658000D03*
D14*
X209804000Y-55118000D03*
X209804000Y-52578000D03*
X209804000Y-50038000D03*
X209804000Y-47498000D03*
X209804000Y-44958000D03*
X209804000Y-42418000D03*
X209804000Y-39878000D03*
X209804000Y-37338000D03*
X146284000Y-52578000D03*
X146284000Y-50038000D03*
X146284000Y-47498000D03*
X146284000Y-44958000D03*
X146284000Y-42418000D03*
D15*
X78105000Y-93345000D03*
X71755000Y-95885000D03*
X97155000Y-93345000D03*
X90805000Y-95885000D03*
X116205000Y-93345000D03*
X109855000Y-95885000D03*
X135255000Y-93345000D03*
X128905000Y-95885000D03*
X154305000Y-93345000D03*
X147955000Y-95885000D03*
X173355000Y-93345000D03*
X167005000Y-95885000D03*
X192405000Y-93345000D03*
X186055000Y-95885000D03*
X78105000Y-74295000D03*
X71755000Y-76835000D03*
X97155000Y-74295000D03*
X90805000Y-76835000D03*
X116205000Y-74295000D03*
X109855000Y-76835000D03*
X135255000Y-74295000D03*
X128905000Y-76835000D03*
X154305000Y-74295000D03*
X147955000Y-76835000D03*
X173355000Y-74295000D03*
X167005000Y-76835000D03*
X192405000Y-74295000D03*
X186055000Y-76835000D03*
X225425000Y-93345000D03*
X219075000Y-95885000D03*
X244475000Y-93345000D03*
X238125000Y-95885000D03*
X263525000Y-93345000D03*
X257175000Y-95885000D03*
X282575000Y-93345000D03*
X276225000Y-95885000D03*
X225425000Y-74295000D03*
X219075000Y-76835000D03*
X244475000Y-74295000D03*
X238125000Y-76835000D03*
X263525000Y-74295000D03*
X257175000Y-76835000D03*
X282575000Y-74295000D03*
X276225000Y-76835000D03*
X225425000Y-55245000D03*
X219075000Y-57785000D03*
X244475000Y-55245000D03*
X238125000Y-57785000D03*
X263525000Y-55245000D03*
X257175000Y-57785000D03*
X282575000Y-55245000D03*
X276225000Y-57785000D03*
D16*
X270510000Y-88900000D03*
D17*
X272535000Y-88900000D03*
X271941891Y-90331891D03*
X270510000Y-90925000D03*
X269078109Y-90331891D03*
X268485000Y-88900000D03*
X269078109Y-87468109D03*
X270510000Y-86875000D03*
X271941891Y-87468109D03*
D16*
X161036000Y-89154000D03*
D17*
X163061000Y-89154000D03*
X162467891Y-90585891D03*
X161036000Y-91179000D03*
X159604109Y-90585891D03*
X159011000Y-89154000D03*
X159604109Y-87722109D03*
X161036000Y-87129000D03*
X162467891Y-87722109D03*
D16*
X85090000Y-88900000D03*
D17*
X87115000Y-88900000D03*
X86521891Y-90331891D03*
X85090000Y-90925000D03*
X83658109Y-90331891D03*
X83065000Y-88900000D03*
X83658109Y-87468109D03*
X85090000Y-86875000D03*
X86521891Y-87468109D03*
D16*
X85090000Y-44450000D03*
D17*
X87115000Y-44450000D03*
X86521891Y-45881891D03*
X85090000Y-46475000D03*
X83658109Y-45881891D03*
X83065000Y-44450000D03*
X83658109Y-43018109D03*
X85090000Y-42425000D03*
X86521891Y-43018109D03*
D16*
X270510000Y-50800000D03*
D17*
X272535000Y-50800000D03*
X271941891Y-52231891D03*
X270510000Y-52825000D03*
X269078109Y-52231891D03*
X268485000Y-50800000D03*
X269078109Y-49368109D03*
X270510000Y-48775000D03*
X271941891Y-49368109D03*
D15*
X225425000Y-36195000D03*
X219075000Y-38735000D03*
X244475000Y-36195000D03*
X238125000Y-38735000D03*
X263525000Y-36195000D03*
X257175000Y-38735000D03*
X282575000Y-36195000D03*
X276225000Y-38735000D03*
D12*
X156845000Y-66675000D03*
D18*
X164465000Y-33655000D03*
X156845000Y-64135000D03*
X164465000Y-36195000D03*
X156845000Y-61595000D03*
X164465000Y-38735000D03*
X156845000Y-59055000D03*
X164465000Y-41275000D03*
X156845000Y-56515000D03*
X164465000Y-43815000D03*
X156845000Y-53975000D03*
X164465000Y-46355000D03*
X156845000Y-51435000D03*
X164465000Y-48895000D03*
X156845000Y-48895000D03*
X164465000Y-51435000D03*
X156845000Y-46355000D03*
X164465000Y-53975000D03*
X156845000Y-43815000D03*
X164465000Y-56515000D03*
X156845000Y-41275000D03*
X164465000Y-59055000D03*
X156845000Y-38735000D03*
X164465000Y-61595000D03*
X156845000Y-36195000D03*
X164465000Y-64135000D03*
X156845000Y-33655000D03*
X164465000Y-66675000D03*
D12*
X175895000Y-66675000D03*
D18*
X183515000Y-33655000D03*
X175895000Y-64135000D03*
X183515000Y-36195000D03*
X175895000Y-61595000D03*
X183515000Y-38735000D03*
X175895000Y-59055000D03*
X183515000Y-41275000D03*
X175895000Y-56515000D03*
X183515000Y-43815000D03*
X175895000Y-53975000D03*
X183515000Y-46355000D03*
X175895000Y-51435000D03*
X183515000Y-48895000D03*
X175895000Y-48895000D03*
X183515000Y-51435000D03*
X175895000Y-46355000D03*
X183515000Y-53975000D03*
X175895000Y-43815000D03*
X183515000Y-56515000D03*
X175895000Y-41275000D03*
X183515000Y-59055000D03*
X175895000Y-38735000D03*
X183515000Y-61595000D03*
X175895000Y-36195000D03*
X183515000Y-64135000D03*
X175895000Y-33655000D03*
X183515000Y-66675000D03*
D16*
X122936000Y-89154000D03*
D17*
X124961000Y-89154000D03*
X124367891Y-90585891D03*
X122936000Y-91179000D03*
X121504109Y-90585891D03*
X120911000Y-89154000D03*
X121504109Y-87722109D03*
X122936000Y-87129000D03*
X124367891Y-87722109D03*
D16*
X207010000Y-99695000D03*
D17*
X209035000Y-99695000D03*
X208441891Y-101126891D03*
X207010000Y-101720000D03*
X205578109Y-101126891D03*
X204985000Y-99695000D03*
X205578109Y-98263109D03*
X207010000Y-97670000D03*
X208441891Y-98263109D03*
D16*
X123190000Y-44450000D03*
D17*
X125215000Y-44450000D03*
X124621891Y-45881891D03*
X123190000Y-46475000D03*
X121758109Y-45881891D03*
X121165000Y-44450000D03*
X121758109Y-43018109D03*
X123190000Y-42425000D03*
X124621891Y-43018109D03*
D16*
X251460000Y-69850000D03*
D17*
X253485000Y-69850000D03*
X252891891Y-71281891D03*
X251460000Y-71875000D03*
X250028109Y-71281891D03*
X249435000Y-69850000D03*
X250028109Y-68418109D03*
X251460000Y-67825000D03*
X252891891Y-68418109D03*
D16*
X232410000Y-50800000D03*
D17*
X234435000Y-50800000D03*
X233841891Y-52231891D03*
X232410000Y-52825000D03*
X230978109Y-52231891D03*
X230385000Y-50800000D03*
X230978109Y-49368109D03*
X232410000Y-48775000D03*
X233841891Y-49368109D03*
D16*
X232410000Y-88900000D03*
D17*
X234435000Y-88900000D03*
X233841891Y-90331891D03*
X232410000Y-90925000D03*
X230978109Y-90331891D03*
X230385000Y-88900000D03*
X230978109Y-87468109D03*
X232410000Y-86875000D03*
X233841891Y-87468109D03*
D12*
X170815000Y-53975000D03*
D11*
X170815000Y-51975000D03*
X172085000Y-48260000D03*
X172085000Y-43260000D03*
X153035000Y-48260000D03*
X153035000Y-43260000D03*
D12*
X151765000Y-53975000D03*
D11*
X151765000Y-51975000D03*
D15*
X135255000Y-48895000D03*
X128905000Y-51435000D03*
X97155000Y-48895000D03*
X90805000Y-51435000D03*
X116205000Y-48895000D03*
X109855000Y-51435000D03*
X78105000Y-48895000D03*
X71755000Y-51435000D03*
D11*
X188595000Y-38735000D03*
D18*
X188595000Y-46355000D03*
D11*
X193675000Y-38735000D03*
D18*
X193675000Y-46355000D03*
D11*
X204470000Y-49530000D03*
D18*
X204470000Y-41910000D03*
D19*
X73105000Y-42545000D03*
X75605000Y-42545000D03*
X78105000Y-42545000D03*
D20*
X71205000Y-35545000D03*
X80005000Y-35545000D03*
D19*
X92155000Y-42545000D03*
X94655000Y-42545000D03*
X97155000Y-42545000D03*
D20*
X90255000Y-35545000D03*
X99055000Y-35545000D03*
D19*
X111205000Y-42545000D03*
X113705000Y-42545000D03*
X116205000Y-42545000D03*
D20*
X109305000Y-35545000D03*
X118105000Y-35545000D03*
D19*
X130255000Y-42545000D03*
X132755000Y-42545000D03*
X135255000Y-42545000D03*
D20*
X128355000Y-35545000D03*
X137155000Y-35545000D03*
D17*
X123503000Y-66229500D03*
X140908300Y-64654800D03*
X152732700Y-62211200D03*
X147902500Y-61463900D03*
X239636700Y-51253700D03*
X195763900Y-83660100D03*
X187769200Y-85238200D03*
D21*
X173990000Y-46355000D02*
X175895000Y-46355000D01*
X172085000Y-48260000D02*
X173990000Y-46355000D01*
X182100300Y-41275000D02*
X183515000Y-41275000D01*
X177020300Y-46355000D02*
X182100300Y-41275000D01*
X175895000Y-46355000D02*
X177020300Y-46355000D01*
X153035000Y-52370000D02*
X153035000Y-48260000D01*
X151765000Y-53640000D02*
X153035000Y-52370000D01*
X151765000Y-53975000D02*
X151765000Y-53640000D01*
X183515000Y-41275000D02*
X184640300Y-41275000D01*
X183515000Y-33655000D02*
X183515000Y-34780300D01*
X183724000Y-34780300D02*
X183515000Y-34780300D01*
X187180300Y-38236600D02*
X183724000Y-34780300D01*
X187180300Y-38735000D02*
X187180300Y-38236600D01*
X188595000Y-38735000D02*
X187180300Y-38735000D01*
X187180300Y-38735000D02*
X184640300Y-41275000D01*
X171865000Y-53975000D02*
X170815000Y-53975000D01*
X172085000Y-53755000D02*
X171865000Y-53975000D01*
X172085000Y-48260000D02*
X172085000Y-53755000D01*
X154940000Y-46355000D02*
X156845000Y-46355000D01*
X153035000Y-48260000D02*
X154940000Y-46355000D01*
X112948500Y-40801500D02*
X111205000Y-42545000D01*
X128511500Y-40801500D02*
X112948500Y-40801500D01*
X130255000Y-42545000D02*
X128511500Y-40801500D01*
X93406400Y-41293600D02*
X92155000Y-42545000D01*
X109953600Y-41293600D02*
X93406400Y-41293600D01*
X111205000Y-42545000D02*
X109953600Y-41293600D01*
X188595000Y-38735000D02*
X193675000Y-38735000D01*
X204470000Y-44110700D02*
X204470000Y-49530000D01*
X199094300Y-38735000D02*
X204470000Y-44110700D01*
X193675000Y-38735000D02*
X199094300Y-38735000D01*
X156290000Y-43260000D02*
X156845000Y-43815000D01*
X153035000Y-43260000D02*
X156290000Y-43260000D01*
X175340000Y-43260000D02*
X175895000Y-43815000D01*
X172085000Y-43260000D02*
X175340000Y-43260000D01*
X116205000Y-42545000D02*
X116205000Y-48895000D01*
X182100300Y-38735000D02*
X177020300Y-43815000D01*
X183515000Y-38735000D02*
X182100300Y-38735000D01*
X175895000Y-43815000D02*
X177020300Y-43815000D01*
X78105000Y-42545000D02*
X78105000Y-48895000D01*
X78105000Y-48895000D02*
X97155000Y-48895000D01*
X238125000Y-38735000D02*
X219075000Y-38735000D01*
X276225000Y-57785000D02*
X257175000Y-57785000D01*
X257175000Y-57785000D02*
X238125000Y-57785000D01*
X147955000Y-76835000D02*
X128905000Y-76835000D01*
X109855000Y-76835000D02*
X90805000Y-76835000D01*
X90805000Y-76835000D02*
X71755000Y-76835000D01*
X128905000Y-95885000D02*
X109855000Y-95885000D01*
X128905000Y-95885000D02*
X147955000Y-95885000D01*
X147955000Y-95885000D02*
X167005000Y-95885000D01*
X170815000Y-51975000D02*
X170815000Y-44530000D01*
X170815000Y-44530000D02*
X172085000Y-43260000D01*
X90805000Y-95885000D02*
X71755000Y-95885000D01*
X90805000Y-95885000D02*
X109855000Y-95885000D01*
X156845000Y-43815000D02*
X157970300Y-43815000D01*
X164465000Y-38735000D02*
X164465000Y-39860300D01*
X164465000Y-39860300D02*
X164465000Y-40012300D01*
X166297300Y-40012300D02*
X164465000Y-40012300D01*
X170815000Y-44530000D02*
X166297300Y-40012300D01*
X161773000Y-40012300D02*
X157970300Y-43815000D01*
X164465000Y-40012300D02*
X161773000Y-40012300D01*
X167005000Y-95885000D02*
X186055000Y-95885000D01*
X151765000Y-51975000D02*
X151765000Y-48768000D01*
X151765000Y-44530000D02*
X153035000Y-43260000D01*
X151765000Y-48768000D02*
X151765000Y-44530000D01*
X135382000Y-42672000D02*
X135382000Y-48768000D01*
X135255000Y-42545000D02*
X135382000Y-42672000D01*
X151765000Y-48768000D02*
X135382000Y-48768000D01*
X135382000Y-48768000D02*
X135255000Y-48895000D01*
X186055000Y-95885000D02*
X219075000Y-95885000D01*
X219075000Y-95885000D02*
X238125000Y-95885000D01*
X211201000Y-56515000D02*
X209804000Y-55118000D01*
X217805000Y-56515000D02*
X211201000Y-56515000D01*
X219075000Y-57785000D02*
X217805000Y-56515000D01*
X159095600Y-35069700D02*
X157970300Y-36195000D01*
X173644400Y-35069700D02*
X159095600Y-35069700D01*
X174769700Y-36195000D02*
X173644400Y-35069700D01*
X175895000Y-36195000D02*
X174769700Y-36195000D01*
X156845000Y-36195000D02*
X157970300Y-36195000D01*
X196070300Y-52705000D02*
X198755000Y-52705000D01*
X189720300Y-46355000D02*
X196070300Y-52705000D01*
X188595000Y-46355000D02*
X189720300Y-46355000D01*
X159095600Y-37609700D02*
X157970300Y-38735000D01*
X173644400Y-37609700D02*
X159095600Y-37609700D01*
X174769700Y-38735000D02*
X173644400Y-37609700D01*
X175895000Y-38735000D02*
X174769700Y-38735000D01*
X156845000Y-38735000D02*
X157970300Y-38735000D01*
X198610300Y-50165000D02*
X198755000Y-50165000D01*
X194800300Y-46355000D02*
X198610300Y-50165000D01*
X193675000Y-46355000D02*
X194800300Y-46355000D01*
X156845000Y-66675000D02*
X155719700Y-66675000D01*
X155274200Y-66229500D02*
X123503000Y-66229500D01*
X155719700Y-66675000D02*
X155274200Y-66229500D01*
X141428100Y-64135000D02*
X140908300Y-64654800D01*
X156845000Y-64135000D02*
X141428100Y-64135000D01*
X156845000Y-59055000D02*
X155719700Y-59055000D01*
X155719700Y-59224200D02*
X152732700Y-62211200D01*
X155719700Y-59055000D02*
X155719700Y-59224200D01*
X164465000Y-51435000D02*
X163339700Y-51435000D01*
X154121400Y-55245000D02*
X147902500Y-61463900D01*
X159529700Y-55245000D02*
X154121400Y-55245000D01*
X163339700Y-51435000D02*
X159529700Y-55245000D01*
X164465000Y-61595000D02*
X165590300Y-61595000D01*
X166754600Y-60430700D02*
X165590300Y-61595000D01*
X176349100Y-60430700D02*
X166754600Y-60430700D01*
X179352300Y-63433900D02*
X176349100Y-60430700D01*
X179352300Y-67370600D02*
X179352300Y-63433900D01*
X186276700Y-74295000D02*
X179352300Y-67370600D01*
X192405000Y-74295000D02*
X186276700Y-74295000D01*
X261068300Y-90888300D02*
X263525000Y-93345000D01*
X243889500Y-90888300D02*
X261068300Y-90888300D01*
X234751500Y-81750300D02*
X243889500Y-90888300D01*
X221843800Y-81750300D02*
X234751500Y-81750300D01*
X216844100Y-76750600D02*
X221843800Y-81750300D01*
X188086400Y-76750600D02*
X216844100Y-76750600D01*
X177020300Y-65684500D02*
X188086400Y-76750600D01*
X177020300Y-63564200D02*
X177020300Y-65684500D01*
X176176400Y-62720300D02*
X177020300Y-63564200D01*
X175895000Y-62720300D02*
X176176400Y-62720300D01*
X175895000Y-61595000D02*
X175895000Y-62720300D01*
X179837900Y-62997900D02*
X175895000Y-59055000D01*
X179837900Y-67218100D02*
X179837900Y-62997900D01*
X185048900Y-72429100D02*
X179837900Y-67218100D01*
X195007800Y-72429100D02*
X185048900Y-72429100D01*
X196873700Y-74295000D02*
X195007800Y-72429100D01*
X222812100Y-74295000D02*
X196873700Y-74295000D01*
X225156900Y-76639800D02*
X222812100Y-74295000D01*
X230298500Y-76639800D02*
X225156900Y-76639800D01*
X235583900Y-81925200D02*
X230298500Y-76639800D01*
X271155200Y-81925200D02*
X235583900Y-81925200D01*
X282575000Y-93345000D02*
X271155200Y-81925200D01*
X175895000Y-53975000D02*
X175895000Y-55100300D01*
X176176300Y-55100300D02*
X175895000Y-55100300D01*
X180774200Y-59698200D02*
X176176300Y-55100300D01*
X180774200Y-67517500D02*
X180774200Y-59698200D01*
X184940500Y-71683800D02*
X180774200Y-67517500D01*
X241863800Y-71683800D02*
X184940500Y-71683800D01*
X244475000Y-74295000D02*
X241863800Y-71683800D01*
X175895000Y-51435000D02*
X175895000Y-52560300D01*
X249150400Y-74295000D02*
X263525000Y-74295000D01*
X243985600Y-69130200D02*
X249150400Y-74295000D01*
X183023800Y-69130200D02*
X243985600Y-69130200D01*
X181316600Y-67423000D02*
X183023800Y-69130200D01*
X181316600Y-57700600D02*
X181316600Y-67423000D01*
X176176300Y-52560300D02*
X181316600Y-57700600D01*
X175895000Y-52560300D02*
X176176300Y-52560300D01*
X175895000Y-48895000D02*
X175895000Y-50020300D01*
X275058800Y-66778800D02*
X282575000Y-74295000D01*
X197698900Y-66778800D02*
X275058800Y-66778800D01*
X196202000Y-68275700D02*
X197698900Y-66778800D01*
X182815100Y-68275700D02*
X196202000Y-68275700D01*
X181806300Y-67266900D02*
X182815100Y-68275700D01*
X181806300Y-55650300D02*
X181806300Y-67266900D01*
X176176300Y-50020300D02*
X181806300Y-55650300D01*
X175895000Y-50020300D02*
X176176300Y-50020300D01*
X221475400Y-51295400D02*
X225425000Y-55245000D01*
X196570500Y-51295400D02*
X221475400Y-51295400D01*
X190498000Y-45222900D02*
X196570500Y-51295400D01*
X188031100Y-45222900D02*
X190498000Y-45222900D01*
X184640300Y-48613700D02*
X188031100Y-45222900D01*
X184640300Y-48895000D02*
X184640300Y-48613700D01*
X183515000Y-48895000D02*
X184640300Y-48895000D01*
X259533700Y-51253700D02*
X239636700Y-51253700D01*
X263525000Y-55245000D02*
X259533700Y-51253700D01*
X280896100Y-55245000D02*
X282575000Y-55245000D01*
X276873500Y-59267600D02*
X280896100Y-55245000D01*
X275561200Y-59267600D02*
X276873500Y-59267600D01*
X275408200Y-59114600D02*
X275561200Y-59267600D01*
X272457000Y-59114600D02*
X275408200Y-59114600D01*
X267544300Y-64027300D02*
X272457000Y-59114600D01*
X197364500Y-64027300D02*
X267544300Y-64027300D01*
X193566500Y-67825300D02*
X197364500Y-64027300D01*
X183071200Y-67825300D02*
X193566500Y-67825300D01*
X182350100Y-67104200D02*
X183071200Y-67825300D01*
X182350100Y-57679900D02*
X182350100Y-67104200D01*
X183515000Y-56515000D02*
X182350100Y-57679900D01*
X183515000Y-46355000D02*
X184640300Y-46355000D01*
X188450300Y-42545000D02*
X184640300Y-46355000D01*
X198755000Y-42545000D02*
X188450300Y-42545000D01*
X183515000Y-43815000D02*
X184640300Y-43815000D01*
X188450300Y-40005000D02*
X198755000Y-40005000D01*
X184640300Y-43815000D02*
X188450300Y-40005000D01*
X217986600Y-36195000D02*
X225425000Y-36195000D01*
X215446600Y-38735000D02*
X217986600Y-36195000D01*
X212560800Y-38735000D02*
X215446600Y-38735000D01*
X209953200Y-41342600D02*
X212560800Y-38735000D01*
X209325300Y-41342600D02*
X209953200Y-41342600D01*
X207853800Y-42814100D02*
X209325300Y-41342600D01*
X207853800Y-47766500D02*
X207853800Y-42814100D01*
X204932100Y-50688200D02*
X207853800Y-47766500D01*
X201909000Y-50688200D02*
X204932100Y-50688200D01*
X200115800Y-48895000D02*
X201909000Y-50688200D01*
X197980100Y-48895000D02*
X200115800Y-48895000D01*
X193854800Y-44769700D02*
X197980100Y-48895000D01*
X187129700Y-44769700D02*
X193854800Y-44769700D01*
X184129800Y-47769600D02*
X187129700Y-44769700D01*
X182986600Y-47769600D02*
X184129800Y-47769600D01*
X182338900Y-48417300D02*
X182986600Y-47769600D01*
X182338900Y-54465500D02*
X182338900Y-48417300D01*
X183118400Y-55245000D02*
X182338900Y-54465500D01*
X183847200Y-55245000D02*
X183118400Y-55245000D01*
X184647400Y-56045200D02*
X183847200Y-55245000D01*
X184647400Y-57078600D02*
X184647400Y-56045200D01*
X183796300Y-57929700D02*
X184647400Y-57078600D01*
X183515000Y-57929700D02*
X183796300Y-57929700D01*
X183515000Y-59055000D02*
X183515000Y-57929700D01*
X183515000Y-61595000D02*
X184640300Y-61595000D01*
X243608000Y-36195000D02*
X244475000Y-36195000D01*
X235961700Y-43841300D02*
X243608000Y-36195000D01*
X235073900Y-43841300D02*
X235961700Y-43841300D01*
X229141300Y-49773900D02*
X235073900Y-43841300D01*
X229141300Y-53619100D02*
X229141300Y-49773900D01*
X226044000Y-56716400D02*
X229141300Y-53619100D01*
X222921000Y-56716400D02*
X226044000Y-56716400D01*
X220221600Y-54017000D02*
X222921000Y-56716400D01*
X192218300Y-54017000D02*
X220221600Y-54017000D01*
X184640300Y-61595000D02*
X192218300Y-54017000D01*
X256086500Y-36195000D02*
X263525000Y-36195000D01*
X249055100Y-43226400D02*
X256086500Y-36195000D01*
X245416900Y-43226400D02*
X249055100Y-43226400D01*
X231463800Y-57179500D02*
X245416900Y-43226400D01*
X221796700Y-57179500D02*
X231463800Y-57179500D01*
X219671500Y-59304700D02*
X221796700Y-57179500D01*
X218448300Y-59304700D02*
X219671500Y-59304700D01*
X218258100Y-59114500D02*
X218448300Y-59304700D01*
X189660800Y-59114500D02*
X218258100Y-59114500D01*
X184640300Y-64135000D02*
X189660800Y-59114500D01*
X183515000Y-64135000D02*
X184640300Y-64135000D01*
X183515000Y-66675000D02*
X184640300Y-66675000D01*
X275136600Y-36195000D02*
X282575000Y-36195000D01*
X266268100Y-45063500D02*
X275136600Y-36195000D01*
X244920800Y-45063500D02*
X266268100Y-45063500D01*
X232354400Y-57629900D02*
X244920800Y-45063500D01*
X222220500Y-57629900D02*
X232354400Y-57629900D01*
X218137300Y-61713100D02*
X222220500Y-57629900D01*
X189602200Y-61713100D02*
X218137300Y-61713100D01*
X184640300Y-66675000D02*
X189602200Y-61713100D01*
X200161400Y-91938600D02*
X213995000Y-78105000D01*
X193075300Y-91938600D02*
X200161400Y-91938600D01*
X186825300Y-85688600D02*
X193075300Y-91938600D01*
X130240200Y-85688600D02*
X186825300Y-85688600D01*
X121387500Y-76835900D02*
X130240200Y-85688600D01*
X116133000Y-76835900D02*
X121387500Y-76835900D01*
X112797200Y-73500100D02*
X116133000Y-76835900D01*
X101869000Y-73500100D02*
X112797200Y-73500100D01*
X79803900Y-51435000D02*
X101869000Y-73500100D01*
X71755000Y-51435000D02*
X79803900Y-51435000D01*
X109855000Y-53481000D02*
X109855000Y-51435000D01*
X124174400Y-67800400D02*
X109855000Y-53481000D01*
X162588600Y-67800400D02*
X124174400Y-67800400D01*
X178413000Y-83624800D02*
X162588600Y-67800400D01*
X195728600Y-83624800D02*
X178413000Y-83624800D01*
X195763900Y-83660100D02*
X195728600Y-83624800D01*
X160908200Y-85238200D02*
X187769200Y-85238200D01*
X146296200Y-70626200D02*
X160908200Y-85238200D01*
X107919900Y-70626200D02*
X146296200Y-70626200D01*
X90805000Y-53511300D02*
X107919900Y-70626200D01*
X90805000Y-51435000D02*
X90805000Y-53511300D01*
X207627300Y-39878000D02*
X209804000Y-39878000D01*
X205595300Y-41910000D02*
X207627300Y-39878000D01*
X204470000Y-41910000D02*
X205595300Y-41910000D01*
X76874800Y-41275200D02*
X75605000Y-42545000D01*
X88997500Y-41275200D02*
X76874800Y-41275200D01*
X91492700Y-43770400D02*
X88997500Y-41275200D01*
X94107000Y-43770400D02*
X91492700Y-43770400D01*
X120512400Y-70175800D02*
X94107000Y-43770400D01*
X153355000Y-70175800D02*
X120512400Y-70175800D01*
X167710600Y-84531400D02*
X153355000Y-70175800D01*
X192481400Y-84531400D02*
X167710600Y-84531400D01*
X198755000Y-90805000D02*
X192481400Y-84531400D01*
X120360800Y-68250800D02*
X94655000Y-42545000D01*
X156274300Y-68250800D02*
X120360800Y-68250800D01*
X172098700Y-84075200D02*
X156274300Y-68250800D01*
X194565200Y-84075200D02*
X172098700Y-84075200D01*
X198755000Y-88265000D02*
X194565200Y-84075200D01*
X195624900Y-82594900D02*
X198755000Y-85725000D01*
X182017500Y-82594900D02*
X195624900Y-82594900D01*
X176927000Y-77504400D02*
X182017500Y-82594900D01*
X173517700Y-77504400D02*
X176927000Y-77504400D01*
X161562900Y-65549600D02*
X173517700Y-77504400D01*
X140873100Y-65549600D02*
X161562900Y-65549600D01*
X128088000Y-52764500D02*
X140873100Y-65549600D01*
X127179300Y-52764500D02*
X128088000Y-52764500D01*
X118231900Y-43817100D02*
X127179300Y-52764500D01*
X118231900Y-42820800D02*
X118231900Y-43817100D01*
X116702600Y-41291500D02*
X118231900Y-42820800D01*
X114958500Y-41291500D02*
X116702600Y-41291500D01*
X113705000Y-42545000D02*
X114958500Y-41291500D01*
X197264300Y-81694300D02*
X198755000Y-83185000D01*
X184372500Y-81694300D02*
X197264300Y-81694300D01*
X165543200Y-62865000D02*
X184372500Y-81694300D01*
X148371400Y-62865000D02*
X165543200Y-62865000D01*
X138291900Y-52785500D02*
X148371400Y-62865000D01*
X137058100Y-52785500D02*
X138291900Y-52785500D01*
X132755000Y-48482400D02*
X137058100Y-52785500D01*
X132755000Y-42545000D02*
X132755000Y-48482400D01*
M02*
